0 20.950827227546693 ['226', '38', '117', '6', '90', '19', '191', '7', '75', '192', '263', '139', '109', '106', '35', '107', '13', '222', '120', '42', '155', '214', '162', '87', '76', '236', '270', '1'] 1066.9320614595672
1 20.756287113814157 ['3', '20', '153', '102', '263', '17', '37', '6', '188', '236', '58', '97', '223', '142', '52', '30', '179', '224', '171', '80', '94', '110', '239', '73', '162', '280', '16', '144'] 1057.5438061631194
2 20.756287113814157 ['3', '20', '153', '102', '263', '17', '37', '6', '188', '236', '58', '97', '223', '142', '52', '30', '179', '224', '171', '80', '94', '110', '239', '73', '162', '280', '16', '144'] 1050.182826073028
3 20.53017706484946 ['79', '11', '56', '242', '142', '153', '40', '31', '52', '20', '214', '64', '133', '22', '222', '8', '18', '216', '14', '198', '151', '268', '57', '149', '228', '159', '175', '16'] 1043.419467449242
4 20.148025096532308 ['132', '31', '11', '239', '14', '112', '88', '164', '248', '106', '134', '198', '185', '44', '16', '8', '269', '177', '191', '18', '217', '68', '143', '201', '85', '29', '6', '56'] 1036.079176522714
5 20.148025096532308 ['132', '31', '11', '239', '14', '112', '88', '164', '248', '106', '134', '198', '185', '44', '16', '8', '269', '177', '191', '18', '217', '68', '143', '201', '85', '29', '6', '56'] 1029.6650982134236
6 19.89097800393885 ['18', '56', '64', '16', '95', '4', '147', '14', '174', '184', '159', '112', '17', '98', '6', '30', '146', '153', '117', '50', '269', '139', '263', '31', '24', '191', '149', '106'] 1020.209540845457
7 19.86379944724113 ['1', '31', '56', '30', '109', '11', '155', '6', '16', '110', '18', '17', '98', '29', '184', '134', '159', '42', '149', '7', '22', '146', '88', '5', '233', '239', '39', '192'] 1011.5192934024908
8 19.729279362374342 ['112', '14', '106', '248', '16', '11', '164', '31', '6', '18', '191', '239', '185', '56', '30', '51', '65', '134', '234', '143', '188', '121', '198', '177', '280', '68', '183', '44'] 1004.6549519431052
9 19.52133339225767 ['6', '112', '16', '18', '30', '153', '56', '117', '106', '175', '139', '86', '143', '31', '242', '14', '174', '8', '95', '201', '75', '222', '162', '147', '159', '42', '50', '24'] 997.6764404513456
10 19.299981141137454 ['16', '188', '65', '18', '14', '56', '106', '143', '6', '134', '191', '68', '93', '30', '31', '86', '11', '112', '200', '248', '150', '20', '110', '164', '135', '54', '44', '190'] 990.4049271609957
11 19.299981141137454 ['16', '188', '65', '18', '14', '56', '106', '143', '6', '134', '191', '68', '93', '30', '31', '86', '11', '112', '200', '248', '150', '20', '110', '164', '135', '54', '44', '190'] 984.3194189166232
12 19.299981141137454 ['16', '188', '65', '18', '14', '56', '106', '143', '6', '134', '191', '68', '93', '30', '31', '86', '11', '112', '200', '248', '150', '20', '110', '164', '135', '54', '44', '190'] 979.0905699864471
13 19.179511224787507 ['56', '239', '30', '11', '18', '51', '106', '6', '191', '8', '16', '14', '188', '162', '68', '29', '20', '169', '280', '146', '112', '86', '98', '139', '217', '44', '134', '31'] 972.6037115403949
14 19.093589003780572 ['191', '18', '14', '106', '139', '146', '30', '6', '98', '16', '56', '39', '8', '29', '280', '110', '58', '201', '233', '164', '134', '86', '57', '239', '54', '153', '68', '112'] 966.496017945349
15 18.896044145743613 ['56', '65', '198', '68', '110', '35', '6', '11', '135', '31', '112', '86', '143', '188', '14', '106', '18', '16', '190', '164', '27', '5', '1', '111', '30', '153', '134', '20'] 960.6995249321756
16 18.74735285235101 ['16', '112', '11', '31', '6', '146', '18', '20', '191', '188', '135', '14', '134', '150', '86', '30', '56', '98', '10', '54', '80', '29', '5', '110', '179', '143', '35', '65'] 955.6176206724567
17 18.736972408368093 ['20', '18', '11', '146', '56', '134', '191', '188', '110', '135', '14', '30', '98', '5', '112', '16', '29', '80', '86', '6', '35', '31', '201', '179', '65', '10', '27', '143'] 949.2521924794912
18 18.683431708392124 ['86', '31', '5', '135', '11', '134', '188', '110', '56', '65', '20', '14', '6', '112', '16', '35', '18', '30', '175', '150', '68', '98', '222', '139', '153', '1', '198', '146'] 943.8852244462813
19 18.605447854857502 ['191', '14', '16', '110', '179', '56', '20', '112', '188', '134', '98', '65', '6', '5', '146', '135', '18', '86', '164', '47', '29', '106', '31', '143', '1', '54', '10', '30'] 940.2490209987717
20 18.573368275886452 ['135', '14', '35', '10', '29', '16', '18', '112', '5', '143', '65', '191', '20', '6', '146', '31', '134', '110', '188', '56', '86', '98', '1', '27', '11', '30', '153', '179'] 936.8790026106991
21 18.471040534983604 ['11', '110', '14', '191', '86', '65', '112', '18', '153', '20', '98', '30', '56', '31', '16', '135', '134', '29', '188', '6', '68', '35', '143', '5', '146', '8', '179', '1'] 933.4111415536379
22 18.460500516604856 ['30', '134', '179', '98', '56', '16', '112', '86', '31', '110', '1', '6', '143', '18', '29', '5', '135', '14', '65', '11', '188', '146', '106', '153', '68', '47', '54', '8'] 930.4364570725172
23 18.421070210159726 ['1', '56', '65', '153', '112', '54', '30', '29', '86', '18', '110', '5', '134', '179', '8', '146', '14', '6', '16', '68', '98', '143', '11', '20', '31', '47', '106', '35'] 927.4380153448052
24 18.392064124513894 ['20', '47', '179', '143', '29', '16', '14', '18', '30', '106', '31', '6', '146', '98', '65', '1', '134', '112', '110', '68', '56', '5', '86', '8', '139', '153', '164', '11'] 925.1940140661867
25 18.392064124513894 ['20', '47', '179', '143', '29', '16', '14', '18', '30', '106', '31', '6', '146', '98', '65', '1', '134', '112', '110', '68', '56', '5', '86', '8', '139', '153', '164', '11'] 923.4644576062691
26 18.322142875640544 ['1', '143', '18', '20', '65', '134', '112', '16', '86', '5', '31', '30', '146', '14', '110', '98', '54', '6', '35', '8', '56', '179', '47', '106', '39', '188', '153', '68'] 921.7585796769513
27 18.322142875640544 ['1', '143', '18', '20', '65', '134', '112', '16', '86', '5', '31', '30', '146', '14', '110', '98', '54', '6', '35', '8', '56', '179', '47', '106', '39', '188', '153', '68'] 920.1060440114233
28 18.318440046715885 ['139', '146', '110', '65', '56', '16', '6', '20', '143', '98', '31', '47', '106', '1', '8', '14', '112', '30', '86', '5', '134', '35', '18', '135', '54', '153', '39', '68'] 918.7347341171119
29 18.294840410635526 ['1', '31', '16', '6', '35', '153', '30', '134', '86', '65', '18', '112', '14', '98', '139', '143', '47', '146', '110', '5', '8', '56', '20', '106', '39', '159', '68', '54'] 917.4864973085835
30 18.290622207011356 ['98', '30', '14', '56', '6', '86', '8', '47', '146', '153', '68', '20', '188', '31', '18', '134', '65', '1', '139', '35', '16', '110', '5', '143', '112', '54', '179', '10'] 916.5391998339969
31 18.282299952747703 ['139', '65', '39', '35', '8', '134', '20', '31', '143', '6', '5', '18', '146', '16', '112', '153', '1', '47', '86', '56', '110', '30', '98', '14', '188', '54', '68', '106'] 915.6621803602981
32 18.282299952747703 ['139', '65', '39', '35', '8', '134', '20', '31', '143', '6', '5', '18', '146', '16', '112', '153', '1', '47', '86', '56', '110', '30', '98', '14', '188', '54', '68', '106'] 915.048084593547
33 18.274856131097135 ['146', '31', '86', '20', '134', '35', '68', '188', '1', '47', '110', '153', '112', '6', '30', '16', '139', '98', '5', '8', '65', '18', '14', '56', '143', '179', '39', '54'] 914.5450727757915
34 18.26669240875048 ['68', '8', '139', '65', '56', '20', '35', '98', '112', '5', '30', '146', '134', '18', '16', '14', '86', '6', '110', '31', '39', '47', '153', '143', '1', '188', '80', '179'] 914.1806452442579
35 18.26669240875048 ['68', '8', '139', '65', '56', '20', '35', '98', '112', '5', '30', '146', '134', '18', '16', '14', '86', '6', '110', '31', '39', '47', '153', '143', '1', '188', '80', '179'] 913.9012704417657
36 18.26669240875048 ['68', '8', '139', '65', '56', '20', '35', '98', '112', '5', '30', '146', '134', '18', '16', '14', '86', '6', '110', '31', '39', '47', '153', '143', '1', '188', '80', '179'] 913.7114710131381
37 18.26669240875048 ['68', '8', '139', '65', '56', '20', '35', '98', '112', '5', '30', '146', '134', '18', '16', '14', '86', '6', '110', '31', '39', '47', '153', '143', '1', '188', '80', '179'] 913.5717876005884
38 18.26669240875048 ['68', '8', '139', '65', '56', '20', '35', '98', '112', '5', '30', '146', '134', '18', '16', '14', '86', '6', '110', '31', '39', '47', '153', '143', '1', '188', '80', '179'] 913.4136289207371
39 18.26669240875048 ['68', '8', '139', '65', '56', '20', '35', '98', '112', '5', '30', '146', '134', '18', '16', '14', '86', '6', '110', '31', '39', '47', '153', '143', '1', '188', '80', '179'] 913.3346204375242
40 18.26669240875048 ['68', '8', '139', '65', '56', '20', '35', '98', '112', '5', '30', '146', '134', '18', '16', '14', '86', '6', '110', '31', '39', '47', '153', '143', '1', '188', '80', '179'] 913.3346204375242
41 18.26669240875048 ['68', '8', '139', '65', '56', '20', '35', '98', '112', '5', '30', '146', '134', '18', '16', '14', '86', '6', '110', '31', '39', '47', '153', '143', '1', '188', '80', '179'] 913.3346204375242
42 18.26669240875048 ['68', '8', '139', '65', '56', '20', '35', '98', '112', '5', '30', '146', '134', '18', '16', '14', '86', '6', '110', '31', '39', '47', '153', '143', '1', '188', '80', '179'] 913.3346204375242
43 18.26669240875048 ['68', '8', '139', '65', '56', '20', '35', '98', '112', '5', '30', '146', '134', '18', '16', '14', '86', '6', '110', '31', '39', '47', '153', '143', '1', '188', '80', '179'] 913.3346204375242
44 18.26669240875048 ['68', '8', '139', '65', '56', '20', '35', '98', '112', '5', '30', '146', '134', '18', '16', '14', '86', '6', '110', '31', '39', '47', '153', '143', '1', '188', '80', '179'] 913.3346204375242
45 18.26669240875048 ['68', '8', '139', '65', '56', '20', '35', '98', '112', '5', '30', '146', '134', '18', '16', '14', '86', '6', '110', '31', '39', '47', '153', '143', '1', '188', '80', '179'] 913.3346204375242
46 18.26669240875048 ['68', '8', '139', '65', '56', '20', '35', '98', '112', '5', '30', '146', '134', '18', '16', '14', '86', '6', '110', '31', '39', '47', '153', '143', '1', '188', '80', '179'] 913.3346204375242
47 18.26669240875048 ['68', '8', '139', '65', '56', '20', '35', '98', '112', '5', '30', '146', '134', '18', '16', '14', '86', '6', '110', '31', '39', '47', '153', '143', '1', '188', '80', '179'] 913.3346204375242
48 18.26669240875048 ['68', '8', '139', '65', '56', '20', '35', '98', '112', '5', '30', '146', '134', '18', '16', '14', '86', '6', '110', '31', '39', '47', '153', '143', '1', '188', '80', '179'] 913.3346204375242
49 18.26669240875048 ['68', '8', '139', '65', '56', '20', '35', '98', '112', '5', '30', '146', '134', '18', '16', '14', '86', '6', '110', '31', '39', '47', '153', '143', '1', '188', '80', '179'] 913.3346204375242
50 18.26669240875048 ['68', '8', '139', '65', '56', '20', '35', '98', '112', '5', '30', '146', '134', '18', '16', '14', '86', '6', '110', '31', '39', '47', '153', '143', '1', '188', '80', '179'] 913.3346204375242
51 18.26669240875048 ['68', '8', '139', '65', '56', '20', '35', '98', '112', '5', '30', '146', '134', '18', '16', '14', '86', '6', '110', '31', '39', '47', '153', '143', '1', '188', '80', '179'] 913.3346204375242
52 18.26669240875048 ['68', '8', '139', '65', '56', '20', '35', '98', '112', '5', '30', '146', '134', '18', '16', '14', '86', '6', '110', '31', '39', '47', '153', '143', '1', '188', '80', '179'] 913.3346204375242
53 18.26669240875048 ['68', '8', '139', '65', '56', '20', '35', '98', '112', '5', '30', '146', '134', '18', '16', '14', '86', '6', '110', '31', '39', '47', '153', '143', '1', '188', '80', '179'] 913.3346204375242
54 18.26669240875048 ['68', '8', '139', '65', '56', '20', '35', '98', '112', '5', '30', '146', '134', '18', '16', '14', '86', '6', '110', '31', '39', '47', '153', '143', '1', '188', '80', '179'] 913.3346204375242
55 18.26669240875048 ['68', '8', '139', '65', '56', '20', '35', '98', '112', '5', '30', '146', '134', '18', '16', '14', '86', '6', '110', '31', '39', '47', '153', '143', '1', '188', '80', '179'] 913.3346204375242
56 18.26669240875048 ['68', '8', '139', '65', '56', '20', '35', '98', '112', '5', '30', '146', '134', '18', '16', '14', '86', '6', '110', '31', '39', '47', '153', '143', '1', '188', '80', '179'] 913.3346204375242
57 18.26669240875048 ['68', '8', '139', '65', '56', '20', '35', '98', '112', '5', '30', '146', '134', '18', '16', '14', '86', '6', '110', '31', '39', '47', '153', '143', '1', '188', '80', '179'] 913.3346204375242
58 18.26669240875048 ['68', '8', '139', '65', '56', '20', '35', '98', '112', '5', '30', '146', '134', '18', '16', '14', '86', '6', '110', '31', '39', '47', '153', '143', '1', '188', '80', '179'] 913.3346204375242
59 18.26669240875048 ['68', '8', '139', '65', '56', '20', '35', '98', '112', '5', '30', '146', '134', '18', '16', '14', '86', '6', '110', '31', '39', '47', '153', '143', '1', '188', '80', '179'] 913.3346204375242
60 18.26669240875048 ['68', '8', '139', '65', '56', '20', '35', '98', '112', '5', '30', '146', '134', '18', '16', '14', '86', '6', '110', '31', '39', '47', '153', '143', '1', '188', '80', '179'] 913.3346204375242
61 18.26669240875048 ['68', '8', '139', '65', '56', '20', '35', '98', '112', '5', '30', '146', '134', '18', '16', '14', '86', '6', '110', '31', '39', '47', '153', '143', '1', '188', '80', '179'] 913.3346204375242
62 18.26669240875048 ['68', '8', '139', '65', '56', '20', '35', '98', '112', '5', '30', '146', '134', '18', '16', '14', '86', '6', '110', '31', '39', '47', '153', '143', '1', '188', '80', '179'] 913.3346204375242
63 18.26669240875048 ['68', '8', '139', '65', '56', '20', '35', '98', '112', '5', '30', '146', '134', '18', '16', '14', '86', '6', '110', '31', '39', '47', '153', '143', '1', '188', '80', '179'] 913.3346204375242
64 18.26669240875048 ['68', '8', '139', '65', '56', '20', '35', '98', '112', '5', '30', '146', '134', '18', '16', '14', '86', '6', '110', '31', '39', '47', '153', '143', '1', '188', '80', '179'] 913.3346204375242
65 18.26669240875048 ['68', '8', '139', '65', '56', '20', '35', '98', '112', '5', '30', '146', '134', '18', '16', '14', '86', '6', '110', '31', '39', '47', '153', '143', '1', '188', '80', '179'] 913.3346204375242
66 18.26669240875048 ['68', '8', '139', '65', '56', '20', '35', '98', '112', '5', '30', '146', '134', '18', '16', '14', '86', '6', '110', '31', '39', '47', '153', '143', '1', '188', '80', '179'] 913.3346204375242
67 18.26669240875048 ['68', '8', '139', '65', '56', '20', '35', '98', '112', '5', '30', '146', '134', '18', '16', '14', '86', '6', '110', '31', '39', '47', '153', '143', '1', '188', '80', '179'] 913.3346204375242
68 18.26669240875048 ['68', '8', '139', '65', '56', '20', '35', '98', '112', '5', '30', '146', '134', '18', '16', '14', '86', '6', '110', '31', '39', '47', '153', '143', '1', '188', '80', '179'] 913.3346204375242
69 18.26669240875048 ['68', '8', '139', '65', '56', '20', '35', '98', '112', '5', '30', '146', '134', '18', '16', '14', '86', '6', '110', '31', '39', '47', '153', '143', '1', '188', '80', '179'] 913.3346204375242
70 18.26669240875048 ['68', '8', '139', '65', '56', '20', '35', '98', '112', '5', '30', '146', '134', '18', '16', '14', '86', '6', '110', '31', '39', '47', '153', '143', '1', '188', '80', '179'] 913.3346204375242
71 18.26669240875048 ['68', '8', '139', '65', '56', '20', '35', '98', '112', '5', '30', '146', '134', '18', '16', '14', '86', '6', '110', '31', '39', '47', '153', '143', '1', '188', '80', '179'] 913.3346204375242
72 18.26669240875048 ['68', '8', '139', '65', '56', '20', '35', '98', '112', '5', '30', '146', '134', '18', '16', '14', '86', '6', '110', '31', '39', '47', '153', '143', '1', '188', '80', '179'] 913.3346204375242
73 18.26669240875048 ['68', '8', '139', '65', '56', '20', '35', '98', '112', '5', '30', '146', '134', '18', '16', '14', '86', '6', '110', '31', '39', '47', '153', '143', '1', '188', '80', '179'] 913.3346204375242
74 18.26669240875048 ['68', '8', '139', '65', '56', '20', '35', '98', '112', '5', '30', '146', '134', '18', '16', '14', '86', '6', '110', '31', '39', '47', '153', '143', '1', '188', '80', '179'] 913.3346204375242
75 18.26669240875048 ['68', '8', '139', '65', '56', '20', '35', '98', '112', '5', '30', '146', '134', '18', '16', '14', '86', '6', '110', '31', '39', '47', '153', '143', '1', '188', '80', '179'] 913.3346204375242
76 18.26669240875048 ['68', '8', '139', '65', '56', '20', '35', '98', '112', '5', '30', '146', '134', '18', '16', '14', '86', '6', '110', '31', '39', '47', '153', '143', '1', '188', '80', '179'] 913.3346204375242
77 18.26669240875048 ['68', '8', '139', '65', '56', '20', '35', '98', '112', '5', '30', '146', '134', '18', '16', '14', '86', '6', '110', '31', '39', '47', '153', '143', '1', '188', '80', '179'] 913.3346204375242
78 18.26669240875048 ['68', '8', '139', '65', '56', '20', '35', '98', '112', '5', '30', '146', '134', '18', '16', '14', '86', '6', '110', '31', '39', '47', '153', '143', '1', '188', '80', '179'] 913.3346204375242
79 18.26669240875048 ['68', '8', '139', '65', '56', '20', '35', '98', '112', '5', '30', '146', '134', '18', '16', '14', '86', '6', '110', '31', '39', '47', '153', '143', '1', '188', '80', '179'] 913.3346204375242
80 18.26669240875048 ['68', '8', '139', '65', '56', '20', '35', '98', '112', '5', '30', '146', '134', '18', '16', '14', '86', '6', '110', '31', '39', '47', '153', '143', '1', '188', '80', '179'] 913.3346204375242
81 18.26669240875048 ['68', '8', '139', '65', '56', '20', '35', '98', '112', '5', '30', '146', '134', '18', '16', '14', '86', '6', '110', '31', '39', '47', '153', '143', '1', '188', '80', '179'] 913.3346204375242
82 18.26669240875048 ['68', '8', '139', '65', '56', '20', '35', '98', '112', '5', '30', '146', '134', '18', '16', '14', '86', '6', '110', '31', '39', '47', '153', '143', '1', '188', '80', '179'] 913.3346204375242
83 18.26669240875048 ['68', '8', '139', '65', '56', '20', '35', '98', '112', '5', '30', '146', '134', '18', '16', '14', '86', '6', '110', '31', '39', '47', '153', '143', '1', '188', '80', '179'] 913.3346204375242
84 18.26669240875048 ['68', '8', '139', '65', '56', '20', '35', '98', '112', '5', '30', '146', '134', '18', '16', '14', '86', '6', '110', '31', '39', '47', '153', '143', '1', '188', '80', '179'] 913.3346204375242
85 18.26669240875048 ['68', '8', '139', '65', '56', '20', '35', '98', '112', '5', '30', '146', '134', '18', '16', '14', '86', '6', '110', '31', '39', '47', '153', '143', '1', '188', '80', '179'] 913.3346204375242
86 18.26669240875048 ['68', '8', '139', '65', '56', '20', '35', '98', '112', '5', '30', '146', '134', '18', '16', '14', '86', '6', '110', '31', '39', '47', '153', '143', '1', '188', '80', '179'] 913.3346204375242
87 18.26669240875048 ['68', '8', '139', '65', '56', '20', '35', '98', '112', '5', '30', '146', '134', '18', '16', '14', '86', '6', '110', '31', '39', '47', '153', '143', '1', '188', '80', '179'] 913.3346204375242
88 18.26669240875048 ['68', '8', '139', '65', '56', '20', '35', '98', '112', '5', '30', '146', '134', '18', '16', '14', '86', '6', '110', '31', '39', '47', '153', '143', '1', '188', '80', '179'] 913.3346204375242
89 18.26669240875048 ['68', '8', '139', '65', '56', '20', '35', '98', '112', '5', '30', '146', '134', '18', '16', '14', '86', '6', '110', '31', '39', '47', '153', '143', '1', '188', '80', '179'] 913.3346204375242
90 18.26669240875048 ['68', '8', '139', '65', '56', '20', '35', '98', '112', '5', '30', '146', '134', '18', '16', '14', '86', '6', '110', '31', '39', '47', '153', '143', '1', '188', '80', '179'] 913.3346204375242
91 18.26669240875048 ['68', '8', '139', '65', '56', '20', '35', '98', '112', '5', '30', '146', '134', '18', '16', '14', '86', '6', '110', '31', '39', '47', '153', '143', '1', '188', '80', '179'] 913.3346204375242
92 18.26669240875048 ['68', '8', '139', '65', '56', '20', '35', '98', '112', '5', '30', '146', '134', '18', '16', '14', '86', '6', '110', '31', '39', '47', '153', '143', '1', '188', '80', '179'] 913.3346204375242
93 18.26669240875048 ['68', '8', '139', '65', '56', '20', '35', '98', '112', '5', '30', '146', '134', '18', '16', '14', '86', '6', '110', '31', '39', '47', '153', '143', '1', '188', '80', '179'] 913.3346204375242
94 18.26669240875048 ['68', '8', '139', '65', '56', '20', '35', '98', '112', '5', '30', '146', '134', '18', '16', '14', '86', '6', '110', '31', '39', '47', '153', '143', '1', '188', '80', '179'] 913.3346204375242
95 18.26669240875048 ['68', '8', '139', '65', '56', '20', '35', '98', '112', '5', '30', '146', '134', '18', '16', '14', '86', '6', '110', '31', '39', '47', '153', '143', '1', '188', '80', '179'] 913.3346204375242
96 18.26669240875048 ['68', '8', '139', '65', '56', '20', '35', '98', '112', '5', '30', '146', '134', '18', '16', '14', '86', '6', '110', '31', '39', '47', '153', '143', '1', '188', '80', '179'] 913.3346204375242
97 18.26669240875048 ['68', '8', '139', '65', '56', '20', '35', '98', '112', '5', '30', '146', '134', '18', '16', '14', '86', '6', '110', '31', '39', '47', '153', '143', '1', '188', '80', '179'] 913.3346204375242
98 18.26669240875048 ['68', '8', '139', '65', '56', '20', '35', '98', '112', '5', '30', '146', '134', '18', '16', '14', '86', '6', '110', '31', '39', '47', '153', '143', '1', '188', '80', '179'] 913.3346204375242
99 18.26669240875048 ['68', '8', '139', '65', '56', '20', '35', '98', '112', '5', '30', '146', '134', '18', '16', '14', '86', '6', '110', '31', '39', '47', '153', '143', '1', '188', '80', '179'] 913.3346204375242
100 18.26669240875048 ['68', '8', '139', '65', '56', '20', '35', '98', '112', '5', '30', '146', '134', '18', '16', '14', '86', '6', '110', '31', '39', '47', '153', '143', '1', '188', '80', '179'] 913.3346204375242
101 18.26669240875048 ['68', '8', '139', '65', '56', '20', '35', '98', '112', '5', '30', '146', '134', '18', '16', '14', '86', '6', '110', '31', '39', '47', '153', '143', '1', '188', '80', '179'] 913.3346204375242
102 18.26669240875048 ['68', '8', '139', '65', '56', '20', '35', '98', '112', '5', '30', '146', '134', '18', '16', '14', '86', '6', '110', '31', '39', '47', '153', '143', '1', '188', '80', '179'] 913.3346204375242
103 18.26669240875048 ['68', '8', '139', '65', '56', '20', '35', '98', '112', '5', '30', '146', '134', '18', '16', '14', '86', '6', '110', '31', '39', '47', '153', '143', '1', '188', '80', '179'] 913.3346204375242
104 18.26669240875048 ['68', '8', '139', '65', '56', '20', '35', '98', '112', '5', '30', '146', '134', '18', '16', '14', '86', '6', '110', '31', '39', '47', '153', '143', '1', '188', '80', '179'] 913.3346204375242
105 18.26669240875048 ['68', '8', '139', '65', '56', '20', '35', '98', '112', '5', '30', '146', '134', '18', '16', '14', '86', '6', '110', '31', '39', '47', '153', '143', '1', '188', '80', '179'] 913.3346204375242
106 18.26669240875048 ['68', '8', '139', '65', '56', '20', '35', '98', '112', '5', '30', '146', '134', '18', '16', '14', '86', '6', '110', '31', '39', '47', '153', '143', '1', '188', '80', '179'] 913.3346204375242
107 18.26669240875048 ['68', '8', '139', '65', '56', '20', '35', '98', '112', '5', '30', '146', '134', '18', '16', '14', '86', '6', '110', '31', '39', '47', '153', '143', '1', '188', '80', '179'] 913.3346204375242
108 18.26669240875048 ['68', '8', '139', '65', '56', '20', '35', '98', '112', '5', '30', '146', '134', '18', '16', '14', '86', '6', '110', '31', '39', '47', '153', '143', '1', '188', '80', '179'] 913.3346204375242
109 18.26669240875048 ['68', '8', '139', '65', '56', '20', '35', '98', '112', '5', '30', '146', '134', '18', '16', '14', '86', '6', '110', '31', '39', '47', '153', '143', '1', '188', '80', '179'] 913.3346204375242
110 18.26669240875048 ['68', '8', '139', '65', '56', '20', '35', '98', '112', '5', '30', '146', '134', '18', '16', '14', '86', '6', '110', '31', '39', '47', '153', '143', '1', '188', '80', '179'] 913.3346204375242
111 18.26669240875048 ['68', '8', '139', '65', '56', '20', '35', '98', '112', '5', '30', '146', '134', '18', '16', '14', '86', '6', '110', '31', '39', '47', '153', '143', '1', '188', '80', '179'] 913.3346204375242
112 18.26669240875048 ['68', '8', '139', '65', '56', '20', '35', '98', '112', '5', '30', '146', '134', '18', '16', '14', '86', '6', '110', '31', '39', '47', '153', '143', '1', '188', '80', '179'] 913.3346204375242
113 18.26669240875048 ['68', '8', '139', '65', '56', '20', '35', '98', '112', '5', '30', '146', '134', '18', '16', '14', '86', '6', '110', '31', '39', '47', '153', '143', '1', '188', '80', '179'] 913.3346204375242
114 18.26669240875048 ['68', '8', '139', '65', '56', '20', '35', '98', '112', '5', '30', '146', '134', '18', '16', '14', '86', '6', '110', '31', '39', '47', '153', '143', '1', '188', '80', '179'] 913.3346204375242
115 18.26669240875048 ['68', '8', '139', '65', '56', '20', '35', '98', '112', '5', '30', '146', '134', '18', '16', '14', '86', '6', '110', '31', '39', '47', '153', '143', '1', '188', '80', '179'] 913.3346204375242
116 18.26669240875048 ['68', '8', '139', '65', '56', '20', '35', '98', '112', '5', '30', '146', '134', '18', '16', '14', '86', '6', '110', '31', '39', '47', '153', '143', '1', '188', '80', '179'] 913.3346204375242
117 18.26669240875048 ['68', '8', '139', '65', '56', '20', '35', '98', '112', '5', '30', '146', '134', '18', '16', '14', '86', '6', '110', '31', '39', '47', '153', '143', '1', '188', '80', '179'] 913.3346204375242
118 18.26669240875048 ['68', '8', '139', '65', '56', '20', '35', '98', '112', '5', '30', '146', '134', '18', '16', '14', '86', '6', '110', '31', '39', '47', '153', '143', '1', '188', '80', '179'] 913.3346204375242
119 18.26669240875048 ['68', '8', '139', '65', '56', '20', '35', '98', '112', '5', '30', '146', '134', '18', '16', '14', '86', '6', '110', '31', '39', '47', '153', '143', '1', '188', '80', '179'] 913.3346204375242
120 18.26669240875048 ['68', '8', '139', '65', '56', '20', '35', '98', '112', '5', '30', '146', '134', '18', '16', '14', '86', '6', '110', '31', '39', '47', '153', '143', '1', '188', '80', '179'] 913.3346204375242
121 18.26669240875048 ['68', '8', '139', '65', '56', '20', '35', '98', '112', '5', '30', '146', '134', '18', '16', '14', '86', '6', '110', '31', '39', '47', '153', '143', '1', '188', '80', '179'] 913.3346204375242
122 18.26669240875048 ['68', '8', '139', '65', '56', '20', '35', '98', '112', '5', '30', '146', '134', '18', '16', '14', '86', '6', '110', '31', '39', '47', '153', '143', '1', '188', '80', '179'] 913.3346204375242
123 18.26669240875048 ['68', '8', '139', '65', '56', '20', '35', '98', '112', '5', '30', '146', '134', '18', '16', '14', '86', '6', '110', '31', '39', '47', '153', '143', '1', '188', '80', '179'] 913.3346204375242
124 18.26669240875048 ['68', '8', '139', '65', '56', '20', '35', '98', '112', '5', '30', '146', '134', '18', '16', '14', '86', '6', '110', '31', '39', '47', '153', '143', '1', '188', '80', '179'] 913.3346204375242
125 18.26669240875048 ['68', '8', '139', '65', '56', '20', '35', '98', '112', '5', '30', '146', '134', '18', '16', '14', '86', '6', '110', '31', '39', '47', '153', '143', '1', '188', '80', '179'] 913.3346204375242
126 18.26669240875048 ['68', '8', '139', '65', '56', '20', '35', '98', '112', '5', '30', '146', '134', '18', '16', '14', '86', '6', '110', '31', '39', '47', '153', '143', '1', '188', '80', '179'] 913.3346204375242
127 18.26669240875048 ['68', '8', '139', '65', '56', '20', '35', '98', '112', '5', '30', '146', '134', '18', '16', '14', '86', '6', '110', '31', '39', '47', '153', '143', '1', '188', '80', '179'] 913.3346204375242
128 18.26669240875048 ['68', '8', '139', '65', '56', '20', '35', '98', '112', '5', '30', '146', '134', '18', '16', '14', '86', '6', '110', '31', '39', '47', '153', '143', '1', '188', '80', '179'] 913.3346204375242
129 18.26669240875048 ['68', '8', '139', '65', '56', '20', '35', '98', '112', '5', '30', '146', '134', '18', '16', '14', '86', '6', '110', '31', '39', '47', '153', '143', '1', '188', '80', '179'] 913.3346204375242
130 18.26669240875048 ['68', '8', '139', '65', '56', '20', '35', '98', '112', '5', '30', '146', '134', '18', '16', '14', '86', '6', '110', '31', '39', '47', '153', '143', '1', '188', '80', '179'] 913.3346204375242
131 18.26669240875048 ['68', '8', '139', '65', '56', '20', '35', '98', '112', '5', '30', '146', '134', '18', '16', '14', '86', '6', '110', '31', '39', '47', '153', '143', '1', '188', '80', '179'] 913.3346204375242
132 18.26669240875048 ['68', '8', '139', '65', '56', '20', '35', '98', '112', '5', '30', '146', '134', '18', '16', '14', '86', '6', '110', '31', '39', '47', '153', '143', '1', '188', '80', '179'] 913.3346204375242
133 18.26669240875048 ['68', '8', '139', '65', '56', '20', '35', '98', '112', '5', '30', '146', '134', '18', '16', '14', '86', '6', '110', '31', '39', '47', '153', '143', '1', '188', '80', '179'] 913.3346204375242
134 18.26669240875048 ['68', '8', '139', '65', '56', '20', '35', '98', '112', '5', '30', '146', '134', '18', '16', '14', '86', '6', '110', '31', '39', '47', '153', '143', '1', '188', '80', '179'] 913.3346204375242
135 18.26669240875048 ['68', '8', '139', '65', '56', '20', '35', '98', '112', '5', '30', '146', '134', '18', '16', '14', '86', '6', '110', '31', '39', '47', '153', '143', '1', '188', '80', '179'] 913.3346204375242
136 18.26669240875048 ['68', '8', '139', '65', '56', '20', '35', '98', '112', '5', '30', '146', '134', '18', '16', '14', '86', '6', '110', '31', '39', '47', '153', '143', '1', '188', '80', '179'] 913.3346204375242
137 18.26669240875048 ['68', '8', '139', '65', '56', '20', '35', '98', '112', '5', '30', '146', '134', '18', '16', '14', '86', '6', '110', '31', '39', '47', '153', '143', '1', '188', '80', '179'] 913.3346204375242
138 18.26669240875048 ['68', '8', '139', '65', '56', '20', '35', '98', '112', '5', '30', '146', '134', '18', '16', '14', '86', '6', '110', '31', '39', '47', '153', '143', '1', '188', '80', '179'] 913.3346204375242
139 18.26669240875048 ['68', '8', '139', '65', '56', '20', '35', '98', '112', '5', '30', '146', '134', '18', '16', '14', '86', '6', '110', '31', '39', '47', '153', '143', '1', '188', '80', '179'] 913.3346204375242
140 18.26669240875048 ['68', '8', '139', '65', '56', '20', '35', '98', '112', '5', '30', '146', '134', '18', '16', '14', '86', '6', '110', '31', '39', '47', '153', '143', '1', '188', '80', '179'] 913.3346204375242
141 18.26669240875048 ['68', '8', '139', '65', '56', '20', '35', '98', '112', '5', '30', '146', '134', '18', '16', '14', '86', '6', '110', '31', '39', '47', '153', '143', '1', '188', '80', '179'] 913.3346204375242
142 18.26669240875048 ['68', '8', '139', '65', '56', '20', '35', '98', '112', '5', '30', '146', '134', '18', '16', '14', '86', '6', '110', '31', '39', '47', '153', '143', '1', '188', '80', '179'] 913.3346204375242
143 18.26669240875048 ['68', '8', '139', '65', '56', '20', '35', '98', '112', '5', '30', '146', '134', '18', '16', '14', '86', '6', '110', '31', '39', '47', '153', '143', '1', '188', '80', '179'] 913.3346204375242
144 18.26669240875048 ['68', '8', '139', '65', '56', '20', '35', '98', '112', '5', '30', '146', '134', '18', '16', '14', '86', '6', '110', '31', '39', '47', '153', '143', '1', '188', '80', '179'] 913.3346204375242
145 18.26669240875048 ['68', '8', '139', '65', '56', '20', '35', '98', '112', '5', '30', '146', '134', '18', '16', '14', '86', '6', '110', '31', '39', '47', '153', '143', '1', '188', '80', '179'] 913.3346204375242
146 18.26669240875048 ['68', '8', '139', '65', '56', '20', '35', '98', '112', '5', '30', '146', '134', '18', '16', '14', '86', '6', '110', '31', '39', '47', '153', '143', '1', '188', '80', '179'] 913.3346204375242
147 18.26669240875048 ['68', '8', '139', '65', '56', '20', '35', '98', '112', '5', '30', '146', '134', '18', '16', '14', '86', '6', '110', '31', '39', '47', '153', '143', '1', '188', '80', '179'] 913.3346204375242
148 18.26669240875048 ['68', '8', '139', '65', '56', '20', '35', '98', '112', '5', '30', '146', '134', '18', '16', '14', '86', '6', '110', '31', '39', '47', '153', '143', '1', '188', '80', '179'] 913.3346204375242
149 18.26669240875048 ['68', '8', '139', '65', '56', '20', '35', '98', '112', '5', '30', '146', '134', '18', '16', '14', '86', '6', '110', '31', '39', '47', '153', '143', '1', '188', '80', '179'] 913.3346204375242
150 18.26669240875048 ['68', '8', '139', '65', '56', '20', '35', '98', '112', '5', '30', '146', '134', '18', '16', '14', '86', '6', '110', '31', '39', '47', '153', '143', '1', '188', '80', '179'] 913.3346204375242
151 18.26669240875048 ['68', '8', '139', '65', '56', '20', '35', '98', '112', '5', '30', '146', '134', '18', '16', '14', '86', '6', '110', '31', '39', '47', '153', '143', '1', '188', '80', '179'] 913.3346204375242
152 18.26669240875048 ['68', '8', '139', '65', '56', '20', '35', '98', '112', '5', '30', '146', '134', '18', '16', '14', '86', '6', '110', '31', '39', '47', '153', '143', '1', '188', '80', '179'] 913.3346204375242
153 18.26669240875048 ['68', '8', '139', '65', '56', '20', '35', '98', '112', '5', '30', '146', '134', '18', '16', '14', '86', '6', '110', '31', '39', '47', '153', '143', '1', '188', '80', '179'] 913.3346204375242
154 18.26669240875048 ['68', '8', '139', '65', '56', '20', '35', '98', '112', '5', '30', '146', '134', '18', '16', '14', '86', '6', '110', '31', '39', '47', '153', '143', '1', '188', '80', '179'] 913.3346204375242
155 18.26669240875048 ['68', '8', '139', '65', '56', '20', '35', '98', '112', '5', '30', '146', '134', '18', '16', '14', '86', '6', '110', '31', '39', '47', '153', '143', '1', '188', '80', '179'] 913.3346204375242
156 18.26669240875048 ['68', '8', '139', '65', '56', '20', '35', '98', '112', '5', '30', '146', '134', '18', '16', '14', '86', '6', '110', '31', '39', '47', '153', '143', '1', '188', '80', '179'] 913.3346204375242
157 18.26669240875048 ['68', '8', '139', '65', '56', '20', '35', '98', '112', '5', '30', '146', '134', '18', '16', '14', '86', '6', '110', '31', '39', '47', '153', '143', '1', '188', '80', '179'] 913.3346204375242
158 18.26669240875048 ['68', '8', '139', '65', '56', '20', '35', '98', '112', '5', '30', '146', '134', '18', '16', '14', '86', '6', '110', '31', '39', '47', '153', '143', '1', '188', '80', '179'] 913.3346204375242
159 18.26669240875048 ['68', '8', '139', '65', '56', '20', '35', '98', '112', '5', '30', '146', '134', '18', '16', '14', '86', '6', '110', '31', '39', '47', '153', '143', '1', '188', '80', '179'] 913.3346204375242
160 18.26669240875048 ['68', '8', '139', '65', '56', '20', '35', '98', '112', '5', '30', '146', '134', '18', '16', '14', '86', '6', '110', '31', '39', '47', '153', '143', '1', '188', '80', '179'] 913.3346204375242
161 18.26669240875048 ['68', '8', '139', '65', '56', '20', '35', '98', '112', '5', '30', '146', '134', '18', '16', '14', '86', '6', '110', '31', '39', '47', '153', '143', '1', '188', '80', '179'] 913.3346204375242
162 18.26669240875048 ['68', '8', '139', '65', '56', '20', '35', '98', '112', '5', '30', '146', '134', '18', '16', '14', '86', '6', '110', '31', '39', '47', '153', '143', '1', '188', '80', '179'] 913.3346204375242
163 18.26669240875048 ['68', '8', '139', '65', '56', '20', '35', '98', '112', '5', '30', '146', '134', '18', '16', '14', '86', '6', '110', '31', '39', '47', '153', '143', '1', '188', '80', '179'] 913.3346204375242
164 18.26669240875048 ['68', '8', '139', '65', '56', '20', '35', '98', '112', '5', '30', '146', '134', '18', '16', '14', '86', '6', '110', '31', '39', '47', '153', '143', '1', '188', '80', '179'] 913.3346204375242
165 18.26669240875048 ['68', '8', '139', '65', '56', '20', '35', '98', '112', '5', '30', '146', '134', '18', '16', '14', '86', '6', '110', '31', '39', '47', '153', '143', '1', '188', '80', '179'] 913.3346204375242
166 18.26669240875048 ['68', '8', '139', '65', '56', '20', '35', '98', '112', '5', '30', '146', '134', '18', '16', '14', '86', '6', '110', '31', '39', '47', '153', '143', '1', '188', '80', '179'] 913.3346204375242
167 18.26669240875048 ['68', '8', '139', '65', '56', '20', '35', '98', '112', '5', '30', '146', '134', '18', '16', '14', '86', '6', '110', '31', '39', '47', '153', '143', '1', '188', '80', '179'] 913.3346204375242
168 18.26669240875048 ['68', '8', '139', '65', '56', '20', '35', '98', '112', '5', '30', '146', '134', '18', '16', '14', '86', '6', '110', '31', '39', '47', '153', '143', '1', '188', '80', '179'] 913.3346204375242
169 18.26669240875048 ['68', '8', '139', '65', '56', '20', '35', '98', '112', '5', '30', '146', '134', '18', '16', '14', '86', '6', '110', '31', '39', '47', '153', '143', '1', '188', '80', '179'] 913.3346204375242
170 18.26669240875048 ['68', '8', '139', '65', '56', '20', '35', '98', '112', '5', '30', '146', '134', '18', '16', '14', '86', '6', '110', '31', '39', '47', '153', '143', '1', '188', '80', '179'] 913.3346204375242
171 18.26669240875048 ['68', '8', '139', '65', '56', '20', '35', '98', '112', '5', '30', '146', '134', '18', '16', '14', '86', '6', '110', '31', '39', '47', '153', '143', '1', '188', '80', '179'] 913.3346204375242
172 18.26669240875048 ['68', '8', '139', '65', '56', '20', '35', '98', '112', '5', '30', '146', '134', '18', '16', '14', '86', '6', '110', '31', '39', '47', '153', '143', '1', '188', '80', '179'] 913.3346204375242
173 18.26669240875048 ['68', '8', '139', '65', '56', '20', '35', '98', '112', '5', '30', '146', '134', '18', '16', '14', '86', '6', '110', '31', '39', '47', '153', '143', '1', '188', '80', '179'] 913.3346204375242
174 18.26669240875048 ['68', '8', '139', '65', '56', '20', '35', '98', '112', '5', '30', '146', '134', '18', '16', '14', '86', '6', '110', '31', '39', '47', '153', '143', '1', '188', '80', '179'] 913.3346204375242
175 18.26669240875048 ['68', '8', '139', '65', '56', '20', '35', '98', '112', '5', '30', '146', '134', '18', '16', '14', '86', '6', '110', '31', '39', '47', '153', '143', '1', '188', '80', '179'] 913.3346204375242
176 18.26669240875048 ['68', '8', '139', '65', '56', '20', '35', '98', '112', '5', '30', '146', '134', '18', '16', '14', '86', '6', '110', '31', '39', '47', '153', '143', '1', '188', '80', '179'] 913.3346204375242
177 18.26669240875048 ['68', '8', '139', '65', '56', '20', '35', '98', '112', '5', '30', '146', '134', '18', '16', '14', '86', '6', '110', '31', '39', '47', '153', '143', '1', '188', '80', '179'] 913.3346204375242
178 18.26669240875048 ['68', '8', '139', '65', '56', '20', '35', '98', '112', '5', '30', '146', '134', '18', '16', '14', '86', '6', '110', '31', '39', '47', '153', '143', '1', '188', '80', '179'] 913.3346204375242
179 18.26669240875048 ['68', '8', '139', '65', '56', '20', '35', '98', '112', '5', '30', '146', '134', '18', '16', '14', '86', '6', '110', '31', '39', '47', '153', '143', '1', '188', '80', '179'] 913.3346204375242
180 18.26669240875048 ['68', '8', '139', '65', '56', '20', '35', '98', '112', '5', '30', '146', '134', '18', '16', '14', '86', '6', '110', '31', '39', '47', '153', '143', '1', '188', '80', '179'] 913.3346204375242
181 18.26669240875048 ['68', '8', '139', '65', '56', '20', '35', '98', '112', '5', '30', '146', '134', '18', '16', '14', '86', '6', '110', '31', '39', '47', '153', '143', '1', '188', '80', '179'] 913.3346204375242
182 18.26669240875048 ['68', '8', '139', '65', '56', '20', '35', '98', '112', '5', '30', '146', '134', '18', '16', '14', '86', '6', '110', '31', '39', '47', '153', '143', '1', '188', '80', '179'] 913.3346204375242
183 18.26669240875048 ['68', '8', '139', '65', '56', '20', '35', '98', '112', '5', '30', '146', '134', '18', '16', '14', '86', '6', '110', '31', '39', '47', '153', '143', '1', '188', '80', '179'] 913.3346204375242
184 18.26669240875048 ['68', '8', '139', '65', '56', '20', '35', '98', '112', '5', '30', '146', '134', '18', '16', '14', '86', '6', '110', '31', '39', '47', '153', '143', '1', '188', '80', '179'] 913.3346204375242
185 18.26669240875048 ['68', '8', '139', '65', '56', '20', '35', '98', '112', '5', '30', '146', '134', '18', '16', '14', '86', '6', '110', '31', '39', '47', '153', '143', '1', '188', '80', '179'] 913.3346204375242
186 18.26669240875048 ['68', '8', '139', '65', '56', '20', '35', '98', '112', '5', '30', '146', '134', '18', '16', '14', '86', '6', '110', '31', '39', '47', '153', '143', '1', '188', '80', '179'] 913.3346204375242
187 18.26669240875048 ['68', '8', '139', '65', '56', '20', '35', '98', '112', '5', '30', '146', '134', '18', '16', '14', '86', '6', '110', '31', '39', '47', '153', '143', '1', '188', '80', '179'] 913.3346204375242
188 18.26669240875048 ['68', '8', '139', '65', '56', '20', '35', '98', '112', '5', '30', '146', '134', '18', '16', '14', '86', '6', '110', '31', '39', '47', '153', '143', '1', '188', '80', '179'] 913.3346204375242
189 18.26669240875048 ['68', '8', '139', '65', '56', '20', '35', '98', '112', '5', '30', '146', '134', '18', '16', '14', '86', '6', '110', '31', '39', '47', '153', '143', '1', '188', '80', '179'] 913.3346204375242
190 18.26669240875048 ['68', '8', '139', '65', '56', '20', '35', '98', '112', '5', '30', '146', '134', '18', '16', '14', '86', '6', '110', '31', '39', '47', '153', '143', '1', '188', '80', '179'] 913.3346204375242
191 18.26669240875048 ['68', '8', '139', '65', '56', '20', '35', '98', '112', '5', '30', '146', '134', '18', '16', '14', '86', '6', '110', '31', '39', '47', '153', '143', '1', '188', '80', '179'] 913.3346204375242
192 18.26669240875048 ['68', '8', '139', '65', '56', '20', '35', '98', '112', '5', '30', '146', '134', '18', '16', '14', '86', '6', '110', '31', '39', '47', '153', '143', '1', '188', '80', '179'] 913.3346204375242
193 18.26669240875048 ['68', '8', '139', '65', '56', '20', '35', '98', '112', '5', '30', '146', '134', '18', '16', '14', '86', '6', '110', '31', '39', '47', '153', '143', '1', '188', '80', '179'] 913.3346204375242
194 18.26669240875048 ['68', '8', '139', '65', '56', '20', '35', '98', '112', '5', '30', '146', '134', '18', '16', '14', '86', '6', '110', '31', '39', '47', '153', '143', '1', '188', '80', '179'] 913.3346204375242
195 18.26669240875048 ['68', '8', '139', '65', '56', '20', '35', '98', '112', '5', '30', '146', '134', '18', '16', '14', '86', '6', '110', '31', '39', '47', '153', '143', '1', '188', '80', '179'] 913.3346204375242
196 18.26669240875048 ['68', '8', '139', '65', '56', '20', '35', '98', '112', '5', '30', '146', '134', '18', '16', '14', '86', '6', '110', '31', '39', '47', '153', '143', '1', '188', '80', '179'] 913.3346204375242
197 18.26669240875048 ['68', '8', '139', '65', '56', '20', '35', '98', '112', '5', '30', '146', '134', '18', '16', '14', '86', '6', '110', '31', '39', '47', '153', '143', '1', '188', '80', '179'] 913.3346204375242
198 18.26669240875048 ['68', '8', '139', '65', '56', '20', '35', '98', '112', '5', '30', '146', '134', '18', '16', '14', '86', '6', '110', '31', '39', '47', '153', '143', '1', '188', '80', '179'] 913.3346204375242
199 18.26669240875048 ['68', '8', '139', '65', '56', '20', '35', '98', '112', '5', '30', '146', '134', '18', '16', '14', '86', '6', '110', '31', '39', '47', '153', '143', '1', '188', '80', '179'] 913.3346204375242
