0 20.783651055209393 ['213', '16', '112', '256', '230', '201', '245', '272', '65', '33', '15', '188', '36', '244', '55', '254', '2', '76', '136', '166', '215', '8', '77', '227', '72', '41', '161', '75'] 1066.416801993074
1 20.783651055209393 ['213', '16', '112', '256', '230', '201', '245', '272', '65', '33', '15', '188', '36', '244', '55', '254', '2', '76', '136', '166', '215', '8', '77', '227', '72', '41', '161', '75'] 1058.286909982705
2 20.698714958557726 ['53', '180', '210', '98', '41', '182', '146', '92', '112', '18', '108', '33', '20', '234', '78', '96', '271', '188', '194', '157', '151', '46', '268', '118', '50', '169', '30', '239'] 1051.82180566358
3 20.44478274330017 ['20', '33', '112', '180', '30', '97', '225', '227', '92', '169', '11', '239', '212', '75', '28', '46', '257', '153', '255', '166', '53', '256', '18', '51', '150', '78', '98', '157'] 1043.9768914275285
4 20.380406362882663 ['6', '269', '56', '18', '70', '115', '46', '141', '225', '177', '87', '153', '79', '112', '57', '28', '206', '260', '185', '218', '13', '41', '68', '229', '65', '188', '151', '192'] 1035.77571322751
5 20.211467550602148 ['112', '151', '108', '41', '146', '239', '234', '169', '8', '188', '92', '52', '86', '266', '139', '20', '62', '206', '196', '50', '205', '210', '14', '39', '46', '98', '118', '33'] 1028.640829882405
6 20.036381944782104 ['18', '186', '188', '75', '41', '116', '14', '19', '86', '228', '51', '162', '112', '185', '141', '55', '5', '165', '68', '1', '208', '46', '98', '254', '28', '184', '105', '201'] 1021.6421156213032
7 19.99613107129408 ['157', '227', '180', '86', '233', '98', '112', '153', '68', '245', '248', '257', '63', '14', '166', '141', '162', '209', '20', '196', '229', '234', '6', '169', '18', '46', '33', '239'] 1014.3505946594238
8 19.8186298576317 ['28', '39', '6', '112', '68', '188', '18', '95', '154', '115', '15', '57', '65', '55', '46', '244', '227', '261', '192', '140', '54', '106', '14', '21', '153', '56', '48', '215'] 1007.6765515671306
9 19.77327753631703 ['112', '39', '6', '41', '151', '54', '8', '188', '18', '46', '102', '185', '141', '180', '229', '153', '261', '147', '98', '1', '33', '205', '50', '139', '26', '253', '68', '63'] 1002.3825620470002
10 19.388835265230245 ['227', '229', '86', '33', '98', '14', '112', '68', '188', '6', '180', '28', '141', '46', '54', '26', '153', '21', '233', '19', '8', '74', '105', '208', '1', '269', '18', '20'] 996.4332016046058
11 19.318783850371265 ['33', '54', '18', '68', '153', '180', '1', '46', '98', '6', '229', '8', '141', '112', '188', '26', '269', '74', '105', '21', '86', '39', '227', '20', '28', '102', '14', '185'] 990.4118202829706
12 19.318783850371265 ['33', '54', '18', '68', '153', '180', '1', '46', '98', '6', '229', '8', '141', '112', '188', '26', '269', '74', '105', '21', '86', '39', '227', '20', '28', '102', '14', '185'] 985.6543318078882
13 19.158224924526174 ['188', '14', '180', '153', '6', '86', '98', '185', '28', '68', '112', '46', '141', '229', '33', '18', '54', '1', '253', '41', '162', '20', '8', '39', '105', '147', '184', '102'] 978.8643861337489
14 19.153266591585815 ['6', '86', '180', '54', '188', '18', '233', '46', '112', '153', '28', '68', '139', '1', '98', '151', '105', '33', '229', '19', '141', '21', '8', '208', '52', '196', '14', '20'] 972.4871390896154
15 19.077660441650103 ['6', '14', '153', '112', '162', '63', '20', '39', '18', '33', '105', '28', '68', '176', '139', '227', '26', '15', '8', '98', '21', '166', '86', '1', '141', '225', '151', '90'] 967.1359325593094
16 19.046928018306012 ['18', '6', '39', '21', '180', '28', '153', '188', '54', '233', '229', '1', '68', '46', '14', '105', '33', '8', '112', '208', '98', '139', '102', '65', '15', '106', '154', '141'] 962.413340858924
17 18.962775165101473 ['188', '14', '6', '86', '8', '98', '18', '1', '19', '180', '46', '20', '28', '141', '112', '229', '68', '105', '169', '26', '233', '56', '154', '33', '185', '47', '65', '162'] 958.1480277664194
18 18.828557748328166 ['86', '54', '28', '98', '1', '20', '68', '105', '112', '269', '153', '180', '188', '6', '14', '229', '18', '8', '39', '30', '106', '26', '147', '15', '162', '19', '151', '141'] 954.0507343498773
19 18.828557748328166 ['86', '54', '28', '98', '1', '20', '68', '105', '112', '269', '153', '180', '188', '6', '14', '229', '18', '8', '39', '30', '106', '26', '147', '15', '162', '19', '151', '141'] 950.2679564745953
20 18.782355636632442 ['39', '105', '18', '112', '98', '86', '188', '20', '68', '8', '14', '28', '6', '153', '1', '90', '56', '21', '227', '30', '65', '19', '162', '146', '41', '106', '139', '75'] 947.0657795177101
21 18.68705562776873 ['1', '162', '28', '54', '112', '18', '98', '188', '56', '6', '14', '180', '39', '8', '20', '153', '68', '86', '15', '65', '229', '90', '33', '102', '135', '19', '30', '139'] 943.6587160841381
22 18.66903516230021 ['28', '30', '105', '6', '112', '86', '188', '162', '98', '14', '39', '153', '65', '68', '1', '8', '18', '20', '180', '75', '46', '146', '139', '54', '176', '102', '21', '56'] 941.147662230419
23 18.53665689363214 ['20', '68', '141', '86', '112', '8', '54', '98', '139', '39', '162', '1', '105', '28', '188', '18', '176', '14', '6', '169', '30', '33', '51', '15', '46', '5', '102', '153'] 938.0003055143839
24 18.53665689363214 ['20', '68', '141', '86', '112', '8', '54', '98', '139', '39', '162', '1', '105', '28', '188', '18', '176', '14', '6', '169', '30', '33', '51', '15', '46', '5', '102', '153'] 933.9828100705807
25 18.371322711469 ['39', '98', '188', '18', '105', '162', '141', '14', '1', '86', '8', '28', '6', '20', '68', '65', '56', '112', '139', '153', '106', '33', '176', '54', '169', '15', '30', '19'] 930.2032884656435
26 18.371322711469 ['39', '98', '188', '18', '105', '162', '141', '14', '1', '86', '8', '28', '6', '20', '68', '65', '56', '112', '139', '153', '106', '33', '176', '54', '169', '15', '30', '19'] 927.5929915515285
27 18.36353295718269 ['30', '65', '98', '33', '1', '105', '8', '20', '18', '86', '153', '68', '6', '14', '28', '15', '39', '139', '188', '112', '54', '162', '46', '176', '56', '180', '5', '141'] 925.5459737187047
28 18.259749754327096 ['105', '28', '15', '68', '154', '1', '98', '6', '8', '18', '146', '56', '112', '86', '65', '20', '188', '14', '162', '33', '153', '180', '30', '141', '5', '46', '39', '176'] 922.5951327998166
29 18.259749754327096 ['105', '28', '15', '68', '154', '1', '98', '6', '8', '18', '146', '56', '112', '86', '65', '20', '188', '14', '162', '33', '153', '180', '30', '141', '5', '46', '39', '176'] 920.2124036024989
30 18.238000555532462 ['105', '8', '188', '28', '56', '98', '112', '39', '18', '14', '20', '162', '176', '54', '30', '180', '15', '65', '6', '153', '86', '33', '68', '5', '1', '154', '141', '139'] 918.1922432596599
31 18.238000555532462 ['105', '8', '188', '28', '56', '98', '112', '39', '18', '14', '20', '162', '176', '54', '30', '180', '15', '65', '6', '153', '86', '33', '68', '5', '1', '154', '141', '139'] 916.5213035361118
32 18.177368023147952 ['6', '162', '146', '54', '153', '30', '176', '98', '86', '112', '14', '18', '65', '188', '39', '20', '105', '28', '15', '5', '56', '1', '8', '141', '68', '33', '154', '139'] 915.0566006511978
33 18.177368023147952 ['6', '162', '146', '54', '153', '30', '176', '98', '86', '112', '14', '18', '65', '188', '39', '20', '105', '28', '15', '5', '56', '1', '8', '141', '68', '33', '154', '139'] 913.5418333898335
34 18.177368023147952 ['6', '162', '146', '54', '153', '30', '176', '98', '86', '112', '14', '18', '65', '188', '39', '20', '105', '28', '15', '5', '56', '1', '8', '141', '68', '33', '154', '139'] 911.7470812758921
35 18.177368023147952 ['6', '162', '146', '54', '153', '30', '176', '98', '86', '112', '14', '18', '65', '188', '39', '20', '105', '28', '15', '5', '56', '1', '8', '141', '68', '33', '154', '139'] 910.586541029473
36 18.173588602167744 ['139', '153', '146', '18', '33', '1', '6', '20', '154', '30', '14', '56', '86', '54', '39', '65', '28', '68', '15', '162', '112', '188', '105', '176', '98', '8', '169', '5'] 909.6265315196358
37 18.173588602167744 ['139', '153', '146', '18', '33', '1', '6', '20', '154', '30', '14', '56', '86', '54', '39', '65', '28', '68', '15', '162', '112', '188', '105', '176', '98', '8', '169', '5'] 909.1404958236491
38 18.173588602167744 ['139', '153', '146', '18', '33', '1', '6', '20', '154', '30', '14', '56', '86', '54', '39', '65', '28', '68', '15', '162', '112', '188', '105', '176', '98', '8', '169', '5'] 908.898075145751
39 18.17288259400986 ['86', '153', '33', '30', '1', '146', '154', '176', '39', '56', '162', '188', '98', '105', '68', '6', '15', '14', '28', '169', '112', '65', '18', '8', '139', '20', '141', '5'] 908.7802246334568
40 18.17288259400986 ['86', '153', '33', '30', '1', '146', '154', '176', '39', '56', '162', '188', '98', '105', '68', '6', '15', '14', '28', '169', '112', '65', '18', '8', '139', '20', '141', '5'] 908.7078718015936
41 18.17288259400986 ['86', '153', '33', '30', '1', '146', '154', '176', '39', '56', '162', '188', '98', '105', '68', '6', '15', '14', '28', '169', '112', '65', '18', '8', '139', '20', '141', '5'] 908.6766060757567
42 18.17288259400986 ['86', '153', '33', '30', '1', '146', '154', '176', '39', '56', '162', '188', '98', '105', '68', '6', '15', '14', '28', '169', '112', '65', '18', '8', '139', '20', '141', '5'] 908.6730760349673
43 18.17288259400986 ['86', '153', '33', '30', '1', '146', '154', '176', '39', '56', '162', '188', '98', '105', '68', '6', '15', '14', '28', '169', '112', '65', '18', '8', '139', '20', '141', '5'] 908.6695459941778
44 18.17288259400986 ['86', '153', '33', '30', '1', '146', '154', '176', '39', '56', '162', '188', '98', '105', '68', '6', '15', '14', '28', '169', '112', '65', '18', '8', '139', '20', '141', '5'] 908.6575438554938
45 18.17288259400986 ['86', '153', '33', '30', '1', '146', '154', '176', '39', '56', '162', '188', '98', '105', '68', '6', '15', '14', '28', '169', '112', '65', '18', '8', '139', '20', '141', '5'] 908.6441297004923
46 18.17288259400986 ['86', '153', '33', '30', '1', '146', '154', '176', '39', '56', '162', '188', '98', '105', '68', '6', '15', '14', '28', '169', '112', '65', '18', '8', '139', '20', '141', '5'] 908.6441297004923
47 18.17288259400986 ['86', '153', '33', '30', '1', '146', '154', '176', '39', '56', '162', '188', '98', '105', '68', '6', '15', '14', '28', '169', '112', '65', '18', '8', '139', '20', '141', '5'] 908.6441297004923
48 18.17288259400986 ['86', '153', '33', '30', '1', '146', '154', '176', '39', '56', '162', '188', '98', '105', '68', '6', '15', '14', '28', '169', '112', '65', '18', '8', '139', '20', '141', '5'] 908.6441297004923
49 18.17288259400986 ['86', '153', '33', '30', '1', '146', '154', '176', '39', '56', '162', '188', '98', '105', '68', '6', '15', '14', '28', '169', '112', '65', '18', '8', '139', '20', '141', '5'] 908.6441297004923
50 18.17288259400986 ['86', '153', '33', '30', '1', '146', '154', '176', '39', '56', '162', '188', '98', '105', '68', '6', '15', '14', '28', '169', '112', '65', '18', '8', '139', '20', '141', '5'] 908.6441297004923
51 18.17288259400986 ['86', '153', '33', '30', '1', '146', '154', '176', '39', '56', '162', '188', '98', '105', '68', '6', '15', '14', '28', '169', '112', '65', '18', '8', '139', '20', '141', '5'] 908.6441297004923
52 18.17288259400986 ['86', '153', '33', '30', '1', '146', '154', '176', '39', '56', '162', '188', '98', '105', '68', '6', '15', '14', '28', '169', '112', '65', '18', '8', '139', '20', '141', '5'] 908.6441297004923
53 18.17288259400986 ['86', '153', '33', '30', '1', '146', '154', '176', '39', '56', '162', '188', '98', '105', '68', '6', '15', '14', '28', '169', '112', '65', '18', '8', '139', '20', '141', '5'] 908.6441297004923
54 18.17288259400986 ['86', '153', '33', '30', '1', '146', '154', '176', '39', '56', '162', '188', '98', '105', '68', '6', '15', '14', '28', '169', '112', '65', '18', '8', '139', '20', '141', '5'] 908.6441297004923
55 18.17288259400986 ['86', '153', '33', '30', '1', '146', '154', '176', '39', '56', '162', '188', '98', '105', '68', '6', '15', '14', '28', '169', '112', '65', '18', '8', '139', '20', '141', '5'] 908.6441297004923
56 18.17288259400986 ['86', '153', '33', '30', '1', '146', '154', '176', '39', '56', '162', '188', '98', '105', '68', '6', '15', '14', '28', '169', '112', '65', '18', '8', '139', '20', '141', '5'] 908.6441297004923
57 18.17288259400986 ['86', '153', '33', '30', '1', '146', '154', '176', '39', '56', '162', '188', '98', '105', '68', '6', '15', '14', '28', '169', '112', '65', '18', '8', '139', '20', '141', '5'] 908.6441297004923
58 18.17288259400986 ['86', '153', '33', '30', '1', '146', '154', '176', '39', '56', '162', '188', '98', '105', '68', '6', '15', '14', '28', '169', '112', '65', '18', '8', '139', '20', '141', '5'] 908.6441297004923
59 18.17288259400986 ['86', '153', '33', '30', '1', '146', '154', '176', '39', '56', '162', '188', '98', '105', '68', '6', '15', '14', '28', '169', '112', '65', '18', '8', '139', '20', '141', '5'] 908.6441297004923
60 18.17288259400986 ['86', '153', '33', '30', '1', '146', '154', '176', '39', '56', '162', '188', '98', '105', '68', '6', '15', '14', '28', '169', '112', '65', '18', '8', '139', '20', '141', '5'] 908.6441297004923
61 18.17288259400986 ['86', '153', '33', '30', '1', '146', '154', '176', '39', '56', '162', '188', '98', '105', '68', '6', '15', '14', '28', '169', '112', '65', '18', '8', '139', '20', '141', '5'] 908.6441297004923
62 18.17288259400986 ['86', '153', '33', '30', '1', '146', '154', '176', '39', '56', '162', '188', '98', '105', '68', '6', '15', '14', '28', '169', '112', '65', '18', '8', '139', '20', '141', '5'] 908.6441297004923
63 18.17288259400986 ['86', '153', '33', '30', '1', '146', '154', '176', '39', '56', '162', '188', '98', '105', '68', '6', '15', '14', '28', '169', '112', '65', '18', '8', '139', '20', '141', '5'] 908.6441297004923
64 18.17288259400986 ['86', '153', '33', '30', '1', '146', '154', '176', '39', '56', '162', '188', '98', '105', '68', '6', '15', '14', '28', '169', '112', '65', '18', '8', '139', '20', '141', '5'] 908.6441297004923
65 18.17288259400986 ['86', '153', '33', '30', '1', '146', '154', '176', '39', '56', '162', '188', '98', '105', '68', '6', '15', '14', '28', '169', '112', '65', '18', '8', '139', '20', '141', '5'] 908.6441297004923
66 18.17288259400986 ['86', '153', '33', '30', '1', '146', '154', '176', '39', '56', '162', '188', '98', '105', '68', '6', '15', '14', '28', '169', '112', '65', '18', '8', '139', '20', '141', '5'] 908.6441297004923
67 18.17288259400986 ['86', '153', '33', '30', '1', '146', '154', '176', '39', '56', '162', '188', '98', '105', '68', '6', '15', '14', '28', '169', '112', '65', '18', '8', '139', '20', '141', '5'] 908.6441297004923
68 18.17288259400986 ['86', '153', '33', '30', '1', '146', '154', '176', '39', '56', '162', '188', '98', '105', '68', '6', '15', '14', '28', '169', '112', '65', '18', '8', '139', '20', '141', '5'] 908.6441297004923
69 18.17288259400986 ['86', '153', '33', '30', '1', '146', '154', '176', '39', '56', '162', '188', '98', '105', '68', '6', '15', '14', '28', '169', '112', '65', '18', '8', '139', '20', '141', '5'] 908.6441297004923
70 18.17288259400986 ['86', '153', '33', '30', '1', '146', '154', '176', '39', '56', '162', '188', '98', '105', '68', '6', '15', '14', '28', '169', '112', '65', '18', '8', '139', '20', '141', '5'] 908.6441297004923
71 18.17288259400986 ['86', '153', '33', '30', '1', '146', '154', '176', '39', '56', '162', '188', '98', '105', '68', '6', '15', '14', '28', '169', '112', '65', '18', '8', '139', '20', '141', '5'] 908.6441297004923
72 18.17288259400986 ['86', '153', '33', '30', '1', '146', '154', '176', '39', '56', '162', '188', '98', '105', '68', '6', '15', '14', '28', '169', '112', '65', '18', '8', '139', '20', '141', '5'] 908.6441297004923
73 18.17288259400986 ['86', '153', '33', '30', '1', '146', '154', '176', '39', '56', '162', '188', '98', '105', '68', '6', '15', '14', '28', '169', '112', '65', '18', '8', '139', '20', '141', '5'] 908.6441297004923
74 18.17288259400986 ['86', '153', '33', '30', '1', '146', '154', '176', '39', '56', '162', '188', '98', '105', '68', '6', '15', '14', '28', '169', '112', '65', '18', '8', '139', '20', '141', '5'] 908.6441297004923
75 18.17288259400986 ['86', '153', '33', '30', '1', '146', '154', '176', '39', '56', '162', '188', '98', '105', '68', '6', '15', '14', '28', '169', '112', '65', '18', '8', '139', '20', '141', '5'] 908.6441297004923
76 18.17288259400986 ['86', '153', '33', '30', '1', '146', '154', '176', '39', '56', '162', '188', '98', '105', '68', '6', '15', '14', '28', '169', '112', '65', '18', '8', '139', '20', '141', '5'] 908.6441297004923
77 18.17288259400986 ['86', '153', '33', '30', '1', '146', '154', '176', '39', '56', '162', '188', '98', '105', '68', '6', '15', '14', '28', '169', '112', '65', '18', '8', '139', '20', '141', '5'] 908.6441297004923
78 18.17288259400986 ['86', '153', '33', '30', '1', '146', '154', '176', '39', '56', '162', '188', '98', '105', '68', '6', '15', '14', '28', '169', '112', '65', '18', '8', '139', '20', '141', '5'] 908.6441297004923
79 18.17288259400986 ['86', '153', '33', '30', '1', '146', '154', '176', '39', '56', '162', '188', '98', '105', '68', '6', '15', '14', '28', '169', '112', '65', '18', '8', '139', '20', '141', '5'] 908.6441297004923
80 18.17288259400986 ['86', '153', '33', '30', '1', '146', '154', '176', '39', '56', '162', '188', '98', '105', '68', '6', '15', '14', '28', '169', '112', '65', '18', '8', '139', '20', '141', '5'] 908.6441297004923
81 18.17288259400986 ['86', '153', '33', '30', '1', '146', '154', '176', '39', '56', '162', '188', '98', '105', '68', '6', '15', '14', '28', '169', '112', '65', '18', '8', '139', '20', '141', '5'] 908.6441297004923
82 18.17288259400986 ['86', '153', '33', '30', '1', '146', '154', '176', '39', '56', '162', '188', '98', '105', '68', '6', '15', '14', '28', '169', '112', '65', '18', '8', '139', '20', '141', '5'] 908.6441297004923
83 18.17288259400986 ['86', '153', '33', '30', '1', '146', '154', '176', '39', '56', '162', '188', '98', '105', '68', '6', '15', '14', '28', '169', '112', '65', '18', '8', '139', '20', '141', '5'] 908.6441297004923
84 18.17288259400986 ['86', '153', '33', '30', '1', '146', '154', '176', '39', '56', '162', '188', '98', '105', '68', '6', '15', '14', '28', '169', '112', '65', '18', '8', '139', '20', '141', '5'] 908.6441297004923
85 18.17288259400986 ['86', '153', '33', '30', '1', '146', '154', '176', '39', '56', '162', '188', '98', '105', '68', '6', '15', '14', '28', '169', '112', '65', '18', '8', '139', '20', '141', '5'] 908.6441297004923
86 18.17288259400986 ['86', '153', '33', '30', '1', '146', '154', '176', '39', '56', '162', '188', '98', '105', '68', '6', '15', '14', '28', '169', '112', '65', '18', '8', '139', '20', '141', '5'] 908.6441297004923
87 18.17288259400986 ['86', '153', '33', '30', '1', '146', '154', '176', '39', '56', '162', '188', '98', '105', '68', '6', '15', '14', '28', '169', '112', '65', '18', '8', '139', '20', '141', '5'] 908.6441297004923
88 18.17288259400986 ['86', '153', '33', '30', '1', '146', '154', '176', '39', '56', '162', '188', '98', '105', '68', '6', '15', '14', '28', '169', '112', '65', '18', '8', '139', '20', '141', '5'] 908.6441297004923
89 18.15656444307787 ['162', '169', '65', '5', '68', '141', '30', '56', '105', '20', '1', '154', '33', '39', '15', '139', '8', '146', '6', '188', '112', '153', '98', '176', '86', '14', '18', '31'] 908.6278115495603
90 18.15656444307787 ['162', '169', '65', '5', '68', '141', '30', '56', '105', '20', '1', '154', '33', '39', '15', '139', '8', '146', '6', '188', '112', '153', '98', '176', '86', '14', '18', '31'] 908.6278115495603
91 18.15656444307787 ['162', '169', '65', '5', '68', '141', '30', '56', '105', '20', '1', '154', '33', '39', '15', '139', '8', '146', '6', '188', '112', '153', '98', '176', '86', '14', '18', '31'] 908.5951752476964
92 18.15656444307787 ['162', '169', '65', '5', '68', '141', '30', '56', '105', '20', '1', '154', '33', '39', '15', '139', '8', '146', '6', '188', '112', '153', '98', '176', '86', '14', '18', '31'] 908.5135844930364
93 18.15656444307787 ['162', '169', '65', '5', '68', '141', '30', '56', '105', '20', '1', '154', '33', '39', '15', '139', '8', '146', '6', '188', '112', '153', '98', '176', '86', '14', '18', '31'] 908.3340848327844
94 18.15656444307787 ['162', '169', '65', '5', '68', '141', '30', '56', '105', '20', '1', '154', '33', '39', '15', '139', '8', '146', '6', '188', '112', '153', '98', '176', '86', '14', '18', '31'] 908.0240399650764
95 18.15656444307787 ['162', '169', '65', '5', '68', '141', '30', '56', '105', '20', '1', '154', '33', '39', '15', '139', '8', '146', '6', '188', '112', '153', '98', '176', '86', '14', '18', '31'] 907.8282221538929
96 18.15656444307787 ['162', '169', '65', '5', '68', '141', '30', '56', '105', '20', '1', '154', '33', '39', '15', '139', '8', '146', '6', '188', '112', '153', '98', '176', '86', '14', '18', '31'] 907.8282221538929
97 18.15656444307787 ['162', '169', '65', '5', '68', '141', '30', '56', '105', '20', '1', '154', '33', '39', '15', '139', '8', '146', '6', '188', '112', '153', '98', '176', '86', '14', '18', '31'] 907.8282221538929
98 18.15656444307787 ['162', '169', '65', '5', '68', '141', '30', '56', '105', '20', '1', '154', '33', '39', '15', '139', '8', '146', '6', '188', '112', '153', '98', '176', '86', '14', '18', '31'] 907.8282221538929
99 18.15656444307787 ['162', '169', '65', '5', '68', '141', '30', '56', '105', '20', '1', '154', '33', '39', '15', '139', '8', '146', '6', '188', '112', '153', '98', '176', '86', '14', '18', '31'] 907.8282221538929
100 18.15656444307787 ['162', '169', '65', '5', '68', '141', '30', '56', '105', '20', '1', '154', '33', '39', '15', '139', '8', '146', '6', '188', '112', '153', '98', '176', '86', '14', '18', '31'] 907.8282221538929
101 18.15656444307787 ['162', '169', '65', '5', '68', '141', '30', '56', '105', '20', '1', '154', '33', '39', '15', '139', '8', '146', '6', '188', '112', '153', '98', '176', '86', '14', '18', '31'] 907.8282221538929
102 18.15656444307787 ['162', '169', '65', '5', '68', '141', '30', '56', '105', '20', '1', '154', '33', '39', '15', '139', '8', '146', '6', '188', '112', '153', '98', '176', '86', '14', '18', '31'] 907.8282221538929
103 18.15656444307787 ['162', '169', '65', '5', '68', '141', '30', '56', '105', '20', '1', '154', '33', '39', '15', '139', '8', '146', '6', '188', '112', '153', '98', '176', '86', '14', '18', '31'] 907.8282221538929
104 18.15656444307787 ['162', '169', '65', '5', '68', '141', '30', '56', '105', '20', '1', '154', '33', '39', '15', '139', '8', '146', '6', '188', '112', '153', '98', '176', '86', '14', '18', '31'] 907.8282221538929
105 18.15656444307787 ['162', '169', '65', '5', '68', '141', '30', '56', '105', '20', '1', '154', '33', '39', '15', '139', '8', '146', '6', '188', '112', '153', '98', '176', '86', '14', '18', '31'] 907.8282221538929
106 18.15656444307787 ['162', '169', '65', '5', '68', '141', '30', '56', '105', '20', '1', '154', '33', '39', '15', '139', '8', '146', '6', '188', '112', '153', '98', '176', '86', '14', '18', '31'] 907.8282221538929
107 18.15656444307787 ['162', '169', '65', '5', '68', '141', '30', '56', '105', '20', '1', '154', '33', '39', '15', '139', '8', '146', '6', '188', '112', '153', '98', '176', '86', '14', '18', '31'] 907.8282221538929
108 18.15656444307787 ['162', '169', '65', '5', '68', '141', '30', '56', '105', '20', '1', '154', '33', '39', '15', '139', '8', '146', '6', '188', '112', '153', '98', '176', '86', '14', '18', '31'] 907.8282221538929
109 18.15656444307787 ['162', '169', '65', '5', '68', '141', '30', '56', '105', '20', '1', '154', '33', '39', '15', '139', '8', '146', '6', '188', '112', '153', '98', '176', '86', '14', '18', '31'] 907.8282221538929
110 18.15656444307787 ['162', '169', '65', '5', '68', '141', '30', '56', '105', '20', '1', '154', '33', '39', '15', '139', '8', '146', '6', '188', '112', '153', '98', '176', '86', '14', '18', '31'] 907.8282221538929
111 18.15656444307787 ['162', '169', '65', '5', '68', '141', '30', '56', '105', '20', '1', '154', '33', '39', '15', '139', '8', '146', '6', '188', '112', '153', '98', '176', '86', '14', '18', '31'] 907.8282221538929
112 18.15656444307787 ['162', '169', '65', '5', '68', '141', '30', '56', '105', '20', '1', '154', '33', '39', '15', '139', '8', '146', '6', '188', '112', '153', '98', '176', '86', '14', '18', '31'] 907.8282221538929
113 18.15656444307787 ['162', '169', '65', '5', '68', '141', '30', '56', '105', '20', '1', '154', '33', '39', '15', '139', '8', '146', '6', '188', '112', '153', '98', '176', '86', '14', '18', '31'] 907.8282221538929
114 18.15656444307787 ['162', '169', '65', '5', '68', '141', '30', '56', '105', '20', '1', '154', '33', '39', '15', '139', '8', '146', '6', '188', '112', '153', '98', '176', '86', '14', '18', '31'] 907.8282221538929
115 18.15656444307787 ['162', '169', '65', '5', '68', '141', '30', '56', '105', '20', '1', '154', '33', '39', '15', '139', '8', '146', '6', '188', '112', '153', '98', '176', '86', '14', '18', '31'] 907.8282221538929
116 18.15656444307787 ['162', '169', '65', '5', '68', '141', '30', '56', '105', '20', '1', '154', '33', '39', '15', '139', '8', '146', '6', '188', '112', '153', '98', '176', '86', '14', '18', '31'] 907.8282221538929
117 18.15656444307787 ['162', '169', '65', '5', '68', '141', '30', '56', '105', '20', '1', '154', '33', '39', '15', '139', '8', '146', '6', '188', '112', '153', '98', '176', '86', '14', '18', '31'] 907.8282221538929
118 18.15656444307787 ['162', '169', '65', '5', '68', '141', '30', '56', '105', '20', '1', '154', '33', '39', '15', '139', '8', '146', '6', '188', '112', '153', '98', '176', '86', '14', '18', '31'] 907.8282221538929
119 18.15656444307787 ['162', '169', '65', '5', '68', '141', '30', '56', '105', '20', '1', '154', '33', '39', '15', '139', '8', '146', '6', '188', '112', '153', '98', '176', '86', '14', '18', '31'] 907.8282221538929
120 18.15656444307787 ['162', '169', '65', '5', '68', '141', '30', '56', '105', '20', '1', '154', '33', '39', '15', '139', '8', '146', '6', '188', '112', '153', '98', '176', '86', '14', '18', '31'] 907.8282221538929
121 18.15656444307787 ['162', '169', '65', '5', '68', '141', '30', '56', '105', '20', '1', '154', '33', '39', '15', '139', '8', '146', '6', '188', '112', '153', '98', '176', '86', '14', '18', '31'] 907.8282221538929
122 18.15656444307787 ['162', '169', '65', '5', '68', '141', '30', '56', '105', '20', '1', '154', '33', '39', '15', '139', '8', '146', '6', '188', '112', '153', '98', '176', '86', '14', '18', '31'] 907.8282221538929
123 18.15656444307787 ['162', '169', '65', '5', '68', '141', '30', '56', '105', '20', '1', '154', '33', '39', '15', '139', '8', '146', '6', '188', '112', '153', '98', '176', '86', '14', '18', '31'] 907.8282221538929
124 18.15656444307787 ['162', '169', '65', '5', '68', '141', '30', '56', '105', '20', '1', '154', '33', '39', '15', '139', '8', '146', '6', '188', '112', '153', '98', '176', '86', '14', '18', '31'] 907.8282221538929
125 18.15656444307787 ['162', '169', '65', '5', '68', '141', '30', '56', '105', '20', '1', '154', '33', '39', '15', '139', '8', '146', '6', '188', '112', '153', '98', '176', '86', '14', '18', '31'] 907.8282221538929
126 18.15656444307787 ['162', '169', '65', '5', '68', '141', '30', '56', '105', '20', '1', '154', '33', '39', '15', '139', '8', '146', '6', '188', '112', '153', '98', '176', '86', '14', '18', '31'] 907.8282221538929
127 18.15656444307787 ['162', '169', '65', '5', '68', '141', '30', '56', '105', '20', '1', '154', '33', '39', '15', '139', '8', '146', '6', '188', '112', '153', '98', '176', '86', '14', '18', '31'] 907.8282221538929
128 18.15656444307787 ['162', '169', '65', '5', '68', '141', '30', '56', '105', '20', '1', '154', '33', '39', '15', '139', '8', '146', '6', '188', '112', '153', '98', '176', '86', '14', '18', '31'] 907.8282221538929
129 18.15656444307787 ['162', '169', '65', '5', '68', '141', '30', '56', '105', '20', '1', '154', '33', '39', '15', '139', '8', '146', '6', '188', '112', '153', '98', '176', '86', '14', '18', '31'] 907.8282221538929
130 18.15656444307787 ['162', '169', '65', '5', '68', '141', '30', '56', '105', '20', '1', '154', '33', '39', '15', '139', '8', '146', '6', '188', '112', '153', '98', '176', '86', '14', '18', '31'] 907.8282221538929
131 18.15656444307787 ['162', '169', '65', '5', '68', '141', '30', '56', '105', '20', '1', '154', '33', '39', '15', '139', '8', '146', '6', '188', '112', '153', '98', '176', '86', '14', '18', '31'] 907.8282221538929
132 18.15656444307787 ['162', '169', '65', '5', '68', '141', '30', '56', '105', '20', '1', '154', '33', '39', '15', '139', '8', '146', '6', '188', '112', '153', '98', '176', '86', '14', '18', '31'] 907.8282221538929
133 18.15656444307787 ['162', '169', '65', '5', '68', '141', '30', '56', '105', '20', '1', '154', '33', '39', '15', '139', '8', '146', '6', '188', '112', '153', '98', '176', '86', '14', '18', '31'] 907.8282221538929
134 18.15656444307787 ['162', '169', '65', '5', '68', '141', '30', '56', '105', '20', '1', '154', '33', '39', '15', '139', '8', '146', '6', '188', '112', '153', '98', '176', '86', '14', '18', '31'] 907.8282221538929
135 18.15656444307787 ['162', '169', '65', '5', '68', '141', '30', '56', '105', '20', '1', '154', '33', '39', '15', '139', '8', '146', '6', '188', '112', '153', '98', '176', '86', '14', '18', '31'] 907.8282221538929
136 18.15656444307787 ['162', '169', '65', '5', '68', '141', '30', '56', '105', '20', '1', '154', '33', '39', '15', '139', '8', '146', '6', '188', '112', '153', '98', '176', '86', '14', '18', '31'] 907.8282221538929
137 18.15656444307787 ['162', '169', '65', '5', '68', '141', '30', '56', '105', '20', '1', '154', '33', '39', '15', '139', '8', '146', '6', '188', '112', '153', '98', '176', '86', '14', '18', '31'] 907.8282221538929
138 18.15656444307787 ['162', '169', '65', '5', '68', '141', '30', '56', '105', '20', '1', '154', '33', '39', '15', '139', '8', '146', '6', '188', '112', '153', '98', '176', '86', '14', '18', '31'] 907.8282221538929
139 18.15656444307787 ['162', '169', '65', '5', '68', '141', '30', '56', '105', '20', '1', '154', '33', '39', '15', '139', '8', '146', '6', '188', '112', '153', '98', '176', '86', '14', '18', '31'] 907.8282221538929
140 18.15656444307787 ['162', '169', '65', '5', '68', '141', '30', '56', '105', '20', '1', '154', '33', '39', '15', '139', '8', '146', '6', '188', '112', '153', '98', '176', '86', '14', '18', '31'] 907.8282221538929
141 18.15656444307787 ['162', '169', '65', '5', '68', '141', '30', '56', '105', '20', '1', '154', '33', '39', '15', '139', '8', '146', '6', '188', '112', '153', '98', '176', '86', '14', '18', '31'] 907.8282221538929
142 18.15656444307787 ['162', '169', '65', '5', '68', '141', '30', '56', '105', '20', '1', '154', '33', '39', '15', '139', '8', '146', '6', '188', '112', '153', '98', '176', '86', '14', '18', '31'] 907.8282221538929
143 18.15656444307787 ['162', '169', '65', '5', '68', '141', '30', '56', '105', '20', '1', '154', '33', '39', '15', '139', '8', '146', '6', '188', '112', '153', '98', '176', '86', '14', '18', '31'] 907.8282221538929
144 18.15656444307787 ['162', '169', '65', '5', '68', '141', '30', '56', '105', '20', '1', '154', '33', '39', '15', '139', '8', '146', '6', '188', '112', '153', '98', '176', '86', '14', '18', '31'] 907.8282221538929
145 18.15656444307787 ['162', '169', '65', '5', '68', '141', '30', '56', '105', '20', '1', '154', '33', '39', '15', '139', '8', '146', '6', '188', '112', '153', '98', '176', '86', '14', '18', '31'] 907.8282221538929
146 18.15656444307787 ['162', '169', '65', '5', '68', '141', '30', '56', '105', '20', '1', '154', '33', '39', '15', '139', '8', '146', '6', '188', '112', '153', '98', '176', '86', '14', '18', '31'] 907.8282221538929
147 18.15656444307787 ['162', '169', '65', '5', '68', '141', '30', '56', '105', '20', '1', '154', '33', '39', '15', '139', '8', '146', '6', '188', '112', '153', '98', '176', '86', '14', '18', '31'] 907.8282221538929
148 18.15656444307787 ['162', '169', '65', '5', '68', '141', '30', '56', '105', '20', '1', '154', '33', '39', '15', '139', '8', '146', '6', '188', '112', '153', '98', '176', '86', '14', '18', '31'] 907.8282221538929
149 18.15656444307787 ['162', '169', '65', '5', '68', '141', '30', '56', '105', '20', '1', '154', '33', '39', '15', '139', '8', '146', '6', '188', '112', '153', '98', '176', '86', '14', '18', '31'] 907.8282221538929
150 18.15656444307787 ['162', '169', '65', '5', '68', '141', '30', '56', '105', '20', '1', '154', '33', '39', '15', '139', '8', '146', '6', '188', '112', '153', '98', '176', '86', '14', '18', '31'] 907.8282221538929
151 18.15656444307787 ['162', '169', '65', '5', '68', '141', '30', '56', '105', '20', '1', '154', '33', '39', '15', '139', '8', '146', '6', '188', '112', '153', '98', '176', '86', '14', '18', '31'] 907.8282221538929
152 18.15656444307787 ['162', '169', '65', '5', '68', '141', '30', '56', '105', '20', '1', '154', '33', '39', '15', '139', '8', '146', '6', '188', '112', '153', '98', '176', '86', '14', '18', '31'] 907.8282221538929
153 18.15656444307787 ['162', '169', '65', '5', '68', '141', '30', '56', '105', '20', '1', '154', '33', '39', '15', '139', '8', '146', '6', '188', '112', '153', '98', '176', '86', '14', '18', '31'] 907.8282221538929
154 18.15656444307787 ['162', '169', '65', '5', '68', '141', '30', '56', '105', '20', '1', '154', '33', '39', '15', '139', '8', '146', '6', '188', '112', '153', '98', '176', '86', '14', '18', '31'] 907.8282221538929
155 18.15656444307787 ['162', '169', '65', '5', '68', '141', '30', '56', '105', '20', '1', '154', '33', '39', '15', '139', '8', '146', '6', '188', '112', '153', '98', '176', '86', '14', '18', '31'] 907.8282221538929
156 18.15656444307787 ['162', '169', '65', '5', '68', '141', '30', '56', '105', '20', '1', '154', '33', '39', '15', '139', '8', '146', '6', '188', '112', '153', '98', '176', '86', '14', '18', '31'] 907.8282221538929
157 18.15656444307787 ['162', '169', '65', '5', '68', '141', '30', '56', '105', '20', '1', '154', '33', '39', '15', '139', '8', '146', '6', '188', '112', '153', '98', '176', '86', '14', '18', '31'] 907.8282221538929
158 18.15656444307787 ['162', '169', '65', '5', '68', '141', '30', '56', '105', '20', '1', '154', '33', '39', '15', '139', '8', '146', '6', '188', '112', '153', '98', '176', '86', '14', '18', '31'] 907.8282221538929
159 18.15656444307787 ['162', '169', '65', '5', '68', '141', '30', '56', '105', '20', '1', '154', '33', '39', '15', '139', '8', '146', '6', '188', '112', '153', '98', '176', '86', '14', '18', '31'] 907.8282221538929
160 18.15656444307787 ['162', '169', '65', '5', '68', '141', '30', '56', '105', '20', '1', '154', '33', '39', '15', '139', '8', '146', '6', '188', '112', '153', '98', '176', '86', '14', '18', '31'] 907.8282221538929
161 18.15656444307787 ['162', '169', '65', '5', '68', '141', '30', '56', '105', '20', '1', '154', '33', '39', '15', '139', '8', '146', '6', '188', '112', '153', '98', '176', '86', '14', '18', '31'] 907.8282221538929
162 18.15656444307787 ['162', '169', '65', '5', '68', '141', '30', '56', '105', '20', '1', '154', '33', '39', '15', '139', '8', '146', '6', '188', '112', '153', '98', '176', '86', '14', '18', '31'] 907.8282221538929
163 18.15656444307787 ['162', '169', '65', '5', '68', '141', '30', '56', '105', '20', '1', '154', '33', '39', '15', '139', '8', '146', '6', '188', '112', '153', '98', '176', '86', '14', '18', '31'] 907.8282221538929
164 18.15656444307787 ['162', '169', '65', '5', '68', '141', '30', '56', '105', '20', '1', '154', '33', '39', '15', '139', '8', '146', '6', '188', '112', '153', '98', '176', '86', '14', '18', '31'] 907.8282221538929
165 18.15656444307787 ['162', '169', '65', '5', '68', '141', '30', '56', '105', '20', '1', '154', '33', '39', '15', '139', '8', '146', '6', '188', '112', '153', '98', '176', '86', '14', '18', '31'] 907.8282221538929
166 18.15656444307787 ['162', '169', '65', '5', '68', '141', '30', '56', '105', '20', '1', '154', '33', '39', '15', '139', '8', '146', '6', '188', '112', '153', '98', '176', '86', '14', '18', '31'] 907.8282221538929
167 18.15656444307787 ['162', '169', '65', '5', '68', '141', '30', '56', '105', '20', '1', '154', '33', '39', '15', '139', '8', '146', '6', '188', '112', '153', '98', '176', '86', '14', '18', '31'] 907.8282221538929
168 18.15656444307787 ['162', '169', '65', '5', '68', '141', '30', '56', '105', '20', '1', '154', '33', '39', '15', '139', '8', '146', '6', '188', '112', '153', '98', '176', '86', '14', '18', '31'] 907.8282221538929
169 18.15656444307787 ['162', '169', '65', '5', '68', '141', '30', '56', '105', '20', '1', '154', '33', '39', '15', '139', '8', '146', '6', '188', '112', '153', '98', '176', '86', '14', '18', '31'] 907.8282221538929
170 18.15656444307787 ['162', '169', '65', '5', '68', '141', '30', '56', '105', '20', '1', '154', '33', '39', '15', '139', '8', '146', '6', '188', '112', '153', '98', '176', '86', '14', '18', '31'] 907.8282221538929
171 18.15656444307787 ['162', '169', '65', '5', '68', '141', '30', '56', '105', '20', '1', '154', '33', '39', '15', '139', '8', '146', '6', '188', '112', '153', '98', '176', '86', '14', '18', '31'] 907.8282221538929
172 18.15656444307787 ['162', '169', '65', '5', '68', '141', '30', '56', '105', '20', '1', '154', '33', '39', '15', '139', '8', '146', '6', '188', '112', '153', '98', '176', '86', '14', '18', '31'] 907.8282221538929
173 18.15656444307787 ['162', '169', '65', '5', '68', '141', '30', '56', '105', '20', '1', '154', '33', '39', '15', '139', '8', '146', '6', '188', '112', '153', '98', '176', '86', '14', '18', '31'] 907.8282221538929
174 18.15656444307787 ['162', '169', '65', '5', '68', '141', '30', '56', '105', '20', '1', '154', '33', '39', '15', '139', '8', '146', '6', '188', '112', '153', '98', '176', '86', '14', '18', '31'] 907.8282221538929
175 18.15656444307787 ['162', '169', '65', '5', '68', '141', '30', '56', '105', '20', '1', '154', '33', '39', '15', '139', '8', '146', '6', '188', '112', '153', '98', '176', '86', '14', '18', '31'] 907.8282221538929
176 18.15656444307787 ['162', '169', '65', '5', '68', '141', '30', '56', '105', '20', '1', '154', '33', '39', '15', '139', '8', '146', '6', '188', '112', '153', '98', '176', '86', '14', '18', '31'] 907.8282221538929
177 18.15656444307787 ['162', '169', '65', '5', '68', '141', '30', '56', '105', '20', '1', '154', '33', '39', '15', '139', '8', '146', '6', '188', '112', '153', '98', '176', '86', '14', '18', '31'] 907.8282221538929
178 18.15656444307787 ['162', '169', '65', '5', '68', '141', '30', '56', '105', '20', '1', '154', '33', '39', '15', '139', '8', '146', '6', '188', '112', '153', '98', '176', '86', '14', '18', '31'] 907.8282221538929
179 18.15656444307787 ['162', '169', '65', '5', '68', '141', '30', '56', '105', '20', '1', '154', '33', '39', '15', '139', '8', '146', '6', '188', '112', '153', '98', '176', '86', '14', '18', '31'] 907.8282221538929
180 18.15656444307787 ['162', '169', '65', '5', '68', '141', '30', '56', '105', '20', '1', '154', '33', '39', '15', '139', '8', '146', '6', '188', '112', '153', '98', '176', '86', '14', '18', '31'] 907.8282221538929
181 18.15656444307787 ['162', '169', '65', '5', '68', '141', '30', '56', '105', '20', '1', '154', '33', '39', '15', '139', '8', '146', '6', '188', '112', '153', '98', '176', '86', '14', '18', '31'] 907.8282221538929
182 18.15656444307787 ['162', '169', '65', '5', '68', '141', '30', '56', '105', '20', '1', '154', '33', '39', '15', '139', '8', '146', '6', '188', '112', '153', '98', '176', '86', '14', '18', '31'] 907.8282221538929
183 18.15656444307787 ['162', '169', '65', '5', '68', '141', '30', '56', '105', '20', '1', '154', '33', '39', '15', '139', '8', '146', '6', '188', '112', '153', '98', '176', '86', '14', '18', '31'] 907.8282221538929
184 18.15656444307787 ['162', '169', '65', '5', '68', '141', '30', '56', '105', '20', '1', '154', '33', '39', '15', '139', '8', '146', '6', '188', '112', '153', '98', '176', '86', '14', '18', '31'] 907.8282221538929
185 18.15656444307787 ['162', '169', '65', '5', '68', '141', '30', '56', '105', '20', '1', '154', '33', '39', '15', '139', '8', '146', '6', '188', '112', '153', '98', '176', '86', '14', '18', '31'] 907.8282221538929
186 18.15656444307787 ['162', '169', '65', '5', '68', '141', '30', '56', '105', '20', '1', '154', '33', '39', '15', '139', '8', '146', '6', '188', '112', '153', '98', '176', '86', '14', '18', '31'] 907.8282221538929
187 18.15656444307787 ['162', '169', '65', '5', '68', '141', '30', '56', '105', '20', '1', '154', '33', '39', '15', '139', '8', '146', '6', '188', '112', '153', '98', '176', '86', '14', '18', '31'] 907.8282221538929
188 18.15656444307787 ['162', '169', '65', '5', '68', '141', '30', '56', '105', '20', '1', '154', '33', '39', '15', '139', '8', '146', '6', '188', '112', '153', '98', '176', '86', '14', '18', '31'] 907.8282221538929
189 18.15656444307787 ['162', '169', '65', '5', '68', '141', '30', '56', '105', '20', '1', '154', '33', '39', '15', '139', '8', '146', '6', '188', '112', '153', '98', '176', '86', '14', '18', '31'] 907.8282221538929
190 18.15656444307787 ['162', '169', '65', '5', '68', '141', '30', '56', '105', '20', '1', '154', '33', '39', '15', '139', '8', '146', '6', '188', '112', '153', '98', '176', '86', '14', '18', '31'] 907.8282221538929
191 18.15656444307787 ['162', '169', '65', '5', '68', '141', '30', '56', '105', '20', '1', '154', '33', '39', '15', '139', '8', '146', '6', '188', '112', '153', '98', '176', '86', '14', '18', '31'] 907.8282221538929
192 18.15656444307787 ['162', '169', '65', '5', '68', '141', '30', '56', '105', '20', '1', '154', '33', '39', '15', '139', '8', '146', '6', '188', '112', '153', '98', '176', '86', '14', '18', '31'] 907.8282221538929
193 18.15656444307787 ['162', '169', '65', '5', '68', '141', '30', '56', '105', '20', '1', '154', '33', '39', '15', '139', '8', '146', '6', '188', '112', '153', '98', '176', '86', '14', '18', '31'] 907.8282221538929
194 18.15656444307787 ['162', '169', '65', '5', '68', '141', '30', '56', '105', '20', '1', '154', '33', '39', '15', '139', '8', '146', '6', '188', '112', '153', '98', '176', '86', '14', '18', '31'] 907.8282221538929
195 18.15656444307787 ['162', '169', '65', '5', '68', '141', '30', '56', '105', '20', '1', '154', '33', '39', '15', '139', '8', '146', '6', '188', '112', '153', '98', '176', '86', '14', '18', '31'] 907.8282221538929
196 18.15656444307787 ['162', '169', '65', '5', '68', '141', '30', '56', '105', '20', '1', '154', '33', '39', '15', '139', '8', '146', '6', '188', '112', '153', '98', '176', '86', '14', '18', '31'] 907.8282221538929
197 18.15656444307787 ['162', '169', '65', '5', '68', '141', '30', '56', '105', '20', '1', '154', '33', '39', '15', '139', '8', '146', '6', '188', '112', '153', '98', '176', '86', '14', '18', '31'] 907.8282221538929
198 18.15656444307787 ['162', '169', '65', '5', '68', '141', '30', '56', '105', '20', '1', '154', '33', '39', '15', '139', '8', '146', '6', '188', '112', '153', '98', '176', '86', '14', '18', '31'] 907.8282221538929
199 18.15656444307787 ['162', '169', '65', '5', '68', '141', '30', '56', '105', '20', '1', '154', '33', '39', '15', '139', '8', '146', '6', '188', '112', '153', '98', '176', '86', '14', '18', '31'] 907.8282221538929
