0 332.6771653543307 ['101', '66', '43', '152', '136', '16', '231', '19', '150', '33', '276', '248', '54', '202', '199', '215', '163', '185', '31', '139', '172', '124', '254', '234', '190', '119', '134', '1'] 17126.582677165356
1 318.751968503937 ['36', '102', '109', '71', '251', '79', '52', '171', '150', '19', '153', '162', '22', '50', '250', '139', '176', '226', '86', '164', '182', '105', '255', '55', '177', '217', '209', '136'] 16864.874015748028
2 318.751968503937 ['36', '102', '109', '71', '251', '79', '52', '171', '150', '19', '153', '162', '22', '50', '250', '139', '176', '226', '86', '164', '182', '105', '255', '55', '177', '217', '209', '136'] 16617.96850393701
3 318.751968503937 ['36', '102', '109', '71', '251', '79', '52', '171', '150', '19', '153', '162', '22', '50', '250', '139', '176', '226', '86', '164', '182', '105', '255', '55', '177', '217', '209', '136'] 16424.141732283464
4 308.38188976377955 ['105', '19', '136', '47', '112', '43', '176', '1', '174', '162', '62', '14', '153', '180', '139', '251', '182', '71', '255', '98', '190', '165', '273', '226', '33', '97', '242', '222'] 16147.381889763776
5 306.2716535433071 ['62', '71', '152', '188', '199', '231', '134', '98', '15', '136', '147', '234', '21', '185', '46', '114', '215', '26', '235', '229', '103', '86', '167', '31', '242', '51', '106', '105'] 15936.200787401574
6 302.68897637795277 ['145', '98', '71', '167', '31', '152', '105', '56', '39', '65', '245', '276', '46', '16', '86', '26', '33', '136', '176', '153', '190', '156', '174', '97', '134', '162', '164', '182'] 15718.047244094489
7 296.2755905511811 ['139', '36', '134', '98', '33', '56', '136', '119', '57', '226', '153', '106', '162', '156', '262', '75', '71', '199', '133', '105', '79', '112', '50', '109', '30', '16', '234', '250'] 15478.153543307088
8 285.37795275590554 ['164', '16', '98', '139', '109', '33', '75', '31', '231', '18', '226', '153', '106', '57', '56', '112', '19', '188', '26', '30', '199', '66', '79', '50', '250', '52', '162', '277'] 15224.988188976376
9 285.37795275590554 ['164', '16', '98', '139', '109', '33', '75', '31', '231', '18', '226', '153', '106', '57', '56', '112', '19', '188', '26', '30', '199', '66', '79', '50', '250', '52', '162', '277'] 14965.917322834646
10 279.62204724409446 ['187', '136', '16', '86', '33', '31', '98', '162', '112', '36', '199', '1', '134', '47', '254', '212', '105', '262', '39', '50', '231', '30', '18', '71', '230', '177', '139', '79'] 14697.948818897637
11 275.9803149606299 ['105', '226', '276', '139', '134', '56', '30', '112', '262', '71', '153', '16', '176', '18', '164', '229', '66', '152', '147', '98', '31', '19', '86', '75', '175', '33', '46', '1'] 14440.590551181103
12 271.5826771653543 ['139', '162', '187', '56', '31', '262', '16', '153', '199', '50', '109', '71', '98', '105', '30', '106', '164', '19', '152', '39', '112', '15', '103', '20', '47', '136', '18', '1'] 14219.346456692916
13 270.4488188976378 ['98', '262', '1', '18', '103', '139', '153', '16', '71', '136', '30', '106', '162', '112', '105', '20', '39', '109', '156', '33', '15', '164', '134', '226', '147', '86', '36', '47'] 14010.035433070863
14 266.503937007874 ['36', '153', '98', '139', '226', '262', '18', '147', '105', '134', '33', '112', '162', '164', '30', '136', '16', '1', '106', '15', '66', '86', '175', '177', '71', '103', '50', '39'] 13813.437007874016
15 261.90944881889766 ['66', '162', '16', '36', '98', '30', '103', '139', '18', '226', '164', '106', '1', '153', '112', '105', '71', '31', '175', '33', '147', '20', '39', '109', '177', '56', '134', '86'] 13629.145669291342
16 261.90944881889766 ['66', '162', '16', '36', '98', '30', '103', '139', '18', '226', '164', '106', '1', '153', '112', '105', '71', '31', '175', '33', '147', '20', '39', '109', '177', '56', '134', '86'] 13483.724409448814
17 261.90944881889766 ['66', '162', '16', '36', '98', '30', '103', '139', '18', '226', '164', '106', '1', '153', '112', '105', '71', '31', '175', '33', '147', '20', '39', '109', '177', '56', '134', '86'] 13375.358267716534
18 261.3228346456693 ['136', '134', '36', '16', '18', '139', '153', '86', '71', '262', '98', '30', '106', '112', '164', '1', '105', '103', '66', '33', '162', '31', '56', '19', '39', '14', '50', '175'] 13283.3031496063
19 259.2283464566929 ['30', '139', '1', '162', '71', '176', '134', '36', '147', '136', '153', '31', '105', '39', '106', '109', '16', '112', '47', '18', '98', '15', '215', '33', '86', '56', '164', '66'] 13206.122047244095
20 259.2283464566929 ['30', '139', '1', '162', '71', '176', '134', '36', '147', '136', '153', '31', '105', '39', '106', '109', '16', '112', '47', '18', '98', '15', '215', '33', '86', '56', '164', '66'] 13137.988188976378
21 257.12204724409446 ['56', '30', '139', '162', '71', '1', '15', '33', '153', '47', '36', '106', '31', '112', '16', '136', '134', '18', '66', '105', '176', '86', '98', '164', '147', '39', '109', '20'] 13070.744094488187
22 256.9527559055118 ['139', '33', '31', '147', '86', '134', '66', '112', '56', '98', '71', '16', '36', '1', '136', '162', '19', '153', '30', '18', '106', '105', '164', '14', '65', '39', '176', '46'] 13002.846456692916
23 256.68503937007875 ['33', '112', '16', '36', '86', '164', '71', '18', '106', '134', '66', '39', '31', '98', '162', '30', '136', '147', '56', '139', '105', '153', '1', '15', '20', '47', '46', '215'] 12937.944881889762
24 256.1692913385827 ['30', '176', '18', '31', '134', '153', '105', '139', '1', '16', '15', '20', '112', '39', '98', '36', '33', '106', '136', '56', '162', '66', '86', '71', '47', '147', '177', '75'] 12888.157480314967
25 253.8031496062992 ['18', '162', '86', '1', '139', '30', '15', '20', '16', '33', '66', '105', '31', '106', '153', '39', '134', '36', '47', '98', '112', '136', '147', '164', '71', '19', '56', '14'] 12854.200787401569
26 253.8031496062992 ['18', '162', '86', '1', '139', '30', '15', '20', '16', '33', '66', '105', '31', '106', '153', '39', '134', '36', '47', '98', '112', '136', '147', '164', '71', '19', '56', '14'] 12820.645669291336
27 253.8031496062992 ['18', '162', '86', '1', '139', '30', '15', '20', '16', '33', '66', '105', '31', '106', '153', '39', '134', '36', '47', '98', '112', '136', '147', '164', '71', '19', '56', '14'] 12788.236220472443
28 253.8031496062992 ['18', '162', '86', '1', '139', '30', '15', '20', '16', '33', '66', '105', '31', '106', '153', '39', '134', '36', '47', '98', '112', '136', '147', '164', '71', '19', '56', '14'] 12765.775590551175
29 253.68503937007873 ['39', '139', '112', '164', '20', '106', '30', '15', '136', '71', '36', '66', '105', '33', '162', '31', '134', '16', '56', '153', '147', '18', '98', '1', '86', '14', '175', '19'] 12736.566929133853
30 252.26771653543307 ['36', '71', '105', '39', '15', '162', '112', '134', '86', '56', '33', '106', '153', '66', '16', '147', '98', '31', '20', '30', '136', '18', '139', '1', '164', '175', '169', '14'] 12712.492125984252
31 252.26771653543307 ['36', '71', '105', '39', '15', '162', '112', '134', '86', '56', '33', '106', '153', '66', '16', '147', '98', '31', '20', '30', '136', '18', '139', '1', '164', '175', '169', '14'] 12695.322834645673
32 252.26771653543307 ['36', '71', '105', '39', '15', '162', '112', '134', '86', '56', '33', '106', '153', '66', '16', '147', '98', '31', '20', '30', '136', '18', '139', '1', '164', '175', '169', '14'] 12670.657480314969
33 252.26771653543307 ['36', '71', '105', '39', '15', '162', '112', '134', '86', '56', '33', '106', '153', '66', '16', '147', '98', '31', '20', '30', '136', '18', '139', '1', '164', '175', '169', '14'] 12642.196850393702
34 251.57874015748033 ['31', '147', '71', '134', '36', '112', '30', '20', '136', '16', '139', '18', '56', '86', '33', '39', '14', '175', '1', '98', '15', '162', '153', '105', '66', '106', '65', '169'] 12622.952755905511
35 251.54724409448818 ['30', '153', '18', '16', '106', '20', '147', '162', '56', '39', '105', '66', '36', '139', '15', '71', '86', '112', '169', '98', '14', '31', '136', '33', '134', '1', '47', '175'] 12616.350393700792
36 251.54724409448818 ['30', '153', '18', '16', '106', '20', '147', '162', '56', '39', '105', '66', '36', '139', '15', '71', '86', '112', '169', '98', '14', '31', '136', '33', '134', '1', '47', '175'] 12609.208661417317
37 251.54724409448818 ['30', '153', '18', '16', '106', '20', '147', '162', '56', '39', '105', '66', '36', '139', '15', '71', '86', '112', '169', '98', '14', '31', '136', '33', '134', '1', '47', '175'] 12602.736220472438
38 251.54724409448818 ['30', '153', '18', '16', '106', '20', '147', '162', '56', '39', '105', '66', '36', '139', '15', '71', '86', '112', '169', '98', '14', '31', '136', '33', '134', '1', '47', '175'] 12592.712598425194
39 251.54724409448818 ['30', '153', '18', '16', '106', '20', '147', '162', '56', '39', '105', '66', '36', '139', '15', '71', '86', '112', '169', '98', '14', '31', '136', '33', '134', '1', '47', '175'] 12577.645669291345
40 251.54724409448818 ['30', '153', '18', '16', '106', '20', '147', '162', '56', '39', '105', '66', '36', '139', '15', '71', '86', '112', '169', '98', '14', '31', '136', '33', '134', '1', '47', '175'] 12577.362204724424
41 251.54724409448818 ['30', '153', '18', '16', '106', '20', '147', '162', '56', '39', '105', '66', '36', '139', '15', '71', '86', '112', '169', '98', '14', '31', '136', '33', '134', '1', '47', '175'] 12577.362204724424
42 251.54724409448818 ['30', '153', '18', '16', '106', '20', '147', '162', '56', '39', '105', '66', '36', '139', '15', '71', '86', '112', '169', '98', '14', '31', '136', '33', '134', '1', '47', '175'] 12577.362204724424
43 251.54724409448818 ['30', '153', '18', '16', '106', '20', '147', '162', '56', '39', '105', '66', '36', '139', '15', '71', '86', '112', '169', '98', '14', '31', '136', '33', '134', '1', '47', '175'] 12577.362204724424
44 251.54724409448818 ['30', '153', '18', '16', '106', '20', '147', '162', '56', '39', '105', '66', '36', '139', '15', '71', '86', '112', '169', '98', '14', '31', '136', '33', '134', '1', '47', '175'] 12577.362204724424
45 251.54724409448818 ['30', '153', '18', '16', '106', '20', '147', '162', '56', '39', '105', '66', '36', '139', '15', '71', '86', '112', '169', '98', '14', '31', '136', '33', '134', '1', '47', '175'] 12577.362204724424
46 251.54724409448818 ['30', '153', '18', '16', '106', '20', '147', '162', '56', '39', '105', '66', '36', '139', '15', '71', '86', '112', '169', '98', '14', '31', '136', '33', '134', '1', '47', '175'] 12577.362204724424
47 251.54724409448818 ['30', '153', '18', '16', '106', '20', '147', '162', '56', '39', '105', '66', '36', '139', '15', '71', '86', '112', '169', '98', '14', '31', '136', '33', '134', '1', '47', '175'] 12577.362204724424
48 251.54724409448818 ['30', '153', '18', '16', '106', '20', '147', '162', '56', '39', '105', '66', '36', '139', '15', '71', '86', '112', '169', '98', '14', '31', '136', '33', '134', '1', '47', '175'] 12577.362204724424
49 251.54724409448818 ['30', '153', '18', '16', '106', '20', '147', '162', '56', '39', '105', '66', '36', '139', '15', '71', '86', '112', '169', '98', '14', '31', '136', '33', '134', '1', '47', '175'] 12577.362204724424
50 251.54724409448818 ['30', '153', '18', '16', '106', '20', '147', '162', '56', '39', '105', '66', '36', '139', '15', '71', '86', '112', '169', '98', '14', '31', '136', '33', '134', '1', '47', '175'] 12577.362204724424
51 251.54724409448818 ['30', '153', '18', '16', '106', '20', '147', '162', '56', '39', '105', '66', '36', '139', '15', '71', '86', '112', '169', '98', '14', '31', '136', '33', '134', '1', '47', '175'] 12577.362204724424
52 251.54724409448818 ['30', '153', '18', '16', '106', '20', '147', '162', '56', '39', '105', '66', '36', '139', '15', '71', '86', '112', '169', '98', '14', '31', '136', '33', '134', '1', '47', '175'] 12577.362204724424
53 251.54724409448818 ['30', '153', '18', '16', '106', '20', '147', '162', '56', '39', '105', '66', '36', '139', '15', '71', '86', '112', '169', '98', '14', '31', '136', '33', '134', '1', '47', '175'] 12577.362204724424
54 251.54724409448818 ['30', '153', '18', '16', '106', '20', '147', '162', '56', '39', '105', '66', '36', '139', '15', '71', '86', '112', '169', '98', '14', '31', '136', '33', '134', '1', '47', '175'] 12577.362204724424
55 251.54724409448818 ['30', '153', '18', '16', '106', '20', '147', '162', '56', '39', '105', '66', '36', '139', '15', '71', '86', '112', '169', '98', '14', '31', '136', '33', '134', '1', '47', '175'] 12577.362204724424
56 251.54724409448818 ['30', '153', '18', '16', '106', '20', '147', '162', '56', '39', '105', '66', '36', '139', '15', '71', '86', '112', '169', '98', '14', '31', '136', '33', '134', '1', '47', '175'] 12577.362204724424
57 251.54724409448818 ['30', '153', '18', '16', '106', '20', '147', '162', '56', '39', '105', '66', '36', '139', '15', '71', '86', '112', '169', '98', '14', '31', '136', '33', '134', '1', '47', '175'] 12577.362204724424
58 251.54724409448818 ['30', '153', '18', '16', '106', '20', '147', '162', '56', '39', '105', '66', '36', '139', '15', '71', '86', '112', '169', '98', '14', '31', '136', '33', '134', '1', '47', '175'] 12577.362204724424
59 251.54724409448818 ['30', '153', '18', '16', '106', '20', '147', '162', '56', '39', '105', '66', '36', '139', '15', '71', '86', '112', '169', '98', '14', '31', '136', '33', '134', '1', '47', '175'] 12577.362204724424
60 251.54724409448818 ['30', '153', '18', '16', '106', '20', '147', '162', '56', '39', '105', '66', '36', '139', '15', '71', '86', '112', '169', '98', '14', '31', '136', '33', '134', '1', '47', '175'] 12577.362204724424
61 251.54724409448818 ['30', '153', '18', '16', '106', '20', '147', '162', '56', '39', '105', '66', '36', '139', '15', '71', '86', '112', '169', '98', '14', '31', '136', '33', '134', '1', '47', '175'] 12577.362204724424
62 251.54724409448818 ['30', '153', '18', '16', '106', '20', '147', '162', '56', '39', '105', '66', '36', '139', '15', '71', '86', '112', '169', '98', '14', '31', '136', '33', '134', '1', '47', '175'] 12577.362204724424
63 251.54724409448818 ['30', '153', '18', '16', '106', '20', '147', '162', '56', '39', '105', '66', '36', '139', '15', '71', '86', '112', '169', '98', '14', '31', '136', '33', '134', '1', '47', '175'] 12577.362204724424
64 251.54724409448818 ['30', '153', '18', '16', '106', '20', '147', '162', '56', '39', '105', '66', '36', '139', '15', '71', '86', '112', '169', '98', '14', '31', '136', '33', '134', '1', '47', '175'] 12577.362204724424
65 251.54724409448818 ['30', '153', '18', '16', '106', '20', '147', '162', '56', '39', '105', '66', '36', '139', '15', '71', '86', '112', '169', '98', '14', '31', '136', '33', '134', '1', '47', '175'] 12577.362204724424
66 251.54724409448818 ['30', '153', '18', '16', '106', '20', '147', '162', '56', '39', '105', '66', '36', '139', '15', '71', '86', '112', '169', '98', '14', '31', '136', '33', '134', '1', '47', '175'] 12577.362204724424
67 251.54724409448818 ['30', '153', '18', '16', '106', '20', '147', '162', '56', '39', '105', '66', '36', '139', '15', '71', '86', '112', '169', '98', '14', '31', '136', '33', '134', '1', '47', '175'] 12577.362204724424
68 251.54724409448818 ['30', '153', '18', '16', '106', '20', '147', '162', '56', '39', '105', '66', '36', '139', '15', '71', '86', '112', '169', '98', '14', '31', '136', '33', '134', '1', '47', '175'] 12577.362204724424
69 251.54724409448818 ['30', '153', '18', '16', '106', '20', '147', '162', '56', '39', '105', '66', '36', '139', '15', '71', '86', '112', '169', '98', '14', '31', '136', '33', '134', '1', '47', '175'] 12577.362204724424
70 251.54724409448818 ['30', '153', '18', '16', '106', '20', '147', '162', '56', '39', '105', '66', '36', '139', '15', '71', '86', '112', '169', '98', '14', '31', '136', '33', '134', '1', '47', '175'] 12577.362204724424
71 251.54724409448818 ['30', '153', '18', '16', '106', '20', '147', '162', '56', '39', '105', '66', '36', '139', '15', '71', '86', '112', '169', '98', '14', '31', '136', '33', '134', '1', '47', '175'] 12577.362204724424
72 251.54724409448818 ['30', '153', '18', '16', '106', '20', '147', '162', '56', '39', '105', '66', '36', '139', '15', '71', '86', '112', '169', '98', '14', '31', '136', '33', '134', '1', '47', '175'] 12577.362204724424
73 251.54724409448818 ['30', '153', '18', '16', '106', '20', '147', '162', '56', '39', '105', '66', '36', '139', '15', '71', '86', '112', '169', '98', '14', '31', '136', '33', '134', '1', '47', '175'] 12577.362204724424
74 251.54724409448818 ['30', '153', '18', '16', '106', '20', '147', '162', '56', '39', '105', '66', '36', '139', '15', '71', '86', '112', '169', '98', '14', '31', '136', '33', '134', '1', '47', '175'] 12577.362204724424
75 251.54724409448818 ['30', '153', '18', '16', '106', '20', '147', '162', '56', '39', '105', '66', '36', '139', '15', '71', '86', '112', '169', '98', '14', '31', '136', '33', '134', '1', '47', '175'] 12577.362204724424
76 251.54724409448818 ['30', '153', '18', '16', '106', '20', '147', '162', '56', '39', '105', '66', '36', '139', '15', '71', '86', '112', '169', '98', '14', '31', '136', '33', '134', '1', '47', '175'] 12577.362204724424
77 251.54724409448818 ['30', '153', '18', '16', '106', '20', '147', '162', '56', '39', '105', '66', '36', '139', '15', '71', '86', '112', '169', '98', '14', '31', '136', '33', '134', '1', '47', '175'] 12577.362204724424
78 251.54724409448818 ['30', '153', '18', '16', '106', '20', '147', '162', '56', '39', '105', '66', '36', '139', '15', '71', '86', '112', '169', '98', '14', '31', '136', '33', '134', '1', '47', '175'] 12577.362204724424
79 251.54724409448818 ['30', '153', '18', '16', '106', '20', '147', '162', '56', '39', '105', '66', '36', '139', '15', '71', '86', '112', '169', '98', '14', '31', '136', '33', '134', '1', '47', '175'] 12577.362204724424
80 251.54724409448818 ['30', '153', '18', '16', '106', '20', '147', '162', '56', '39', '105', '66', '36', '139', '15', '71', '86', '112', '169', '98', '14', '31', '136', '33', '134', '1', '47', '175'] 12577.362204724424
81 251.54724409448818 ['30', '153', '18', '16', '106', '20', '147', '162', '56', '39', '105', '66', '36', '139', '15', '71', '86', '112', '169', '98', '14', '31', '136', '33', '134', '1', '47', '175'] 12577.362204724424
82 251.54724409448818 ['30', '153', '18', '16', '106', '20', '147', '162', '56', '39', '105', '66', '36', '139', '15', '71', '86', '112', '169', '98', '14', '31', '136', '33', '134', '1', '47', '175'] 12577.362204724424
83 251.54724409448818 ['30', '153', '18', '16', '106', '20', '147', '162', '56', '39', '105', '66', '36', '139', '15', '71', '86', '112', '169', '98', '14', '31', '136', '33', '134', '1', '47', '175'] 12577.362204724424
84 251.54724409448818 ['30', '153', '18', '16', '106', '20', '147', '162', '56', '39', '105', '66', '36', '139', '15', '71', '86', '112', '169', '98', '14', '31', '136', '33', '134', '1', '47', '175'] 12577.362204724424
85 251.54724409448818 ['30', '153', '18', '16', '106', '20', '147', '162', '56', '39', '105', '66', '36', '139', '15', '71', '86', '112', '169', '98', '14', '31', '136', '33', '134', '1', '47', '175'] 12577.362204724424
86 251.54724409448818 ['30', '153', '18', '16', '106', '20', '147', '162', '56', '39', '105', '66', '36', '139', '15', '71', '86', '112', '169', '98', '14', '31', '136', '33', '134', '1', '47', '175'] 12577.362204724424
87 251.54724409448818 ['30', '153', '18', '16', '106', '20', '147', '162', '56', '39', '105', '66', '36', '139', '15', '71', '86', '112', '169', '98', '14', '31', '136', '33', '134', '1', '47', '175'] 12577.362204724424
88 251.54724409448818 ['30', '153', '18', '16', '106', '20', '147', '162', '56', '39', '105', '66', '36', '139', '15', '71', '86', '112', '169', '98', '14', '31', '136', '33', '134', '1', '47', '175'] 12577.362204724424
89 251.54724409448818 ['30', '153', '18', '16', '106', '20', '147', '162', '56', '39', '105', '66', '36', '139', '15', '71', '86', '112', '169', '98', '14', '31', '136', '33', '134', '1', '47', '175'] 12577.362204724424
90 251.54724409448818 ['30', '153', '18', '16', '106', '20', '147', '162', '56', '39', '105', '66', '36', '139', '15', '71', '86', '112', '169', '98', '14', '31', '136', '33', '134', '1', '47', '175'] 12577.362204724424
91 251.54724409448818 ['30', '153', '18', '16', '106', '20', '147', '162', '56', '39', '105', '66', '36', '139', '15', '71', '86', '112', '169', '98', '14', '31', '136', '33', '134', '1', '47', '175'] 12577.362204724424
92 251.54724409448818 ['30', '153', '18', '16', '106', '20', '147', '162', '56', '39', '105', '66', '36', '139', '15', '71', '86', '112', '169', '98', '14', '31', '136', '33', '134', '1', '47', '175'] 12577.362204724424
93 251.54724409448818 ['30', '153', '18', '16', '106', '20', '147', '162', '56', '39', '105', '66', '36', '139', '15', '71', '86', '112', '169', '98', '14', '31', '136', '33', '134', '1', '47', '175'] 12577.362204724424
94 251.54724409448818 ['30', '153', '18', '16', '106', '20', '147', '162', '56', '39', '105', '66', '36', '139', '15', '71', '86', '112', '169', '98', '14', '31', '136', '33', '134', '1', '47', '175'] 12577.362204724424
95 251.54724409448818 ['30', '153', '18', '16', '106', '20', '147', '162', '56', '39', '105', '66', '36', '139', '15', '71', '86', '112', '169', '98', '14', '31', '136', '33', '134', '1', '47', '175'] 12577.362204724424
96 251.54724409448818 ['30', '153', '18', '16', '106', '20', '147', '162', '56', '39', '105', '66', '36', '139', '15', '71', '86', '112', '169', '98', '14', '31', '136', '33', '134', '1', '47', '175'] 12577.362204724424
97 251.54724409448818 ['30', '153', '18', '16', '106', '20', '147', '162', '56', '39', '105', '66', '36', '139', '15', '71', '86', '112', '169', '98', '14', '31', '136', '33', '134', '1', '47', '175'] 12577.362204724424
98 251.54724409448818 ['30', '153', '18', '16', '106', '20', '147', '162', '56', '39', '105', '66', '36', '139', '15', '71', '86', '112', '169', '98', '14', '31', '136', '33', '134', '1', '47', '175'] 12577.362204724424
99 251.54724409448818 ['30', '153', '18', '16', '106', '20', '147', '162', '56', '39', '105', '66', '36', '139', '15', '71', '86', '112', '169', '98', '14', '31', '136', '33', '134', '1', '47', '175'] 12577.362204724424
100 251.54724409448818 ['30', '153', '18', '16', '106', '20', '147', '162', '56', '39', '105', '66', '36', '139', '15', '71', '86', '112', '169', '98', '14', '31', '136', '33', '134', '1', '47', '175'] 12577.362204724424
101 251.54724409448818 ['30', '153', '18', '16', '106', '20', '147', '162', '56', '39', '105', '66', '36', '139', '15', '71', '86', '112', '169', '98', '14', '31', '136', '33', '134', '1', '47', '175'] 12577.362204724424
102 251.54724409448818 ['30', '153', '18', '16', '106', '20', '147', '162', '56', '39', '105', '66', '36', '139', '15', '71', '86', '112', '169', '98', '14', '31', '136', '33', '134', '1', '47', '175'] 12577.362204724424
103 251.54724409448818 ['30', '153', '18', '16', '106', '20', '147', '162', '56', '39', '105', '66', '36', '139', '15', '71', '86', '112', '169', '98', '14', '31', '136', '33', '134', '1', '47', '175'] 12577.362204724424
104 251.54724409448818 ['30', '153', '18', '16', '106', '20', '147', '162', '56', '39', '105', '66', '36', '139', '15', '71', '86', '112', '169', '98', '14', '31', '136', '33', '134', '1', '47', '175'] 12577.362204724424
105 251.54724409448818 ['30', '153', '18', '16', '106', '20', '147', '162', '56', '39', '105', '66', '36', '139', '15', '71', '86', '112', '169', '98', '14', '31', '136', '33', '134', '1', '47', '175'] 12577.362204724424
106 251.54724409448818 ['30', '153', '18', '16', '106', '20', '147', '162', '56', '39', '105', '66', '36', '139', '15', '71', '86', '112', '169', '98', '14', '31', '136', '33', '134', '1', '47', '175'] 12577.362204724424
107 251.54724409448818 ['30', '153', '18', '16', '106', '20', '147', '162', '56', '39', '105', '66', '36', '139', '15', '71', '86', '112', '169', '98', '14', '31', '136', '33', '134', '1', '47', '175'] 12577.362204724424
108 251.54724409448818 ['30', '153', '18', '16', '106', '20', '147', '162', '56', '39', '105', '66', '36', '139', '15', '71', '86', '112', '169', '98', '14', '31', '136', '33', '134', '1', '47', '175'] 12577.362204724424
109 251.54724409448818 ['30', '153', '18', '16', '106', '20', '147', '162', '56', '39', '105', '66', '36', '139', '15', '71', '86', '112', '169', '98', '14', '31', '136', '33', '134', '1', '47', '175'] 12577.362204724424
110 251.54724409448818 ['30', '153', '18', '16', '106', '20', '147', '162', '56', '39', '105', '66', '36', '139', '15', '71', '86', '112', '169', '98', '14', '31', '136', '33', '134', '1', '47', '175'] 12577.362204724424
111 251.54724409448818 ['30', '153', '18', '16', '106', '20', '147', '162', '56', '39', '105', '66', '36', '139', '15', '71', '86', '112', '169', '98', '14', '31', '136', '33', '134', '1', '47', '175'] 12577.362204724424
112 251.54724409448818 ['30', '153', '18', '16', '106', '20', '147', '162', '56', '39', '105', '66', '36', '139', '15', '71', '86', '112', '169', '98', '14', '31', '136', '33', '134', '1', '47', '175'] 12577.362204724424
113 251.54724409448818 ['30', '153', '18', '16', '106', '20', '147', '162', '56', '39', '105', '66', '36', '139', '15', '71', '86', '112', '169', '98', '14', '31', '136', '33', '134', '1', '47', '175'] 12577.362204724424
114 251.54724409448818 ['30', '153', '18', '16', '106', '20', '147', '162', '56', '39', '105', '66', '36', '139', '15', '71', '86', '112', '169', '98', '14', '31', '136', '33', '134', '1', '47', '175'] 12577.362204724424
115 251.54724409448818 ['30', '153', '18', '16', '106', '20', '147', '162', '56', '39', '105', '66', '36', '139', '15', '71', '86', '112', '169', '98', '14', '31', '136', '33', '134', '1', '47', '175'] 12577.362204724424
116 251.54724409448818 ['30', '153', '18', '16', '106', '20', '147', '162', '56', '39', '105', '66', '36', '139', '15', '71', '86', '112', '169', '98', '14', '31', '136', '33', '134', '1', '47', '175'] 12577.362204724424
117 251.54724409448818 ['30', '153', '18', '16', '106', '20', '147', '162', '56', '39', '105', '66', '36', '139', '15', '71', '86', '112', '169', '98', '14', '31', '136', '33', '134', '1', '47', '175'] 12577.362204724424
118 251.54724409448818 ['30', '153', '18', '16', '106', '20', '147', '162', '56', '39', '105', '66', '36', '139', '15', '71', '86', '112', '169', '98', '14', '31', '136', '33', '134', '1', '47', '175'] 12577.362204724424
119 251.54724409448818 ['30', '153', '18', '16', '106', '20', '147', '162', '56', '39', '105', '66', '36', '139', '15', '71', '86', '112', '169', '98', '14', '31', '136', '33', '134', '1', '47', '175'] 12577.362204724424
120 251.54724409448818 ['30', '153', '18', '16', '106', '20', '147', '162', '56', '39', '105', '66', '36', '139', '15', '71', '86', '112', '169', '98', '14', '31', '136', '33', '134', '1', '47', '175'] 12577.362204724424
121 251.54724409448818 ['30', '153', '18', '16', '106', '20', '147', '162', '56', '39', '105', '66', '36', '139', '15', '71', '86', '112', '169', '98', '14', '31', '136', '33', '134', '1', '47', '175'] 12577.362204724424
122 251.54724409448818 ['30', '153', '18', '16', '106', '20', '147', '162', '56', '39', '105', '66', '36', '139', '15', '71', '86', '112', '169', '98', '14', '31', '136', '33', '134', '1', '47', '175'] 12577.362204724424
123 251.54724409448818 ['30', '153', '18', '16', '106', '20', '147', '162', '56', '39', '105', '66', '36', '139', '15', '71', '86', '112', '169', '98', '14', '31', '136', '33', '134', '1', '47', '175'] 12577.362204724424
124 251.54724409448818 ['30', '153', '18', '16', '106', '20', '147', '162', '56', '39', '105', '66', '36', '139', '15', '71', '86', '112', '169', '98', '14', '31', '136', '33', '134', '1', '47', '175'] 12577.362204724424
125 251.54724409448818 ['30', '153', '18', '16', '106', '20', '147', '162', '56', '39', '105', '66', '36', '139', '15', '71', '86', '112', '169', '98', '14', '31', '136', '33', '134', '1', '47', '175'] 12577.362204724424
126 251.54724409448818 ['30', '153', '18', '16', '106', '20', '147', '162', '56', '39', '105', '66', '36', '139', '15', '71', '86', '112', '169', '98', '14', '31', '136', '33', '134', '1', '47', '175'] 12577.362204724424
127 251.54724409448818 ['30', '153', '18', '16', '106', '20', '147', '162', '56', '39', '105', '66', '36', '139', '15', '71', '86', '112', '169', '98', '14', '31', '136', '33', '134', '1', '47', '175'] 12577.362204724424
128 251.54724409448818 ['30', '153', '18', '16', '106', '20', '147', '162', '56', '39', '105', '66', '36', '139', '15', '71', '86', '112', '169', '98', '14', '31', '136', '33', '134', '1', '47', '175'] 12577.362204724424
129 251.54724409448818 ['30', '153', '18', '16', '106', '20', '147', '162', '56', '39', '105', '66', '36', '139', '15', '71', '86', '112', '169', '98', '14', '31', '136', '33', '134', '1', '47', '175'] 12577.362204724424
130 251.54724409448818 ['30', '153', '18', '16', '106', '20', '147', '162', '56', '39', '105', '66', '36', '139', '15', '71', '86', '112', '169', '98', '14', '31', '136', '33', '134', '1', '47', '175'] 12577.362204724424
131 251.54724409448818 ['30', '153', '18', '16', '106', '20', '147', '162', '56', '39', '105', '66', '36', '139', '15', '71', '86', '112', '169', '98', '14', '31', '136', '33', '134', '1', '47', '175'] 12577.362204724424
132 251.54724409448818 ['30', '153', '18', '16', '106', '20', '147', '162', '56', '39', '105', '66', '36', '139', '15', '71', '86', '112', '169', '98', '14', '31', '136', '33', '134', '1', '47', '175'] 12577.362204724424
133 251.54724409448818 ['30', '153', '18', '16', '106', '20', '147', '162', '56', '39', '105', '66', '36', '139', '15', '71', '86', '112', '169', '98', '14', '31', '136', '33', '134', '1', '47', '175'] 12577.362204724424
134 251.54724409448818 ['30', '153', '18', '16', '106', '20', '147', '162', '56', '39', '105', '66', '36', '139', '15', '71', '86', '112', '169', '98', '14', '31', '136', '33', '134', '1', '47', '175'] 12577.362204724424
135 251.54724409448818 ['30', '153', '18', '16', '106', '20', '147', '162', '56', '39', '105', '66', '36', '139', '15', '71', '86', '112', '169', '98', '14', '31', '136', '33', '134', '1', '47', '175'] 12577.362204724424
136 251.54724409448818 ['30', '153', '18', '16', '106', '20', '147', '162', '56', '39', '105', '66', '36', '139', '15', '71', '86', '112', '169', '98', '14', '31', '136', '33', '134', '1', '47', '175'] 12577.362204724424
137 251.54724409448818 ['30', '153', '18', '16', '106', '20', '147', '162', '56', '39', '105', '66', '36', '139', '15', '71', '86', '112', '169', '98', '14', '31', '136', '33', '134', '1', '47', '175'] 12577.362204724424
138 251.54724409448818 ['30', '153', '18', '16', '106', '20', '147', '162', '56', '39', '105', '66', '36', '139', '15', '71', '86', '112', '169', '98', '14', '31', '136', '33', '134', '1', '47', '175'] 12577.362204724424
139 251.54724409448818 ['30', '153', '18', '16', '106', '20', '147', '162', '56', '39', '105', '66', '36', '139', '15', '71', '86', '112', '169', '98', '14', '31', '136', '33', '134', '1', '47', '175'] 12577.362204724424
140 251.54724409448818 ['30', '153', '18', '16', '106', '20', '147', '162', '56', '39', '105', '66', '36', '139', '15', '71', '86', '112', '169', '98', '14', '31', '136', '33', '134', '1', '47', '175'] 12577.362204724424
141 251.54724409448818 ['30', '153', '18', '16', '106', '20', '147', '162', '56', '39', '105', '66', '36', '139', '15', '71', '86', '112', '169', '98', '14', '31', '136', '33', '134', '1', '47', '175'] 12577.362204724424
142 251.54724409448818 ['30', '153', '18', '16', '106', '20', '147', '162', '56', '39', '105', '66', '36', '139', '15', '71', '86', '112', '169', '98', '14', '31', '136', '33', '134', '1', '47', '175'] 12577.362204724424
143 251.54724409448818 ['30', '153', '18', '16', '106', '20', '147', '162', '56', '39', '105', '66', '36', '139', '15', '71', '86', '112', '169', '98', '14', '31', '136', '33', '134', '1', '47', '175'] 12577.362204724424
144 251.54724409448818 ['30', '153', '18', '16', '106', '20', '147', '162', '56', '39', '105', '66', '36', '139', '15', '71', '86', '112', '169', '98', '14', '31', '136', '33', '134', '1', '47', '175'] 12577.362204724424
145 251.54724409448818 ['30', '153', '18', '16', '106', '20', '147', '162', '56', '39', '105', '66', '36', '139', '15', '71', '86', '112', '169', '98', '14', '31', '136', '33', '134', '1', '47', '175'] 12577.362204724424
146 251.54724409448818 ['30', '153', '18', '16', '106', '20', '147', '162', '56', '39', '105', '66', '36', '139', '15', '71', '86', '112', '169', '98', '14', '31', '136', '33', '134', '1', '47', '175'] 12577.362204724424
147 251.54724409448818 ['30', '153', '18', '16', '106', '20', '147', '162', '56', '39', '105', '66', '36', '139', '15', '71', '86', '112', '169', '98', '14', '31', '136', '33', '134', '1', '47', '175'] 12577.362204724424
148 251.54724409448818 ['30', '153', '18', '16', '106', '20', '147', '162', '56', '39', '105', '66', '36', '139', '15', '71', '86', '112', '169', '98', '14', '31', '136', '33', '134', '1', '47', '175'] 12577.362204724424
149 251.54724409448818 ['30', '153', '18', '16', '106', '20', '147', '162', '56', '39', '105', '66', '36', '139', '15', '71', '86', '112', '169', '98', '14', '31', '136', '33', '134', '1', '47', '175'] 12577.362204724424
150 251.54724409448818 ['30', '153', '18', '16', '106', '20', '147', '162', '56', '39', '105', '66', '36', '139', '15', '71', '86', '112', '169', '98', '14', '31', '136', '33', '134', '1', '47', '175'] 12577.362204724424
151 251.54724409448818 ['30', '153', '18', '16', '106', '20', '147', '162', '56', '39', '105', '66', '36', '139', '15', '71', '86', '112', '169', '98', '14', '31', '136', '33', '134', '1', '47', '175'] 12577.362204724424
152 251.54724409448818 ['30', '153', '18', '16', '106', '20', '147', '162', '56', '39', '105', '66', '36', '139', '15', '71', '86', '112', '169', '98', '14', '31', '136', '33', '134', '1', '47', '175'] 12577.362204724424
153 251.54724409448818 ['30', '153', '18', '16', '106', '20', '147', '162', '56', '39', '105', '66', '36', '139', '15', '71', '86', '112', '169', '98', '14', '31', '136', '33', '134', '1', '47', '175'] 12577.362204724424
154 251.54724409448818 ['30', '153', '18', '16', '106', '20', '147', '162', '56', '39', '105', '66', '36', '139', '15', '71', '86', '112', '169', '98', '14', '31', '136', '33', '134', '1', '47', '175'] 12577.362204724424
155 251.54724409448818 ['30', '153', '18', '16', '106', '20', '147', '162', '56', '39', '105', '66', '36', '139', '15', '71', '86', '112', '169', '98', '14', '31', '136', '33', '134', '1', '47', '175'] 12577.362204724424
156 251.54724409448818 ['30', '153', '18', '16', '106', '20', '147', '162', '56', '39', '105', '66', '36', '139', '15', '71', '86', '112', '169', '98', '14', '31', '136', '33', '134', '1', '47', '175'] 12577.362204724424
157 251.54724409448818 ['30', '153', '18', '16', '106', '20', '147', '162', '56', '39', '105', '66', '36', '139', '15', '71', '86', '112', '169', '98', '14', '31', '136', '33', '134', '1', '47', '175'] 12577.362204724424
158 251.54724409448818 ['30', '153', '18', '16', '106', '20', '147', '162', '56', '39', '105', '66', '36', '139', '15', '71', '86', '112', '169', '98', '14', '31', '136', '33', '134', '1', '47', '175'] 12577.362204724424
159 251.54724409448818 ['30', '153', '18', '16', '106', '20', '147', '162', '56', '39', '105', '66', '36', '139', '15', '71', '86', '112', '169', '98', '14', '31', '136', '33', '134', '1', '47', '175'] 12577.362204724424
160 251.54724409448818 ['30', '153', '18', '16', '106', '20', '147', '162', '56', '39', '105', '66', '36', '139', '15', '71', '86', '112', '169', '98', '14', '31', '136', '33', '134', '1', '47', '175'] 12577.362204724424
161 251.54724409448818 ['30', '153', '18', '16', '106', '20', '147', '162', '56', '39', '105', '66', '36', '139', '15', '71', '86', '112', '169', '98', '14', '31', '136', '33', '134', '1', '47', '175'] 12577.362204724424
162 251.54724409448818 ['30', '153', '18', '16', '106', '20', '147', '162', '56', '39', '105', '66', '36', '139', '15', '71', '86', '112', '169', '98', '14', '31', '136', '33', '134', '1', '47', '175'] 12577.362204724424
163 251.54724409448818 ['30', '153', '18', '16', '106', '20', '147', '162', '56', '39', '105', '66', '36', '139', '15', '71', '86', '112', '169', '98', '14', '31', '136', '33', '134', '1', '47', '175'] 12577.362204724424
164 251.54724409448818 ['30', '153', '18', '16', '106', '20', '147', '162', '56', '39', '105', '66', '36', '139', '15', '71', '86', '112', '169', '98', '14', '31', '136', '33', '134', '1', '47', '175'] 12577.362204724424
165 251.54724409448818 ['30', '153', '18', '16', '106', '20', '147', '162', '56', '39', '105', '66', '36', '139', '15', '71', '86', '112', '169', '98', '14', '31', '136', '33', '134', '1', '47', '175'] 12577.362204724424
166 251.54724409448818 ['30', '153', '18', '16', '106', '20', '147', '162', '56', '39', '105', '66', '36', '139', '15', '71', '86', '112', '169', '98', '14', '31', '136', '33', '134', '1', '47', '175'] 12577.362204724424
167 251.54724409448818 ['30', '153', '18', '16', '106', '20', '147', '162', '56', '39', '105', '66', '36', '139', '15', '71', '86', '112', '169', '98', '14', '31', '136', '33', '134', '1', '47', '175'] 12577.362204724424
168 251.54724409448818 ['30', '153', '18', '16', '106', '20', '147', '162', '56', '39', '105', '66', '36', '139', '15', '71', '86', '112', '169', '98', '14', '31', '136', '33', '134', '1', '47', '175'] 12577.362204724424
169 251.54724409448818 ['30', '153', '18', '16', '106', '20', '147', '162', '56', '39', '105', '66', '36', '139', '15', '71', '86', '112', '169', '98', '14', '31', '136', '33', '134', '1', '47', '175'] 12577.362204724424
170 251.54724409448818 ['30', '153', '18', '16', '106', '20', '147', '162', '56', '39', '105', '66', '36', '139', '15', '71', '86', '112', '169', '98', '14', '31', '136', '33', '134', '1', '47', '175'] 12577.362204724424
171 251.54724409448818 ['30', '153', '18', '16', '106', '20', '147', '162', '56', '39', '105', '66', '36', '139', '15', '71', '86', '112', '169', '98', '14', '31', '136', '33', '134', '1', '47', '175'] 12577.362204724424
172 251.54724409448818 ['30', '153', '18', '16', '106', '20', '147', '162', '56', '39', '105', '66', '36', '139', '15', '71', '86', '112', '169', '98', '14', '31', '136', '33', '134', '1', '47', '175'] 12577.362204724424
173 251.54724409448818 ['30', '153', '18', '16', '106', '20', '147', '162', '56', '39', '105', '66', '36', '139', '15', '71', '86', '112', '169', '98', '14', '31', '136', '33', '134', '1', '47', '175'] 12577.362204724424
174 251.54724409448818 ['30', '153', '18', '16', '106', '20', '147', '162', '56', '39', '105', '66', '36', '139', '15', '71', '86', '112', '169', '98', '14', '31', '136', '33', '134', '1', '47', '175'] 12577.362204724424
175 251.54724409448818 ['30', '153', '18', '16', '106', '20', '147', '162', '56', '39', '105', '66', '36', '139', '15', '71', '86', '112', '169', '98', '14', '31', '136', '33', '134', '1', '47', '175'] 12577.362204724424
176 251.54724409448818 ['30', '153', '18', '16', '106', '20', '147', '162', '56', '39', '105', '66', '36', '139', '15', '71', '86', '112', '169', '98', '14', '31', '136', '33', '134', '1', '47', '175'] 12577.362204724424
177 251.54724409448818 ['30', '153', '18', '16', '106', '20', '147', '162', '56', '39', '105', '66', '36', '139', '15', '71', '86', '112', '169', '98', '14', '31', '136', '33', '134', '1', '47', '175'] 12577.362204724424
178 251.54724409448818 ['30', '153', '18', '16', '106', '20', '147', '162', '56', '39', '105', '66', '36', '139', '15', '71', '86', '112', '169', '98', '14', '31', '136', '33', '134', '1', '47', '175'] 12577.362204724424
179 251.54724409448818 ['30', '153', '18', '16', '106', '20', '147', '162', '56', '39', '105', '66', '36', '139', '15', '71', '86', '112', '169', '98', '14', '31', '136', '33', '134', '1', '47', '175'] 12577.362204724424
180 251.54724409448818 ['30', '153', '18', '16', '106', '20', '147', '162', '56', '39', '105', '66', '36', '139', '15', '71', '86', '112', '169', '98', '14', '31', '136', '33', '134', '1', '47', '175'] 12577.362204724424
181 251.54724409448818 ['30', '153', '18', '16', '106', '20', '147', '162', '56', '39', '105', '66', '36', '139', '15', '71', '86', '112', '169', '98', '14', '31', '136', '33', '134', '1', '47', '175'] 12577.362204724424
182 251.54724409448818 ['30', '153', '18', '16', '106', '20', '147', '162', '56', '39', '105', '66', '36', '139', '15', '71', '86', '112', '169', '98', '14', '31', '136', '33', '134', '1', '47', '175'] 12577.362204724424
183 251.54724409448818 ['30', '153', '18', '16', '106', '20', '147', '162', '56', '39', '105', '66', '36', '139', '15', '71', '86', '112', '169', '98', '14', '31', '136', '33', '134', '1', '47', '175'] 12577.362204724424
184 251.54724409448818 ['30', '153', '18', '16', '106', '20', '147', '162', '56', '39', '105', '66', '36', '139', '15', '71', '86', '112', '169', '98', '14', '31', '136', '33', '134', '1', '47', '175'] 12577.362204724424
185 251.54724409448818 ['30', '153', '18', '16', '106', '20', '147', '162', '56', '39', '105', '66', '36', '139', '15', '71', '86', '112', '169', '98', '14', '31', '136', '33', '134', '1', '47', '175'] 12577.362204724424
186 251.54724409448818 ['30', '153', '18', '16', '106', '20', '147', '162', '56', '39', '105', '66', '36', '139', '15', '71', '86', '112', '169', '98', '14', '31', '136', '33', '134', '1', '47', '175'] 12577.362204724424
187 251.54724409448818 ['30', '153', '18', '16', '106', '20', '147', '162', '56', '39', '105', '66', '36', '139', '15', '71', '86', '112', '169', '98', '14', '31', '136', '33', '134', '1', '47', '175'] 12577.362204724424
188 251.54724409448818 ['30', '153', '18', '16', '106', '20', '147', '162', '56', '39', '105', '66', '36', '139', '15', '71', '86', '112', '169', '98', '14', '31', '136', '33', '134', '1', '47', '175'] 12577.362204724424
189 251.54724409448818 ['30', '153', '18', '16', '106', '20', '147', '162', '56', '39', '105', '66', '36', '139', '15', '71', '86', '112', '169', '98', '14', '31', '136', '33', '134', '1', '47', '175'] 12577.362204724424
190 251.54724409448818 ['30', '153', '18', '16', '106', '20', '147', '162', '56', '39', '105', '66', '36', '139', '15', '71', '86', '112', '169', '98', '14', '31', '136', '33', '134', '1', '47', '175'] 12577.362204724424
191 251.54724409448818 ['30', '153', '18', '16', '106', '20', '147', '162', '56', '39', '105', '66', '36', '139', '15', '71', '86', '112', '169', '98', '14', '31', '136', '33', '134', '1', '47', '175'] 12577.362204724424
192 251.54724409448818 ['30', '153', '18', '16', '106', '20', '147', '162', '56', '39', '105', '66', '36', '139', '15', '71', '86', '112', '169', '98', '14', '31', '136', '33', '134', '1', '47', '175'] 12577.362204724424
193 251.54724409448818 ['30', '153', '18', '16', '106', '20', '147', '162', '56', '39', '105', '66', '36', '139', '15', '71', '86', '112', '169', '98', '14', '31', '136', '33', '134', '1', '47', '175'] 12577.362204724424
194 251.54724409448818 ['30', '153', '18', '16', '106', '20', '147', '162', '56', '39', '105', '66', '36', '139', '15', '71', '86', '112', '169', '98', '14', '31', '136', '33', '134', '1', '47', '175'] 12577.362204724424
195 251.54724409448818 ['30', '153', '18', '16', '106', '20', '147', '162', '56', '39', '105', '66', '36', '139', '15', '71', '86', '112', '169', '98', '14', '31', '136', '33', '134', '1', '47', '175'] 12577.362204724424
196 251.54724409448818 ['30', '153', '18', '16', '106', '20', '147', '162', '56', '39', '105', '66', '36', '139', '15', '71', '86', '112', '169', '98', '14', '31', '136', '33', '134', '1', '47', '175'] 12577.362204724424
197 251.54724409448818 ['30', '153', '18', '16', '106', '20', '147', '162', '56', '39', '105', '66', '36', '139', '15', '71', '86', '112', '169', '98', '14', '31', '136', '33', '134', '1', '47', '175'] 12577.362204724424
198 251.54724409448818 ['30', '153', '18', '16', '106', '20', '147', '162', '56', '39', '105', '66', '36', '139', '15', '71', '86', '112', '169', '98', '14', '31', '136', '33', '134', '1', '47', '175'] 12577.362204724424
199 251.54724409448818 ['30', '153', '18', '16', '106', '20', '147', '162', '56', '39', '105', '66', '36', '139', '15', '71', '86', '112', '169', '98', '14', '31', '136', '33', '134', '1', '47', '175'] 12577.362204724424
