0 320.31889763779526 ['67', '186', '109', '146', '77', '219', '40', '136', '177', '233', '120', '200', '270', '36', '143', '208', '241', '25', '10', '153', '151', '98', '249', '18', '41', '20', '254', '64'] 17278.32677165354
1 311.9448818897638 ['20', '98', '18', '208', '153', '14', '64', '37', '77', '186', '25', '9', '146', '123', '57', '41', '262', '233', '36', '143', '249', '105', '109', '45', '214', '241', '136', '170'] 16901.54330708662
2 311.9448818897638 ['20', '98', '18', '208', '153', '14', '64', '37', '77', '186', '25', '9', '146', '123', '57', '41', '262', '233', '36', '143', '249', '105', '109', '45', '214', '241', '136', '170'] 16577.362204724403
3 311.9448818897638 ['20', '98', '18', '208', '153', '14', '64', '37', '77', '186', '25', '9', '146', '123', '57', '41', '262', '233', '36', '143', '249', '105', '109', '45', '214', '241', '136', '170'] 16235.948818897637
4 311.9448818897638 ['20', '98', '18', '208', '153', '14', '64', '37', '77', '186', '25', '9', '146', '123', '57', '41', '262', '233', '36', '143', '249', '105', '109', '45', '214', '241', '136', '170'] 16020.0
5 296.54330708661416 ['67', '77', '153', '1', '66', '176', '104', '87', '65', '30', '47', '154', '136', '139', '159', '151', '91', '15', '18', '73', '102', '173', '187', '52', '46', '200', '20', '233'] 15738.795275590552
6 292.1692913385827 ['233', '67', '153', '18', '77', '136', '20', '200', '139', '176', '1', '278', '159', '36', '65', '187', '109', '82', '14', '66', '41', '47', '30', '52', '214', '151', '15', '57'] 15531.389763779525
7 292.1692913385827 ['233', '67', '153', '18', '77', '136', '20', '200', '139', '176', '1', '278', '159', '36', '65', '187', '109', '82', '14', '66', '41', '47', '30', '52', '214', '151', '15', '57'] 15303.228346456688
8 289.8070866141732 ['1', '139', '25', '151', '152', '77', '233', '136', '20', '30', '153', '102', '146', '66', '246', '109', '154', '164', '52', '112', '249', '15', '46', '14', '67', '41', '57', '18'] 15067.232283464567
9 284.31496062992125 ['52', '77', '200', '20', '214', '14', '18', '136', '159', '57', '153', '25', '187', '141', '180', '112', '47', '37', '139', '173', '66', '249', '191', '30', '175', '46', '105', '233'] 14862.807086614173
10 283.65748031496065 ['112', '167', '146', '187', '46', '164', '175', '139', '153', '143', '136', '67', '154', '152', '1', '20', '14', '249', '191', '233', '66', '25', '45', '18', '30', '52', '186', '77'] 14640.976377952758
11 281.8267716535433 ['249', '214', '57', '105', '187', '180', '20', '37', '141', '30', '136', '14', '159', '77', '1', '25', '233', '18', '112', '146', '52', '47', '176', '139', '186', '173', '66', '153'] 14487.586614173231
12 276.29527559055117 ['57', '112', '136', '30', '200', '18', '139', '14', '153', '77', '187', '1', '98', '41', '35', '175', '75', '176', '141', '143', '151', '36', '233', '45', '249', '66', '105', '214'] 14296.681102362205
13 275.81889763779526 ['139', '25', '52', '77', '20', '233', '87', '141', '105', '14', '249', '30', '136', '200', '18', '214', '112', '153', '159', '66', '175', '47', '15', '45', '187', '16', '37', '146'] 14158.20472440945
14 273.96456692913387 ['66', '153', '77', '45', '146', '175', '200', '112', '136', '18', '14', '214', '187', '20', '139', '233', '52', '15', '164', '30', '141', '67', '152', '105', '98', '47', '37', '208'] 14029.822834645674
15 270.1377952755906 ['136', '233', '112', '187', '143', '139', '175', '18', '14', '77', '105', '45', '153', '146', '249', '20', '141', '66', '1', '30', '52', '35', '57', '102', '15', '159', '47', '191'] 13874.03149606299
16 269.71259842519686 ['30', '139', '18', '14', '20', '153', '136', '1', '187', '159', '52', '141', '175', '37', '146', '77', '112', '200', '143', '86', '57', '87', '36', '193', '66', '186', '15', '25'] 13753.334645669294
17 266.8976377952756 ['1', '153', '139', '20', '18', '52', '14', '141', '200', '112', '77', '175', '159', '30', '146', '187', '136', '105', '47', '36', '143', '66', '37', '15', '67', '45', '65', '91'] 13661.358267716536
18 264.1732283464567 ['37', '77', '52', '141', '146', '136', '175', '139', '143', '87', '30', '20', '66', '112', '187', '153', '14', '36', '18', '193', '1', '197', '57', '45', '86', '105', '15', '16'] 13569.405511811028
19 264.1732283464567 ['37', '77', '52', '141', '146', '136', '175', '139', '143', '87', '30', '20', '66', '112', '187', '153', '14', '36', '18', '193', '1', '197', '57', '45', '86', '105', '15', '16'] 13490.574803149604
20 260.9133858267717 ['30', '200', '139', '36', '146', '18', '159', '187', '105', '136', '57', '153', '1', '141', '66', '14', '112', '77', '15', '52', '86', '143', '175', '106', '98', '20', '109', '193'] 13391.57874015748
21 260.3937007874016 ['112', '66', '105', '136', '143', '30', '18', '187', '15', '20', '153', '52', '139', '146', '45', '77', '1', '175', '57', '36', '14', '141', '46', '37', '191', '86', '47', '98'] 13288.523622047245
22 259.6377952755906 ['143', '77', '191', '98', '20', '45', '18', '30', '66', '146', '105', '136', '175', '14', '141', '47', '112', '36', '153', '139', '187', '1', '16', '57', '15', '37', '52', '86'] 13198.137795275588
23 259.6377952755906 ['143', '77', '191', '98', '20', '45', '18', '30', '66', '146', '105', '136', '175', '14', '141', '47', '112', '36', '153', '139', '187', '1', '16', '57', '15', '37', '52', '86'] 13114.909448818897
24 259.2755905511811 ['112', '77', '36', '52', '1', '46', '30', '20', '66', '139', '175', '15', '146', '153', '141', '57', '136', '105', '143', '98', '47', '187', '14', '37', '45', '18', '86', '106'] 13056.468503937005
25 258.61811023622045 ['15', '14', '52', '20', '77', '143', '18', '153', '98', '30', '187', '200', '36', '112', '141', '136', '1', '139', '146', '66', '159', '45', '175', '105', '35', '65', '86', '37'] 13007.838582677168
26 258.0196850393701 ['153', '14', '77', '146', '105', '15', '159', '98', '1', '20', '141', '45', '200', '36', '143', '175', '66', '30', '18', '136', '139', '187', '112', '52', '106', '86', '57', '47'] 12978.850393700788
27 257.83858267716533 ['143', '153', '175', '52', '30', '37', '187', '14', '18', '47', '136', '77', '159', '141', '45', '146', '105', '15', '98', '66', '112', '139', '36', '20', '1', '86', '65', '16'] 12952.57874015748
28 257.70866141732284 ['143', '45', '139', '36', '153', '1', '66', '15', '98', '187', '141', '30', '112', '77', '86', '200', '159', '20', '105', '14', '52', '146', '18', '175', '136', '47', '65', '35'] 12932.622047244093
29 256.6968503937008 ['66', '45', '106', '139', '52', '15', '141', '175', '98', '187', '20', '153', '146', '143', '14', '18', '159', '1', '136', '112', '77', '36', '65', '105', '30', '47', '16', '86'] 12913.090551181107
30 256.6968503937008 ['66', '45', '106', '139', '52', '15', '141', '175', '98', '187', '20', '153', '146', '143', '14', '18', '159', '1', '136', '112', '77', '36', '65', '105', '30', '47', '16', '86'] 12894.169291338583
31 256.6968503937008 ['66', '45', '106', '139', '52', '15', '141', '175', '98', '187', '20', '153', '146', '143', '14', '18', '159', '1', '136', '112', '77', '36', '65', '105', '30', '47', '16', '86'] 12869.62992125984
32 256.6968503937008 ['66', '45', '106', '139', '52', '15', '141', '175', '98', '187', '20', '153', '146', '143', '14', '18', '159', '1', '136', '112', '77', '36', '65', '105', '30', '47', '16', '86'] 12854.263779527564
33 256.6968503937008 ['66', '45', '106', '139', '52', '15', '141', '175', '98', '187', '20', '153', '146', '143', '14', '18', '159', '1', '136', '112', '77', '36', '65', '105', '30', '47', '16', '86'] 12842.46062992126
34 256.6968503937008 ['66', '45', '106', '139', '52', '15', '141', '175', '98', '187', '20', '153', '146', '143', '14', '18', '159', '1', '136', '112', '77', '36', '65', '105', '30', '47', '16', '86'] 12834.842519685031
35 256.6968503937008 ['66', '45', '106', '139', '52', '15', '141', '175', '98', '187', '20', '153', '146', '143', '14', '18', '159', '1', '136', '112', '77', '36', '65', '105', '30', '47', '16', '86'] 12834.842519685031
36 256.6968503937008 ['66', '45', '106', '139', '52', '15', '141', '175', '98', '187', '20', '153', '146', '143', '14', '18', '159', '1', '136', '112', '77', '36', '65', '105', '30', '47', '16', '86'] 12834.842519685031
37 256.6968503937008 ['66', '45', '106', '139', '52', '15', '141', '175', '98', '187', '20', '153', '146', '143', '14', '18', '159', '1', '136', '112', '77', '36', '65', '105', '30', '47', '16', '86'] 12834.842519685031
38 256.6968503937008 ['66', '45', '106', '139', '52', '15', '141', '175', '98', '187', '20', '153', '146', '143', '14', '18', '159', '1', '136', '112', '77', '36', '65', '105', '30', '47', '16', '86'] 12834.842519685031
39 256.6968503937008 ['66', '45', '106', '139', '52', '15', '141', '175', '98', '187', '20', '153', '146', '143', '14', '18', '159', '1', '136', '112', '77', '36', '65', '105', '30', '47', '16', '86'] 12834.842519685031
40 256.6968503937008 ['66', '45', '106', '139', '52', '15', '141', '175', '98', '187', '20', '153', '146', '143', '14', '18', '159', '1', '136', '112', '77', '36', '65', '105', '30', '47', '16', '86'] 12834.842519685031
41 256.6968503937008 ['66', '45', '106', '139', '52', '15', '141', '175', '98', '187', '20', '153', '146', '143', '14', '18', '159', '1', '136', '112', '77', '36', '65', '105', '30', '47', '16', '86'] 12834.842519685031
42 256.6968503937008 ['66', '45', '106', '139', '52', '15', '141', '175', '98', '187', '20', '153', '146', '143', '14', '18', '159', '1', '136', '112', '77', '36', '65', '105', '30', '47', '16', '86'] 12834.842519685031
43 256.6968503937008 ['66', '45', '106', '139', '52', '15', '141', '175', '98', '187', '20', '153', '146', '143', '14', '18', '159', '1', '136', '112', '77', '36', '65', '105', '30', '47', '16', '86'] 12834.842519685031
44 256.6968503937008 ['66', '45', '106', '139', '52', '15', '141', '175', '98', '187', '20', '153', '146', '143', '14', '18', '159', '1', '136', '112', '77', '36', '65', '105', '30', '47', '16', '86'] 12834.842519685031
45 256.6968503937008 ['66', '45', '106', '139', '52', '15', '141', '175', '98', '187', '20', '153', '146', '143', '14', '18', '159', '1', '136', '112', '77', '36', '65', '105', '30', '47', '16', '86'] 12834.842519685031
46 256.6968503937008 ['66', '45', '106', '139', '52', '15', '141', '175', '98', '187', '20', '153', '146', '143', '14', '18', '159', '1', '136', '112', '77', '36', '65', '105', '30', '47', '16', '86'] 12834.842519685031
47 256.6968503937008 ['66', '45', '106', '139', '52', '15', '141', '175', '98', '187', '20', '153', '146', '143', '14', '18', '159', '1', '136', '112', '77', '36', '65', '105', '30', '47', '16', '86'] 12834.842519685031
48 256.6968503937008 ['66', '45', '106', '139', '52', '15', '141', '175', '98', '187', '20', '153', '146', '143', '14', '18', '159', '1', '136', '112', '77', '36', '65', '105', '30', '47', '16', '86'] 12834.842519685031
49 256.6968503937008 ['66', '45', '106', '139', '52', '15', '141', '175', '98', '187', '20', '153', '146', '143', '14', '18', '159', '1', '136', '112', '77', '36', '65', '105', '30', '47', '16', '86'] 12834.842519685031
50 256.6968503937008 ['66', '45', '106', '139', '52', '15', '141', '175', '98', '187', '20', '153', '146', '143', '14', '18', '159', '1', '136', '112', '77', '36', '65', '105', '30', '47', '16', '86'] 12834.842519685031
51 256.6968503937008 ['66', '45', '106', '139', '52', '15', '141', '175', '98', '187', '20', '153', '146', '143', '14', '18', '159', '1', '136', '112', '77', '36', '65', '105', '30', '47', '16', '86'] 12834.842519685031
52 256.6968503937008 ['66', '45', '106', '139', '52', '15', '141', '175', '98', '187', '20', '153', '146', '143', '14', '18', '159', '1', '136', '112', '77', '36', '65', '105', '30', '47', '16', '86'] 12834.842519685031
53 256.6968503937008 ['66', '45', '106', '139', '52', '15', '141', '175', '98', '187', '20', '153', '146', '143', '14', '18', '159', '1', '136', '112', '77', '36', '65', '105', '30', '47', '16', '86'] 12834.842519685031
54 256.6968503937008 ['66', '45', '106', '139', '52', '15', '141', '175', '98', '187', '20', '153', '146', '143', '14', '18', '159', '1', '136', '112', '77', '36', '65', '105', '30', '47', '16', '86'] 12834.842519685031
55 256.6968503937008 ['66', '45', '106', '139', '52', '15', '141', '175', '98', '187', '20', '153', '146', '143', '14', '18', '159', '1', '136', '112', '77', '36', '65', '105', '30', '47', '16', '86'] 12834.842519685031
56 256.6968503937008 ['66', '45', '106', '139', '52', '15', '141', '175', '98', '187', '20', '153', '146', '143', '14', '18', '159', '1', '136', '112', '77', '36', '65', '105', '30', '47', '16', '86'] 12834.842519685031
57 256.6968503937008 ['66', '45', '106', '139', '52', '15', '141', '175', '98', '187', '20', '153', '146', '143', '14', '18', '159', '1', '136', '112', '77', '36', '65', '105', '30', '47', '16', '86'] 12834.842519685031
58 256.6968503937008 ['66', '45', '106', '139', '52', '15', '141', '175', '98', '187', '20', '153', '146', '143', '14', '18', '159', '1', '136', '112', '77', '36', '65', '105', '30', '47', '16', '86'] 12834.842519685031
59 256.6968503937008 ['66', '45', '106', '139', '52', '15', '141', '175', '98', '187', '20', '153', '146', '143', '14', '18', '159', '1', '136', '112', '77', '36', '65', '105', '30', '47', '16', '86'] 12834.842519685031
60 256.6968503937008 ['66', '45', '106', '139', '52', '15', '141', '175', '98', '187', '20', '153', '146', '143', '14', '18', '159', '1', '136', '112', '77', '36', '65', '105', '30', '47', '16', '86'] 12834.842519685031
61 256.6968503937008 ['66', '45', '106', '139', '52', '15', '141', '175', '98', '187', '20', '153', '146', '143', '14', '18', '159', '1', '136', '112', '77', '36', '65', '105', '30', '47', '16', '86'] 12834.842519685031
62 256.6968503937008 ['66', '45', '106', '139', '52', '15', '141', '175', '98', '187', '20', '153', '146', '143', '14', '18', '159', '1', '136', '112', '77', '36', '65', '105', '30', '47', '16', '86'] 12834.842519685031
63 256.6968503937008 ['66', '45', '106', '139', '52', '15', '141', '175', '98', '187', '20', '153', '146', '143', '14', '18', '159', '1', '136', '112', '77', '36', '65', '105', '30', '47', '16', '86'] 12834.842519685031
64 256.6968503937008 ['66', '45', '106', '139', '52', '15', '141', '175', '98', '187', '20', '153', '146', '143', '14', '18', '159', '1', '136', '112', '77', '36', '65', '105', '30', '47', '16', '86'] 12834.842519685031
65 256.6968503937008 ['66', '45', '106', '139', '52', '15', '141', '175', '98', '187', '20', '153', '146', '143', '14', '18', '159', '1', '136', '112', '77', '36', '65', '105', '30', '47', '16', '86'] 12834.842519685031
66 256.6968503937008 ['66', '45', '106', '139', '52', '15', '141', '175', '98', '187', '20', '153', '146', '143', '14', '18', '159', '1', '136', '112', '77', '36', '65', '105', '30', '47', '16', '86'] 12834.842519685031
67 256.6968503937008 ['66', '45', '106', '139', '52', '15', '141', '175', '98', '187', '20', '153', '146', '143', '14', '18', '159', '1', '136', '112', '77', '36', '65', '105', '30', '47', '16', '86'] 12834.842519685031
68 256.6968503937008 ['66', '45', '106', '139', '52', '15', '141', '175', '98', '187', '20', '153', '146', '143', '14', '18', '159', '1', '136', '112', '77', '36', '65', '105', '30', '47', '16', '86'] 12834.842519685031
69 256.6968503937008 ['66', '45', '106', '139', '52', '15', '141', '175', '98', '187', '20', '153', '146', '143', '14', '18', '159', '1', '136', '112', '77', '36', '65', '105', '30', '47', '16', '86'] 12834.842519685031
70 256.6968503937008 ['66', '45', '106', '139', '52', '15', '141', '175', '98', '187', '20', '153', '146', '143', '14', '18', '159', '1', '136', '112', '77', '36', '65', '105', '30', '47', '16', '86'] 12834.842519685031
71 256.6968503937008 ['66', '45', '106', '139', '52', '15', '141', '175', '98', '187', '20', '153', '146', '143', '14', '18', '159', '1', '136', '112', '77', '36', '65', '105', '30', '47', '16', '86'] 12834.842519685031
72 256.6968503937008 ['66', '45', '106', '139', '52', '15', '141', '175', '98', '187', '20', '153', '146', '143', '14', '18', '159', '1', '136', '112', '77', '36', '65', '105', '30', '47', '16', '86'] 12834.842519685031
73 256.6968503937008 ['66', '45', '106', '139', '52', '15', '141', '175', '98', '187', '20', '153', '146', '143', '14', '18', '159', '1', '136', '112', '77', '36', '65', '105', '30', '47', '16', '86'] 12834.842519685031
74 256.6968503937008 ['66', '45', '106', '139', '52', '15', '141', '175', '98', '187', '20', '153', '146', '143', '14', '18', '159', '1', '136', '112', '77', '36', '65', '105', '30', '47', '16', '86'] 12834.842519685031
75 256.6968503937008 ['66', '45', '106', '139', '52', '15', '141', '175', '98', '187', '20', '153', '146', '143', '14', '18', '159', '1', '136', '112', '77', '36', '65', '105', '30', '47', '16', '86'] 12834.842519685031
76 256.6968503937008 ['66', '45', '106', '139', '52', '15', '141', '175', '98', '187', '20', '153', '146', '143', '14', '18', '159', '1', '136', '112', '77', '36', '65', '105', '30', '47', '16', '86'] 12834.842519685031
77 256.6968503937008 ['66', '45', '106', '139', '52', '15', '141', '175', '98', '187', '20', '153', '146', '143', '14', '18', '159', '1', '136', '112', '77', '36', '65', '105', '30', '47', '16', '86'] 12834.842519685031
78 256.6968503937008 ['66', '45', '106', '139', '52', '15', '141', '175', '98', '187', '20', '153', '146', '143', '14', '18', '159', '1', '136', '112', '77', '36', '65', '105', '30', '47', '16', '86'] 12834.842519685031
79 256.6968503937008 ['66', '45', '106', '139', '52', '15', '141', '175', '98', '187', '20', '153', '146', '143', '14', '18', '159', '1', '136', '112', '77', '36', '65', '105', '30', '47', '16', '86'] 12834.842519685031
80 256.6968503937008 ['66', '45', '106', '139', '52', '15', '141', '175', '98', '187', '20', '153', '146', '143', '14', '18', '159', '1', '136', '112', '77', '36', '65', '105', '30', '47', '16', '86'] 12834.842519685031
81 256.6968503937008 ['66', '45', '106', '139', '52', '15', '141', '175', '98', '187', '20', '153', '146', '143', '14', '18', '159', '1', '136', '112', '77', '36', '65', '105', '30', '47', '16', '86'] 12834.842519685031
82 256.6968503937008 ['66', '45', '106', '139', '52', '15', '141', '175', '98', '187', '20', '153', '146', '143', '14', '18', '159', '1', '136', '112', '77', '36', '65', '105', '30', '47', '16', '86'] 12834.842519685031
83 256.6968503937008 ['66', '45', '106', '139', '52', '15', '141', '175', '98', '187', '20', '153', '146', '143', '14', '18', '159', '1', '136', '112', '77', '36', '65', '105', '30', '47', '16', '86'] 12834.842519685031
84 256.6968503937008 ['66', '45', '106', '139', '52', '15', '141', '175', '98', '187', '20', '153', '146', '143', '14', '18', '159', '1', '136', '112', '77', '36', '65', '105', '30', '47', '16', '86'] 12834.842519685031
85 256.6968503937008 ['66', '45', '106', '139', '52', '15', '141', '175', '98', '187', '20', '153', '146', '143', '14', '18', '159', '1', '136', '112', '77', '36', '65', '105', '30', '47', '16', '86'] 12834.842519685031
86 256.6968503937008 ['66', '45', '106', '139', '52', '15', '141', '175', '98', '187', '20', '153', '146', '143', '14', '18', '159', '1', '136', '112', '77', '36', '65', '105', '30', '47', '16', '86'] 12834.842519685031
87 256.6968503937008 ['66', '45', '106', '139', '52', '15', '141', '175', '98', '187', '20', '153', '146', '143', '14', '18', '159', '1', '136', '112', '77', '36', '65', '105', '30', '47', '16', '86'] 12834.842519685031
88 256.6968503937008 ['66', '45', '106', '139', '52', '15', '141', '175', '98', '187', '20', '153', '146', '143', '14', '18', '159', '1', '136', '112', '77', '36', '65', '105', '30', '47', '16', '86'] 12834.842519685031
89 256.6968503937008 ['66', '45', '106', '139', '52', '15', '141', '175', '98', '187', '20', '153', '146', '143', '14', '18', '159', '1', '136', '112', '77', '36', '65', '105', '30', '47', '16', '86'] 12834.842519685031
90 256.6968503937008 ['66', '45', '106', '139', '52', '15', '141', '175', '98', '187', '20', '153', '146', '143', '14', '18', '159', '1', '136', '112', '77', '36', '65', '105', '30', '47', '16', '86'] 12834.842519685031
91 256.6968503937008 ['66', '45', '106', '139', '52', '15', '141', '175', '98', '187', '20', '153', '146', '143', '14', '18', '159', '1', '136', '112', '77', '36', '65', '105', '30', '47', '16', '86'] 12834.842519685031
92 256.6968503937008 ['66', '45', '106', '139', '52', '15', '141', '175', '98', '187', '20', '153', '146', '143', '14', '18', '159', '1', '136', '112', '77', '36', '65', '105', '30', '47', '16', '86'] 12834.842519685031
93 256.6968503937008 ['66', '45', '106', '139', '52', '15', '141', '175', '98', '187', '20', '153', '146', '143', '14', '18', '159', '1', '136', '112', '77', '36', '65', '105', '30', '47', '16', '86'] 12834.842519685031
94 256.6968503937008 ['66', '45', '106', '139', '52', '15', '141', '175', '98', '187', '20', '153', '146', '143', '14', '18', '159', '1', '136', '112', '77', '36', '65', '105', '30', '47', '16', '86'] 12834.842519685031
95 256.6968503937008 ['66', '45', '106', '139', '52', '15', '141', '175', '98', '187', '20', '153', '146', '143', '14', '18', '159', '1', '136', '112', '77', '36', '65', '105', '30', '47', '16', '86'] 12834.842519685031
96 256.6968503937008 ['66', '45', '106', '139', '52', '15', '141', '175', '98', '187', '20', '153', '146', '143', '14', '18', '159', '1', '136', '112', '77', '36', '65', '105', '30', '47', '16', '86'] 12834.842519685031
97 256.6968503937008 ['66', '45', '106', '139', '52', '15', '141', '175', '98', '187', '20', '153', '146', '143', '14', '18', '159', '1', '136', '112', '77', '36', '65', '105', '30', '47', '16', '86'] 12834.842519685031
98 256.6968503937008 ['66', '45', '106', '139', '52', '15', '141', '175', '98', '187', '20', '153', '146', '143', '14', '18', '159', '1', '136', '112', '77', '36', '65', '105', '30', '47', '16', '86'] 12834.842519685031
99 256.6968503937008 ['66', '45', '106', '139', '52', '15', '141', '175', '98', '187', '20', '153', '146', '143', '14', '18', '159', '1', '136', '112', '77', '36', '65', '105', '30', '47', '16', '86'] 12834.842519685031
100 256.6968503937008 ['66', '45', '106', '139', '52', '15', '141', '175', '98', '187', '20', '153', '146', '143', '14', '18', '159', '1', '136', '112', '77', '36', '65', '105', '30', '47', '16', '86'] 12834.842519685031
101 256.6968503937008 ['66', '45', '106', '139', '52', '15', '141', '175', '98', '187', '20', '153', '146', '143', '14', '18', '159', '1', '136', '112', '77', '36', '65', '105', '30', '47', '16', '86'] 12834.842519685031
102 256.6968503937008 ['66', '45', '106', '139', '52', '15', '141', '175', '98', '187', '20', '153', '146', '143', '14', '18', '159', '1', '136', '112', '77', '36', '65', '105', '30', '47', '16', '86'] 12834.842519685031
103 256.6968503937008 ['66', '45', '106', '139', '52', '15', '141', '175', '98', '187', '20', '153', '146', '143', '14', '18', '159', '1', '136', '112', '77', '36', '65', '105', '30', '47', '16', '86'] 12834.842519685031
104 256.6968503937008 ['66', '45', '106', '139', '52', '15', '141', '175', '98', '187', '20', '153', '146', '143', '14', '18', '159', '1', '136', '112', '77', '36', '65', '105', '30', '47', '16', '86'] 12834.842519685031
105 256.6968503937008 ['66', '45', '106', '139', '52', '15', '141', '175', '98', '187', '20', '153', '146', '143', '14', '18', '159', '1', '136', '112', '77', '36', '65', '105', '30', '47', '16', '86'] 12834.842519685031
106 256.6968503937008 ['66', '45', '106', '139', '52', '15', '141', '175', '98', '187', '20', '153', '146', '143', '14', '18', '159', '1', '136', '112', '77', '36', '65', '105', '30', '47', '16', '86'] 12834.842519685031
107 256.6968503937008 ['66', '45', '106', '139', '52', '15', '141', '175', '98', '187', '20', '153', '146', '143', '14', '18', '159', '1', '136', '112', '77', '36', '65', '105', '30', '47', '16', '86'] 12834.842519685031
108 256.6968503937008 ['66', '45', '106', '139', '52', '15', '141', '175', '98', '187', '20', '153', '146', '143', '14', '18', '159', '1', '136', '112', '77', '36', '65', '105', '30', '47', '16', '86'] 12834.842519685031
109 256.6968503937008 ['66', '45', '106', '139', '52', '15', '141', '175', '98', '187', '20', '153', '146', '143', '14', '18', '159', '1', '136', '112', '77', '36', '65', '105', '30', '47', '16', '86'] 12834.842519685031
110 256.6968503937008 ['66', '45', '106', '139', '52', '15', '141', '175', '98', '187', '20', '153', '146', '143', '14', '18', '159', '1', '136', '112', '77', '36', '65', '105', '30', '47', '16', '86'] 12834.842519685031
111 256.6968503937008 ['66', '45', '106', '139', '52', '15', '141', '175', '98', '187', '20', '153', '146', '143', '14', '18', '159', '1', '136', '112', '77', '36', '65', '105', '30', '47', '16', '86'] 12834.842519685031
112 256.6968503937008 ['66', '45', '106', '139', '52', '15', '141', '175', '98', '187', '20', '153', '146', '143', '14', '18', '159', '1', '136', '112', '77', '36', '65', '105', '30', '47', '16', '86'] 12834.842519685031
113 256.6968503937008 ['66', '45', '106', '139', '52', '15', '141', '175', '98', '187', '20', '153', '146', '143', '14', '18', '159', '1', '136', '112', '77', '36', '65', '105', '30', '47', '16', '86'] 12834.842519685031
114 256.6968503937008 ['66', '45', '106', '139', '52', '15', '141', '175', '98', '187', '20', '153', '146', '143', '14', '18', '159', '1', '136', '112', '77', '36', '65', '105', '30', '47', '16', '86'] 12834.842519685031
115 256.6968503937008 ['66', '45', '106', '139', '52', '15', '141', '175', '98', '187', '20', '153', '146', '143', '14', '18', '159', '1', '136', '112', '77', '36', '65', '105', '30', '47', '16', '86'] 12834.842519685031
116 256.6968503937008 ['66', '45', '106', '139', '52', '15', '141', '175', '98', '187', '20', '153', '146', '143', '14', '18', '159', '1', '136', '112', '77', '36', '65', '105', '30', '47', '16', '86'] 12834.842519685031
117 256.6968503937008 ['66', '45', '106', '139', '52', '15', '141', '175', '98', '187', '20', '153', '146', '143', '14', '18', '159', '1', '136', '112', '77', '36', '65', '105', '30', '47', '16', '86'] 12834.842519685031
118 256.6968503937008 ['66', '45', '106', '139', '52', '15', '141', '175', '98', '187', '20', '153', '146', '143', '14', '18', '159', '1', '136', '112', '77', '36', '65', '105', '30', '47', '16', '86'] 12834.842519685031
119 256.6968503937008 ['66', '45', '106', '139', '52', '15', '141', '175', '98', '187', '20', '153', '146', '143', '14', '18', '159', '1', '136', '112', '77', '36', '65', '105', '30', '47', '16', '86'] 12834.842519685031
120 256.6968503937008 ['66', '45', '106', '139', '52', '15', '141', '175', '98', '187', '20', '153', '146', '143', '14', '18', '159', '1', '136', '112', '77', '36', '65', '105', '30', '47', '16', '86'] 12834.842519685031
121 256.6968503937008 ['66', '45', '106', '139', '52', '15', '141', '175', '98', '187', '20', '153', '146', '143', '14', '18', '159', '1', '136', '112', '77', '36', '65', '105', '30', '47', '16', '86'] 12834.842519685031
122 256.6968503937008 ['66', '45', '106', '139', '52', '15', '141', '175', '98', '187', '20', '153', '146', '143', '14', '18', '159', '1', '136', '112', '77', '36', '65', '105', '30', '47', '16', '86'] 12834.842519685031
123 256.6968503937008 ['66', '45', '106', '139', '52', '15', '141', '175', '98', '187', '20', '153', '146', '143', '14', '18', '159', '1', '136', '112', '77', '36', '65', '105', '30', '47', '16', '86'] 12834.842519685031
124 256.6968503937008 ['66', '45', '106', '139', '52', '15', '141', '175', '98', '187', '20', '153', '146', '143', '14', '18', '159', '1', '136', '112', '77', '36', '65', '105', '30', '47', '16', '86'] 12834.842519685031
125 256.6968503937008 ['66', '45', '106', '139', '52', '15', '141', '175', '98', '187', '20', '153', '146', '143', '14', '18', '159', '1', '136', '112', '77', '36', '65', '105', '30', '47', '16', '86'] 12834.842519685031
126 256.6968503937008 ['66', '45', '106', '139', '52', '15', '141', '175', '98', '187', '20', '153', '146', '143', '14', '18', '159', '1', '136', '112', '77', '36', '65', '105', '30', '47', '16', '86'] 12834.842519685031
127 256.6968503937008 ['66', '45', '106', '139', '52', '15', '141', '175', '98', '187', '20', '153', '146', '143', '14', '18', '159', '1', '136', '112', '77', '36', '65', '105', '30', '47', '16', '86'] 12834.842519685031
128 256.6968503937008 ['66', '45', '106', '139', '52', '15', '141', '175', '98', '187', '20', '153', '146', '143', '14', '18', '159', '1', '136', '112', '77', '36', '65', '105', '30', '47', '16', '86'] 12834.842519685031
129 256.6968503937008 ['66', '45', '106', '139', '52', '15', '141', '175', '98', '187', '20', '153', '146', '143', '14', '18', '159', '1', '136', '112', '77', '36', '65', '105', '30', '47', '16', '86'] 12834.842519685031
130 256.6968503937008 ['66', '45', '106', '139', '52', '15', '141', '175', '98', '187', '20', '153', '146', '143', '14', '18', '159', '1', '136', '112', '77', '36', '65', '105', '30', '47', '16', '86'] 12834.842519685031
131 256.6968503937008 ['66', '45', '106', '139', '52', '15', '141', '175', '98', '187', '20', '153', '146', '143', '14', '18', '159', '1', '136', '112', '77', '36', '65', '105', '30', '47', '16', '86'] 12834.842519685031
132 256.6968503937008 ['66', '45', '106', '139', '52', '15', '141', '175', '98', '187', '20', '153', '146', '143', '14', '18', '159', '1', '136', '112', '77', '36', '65', '105', '30', '47', '16', '86'] 12834.842519685031
133 256.6968503937008 ['66', '45', '106', '139', '52', '15', '141', '175', '98', '187', '20', '153', '146', '143', '14', '18', '159', '1', '136', '112', '77', '36', '65', '105', '30', '47', '16', '86'] 12834.842519685031
134 256.6968503937008 ['66', '45', '106', '139', '52', '15', '141', '175', '98', '187', '20', '153', '146', '143', '14', '18', '159', '1', '136', '112', '77', '36', '65', '105', '30', '47', '16', '86'] 12834.842519685031
135 256.6968503937008 ['66', '45', '106', '139', '52', '15', '141', '175', '98', '187', '20', '153', '146', '143', '14', '18', '159', '1', '136', '112', '77', '36', '65', '105', '30', '47', '16', '86'] 12834.842519685031
136 256.6968503937008 ['66', '45', '106', '139', '52', '15', '141', '175', '98', '187', '20', '153', '146', '143', '14', '18', '159', '1', '136', '112', '77', '36', '65', '105', '30', '47', '16', '86'] 12834.842519685031
137 256.6968503937008 ['66', '45', '106', '139', '52', '15', '141', '175', '98', '187', '20', '153', '146', '143', '14', '18', '159', '1', '136', '112', '77', '36', '65', '105', '30', '47', '16', '86'] 12834.842519685031
138 256.6968503937008 ['66', '45', '106', '139', '52', '15', '141', '175', '98', '187', '20', '153', '146', '143', '14', '18', '159', '1', '136', '112', '77', '36', '65', '105', '30', '47', '16', '86'] 12834.842519685031
139 256.6968503937008 ['66', '45', '106', '139', '52', '15', '141', '175', '98', '187', '20', '153', '146', '143', '14', '18', '159', '1', '136', '112', '77', '36', '65', '105', '30', '47', '16', '86'] 12834.842519685031
140 256.6968503937008 ['66', '45', '106', '139', '52', '15', '141', '175', '98', '187', '20', '153', '146', '143', '14', '18', '159', '1', '136', '112', '77', '36', '65', '105', '30', '47', '16', '86'] 12834.842519685031
141 256.6968503937008 ['66', '45', '106', '139', '52', '15', '141', '175', '98', '187', '20', '153', '146', '143', '14', '18', '159', '1', '136', '112', '77', '36', '65', '105', '30', '47', '16', '86'] 12834.842519685031
142 256.6968503937008 ['66', '45', '106', '139', '52', '15', '141', '175', '98', '187', '20', '153', '146', '143', '14', '18', '159', '1', '136', '112', '77', '36', '65', '105', '30', '47', '16', '86'] 12834.842519685031
143 256.6968503937008 ['66', '45', '106', '139', '52', '15', '141', '175', '98', '187', '20', '153', '146', '143', '14', '18', '159', '1', '136', '112', '77', '36', '65', '105', '30', '47', '16', '86'] 12834.842519685031
144 256.6968503937008 ['66', '45', '106', '139', '52', '15', '141', '175', '98', '187', '20', '153', '146', '143', '14', '18', '159', '1', '136', '112', '77', '36', '65', '105', '30', '47', '16', '86'] 12834.842519685031
145 256.6968503937008 ['66', '45', '106', '139', '52', '15', '141', '175', '98', '187', '20', '153', '146', '143', '14', '18', '159', '1', '136', '112', '77', '36', '65', '105', '30', '47', '16', '86'] 12834.842519685031
146 256.6968503937008 ['66', '45', '106', '139', '52', '15', '141', '175', '98', '187', '20', '153', '146', '143', '14', '18', '159', '1', '136', '112', '77', '36', '65', '105', '30', '47', '16', '86'] 12834.842519685031
147 256.6968503937008 ['66', '45', '106', '139', '52', '15', '141', '175', '98', '187', '20', '153', '146', '143', '14', '18', '159', '1', '136', '112', '77', '36', '65', '105', '30', '47', '16', '86'] 12834.842519685031
148 256.6968503937008 ['66', '45', '106', '139', '52', '15', '141', '175', '98', '187', '20', '153', '146', '143', '14', '18', '159', '1', '136', '112', '77', '36', '65', '105', '30', '47', '16', '86'] 12834.842519685031
149 256.6968503937008 ['66', '45', '106', '139', '52', '15', '141', '175', '98', '187', '20', '153', '146', '143', '14', '18', '159', '1', '136', '112', '77', '36', '65', '105', '30', '47', '16', '86'] 12834.842519685031
150 256.6968503937008 ['66', '45', '106', '139', '52', '15', '141', '175', '98', '187', '20', '153', '146', '143', '14', '18', '159', '1', '136', '112', '77', '36', '65', '105', '30', '47', '16', '86'] 12834.842519685031
151 256.6968503937008 ['66', '45', '106', '139', '52', '15', '141', '175', '98', '187', '20', '153', '146', '143', '14', '18', '159', '1', '136', '112', '77', '36', '65', '105', '30', '47', '16', '86'] 12834.842519685031
152 256.6968503937008 ['66', '45', '106', '139', '52', '15', '141', '175', '98', '187', '20', '153', '146', '143', '14', '18', '159', '1', '136', '112', '77', '36', '65', '105', '30', '47', '16', '86'] 12834.842519685031
153 256.6968503937008 ['66', '45', '106', '139', '52', '15', '141', '175', '98', '187', '20', '153', '146', '143', '14', '18', '159', '1', '136', '112', '77', '36', '65', '105', '30', '47', '16', '86'] 12834.842519685031
154 256.6968503937008 ['66', '45', '106', '139', '52', '15', '141', '175', '98', '187', '20', '153', '146', '143', '14', '18', '159', '1', '136', '112', '77', '36', '65', '105', '30', '47', '16', '86'] 12834.842519685031
155 256.6968503937008 ['66', '45', '106', '139', '52', '15', '141', '175', '98', '187', '20', '153', '146', '143', '14', '18', '159', '1', '136', '112', '77', '36', '65', '105', '30', '47', '16', '86'] 12834.842519685031
156 256.6968503937008 ['66', '45', '106', '139', '52', '15', '141', '175', '98', '187', '20', '153', '146', '143', '14', '18', '159', '1', '136', '112', '77', '36', '65', '105', '30', '47', '16', '86'] 12834.842519685031
157 256.6968503937008 ['66', '45', '106', '139', '52', '15', '141', '175', '98', '187', '20', '153', '146', '143', '14', '18', '159', '1', '136', '112', '77', '36', '65', '105', '30', '47', '16', '86'] 12834.842519685031
158 256.6968503937008 ['66', '45', '106', '139', '52', '15', '141', '175', '98', '187', '20', '153', '146', '143', '14', '18', '159', '1', '136', '112', '77', '36', '65', '105', '30', '47', '16', '86'] 12834.842519685031
159 256.6968503937008 ['66', '45', '106', '139', '52', '15', '141', '175', '98', '187', '20', '153', '146', '143', '14', '18', '159', '1', '136', '112', '77', '36', '65', '105', '30', '47', '16', '86'] 12834.842519685031
160 256.6968503937008 ['66', '45', '106', '139', '52', '15', '141', '175', '98', '187', '20', '153', '146', '143', '14', '18', '159', '1', '136', '112', '77', '36', '65', '105', '30', '47', '16', '86'] 12834.842519685031
161 256.6968503937008 ['66', '45', '106', '139', '52', '15', '141', '175', '98', '187', '20', '153', '146', '143', '14', '18', '159', '1', '136', '112', '77', '36', '65', '105', '30', '47', '16', '86'] 12834.842519685031
162 256.6968503937008 ['66', '45', '106', '139', '52', '15', '141', '175', '98', '187', '20', '153', '146', '143', '14', '18', '159', '1', '136', '112', '77', '36', '65', '105', '30', '47', '16', '86'] 12834.842519685031
163 256.6968503937008 ['66', '45', '106', '139', '52', '15', '141', '175', '98', '187', '20', '153', '146', '143', '14', '18', '159', '1', '136', '112', '77', '36', '65', '105', '30', '47', '16', '86'] 12834.842519685031
164 256.6968503937008 ['66', '45', '106', '139', '52', '15', '141', '175', '98', '187', '20', '153', '146', '143', '14', '18', '159', '1', '136', '112', '77', '36', '65', '105', '30', '47', '16', '86'] 12834.842519685031
165 256.6968503937008 ['66', '45', '106', '139', '52', '15', '141', '175', '98', '187', '20', '153', '146', '143', '14', '18', '159', '1', '136', '112', '77', '36', '65', '105', '30', '47', '16', '86'] 12834.842519685031
166 256.6968503937008 ['66', '45', '106', '139', '52', '15', '141', '175', '98', '187', '20', '153', '146', '143', '14', '18', '159', '1', '136', '112', '77', '36', '65', '105', '30', '47', '16', '86'] 12834.842519685031
167 256.6968503937008 ['66', '45', '106', '139', '52', '15', '141', '175', '98', '187', '20', '153', '146', '143', '14', '18', '159', '1', '136', '112', '77', '36', '65', '105', '30', '47', '16', '86'] 12834.842519685031
168 256.6968503937008 ['66', '45', '106', '139', '52', '15', '141', '175', '98', '187', '20', '153', '146', '143', '14', '18', '159', '1', '136', '112', '77', '36', '65', '105', '30', '47', '16', '86'] 12834.842519685031
169 256.6968503937008 ['66', '45', '106', '139', '52', '15', '141', '175', '98', '187', '20', '153', '146', '143', '14', '18', '159', '1', '136', '112', '77', '36', '65', '105', '30', '47', '16', '86'] 12834.842519685031
170 256.6968503937008 ['66', '45', '106', '139', '52', '15', '141', '175', '98', '187', '20', '153', '146', '143', '14', '18', '159', '1', '136', '112', '77', '36', '65', '105', '30', '47', '16', '86'] 12834.842519685031
171 256.6968503937008 ['66', '45', '106', '139', '52', '15', '141', '175', '98', '187', '20', '153', '146', '143', '14', '18', '159', '1', '136', '112', '77', '36', '65', '105', '30', '47', '16', '86'] 12834.842519685031
172 256.6968503937008 ['66', '45', '106', '139', '52', '15', '141', '175', '98', '187', '20', '153', '146', '143', '14', '18', '159', '1', '136', '112', '77', '36', '65', '105', '30', '47', '16', '86'] 12834.842519685031
173 256.6968503937008 ['66', '45', '106', '139', '52', '15', '141', '175', '98', '187', '20', '153', '146', '143', '14', '18', '159', '1', '136', '112', '77', '36', '65', '105', '30', '47', '16', '86'] 12834.842519685031
174 256.6968503937008 ['66', '45', '106', '139', '52', '15', '141', '175', '98', '187', '20', '153', '146', '143', '14', '18', '159', '1', '136', '112', '77', '36', '65', '105', '30', '47', '16', '86'] 12834.842519685031
175 256.6968503937008 ['66', '45', '106', '139', '52', '15', '141', '175', '98', '187', '20', '153', '146', '143', '14', '18', '159', '1', '136', '112', '77', '36', '65', '105', '30', '47', '16', '86'] 12834.842519685031
176 256.6968503937008 ['66', '45', '106', '139', '52', '15', '141', '175', '98', '187', '20', '153', '146', '143', '14', '18', '159', '1', '136', '112', '77', '36', '65', '105', '30', '47', '16', '86'] 12834.842519685031
177 256.6968503937008 ['66', '45', '106', '139', '52', '15', '141', '175', '98', '187', '20', '153', '146', '143', '14', '18', '159', '1', '136', '112', '77', '36', '65', '105', '30', '47', '16', '86'] 12834.842519685031
178 256.6968503937008 ['66', '45', '106', '139', '52', '15', '141', '175', '98', '187', '20', '153', '146', '143', '14', '18', '159', '1', '136', '112', '77', '36', '65', '105', '30', '47', '16', '86'] 12834.842519685031
179 256.6968503937008 ['66', '45', '106', '139', '52', '15', '141', '175', '98', '187', '20', '153', '146', '143', '14', '18', '159', '1', '136', '112', '77', '36', '65', '105', '30', '47', '16', '86'] 12834.842519685031
180 256.6968503937008 ['66', '45', '106', '139', '52', '15', '141', '175', '98', '187', '20', '153', '146', '143', '14', '18', '159', '1', '136', '112', '77', '36', '65', '105', '30', '47', '16', '86'] 12834.842519685031
181 256.6968503937008 ['66', '45', '106', '139', '52', '15', '141', '175', '98', '187', '20', '153', '146', '143', '14', '18', '159', '1', '136', '112', '77', '36', '65', '105', '30', '47', '16', '86'] 12834.842519685031
182 256.6968503937008 ['66', '45', '106', '139', '52', '15', '141', '175', '98', '187', '20', '153', '146', '143', '14', '18', '159', '1', '136', '112', '77', '36', '65', '105', '30', '47', '16', '86'] 12834.842519685031
183 256.6968503937008 ['66', '45', '106', '139', '52', '15', '141', '175', '98', '187', '20', '153', '146', '143', '14', '18', '159', '1', '136', '112', '77', '36', '65', '105', '30', '47', '16', '86'] 12834.842519685031
184 256.6968503937008 ['66', '45', '106', '139', '52', '15', '141', '175', '98', '187', '20', '153', '146', '143', '14', '18', '159', '1', '136', '112', '77', '36', '65', '105', '30', '47', '16', '86'] 12834.842519685031
185 256.6968503937008 ['66', '45', '106', '139', '52', '15', '141', '175', '98', '187', '20', '153', '146', '143', '14', '18', '159', '1', '136', '112', '77', '36', '65', '105', '30', '47', '16', '86'] 12834.842519685031
186 256.6968503937008 ['66', '45', '106', '139', '52', '15', '141', '175', '98', '187', '20', '153', '146', '143', '14', '18', '159', '1', '136', '112', '77', '36', '65', '105', '30', '47', '16', '86'] 12834.842519685031
187 256.6968503937008 ['66', '45', '106', '139', '52', '15', '141', '175', '98', '187', '20', '153', '146', '143', '14', '18', '159', '1', '136', '112', '77', '36', '65', '105', '30', '47', '16', '86'] 12834.842519685031
188 256.6968503937008 ['66', '45', '106', '139', '52', '15', '141', '175', '98', '187', '20', '153', '146', '143', '14', '18', '159', '1', '136', '112', '77', '36', '65', '105', '30', '47', '16', '86'] 12834.842519685031
189 256.6968503937008 ['66', '45', '106', '139', '52', '15', '141', '175', '98', '187', '20', '153', '146', '143', '14', '18', '159', '1', '136', '112', '77', '36', '65', '105', '30', '47', '16', '86'] 12834.842519685031
190 256.6968503937008 ['66', '45', '106', '139', '52', '15', '141', '175', '98', '187', '20', '153', '146', '143', '14', '18', '159', '1', '136', '112', '77', '36', '65', '105', '30', '47', '16', '86'] 12834.842519685031
191 256.6968503937008 ['66', '45', '106', '139', '52', '15', '141', '175', '98', '187', '20', '153', '146', '143', '14', '18', '159', '1', '136', '112', '77', '36', '65', '105', '30', '47', '16', '86'] 12834.842519685031
192 256.6968503937008 ['66', '45', '106', '139', '52', '15', '141', '175', '98', '187', '20', '153', '146', '143', '14', '18', '159', '1', '136', '112', '77', '36', '65', '105', '30', '47', '16', '86'] 12834.842519685031
193 256.6968503937008 ['66', '45', '106', '139', '52', '15', '141', '175', '98', '187', '20', '153', '146', '143', '14', '18', '159', '1', '136', '112', '77', '36', '65', '105', '30', '47', '16', '86'] 12834.842519685031
194 256.6968503937008 ['66', '45', '106', '139', '52', '15', '141', '175', '98', '187', '20', '153', '146', '143', '14', '18', '159', '1', '136', '112', '77', '36', '65', '105', '30', '47', '16', '86'] 12834.842519685031
195 256.6968503937008 ['66', '45', '106', '139', '52', '15', '141', '175', '98', '187', '20', '153', '146', '143', '14', '18', '159', '1', '136', '112', '77', '36', '65', '105', '30', '47', '16', '86'] 12834.842519685031
196 256.6968503937008 ['66', '45', '106', '139', '52', '15', '141', '175', '98', '187', '20', '153', '146', '143', '14', '18', '159', '1', '136', '112', '77', '36', '65', '105', '30', '47', '16', '86'] 12834.842519685031
197 256.6968503937008 ['66', '45', '106', '139', '52', '15', '141', '175', '98', '187', '20', '153', '146', '143', '14', '18', '159', '1', '136', '112', '77', '36', '65', '105', '30', '47', '16', '86'] 12834.842519685031
198 256.6968503937008 ['66', '45', '106', '139', '52', '15', '141', '175', '98', '187', '20', '153', '146', '143', '14', '18', '159', '1', '136', '112', '77', '36', '65', '105', '30', '47', '16', '86'] 12834.842519685031
199 256.6968503937008 ['66', '45', '106', '139', '52', '15', '141', '175', '98', '187', '20', '153', '146', '143', '14', '18', '159', '1', '136', '112', '77', '36', '65', '105', '30', '47', '16', '86'] 12834.842519685031
