0 20.71772584889799 ['280', '105', '266', '21', '13', '26', '186', '152', '171', '48', '15', '206', '235', '265', '134', '9', '160', '236', '118', '68', '86', '154', '175', '259', '16', '98', '162', '44'] 1065.9688431346708
1 20.558422381873733 ['229', '71', '12', '47', '205', '31', '95', '45', '269', '86', '198', '146', '129', '134', '243', '62', '163', '177', '162', '169', '110', '155', '34', '77', '43', '266', '248', '175'] 1057.0599374558333
2 20.558422381873733 ['229', '71', '12', '47', '205', '31', '95', '45', '269', '86', '198', '146', '129', '134', '243', '62', '163', '177', '162', '169', '110', '155', '34', '77', '43', '266', '248', '175'] 1046.4902075071911
3 20.558422381873733 ['229', '71', '12', '47', '205', '31', '95', '45', '269', '86', '198', '146', '129', '134', '243', '62', '163', '177', '162', '169', '110', '155', '34', '77', '43', '266', '248', '175'] 1039.4950518524888
4 20.31018682979666 ['47', '63', '14', '77', '45', '265', '38', '15', '136', '36', '71', '162', '40', '41', '8', '13', '110', '193', '150', '134', '114', '176', '35', '91', '59', '32', '257', '55'] 1033.5630849406477
5 20.18458050080958 ['26', '162', '134', '48', '175', '20', '154', '71', '268', '236', '16', '54', '219', '27', '44', '152', '9', '117', '235', '105', '171', '269', '98', '31', '280', '160', '86', '15'] 1027.5126573305909
6 20.152671701126284 ['175', '198', '47', '71', '31', '191', '134', '162', '8', '227', '281', '114', '63', '45', '251', '193', '155', '77', '98', '248', '95', '243', '257', '110', '14', '59', '205', '15'] 1022.8272140267145
7 19.78661944419 ['14', '265', '60', '171', '46', '227', '186', '98', '185', '39', '81', '139', '152', '220', '31', '47', '146', '42', '65', '134', '45', '1', '68', '175', '198', '141', '71', '105'] 1016.4742656392567
8 19.641295664042126 ['162', '134', '98', '86', '26', '54', '236', '175', '16', '8', '198', '39', '36', '13', '154', '69', '110', '31', '160', '117', '185', '15', '44', '14', '47', '152', '66', '105'] 1009.3019306107883
9 19.60356825755136 ['198', '110', '32', '13', '162', '14', '47', '39', '134', '139', '229', '265', '86', '141', '35', '1', '66', '45', '36', '54', '20', '269', '136', '98', '146', '120', '46', '8'] 1001.4266146668647
10 19.517480720535392 ['31', '42', '110', '146', '46', '86', '134', '39', '98', '185', '80', '71', '159', '191', '229', '198', '265', '205', '47', '249', '20', '103', '68', '65', '169', '33', '177', '139'] 993.072310357726
11 19.40839602936495 ['68', '46', '85', '177', '141', '65', '139', '44', '71', '146', '105', '134', '186', '1', '31', '47', '98', '77', '143', '175', '35', '39', '59', '169', '86', '21', '236', '80'] 987.0309723091266
12 19.315527060223342 ['110', '98', '13', '36', '46', '134', '47', '86', '8', '26', '33', '159', '66', '14', '162', '44', '65', '175', '154', '20', '31', '16', '54', '105', '39', '220', '193', '265'] 981.575402089143
13 19.1897095092862 ['86', '31', '39', '139', '134', '1', '236', '98', '47', '141', '68', '198', '77', '8', '175', '71', '229', '110', '14', '35', '105', '54', '65', '186', '16', '169', '80', '13'] 975.8186106968412
14 19.1897095092862 ['86', '31', '39', '139', '134', '1', '236', '98', '47', '141', '68', '198', '77', '8', '175', '71', '229', '110', '14', '35', '105', '54', '65', '186', '16', '169', '80', '13'] 968.9954454964062
15 19.038241191401127 ['1', '47', '162', '105', '98', '146', '14', '77', '86', '31', '39', '134', '71', '68', '198', '169', '175', '54', '42', '243', '227', '85', '176', '15', '143', '154', '139', '249'] 964.6893127658471
16 18.86453442527599 ['146', '68', '176', '139', '98', '47', '39', '71', '86', '134', '169', '42', '77', '198', '14', '1', '31', '159', '154', '46', '65', '177', '105', '162', '143', '85', '175', '80'] 960.5108077258377
17 18.86453442527599 ['146', '68', '176', '139', '98', '47', '39', '71', '86', '134', '169', '42', '77', '198', '14', '1', '31', '159', '154', '46', '65', '177', '105', '162', '143', '85', '175', '80'] 956.954155789067
18 18.665526333167612 ['146', '54', '77', '134', '139', '35', '71', '31', '8', '1', '105', '177', '162', '75', '39', '47', '26', '86', '98', '14', '154', '65', '42', '33', '110', '169', '143', '159'] 952.2042452445648
19 18.665526333167612 ['146', '54', '77', '134', '139', '35', '71', '31', '8', '1', '105', '177', '162', '75', '39', '47', '26', '86', '98', '14', '154', '65', '42', '33', '110', '169', '143', '159'] 947.8899295583827
20 18.510908013664192 ['68', '98', '47', '139', '146', '105', '14', '33', '8', '39', '162', '75', '1', '134', '46', '177', '54', '31', '86', '77', '154', '20', '36', '26', '15', '65', '175', '143'] 943.0604950775831
21 18.510908013664192 ['68', '98', '47', '139', '146', '105', '14', '33', '8', '39', '162', '75', '1', '134', '46', '177', '54', '31', '86', '77', '154', '20', '36', '26', '15', '65', '175', '143'] 939.3986180852388
22 18.510908013664192 ['68', '98', '47', '139', '146', '105', '14', '33', '8', '39', '162', '75', '1', '134', '46', '177', '54', '31', '86', '77', '154', '20', '36', '26', '15', '65', '175', '143'] 936.0929037165785
23 18.510908013664192 ['68', '98', '47', '139', '146', '105', '14', '33', '8', '39', '162', '75', '1', '134', '46', '177', '54', '31', '86', '77', '154', '20', '36', '26', '15', '65', '175', '143'] 933.3689010611622
24 18.49724097290869 ['14', '42', '31', '143', '162', '139', '47', '35', '134', '86', '146', '15', '98', '77', '33', '39', '1', '154', '105', '65', '176', '8', '36', '68', '26', '71', '159', '110'] 930.9589041652152
25 18.48748824990036 ['47', '1', '105', '162', '46', '154', '139', '134', '15', '98', '65', '31', '39', '146', '86', '14', '143', '35', '77', '68', '71', '42', '8', '159', '33', '80', '36', '176'] 928.655129452354
26 18.44323593914727 ['68', '154', '1', '162', '31', '26', '98', '14', '139', '134', '39', '146', '77', '65', '33', '86', '47', '105', '143', '20', '15', '46', '80', '16', '52', '176', '169', '54'] 926.3871305481308
27 18.438136168795275 ['177', '154', '134', '143', '1', '141', '77', '47', '68', '98', '31', '105', '86', '33', '39', '14', '139', '146', '15', '20', '71', '8', '36', '16', '65', '54', '46', '26'] 924.7726610936109
28 18.433769360365407 ['36', '134', '20', '146', '15', '47', '1', '177', '105', '77', '154', '31', '39', '139', '33', '8', '86', '143', '46', '14', '68', '54', '98', '169', '162', '141', '65', '16'] 923.7145806199991
29 18.394202545270627 ['31', '139', '175', '77', '65', '1', '8', '143', '47', '80', '15', '14', '98', '54', '39', '146', '154', '68', '86', '26', '105', '134', '33', '66', '20', '71', '162', '36'] 922.47049726062
30 18.394202545270627 ['31', '139', '175', '77', '65', '1', '8', '143', '47', '80', '15', '14', '98', '54', '39', '146', '154', '68', '86', '26', '105', '134', '33', '66', '20', '71', '162', '36'] 921.6110848358924
31 18.377595742609348 ['86', '15', '31', '14', '33', '54', '20', '65', '105', '39', '68', '46', '162', '47', '1', '77', '139', '98', '134', '146', '154', '36', '143', '16', '176', '80', '71', '141'] 920.946929111267
32 18.367128190421866 ['47', '139', '8', '31', '36', '162', '134', '146', '98', '33', '1', '68', '39', '86', '71', '105', '65', '77', '15', '14', '20', '54', '154', '143', '169', '66', '175', '16'] 920.3592978502627
33 18.353506080260708 ['86', '15', '77', '162', '39', '105', '143', '1', '31', '33', '176', '47', '14', '139', '146', '46', '134', '16', '65', '54', '154', '68', '36', '98', '20', '66', '71', '80'] 919.6764142190289
34 18.348880838466073 ['162', '16', '14', '98', '20', '36', '15', '54', '47', '105', '143', '39', '139', '134', '86', '154', '31', '146', '33', '1', '46', '65', '77', '176', '68', '141', '71', '66'] 919.1152041925545
35 18.33995724518879 ['15', '36', '66', '154', '105', '47', '141', '86', '31', '33', '39', '1', '16', '146', '20', '71', '77', '68', '14', '134', '143', '54', '139', '65', '162', '98', '176', '8'] 918.4363432398311
36 18.336530356778 ['16', '31', '33', '143', '98', '176', '39', '77', '65', '47', '15', '1', '86', '71', '14', '20', '68', '162', '146', '139', '134', '36', '154', '54', '105', '80', '141', '66'] 917.7738652428014
37 18.336530356778 ['16', '31', '33', '143', '98', '176', '39', '77', '65', '47', '15', '1', '86', '71', '14', '20', '68', '162', '146', '139', '134', '36', '154', '54', '105', '80', '141', '66'] 917.4475105840885
38 18.327613441281112 ['36', '31', '66', '154', '20', '15', '143', '68', '141', '86', '134', '71', '105', '33', '98', '162', '176', '14', '139', '146', '77', '54', '39', '65', '47', '1', '16', '169'] 917.1726382112399
39 18.327613441281112 ['36', '31', '66', '154', '20', '15', '143', '68', '141', '86', '134', '71', '105', '33', '98', '162', '176', '14', '139', '146', '77', '54', '39', '65', '47', '1', '16', '169'] 916.9107455666859
40 18.327613441281112 ['36', '31', '66', '154', '20', '15', '143', '68', '141', '86', '134', '71', '105', '33', '98', '162', '176', '14', '139', '146', '77', '54', '39', '65', '47', '1', '16', '169'] 916.7089886128242
41 18.327613441281112 ['36', '31', '66', '154', '20', '15', '143', '68', '141', '86', '134', '71', '105', '33', '98', '162', '176', '14', '139', '146', '77', '54', '39', '65', '47', '1', '16', '169'] 916.5829593462431
42 18.327613441281112 ['36', '31', '66', '154', '20', '15', '143', '68', '141', '86', '134', '71', '105', '33', '98', '162', '176', '14', '139', '146', '77', '54', '39', '65', '47', '1', '16', '169'] 916.4804051406984
43 18.327613441281112 ['36', '31', '66', '154', '20', '15', '143', '68', '141', '86', '134', '71', '105', '33', '98', '162', '176', '14', '139', '146', '77', '54', '39', '65', '47', '1', '16', '169'] 916.3991411523223
44 18.327613441281112 ['36', '31', '66', '154', '20', '15', '143', '68', '141', '86', '134', '71', '105', '33', '98', '162', '176', '14', '139', '146', '77', '54', '39', '65', '47', '1', '16', '169'] 916.3806720640549
45 18.327613441281112 ['36', '31', '66', '154', '20', '15', '143', '68', '141', '86', '134', '71', '105', '33', '98', '162', '176', '14', '139', '146', '77', '54', '39', '65', '47', '1', '16', '169'] 916.3806720640549
46 18.327613441281112 ['36', '31', '66', '154', '20', '15', '143', '68', '141', '86', '134', '71', '105', '33', '98', '162', '176', '14', '139', '146', '77', '54', '39', '65', '47', '1', '16', '169'] 916.3806720640549
47 18.327613441281112 ['36', '31', '66', '154', '20', '15', '143', '68', '141', '86', '134', '71', '105', '33', '98', '162', '176', '14', '139', '146', '77', '54', '39', '65', '47', '1', '16', '169'] 916.3806720640549
48 18.327613441281112 ['36', '31', '66', '154', '20', '15', '143', '68', '141', '86', '134', '71', '105', '33', '98', '162', '176', '14', '139', '146', '77', '54', '39', '65', '47', '1', '16', '169'] 916.3806720640549
49 18.327613441281112 ['36', '31', '66', '154', '20', '15', '143', '68', '141', '86', '134', '71', '105', '33', '98', '162', '176', '14', '139', '146', '77', '54', '39', '65', '47', '1', '16', '169'] 916.3806720640549
50 18.327613441281112 ['36', '31', '66', '154', '20', '15', '143', '68', '141', '86', '134', '71', '105', '33', '98', '162', '176', '14', '139', '146', '77', '54', '39', '65', '47', '1', '16', '169'] 916.3806720640549
51 18.327613441281112 ['36', '31', '66', '154', '20', '15', '143', '68', '141', '86', '134', '71', '105', '33', '98', '162', '176', '14', '139', '146', '77', '54', '39', '65', '47', '1', '16', '169'] 916.3806720640549
52 18.327613441281112 ['36', '31', '66', '154', '20', '15', '143', '68', '141', '86', '134', '71', '105', '33', '98', '162', '176', '14', '139', '146', '77', '54', '39', '65', '47', '1', '16', '169'] 916.3806720640549
53 18.327613441281112 ['36', '31', '66', '154', '20', '15', '143', '68', '141', '86', '134', '71', '105', '33', '98', '162', '176', '14', '139', '146', '77', '54', '39', '65', '47', '1', '16', '169'] 916.3806720640549
54 18.327613441281112 ['36', '31', '66', '154', '20', '15', '143', '68', '141', '86', '134', '71', '105', '33', '98', '162', '176', '14', '139', '146', '77', '54', '39', '65', '47', '1', '16', '169'] 916.3806720640549
55 18.327613441281112 ['36', '31', '66', '154', '20', '15', '143', '68', '141', '86', '134', '71', '105', '33', '98', '162', '176', '14', '139', '146', '77', '54', '39', '65', '47', '1', '16', '169'] 916.3806720640549
56 18.327613441281112 ['36', '31', '66', '154', '20', '15', '143', '68', '141', '86', '134', '71', '105', '33', '98', '162', '176', '14', '139', '146', '77', '54', '39', '65', '47', '1', '16', '169'] 916.3806720640549
57 18.327613441281112 ['36', '31', '66', '154', '20', '15', '143', '68', '141', '86', '134', '71', '105', '33', '98', '162', '176', '14', '139', '146', '77', '54', '39', '65', '47', '1', '16', '169'] 916.3806720640549
58 18.327613441281112 ['36', '31', '66', '154', '20', '15', '143', '68', '141', '86', '134', '71', '105', '33', '98', '162', '176', '14', '139', '146', '77', '54', '39', '65', '47', '1', '16', '169'] 916.3806720640549
59 18.327613441281112 ['36', '31', '66', '154', '20', '15', '143', '68', '141', '86', '134', '71', '105', '33', '98', '162', '176', '14', '139', '146', '77', '54', '39', '65', '47', '1', '16', '169'] 916.3806720640549
60 18.327613441281112 ['36', '31', '66', '154', '20', '15', '143', '68', '141', '86', '134', '71', '105', '33', '98', '162', '176', '14', '139', '146', '77', '54', '39', '65', '47', '1', '16', '169'] 916.3806720640549
61 18.327613441281112 ['36', '31', '66', '154', '20', '15', '143', '68', '141', '86', '134', '71', '105', '33', '98', '162', '176', '14', '139', '146', '77', '54', '39', '65', '47', '1', '16', '169'] 916.3806720640549
62 18.327613441281112 ['36', '31', '66', '154', '20', '15', '143', '68', '141', '86', '134', '71', '105', '33', '98', '162', '176', '14', '139', '146', '77', '54', '39', '65', '47', '1', '16', '169'] 916.3806720640549
63 18.327613441281112 ['36', '31', '66', '154', '20', '15', '143', '68', '141', '86', '134', '71', '105', '33', '98', '162', '176', '14', '139', '146', '77', '54', '39', '65', '47', '1', '16', '169'] 916.3806720640549
64 18.327613441281112 ['36', '31', '66', '154', '20', '15', '143', '68', '141', '86', '134', '71', '105', '33', '98', '162', '176', '14', '139', '146', '77', '54', '39', '65', '47', '1', '16', '169'] 916.3806720640549
65 18.327613441281112 ['36', '31', '66', '154', '20', '15', '143', '68', '141', '86', '134', '71', '105', '33', '98', '162', '176', '14', '139', '146', '77', '54', '39', '65', '47', '1', '16', '169'] 916.3806720640549
66 18.327613441281112 ['36', '31', '66', '154', '20', '15', '143', '68', '141', '86', '134', '71', '105', '33', '98', '162', '176', '14', '139', '146', '77', '54', '39', '65', '47', '1', '16', '169'] 916.3806720640549
67 18.327613441281112 ['36', '31', '66', '154', '20', '15', '143', '68', '141', '86', '134', '71', '105', '33', '98', '162', '176', '14', '139', '146', '77', '54', '39', '65', '47', '1', '16', '169'] 916.3806720640549
68 18.327613441281112 ['36', '31', '66', '154', '20', '15', '143', '68', '141', '86', '134', '71', '105', '33', '98', '162', '176', '14', '139', '146', '77', '54', '39', '65', '47', '1', '16', '169'] 916.3806720640549
69 18.327613441281112 ['36', '31', '66', '154', '20', '15', '143', '68', '141', '86', '134', '71', '105', '33', '98', '162', '176', '14', '139', '146', '77', '54', '39', '65', '47', '1', '16', '169'] 916.3806720640549
70 18.327613441281112 ['36', '31', '66', '154', '20', '15', '143', '68', '141', '86', '134', '71', '105', '33', '98', '162', '176', '14', '139', '146', '77', '54', '39', '65', '47', '1', '16', '169'] 916.3806720640549
71 18.327613441281112 ['36', '31', '66', '154', '20', '15', '143', '68', '141', '86', '134', '71', '105', '33', '98', '162', '176', '14', '139', '146', '77', '54', '39', '65', '47', '1', '16', '169'] 916.3806720640549
72 18.327613441281112 ['36', '31', '66', '154', '20', '15', '143', '68', '141', '86', '134', '71', '105', '33', '98', '162', '176', '14', '139', '146', '77', '54', '39', '65', '47', '1', '16', '169'] 916.3806720640549
73 18.327613441281112 ['36', '31', '66', '154', '20', '15', '143', '68', '141', '86', '134', '71', '105', '33', '98', '162', '176', '14', '139', '146', '77', '54', '39', '65', '47', '1', '16', '169'] 916.3806720640549
74 18.327613441281112 ['36', '31', '66', '154', '20', '15', '143', '68', '141', '86', '134', '71', '105', '33', '98', '162', '176', '14', '139', '146', '77', '54', '39', '65', '47', '1', '16', '169'] 916.3806720640549
75 18.327613441281112 ['36', '31', '66', '154', '20', '15', '143', '68', '141', '86', '134', '71', '105', '33', '98', '162', '176', '14', '139', '146', '77', '54', '39', '65', '47', '1', '16', '169'] 916.3806720640549
76 18.327613441281112 ['36', '31', '66', '154', '20', '15', '143', '68', '141', '86', '134', '71', '105', '33', '98', '162', '176', '14', '139', '146', '77', '54', '39', '65', '47', '1', '16', '169'] 916.3806720640549
77 18.327613441281112 ['36', '31', '66', '154', '20', '15', '143', '68', '141', '86', '134', '71', '105', '33', '98', '162', '176', '14', '139', '146', '77', '54', '39', '65', '47', '1', '16', '169'] 916.3806720640549
78 18.327613441281112 ['36', '31', '66', '154', '20', '15', '143', '68', '141', '86', '134', '71', '105', '33', '98', '162', '176', '14', '139', '146', '77', '54', '39', '65', '47', '1', '16', '169'] 916.3806720640549
79 18.327613441281112 ['36', '31', '66', '154', '20', '15', '143', '68', '141', '86', '134', '71', '105', '33', '98', '162', '176', '14', '139', '146', '77', '54', '39', '65', '47', '1', '16', '169'] 916.3806720640549
80 18.327613441281112 ['36', '31', '66', '154', '20', '15', '143', '68', '141', '86', '134', '71', '105', '33', '98', '162', '176', '14', '139', '146', '77', '54', '39', '65', '47', '1', '16', '169'] 916.3806720640549
81 18.327613441281112 ['36', '31', '66', '154', '20', '15', '143', '68', '141', '86', '134', '71', '105', '33', '98', '162', '176', '14', '139', '146', '77', '54', '39', '65', '47', '1', '16', '169'] 916.3806720640549
82 18.327613441281112 ['36', '31', '66', '154', '20', '15', '143', '68', '141', '86', '134', '71', '105', '33', '98', '162', '176', '14', '139', '146', '77', '54', '39', '65', '47', '1', '16', '169'] 916.3806720640549
83 18.327613441281112 ['36', '31', '66', '154', '20', '15', '143', '68', '141', '86', '134', '71', '105', '33', '98', '162', '176', '14', '139', '146', '77', '54', '39', '65', '47', '1', '16', '169'] 916.3806720640549
84 18.327613441281112 ['36', '31', '66', '154', '20', '15', '143', '68', '141', '86', '134', '71', '105', '33', '98', '162', '176', '14', '139', '146', '77', '54', '39', '65', '47', '1', '16', '169'] 916.3806720640549
85 18.327613441281112 ['36', '31', '66', '154', '20', '15', '143', '68', '141', '86', '134', '71', '105', '33', '98', '162', '176', '14', '139', '146', '77', '54', '39', '65', '47', '1', '16', '169'] 916.3806720640549
86 18.327613441281112 ['36', '31', '66', '154', '20', '15', '143', '68', '141', '86', '134', '71', '105', '33', '98', '162', '176', '14', '139', '146', '77', '54', '39', '65', '47', '1', '16', '169'] 916.3806720640549
87 18.327613441281112 ['36', '31', '66', '154', '20', '15', '143', '68', '141', '86', '134', '71', '105', '33', '98', '162', '176', '14', '139', '146', '77', '54', '39', '65', '47', '1', '16', '169'] 916.3806720640549
88 18.327613441281112 ['36', '31', '66', '154', '20', '15', '143', '68', '141', '86', '134', '71', '105', '33', '98', '162', '176', '14', '139', '146', '77', '54', '39', '65', '47', '1', '16', '169'] 916.3806720640549
89 18.327613441281112 ['36', '31', '66', '154', '20', '15', '143', '68', '141', '86', '134', '71', '105', '33', '98', '162', '176', '14', '139', '146', '77', '54', '39', '65', '47', '1', '16', '169'] 916.3806720640549
90 18.327613441281112 ['36', '31', '66', '154', '20', '15', '143', '68', '141', '86', '134', '71', '105', '33', '98', '162', '176', '14', '139', '146', '77', '54', '39', '65', '47', '1', '16', '169'] 916.3806720640549
91 18.327613441281112 ['36', '31', '66', '154', '20', '15', '143', '68', '141', '86', '134', '71', '105', '33', '98', '162', '176', '14', '139', '146', '77', '54', '39', '65', '47', '1', '16', '169'] 916.3806720640549
92 18.327613441281112 ['36', '31', '66', '154', '20', '15', '143', '68', '141', '86', '134', '71', '105', '33', '98', '162', '176', '14', '139', '146', '77', '54', '39', '65', '47', '1', '16', '169'] 916.3806720640549
93 18.327613441281112 ['36', '31', '66', '154', '20', '15', '143', '68', '141', '86', '134', '71', '105', '33', '98', '162', '176', '14', '139', '146', '77', '54', '39', '65', '47', '1', '16', '169'] 916.3806720640549
94 18.327613441281112 ['36', '31', '66', '154', '20', '15', '143', '68', '141', '86', '134', '71', '105', '33', '98', '162', '176', '14', '139', '146', '77', '54', '39', '65', '47', '1', '16', '169'] 916.3806720640549
95 18.327613441281112 ['36', '31', '66', '154', '20', '15', '143', '68', '141', '86', '134', '71', '105', '33', '98', '162', '176', '14', '139', '146', '77', '54', '39', '65', '47', '1', '16', '169'] 916.3806720640549
96 18.327613441281112 ['36', '31', '66', '154', '20', '15', '143', '68', '141', '86', '134', '71', '105', '33', '98', '162', '176', '14', '139', '146', '77', '54', '39', '65', '47', '1', '16', '169'] 916.3806720640549
97 18.327613441281112 ['36', '31', '66', '154', '20', '15', '143', '68', '141', '86', '134', '71', '105', '33', '98', '162', '176', '14', '139', '146', '77', '54', '39', '65', '47', '1', '16', '169'] 916.3806720640549
98 18.327613441281112 ['36', '31', '66', '154', '20', '15', '143', '68', '141', '86', '134', '71', '105', '33', '98', '162', '176', '14', '139', '146', '77', '54', '39', '65', '47', '1', '16', '169'] 916.3806720640549
99 18.327613441281112 ['36', '31', '66', '154', '20', '15', '143', '68', '141', '86', '134', '71', '105', '33', '98', '162', '176', '14', '139', '146', '77', '54', '39', '65', '47', '1', '16', '169'] 916.3806720640549
100 18.327613441281112 ['36', '31', '66', '154', '20', '15', '143', '68', '141', '86', '134', '71', '105', '33', '98', '162', '176', '14', '139', '146', '77', '54', '39', '65', '47', '1', '16', '169'] 916.3806720640549
101 18.327613441281112 ['36', '31', '66', '154', '20', '15', '143', '68', '141', '86', '134', '71', '105', '33', '98', '162', '176', '14', '139', '146', '77', '54', '39', '65', '47', '1', '16', '169'] 916.3806720640549
102 18.327613441281112 ['36', '31', '66', '154', '20', '15', '143', '68', '141', '86', '134', '71', '105', '33', '98', '162', '176', '14', '139', '146', '77', '54', '39', '65', '47', '1', '16', '169'] 916.3806720640549
103 18.327613441281112 ['36', '31', '66', '154', '20', '15', '143', '68', '141', '86', '134', '71', '105', '33', '98', '162', '176', '14', '139', '146', '77', '54', '39', '65', '47', '1', '16', '169'] 916.3806720640549
104 18.327613441281112 ['36', '31', '66', '154', '20', '15', '143', '68', '141', '86', '134', '71', '105', '33', '98', '162', '176', '14', '139', '146', '77', '54', '39', '65', '47', '1', '16', '169'] 916.3806720640549
105 18.327613441281112 ['36', '31', '66', '154', '20', '15', '143', '68', '141', '86', '134', '71', '105', '33', '98', '162', '176', '14', '139', '146', '77', '54', '39', '65', '47', '1', '16', '169'] 916.3806720640549
106 18.327613441281112 ['36', '31', '66', '154', '20', '15', '143', '68', '141', '86', '134', '71', '105', '33', '98', '162', '176', '14', '139', '146', '77', '54', '39', '65', '47', '1', '16', '169'] 916.3806720640549
107 18.327613441281112 ['36', '31', '66', '154', '20', '15', '143', '68', '141', '86', '134', '71', '105', '33', '98', '162', '176', '14', '139', '146', '77', '54', '39', '65', '47', '1', '16', '169'] 916.3806720640549
108 18.327613441281112 ['36', '31', '66', '154', '20', '15', '143', '68', '141', '86', '134', '71', '105', '33', '98', '162', '176', '14', '139', '146', '77', '54', '39', '65', '47', '1', '16', '169'] 916.3806720640549
109 18.327613441281112 ['36', '31', '66', '154', '20', '15', '143', '68', '141', '86', '134', '71', '105', '33', '98', '162', '176', '14', '139', '146', '77', '54', '39', '65', '47', '1', '16', '169'] 916.3806720640549
110 18.327613441281112 ['36', '31', '66', '154', '20', '15', '143', '68', '141', '86', '134', '71', '105', '33', '98', '162', '176', '14', '139', '146', '77', '54', '39', '65', '47', '1', '16', '169'] 916.3806720640549
111 18.327613441281112 ['36', '31', '66', '154', '20', '15', '143', '68', '141', '86', '134', '71', '105', '33', '98', '162', '176', '14', '139', '146', '77', '54', '39', '65', '47', '1', '16', '169'] 916.3806720640549
112 18.327613441281112 ['36', '31', '66', '154', '20', '15', '143', '68', '141', '86', '134', '71', '105', '33', '98', '162', '176', '14', '139', '146', '77', '54', '39', '65', '47', '1', '16', '169'] 916.3806720640549
113 18.327613441281112 ['36', '31', '66', '154', '20', '15', '143', '68', '141', '86', '134', '71', '105', '33', '98', '162', '176', '14', '139', '146', '77', '54', '39', '65', '47', '1', '16', '169'] 916.3806720640549
114 18.327613441281112 ['36', '31', '66', '154', '20', '15', '143', '68', '141', '86', '134', '71', '105', '33', '98', '162', '176', '14', '139', '146', '77', '54', '39', '65', '47', '1', '16', '169'] 916.3806720640549
115 18.327613441281112 ['36', '31', '66', '154', '20', '15', '143', '68', '141', '86', '134', '71', '105', '33', '98', '162', '176', '14', '139', '146', '77', '54', '39', '65', '47', '1', '16', '169'] 916.3806720640549
116 18.327613441281112 ['36', '31', '66', '154', '20', '15', '143', '68', '141', '86', '134', '71', '105', '33', '98', '162', '176', '14', '139', '146', '77', '54', '39', '65', '47', '1', '16', '169'] 916.3806720640549
117 18.327613441281112 ['36', '31', '66', '154', '20', '15', '143', '68', '141', '86', '134', '71', '105', '33', '98', '162', '176', '14', '139', '146', '77', '54', '39', '65', '47', '1', '16', '169'] 916.3806720640549
118 18.327613441281112 ['36', '31', '66', '154', '20', '15', '143', '68', '141', '86', '134', '71', '105', '33', '98', '162', '176', '14', '139', '146', '77', '54', '39', '65', '47', '1', '16', '169'] 916.3806720640549
119 18.327613441281112 ['36', '31', '66', '154', '20', '15', '143', '68', '141', '86', '134', '71', '105', '33', '98', '162', '176', '14', '139', '146', '77', '54', '39', '65', '47', '1', '16', '169'] 916.3806720640549
120 18.327613441281112 ['36', '31', '66', '154', '20', '15', '143', '68', '141', '86', '134', '71', '105', '33', '98', '162', '176', '14', '139', '146', '77', '54', '39', '65', '47', '1', '16', '169'] 916.3806720640549
121 18.327613441281112 ['36', '31', '66', '154', '20', '15', '143', '68', '141', '86', '134', '71', '105', '33', '98', '162', '176', '14', '139', '146', '77', '54', '39', '65', '47', '1', '16', '169'] 916.3806720640549
122 18.327613441281112 ['36', '31', '66', '154', '20', '15', '143', '68', '141', '86', '134', '71', '105', '33', '98', '162', '176', '14', '139', '146', '77', '54', '39', '65', '47', '1', '16', '169'] 916.3806720640549
123 18.327613441281112 ['36', '31', '66', '154', '20', '15', '143', '68', '141', '86', '134', '71', '105', '33', '98', '162', '176', '14', '139', '146', '77', '54', '39', '65', '47', '1', '16', '169'] 916.3806720640549
124 18.327613441281112 ['36', '31', '66', '154', '20', '15', '143', '68', '141', '86', '134', '71', '105', '33', '98', '162', '176', '14', '139', '146', '77', '54', '39', '65', '47', '1', '16', '169'] 916.3806720640549
125 18.327613441281112 ['36', '31', '66', '154', '20', '15', '143', '68', '141', '86', '134', '71', '105', '33', '98', '162', '176', '14', '139', '146', '77', '54', '39', '65', '47', '1', '16', '169'] 916.3806720640549
126 18.327613441281112 ['36', '31', '66', '154', '20', '15', '143', '68', '141', '86', '134', '71', '105', '33', '98', '162', '176', '14', '139', '146', '77', '54', '39', '65', '47', '1', '16', '169'] 916.3806720640549
127 18.327613441281112 ['36', '31', '66', '154', '20', '15', '143', '68', '141', '86', '134', '71', '105', '33', '98', '162', '176', '14', '139', '146', '77', '54', '39', '65', '47', '1', '16', '169'] 916.3806720640549
128 18.327613441281112 ['36', '31', '66', '154', '20', '15', '143', '68', '141', '86', '134', '71', '105', '33', '98', '162', '176', '14', '139', '146', '77', '54', '39', '65', '47', '1', '16', '169'] 916.3806720640549
129 18.327613441281112 ['36', '31', '66', '154', '20', '15', '143', '68', '141', '86', '134', '71', '105', '33', '98', '162', '176', '14', '139', '146', '77', '54', '39', '65', '47', '1', '16', '169'] 916.3806720640549
130 18.327613441281112 ['36', '31', '66', '154', '20', '15', '143', '68', '141', '86', '134', '71', '105', '33', '98', '162', '176', '14', '139', '146', '77', '54', '39', '65', '47', '1', '16', '169'] 916.3806720640549
131 18.327613441281112 ['36', '31', '66', '154', '20', '15', '143', '68', '141', '86', '134', '71', '105', '33', '98', '162', '176', '14', '139', '146', '77', '54', '39', '65', '47', '1', '16', '169'] 916.3806720640549
132 18.327613441281112 ['36', '31', '66', '154', '20', '15', '143', '68', '141', '86', '134', '71', '105', '33', '98', '162', '176', '14', '139', '146', '77', '54', '39', '65', '47', '1', '16', '169'] 916.3806720640549
133 18.327613441281112 ['36', '31', '66', '154', '20', '15', '143', '68', '141', '86', '134', '71', '105', '33', '98', '162', '176', '14', '139', '146', '77', '54', '39', '65', '47', '1', '16', '169'] 916.3806720640549
134 18.327613441281112 ['36', '31', '66', '154', '20', '15', '143', '68', '141', '86', '134', '71', '105', '33', '98', '162', '176', '14', '139', '146', '77', '54', '39', '65', '47', '1', '16', '169'] 916.3806720640549
135 18.327613441281112 ['36', '31', '66', '154', '20', '15', '143', '68', '141', '86', '134', '71', '105', '33', '98', '162', '176', '14', '139', '146', '77', '54', '39', '65', '47', '1', '16', '169'] 916.3806720640549
136 18.327613441281112 ['36', '31', '66', '154', '20', '15', '143', '68', '141', '86', '134', '71', '105', '33', '98', '162', '176', '14', '139', '146', '77', '54', '39', '65', '47', '1', '16', '169'] 916.3806720640549
137 18.327613441281112 ['36', '31', '66', '154', '20', '15', '143', '68', '141', '86', '134', '71', '105', '33', '98', '162', '176', '14', '139', '146', '77', '54', '39', '65', '47', '1', '16', '169'] 916.3806720640549
138 18.327613441281112 ['36', '31', '66', '154', '20', '15', '143', '68', '141', '86', '134', '71', '105', '33', '98', '162', '176', '14', '139', '146', '77', '54', '39', '65', '47', '1', '16', '169'] 916.3806720640549
139 18.327613441281112 ['36', '31', '66', '154', '20', '15', '143', '68', '141', '86', '134', '71', '105', '33', '98', '162', '176', '14', '139', '146', '77', '54', '39', '65', '47', '1', '16', '169'] 916.3806720640549
140 18.327613441281112 ['36', '31', '66', '154', '20', '15', '143', '68', '141', '86', '134', '71', '105', '33', '98', '162', '176', '14', '139', '146', '77', '54', '39', '65', '47', '1', '16', '169'] 916.3806720640549
141 18.327613441281112 ['36', '31', '66', '154', '20', '15', '143', '68', '141', '86', '134', '71', '105', '33', '98', '162', '176', '14', '139', '146', '77', '54', '39', '65', '47', '1', '16', '169'] 916.3806720640549
142 18.327613441281112 ['36', '31', '66', '154', '20', '15', '143', '68', '141', '86', '134', '71', '105', '33', '98', '162', '176', '14', '139', '146', '77', '54', '39', '65', '47', '1', '16', '169'] 916.3806720640549
143 18.327613441281112 ['36', '31', '66', '154', '20', '15', '143', '68', '141', '86', '134', '71', '105', '33', '98', '162', '176', '14', '139', '146', '77', '54', '39', '65', '47', '1', '16', '169'] 916.3806720640549
144 18.327613441281112 ['36', '31', '66', '154', '20', '15', '143', '68', '141', '86', '134', '71', '105', '33', '98', '162', '176', '14', '139', '146', '77', '54', '39', '65', '47', '1', '16', '169'] 916.3806720640549
145 18.327613441281112 ['36', '31', '66', '154', '20', '15', '143', '68', '141', '86', '134', '71', '105', '33', '98', '162', '176', '14', '139', '146', '77', '54', '39', '65', '47', '1', '16', '169'] 916.3806720640549
146 18.327613441281112 ['36', '31', '66', '154', '20', '15', '143', '68', '141', '86', '134', '71', '105', '33', '98', '162', '176', '14', '139', '146', '77', '54', '39', '65', '47', '1', '16', '169'] 916.3806720640549
147 18.327613441281112 ['36', '31', '66', '154', '20', '15', '143', '68', '141', '86', '134', '71', '105', '33', '98', '162', '176', '14', '139', '146', '77', '54', '39', '65', '47', '1', '16', '169'] 916.3806720640549
148 18.327613441281112 ['36', '31', '66', '154', '20', '15', '143', '68', '141', '86', '134', '71', '105', '33', '98', '162', '176', '14', '139', '146', '77', '54', '39', '65', '47', '1', '16', '169'] 916.3806720640549
149 18.327613441281112 ['36', '31', '66', '154', '20', '15', '143', '68', '141', '86', '134', '71', '105', '33', '98', '162', '176', '14', '139', '146', '77', '54', '39', '65', '47', '1', '16', '169'] 916.3806720640549
150 18.327613441281112 ['36', '31', '66', '154', '20', '15', '143', '68', '141', '86', '134', '71', '105', '33', '98', '162', '176', '14', '139', '146', '77', '54', '39', '65', '47', '1', '16', '169'] 916.3806720640549
151 18.327613441281112 ['36', '31', '66', '154', '20', '15', '143', '68', '141', '86', '134', '71', '105', '33', '98', '162', '176', '14', '139', '146', '77', '54', '39', '65', '47', '1', '16', '169'] 916.3806720640549
152 18.327613441281112 ['36', '31', '66', '154', '20', '15', '143', '68', '141', '86', '134', '71', '105', '33', '98', '162', '176', '14', '139', '146', '77', '54', '39', '65', '47', '1', '16', '169'] 916.3806720640549
153 18.327613441281112 ['36', '31', '66', '154', '20', '15', '143', '68', '141', '86', '134', '71', '105', '33', '98', '162', '176', '14', '139', '146', '77', '54', '39', '65', '47', '1', '16', '169'] 916.3806720640549
154 18.327613441281112 ['36', '31', '66', '154', '20', '15', '143', '68', '141', '86', '134', '71', '105', '33', '98', '162', '176', '14', '139', '146', '77', '54', '39', '65', '47', '1', '16', '169'] 916.3806720640549
155 18.327613441281112 ['36', '31', '66', '154', '20', '15', '143', '68', '141', '86', '134', '71', '105', '33', '98', '162', '176', '14', '139', '146', '77', '54', '39', '65', '47', '1', '16', '169'] 916.3806720640549
156 18.327613441281112 ['36', '31', '66', '154', '20', '15', '143', '68', '141', '86', '134', '71', '105', '33', '98', '162', '176', '14', '139', '146', '77', '54', '39', '65', '47', '1', '16', '169'] 916.3806720640549
157 18.327613441281112 ['36', '31', '66', '154', '20', '15', '143', '68', '141', '86', '134', '71', '105', '33', '98', '162', '176', '14', '139', '146', '77', '54', '39', '65', '47', '1', '16', '169'] 916.3806720640549
158 18.327613441281112 ['36', '31', '66', '154', '20', '15', '143', '68', '141', '86', '134', '71', '105', '33', '98', '162', '176', '14', '139', '146', '77', '54', '39', '65', '47', '1', '16', '169'] 916.3806720640549
159 18.327613441281112 ['36', '31', '66', '154', '20', '15', '143', '68', '141', '86', '134', '71', '105', '33', '98', '162', '176', '14', '139', '146', '77', '54', '39', '65', '47', '1', '16', '169'] 916.3806720640549
160 18.327613441281112 ['36', '31', '66', '154', '20', '15', '143', '68', '141', '86', '134', '71', '105', '33', '98', '162', '176', '14', '139', '146', '77', '54', '39', '65', '47', '1', '16', '169'] 916.3806720640549
161 18.327613441281112 ['36', '31', '66', '154', '20', '15', '143', '68', '141', '86', '134', '71', '105', '33', '98', '162', '176', '14', '139', '146', '77', '54', '39', '65', '47', '1', '16', '169'] 916.3806720640549
162 18.327613441281112 ['36', '31', '66', '154', '20', '15', '143', '68', '141', '86', '134', '71', '105', '33', '98', '162', '176', '14', '139', '146', '77', '54', '39', '65', '47', '1', '16', '169'] 916.3806720640549
163 18.327613441281112 ['36', '31', '66', '154', '20', '15', '143', '68', '141', '86', '134', '71', '105', '33', '98', '162', '176', '14', '139', '146', '77', '54', '39', '65', '47', '1', '16', '169'] 916.3806720640549
164 18.327613441281112 ['36', '31', '66', '154', '20', '15', '143', '68', '141', '86', '134', '71', '105', '33', '98', '162', '176', '14', '139', '146', '77', '54', '39', '65', '47', '1', '16', '169'] 916.3806720640549
165 18.327613441281112 ['36', '31', '66', '154', '20', '15', '143', '68', '141', '86', '134', '71', '105', '33', '98', '162', '176', '14', '139', '146', '77', '54', '39', '65', '47', '1', '16', '169'] 916.3806720640549
166 18.327613441281112 ['36', '31', '66', '154', '20', '15', '143', '68', '141', '86', '134', '71', '105', '33', '98', '162', '176', '14', '139', '146', '77', '54', '39', '65', '47', '1', '16', '169'] 916.3806720640549
167 18.327613441281112 ['36', '31', '66', '154', '20', '15', '143', '68', '141', '86', '134', '71', '105', '33', '98', '162', '176', '14', '139', '146', '77', '54', '39', '65', '47', '1', '16', '169'] 916.3806720640549
168 18.327613441281112 ['36', '31', '66', '154', '20', '15', '143', '68', '141', '86', '134', '71', '105', '33', '98', '162', '176', '14', '139', '146', '77', '54', '39', '65', '47', '1', '16', '169'] 916.3806720640549
169 18.327613441281112 ['36', '31', '66', '154', '20', '15', '143', '68', '141', '86', '134', '71', '105', '33', '98', '162', '176', '14', '139', '146', '77', '54', '39', '65', '47', '1', '16', '169'] 916.3806720640549
170 18.327613441281112 ['36', '31', '66', '154', '20', '15', '143', '68', '141', '86', '134', '71', '105', '33', '98', '162', '176', '14', '139', '146', '77', '54', '39', '65', '47', '1', '16', '169'] 916.3806720640549
171 18.327613441281112 ['36', '31', '66', '154', '20', '15', '143', '68', '141', '86', '134', '71', '105', '33', '98', '162', '176', '14', '139', '146', '77', '54', '39', '65', '47', '1', '16', '169'] 916.3806720640549
172 18.327613441281112 ['36', '31', '66', '154', '20', '15', '143', '68', '141', '86', '134', '71', '105', '33', '98', '162', '176', '14', '139', '146', '77', '54', '39', '65', '47', '1', '16', '169'] 916.3806720640549
173 18.327613441281112 ['36', '31', '66', '154', '20', '15', '143', '68', '141', '86', '134', '71', '105', '33', '98', '162', '176', '14', '139', '146', '77', '54', '39', '65', '47', '1', '16', '169'] 916.3806720640549
174 18.327613441281112 ['36', '31', '66', '154', '20', '15', '143', '68', '141', '86', '134', '71', '105', '33', '98', '162', '176', '14', '139', '146', '77', '54', '39', '65', '47', '1', '16', '169'] 916.3806720640549
175 18.327613441281112 ['36', '31', '66', '154', '20', '15', '143', '68', '141', '86', '134', '71', '105', '33', '98', '162', '176', '14', '139', '146', '77', '54', '39', '65', '47', '1', '16', '169'] 916.3806720640549
176 18.327613441281112 ['36', '31', '66', '154', '20', '15', '143', '68', '141', '86', '134', '71', '105', '33', '98', '162', '176', '14', '139', '146', '77', '54', '39', '65', '47', '1', '16', '169'] 916.3806720640549
177 18.327613441281112 ['36', '31', '66', '154', '20', '15', '143', '68', '141', '86', '134', '71', '105', '33', '98', '162', '176', '14', '139', '146', '77', '54', '39', '65', '47', '1', '16', '169'] 916.3806720640549
178 18.327613441281112 ['36', '31', '66', '154', '20', '15', '143', '68', '141', '86', '134', '71', '105', '33', '98', '162', '176', '14', '139', '146', '77', '54', '39', '65', '47', '1', '16', '169'] 916.3806720640549
179 18.327613441281112 ['36', '31', '66', '154', '20', '15', '143', '68', '141', '86', '134', '71', '105', '33', '98', '162', '176', '14', '139', '146', '77', '54', '39', '65', '47', '1', '16', '169'] 916.3806720640549
180 18.327613441281112 ['36', '31', '66', '154', '20', '15', '143', '68', '141', '86', '134', '71', '105', '33', '98', '162', '176', '14', '139', '146', '77', '54', '39', '65', '47', '1', '16', '169'] 916.3806720640549
181 18.327613441281112 ['36', '31', '66', '154', '20', '15', '143', '68', '141', '86', '134', '71', '105', '33', '98', '162', '176', '14', '139', '146', '77', '54', '39', '65', '47', '1', '16', '169'] 916.3806720640549
182 18.327613441281112 ['36', '31', '66', '154', '20', '15', '143', '68', '141', '86', '134', '71', '105', '33', '98', '162', '176', '14', '139', '146', '77', '54', '39', '65', '47', '1', '16', '169'] 916.3806720640549
183 18.327613441281112 ['36', '31', '66', '154', '20', '15', '143', '68', '141', '86', '134', '71', '105', '33', '98', '162', '176', '14', '139', '146', '77', '54', '39', '65', '47', '1', '16', '169'] 916.3806720640549
184 18.327613441281112 ['36', '31', '66', '154', '20', '15', '143', '68', '141', '86', '134', '71', '105', '33', '98', '162', '176', '14', '139', '146', '77', '54', '39', '65', '47', '1', '16', '169'] 916.3806720640549
185 18.327613441281112 ['36', '31', '66', '154', '20', '15', '143', '68', '141', '86', '134', '71', '105', '33', '98', '162', '176', '14', '139', '146', '77', '54', '39', '65', '47', '1', '16', '169'] 916.3806720640549
186 18.327613441281112 ['36', '31', '66', '154', '20', '15', '143', '68', '141', '86', '134', '71', '105', '33', '98', '162', '176', '14', '139', '146', '77', '54', '39', '65', '47', '1', '16', '169'] 916.3806720640549
187 18.327613441281112 ['36', '31', '66', '154', '20', '15', '143', '68', '141', '86', '134', '71', '105', '33', '98', '162', '176', '14', '139', '146', '77', '54', '39', '65', '47', '1', '16', '169'] 916.3806720640549
188 18.327613441281112 ['36', '31', '66', '154', '20', '15', '143', '68', '141', '86', '134', '71', '105', '33', '98', '162', '176', '14', '139', '146', '77', '54', '39', '65', '47', '1', '16', '169'] 916.3806720640549
189 18.327613441281112 ['36', '31', '66', '154', '20', '15', '143', '68', '141', '86', '134', '71', '105', '33', '98', '162', '176', '14', '139', '146', '77', '54', '39', '65', '47', '1', '16', '169'] 916.3806720640549
190 18.327613441281112 ['36', '31', '66', '154', '20', '15', '143', '68', '141', '86', '134', '71', '105', '33', '98', '162', '176', '14', '139', '146', '77', '54', '39', '65', '47', '1', '16', '169'] 916.3806720640549
191 18.327613441281112 ['36', '31', '66', '154', '20', '15', '143', '68', '141', '86', '134', '71', '105', '33', '98', '162', '176', '14', '139', '146', '77', '54', '39', '65', '47', '1', '16', '169'] 916.3806720640549
192 18.327613441281112 ['36', '31', '66', '154', '20', '15', '143', '68', '141', '86', '134', '71', '105', '33', '98', '162', '176', '14', '139', '146', '77', '54', '39', '65', '47', '1', '16', '169'] 916.3806720640549
193 18.327613441281112 ['36', '31', '66', '154', '20', '15', '143', '68', '141', '86', '134', '71', '105', '33', '98', '162', '176', '14', '139', '146', '77', '54', '39', '65', '47', '1', '16', '169'] 916.3806720640549
194 18.327613441281112 ['36', '31', '66', '154', '20', '15', '143', '68', '141', '86', '134', '71', '105', '33', '98', '162', '176', '14', '139', '146', '77', '54', '39', '65', '47', '1', '16', '169'] 916.3806720640549
195 18.327613441281112 ['36', '31', '66', '154', '20', '15', '143', '68', '141', '86', '134', '71', '105', '33', '98', '162', '176', '14', '139', '146', '77', '54', '39', '65', '47', '1', '16', '169'] 916.3806720640549
196 18.327613441281112 ['36', '31', '66', '154', '20', '15', '143', '68', '141', '86', '134', '71', '105', '33', '98', '162', '176', '14', '139', '146', '77', '54', '39', '65', '47', '1', '16', '169'] 916.3806720640549
197 18.327613441281112 ['36', '31', '66', '154', '20', '15', '143', '68', '141', '86', '134', '71', '105', '33', '98', '162', '176', '14', '139', '146', '77', '54', '39', '65', '47', '1', '16', '169'] 916.3806720640549
198 18.327613441281112 ['36', '31', '66', '154', '20', '15', '143', '68', '141', '86', '134', '71', '105', '33', '98', '162', '176', '14', '139', '146', '77', '54', '39', '65', '47', '1', '16', '169'] 916.3806720640549
199 18.327613441281112 ['36', '31', '66', '154', '20', '15', '143', '68', '141', '86', '134', '71', '105', '33', '98', '162', '176', '14', '139', '146', '77', '54', '39', '65', '47', '1', '16', '169'] 916.3806720640549
