0 315.90944881889766 ['16', '260', '201', '79', '199', '223', '140', '109', '112', '176', '232', '100', '66', '33', '248', '36', '103', '150', '209', '46', '70', '111', '26', '191', '53', '179', '19', '227'] 16778.98031496063
1 315.1377952755906 ['106', '23', '16', '109', '56', '232', '50', '35', '249', '248', '224', '30', '154', '71', '221', '34', '66', '79', '207', '270', '37', '149', '32', '280', '198', '98', '186', '14'] 16435.291338582676
2 305.45669291338584 ['280', '79', '71', '231', '23', '103', '105', '248', '186', '238', '65', '106', '224', '217', '249', '66', '27', '14', '34', '110', '30', '18', '98', '37', '2', '35', '56', '87'] 16148.582677165356
3 303.59055118110234 ['106', '27', '186', '37', '235', '56', '202', '18', '34', '103', '4', '8', '200', '134', '17', '14', '35', '22', '45', '87', '212', '80', '65', '245', '98', '129', '7', '5'] 15875.826771653543
4 298.9133858267717 ['134', '35', '106', '98', '18', '80', '68', '224', '183', '109', '103', '87', '62', '45', '27', '5', '56', '34', '136', '16', '202', '17', '186', '164', '4', '212', '7', '245'] 15627.724409448818
5 293.3897637795276 ['50', '98', '28', '35', '108', '154', '16', '149', '10', '14', '75', '111', '68', '36', '19', '153', '199', '116', '114', '258', '38', '255', '162', '180', '11', '159', '30', '18'] 15366.70078740157
6 293.3897637795276 ['50', '98', '28', '35', '108', '154', '16', '149', '10', '14', '75', '111', '68', '36', '19', '153', '199', '116', '114', '258', '38', '255', '162', '180', '11', '159', '30', '18'] 15123.799212598424
7 290.0275590551181 ['16', '98', '36', '159', '149', '162', '14', '108', '111', '116', '35', '1', '58', '112', '11', '258', '30', '103', '154', '212', '28', '18', '198', '80', '17', '75', '199', '68'] 14933.582677165354
8 290.0275590551181 ['16', '98', '36', '159', '149', '162', '14', '108', '111', '116', '35', '1', '58', '112', '11', '258', '30', '103', '154', '212', '28', '18', '198', '80', '17', '75', '199', '68'] 14771.476377952758
9 285.12992125984255 ['245', '105', '5', '21', '249', '146', '18', '162', '141', '98', '202', '159', '1', '205', '231', '224', '179', '14', '153', '90', '112', '207', '134', '204', '175', '77', '181', '52'] 14629.200787401576
10 283.2992125984252 ['77', '30', '106', '18', '98', '162', '249', '14', '56', '1', '202', '8', '38', '192', '184', '36', '159', '19', '245', '212', '149', '153', '136', '181', '21', '103', '10', '141'] 14508.606299212595
11 274.12598425196853 ['87', '202', '177', '98', '245', '162', '116', '164', '106', '18', '16', '68', '249', '62', '146', '153', '45', '5', '105', '56', '14', '1', '54', '77', '80', '2', '30', '65'] 14331.30708661417
12 271.5236220472441 ['105', '164', '18', '98', '30', '80', '162', '1', '5', '16', '68', '35', '77', '149', '146', '154', '11', '28', '65', '153', '106', '198', '45', '143', '62', '87', '200', '76'] 14171.165354330711
13 270.93307086614175 ['30', '164', '87', '1', '68', '153', '16', '105', '45', '106', '146', '77', '65', '5', '18', '80', '98', '162', '62', '245', '149', '56', '28', '154', '54', '14', '11', '2'] 14001.629921259844
14 265.8897637795276 ['80', '30', '1', '153', '5', '202', '162', '249', '18', '98', '106', '77', '10', '224', '36', '200', '103', '146', '212', '14', '105', '141', '164', '71', '114', '47', '177', '112'] 13807.771653543312
15 262.61417322834643 ['68', '153', '98', '249', '164', '18', '202', '162', '62', '80', '106', '5', '30', '1', '52', '105', '146', '14', '28', '112', '65', '114', '77', '154', '27', '143', '35', '186'] 13646.102362204729
16 262.61417322834643 ['68', '153', '98', '249', '164', '18', '202', '162', '62', '80', '106', '5', '30', '1', '52', '105', '146', '14', '28', '112', '65', '114', '77', '154', '27', '143', '35', '186'] 13531.066929133856
17 262.61417322834643 ['68', '153', '98', '249', '164', '18', '202', '162', '62', '80', '106', '5', '30', '1', '52', '105', '146', '14', '28', '112', '65', '114', '77', '154', '27', '143', '35', '186'] 13419.803149606301
18 261.59842519685037 ['164', '30', '14', '112', '103', '105', '1', '162', '202', '98', '5', '18', '77', '153', '80', '106', '36', '56', '45', '200', '146', '186', '199', '179', '149', '68', '175', '134'] 13307.224409448823
19 260.1692913385827 ['106', '14', '164', '146', '30', '80', '5', '162', '153', '136', '112', '36', '143', '1', '249', '18', '98', '65', '105', '200', '154', '179', '77', '202', '28', '175', '177', '71'] 13212.334645669287
20 259.9488188976378 ['112', '1', '164', '106', '36', '18', '77', '146', '71', '65', '153', '14', '98', '30', '245', '162', '28', '5', '143', '10', '52', '212', '46', '105', '134', '186', '80', '179'] 13123.732283464566
21 255.18503937007873 ['153', '162', '141', '77', '1', '5', '98', '80', '30', '112', '14', '36', '143', '18', '146', '106', '198', '65', '164', '134', '105', '200', '62', '27', '159', '21', '71', '68'] 13031.685039370077
22 255.18503937007873 ['153', '162', '141', '77', '1', '5', '98', '80', '30', '112', '14', '36', '143', '18', '146', '106', '198', '65', '164', '134', '105', '200', '62', '27', '159', '21', '71', '68'] 12965.590551181103
23 253.43700787401573 ['146', '98', '105', '141', '77', '153', '36', '68', '106', '30', '5', '103', '162', '14', '80', '1', '154', '18', '112', '159', '56', '47', '164', '45', '16', '65', '175', '52'] 12909.44881889764
24 253.43700787401573 ['146', '98', '105', '141', '77', '153', '36', '68', '106', '30', '5', '103', '162', '14', '80', '1', '154', '18', '112', '159', '56', '47', '164', '45', '16', '65', '175', '52'] 12829.877952755902
25 252.61417322834646 ['162', '146', '153', '36', '141', '159', '80', '1', '14', '65', '98', '77', '106', '105', '5', '68', '30', '18', '45', '112', '47', '56', '16', '114', '52', '164', '154', '143'] 12772.633858267716
26 252.25590551181102 ['146', '153', '65', '164', '98', '68', '80', '14', '35', '141', '30', '36', '5', '112', '71', '18', '77', '143', '1', '106', '162', '175', '105', '134', '159', '179', '154', '16'] 12727.795275590548
27 251.27165354330708 ['18', '5', '141', '36', '1', '105', '162', '65', '164', '80', '153', '30', '106', '112', '98', '154', '14', '146', '68', '77', '134', '159', '179', '56', '16', '143', '200', '45'] 12685.34251968504
28 251.27165354330708 ['18', '5', '141', '36', '1', '105', '162', '65', '164', '80', '153', '30', '106', '112', '98', '154', '14', '146', '68', '77', '134', '159', '179', '56', '16', '143', '200', '45'] 12646.007874015748
29 250.748031496063 ['141', '47', '164', '154', '106', '5', '30', '1', '153', '36', '18', '80', '65', '77', '105', '52', '146', '98', '112', '14', '134', '162', '56', '45', '143', '68', '179', '159'] 12615.893700787405
30 250.37007874015748 ['98', '68', '146', '153', '143', '18', '77', '162', '141', '65', '80', '105', '36', '14', '5', '134', '106', '112', '52', '164', '1', '30', '154', '16', '45', '71', '56', '10'] 12578.665354330707
31 249.5551181102362 ['146', '36', '141', '153', '77', '5', '65', '112', '105', '106', '62', '71', '68', '1', '30', '45', '164', '175', '154', '98', '143', '18', '80', '14', '162', '134', '47', '56'] 12546.35039370079
32 249.27165354330708 ['141', '143', '1', '56', '80', '14', '105', '52', '134', '18', '112', '98', '77', '5', '30', '146', '68', '65', '36', '162', '106', '45', '153', '16', '179', '154', '71', '62'] 12517.401574803154
33 249.27165354330708 ['141', '143', '1', '56', '80', '14', '105', '52', '134', '18', '112', '98', '77', '5', '30', '146', '68', '65', '36', '162', '106', '45', '153', '16', '179', '154', '71', '62'] 12503.700787401574
34 249.27165354330708 ['141', '143', '1', '56', '80', '14', '105', '52', '134', '18', '112', '98', '77', '5', '30', '146', '68', '65', '36', '162', '106', '45', '153', '16', '179', '154', '71', '62'] 12492.767716535434
35 249.16535433070865 ['162', '16', '106', '45', '77', '68', '134', '14', '112', '56', '65', '62', '143', '18', '98', '71', '80', '1', '105', '36', '141', '146', '5', '154', '153', '30', '159', '52'] 12482.775590551182
36 249.16535433070865 ['162', '16', '106', '45', '77', '68', '134', '14', '112', '56', '65', '62', '143', '18', '98', '71', '80', '1', '105', '36', '141', '146', '5', '154', '153', '30', '159', '52'] 12474.700787401574
37 249.08267716535434 ['62', '134', '106', '18', '65', '5', '112', '143', '80', '77', '1', '146', '105', '154', '14', '71', '56', '36', '45', '141', '162', '68', '30', '153', '98', '175', '16', '52'] 12464.649606299221
38 249.08267716535434 ['62', '134', '106', '18', '65', '5', '112', '143', '80', '77', '1', '146', '105', '154', '14', '71', '56', '36', '45', '141', '162', '68', '30', '153', '98', '175', '16', '52'] 12459.440944881886
39 249.08267716535434 ['62', '134', '106', '18', '65', '5', '112', '143', '80', '77', '1', '146', '105', '154', '14', '71', '56', '36', '45', '141', '162', '68', '30', '153', '98', '175', '16', '52'] 12456.755905511813
40 249.08267716535434 ['62', '134', '106', '18', '65', '5', '112', '143', '80', '77', '1', '146', '105', '154', '14', '71', '56', '36', '45', '141', '162', '68', '30', '153', '98', '175', '16', '52'] 12454.724409448836
41 249.08267716535434 ['62', '134', '106', '18', '65', '5', '112', '143', '80', '77', '1', '146', '105', '154', '14', '71', '56', '36', '45', '141', '162', '68', '30', '153', '98', '175', '16', '52'] 12454.13385826771
42 249.08267716535434 ['62', '134', '106', '18', '65', '5', '112', '143', '80', '77', '1', '146', '105', '154', '14', '71', '56', '36', '45', '141', '162', '68', '30', '153', '98', '175', '16', '52'] 12454.13385826771
43 249.08267716535434 ['62', '134', '106', '18', '65', '5', '112', '143', '80', '77', '1', '146', '105', '154', '14', '71', '56', '36', '45', '141', '162', '68', '30', '153', '98', '175', '16', '52'] 12454.13385826771
44 249.08267716535434 ['62', '134', '106', '18', '65', '5', '112', '143', '80', '77', '1', '146', '105', '154', '14', '71', '56', '36', '45', '141', '162', '68', '30', '153', '98', '175', '16', '52'] 12454.13385826771
45 249.08267716535434 ['62', '134', '106', '18', '65', '5', '112', '143', '80', '77', '1', '146', '105', '154', '14', '71', '56', '36', '45', '141', '162', '68', '30', '153', '98', '175', '16', '52'] 12454.13385826771
46 249.08267716535434 ['62', '134', '106', '18', '65', '5', '112', '143', '80', '77', '1', '146', '105', '154', '14', '71', '56', '36', '45', '141', '162', '68', '30', '153', '98', '175', '16', '52'] 12454.13385826771
47 249.08267716535434 ['62', '134', '106', '18', '65', '5', '112', '143', '80', '77', '1', '146', '105', '154', '14', '71', '56', '36', '45', '141', '162', '68', '30', '153', '98', '175', '16', '52'] 12454.13385826771
48 249.08267716535434 ['62', '134', '106', '18', '65', '5', '112', '143', '80', '77', '1', '146', '105', '154', '14', '71', '56', '36', '45', '141', '162', '68', '30', '153', '98', '175', '16', '52'] 12454.13385826771
49 249.08267716535434 ['62', '134', '106', '18', '65', '5', '112', '143', '80', '77', '1', '146', '105', '154', '14', '71', '56', '36', '45', '141', '162', '68', '30', '153', '98', '175', '16', '52'] 12454.13385826771
50 249.08267716535434 ['62', '134', '106', '18', '65', '5', '112', '143', '80', '77', '1', '146', '105', '154', '14', '71', '56', '36', '45', '141', '162', '68', '30', '153', '98', '175', '16', '52'] 12454.13385826771
51 249.08267716535434 ['62', '134', '106', '18', '65', '5', '112', '143', '80', '77', '1', '146', '105', '154', '14', '71', '56', '36', '45', '141', '162', '68', '30', '153', '98', '175', '16', '52'] 12454.13385826771
52 249.08267716535434 ['62', '134', '106', '18', '65', '5', '112', '143', '80', '77', '1', '146', '105', '154', '14', '71', '56', '36', '45', '141', '162', '68', '30', '153', '98', '175', '16', '52'] 12454.13385826771
53 249.08267716535434 ['62', '134', '106', '18', '65', '5', '112', '143', '80', '77', '1', '146', '105', '154', '14', '71', '56', '36', '45', '141', '162', '68', '30', '153', '98', '175', '16', '52'] 12454.13385826771
54 249.08267716535434 ['62', '134', '106', '18', '65', '5', '112', '143', '80', '77', '1', '146', '105', '154', '14', '71', '56', '36', '45', '141', '162', '68', '30', '153', '98', '175', '16', '52'] 12454.13385826771
55 249.08267716535434 ['62', '134', '106', '18', '65', '5', '112', '143', '80', '77', '1', '146', '105', '154', '14', '71', '56', '36', '45', '141', '162', '68', '30', '153', '98', '175', '16', '52'] 12454.13385826771
56 249.08267716535434 ['62', '134', '106', '18', '65', '5', '112', '143', '80', '77', '1', '146', '105', '154', '14', '71', '56', '36', '45', '141', '162', '68', '30', '153', '98', '175', '16', '52'] 12454.13385826771
57 249.08267716535434 ['62', '134', '106', '18', '65', '5', '112', '143', '80', '77', '1', '146', '105', '154', '14', '71', '56', '36', '45', '141', '162', '68', '30', '153', '98', '175', '16', '52'] 12454.13385826771
58 249.08267716535434 ['62', '134', '106', '18', '65', '5', '112', '143', '80', '77', '1', '146', '105', '154', '14', '71', '56', '36', '45', '141', '162', '68', '30', '153', '98', '175', '16', '52'] 12454.13385826771
59 249.08267716535434 ['62', '134', '106', '18', '65', '5', '112', '143', '80', '77', '1', '146', '105', '154', '14', '71', '56', '36', '45', '141', '162', '68', '30', '153', '98', '175', '16', '52'] 12454.13385826771
60 249.08267716535434 ['62', '134', '106', '18', '65', '5', '112', '143', '80', '77', '1', '146', '105', '154', '14', '71', '56', '36', '45', '141', '162', '68', '30', '153', '98', '175', '16', '52'] 12454.13385826771
61 249.08267716535434 ['62', '134', '106', '18', '65', '5', '112', '143', '80', '77', '1', '146', '105', '154', '14', '71', '56', '36', '45', '141', '162', '68', '30', '153', '98', '175', '16', '52'] 12454.13385826771
62 249.08267716535434 ['62', '134', '106', '18', '65', '5', '112', '143', '80', '77', '1', '146', '105', '154', '14', '71', '56', '36', '45', '141', '162', '68', '30', '153', '98', '175', '16', '52'] 12454.13385826771
63 249.08267716535434 ['62', '134', '106', '18', '65', '5', '112', '143', '80', '77', '1', '146', '105', '154', '14', '71', '56', '36', '45', '141', '162', '68', '30', '153', '98', '175', '16', '52'] 12454.13385826771
64 249.08267716535434 ['62', '134', '106', '18', '65', '5', '112', '143', '80', '77', '1', '146', '105', '154', '14', '71', '56', '36', '45', '141', '162', '68', '30', '153', '98', '175', '16', '52'] 12454.13385826771
65 249.08267716535434 ['62', '134', '106', '18', '65', '5', '112', '143', '80', '77', '1', '146', '105', '154', '14', '71', '56', '36', '45', '141', '162', '68', '30', '153', '98', '175', '16', '52'] 12454.13385826771
66 249.08267716535434 ['62', '134', '106', '18', '65', '5', '112', '143', '80', '77', '1', '146', '105', '154', '14', '71', '56', '36', '45', '141', '162', '68', '30', '153', '98', '175', '16', '52'] 12454.13385826771
67 249.08267716535434 ['62', '134', '106', '18', '65', '5', '112', '143', '80', '77', '1', '146', '105', '154', '14', '71', '56', '36', '45', '141', '162', '68', '30', '153', '98', '175', '16', '52'] 12454.13385826771
68 249.08267716535434 ['62', '134', '106', '18', '65', '5', '112', '143', '80', '77', '1', '146', '105', '154', '14', '71', '56', '36', '45', '141', '162', '68', '30', '153', '98', '175', '16', '52'] 12454.13385826771
69 249.08267716535434 ['62', '134', '106', '18', '65', '5', '112', '143', '80', '77', '1', '146', '105', '154', '14', '71', '56', '36', '45', '141', '162', '68', '30', '153', '98', '175', '16', '52'] 12454.13385826771
70 249.08267716535434 ['62', '134', '106', '18', '65', '5', '112', '143', '80', '77', '1', '146', '105', '154', '14', '71', '56', '36', '45', '141', '162', '68', '30', '153', '98', '175', '16', '52'] 12454.13385826771
71 249.08267716535434 ['62', '134', '106', '18', '65', '5', '112', '143', '80', '77', '1', '146', '105', '154', '14', '71', '56', '36', '45', '141', '162', '68', '30', '153', '98', '175', '16', '52'] 12454.13385826771
72 249.08267716535434 ['62', '134', '106', '18', '65', '5', '112', '143', '80', '77', '1', '146', '105', '154', '14', '71', '56', '36', '45', '141', '162', '68', '30', '153', '98', '175', '16', '52'] 12454.13385826771
73 249.08267716535434 ['62', '134', '106', '18', '65', '5', '112', '143', '80', '77', '1', '146', '105', '154', '14', '71', '56', '36', '45', '141', '162', '68', '30', '153', '98', '175', '16', '52'] 12454.13385826771
74 249.08267716535434 ['62', '134', '106', '18', '65', '5', '112', '143', '80', '77', '1', '146', '105', '154', '14', '71', '56', '36', '45', '141', '162', '68', '30', '153', '98', '175', '16', '52'] 12454.13385826771
75 249.08267716535434 ['62', '134', '106', '18', '65', '5', '112', '143', '80', '77', '1', '146', '105', '154', '14', '71', '56', '36', '45', '141', '162', '68', '30', '153', '98', '175', '16', '52'] 12454.13385826771
76 249.08267716535434 ['62', '134', '106', '18', '65', '5', '112', '143', '80', '77', '1', '146', '105', '154', '14', '71', '56', '36', '45', '141', '162', '68', '30', '153', '98', '175', '16', '52'] 12454.13385826771
77 249.08267716535434 ['62', '134', '106', '18', '65', '5', '112', '143', '80', '77', '1', '146', '105', '154', '14', '71', '56', '36', '45', '141', '162', '68', '30', '153', '98', '175', '16', '52'] 12454.13385826771
78 249.08267716535434 ['62', '134', '106', '18', '65', '5', '112', '143', '80', '77', '1', '146', '105', '154', '14', '71', '56', '36', '45', '141', '162', '68', '30', '153', '98', '175', '16', '52'] 12454.13385826771
79 249.08267716535434 ['62', '134', '106', '18', '65', '5', '112', '143', '80', '77', '1', '146', '105', '154', '14', '71', '56', '36', '45', '141', '162', '68', '30', '153', '98', '175', '16', '52'] 12454.13385826771
80 249.08267716535434 ['62', '134', '106', '18', '65', '5', '112', '143', '80', '77', '1', '146', '105', '154', '14', '71', '56', '36', '45', '141', '162', '68', '30', '153', '98', '175', '16', '52'] 12454.13385826771
81 249.08267716535434 ['62', '134', '106', '18', '65', '5', '112', '143', '80', '77', '1', '146', '105', '154', '14', '71', '56', '36', '45', '141', '162', '68', '30', '153', '98', '175', '16', '52'] 12454.13385826771
82 249.08267716535434 ['62', '134', '106', '18', '65', '5', '112', '143', '80', '77', '1', '146', '105', '154', '14', '71', '56', '36', '45', '141', '162', '68', '30', '153', '98', '175', '16', '52'] 12454.13385826771
83 249.08267716535434 ['62', '134', '106', '18', '65', '5', '112', '143', '80', '77', '1', '146', '105', '154', '14', '71', '56', '36', '45', '141', '162', '68', '30', '153', '98', '175', '16', '52'] 12454.13385826771
84 249.08267716535434 ['62', '134', '106', '18', '65', '5', '112', '143', '80', '77', '1', '146', '105', '154', '14', '71', '56', '36', '45', '141', '162', '68', '30', '153', '98', '175', '16', '52'] 12454.13385826771
85 249.08267716535434 ['62', '134', '106', '18', '65', '5', '112', '143', '80', '77', '1', '146', '105', '154', '14', '71', '56', '36', '45', '141', '162', '68', '30', '153', '98', '175', '16', '52'] 12454.13385826771
86 249.08267716535434 ['62', '134', '106', '18', '65', '5', '112', '143', '80', '77', '1', '146', '105', '154', '14', '71', '56', '36', '45', '141', '162', '68', '30', '153', '98', '175', '16', '52'] 12454.13385826771
87 249.08267716535434 ['62', '134', '106', '18', '65', '5', '112', '143', '80', '77', '1', '146', '105', '154', '14', '71', '56', '36', '45', '141', '162', '68', '30', '153', '98', '175', '16', '52'] 12454.13385826771
88 249.08267716535434 ['62', '134', '106', '18', '65', '5', '112', '143', '80', '77', '1', '146', '105', '154', '14', '71', '56', '36', '45', '141', '162', '68', '30', '153', '98', '175', '16', '52'] 12454.13385826771
89 249.08267716535434 ['62', '134', '106', '18', '65', '5', '112', '143', '80', '77', '1', '146', '105', '154', '14', '71', '56', '36', '45', '141', '162', '68', '30', '153', '98', '175', '16', '52'] 12454.13385826771
90 249.08267716535434 ['62', '134', '106', '18', '65', '5', '112', '143', '80', '77', '1', '146', '105', '154', '14', '71', '56', '36', '45', '141', '162', '68', '30', '153', '98', '175', '16', '52'] 12454.13385826771
91 249.08267716535434 ['62', '134', '106', '18', '65', '5', '112', '143', '80', '77', '1', '146', '105', '154', '14', '71', '56', '36', '45', '141', '162', '68', '30', '153', '98', '175', '16', '52'] 12454.13385826771
92 249.08267716535434 ['62', '134', '106', '18', '65', '5', '112', '143', '80', '77', '1', '146', '105', '154', '14', '71', '56', '36', '45', '141', '162', '68', '30', '153', '98', '175', '16', '52'] 12454.13385826771
93 249.08267716535434 ['62', '134', '106', '18', '65', '5', '112', '143', '80', '77', '1', '146', '105', '154', '14', '71', '56', '36', '45', '141', '162', '68', '30', '153', '98', '175', '16', '52'] 12454.13385826771
94 249.08267716535434 ['62', '134', '106', '18', '65', '5', '112', '143', '80', '77', '1', '146', '105', '154', '14', '71', '56', '36', '45', '141', '162', '68', '30', '153', '98', '175', '16', '52'] 12454.13385826771
95 249.08267716535434 ['62', '134', '106', '18', '65', '5', '112', '143', '80', '77', '1', '146', '105', '154', '14', '71', '56', '36', '45', '141', '162', '68', '30', '153', '98', '175', '16', '52'] 12454.13385826771
96 249.08267716535434 ['62', '134', '106', '18', '65', '5', '112', '143', '80', '77', '1', '146', '105', '154', '14', '71', '56', '36', '45', '141', '162', '68', '30', '153', '98', '175', '16', '52'] 12454.13385826771
97 249.08267716535434 ['62', '134', '106', '18', '65', '5', '112', '143', '80', '77', '1', '146', '105', '154', '14', '71', '56', '36', '45', '141', '162', '68', '30', '153', '98', '175', '16', '52'] 12454.13385826771
98 249.08267716535434 ['62', '134', '106', '18', '65', '5', '112', '143', '80', '77', '1', '146', '105', '154', '14', '71', '56', '36', '45', '141', '162', '68', '30', '153', '98', '175', '16', '52'] 12454.13385826771
99 249.08267716535434 ['62', '134', '106', '18', '65', '5', '112', '143', '80', '77', '1', '146', '105', '154', '14', '71', '56', '36', '45', '141', '162', '68', '30', '153', '98', '175', '16', '52'] 12454.13385826771
100 249.08267716535434 ['62', '134', '106', '18', '65', '5', '112', '143', '80', '77', '1', '146', '105', '154', '14', '71', '56', '36', '45', '141', '162', '68', '30', '153', '98', '175', '16', '52'] 12454.13385826771
101 249.08267716535434 ['62', '134', '106', '18', '65', '5', '112', '143', '80', '77', '1', '146', '105', '154', '14', '71', '56', '36', '45', '141', '162', '68', '30', '153', '98', '175', '16', '52'] 12454.13385826771
102 249.08267716535434 ['62', '134', '106', '18', '65', '5', '112', '143', '80', '77', '1', '146', '105', '154', '14', '71', '56', '36', '45', '141', '162', '68', '30', '153', '98', '175', '16', '52'] 12454.13385826771
103 249.08267716535434 ['62', '134', '106', '18', '65', '5', '112', '143', '80', '77', '1', '146', '105', '154', '14', '71', '56', '36', '45', '141', '162', '68', '30', '153', '98', '175', '16', '52'] 12454.13385826771
104 249.08267716535434 ['62', '134', '106', '18', '65', '5', '112', '143', '80', '77', '1', '146', '105', '154', '14', '71', '56', '36', '45', '141', '162', '68', '30', '153', '98', '175', '16', '52'] 12454.13385826771
105 249.08267716535434 ['62', '134', '106', '18', '65', '5', '112', '143', '80', '77', '1', '146', '105', '154', '14', '71', '56', '36', '45', '141', '162', '68', '30', '153', '98', '175', '16', '52'] 12454.13385826771
106 249.08267716535434 ['62', '134', '106', '18', '65', '5', '112', '143', '80', '77', '1', '146', '105', '154', '14', '71', '56', '36', '45', '141', '162', '68', '30', '153', '98', '175', '16', '52'] 12454.13385826771
107 249.08267716535434 ['62', '134', '106', '18', '65', '5', '112', '143', '80', '77', '1', '146', '105', '154', '14', '71', '56', '36', '45', '141', '162', '68', '30', '153', '98', '175', '16', '52'] 12454.13385826771
108 249.08267716535434 ['62', '134', '106', '18', '65', '5', '112', '143', '80', '77', '1', '146', '105', '154', '14', '71', '56', '36', '45', '141', '162', '68', '30', '153', '98', '175', '16', '52'] 12454.13385826771
109 249.08267716535434 ['62', '134', '106', '18', '65', '5', '112', '143', '80', '77', '1', '146', '105', '154', '14', '71', '56', '36', '45', '141', '162', '68', '30', '153', '98', '175', '16', '52'] 12454.13385826771
110 249.08267716535434 ['62', '134', '106', '18', '65', '5', '112', '143', '80', '77', '1', '146', '105', '154', '14', '71', '56', '36', '45', '141', '162', '68', '30', '153', '98', '175', '16', '52'] 12454.13385826771
111 249.08267716535434 ['62', '134', '106', '18', '65', '5', '112', '143', '80', '77', '1', '146', '105', '154', '14', '71', '56', '36', '45', '141', '162', '68', '30', '153', '98', '175', '16', '52'] 12454.13385826771
112 249.08267716535434 ['62', '134', '106', '18', '65', '5', '112', '143', '80', '77', '1', '146', '105', '154', '14', '71', '56', '36', '45', '141', '162', '68', '30', '153', '98', '175', '16', '52'] 12454.13385826771
113 249.08267716535434 ['62', '134', '106', '18', '65', '5', '112', '143', '80', '77', '1', '146', '105', '154', '14', '71', '56', '36', '45', '141', '162', '68', '30', '153', '98', '175', '16', '52'] 12454.13385826771
114 249.08267716535434 ['62', '134', '106', '18', '65', '5', '112', '143', '80', '77', '1', '146', '105', '154', '14', '71', '56', '36', '45', '141', '162', '68', '30', '153', '98', '175', '16', '52'] 12454.13385826771
115 249.08267716535434 ['62', '134', '106', '18', '65', '5', '112', '143', '80', '77', '1', '146', '105', '154', '14', '71', '56', '36', '45', '141', '162', '68', '30', '153', '98', '175', '16', '52'] 12454.13385826771
116 249.08267716535434 ['62', '134', '106', '18', '65', '5', '112', '143', '80', '77', '1', '146', '105', '154', '14', '71', '56', '36', '45', '141', '162', '68', '30', '153', '98', '175', '16', '52'] 12454.13385826771
117 249.08267716535434 ['62', '134', '106', '18', '65', '5', '112', '143', '80', '77', '1', '146', '105', '154', '14', '71', '56', '36', '45', '141', '162', '68', '30', '153', '98', '175', '16', '52'] 12454.13385826771
118 249.08267716535434 ['62', '134', '106', '18', '65', '5', '112', '143', '80', '77', '1', '146', '105', '154', '14', '71', '56', '36', '45', '141', '162', '68', '30', '153', '98', '175', '16', '52'] 12454.13385826771
119 249.08267716535434 ['62', '134', '106', '18', '65', '5', '112', '143', '80', '77', '1', '146', '105', '154', '14', '71', '56', '36', '45', '141', '162', '68', '30', '153', '98', '175', '16', '52'] 12454.13385826771
120 249.08267716535434 ['62', '134', '106', '18', '65', '5', '112', '143', '80', '77', '1', '146', '105', '154', '14', '71', '56', '36', '45', '141', '162', '68', '30', '153', '98', '175', '16', '52'] 12454.13385826771
121 249.08267716535434 ['62', '134', '106', '18', '65', '5', '112', '143', '80', '77', '1', '146', '105', '154', '14', '71', '56', '36', '45', '141', '162', '68', '30', '153', '98', '175', '16', '52'] 12454.13385826771
122 249.08267716535434 ['62', '134', '106', '18', '65', '5', '112', '143', '80', '77', '1', '146', '105', '154', '14', '71', '56', '36', '45', '141', '162', '68', '30', '153', '98', '175', '16', '52'] 12454.13385826771
123 249.08267716535434 ['62', '134', '106', '18', '65', '5', '112', '143', '80', '77', '1', '146', '105', '154', '14', '71', '56', '36', '45', '141', '162', '68', '30', '153', '98', '175', '16', '52'] 12454.13385826771
124 249.08267716535434 ['62', '134', '106', '18', '65', '5', '112', '143', '80', '77', '1', '146', '105', '154', '14', '71', '56', '36', '45', '141', '162', '68', '30', '153', '98', '175', '16', '52'] 12454.13385826771
125 249.08267716535434 ['62', '134', '106', '18', '65', '5', '112', '143', '80', '77', '1', '146', '105', '154', '14', '71', '56', '36', '45', '141', '162', '68', '30', '153', '98', '175', '16', '52'] 12454.13385826771
126 249.08267716535434 ['62', '134', '106', '18', '65', '5', '112', '143', '80', '77', '1', '146', '105', '154', '14', '71', '56', '36', '45', '141', '162', '68', '30', '153', '98', '175', '16', '52'] 12454.13385826771
127 249.08267716535434 ['62', '134', '106', '18', '65', '5', '112', '143', '80', '77', '1', '146', '105', '154', '14', '71', '56', '36', '45', '141', '162', '68', '30', '153', '98', '175', '16', '52'] 12454.13385826771
128 249.08267716535434 ['62', '134', '106', '18', '65', '5', '112', '143', '80', '77', '1', '146', '105', '154', '14', '71', '56', '36', '45', '141', '162', '68', '30', '153', '98', '175', '16', '52'] 12454.13385826771
129 249.08267716535434 ['62', '134', '106', '18', '65', '5', '112', '143', '80', '77', '1', '146', '105', '154', '14', '71', '56', '36', '45', '141', '162', '68', '30', '153', '98', '175', '16', '52'] 12454.13385826771
130 249.08267716535434 ['62', '134', '106', '18', '65', '5', '112', '143', '80', '77', '1', '146', '105', '154', '14', '71', '56', '36', '45', '141', '162', '68', '30', '153', '98', '175', '16', '52'] 12454.13385826771
131 249.08267716535434 ['62', '134', '106', '18', '65', '5', '112', '143', '80', '77', '1', '146', '105', '154', '14', '71', '56', '36', '45', '141', '162', '68', '30', '153', '98', '175', '16', '52'] 12454.13385826771
132 249.08267716535434 ['62', '134', '106', '18', '65', '5', '112', '143', '80', '77', '1', '146', '105', '154', '14', '71', '56', '36', '45', '141', '162', '68', '30', '153', '98', '175', '16', '52'] 12454.13385826771
133 249.08267716535434 ['62', '134', '106', '18', '65', '5', '112', '143', '80', '77', '1', '146', '105', '154', '14', '71', '56', '36', '45', '141', '162', '68', '30', '153', '98', '175', '16', '52'] 12454.13385826771
134 249.08267716535434 ['62', '134', '106', '18', '65', '5', '112', '143', '80', '77', '1', '146', '105', '154', '14', '71', '56', '36', '45', '141', '162', '68', '30', '153', '98', '175', '16', '52'] 12454.13385826771
135 249.08267716535434 ['62', '134', '106', '18', '65', '5', '112', '143', '80', '77', '1', '146', '105', '154', '14', '71', '56', '36', '45', '141', '162', '68', '30', '153', '98', '175', '16', '52'] 12454.13385826771
136 249.08267716535434 ['62', '134', '106', '18', '65', '5', '112', '143', '80', '77', '1', '146', '105', '154', '14', '71', '56', '36', '45', '141', '162', '68', '30', '153', '98', '175', '16', '52'] 12454.13385826771
137 249.08267716535434 ['62', '134', '106', '18', '65', '5', '112', '143', '80', '77', '1', '146', '105', '154', '14', '71', '56', '36', '45', '141', '162', '68', '30', '153', '98', '175', '16', '52'] 12454.13385826771
138 249.08267716535434 ['62', '134', '106', '18', '65', '5', '112', '143', '80', '77', '1', '146', '105', '154', '14', '71', '56', '36', '45', '141', '162', '68', '30', '153', '98', '175', '16', '52'] 12454.13385826771
139 249.08267716535434 ['62', '134', '106', '18', '65', '5', '112', '143', '80', '77', '1', '146', '105', '154', '14', '71', '56', '36', '45', '141', '162', '68', '30', '153', '98', '175', '16', '52'] 12454.13385826771
140 249.08267716535434 ['62', '134', '106', '18', '65', '5', '112', '143', '80', '77', '1', '146', '105', '154', '14', '71', '56', '36', '45', '141', '162', '68', '30', '153', '98', '175', '16', '52'] 12454.13385826771
141 249.08267716535434 ['62', '134', '106', '18', '65', '5', '112', '143', '80', '77', '1', '146', '105', '154', '14', '71', '56', '36', '45', '141', '162', '68', '30', '153', '98', '175', '16', '52'] 12454.13385826771
142 249.08267716535434 ['62', '134', '106', '18', '65', '5', '112', '143', '80', '77', '1', '146', '105', '154', '14', '71', '56', '36', '45', '141', '162', '68', '30', '153', '98', '175', '16', '52'] 12454.13385826771
143 249.08267716535434 ['62', '134', '106', '18', '65', '5', '112', '143', '80', '77', '1', '146', '105', '154', '14', '71', '56', '36', '45', '141', '162', '68', '30', '153', '98', '175', '16', '52'] 12454.13385826771
144 249.08267716535434 ['62', '134', '106', '18', '65', '5', '112', '143', '80', '77', '1', '146', '105', '154', '14', '71', '56', '36', '45', '141', '162', '68', '30', '153', '98', '175', '16', '52'] 12454.13385826771
145 249.08267716535434 ['62', '134', '106', '18', '65', '5', '112', '143', '80', '77', '1', '146', '105', '154', '14', '71', '56', '36', '45', '141', '162', '68', '30', '153', '98', '175', '16', '52'] 12454.13385826771
146 249.08267716535434 ['62', '134', '106', '18', '65', '5', '112', '143', '80', '77', '1', '146', '105', '154', '14', '71', '56', '36', '45', '141', '162', '68', '30', '153', '98', '175', '16', '52'] 12454.13385826771
147 249.08267716535434 ['62', '134', '106', '18', '65', '5', '112', '143', '80', '77', '1', '146', '105', '154', '14', '71', '56', '36', '45', '141', '162', '68', '30', '153', '98', '175', '16', '52'] 12454.13385826771
148 249.08267716535434 ['62', '134', '106', '18', '65', '5', '112', '143', '80', '77', '1', '146', '105', '154', '14', '71', '56', '36', '45', '141', '162', '68', '30', '153', '98', '175', '16', '52'] 12454.13385826771
149 249.08267716535434 ['62', '134', '106', '18', '65', '5', '112', '143', '80', '77', '1', '146', '105', '154', '14', '71', '56', '36', '45', '141', '162', '68', '30', '153', '98', '175', '16', '52'] 12454.13385826771
150 249.08267716535434 ['62', '134', '106', '18', '65', '5', '112', '143', '80', '77', '1', '146', '105', '154', '14', '71', '56', '36', '45', '141', '162', '68', '30', '153', '98', '175', '16', '52'] 12454.13385826771
151 249.08267716535434 ['62', '134', '106', '18', '65', '5', '112', '143', '80', '77', '1', '146', '105', '154', '14', '71', '56', '36', '45', '141', '162', '68', '30', '153', '98', '175', '16', '52'] 12454.13385826771
152 249.08267716535434 ['62', '134', '106', '18', '65', '5', '112', '143', '80', '77', '1', '146', '105', '154', '14', '71', '56', '36', '45', '141', '162', '68', '30', '153', '98', '175', '16', '52'] 12454.13385826771
153 249.08267716535434 ['62', '134', '106', '18', '65', '5', '112', '143', '80', '77', '1', '146', '105', '154', '14', '71', '56', '36', '45', '141', '162', '68', '30', '153', '98', '175', '16', '52'] 12454.13385826771
154 249.08267716535434 ['62', '134', '106', '18', '65', '5', '112', '143', '80', '77', '1', '146', '105', '154', '14', '71', '56', '36', '45', '141', '162', '68', '30', '153', '98', '175', '16', '52'] 12454.13385826771
155 249.08267716535434 ['62', '134', '106', '18', '65', '5', '112', '143', '80', '77', '1', '146', '105', '154', '14', '71', '56', '36', '45', '141', '162', '68', '30', '153', '98', '175', '16', '52'] 12454.13385826771
156 249.08267716535434 ['62', '134', '106', '18', '65', '5', '112', '143', '80', '77', '1', '146', '105', '154', '14', '71', '56', '36', '45', '141', '162', '68', '30', '153', '98', '175', '16', '52'] 12454.13385826771
157 249.08267716535434 ['62', '134', '106', '18', '65', '5', '112', '143', '80', '77', '1', '146', '105', '154', '14', '71', '56', '36', '45', '141', '162', '68', '30', '153', '98', '175', '16', '52'] 12454.13385826771
158 249.08267716535434 ['62', '134', '106', '18', '65', '5', '112', '143', '80', '77', '1', '146', '105', '154', '14', '71', '56', '36', '45', '141', '162', '68', '30', '153', '98', '175', '16', '52'] 12454.13385826771
159 249.08267716535434 ['62', '134', '106', '18', '65', '5', '112', '143', '80', '77', '1', '146', '105', '154', '14', '71', '56', '36', '45', '141', '162', '68', '30', '153', '98', '175', '16', '52'] 12454.13385826771
160 249.08267716535434 ['62', '134', '106', '18', '65', '5', '112', '143', '80', '77', '1', '146', '105', '154', '14', '71', '56', '36', '45', '141', '162', '68', '30', '153', '98', '175', '16', '52'] 12454.13385826771
161 249.08267716535434 ['62', '134', '106', '18', '65', '5', '112', '143', '80', '77', '1', '146', '105', '154', '14', '71', '56', '36', '45', '141', '162', '68', '30', '153', '98', '175', '16', '52'] 12454.13385826771
162 249.08267716535434 ['62', '134', '106', '18', '65', '5', '112', '143', '80', '77', '1', '146', '105', '154', '14', '71', '56', '36', '45', '141', '162', '68', '30', '153', '98', '175', '16', '52'] 12454.13385826771
163 249.08267716535434 ['62', '134', '106', '18', '65', '5', '112', '143', '80', '77', '1', '146', '105', '154', '14', '71', '56', '36', '45', '141', '162', '68', '30', '153', '98', '175', '16', '52'] 12454.13385826771
164 249.08267716535434 ['62', '134', '106', '18', '65', '5', '112', '143', '80', '77', '1', '146', '105', '154', '14', '71', '56', '36', '45', '141', '162', '68', '30', '153', '98', '175', '16', '52'] 12454.13385826771
165 249.08267716535434 ['62', '134', '106', '18', '65', '5', '112', '143', '80', '77', '1', '146', '105', '154', '14', '71', '56', '36', '45', '141', '162', '68', '30', '153', '98', '175', '16', '52'] 12454.13385826771
166 249.08267716535434 ['62', '134', '106', '18', '65', '5', '112', '143', '80', '77', '1', '146', '105', '154', '14', '71', '56', '36', '45', '141', '162', '68', '30', '153', '98', '175', '16', '52'] 12454.13385826771
167 249.08267716535434 ['62', '134', '106', '18', '65', '5', '112', '143', '80', '77', '1', '146', '105', '154', '14', '71', '56', '36', '45', '141', '162', '68', '30', '153', '98', '175', '16', '52'] 12454.13385826771
168 249.08267716535434 ['62', '134', '106', '18', '65', '5', '112', '143', '80', '77', '1', '146', '105', '154', '14', '71', '56', '36', '45', '141', '162', '68', '30', '153', '98', '175', '16', '52'] 12454.13385826771
169 249.08267716535434 ['62', '134', '106', '18', '65', '5', '112', '143', '80', '77', '1', '146', '105', '154', '14', '71', '56', '36', '45', '141', '162', '68', '30', '153', '98', '175', '16', '52'] 12454.13385826771
170 249.08267716535434 ['62', '134', '106', '18', '65', '5', '112', '143', '80', '77', '1', '146', '105', '154', '14', '71', '56', '36', '45', '141', '162', '68', '30', '153', '98', '175', '16', '52'] 12454.13385826771
171 249.08267716535434 ['62', '134', '106', '18', '65', '5', '112', '143', '80', '77', '1', '146', '105', '154', '14', '71', '56', '36', '45', '141', '162', '68', '30', '153', '98', '175', '16', '52'] 12454.13385826771
172 249.08267716535434 ['62', '134', '106', '18', '65', '5', '112', '143', '80', '77', '1', '146', '105', '154', '14', '71', '56', '36', '45', '141', '162', '68', '30', '153', '98', '175', '16', '52'] 12454.13385826771
173 249.08267716535434 ['62', '134', '106', '18', '65', '5', '112', '143', '80', '77', '1', '146', '105', '154', '14', '71', '56', '36', '45', '141', '162', '68', '30', '153', '98', '175', '16', '52'] 12454.13385826771
174 249.08267716535434 ['62', '134', '106', '18', '65', '5', '112', '143', '80', '77', '1', '146', '105', '154', '14', '71', '56', '36', '45', '141', '162', '68', '30', '153', '98', '175', '16', '52'] 12454.13385826771
175 249.08267716535434 ['62', '134', '106', '18', '65', '5', '112', '143', '80', '77', '1', '146', '105', '154', '14', '71', '56', '36', '45', '141', '162', '68', '30', '153', '98', '175', '16', '52'] 12454.13385826771
176 249.08267716535434 ['62', '134', '106', '18', '65', '5', '112', '143', '80', '77', '1', '146', '105', '154', '14', '71', '56', '36', '45', '141', '162', '68', '30', '153', '98', '175', '16', '52'] 12454.13385826771
177 249.08267716535434 ['62', '134', '106', '18', '65', '5', '112', '143', '80', '77', '1', '146', '105', '154', '14', '71', '56', '36', '45', '141', '162', '68', '30', '153', '98', '175', '16', '52'] 12454.13385826771
178 249.08267716535434 ['62', '134', '106', '18', '65', '5', '112', '143', '80', '77', '1', '146', '105', '154', '14', '71', '56', '36', '45', '141', '162', '68', '30', '153', '98', '175', '16', '52'] 12454.13385826771
179 249.08267716535434 ['62', '134', '106', '18', '65', '5', '112', '143', '80', '77', '1', '146', '105', '154', '14', '71', '56', '36', '45', '141', '162', '68', '30', '153', '98', '175', '16', '52'] 12454.13385826771
180 249.08267716535434 ['62', '134', '106', '18', '65', '5', '112', '143', '80', '77', '1', '146', '105', '154', '14', '71', '56', '36', '45', '141', '162', '68', '30', '153', '98', '175', '16', '52'] 12454.13385826771
181 249.08267716535434 ['62', '134', '106', '18', '65', '5', '112', '143', '80', '77', '1', '146', '105', '154', '14', '71', '56', '36', '45', '141', '162', '68', '30', '153', '98', '175', '16', '52'] 12454.13385826771
182 249.08267716535434 ['62', '134', '106', '18', '65', '5', '112', '143', '80', '77', '1', '146', '105', '154', '14', '71', '56', '36', '45', '141', '162', '68', '30', '153', '98', '175', '16', '52'] 12454.13385826771
183 249.08267716535434 ['62', '134', '106', '18', '65', '5', '112', '143', '80', '77', '1', '146', '105', '154', '14', '71', '56', '36', '45', '141', '162', '68', '30', '153', '98', '175', '16', '52'] 12454.13385826771
184 249.08267716535434 ['62', '134', '106', '18', '65', '5', '112', '143', '80', '77', '1', '146', '105', '154', '14', '71', '56', '36', '45', '141', '162', '68', '30', '153', '98', '175', '16', '52'] 12454.13385826771
185 249.08267716535434 ['62', '134', '106', '18', '65', '5', '112', '143', '80', '77', '1', '146', '105', '154', '14', '71', '56', '36', '45', '141', '162', '68', '30', '153', '98', '175', '16', '52'] 12454.13385826771
186 249.08267716535434 ['62', '134', '106', '18', '65', '5', '112', '143', '80', '77', '1', '146', '105', '154', '14', '71', '56', '36', '45', '141', '162', '68', '30', '153', '98', '175', '16', '52'] 12454.13385826771
187 249.08267716535434 ['62', '134', '106', '18', '65', '5', '112', '143', '80', '77', '1', '146', '105', '154', '14', '71', '56', '36', '45', '141', '162', '68', '30', '153', '98', '175', '16', '52'] 12454.13385826771
188 249.08267716535434 ['62', '134', '106', '18', '65', '5', '112', '143', '80', '77', '1', '146', '105', '154', '14', '71', '56', '36', '45', '141', '162', '68', '30', '153', '98', '175', '16', '52'] 12454.13385826771
189 249.08267716535434 ['62', '134', '106', '18', '65', '5', '112', '143', '80', '77', '1', '146', '105', '154', '14', '71', '56', '36', '45', '141', '162', '68', '30', '153', '98', '175', '16', '52'] 12454.13385826771
190 249.08267716535434 ['62', '134', '106', '18', '65', '5', '112', '143', '80', '77', '1', '146', '105', '154', '14', '71', '56', '36', '45', '141', '162', '68', '30', '153', '98', '175', '16', '52'] 12454.13385826771
191 249.08267716535434 ['62', '134', '106', '18', '65', '5', '112', '143', '80', '77', '1', '146', '105', '154', '14', '71', '56', '36', '45', '141', '162', '68', '30', '153', '98', '175', '16', '52'] 12454.13385826771
192 249.08267716535434 ['62', '134', '106', '18', '65', '5', '112', '143', '80', '77', '1', '146', '105', '154', '14', '71', '56', '36', '45', '141', '162', '68', '30', '153', '98', '175', '16', '52'] 12454.13385826771
193 249.08267716535434 ['62', '134', '106', '18', '65', '5', '112', '143', '80', '77', '1', '146', '105', '154', '14', '71', '56', '36', '45', '141', '162', '68', '30', '153', '98', '175', '16', '52'] 12454.13385826771
194 249.08267716535434 ['62', '134', '106', '18', '65', '5', '112', '143', '80', '77', '1', '146', '105', '154', '14', '71', '56', '36', '45', '141', '162', '68', '30', '153', '98', '175', '16', '52'] 12454.13385826771
195 249.08267716535434 ['62', '134', '106', '18', '65', '5', '112', '143', '80', '77', '1', '146', '105', '154', '14', '71', '56', '36', '45', '141', '162', '68', '30', '153', '98', '175', '16', '52'] 12454.13385826771
196 249.08267716535434 ['62', '134', '106', '18', '65', '5', '112', '143', '80', '77', '1', '146', '105', '154', '14', '71', '56', '36', '45', '141', '162', '68', '30', '153', '98', '175', '16', '52'] 12454.13385826771
197 249.08267716535434 ['62', '134', '106', '18', '65', '5', '112', '143', '80', '77', '1', '146', '105', '154', '14', '71', '56', '36', '45', '141', '162', '68', '30', '153', '98', '175', '16', '52'] 12454.13385826771
198 249.08267716535434 ['62', '134', '106', '18', '65', '5', '112', '143', '80', '77', '1', '146', '105', '154', '14', '71', '56', '36', '45', '141', '162', '68', '30', '153', '98', '175', '16', '52'] 12454.13385826771
199 249.08267716535434 ['62', '134', '106', '18', '65', '5', '112', '143', '80', '77', '1', '146', '105', '154', '14', '71', '56', '36', '45', '141', '162', '68', '30', '153', '98', '175', '16', '52'] 12454.13385826771
