0 319.0236220472441 ['203', '128', '112', '218', '226', '185', '98', '50', '196', '20', '139', '33', '30', '183', '162', '27', '172', '168', '188', '117', '144', '60', '194', '244', '102', '255', '83', '205'] 16864.251968503937
1 310.46062992125985 ['112', '188', '51', '230', '255', '83', '194', '162', '66', '30', '233', '211', '57', '146', '272', '100', '205', '196', '275', '117', '33', '231', '20', '42', '27', '98', '75', '144'] 16543.68503937008
2 310.46062992125985 ['112', '188', '51', '230', '255', '83', '194', '162', '66', '30', '233', '211', '57', '146', '272', '100', '205', '196', '275', '117', '33', '231', '20', '42', '27', '98', '75', '144'] 16248.665354330706
3 304.70866141732284 ['33', '6', '10', '64', '191', '148', '213', '35', '16', '84', '98', '184', '196', '138', '109', '80', '207', '162', '140', '226', '197', '27', '57', '172', '188', '36', '65', '136'] 15999.779527559058
4 304.1968503937008 ['16', '33', '184', '36', '136', '6', '112', '5', '197', '195', '251', '191', '259', '162', '62', '138', '83', '188', '148', '196', '69', '213', '134', '146', '240', '57', '226', '140'] 15734.515748031494
5 292.7244094488189 ['5', '146', '136', '191', '33', '83', '197', '162', '6', '196', '80', '69', '161', '36', '16', '180', '259', '140', '112', '90', '18', '134', '45', '100', '57', '76', '15', '198'] 15480.484251968506
6 291.25984251968504 ['90', '16', '6', '112', '23', '18', '192', '98', '139', '175', '62', '58', '147', '225', '5', '27', '64', '153', '156', '184', '109', '31', '218', '168', '41', '14', '25', '136'] 15241.464566929131
7 289.503937007874 ['192', '98', '112', '16', '117', '58', '5', '31', '139', '27', '154', '25', '196', '184', '194', '153', '169', '64', '136', '18', '182', '272', '20', '115', '230', '106', '156', '6'] 14971.673228346455
8 284.9685039370079 ['46', '251', '58', '98', '35', '33', '27', '139', '36', '136', '196', '192', '62', '18', '184', '252', '191', '31', '14', '109', '162', '50', '197', '30', '240', '57', '146', '11'] 14775.385826771648
9 279.87401574803147 ['98', '30', '251', '36', '18', '14', '27', '46', '196', '197', '184', '56', '33', '135', '6', '166', '109', '11', '180', '31', '40', '136', '162', '57', '151', '139', '65', '252'] 14585.161417322837
10 279.29527559055117 ['18', '98', '192', '27', '20', '16', '23', '30', '36', '112', '198', '184', '235', '146', '33', '153', '259', '144', '6', '212', '42', '175', '31', '197', '5', '50', '35', '57'] 14466.311023622045
11 272.11417322834643 ['18', '112', '98', '23', '161', '14', '27', '30', '175', '86', '66', '46', '57', '146', '10', '28', '251', '207', '80', '141', '162', '6', '184', '36', '33', '136', '15', '20'] 14320.370078740156
12 270.01574803149606 ['184', '98', '36', '57', '33', '23', '146', '27', '20', '28', '112', '30', '18', '31', '141', '198', '52', '10', '80', '86', '136', '154', '251', '66', '151', '6', '180', '162'] 14134.196850393699
13 270.01574803149606 ['184', '98', '36', '57', '33', '23', '146', '27', '20', '28', '112', '30', '18', '31', '141', '198', '52', '10', '80', '86', '136', '154', '251', '66', '151', '6', '180', '162'] 13956.9094488189
14 268.3543307086614 ['184', '33', '27', '112', '31', '36', '198', '146', '98', '30', '162', '86', '28', '18', '102', '153', '10', '57', '66', '251', '11', '154', '136', '52', '135', '65', '197', '80'] 13789.484251968503
15 258.06692913385825 ['18', '30', '162', '188', '16', '175', '10', '166', '112', '36', '98', '180', '28', '184', '20', '45', '139', '146', '134', '141', '66', '80', '46', '212', '14', '31', '62', '86'] 13607.49212598425
16 258.06692913385825 ['18', '30', '162', '188', '16', '175', '10', '166', '112', '36', '98', '180', '28', '184', '20', '45', '139', '146', '134', '141', '66', '80', '46', '212', '14', '31', '62', '86'] 13472.87401574803
17 258.06692913385825 ['18', '30', '162', '188', '16', '175', '10', '166', '112', '36', '98', '180', '28', '184', '20', '45', '139', '146', '134', '141', '66', '80', '46', '212', '14', '31', '62', '86'] 13319.622047244095
18 256.18503937007875 ['98', '30', '146', '27', '11', '80', '162', '10', '36', '31', '65', '112', '86', '18', '184', '33', '188', '14', '20', '62', '57', '180', '136', '56', '66', '139', '153', '5'] 13215.338582677172
19 256.18503937007875 ['98', '30', '146', '27', '11', '80', '162', '10', '36', '31', '65', '112', '86', '18', '184', '33', '188', '14', '20', '62', '57', '180', '136', '56', '66', '139', '153', '5'] 13081.826771653545
20 255.18503937007873 ['16', '184', '18', '141', '14', '20', '136', '36', '27', '33', '135', '112', '30', '31', '62', '28', '15', '162', '98', '66', '10', '154', '134', '153', '180', '166', '86', '146'] 12973.826771653545
21 253.5 ['14', '141', '31', '27', '86', '16', '65', '139', '18', '5', '33', '20', '175', '98', '136', '30', '36', '184', '112', '50', '180', '162', '15', '62', '153', '56', '66', '28'] 12888.968503937007
22 252.96456692913387 ['153', '16', '62', '98', '66', '112', '20', '36', '86', '27', '180', '184', '28', '136', '30', '162', '31', '14', '15', '141', '18', '33', '146', '10', '65', '139', '135', '134'] 12819.75590551181
23 252.96456692913387 ['153', '16', '62', '98', '66', '112', '20', '36', '86', '27', '180', '184', '28', '136', '30', '162', '31', '14', '15', '141', '18', '33', '146', '10', '65', '139', '135', '134'] 12758.440944881888
24 250.96850393700788 ['18', '139', '86', '31', '146', '10', '153', '20', '27', '30', '112', '65', '36', '5', '15', '14', '141', '154', '33', '136', '184', '180', '98', '175', '45', '16', '162', '66'] 12696.00787401575
25 250.1220472440945 ['146', '27', '18', '153', '154', '14', '10', '66', '112', '30', '136', '20', '33', '5', '180', '86', '65', '31', '141', '36', '98', '184', '16', '139', '162', '56', '134', '45'] 12645.279527559054
26 249.7755905511811 ['184', '10', '141', '30', '14', '162', '139', '18', '15', '5', '36', '98', '31', '45', '66', '65', '146', '112', '16', '180', '20', '86', '27', '153', '175', '56', '154', '62'] 12599.027559055117
27 249.31102362204723 ['112', '18', '153', '141', '66', '162', '5', '139', '10', '65', '20', '98', '14', '180', '56', '30', '31', '136', '36', '184', '86', '146', '27', '16', '33', '15', '134', '175'] 12554.95275590551
28 248.53149606299212 ['162', '27', '98', '175', '30', '62', '153', '65', '14', '66', '184', '112', '139', '36', '141', '86', '146', '5', '31', '15', '136', '56', '20', '18', '154', '10', '80', '134'] 12518.208661417322
29 247.93307086614172 ['31', '162', '146', '36', '18', '136', '5', '20', '98', '86', '27', '56', '112', '65', '184', '14', '153', '66', '30', '62', '139', '15', '10', '45', '141', '134', '80', '147'] 12487.570866141732
30 247.93307086614172 ['31', '162', '146', '36', '18', '136', '5', '20', '98', '86', '27', '56', '112', '65', '184', '14', '153', '66', '30', '62', '139', '15', '10', '45', '141', '134', '80', '147'] 12456.909448818897
31 247.51574803149606 ['162', '56', '36', '184', '86', '5', '141', '16', '14', '31', '20', '27', '139', '112', '98', '30', '146', '153', '62', '154', '18', '15', '66', '65', '134', '45', '136', '175'] 12432.07480314961
32 247.51574803149606 ['162', '56', '36', '184', '86', '5', '141', '16', '14', '31', '20', '27', '139', '112', '98', '30', '146', '153', '62', '154', '18', '15', '66', '65', '134', '45', '136', '175'] 12412.586614173224
33 247.09055118110237 ['112', '45', '56', '18', '146', '31', '62', '162', '86', '15', '153', '141', '27', '134', '14', '5', '136', '30', '36', '184', '139', '66', '65', '98', '20', '175', '154', '147'] 12394.094488188985
34 247.09055118110237 ['112', '45', '56', '18', '146', '31', '62', '162', '86', '15', '153', '141', '27', '134', '14', '5', '136', '30', '36', '184', '139', '66', '65', '98', '20', '175', '154', '147'] 12383.732283464578
35 247.09055118110237 ['112', '45', '56', '18', '146', '31', '62', '162', '86', '15', '153', '141', '27', '134', '14', '5', '136', '30', '36', '184', '139', '66', '65', '98', '20', '175', '154', '147'] 12374.188976377942
36 247.09055118110237 ['112', '45', '56', '18', '146', '31', '62', '162', '86', '15', '153', '141', '27', '134', '14', '5', '136', '30', '36', '184', '139', '66', '65', '98', '20', '175', '154', '147'] 12365.925196850387
37 247.09055118110237 ['112', '45', '56', '18', '146', '31', '62', '162', '86', '15', '153', '141', '27', '134', '14', '5', '136', '30', '36', '184', '139', '66', '65', '98', '20', '175', '154', '147'] 12357.287401574795
38 247.09055118110237 ['112', '45', '56', '18', '146', '31', '62', '162', '86', '15', '153', '141', '27', '134', '14', '5', '136', '30', '36', '184', '139', '66', '65', '98', '20', '175', '154', '147'] 12354.527559055106
39 247.09055118110237 ['112', '45', '56', '18', '146', '31', '62', '162', '86', '15', '153', '141', '27', '134', '14', '5', '136', '30', '36', '184', '139', '66', '65', '98', '20', '175', '154', '147'] 12354.527559055106
40 247.09055118110237 ['112', '45', '56', '18', '146', '31', '62', '162', '86', '15', '153', '141', '27', '134', '14', '5', '136', '30', '36', '184', '139', '66', '65', '98', '20', '175', '154', '147'] 12354.527559055106
41 247.09055118110237 ['112', '45', '56', '18', '146', '31', '62', '162', '86', '15', '153', '141', '27', '134', '14', '5', '136', '30', '36', '184', '139', '66', '65', '98', '20', '175', '154', '147'] 12354.527559055106
42 247.09055118110237 ['112', '45', '56', '18', '146', '31', '62', '162', '86', '15', '153', '141', '27', '134', '14', '5', '136', '30', '36', '184', '139', '66', '65', '98', '20', '175', '154', '147'] 12354.527559055106
43 247.09055118110237 ['112', '45', '56', '18', '146', '31', '62', '162', '86', '15', '153', '141', '27', '134', '14', '5', '136', '30', '36', '184', '139', '66', '65', '98', '20', '175', '154', '147'] 12354.527559055106
44 247.09055118110237 ['112', '45', '56', '18', '146', '31', '62', '162', '86', '15', '153', '141', '27', '134', '14', '5', '136', '30', '36', '184', '139', '66', '65', '98', '20', '175', '154', '147'] 12354.527559055106
45 247.09055118110237 ['112', '45', '56', '18', '146', '31', '62', '162', '86', '15', '153', '141', '27', '134', '14', '5', '136', '30', '36', '184', '139', '66', '65', '98', '20', '175', '154', '147'] 12354.527559055106
46 247.09055118110237 ['112', '45', '56', '18', '146', '31', '62', '162', '86', '15', '153', '141', '27', '134', '14', '5', '136', '30', '36', '184', '139', '66', '65', '98', '20', '175', '154', '147'] 12354.527559055106
47 247.09055118110237 ['112', '45', '56', '18', '146', '31', '62', '162', '86', '15', '153', '141', '27', '134', '14', '5', '136', '30', '36', '184', '139', '66', '65', '98', '20', '175', '154', '147'] 12354.527559055106
48 247.09055118110237 ['112', '45', '56', '18', '146', '31', '62', '162', '86', '15', '153', '141', '27', '134', '14', '5', '136', '30', '36', '184', '139', '66', '65', '98', '20', '175', '154', '147'] 12354.527559055106
49 247.09055118110237 ['112', '45', '56', '18', '146', '31', '62', '162', '86', '15', '153', '141', '27', '134', '14', '5', '136', '30', '36', '184', '139', '66', '65', '98', '20', '175', '154', '147'] 12354.527559055106
50 247.09055118110237 ['112', '45', '56', '18', '146', '31', '62', '162', '86', '15', '153', '141', '27', '134', '14', '5', '136', '30', '36', '184', '139', '66', '65', '98', '20', '175', '154', '147'] 12354.527559055106
51 247.09055118110237 ['112', '45', '56', '18', '146', '31', '62', '162', '86', '15', '153', '141', '27', '134', '14', '5', '136', '30', '36', '184', '139', '66', '65', '98', '20', '175', '154', '147'] 12354.527559055106
52 247.09055118110237 ['112', '45', '56', '18', '146', '31', '62', '162', '86', '15', '153', '141', '27', '134', '14', '5', '136', '30', '36', '184', '139', '66', '65', '98', '20', '175', '154', '147'] 12354.527559055106
53 247.09055118110237 ['112', '45', '56', '18', '146', '31', '62', '162', '86', '15', '153', '141', '27', '134', '14', '5', '136', '30', '36', '184', '139', '66', '65', '98', '20', '175', '154', '147'] 12354.527559055106
54 247.09055118110237 ['112', '45', '56', '18', '146', '31', '62', '162', '86', '15', '153', '141', '27', '134', '14', '5', '136', '30', '36', '184', '139', '66', '65', '98', '20', '175', '154', '147'] 12354.527559055106
55 247.09055118110237 ['112', '45', '56', '18', '146', '31', '62', '162', '86', '15', '153', '141', '27', '134', '14', '5', '136', '30', '36', '184', '139', '66', '65', '98', '20', '175', '154', '147'] 12354.527559055106
56 247.09055118110237 ['112', '45', '56', '18', '146', '31', '62', '162', '86', '15', '153', '141', '27', '134', '14', '5', '136', '30', '36', '184', '139', '66', '65', '98', '20', '175', '154', '147'] 12354.527559055106
57 247.09055118110237 ['112', '45', '56', '18', '146', '31', '62', '162', '86', '15', '153', '141', '27', '134', '14', '5', '136', '30', '36', '184', '139', '66', '65', '98', '20', '175', '154', '147'] 12354.527559055106
58 247.09055118110237 ['112', '45', '56', '18', '146', '31', '62', '162', '86', '15', '153', '141', '27', '134', '14', '5', '136', '30', '36', '184', '139', '66', '65', '98', '20', '175', '154', '147'] 12354.527559055106
59 247.09055118110237 ['112', '45', '56', '18', '146', '31', '62', '162', '86', '15', '153', '141', '27', '134', '14', '5', '136', '30', '36', '184', '139', '66', '65', '98', '20', '175', '154', '147'] 12354.527559055106
60 247.09055118110237 ['112', '45', '56', '18', '146', '31', '62', '162', '86', '15', '153', '141', '27', '134', '14', '5', '136', '30', '36', '184', '139', '66', '65', '98', '20', '175', '154', '147'] 12354.527559055106
61 247.09055118110237 ['112', '45', '56', '18', '146', '31', '62', '162', '86', '15', '153', '141', '27', '134', '14', '5', '136', '30', '36', '184', '139', '66', '65', '98', '20', '175', '154', '147'] 12354.527559055106
62 247.09055118110237 ['112', '45', '56', '18', '146', '31', '62', '162', '86', '15', '153', '141', '27', '134', '14', '5', '136', '30', '36', '184', '139', '66', '65', '98', '20', '175', '154', '147'] 12354.527559055106
63 247.09055118110237 ['112', '45', '56', '18', '146', '31', '62', '162', '86', '15', '153', '141', '27', '134', '14', '5', '136', '30', '36', '184', '139', '66', '65', '98', '20', '175', '154', '147'] 12354.527559055106
64 247.09055118110237 ['112', '45', '56', '18', '146', '31', '62', '162', '86', '15', '153', '141', '27', '134', '14', '5', '136', '30', '36', '184', '139', '66', '65', '98', '20', '175', '154', '147'] 12354.527559055106
65 247.09055118110237 ['112', '45', '56', '18', '146', '31', '62', '162', '86', '15', '153', '141', '27', '134', '14', '5', '136', '30', '36', '184', '139', '66', '65', '98', '20', '175', '154', '147'] 12354.527559055106
66 247.09055118110237 ['112', '45', '56', '18', '146', '31', '62', '162', '86', '15', '153', '141', '27', '134', '14', '5', '136', '30', '36', '184', '139', '66', '65', '98', '20', '175', '154', '147'] 12354.527559055106
67 247.09055118110237 ['112', '45', '56', '18', '146', '31', '62', '162', '86', '15', '153', '141', '27', '134', '14', '5', '136', '30', '36', '184', '139', '66', '65', '98', '20', '175', '154', '147'] 12354.527559055106
68 247.09055118110237 ['112', '45', '56', '18', '146', '31', '62', '162', '86', '15', '153', '141', '27', '134', '14', '5', '136', '30', '36', '184', '139', '66', '65', '98', '20', '175', '154', '147'] 12354.527559055106
69 247.09055118110237 ['112', '45', '56', '18', '146', '31', '62', '162', '86', '15', '153', '141', '27', '134', '14', '5', '136', '30', '36', '184', '139', '66', '65', '98', '20', '175', '154', '147'] 12354.527559055106
70 247.09055118110237 ['112', '45', '56', '18', '146', '31', '62', '162', '86', '15', '153', '141', '27', '134', '14', '5', '136', '30', '36', '184', '139', '66', '65', '98', '20', '175', '154', '147'] 12354.527559055106
71 247.09055118110237 ['112', '45', '56', '18', '146', '31', '62', '162', '86', '15', '153', '141', '27', '134', '14', '5', '136', '30', '36', '184', '139', '66', '65', '98', '20', '175', '154', '147'] 12354.527559055106
72 247.09055118110237 ['112', '45', '56', '18', '146', '31', '62', '162', '86', '15', '153', '141', '27', '134', '14', '5', '136', '30', '36', '184', '139', '66', '65', '98', '20', '175', '154', '147'] 12354.527559055106
73 247.09055118110237 ['112', '45', '56', '18', '146', '31', '62', '162', '86', '15', '153', '141', '27', '134', '14', '5', '136', '30', '36', '184', '139', '66', '65', '98', '20', '175', '154', '147'] 12354.527559055106
74 247.09055118110237 ['112', '45', '56', '18', '146', '31', '62', '162', '86', '15', '153', '141', '27', '134', '14', '5', '136', '30', '36', '184', '139', '66', '65', '98', '20', '175', '154', '147'] 12354.527559055106
75 247.09055118110237 ['112', '45', '56', '18', '146', '31', '62', '162', '86', '15', '153', '141', '27', '134', '14', '5', '136', '30', '36', '184', '139', '66', '65', '98', '20', '175', '154', '147'] 12354.527559055106
76 247.09055118110237 ['112', '45', '56', '18', '146', '31', '62', '162', '86', '15', '153', '141', '27', '134', '14', '5', '136', '30', '36', '184', '139', '66', '65', '98', '20', '175', '154', '147'] 12354.527559055106
77 247.09055118110237 ['112', '45', '56', '18', '146', '31', '62', '162', '86', '15', '153', '141', '27', '134', '14', '5', '136', '30', '36', '184', '139', '66', '65', '98', '20', '175', '154', '147'] 12354.527559055106
78 247.09055118110237 ['112', '45', '56', '18', '146', '31', '62', '162', '86', '15', '153', '141', '27', '134', '14', '5', '136', '30', '36', '184', '139', '66', '65', '98', '20', '175', '154', '147'] 12354.527559055106
79 247.09055118110237 ['112', '45', '56', '18', '146', '31', '62', '162', '86', '15', '153', '141', '27', '134', '14', '5', '136', '30', '36', '184', '139', '66', '65', '98', '20', '175', '154', '147'] 12354.527559055106
80 247.09055118110237 ['112', '45', '56', '18', '146', '31', '62', '162', '86', '15', '153', '141', '27', '134', '14', '5', '136', '30', '36', '184', '139', '66', '65', '98', '20', '175', '154', '147'] 12354.527559055106
81 247.09055118110237 ['112', '45', '56', '18', '146', '31', '62', '162', '86', '15', '153', '141', '27', '134', '14', '5', '136', '30', '36', '184', '139', '66', '65', '98', '20', '175', '154', '147'] 12354.527559055106
82 247.09055118110237 ['112', '45', '56', '18', '146', '31', '62', '162', '86', '15', '153', '141', '27', '134', '14', '5', '136', '30', '36', '184', '139', '66', '65', '98', '20', '175', '154', '147'] 12354.527559055106
83 247.09055118110237 ['112', '45', '56', '18', '146', '31', '62', '162', '86', '15', '153', '141', '27', '134', '14', '5', '136', '30', '36', '184', '139', '66', '65', '98', '20', '175', '154', '147'] 12354.527559055106
84 247.09055118110237 ['112', '45', '56', '18', '146', '31', '62', '162', '86', '15', '153', '141', '27', '134', '14', '5', '136', '30', '36', '184', '139', '66', '65', '98', '20', '175', '154', '147'] 12354.527559055106
85 247.09055118110237 ['112', '45', '56', '18', '146', '31', '62', '162', '86', '15', '153', '141', '27', '134', '14', '5', '136', '30', '36', '184', '139', '66', '65', '98', '20', '175', '154', '147'] 12354.527559055106
86 247.09055118110237 ['112', '45', '56', '18', '146', '31', '62', '162', '86', '15', '153', '141', '27', '134', '14', '5', '136', '30', '36', '184', '139', '66', '65', '98', '20', '175', '154', '147'] 12354.527559055106
87 247.09055118110237 ['112', '45', '56', '18', '146', '31', '62', '162', '86', '15', '153', '141', '27', '134', '14', '5', '136', '30', '36', '184', '139', '66', '65', '98', '20', '175', '154', '147'] 12354.527559055106
88 247.09055118110237 ['112', '45', '56', '18', '146', '31', '62', '162', '86', '15', '153', '141', '27', '134', '14', '5', '136', '30', '36', '184', '139', '66', '65', '98', '20', '175', '154', '147'] 12354.527559055106
89 247.09055118110237 ['112', '45', '56', '18', '146', '31', '62', '162', '86', '15', '153', '141', '27', '134', '14', '5', '136', '30', '36', '184', '139', '66', '65', '98', '20', '175', '154', '147'] 12354.527559055106
90 247.09055118110237 ['112', '45', '56', '18', '146', '31', '62', '162', '86', '15', '153', '141', '27', '134', '14', '5', '136', '30', '36', '184', '139', '66', '65', '98', '20', '175', '154', '147'] 12354.527559055106
91 247.09055118110237 ['112', '45', '56', '18', '146', '31', '62', '162', '86', '15', '153', '141', '27', '134', '14', '5', '136', '30', '36', '184', '139', '66', '65', '98', '20', '175', '154', '147'] 12354.527559055106
92 247.09055118110237 ['112', '45', '56', '18', '146', '31', '62', '162', '86', '15', '153', '141', '27', '134', '14', '5', '136', '30', '36', '184', '139', '66', '65', '98', '20', '175', '154', '147'] 12354.527559055106
93 247.09055118110237 ['112', '45', '56', '18', '146', '31', '62', '162', '86', '15', '153', '141', '27', '134', '14', '5', '136', '30', '36', '184', '139', '66', '65', '98', '20', '175', '154', '147'] 12354.527559055106
94 247.09055118110237 ['112', '45', '56', '18', '146', '31', '62', '162', '86', '15', '153', '141', '27', '134', '14', '5', '136', '30', '36', '184', '139', '66', '65', '98', '20', '175', '154', '147'] 12354.527559055106
95 247.09055118110237 ['112', '45', '56', '18', '146', '31', '62', '162', '86', '15', '153', '141', '27', '134', '14', '5', '136', '30', '36', '184', '139', '66', '65', '98', '20', '175', '154', '147'] 12354.527559055106
96 247.09055118110237 ['112', '45', '56', '18', '146', '31', '62', '162', '86', '15', '153', '141', '27', '134', '14', '5', '136', '30', '36', '184', '139', '66', '65', '98', '20', '175', '154', '147'] 12354.527559055106
97 247.09055118110237 ['112', '45', '56', '18', '146', '31', '62', '162', '86', '15', '153', '141', '27', '134', '14', '5', '136', '30', '36', '184', '139', '66', '65', '98', '20', '175', '154', '147'] 12354.527559055106
98 247.09055118110237 ['112', '45', '56', '18', '146', '31', '62', '162', '86', '15', '153', '141', '27', '134', '14', '5', '136', '30', '36', '184', '139', '66', '65', '98', '20', '175', '154', '147'] 12354.527559055106
99 247.09055118110237 ['112', '45', '56', '18', '146', '31', '62', '162', '86', '15', '153', '141', '27', '134', '14', '5', '136', '30', '36', '184', '139', '66', '65', '98', '20', '175', '154', '147'] 12354.527559055106
100 247.09055118110237 ['112', '45', '56', '18', '146', '31', '62', '162', '86', '15', '153', '141', '27', '134', '14', '5', '136', '30', '36', '184', '139', '66', '65', '98', '20', '175', '154', '147'] 12354.527559055106
101 247.09055118110237 ['112', '45', '56', '18', '146', '31', '62', '162', '86', '15', '153', '141', '27', '134', '14', '5', '136', '30', '36', '184', '139', '66', '65', '98', '20', '175', '154', '147'] 12354.527559055106
102 247.09055118110237 ['112', '45', '56', '18', '146', '31', '62', '162', '86', '15', '153', '141', '27', '134', '14', '5', '136', '30', '36', '184', '139', '66', '65', '98', '20', '175', '154', '147'] 12354.527559055106
103 247.09055118110237 ['112', '45', '56', '18', '146', '31', '62', '162', '86', '15', '153', '141', '27', '134', '14', '5', '136', '30', '36', '184', '139', '66', '65', '98', '20', '175', '154', '147'] 12354.527559055106
104 247.09055118110237 ['112', '45', '56', '18', '146', '31', '62', '162', '86', '15', '153', '141', '27', '134', '14', '5', '136', '30', '36', '184', '139', '66', '65', '98', '20', '175', '154', '147'] 12354.527559055106
105 247.09055118110237 ['112', '45', '56', '18', '146', '31', '62', '162', '86', '15', '153', '141', '27', '134', '14', '5', '136', '30', '36', '184', '139', '66', '65', '98', '20', '175', '154', '147'] 12354.527559055106
106 247.09055118110237 ['112', '45', '56', '18', '146', '31', '62', '162', '86', '15', '153', '141', '27', '134', '14', '5', '136', '30', '36', '184', '139', '66', '65', '98', '20', '175', '154', '147'] 12354.527559055106
107 247.09055118110237 ['112', '45', '56', '18', '146', '31', '62', '162', '86', '15', '153', '141', '27', '134', '14', '5', '136', '30', '36', '184', '139', '66', '65', '98', '20', '175', '154', '147'] 12354.527559055106
108 247.09055118110237 ['112', '45', '56', '18', '146', '31', '62', '162', '86', '15', '153', '141', '27', '134', '14', '5', '136', '30', '36', '184', '139', '66', '65', '98', '20', '175', '154', '147'] 12354.527559055106
109 247.09055118110237 ['112', '45', '56', '18', '146', '31', '62', '162', '86', '15', '153', '141', '27', '134', '14', '5', '136', '30', '36', '184', '139', '66', '65', '98', '20', '175', '154', '147'] 12354.527559055106
110 247.09055118110237 ['112', '45', '56', '18', '146', '31', '62', '162', '86', '15', '153', '141', '27', '134', '14', '5', '136', '30', '36', '184', '139', '66', '65', '98', '20', '175', '154', '147'] 12354.527559055106
111 247.09055118110237 ['112', '45', '56', '18', '146', '31', '62', '162', '86', '15', '153', '141', '27', '134', '14', '5', '136', '30', '36', '184', '139', '66', '65', '98', '20', '175', '154', '147'] 12354.527559055106
112 247.09055118110237 ['112', '45', '56', '18', '146', '31', '62', '162', '86', '15', '153', '141', '27', '134', '14', '5', '136', '30', '36', '184', '139', '66', '65', '98', '20', '175', '154', '147'] 12354.527559055106
113 247.09055118110237 ['112', '45', '56', '18', '146', '31', '62', '162', '86', '15', '153', '141', '27', '134', '14', '5', '136', '30', '36', '184', '139', '66', '65', '98', '20', '175', '154', '147'] 12354.527559055106
114 247.09055118110237 ['112', '45', '56', '18', '146', '31', '62', '162', '86', '15', '153', '141', '27', '134', '14', '5', '136', '30', '36', '184', '139', '66', '65', '98', '20', '175', '154', '147'] 12354.527559055106
115 247.09055118110237 ['112', '45', '56', '18', '146', '31', '62', '162', '86', '15', '153', '141', '27', '134', '14', '5', '136', '30', '36', '184', '139', '66', '65', '98', '20', '175', '154', '147'] 12354.527559055106
116 247.09055118110237 ['112', '45', '56', '18', '146', '31', '62', '162', '86', '15', '153', '141', '27', '134', '14', '5', '136', '30', '36', '184', '139', '66', '65', '98', '20', '175', '154', '147'] 12354.527559055106
117 247.09055118110237 ['112', '45', '56', '18', '146', '31', '62', '162', '86', '15', '153', '141', '27', '134', '14', '5', '136', '30', '36', '184', '139', '66', '65', '98', '20', '175', '154', '147'] 12354.527559055106
118 247.09055118110237 ['112', '45', '56', '18', '146', '31', '62', '162', '86', '15', '153', '141', '27', '134', '14', '5', '136', '30', '36', '184', '139', '66', '65', '98', '20', '175', '154', '147'] 12354.527559055106
119 247.09055118110237 ['112', '45', '56', '18', '146', '31', '62', '162', '86', '15', '153', '141', '27', '134', '14', '5', '136', '30', '36', '184', '139', '66', '65', '98', '20', '175', '154', '147'] 12354.527559055106
120 247.09055118110237 ['112', '45', '56', '18', '146', '31', '62', '162', '86', '15', '153', '141', '27', '134', '14', '5', '136', '30', '36', '184', '139', '66', '65', '98', '20', '175', '154', '147'] 12354.527559055106
121 247.09055118110237 ['112', '45', '56', '18', '146', '31', '62', '162', '86', '15', '153', '141', '27', '134', '14', '5', '136', '30', '36', '184', '139', '66', '65', '98', '20', '175', '154', '147'] 12354.527559055106
122 247.09055118110237 ['112', '45', '56', '18', '146', '31', '62', '162', '86', '15', '153', '141', '27', '134', '14', '5', '136', '30', '36', '184', '139', '66', '65', '98', '20', '175', '154', '147'] 12354.527559055106
123 247.09055118110237 ['112', '45', '56', '18', '146', '31', '62', '162', '86', '15', '153', '141', '27', '134', '14', '5', '136', '30', '36', '184', '139', '66', '65', '98', '20', '175', '154', '147'] 12354.527559055106
124 247.09055118110237 ['112', '45', '56', '18', '146', '31', '62', '162', '86', '15', '153', '141', '27', '134', '14', '5', '136', '30', '36', '184', '139', '66', '65', '98', '20', '175', '154', '147'] 12354.527559055106
125 247.09055118110237 ['112', '45', '56', '18', '146', '31', '62', '162', '86', '15', '153', '141', '27', '134', '14', '5', '136', '30', '36', '184', '139', '66', '65', '98', '20', '175', '154', '147'] 12354.527559055106
126 247.09055118110237 ['112', '45', '56', '18', '146', '31', '62', '162', '86', '15', '153', '141', '27', '134', '14', '5', '136', '30', '36', '184', '139', '66', '65', '98', '20', '175', '154', '147'] 12354.527559055106
127 247.09055118110237 ['112', '45', '56', '18', '146', '31', '62', '162', '86', '15', '153', '141', '27', '134', '14', '5', '136', '30', '36', '184', '139', '66', '65', '98', '20', '175', '154', '147'] 12354.527559055106
128 247.09055118110237 ['112', '45', '56', '18', '146', '31', '62', '162', '86', '15', '153', '141', '27', '134', '14', '5', '136', '30', '36', '184', '139', '66', '65', '98', '20', '175', '154', '147'] 12354.527559055106
129 247.09055118110237 ['112', '45', '56', '18', '146', '31', '62', '162', '86', '15', '153', '141', '27', '134', '14', '5', '136', '30', '36', '184', '139', '66', '65', '98', '20', '175', '154', '147'] 12354.527559055106
130 247.09055118110237 ['112', '45', '56', '18', '146', '31', '62', '162', '86', '15', '153', '141', '27', '134', '14', '5', '136', '30', '36', '184', '139', '66', '65', '98', '20', '175', '154', '147'] 12354.527559055106
131 247.09055118110237 ['112', '45', '56', '18', '146', '31', '62', '162', '86', '15', '153', '141', '27', '134', '14', '5', '136', '30', '36', '184', '139', '66', '65', '98', '20', '175', '154', '147'] 12354.527559055106
132 247.09055118110237 ['112', '45', '56', '18', '146', '31', '62', '162', '86', '15', '153', '141', '27', '134', '14', '5', '136', '30', '36', '184', '139', '66', '65', '98', '20', '175', '154', '147'] 12354.527559055106
133 247.09055118110237 ['112', '45', '56', '18', '146', '31', '62', '162', '86', '15', '153', '141', '27', '134', '14', '5', '136', '30', '36', '184', '139', '66', '65', '98', '20', '175', '154', '147'] 12354.527559055106
134 247.09055118110237 ['112', '45', '56', '18', '146', '31', '62', '162', '86', '15', '153', '141', '27', '134', '14', '5', '136', '30', '36', '184', '139', '66', '65', '98', '20', '175', '154', '147'] 12354.527559055106
135 247.09055118110237 ['112', '45', '56', '18', '146', '31', '62', '162', '86', '15', '153', '141', '27', '134', '14', '5', '136', '30', '36', '184', '139', '66', '65', '98', '20', '175', '154', '147'] 12354.527559055106
136 247.09055118110237 ['112', '45', '56', '18', '146', '31', '62', '162', '86', '15', '153', '141', '27', '134', '14', '5', '136', '30', '36', '184', '139', '66', '65', '98', '20', '175', '154', '147'] 12354.527559055106
137 247.09055118110237 ['112', '45', '56', '18', '146', '31', '62', '162', '86', '15', '153', '141', '27', '134', '14', '5', '136', '30', '36', '184', '139', '66', '65', '98', '20', '175', '154', '147'] 12354.527559055106
138 247.09055118110237 ['112', '45', '56', '18', '146', '31', '62', '162', '86', '15', '153', '141', '27', '134', '14', '5', '136', '30', '36', '184', '139', '66', '65', '98', '20', '175', '154', '147'] 12354.527559055106
139 247.09055118110237 ['112', '45', '56', '18', '146', '31', '62', '162', '86', '15', '153', '141', '27', '134', '14', '5', '136', '30', '36', '184', '139', '66', '65', '98', '20', '175', '154', '147'] 12354.527559055106
140 247.09055118110237 ['112', '45', '56', '18', '146', '31', '62', '162', '86', '15', '153', '141', '27', '134', '14', '5', '136', '30', '36', '184', '139', '66', '65', '98', '20', '175', '154', '147'] 12354.527559055106
141 247.09055118110237 ['112', '45', '56', '18', '146', '31', '62', '162', '86', '15', '153', '141', '27', '134', '14', '5', '136', '30', '36', '184', '139', '66', '65', '98', '20', '175', '154', '147'] 12354.527559055106
142 247.09055118110237 ['112', '45', '56', '18', '146', '31', '62', '162', '86', '15', '153', '141', '27', '134', '14', '5', '136', '30', '36', '184', '139', '66', '65', '98', '20', '175', '154', '147'] 12354.527559055106
143 247.09055118110237 ['112', '45', '56', '18', '146', '31', '62', '162', '86', '15', '153', '141', '27', '134', '14', '5', '136', '30', '36', '184', '139', '66', '65', '98', '20', '175', '154', '147'] 12354.527559055106
144 247.09055118110237 ['112', '45', '56', '18', '146', '31', '62', '162', '86', '15', '153', '141', '27', '134', '14', '5', '136', '30', '36', '184', '139', '66', '65', '98', '20', '175', '154', '147'] 12354.527559055106
145 247.09055118110237 ['112', '45', '56', '18', '146', '31', '62', '162', '86', '15', '153', '141', '27', '134', '14', '5', '136', '30', '36', '184', '139', '66', '65', '98', '20', '175', '154', '147'] 12354.527559055106
146 247.09055118110237 ['112', '45', '56', '18', '146', '31', '62', '162', '86', '15', '153', '141', '27', '134', '14', '5', '136', '30', '36', '184', '139', '66', '65', '98', '20', '175', '154', '147'] 12354.527559055106
147 247.09055118110237 ['112', '45', '56', '18', '146', '31', '62', '162', '86', '15', '153', '141', '27', '134', '14', '5', '136', '30', '36', '184', '139', '66', '65', '98', '20', '175', '154', '147'] 12354.527559055106
148 247.09055118110237 ['112', '45', '56', '18', '146', '31', '62', '162', '86', '15', '153', '141', '27', '134', '14', '5', '136', '30', '36', '184', '139', '66', '65', '98', '20', '175', '154', '147'] 12354.527559055106
149 247.09055118110237 ['112', '45', '56', '18', '146', '31', '62', '162', '86', '15', '153', '141', '27', '134', '14', '5', '136', '30', '36', '184', '139', '66', '65', '98', '20', '175', '154', '147'] 12354.527559055106
150 247.09055118110237 ['112', '45', '56', '18', '146', '31', '62', '162', '86', '15', '153', '141', '27', '134', '14', '5', '136', '30', '36', '184', '139', '66', '65', '98', '20', '175', '154', '147'] 12354.527559055106
151 247.09055118110237 ['112', '45', '56', '18', '146', '31', '62', '162', '86', '15', '153', '141', '27', '134', '14', '5', '136', '30', '36', '184', '139', '66', '65', '98', '20', '175', '154', '147'] 12354.527559055106
152 247.09055118110237 ['112', '45', '56', '18', '146', '31', '62', '162', '86', '15', '153', '141', '27', '134', '14', '5', '136', '30', '36', '184', '139', '66', '65', '98', '20', '175', '154', '147'] 12354.527559055106
153 247.09055118110237 ['112', '45', '56', '18', '146', '31', '62', '162', '86', '15', '153', '141', '27', '134', '14', '5', '136', '30', '36', '184', '139', '66', '65', '98', '20', '175', '154', '147'] 12354.527559055106
154 247.09055118110237 ['112', '45', '56', '18', '146', '31', '62', '162', '86', '15', '153', '141', '27', '134', '14', '5', '136', '30', '36', '184', '139', '66', '65', '98', '20', '175', '154', '147'] 12354.527559055106
155 247.09055118110237 ['112', '45', '56', '18', '146', '31', '62', '162', '86', '15', '153', '141', '27', '134', '14', '5', '136', '30', '36', '184', '139', '66', '65', '98', '20', '175', '154', '147'] 12354.527559055106
156 247.09055118110237 ['112', '45', '56', '18', '146', '31', '62', '162', '86', '15', '153', '141', '27', '134', '14', '5', '136', '30', '36', '184', '139', '66', '65', '98', '20', '175', '154', '147'] 12354.527559055106
157 247.09055118110237 ['112', '45', '56', '18', '146', '31', '62', '162', '86', '15', '153', '141', '27', '134', '14', '5', '136', '30', '36', '184', '139', '66', '65', '98', '20', '175', '154', '147'] 12354.527559055106
158 247.09055118110237 ['112', '45', '56', '18', '146', '31', '62', '162', '86', '15', '153', '141', '27', '134', '14', '5', '136', '30', '36', '184', '139', '66', '65', '98', '20', '175', '154', '147'] 12354.527559055106
159 247.09055118110237 ['112', '45', '56', '18', '146', '31', '62', '162', '86', '15', '153', '141', '27', '134', '14', '5', '136', '30', '36', '184', '139', '66', '65', '98', '20', '175', '154', '147'] 12354.527559055106
160 247.09055118110237 ['112', '45', '56', '18', '146', '31', '62', '162', '86', '15', '153', '141', '27', '134', '14', '5', '136', '30', '36', '184', '139', '66', '65', '98', '20', '175', '154', '147'] 12354.527559055106
161 247.09055118110237 ['112', '45', '56', '18', '146', '31', '62', '162', '86', '15', '153', '141', '27', '134', '14', '5', '136', '30', '36', '184', '139', '66', '65', '98', '20', '175', '154', '147'] 12354.527559055106
162 247.09055118110237 ['112', '45', '56', '18', '146', '31', '62', '162', '86', '15', '153', '141', '27', '134', '14', '5', '136', '30', '36', '184', '139', '66', '65', '98', '20', '175', '154', '147'] 12354.527559055106
163 247.09055118110237 ['112', '45', '56', '18', '146', '31', '62', '162', '86', '15', '153', '141', '27', '134', '14', '5', '136', '30', '36', '184', '139', '66', '65', '98', '20', '175', '154', '147'] 12354.527559055106
164 247.09055118110237 ['112', '45', '56', '18', '146', '31', '62', '162', '86', '15', '153', '141', '27', '134', '14', '5', '136', '30', '36', '184', '139', '66', '65', '98', '20', '175', '154', '147'] 12354.527559055106
165 247.09055118110237 ['112', '45', '56', '18', '146', '31', '62', '162', '86', '15', '153', '141', '27', '134', '14', '5', '136', '30', '36', '184', '139', '66', '65', '98', '20', '175', '154', '147'] 12354.527559055106
166 247.09055118110237 ['112', '45', '56', '18', '146', '31', '62', '162', '86', '15', '153', '141', '27', '134', '14', '5', '136', '30', '36', '184', '139', '66', '65', '98', '20', '175', '154', '147'] 12354.527559055106
167 247.09055118110237 ['112', '45', '56', '18', '146', '31', '62', '162', '86', '15', '153', '141', '27', '134', '14', '5', '136', '30', '36', '184', '139', '66', '65', '98', '20', '175', '154', '147'] 12354.527559055106
168 247.09055118110237 ['112', '45', '56', '18', '146', '31', '62', '162', '86', '15', '153', '141', '27', '134', '14', '5', '136', '30', '36', '184', '139', '66', '65', '98', '20', '175', '154', '147'] 12354.527559055106
169 247.09055118110237 ['112', '45', '56', '18', '146', '31', '62', '162', '86', '15', '153', '141', '27', '134', '14', '5', '136', '30', '36', '184', '139', '66', '65', '98', '20', '175', '154', '147'] 12354.527559055106
170 247.09055118110237 ['112', '45', '56', '18', '146', '31', '62', '162', '86', '15', '153', '141', '27', '134', '14', '5', '136', '30', '36', '184', '139', '66', '65', '98', '20', '175', '154', '147'] 12354.527559055106
171 247.09055118110237 ['112', '45', '56', '18', '146', '31', '62', '162', '86', '15', '153', '141', '27', '134', '14', '5', '136', '30', '36', '184', '139', '66', '65', '98', '20', '175', '154', '147'] 12354.527559055106
172 247.09055118110237 ['112', '45', '56', '18', '146', '31', '62', '162', '86', '15', '153', '141', '27', '134', '14', '5', '136', '30', '36', '184', '139', '66', '65', '98', '20', '175', '154', '147'] 12354.527559055106
173 247.09055118110237 ['112', '45', '56', '18', '146', '31', '62', '162', '86', '15', '153', '141', '27', '134', '14', '5', '136', '30', '36', '184', '139', '66', '65', '98', '20', '175', '154', '147'] 12354.527559055106
174 247.09055118110237 ['112', '45', '56', '18', '146', '31', '62', '162', '86', '15', '153', '141', '27', '134', '14', '5', '136', '30', '36', '184', '139', '66', '65', '98', '20', '175', '154', '147'] 12354.527559055106
175 247.09055118110237 ['112', '45', '56', '18', '146', '31', '62', '162', '86', '15', '153', '141', '27', '134', '14', '5', '136', '30', '36', '184', '139', '66', '65', '98', '20', '175', '154', '147'] 12354.527559055106
176 247.09055118110237 ['112', '45', '56', '18', '146', '31', '62', '162', '86', '15', '153', '141', '27', '134', '14', '5', '136', '30', '36', '184', '139', '66', '65', '98', '20', '175', '154', '147'] 12354.527559055106
177 247.09055118110237 ['112', '45', '56', '18', '146', '31', '62', '162', '86', '15', '153', '141', '27', '134', '14', '5', '136', '30', '36', '184', '139', '66', '65', '98', '20', '175', '154', '147'] 12354.527559055106
178 247.09055118110237 ['112', '45', '56', '18', '146', '31', '62', '162', '86', '15', '153', '141', '27', '134', '14', '5', '136', '30', '36', '184', '139', '66', '65', '98', '20', '175', '154', '147'] 12354.527559055106
179 247.09055118110237 ['112', '45', '56', '18', '146', '31', '62', '162', '86', '15', '153', '141', '27', '134', '14', '5', '136', '30', '36', '184', '139', '66', '65', '98', '20', '175', '154', '147'] 12354.527559055106
180 247.09055118110237 ['112', '45', '56', '18', '146', '31', '62', '162', '86', '15', '153', '141', '27', '134', '14', '5', '136', '30', '36', '184', '139', '66', '65', '98', '20', '175', '154', '147'] 12354.527559055106
181 247.09055118110237 ['112', '45', '56', '18', '146', '31', '62', '162', '86', '15', '153', '141', '27', '134', '14', '5', '136', '30', '36', '184', '139', '66', '65', '98', '20', '175', '154', '147'] 12354.527559055106
182 247.09055118110237 ['112', '45', '56', '18', '146', '31', '62', '162', '86', '15', '153', '141', '27', '134', '14', '5', '136', '30', '36', '184', '139', '66', '65', '98', '20', '175', '154', '147'] 12354.527559055106
183 247.09055118110237 ['112', '45', '56', '18', '146', '31', '62', '162', '86', '15', '153', '141', '27', '134', '14', '5', '136', '30', '36', '184', '139', '66', '65', '98', '20', '175', '154', '147'] 12354.527559055106
184 247.09055118110237 ['112', '45', '56', '18', '146', '31', '62', '162', '86', '15', '153', '141', '27', '134', '14', '5', '136', '30', '36', '184', '139', '66', '65', '98', '20', '175', '154', '147'] 12354.527559055106
185 247.09055118110237 ['112', '45', '56', '18', '146', '31', '62', '162', '86', '15', '153', '141', '27', '134', '14', '5', '136', '30', '36', '184', '139', '66', '65', '98', '20', '175', '154', '147'] 12354.527559055106
186 247.09055118110237 ['112', '45', '56', '18', '146', '31', '62', '162', '86', '15', '153', '141', '27', '134', '14', '5', '136', '30', '36', '184', '139', '66', '65', '98', '20', '175', '154', '147'] 12354.527559055106
187 247.09055118110237 ['112', '45', '56', '18', '146', '31', '62', '162', '86', '15', '153', '141', '27', '134', '14', '5', '136', '30', '36', '184', '139', '66', '65', '98', '20', '175', '154', '147'] 12354.527559055106
188 247.09055118110237 ['112', '45', '56', '18', '146', '31', '62', '162', '86', '15', '153', '141', '27', '134', '14', '5', '136', '30', '36', '184', '139', '66', '65', '98', '20', '175', '154', '147'] 12354.527559055106
189 247.09055118110237 ['112', '45', '56', '18', '146', '31', '62', '162', '86', '15', '153', '141', '27', '134', '14', '5', '136', '30', '36', '184', '139', '66', '65', '98', '20', '175', '154', '147'] 12354.527559055106
190 247.09055118110237 ['112', '45', '56', '18', '146', '31', '62', '162', '86', '15', '153', '141', '27', '134', '14', '5', '136', '30', '36', '184', '139', '66', '65', '98', '20', '175', '154', '147'] 12354.527559055106
191 247.09055118110237 ['112', '45', '56', '18', '146', '31', '62', '162', '86', '15', '153', '141', '27', '134', '14', '5', '136', '30', '36', '184', '139', '66', '65', '98', '20', '175', '154', '147'] 12354.527559055106
192 247.09055118110237 ['112', '45', '56', '18', '146', '31', '62', '162', '86', '15', '153', '141', '27', '134', '14', '5', '136', '30', '36', '184', '139', '66', '65', '98', '20', '175', '154', '147'] 12354.527559055106
193 247.09055118110237 ['112', '45', '56', '18', '146', '31', '62', '162', '86', '15', '153', '141', '27', '134', '14', '5', '136', '30', '36', '184', '139', '66', '65', '98', '20', '175', '154', '147'] 12354.527559055106
194 247.09055118110237 ['112', '45', '56', '18', '146', '31', '62', '162', '86', '15', '153', '141', '27', '134', '14', '5', '136', '30', '36', '184', '139', '66', '65', '98', '20', '175', '154', '147'] 12354.527559055106
195 247.09055118110237 ['112', '45', '56', '18', '146', '31', '62', '162', '86', '15', '153', '141', '27', '134', '14', '5', '136', '30', '36', '184', '139', '66', '65', '98', '20', '175', '154', '147'] 12354.527559055106
196 247.09055118110237 ['112', '45', '56', '18', '146', '31', '62', '162', '86', '15', '153', '141', '27', '134', '14', '5', '136', '30', '36', '184', '139', '66', '65', '98', '20', '175', '154', '147'] 12354.527559055106
197 247.09055118110237 ['112', '45', '56', '18', '146', '31', '62', '162', '86', '15', '153', '141', '27', '134', '14', '5', '136', '30', '36', '184', '139', '66', '65', '98', '20', '175', '154', '147'] 12354.527559055106
198 247.09055118110237 ['112', '45', '56', '18', '146', '31', '62', '162', '86', '15', '153', '141', '27', '134', '14', '5', '136', '30', '36', '184', '139', '66', '65', '98', '20', '175', '154', '147'] 12354.527559055106
199 247.09055118110237 ['112', '45', '56', '18', '146', '31', '62', '162', '86', '15', '153', '141', '27', '134', '14', '5', '136', '30', '36', '184', '139', '66', '65', '98', '20', '175', '154', '147'] 12354.527559055106
