0 1.1666666666666667 ['22', '8'] 79.6666666666666
1 1.1666666666666667 ['22', '8'] 74.83333333333334
2 1.1666666666666667 ['22', '8'] 67.83333333333334
3 1.1666666666666667 ['22', '8'] 62.000000000000064
4 1.1666666666666667 ['22', '8'] 58.33333333333329
5 1.1666666666666667 ['22', '8'] 58.33333333333329
6 1.1666666666666667 ['22', '8'] 58.33333333333329
7 1.1666666666666667 ['22', '8'] 58.33333333333329
8 1.1666666666666667 ['22', '8'] 58.33333333333329
9 1.1666666666666667 ['22', '8'] 58.33333333333329
10 1.1666666666666667 ['22', '8'] 58.33333333333329
11 1.1666666666666667 ['22', '8'] 58.33333333333329
12 1.1666666666666667 ['22', '8'] 58.33333333333329
13 1.1666666666666667 ['22', '8'] 58.33333333333329
14 1.1666666666666667 ['22', '8'] 58.33333333333329
15 1.1666666666666667 ['22', '8'] 58.33333333333329
16 1.1666666666666667 ['22', '8'] 58.33333333333329
17 1.1666666666666667 ['22', '8'] 58.33333333333329
18 1.1666666666666667 ['22', '8'] 58.33333333333329
19 1.1666666666666667 ['22', '8'] 58.33333333333329
20 1.1666666666666667 ['22', '8'] 58.33333333333329
21 1.1666666666666667 ['22', '8'] 58.33333333333329
22 1.1666666666666667 ['22', '8'] 58.33333333333329
23 1.1666666666666667 ['22', '8'] 58.33333333333329
24 1.1666666666666667 ['22', '8'] 58.33333333333329
25 1.1666666666666667 ['22', '8'] 58.33333333333329
26 1.1666666666666667 ['22', '8'] 58.33333333333329
27 1.1666666666666667 ['22', '8'] 58.33333333333329
28 1.1666666666666667 ['22', '8'] 58.33333333333329
29 1.1666666666666667 ['22', '8'] 58.33333333333329
30 1.1666666666666667 ['22', '8'] 58.33333333333329
31 1.1666666666666667 ['22', '8'] 58.33333333333329
32 1.1666666666666667 ['22', '8'] 58.33333333333329
33 1.1666666666666667 ['22', '8'] 58.33333333333329
34 1.1666666666666667 ['22', '8'] 58.33333333333329
35 1.1666666666666667 ['22', '8'] 58.33333333333329
36 1.1666666666666667 ['22', '8'] 58.33333333333329
37 1.1666666666666667 ['22', '8'] 58.33333333333329
38 1.1666666666666667 ['22', '8'] 58.33333333333329
39 1.1666666666666667 ['22', '8'] 58.33333333333329
40 1.1666666666666667 ['22', '8'] 58.33333333333329
41 1.1666666666666667 ['22', '8'] 58.33333333333329
42 1.1666666666666667 ['22', '8'] 58.33333333333329
43 1.1666666666666667 ['22', '8'] 58.33333333333329
44 1.1666666666666667 ['22', '8'] 58.33333333333329
45 1.1666666666666667 ['22', '8'] 58.33333333333329
46 1.1666666666666667 ['22', '8'] 58.33333333333329
47 1.1666666666666667 ['22', '8'] 58.33333333333329
48 1.1666666666666667 ['22', '8'] 58.33333333333329
49 1.1666666666666667 ['22', '8'] 58.33333333333329
50 1.1666666666666667 ['22', '8'] 58.33333333333329
51 1.1666666666666667 ['22', '8'] 58.33333333333329
52 1.1666666666666667 ['22', '8'] 58.33333333333329
53 1.1666666666666667 ['22', '8'] 58.33333333333329
54 1.1666666666666667 ['22', '8'] 58.33333333333329
55 1.1666666666666667 ['22', '8'] 58.33333333333329
56 1.1666666666666667 ['22', '8'] 58.33333333333329
57 1.1666666666666667 ['22', '8'] 58.33333333333329
58 1.1666666666666667 ['22', '8'] 58.33333333333329
59 1.1666666666666667 ['22', '8'] 58.33333333333329
60 1.1666666666666667 ['22', '8'] 58.33333333333329
61 1.1666666666666667 ['22', '8'] 58.33333333333329
62 1.1666666666666667 ['22', '8'] 58.33333333333329
63 1.1666666666666667 ['22', '8'] 58.33333333333329
64 1.1666666666666667 ['22', '8'] 58.33333333333329
65 1.1666666666666667 ['22', '8'] 58.33333333333329
66 1.1666666666666667 ['22', '8'] 58.33333333333329
67 1.1666666666666667 ['22', '8'] 58.33333333333329
68 1.1666666666666667 ['22', '8'] 58.33333333333329
69 1.1666666666666667 ['22', '8'] 58.33333333333329
70 1.1666666666666667 ['22', '8'] 58.33333333333329
71 1.1666666666666667 ['22', '8'] 58.33333333333329
72 1.1666666666666667 ['22', '8'] 58.33333333333329
73 1.1666666666666667 ['22', '8'] 58.33333333333329
74 1.1666666666666667 ['22', '8'] 58.33333333333329
75 1.1666666666666667 ['22', '8'] 58.33333333333329
76 1.1666666666666667 ['22', '8'] 58.33333333333329
77 1.1666666666666667 ['22', '8'] 58.33333333333329
78 1.1666666666666667 ['22', '8'] 58.33333333333329
79 1.1666666666666667 ['22', '8'] 58.33333333333329
80 1.1666666666666667 ['22', '8'] 58.33333333333329
81 1.1666666666666667 ['22', '8'] 58.33333333333329
82 1.1666666666666667 ['22', '8'] 58.33333333333329
83 1.1666666666666667 ['22', '8'] 58.33333333333329
84 1.1666666666666667 ['22', '8'] 58.33333333333329
85 1.1666666666666667 ['22', '8'] 58.33333333333329
86 1.1666666666666667 ['22', '8'] 58.33333333333329
87 1.1666666666666667 ['22', '8'] 58.33333333333329
88 1.1666666666666667 ['22', '8'] 58.33333333333329
89 1.1666666666666667 ['22', '8'] 58.33333333333329
90 1.1666666666666667 ['22', '8'] 58.33333333333329
91 1.1666666666666667 ['22', '8'] 58.33333333333329
92 1.1666666666666667 ['22', '8'] 58.33333333333329
93 1.1666666666666667 ['22', '8'] 58.33333333333329
94 1.1666666666666667 ['22', '8'] 58.33333333333329
95 1.1666666666666667 ['22', '8'] 58.33333333333329
96 1.1666666666666667 ['22', '8'] 58.33333333333329
97 1.1666666666666667 ['22', '8'] 58.33333333333329
98 1.1666666666666667 ['22', '8'] 58.33333333333329
99 1.1666666666666667 ['22', '8'] 58.33333333333329
100 1.1666666666666667 ['22', '8'] 58.33333333333329
101 1.1666666666666667 ['22', '8'] 58.33333333333329
102 1.1666666666666667 ['22', '8'] 58.33333333333329
103 1.1666666666666667 ['22', '8'] 58.33333333333329
104 1.1666666666666667 ['22', '8'] 58.33333333333329
105 1.1666666666666667 ['22', '8'] 58.33333333333329
106 1.1666666666666667 ['22', '8'] 58.33333333333329
107 1.1666666666666667 ['22', '8'] 58.33333333333329
108 1.1666666666666667 ['22', '8'] 58.33333333333329
109 1.1666666666666667 ['22', '8'] 58.33333333333329
110 1.1666666666666667 ['22', '8'] 58.33333333333329
111 1.1666666666666667 ['22', '8'] 58.33333333333329
112 1.1666666666666667 ['22', '8'] 58.33333333333329
113 1.1666666666666667 ['22', '8'] 58.33333333333329
114 1.1666666666666667 ['22', '8'] 58.33333333333329
115 1.1666666666666667 ['22', '8'] 58.33333333333329
116 1.1666666666666667 ['22', '8'] 58.33333333333329
117 1.1666666666666667 ['22', '8'] 58.33333333333329
118 1.1666666666666667 ['22', '8'] 58.33333333333329
119 1.1666666666666667 ['22', '8'] 58.33333333333329
120 1.1666666666666667 ['22', '8'] 58.33333333333329
121 1.1666666666666667 ['22', '8'] 58.33333333333329
122 1.1666666666666667 ['22', '8'] 58.33333333333329
123 1.1666666666666667 ['22', '8'] 58.33333333333329
124 1.1666666666666667 ['22', '8'] 58.33333333333329
125 1.1666666666666667 ['22', '8'] 58.33333333333329
126 1.1666666666666667 ['22', '8'] 58.33333333333329
127 1.1666666666666667 ['22', '8'] 58.33333333333329
128 1.1666666666666667 ['22', '8'] 58.33333333333329
129 1.1666666666666667 ['22', '8'] 58.33333333333329
130 1.1666666666666667 ['22', '8'] 58.33333333333329
131 1.1666666666666667 ['22', '8'] 58.33333333333329
132 1.1666666666666667 ['22', '8'] 58.33333333333329
133 1.1666666666666667 ['22', '8'] 58.33333333333329
134 1.1666666666666667 ['22', '8'] 58.33333333333329
135 1.1666666666666667 ['22', '8'] 58.33333333333329
136 1.1666666666666667 ['22', '8'] 58.33333333333329
137 1.1666666666666667 ['22', '8'] 58.33333333333329
138 1.1666666666666667 ['22', '8'] 58.33333333333329
139 1.1666666666666667 ['22', '8'] 58.33333333333329
140 1.1666666666666667 ['22', '8'] 58.33333333333329
141 1.1666666666666667 ['22', '8'] 58.33333333333329
142 1.1666666666666667 ['22', '8'] 58.33333333333329
143 1.1666666666666667 ['22', '8'] 58.33333333333329
144 1.1666666666666667 ['22', '8'] 58.33333333333329
145 1.1666666666666667 ['22', '8'] 58.33333333333329
146 1.1666666666666667 ['22', '8'] 58.33333333333329
147 1.1666666666666667 ['22', '8'] 58.33333333333329
148 1.1666666666666667 ['22', '8'] 58.33333333333329
149 1.1666666666666667 ['22', '8'] 58.33333333333329
150 1.1666666666666667 ['22', '8'] 58.33333333333329
151 1.1666666666666667 ['22', '8'] 58.33333333333329
152 1.1666666666666667 ['22', '8'] 58.33333333333329
153 1.1666666666666667 ['22', '8'] 58.33333333333329
154 1.1666666666666667 ['22', '8'] 58.33333333333329
155 1.1666666666666667 ['22', '8'] 58.33333333333329
156 1.1666666666666667 ['22', '8'] 58.33333333333329
157 1.1666666666666667 ['22', '8'] 58.33333333333329
158 1.1666666666666667 ['22', '8'] 58.33333333333329
159 1.1666666666666667 ['22', '8'] 58.33333333333329
160 1.1666666666666667 ['22', '8'] 58.33333333333329
161 1.1666666666666667 ['22', '8'] 58.33333333333329
162 1.1666666666666667 ['22', '8'] 58.33333333333329
163 1.1666666666666667 ['22', '8'] 58.33333333333329
164 1.1666666666666667 ['22', '8'] 58.33333333333329
165 1.1666666666666667 ['22', '8'] 58.33333333333329
166 1.1666666666666667 ['22', '8'] 58.33333333333329
167 1.1666666666666667 ['22', '8'] 58.33333333333329
168 1.1666666666666667 ['22', '8'] 58.33333333333329
169 1.1666666666666667 ['22', '8'] 58.33333333333329
170 1.1666666666666667 ['22', '8'] 58.33333333333329
171 1.1666666666666667 ['22', '8'] 58.33333333333329
172 1.1666666666666667 ['22', '8'] 58.33333333333329
173 1.1666666666666667 ['22', '8'] 58.33333333333329
174 1.1666666666666667 ['22', '8'] 58.33333333333329
175 1.1666666666666667 ['22', '8'] 58.33333333333329
176 1.1666666666666667 ['22', '8'] 58.33333333333329
177 1.1666666666666667 ['22', '8'] 58.33333333333329
178 1.1666666666666667 ['22', '8'] 58.33333333333329
179 1.1666666666666667 ['22', '8'] 58.33333333333329
180 1.1666666666666667 ['22', '8'] 58.33333333333329
181 1.1666666666666667 ['22', '8'] 58.33333333333329
182 1.1666666666666667 ['22', '8'] 58.33333333333329
183 1.1666666666666667 ['22', '8'] 58.33333333333329
184 1.1666666666666667 ['22', '8'] 58.33333333333329
185 1.1666666666666667 ['22', '8'] 58.33333333333329
186 1.1666666666666667 ['22', '8'] 58.33333333333329
187 1.1666666666666667 ['22', '8'] 58.33333333333329
188 1.1666666666666667 ['22', '8'] 58.33333333333329
189 1.1666666666666667 ['22', '8'] 58.33333333333329
190 1.1666666666666667 ['22', '8'] 58.33333333333329
191 1.1666666666666667 ['22', '8'] 58.33333333333329
192 1.1666666666666667 ['22', '8'] 58.33333333333329
193 1.1666666666666667 ['22', '8'] 58.33333333333329
194 1.1666666666666667 ['22', '8'] 58.33333333333329
195 1.1666666666666667 ['22', '8'] 58.33333333333329
196 1.1666666666666667 ['22', '8'] 58.33333333333329
197 1.1666666666666667 ['22', '8'] 58.33333333333329
198 1.1666666666666667 ['22', '8'] 58.33333333333329
199 1.1666666666666667 ['22', '8'] 58.33333333333329
