0 145.17543859649123 ['20', '51', '29', '4', '15', '5'] 7623.842105263158
1 143.64912280701753 ['10', '8', '57', '30', '37', '5'] 7479.631578947365
2 139.9298245614035 ['8', '41', '48', '10', '62', '5'] 7360.508771929827
3 137.78947368421052 ['4', '51', '5', '29', '10', '8'] 7247.736842105262
4 137.78947368421052 ['4', '51', '5', '29', '10', '8'] 7151.736842105264
5 136.33333333333334 ['51', '38', '41', '5', '8', '29'] 7053.368421052632
6 135.0 ['51', '8', '29', '43', '5', '10'] 6962.385964912282
7 134.17543859649123 ['5', '62', '8', '53', '10', '29'] 6877.578947368421
8 133.98245614035088 ['41', '5', '29', '51', '62', '8'] 6805.421052631578
9 133.7719298245614 ['5', '8', '29', '10', '43', '62'] 6755.64912280702
10 133.7719298245614 ['5', '8', '29', '10', '43', '62'] 6723.736842105262
11 133.7719298245614 ['5', '8', '29', '10', '43', '62'] 6710.263157894741
12 133.7719298245614 ['5', '8', '29', '10', '43', '62'] 6695.894736842109
13 133.7719298245614 ['5', '8', '29', '10', '43', '62'] 6692.526315789469
14 133.7719298245614 ['5', '8', '29', '10', '43', '62'] 6691.543859649115
15 133.7719298245614 ['5', '8', '29', '10', '43', '62'] 6690.912280701746
16 133.7719298245614 ['5', '8', '29', '10', '43', '62'] 6689.789473684204
17 133.7719298245614 ['5', '8', '29', '10', '43', '62'] 6688.596491228065
18 133.7719298245614 ['5', '8', '29', '10', '43', '62'] 6688.596491228065
19 133.7719298245614 ['5', '8', '29', '10', '43', '62'] 6688.596491228065
20 133.7719298245614 ['5', '8', '29', '10', '43', '62'] 6688.596491228065
21 133.7719298245614 ['5', '8', '29', '10', '43', '62'] 6688.596491228065
22 133.7719298245614 ['5', '8', '29', '10', '43', '62'] 6688.596491228065
23 133.7719298245614 ['5', '8', '29', '10', '43', '62'] 6688.596491228065
24 133.7719298245614 ['5', '8', '29', '10', '43', '62'] 6688.596491228065
25 133.7719298245614 ['5', '8', '29', '10', '43', '62'] 6688.596491228065
26 133.7719298245614 ['5', '8', '29', '10', '43', '62'] 6688.596491228065
27 133.7719298245614 ['5', '8', '29', '10', '43', '62'] 6688.596491228065
28 133.7719298245614 ['5', '8', '29', '10', '43', '62'] 6688.596491228065
29 133.7719298245614 ['5', '8', '29', '10', '43', '62'] 6688.596491228065
30 133.7719298245614 ['5', '8', '29', '10', '43', '62'] 6688.596491228065
31 133.7719298245614 ['5', '8', '29', '10', '43', '62'] 6688.596491228065
32 133.7719298245614 ['5', '8', '29', '10', '43', '62'] 6688.596491228065
33 133.7719298245614 ['5', '8', '29', '10', '43', '62'] 6688.596491228065
34 133.7719298245614 ['5', '8', '29', '10', '43', '62'] 6688.596491228065
35 133.7719298245614 ['5', '8', '29', '10', '43', '62'] 6688.596491228065
36 133.7719298245614 ['5', '8', '29', '10', '43', '62'] 6688.596491228065
37 133.7719298245614 ['5', '8', '29', '10', '43', '62'] 6688.596491228065
38 133.7719298245614 ['5', '8', '29', '10', '43', '62'] 6688.596491228065
39 133.7719298245614 ['5', '8', '29', '10', '43', '62'] 6688.596491228065
40 133.7719298245614 ['5', '8', '29', '10', '43', '62'] 6688.596491228065
41 133.7719298245614 ['5', '8', '29', '10', '43', '62'] 6688.596491228065
42 133.7719298245614 ['5', '8', '29', '10', '43', '62'] 6688.596491228065
43 133.7719298245614 ['5', '8', '29', '10', '43', '62'] 6688.596491228065
44 133.7719298245614 ['5', '8', '29', '10', '43', '62'] 6688.596491228065
45 133.7719298245614 ['5', '8', '29', '10', '43', '62'] 6688.596491228065
46 133.7719298245614 ['5', '8', '29', '10', '43', '62'] 6688.596491228065
47 133.7719298245614 ['5', '8', '29', '10', '43', '62'] 6688.596491228065
48 133.7719298245614 ['5', '8', '29', '10', '43', '62'] 6688.596491228065
49 133.7719298245614 ['5', '8', '29', '10', '43', '62'] 6688.596491228065
50 133.7719298245614 ['5', '8', '29', '10', '43', '62'] 6688.596491228065
51 133.7719298245614 ['5', '8', '29', '10', '43', '62'] 6688.596491228065
52 133.7719298245614 ['5', '8', '29', '10', '43', '62'] 6688.596491228065
53 133.7719298245614 ['5', '8', '29', '10', '43', '62'] 6688.596491228065
54 133.7719298245614 ['5', '8', '29', '10', '43', '62'] 6688.596491228065
55 133.7719298245614 ['5', '8', '29', '10', '43', '62'] 6688.596491228065
56 133.7719298245614 ['5', '8', '29', '10', '43', '62'] 6688.596491228065
57 133.7719298245614 ['5', '8', '29', '10', '43', '62'] 6688.596491228065
58 133.7719298245614 ['5', '8', '29', '10', '43', '62'] 6688.596491228065
59 133.7719298245614 ['5', '8', '29', '10', '43', '62'] 6688.596491228065
60 133.7719298245614 ['5', '8', '29', '10', '43', '62'] 6688.596491228065
61 133.7719298245614 ['5', '8', '29', '10', '43', '62'] 6688.596491228065
62 133.7719298245614 ['5', '8', '29', '10', '43', '62'] 6688.596491228065
63 133.7719298245614 ['5', '8', '29', '10', '43', '62'] 6688.596491228065
64 133.7719298245614 ['5', '8', '29', '10', '43', '62'] 6688.596491228065
65 133.7719298245614 ['5', '8', '29', '10', '43', '62'] 6688.596491228065
66 133.7719298245614 ['5', '8', '29', '10', '43', '62'] 6688.596491228065
67 133.7719298245614 ['5', '8', '29', '10', '43', '62'] 6688.596491228065
68 133.7719298245614 ['5', '8', '29', '10', '43', '62'] 6688.596491228065
69 133.7719298245614 ['5', '8', '29', '10', '43', '62'] 6688.596491228065
70 133.7719298245614 ['5', '8', '29', '10', '43', '62'] 6688.596491228065
71 133.7719298245614 ['5', '8', '29', '10', '43', '62'] 6688.596491228065
72 133.7719298245614 ['5', '8', '29', '10', '43', '62'] 6688.596491228065
73 133.7719298245614 ['5', '8', '29', '10', '43', '62'] 6688.596491228065
74 133.7719298245614 ['5', '8', '29', '10', '43', '62'] 6688.596491228065
75 133.7719298245614 ['5', '8', '29', '10', '43', '62'] 6688.596491228065
76 133.7719298245614 ['5', '8', '29', '10', '43', '62'] 6688.596491228065
77 133.7719298245614 ['5', '8', '29', '10', '43', '62'] 6688.596491228065
78 133.7719298245614 ['5', '8', '29', '10', '43', '62'] 6688.596491228065
79 133.7719298245614 ['5', '8', '29', '10', '43', '62'] 6688.596491228065
80 133.7719298245614 ['5', '8', '29', '10', '43', '62'] 6688.596491228065
81 133.7719298245614 ['5', '8', '29', '10', '43', '62'] 6688.596491228065
82 133.7719298245614 ['5', '8', '29', '10', '43', '62'] 6688.596491228065
83 133.7719298245614 ['5', '8', '29', '10', '43', '62'] 6688.596491228065
84 133.7719298245614 ['5', '8', '29', '10', '43', '62'] 6688.596491228065
85 133.7719298245614 ['5', '8', '29', '10', '43', '62'] 6688.596491228065
86 133.7719298245614 ['5', '8', '29', '10', '43', '62'] 6688.596491228065
87 133.7719298245614 ['5', '8', '29', '10', '43', '62'] 6688.596491228065
88 133.7719298245614 ['5', '8', '29', '10', '43', '62'] 6688.596491228065
89 133.7719298245614 ['5', '8', '29', '10', '43', '62'] 6688.596491228065
90 133.7719298245614 ['5', '8', '29', '10', '43', '62'] 6688.596491228065
91 133.7719298245614 ['5', '8', '29', '10', '43', '62'] 6688.596491228065
92 133.7719298245614 ['5', '8', '29', '10', '43', '62'] 6688.596491228065
93 133.7719298245614 ['5', '8', '29', '10', '43', '62'] 6688.596491228065
94 133.7719298245614 ['5', '8', '29', '10', '43', '62'] 6688.596491228065
95 133.7719298245614 ['5', '8', '29', '10', '43', '62'] 6688.596491228065
96 133.7719298245614 ['5', '8', '29', '10', '43', '62'] 6688.596491228065
97 133.7719298245614 ['5', '8', '29', '10', '43', '62'] 6688.596491228065
98 133.7719298245614 ['5', '8', '29', '10', '43', '62'] 6688.596491228065
99 133.7719298245614 ['5', '8', '29', '10', '43', '62'] 6688.596491228065
100 133.7719298245614 ['5', '8', '29', '10', '43', '62'] 6688.596491228065
101 133.7719298245614 ['5', '8', '29', '10', '43', '62'] 6688.596491228065
102 133.7719298245614 ['5', '8', '29', '10', '43', '62'] 6688.596491228065
103 133.7719298245614 ['5', '8', '29', '10', '43', '62'] 6688.596491228065
104 133.7719298245614 ['5', '8', '29', '10', '43', '62'] 6688.596491228065
105 133.7719298245614 ['5', '8', '29', '10', '43', '62'] 6688.596491228065
106 133.7719298245614 ['5', '8', '29', '10', '43', '62'] 6688.596491228065
107 133.7719298245614 ['5', '8', '29', '10', '43', '62'] 6688.596491228065
108 133.7719298245614 ['5', '8', '29', '10', '43', '62'] 6688.596491228065
109 133.7719298245614 ['5', '8', '29', '10', '43', '62'] 6688.596491228065
110 133.7719298245614 ['5', '8', '29', '10', '43', '62'] 6688.596491228065
111 133.7719298245614 ['5', '8', '29', '10', '43', '62'] 6688.596491228065
112 133.7719298245614 ['5', '8', '29', '10', '43', '62'] 6688.596491228065
113 133.7719298245614 ['5', '8', '29', '10', '43', '62'] 6688.596491228065
114 133.7719298245614 ['5', '8', '29', '10', '43', '62'] 6688.596491228065
115 133.7719298245614 ['5', '8', '29', '10', '43', '62'] 6688.596491228065
116 133.7719298245614 ['5', '8', '29', '10', '43', '62'] 6688.596491228065
117 133.7719298245614 ['5', '8', '29', '10', '43', '62'] 6688.596491228065
118 133.7719298245614 ['5', '8', '29', '10', '43', '62'] 6688.596491228065
119 133.7719298245614 ['5', '8', '29', '10', '43', '62'] 6688.596491228065
120 133.7719298245614 ['5', '8', '29', '10', '43', '62'] 6688.596491228065
121 133.7719298245614 ['5', '8', '29', '10', '43', '62'] 6688.596491228065
122 133.7719298245614 ['5', '8', '29', '10', '43', '62'] 6688.596491228065
123 133.7719298245614 ['5', '8', '29', '10', '43', '62'] 6688.596491228065
124 133.7719298245614 ['5', '8', '29', '10', '43', '62'] 6688.596491228065
125 133.7719298245614 ['5', '8', '29', '10', '43', '62'] 6688.596491228065
126 133.7719298245614 ['5', '8', '29', '10', '43', '62'] 6688.596491228065
127 133.7719298245614 ['5', '8', '29', '10', '43', '62'] 6688.596491228065
128 133.7719298245614 ['5', '8', '29', '10', '43', '62'] 6688.596491228065
129 133.7719298245614 ['5', '8', '29', '10', '43', '62'] 6688.596491228065
130 133.7719298245614 ['5', '8', '29', '10', '43', '62'] 6688.596491228065
131 133.7719298245614 ['5', '8', '29', '10', '43', '62'] 6688.596491228065
132 133.7719298245614 ['5', '8', '29', '10', '43', '62'] 6688.596491228065
133 133.7719298245614 ['5', '8', '29', '10', '43', '62'] 6688.596491228065
134 133.7719298245614 ['5', '8', '29', '10', '43', '62'] 6688.596491228065
135 133.7719298245614 ['5', '8', '29', '10', '43', '62'] 6688.596491228065
136 133.7719298245614 ['5', '8', '29', '10', '43', '62'] 6688.596491228065
137 133.7719298245614 ['5', '8', '29', '10', '43', '62'] 6688.596491228065
138 133.7719298245614 ['5', '8', '29', '10', '43', '62'] 6688.596491228065
139 133.7719298245614 ['5', '8', '29', '10', '43', '62'] 6688.596491228065
140 133.7719298245614 ['5', '8', '29', '10', '43', '62'] 6688.596491228065
141 133.7719298245614 ['5', '8', '29', '10', '43', '62'] 6688.596491228065
142 133.7719298245614 ['5', '8', '29', '10', '43', '62'] 6688.596491228065
143 133.7719298245614 ['5', '8', '29', '10', '43', '62'] 6688.596491228065
144 133.7719298245614 ['5', '8', '29', '10', '43', '62'] 6688.596491228065
145 133.7719298245614 ['5', '8', '29', '10', '43', '62'] 6688.596491228065
146 133.7719298245614 ['5', '8', '29', '10', '43', '62'] 6688.596491228065
147 133.7719298245614 ['5', '8', '29', '10', '43', '62'] 6688.596491228065
148 133.7719298245614 ['5', '8', '29', '10', '43', '62'] 6688.596491228065
149 133.7719298245614 ['5', '8', '29', '10', '43', '62'] 6688.596491228065
150 133.7719298245614 ['5', '8', '29', '10', '43', '62'] 6688.596491228065
151 133.7719298245614 ['5', '8', '29', '10', '43', '62'] 6688.596491228065
152 133.7719298245614 ['5', '8', '29', '10', '43', '62'] 6688.596491228065
153 133.7719298245614 ['5', '8', '29', '10', '43', '62'] 6688.596491228065
154 133.7719298245614 ['5', '8', '29', '10', '43', '62'] 6688.596491228065
155 133.7719298245614 ['5', '8', '29', '10', '43', '62'] 6688.596491228065
156 133.7719298245614 ['5', '8', '29', '10', '43', '62'] 6688.596491228065
157 133.7719298245614 ['5', '8', '29', '10', '43', '62'] 6688.596491228065
158 133.7719298245614 ['5', '8', '29', '10', '43', '62'] 6688.596491228065
159 133.7719298245614 ['5', '8', '29', '10', '43', '62'] 6688.596491228065
160 133.7719298245614 ['5', '8', '29', '10', '43', '62'] 6688.596491228065
161 133.7719298245614 ['5', '8', '29', '10', '43', '62'] 6688.596491228065
162 133.7719298245614 ['5', '8', '29', '10', '43', '62'] 6688.596491228065
163 133.7719298245614 ['5', '8', '29', '10', '43', '62'] 6688.596491228065
164 133.7719298245614 ['5', '8', '29', '10', '43', '62'] 6688.596491228065
165 133.7719298245614 ['5', '8', '29', '10', '43', '62'] 6688.596491228065
166 133.7719298245614 ['5', '8', '29', '10', '43', '62'] 6688.596491228065
167 133.7719298245614 ['5', '8', '29', '10', '43', '62'] 6688.596491228065
168 133.7719298245614 ['5', '8', '29', '10', '43', '62'] 6688.596491228065
169 133.7719298245614 ['5', '8', '29', '10', '43', '62'] 6688.596491228065
170 133.7719298245614 ['5', '8', '29', '10', '43', '62'] 6688.596491228065
171 133.7719298245614 ['5', '8', '29', '10', '43', '62'] 6688.596491228065
172 133.7719298245614 ['5', '8', '29', '10', '43', '62'] 6688.596491228065
173 133.7719298245614 ['5', '8', '29', '10', '43', '62'] 6688.596491228065
174 133.7719298245614 ['5', '8', '29', '10', '43', '62'] 6688.596491228065
175 133.7719298245614 ['5', '8', '29', '10', '43', '62'] 6688.596491228065
176 133.7719298245614 ['5', '8', '29', '10', '43', '62'] 6688.596491228065
177 133.7719298245614 ['5', '8', '29', '10', '43', '62'] 6688.596491228065
178 133.7719298245614 ['5', '8', '29', '10', '43', '62'] 6688.596491228065
179 133.7719298245614 ['5', '8', '29', '10', '43', '62'] 6688.596491228065
180 133.7719298245614 ['5', '8', '29', '10', '43', '62'] 6688.596491228065
181 133.7719298245614 ['5', '8', '29', '10', '43', '62'] 6688.596491228065
182 133.7719298245614 ['5', '8', '29', '10', '43', '62'] 6688.596491228065
183 133.7719298245614 ['5', '8', '29', '10', '43', '62'] 6688.596491228065
184 133.7719298245614 ['5', '8', '29', '10', '43', '62'] 6688.596491228065
185 133.7719298245614 ['5', '8', '29', '10', '43', '62'] 6688.596491228065
186 133.7719298245614 ['5', '8', '29', '10', '43', '62'] 6688.596491228065
187 133.7719298245614 ['5', '8', '29', '10', '43', '62'] 6688.596491228065
188 133.7719298245614 ['5', '8', '29', '10', '43', '62'] 6688.596491228065
189 133.7719298245614 ['5', '8', '29', '10', '43', '62'] 6688.596491228065
190 133.7719298245614 ['5', '8', '29', '10', '43', '62'] 6688.596491228065
191 133.7719298245614 ['5', '8', '29', '10', '43', '62'] 6688.596491228065
192 133.7719298245614 ['5', '8', '29', '10', '43', '62'] 6688.596491228065
193 133.7719298245614 ['5', '8', '29', '10', '43', '62'] 6688.596491228065
194 133.7719298245614 ['5', '8', '29', '10', '43', '62'] 6688.596491228065
195 133.7719298245614 ['5', '8', '29', '10', '43', '62'] 6688.596491228065
196 133.7719298245614 ['5', '8', '29', '10', '43', '62'] 6688.596491228065
197 133.7719298245614 ['5', '8', '29', '10', '43', '62'] 6688.596491228065
198 133.7719298245614 ['5', '8', '29', '10', '43', '62'] 6688.596491228065
199 133.7719298245614 ['5', '8', '29', '10', '43', '62'] 6688.596491228065
