0 5.389259259259259 ['67', '125', '97', '18', '140', '148', '126', '10', '73', '31', '58', '127', '104', '105', '59'] 273.716913580247
1 5.377530864197529 ['8', '101', '112', '107', '126', '85', '72', '13', '130', '131', '56', '125', '58', '90', '57'] 272.86987654320995
2 5.36814814814815 ['8', '142', '7', '97', '127', '29', '55', '2', '83', '122', '85', '125', '115', '101', '150'] 272.2309876543209
3 5.36814814814815 ['8', '142', '7', '97', '127', '29', '55', '2', '83', '122', '85', '125', '115', '101', '150'] 271.76814814814816
4 5.365679012345679 ['85', '57', '115', '103', '131', '29', '13', '119', '56', '150', '6', '126', '15', '58', '148'] 271.18703703703704
5 5.361358024691359 ['4', '126', '32', '135', '36', '143', '82', '38', '148', '145', '69', '93', '56', '46', '81'] 270.57938271604945
6 5.347901234567901 ['6', '47', '139', '126', '145', '57', '103', '101', '119', '85', '115', '148', '15', '131', '150'] 269.86234567901226
7 5.347901234567901 ['6', '47', '139', '126', '145', '57', '103', '101', '119', '85', '115', '148', '15', '131', '150'] 269.319012345679
8 5.317407407407405 ['85', '125', '127', '28', '131', '130', '148', '126', '107', '139', '32', '53', '97', '8', '56'] 268.8024691358025
9 5.309382716049383 ['58', '105', '10', '126', '85', '125', '127', '104', '148', '73', '131', '139', '52', '46', '13'] 268.3293827160494
10 5.309382716049383 ['58', '105', '10', '126', '85', '125', '127', '104', '148', '73', '131', '139', '52', '46', '13'] 267.81197530864193
11 5.292962962962964 ['97', '8', '127', '115', '143', '85', '142', '130', '93', '36', '112', '148', '145', '55', '101'] 267.30382716049377
12 5.279876543209876 ['85', '125', '142', '8', '97', '118', '126', '56', '18', '148', '131', '144', '139', '145', '103'] 266.8991358024691
13 5.2791358024691375 ['131', '80', '148', '139', '118', '97', '53', '142', '150', '125', '6', '32', '143', '28', '126'] 266.40000000000003
14 5.243086419753089 ['148', '139', '131', '97', '126', '28', '143', '80', '150', '103', '32', '85', '125', '56', '6'] 265.76395061728397
15 5.208765432098768 ['131', '103', '56', '148', '85', '125', '139', '97', '126', '6', '150', '143', '8', '115', '145'] 264.6585185185186
16 5.208765432098768 ['131', '103', '56', '148', '85', '125', '139', '97', '126', '6', '150', '143', '8', '115', '145'] 263.5914814814815
17 5.172592592592593 ['139', '142', '126', '36', '145', '85', '8', '131', '148', '97', '125', '58', '112', '56', '143'] 262.64086419753085
18 5.172592592592593 ['139', '142', '126', '36', '145', '85', '8', '131', '148', '97', '125', '58', '112', '56', '143'] 261.6271604938272
19 5.153827160493828 ['148', '85', '143', '139', '6', '150', '103', '97', '56', '126', '131', '125', '58', '145', '142'] 260.8986419753087
20 5.153827160493828 ['148', '85', '143', '139', '6', '150', '103', '97', '56', '126', '131', '125', '58', '145', '142'] 260.29555555555567
21 5.153827160493828 ['148', '85', '143', '139', '6', '150', '103', '97', '56', '126', '131', '125', '58', '145', '142'] 259.75876543209887
22 5.153827160493828 ['148', '85', '143', '139', '6', '150', '103', '97', '56', '126', '131', '125', '58', '145', '142'] 259.345061728395
23 5.135925925925926 ['85', '125', '139', '131', '145', '126', '150', '142', '56', '148', '143', '58', '32', '80', '112'] 258.8593827160494
24 5.126419753086421 ['80', '150', '148', '56', '139', '112', '145', '126', '143', '131', '125', '85', '142', '32', '103'] 258.5440740740742
25 5.126419753086421 ['80', '150', '148', '56', '139', '112', '145', '126', '143', '131', '125', '85', '142', '32', '103'] 257.9975308641977
26 5.126419753086421 ['80', '150', '148', '56', '139', '112', '145', '126', '143', '131', '125', '85', '142', '32', '103'] 257.3376543209875
27 5.126419753086421 ['80', '150', '148', '56', '139', '112', '145', '126', '143', '131', '125', '85', '142', '32', '103'] 256.9472839506173
28 5.126419753086421 ['80', '150', '148', '56', '139', '112', '145', '126', '143', '131', '125', '85', '142', '32', '103'] 256.48864197530884
29 5.126419753086421 ['80', '150', '148', '56', '139', '112', '145', '126', '143', '131', '125', '85', '142', '32', '103'] 256.32098765432113
30 5.126419753086421 ['80', '150', '148', '56', '139', '112', '145', '126', '143', '131', '125', '85', '142', '32', '103'] 256.32098765432113
31 5.126419753086421 ['80', '150', '148', '56', '139', '112', '145', '126', '143', '131', '125', '85', '142', '32', '103'] 256.32098765432113
32 5.126419753086421 ['80', '150', '148', '56', '139', '112', '145', '126', '143', '131', '125', '85', '142', '32', '103'] 256.32098765432113
33 5.126419753086421 ['80', '150', '148', '56', '139', '112', '145', '126', '143', '131', '125', '85', '142', '32', '103'] 256.32098765432113
34 5.126419753086421 ['80', '150', '148', '56', '139', '112', '145', '126', '143', '131', '125', '85', '142', '32', '103'] 256.32098765432113
35 5.126419753086421 ['80', '150', '148', '56', '139', '112', '145', '126', '143', '131', '125', '85', '142', '32', '103'] 256.32098765432113
36 5.126419753086421 ['80', '150', '148', '56', '139', '112', '145', '126', '143', '131', '125', '85', '142', '32', '103'] 256.32098765432113
37 5.126419753086421 ['80', '150', '148', '56', '139', '112', '145', '126', '143', '131', '125', '85', '142', '32', '103'] 256.32098765432113
38 5.126419753086421 ['80', '150', '148', '56', '139', '112', '145', '126', '143', '131', '125', '85', '142', '32', '103'] 256.32098765432113
39 5.126419753086421 ['80', '150', '148', '56', '139', '112', '145', '126', '143', '131', '125', '85', '142', '32', '103'] 256.32098765432113
40 5.126419753086421 ['80', '150', '148', '56', '139', '112', '145', '126', '143', '131', '125', '85', '142', '32', '103'] 256.32098765432113
41 5.126419753086421 ['80', '150', '148', '56', '139', '112', '145', '126', '143', '131', '125', '85', '142', '32', '103'] 256.32098765432113
42 5.126419753086421 ['80', '150', '148', '56', '139', '112', '145', '126', '143', '131', '125', '85', '142', '32', '103'] 256.32098765432113
43 5.126419753086421 ['80', '150', '148', '56', '139', '112', '145', '126', '143', '131', '125', '85', '142', '32', '103'] 256.32098765432113
44 5.126419753086421 ['80', '150', '148', '56', '139', '112', '145', '126', '143', '131', '125', '85', '142', '32', '103'] 256.32098765432113
45 5.126419753086421 ['80', '150', '148', '56', '139', '112', '145', '126', '143', '131', '125', '85', '142', '32', '103'] 256.32098765432113
46 5.126419753086421 ['80', '150', '148', '56', '139', '112', '145', '126', '143', '131', '125', '85', '142', '32', '103'] 256.32098765432113
47 5.126419753086421 ['80', '150', '148', '56', '139', '112', '145', '126', '143', '131', '125', '85', '142', '32', '103'] 256.32098765432113
48 5.126419753086421 ['80', '150', '148', '56', '139', '112', '145', '126', '143', '131', '125', '85', '142', '32', '103'] 256.32098765432113
49 5.126419753086421 ['80', '150', '148', '56', '139', '112', '145', '126', '143', '131', '125', '85', '142', '32', '103'] 256.32098765432113
50 5.126419753086421 ['80', '150', '148', '56', '139', '112', '145', '126', '143', '131', '125', '85', '142', '32', '103'] 256.32098765432113
51 5.126419753086421 ['80', '150', '148', '56', '139', '112', '145', '126', '143', '131', '125', '85', '142', '32', '103'] 256.32098765432113
52 5.126419753086421 ['80', '150', '148', '56', '139', '112', '145', '126', '143', '131', '125', '85', '142', '32', '103'] 256.32098765432113
53 5.126419753086421 ['80', '150', '148', '56', '139', '112', '145', '126', '143', '131', '125', '85', '142', '32', '103'] 256.32098765432113
54 5.126419753086421 ['80', '150', '148', '56', '139', '112', '145', '126', '143', '131', '125', '85', '142', '32', '103'] 256.32098765432113
55 5.126419753086421 ['80', '150', '148', '56', '139', '112', '145', '126', '143', '131', '125', '85', '142', '32', '103'] 256.32098765432113
56 5.126419753086421 ['80', '150', '148', '56', '139', '112', '145', '126', '143', '131', '125', '85', '142', '32', '103'] 256.32098765432113
57 5.126419753086421 ['80', '150', '148', '56', '139', '112', '145', '126', '143', '131', '125', '85', '142', '32', '103'] 256.32098765432113
58 5.126419753086421 ['80', '150', '148', '56', '139', '112', '145', '126', '143', '131', '125', '85', '142', '32', '103'] 256.32098765432113
59 5.126419753086421 ['80', '150', '148', '56', '139', '112', '145', '126', '143', '131', '125', '85', '142', '32', '103'] 256.32098765432113
60 5.126419753086421 ['80', '150', '148', '56', '139', '112', '145', '126', '143', '131', '125', '85', '142', '32', '103'] 256.32098765432113
61 5.126419753086421 ['80', '150', '148', '56', '139', '112', '145', '126', '143', '131', '125', '85', '142', '32', '103'] 256.32098765432113
62 5.126419753086421 ['80', '150', '148', '56', '139', '112', '145', '126', '143', '131', '125', '85', '142', '32', '103'] 256.32098765432113
63 5.126419753086421 ['80', '150', '148', '56', '139', '112', '145', '126', '143', '131', '125', '85', '142', '32', '103'] 256.32098765432113
64 5.126419753086421 ['80', '150', '148', '56', '139', '112', '145', '126', '143', '131', '125', '85', '142', '32', '103'] 256.32098765432113
65 5.126419753086421 ['80', '150', '148', '56', '139', '112', '145', '126', '143', '131', '125', '85', '142', '32', '103'] 256.32098765432113
66 5.126419753086421 ['80', '150', '148', '56', '139', '112', '145', '126', '143', '131', '125', '85', '142', '32', '103'] 256.32098765432113
67 5.126419753086421 ['80', '150', '148', '56', '139', '112', '145', '126', '143', '131', '125', '85', '142', '32', '103'] 256.32098765432113
68 5.126419753086421 ['80', '150', '148', '56', '139', '112', '145', '126', '143', '131', '125', '85', '142', '32', '103'] 256.32098765432113
69 5.126419753086421 ['80', '150', '148', '56', '139', '112', '145', '126', '143', '131', '125', '85', '142', '32', '103'] 256.32098765432113
70 5.126419753086421 ['80', '150', '148', '56', '139', '112', '145', '126', '143', '131', '125', '85', '142', '32', '103'] 256.32098765432113
71 5.126419753086421 ['80', '150', '148', '56', '139', '112', '145', '126', '143', '131', '125', '85', '142', '32', '103'] 256.32098765432113
72 5.126419753086421 ['80', '150', '148', '56', '139', '112', '145', '126', '143', '131', '125', '85', '142', '32', '103'] 256.32098765432113
73 5.126419753086421 ['80', '150', '148', '56', '139', '112', '145', '126', '143', '131', '125', '85', '142', '32', '103'] 256.32098765432113
74 5.126419753086421 ['80', '150', '148', '56', '139', '112', '145', '126', '143', '131', '125', '85', '142', '32', '103'] 256.32098765432113
75 5.126419753086421 ['80', '150', '148', '56', '139', '112', '145', '126', '143', '131', '125', '85', '142', '32', '103'] 256.32098765432113
76 5.126419753086421 ['80', '150', '148', '56', '139', '112', '145', '126', '143', '131', '125', '85', '142', '32', '103'] 256.32098765432113
77 5.126419753086421 ['80', '150', '148', '56', '139', '112', '145', '126', '143', '131', '125', '85', '142', '32', '103'] 256.32098765432113
78 5.126419753086421 ['80', '150', '148', '56', '139', '112', '145', '126', '143', '131', '125', '85', '142', '32', '103'] 256.32098765432113
79 5.126419753086421 ['80', '150', '148', '56', '139', '112', '145', '126', '143', '131', '125', '85', '142', '32', '103'] 256.32098765432113
80 5.126419753086421 ['80', '150', '148', '56', '139', '112', '145', '126', '143', '131', '125', '85', '142', '32', '103'] 256.32098765432113
81 5.126419753086421 ['80', '150', '148', '56', '139', '112', '145', '126', '143', '131', '125', '85', '142', '32', '103'] 256.32098765432113
82 5.126419753086421 ['80', '150', '148', '56', '139', '112', '145', '126', '143', '131', '125', '85', '142', '32', '103'] 256.32098765432113
83 5.126419753086421 ['80', '150', '148', '56', '139', '112', '145', '126', '143', '131', '125', '85', '142', '32', '103'] 256.32098765432113
84 5.126419753086421 ['80', '150', '148', '56', '139', '112', '145', '126', '143', '131', '125', '85', '142', '32', '103'] 256.32098765432113
85 5.126419753086421 ['80', '150', '148', '56', '139', '112', '145', '126', '143', '131', '125', '85', '142', '32', '103'] 256.32098765432113
86 5.126419753086421 ['80', '150', '148', '56', '139', '112', '145', '126', '143', '131', '125', '85', '142', '32', '103'] 256.32098765432113
87 5.126419753086421 ['80', '150', '148', '56', '139', '112', '145', '126', '143', '131', '125', '85', '142', '32', '103'] 256.32098765432113
88 5.126419753086421 ['80', '150', '148', '56', '139', '112', '145', '126', '143', '131', '125', '85', '142', '32', '103'] 256.32098765432113
89 5.126419753086421 ['80', '150', '148', '56', '139', '112', '145', '126', '143', '131', '125', '85', '142', '32', '103'] 256.32098765432113
90 5.126419753086421 ['80', '150', '148', '56', '139', '112', '145', '126', '143', '131', '125', '85', '142', '32', '103'] 256.32098765432113
91 5.126419753086421 ['80', '150', '148', '56', '139', '112', '145', '126', '143', '131', '125', '85', '142', '32', '103'] 256.32098765432113
92 5.126419753086421 ['80', '150', '148', '56', '139', '112', '145', '126', '143', '131', '125', '85', '142', '32', '103'] 256.32098765432113
93 5.126419753086421 ['80', '150', '148', '56', '139', '112', '145', '126', '143', '131', '125', '85', '142', '32', '103'] 256.32098765432113
94 5.126419753086421 ['80', '150', '148', '56', '139', '112', '145', '126', '143', '131', '125', '85', '142', '32', '103'] 256.32098765432113
95 5.126419753086421 ['80', '150', '148', '56', '139', '112', '145', '126', '143', '131', '125', '85', '142', '32', '103'] 256.32098765432113
96 5.126419753086421 ['80', '150', '148', '56', '139', '112', '145', '126', '143', '131', '125', '85', '142', '32', '103'] 256.32098765432113
97 5.126419753086421 ['80', '150', '148', '56', '139', '112', '145', '126', '143', '131', '125', '85', '142', '32', '103'] 256.32098765432113
98 5.126419753086421 ['80', '150', '148', '56', '139', '112', '145', '126', '143', '131', '125', '85', '142', '32', '103'] 256.32098765432113
99 5.126419753086421 ['80', '150', '148', '56', '139', '112', '145', '126', '143', '131', '125', '85', '142', '32', '103'] 256.32098765432113
100 5.126419753086421 ['80', '150', '148', '56', '139', '112', '145', '126', '143', '131', '125', '85', '142', '32', '103'] 256.32098765432113
101 5.126419753086421 ['80', '150', '148', '56', '139', '112', '145', '126', '143', '131', '125', '85', '142', '32', '103'] 256.32098765432113
102 5.126419753086421 ['80', '150', '148', '56', '139', '112', '145', '126', '143', '131', '125', '85', '142', '32', '103'] 256.32098765432113
103 5.126419753086421 ['80', '150', '148', '56', '139', '112', '145', '126', '143', '131', '125', '85', '142', '32', '103'] 256.32098765432113
104 5.126419753086421 ['80', '150', '148', '56', '139', '112', '145', '126', '143', '131', '125', '85', '142', '32', '103'] 256.32098765432113
105 5.126419753086421 ['80', '150', '148', '56', '139', '112', '145', '126', '143', '131', '125', '85', '142', '32', '103'] 256.32098765432113
106 5.126419753086421 ['80', '150', '148', '56', '139', '112', '145', '126', '143', '131', '125', '85', '142', '32', '103'] 256.32098765432113
107 5.126419753086421 ['80', '150', '148', '56', '139', '112', '145', '126', '143', '131', '125', '85', '142', '32', '103'] 256.32098765432113
108 5.126419753086421 ['80', '150', '148', '56', '139', '112', '145', '126', '143', '131', '125', '85', '142', '32', '103'] 256.32098765432113
109 5.126419753086421 ['80', '150', '148', '56', '139', '112', '145', '126', '143', '131', '125', '85', '142', '32', '103'] 256.32098765432113
110 5.126419753086421 ['80', '150', '148', '56', '139', '112', '145', '126', '143', '131', '125', '85', '142', '32', '103'] 256.32098765432113
111 5.126419753086421 ['80', '150', '148', '56', '139', '112', '145', '126', '143', '131', '125', '85', '142', '32', '103'] 256.32098765432113
112 5.126419753086421 ['80', '150', '148', '56', '139', '112', '145', '126', '143', '131', '125', '85', '142', '32', '103'] 256.32098765432113
113 5.126419753086421 ['80', '150', '148', '56', '139', '112', '145', '126', '143', '131', '125', '85', '142', '32', '103'] 256.32098765432113
114 5.126419753086421 ['80', '150', '148', '56', '139', '112', '145', '126', '143', '131', '125', '85', '142', '32', '103'] 256.32098765432113
115 5.126419753086421 ['80', '150', '148', '56', '139', '112', '145', '126', '143', '131', '125', '85', '142', '32', '103'] 256.32098765432113
116 5.126419753086421 ['80', '150', '148', '56', '139', '112', '145', '126', '143', '131', '125', '85', '142', '32', '103'] 256.32098765432113
117 5.126419753086421 ['80', '150', '148', '56', '139', '112', '145', '126', '143', '131', '125', '85', '142', '32', '103'] 256.32098765432113
118 5.126419753086421 ['80', '150', '148', '56', '139', '112', '145', '126', '143', '131', '125', '85', '142', '32', '103'] 256.32098765432113
119 5.126419753086421 ['80', '150', '148', '56', '139', '112', '145', '126', '143', '131', '125', '85', '142', '32', '103'] 256.32098765432113
120 5.126419753086421 ['80', '150', '148', '56', '139', '112', '145', '126', '143', '131', '125', '85', '142', '32', '103'] 256.32098765432113
121 5.126419753086421 ['80', '150', '148', '56', '139', '112', '145', '126', '143', '131', '125', '85', '142', '32', '103'] 256.32098765432113
122 5.126419753086421 ['80', '150', '148', '56', '139', '112', '145', '126', '143', '131', '125', '85', '142', '32', '103'] 256.32098765432113
123 5.126419753086421 ['80', '150', '148', '56', '139', '112', '145', '126', '143', '131', '125', '85', '142', '32', '103'] 256.32098765432113
124 5.126419753086421 ['80', '150', '148', '56', '139', '112', '145', '126', '143', '131', '125', '85', '142', '32', '103'] 256.32098765432113
125 5.126419753086421 ['80', '150', '148', '56', '139', '112', '145', '126', '143', '131', '125', '85', '142', '32', '103'] 256.32098765432113
126 5.126419753086421 ['80', '150', '148', '56', '139', '112', '145', '126', '143', '131', '125', '85', '142', '32', '103'] 256.32098765432113
127 5.126419753086421 ['80', '150', '148', '56', '139', '112', '145', '126', '143', '131', '125', '85', '142', '32', '103'] 256.32098765432113
128 5.126419753086421 ['80', '150', '148', '56', '139', '112', '145', '126', '143', '131', '125', '85', '142', '32', '103'] 256.32098765432113
129 5.126419753086421 ['80', '150', '148', '56', '139', '112', '145', '126', '143', '131', '125', '85', '142', '32', '103'] 256.32098765432113
130 5.126419753086421 ['80', '150', '148', '56', '139', '112', '145', '126', '143', '131', '125', '85', '142', '32', '103'] 256.32098765432113
131 5.126419753086421 ['80', '150', '148', '56', '139', '112', '145', '126', '143', '131', '125', '85', '142', '32', '103'] 256.32098765432113
132 5.126419753086421 ['80', '150', '148', '56', '139', '112', '145', '126', '143', '131', '125', '85', '142', '32', '103'] 256.32098765432113
133 5.126419753086421 ['80', '150', '148', '56', '139', '112', '145', '126', '143', '131', '125', '85', '142', '32', '103'] 256.32098765432113
134 5.126419753086421 ['80', '150', '148', '56', '139', '112', '145', '126', '143', '131', '125', '85', '142', '32', '103'] 256.32098765432113
135 5.126419753086421 ['80', '150', '148', '56', '139', '112', '145', '126', '143', '131', '125', '85', '142', '32', '103'] 256.32098765432113
136 5.126419753086421 ['80', '150', '148', '56', '139', '112', '145', '126', '143', '131', '125', '85', '142', '32', '103'] 256.32098765432113
137 5.126419753086421 ['80', '150', '148', '56', '139', '112', '145', '126', '143', '131', '125', '85', '142', '32', '103'] 256.32098765432113
138 5.126419753086421 ['80', '150', '148', '56', '139', '112', '145', '126', '143', '131', '125', '85', '142', '32', '103'] 256.32098765432113
139 5.126419753086421 ['80', '150', '148', '56', '139', '112', '145', '126', '143', '131', '125', '85', '142', '32', '103'] 256.32098765432113
140 5.126419753086421 ['80', '150', '148', '56', '139', '112', '145', '126', '143', '131', '125', '85', '142', '32', '103'] 256.32098765432113
141 5.126419753086421 ['80', '150', '148', '56', '139', '112', '145', '126', '143', '131', '125', '85', '142', '32', '103'] 256.32098765432113
142 5.126419753086421 ['80', '150', '148', '56', '139', '112', '145', '126', '143', '131', '125', '85', '142', '32', '103'] 256.32098765432113
143 5.126419753086421 ['80', '150', '148', '56', '139', '112', '145', '126', '143', '131', '125', '85', '142', '32', '103'] 256.32098765432113
144 5.126419753086421 ['80', '150', '148', '56', '139', '112', '145', '126', '143', '131', '125', '85', '142', '32', '103'] 256.32098765432113
145 5.126419753086421 ['80', '150', '148', '56', '139', '112', '145', '126', '143', '131', '125', '85', '142', '32', '103'] 256.32098765432113
146 5.126419753086421 ['80', '150', '148', '56', '139', '112', '145', '126', '143', '131', '125', '85', '142', '32', '103'] 256.32098765432113
147 5.126419753086421 ['80', '150', '148', '56', '139', '112', '145', '126', '143', '131', '125', '85', '142', '32', '103'] 256.32098765432113
148 5.126419753086421 ['80', '150', '148', '56', '139', '112', '145', '126', '143', '131', '125', '85', '142', '32', '103'] 256.32098765432113
149 5.126419753086421 ['80', '150', '148', '56', '139', '112', '145', '126', '143', '131', '125', '85', '142', '32', '103'] 256.32098765432113
150 5.126419753086421 ['80', '150', '148', '56', '139', '112', '145', '126', '143', '131', '125', '85', '142', '32', '103'] 256.32098765432113
151 5.126419753086421 ['80', '150', '148', '56', '139', '112', '145', '126', '143', '131', '125', '85', '142', '32', '103'] 256.32098765432113
152 5.126419753086421 ['80', '150', '148', '56', '139', '112', '145', '126', '143', '131', '125', '85', '142', '32', '103'] 256.32098765432113
153 5.126419753086421 ['80', '150', '148', '56', '139', '112', '145', '126', '143', '131', '125', '85', '142', '32', '103'] 256.32098765432113
154 5.126419753086421 ['80', '150', '148', '56', '139', '112', '145', '126', '143', '131', '125', '85', '142', '32', '103'] 256.32098765432113
155 5.126419753086421 ['80', '150', '148', '56', '139', '112', '145', '126', '143', '131', '125', '85', '142', '32', '103'] 256.32098765432113
156 5.126419753086421 ['80', '150', '148', '56', '139', '112', '145', '126', '143', '131', '125', '85', '142', '32', '103'] 256.32098765432113
157 5.126419753086421 ['80', '150', '148', '56', '139', '112', '145', '126', '143', '131', '125', '85', '142', '32', '103'] 256.32098765432113
158 5.126419753086421 ['80', '150', '148', '56', '139', '112', '145', '126', '143', '131', '125', '85', '142', '32', '103'] 256.32098765432113
159 5.126419753086421 ['80', '150', '148', '56', '139', '112', '145', '126', '143', '131', '125', '85', '142', '32', '103'] 256.32098765432113
160 5.126419753086421 ['80', '150', '148', '56', '139', '112', '145', '126', '143', '131', '125', '85', '142', '32', '103'] 256.32098765432113
161 5.126419753086421 ['80', '150', '148', '56', '139', '112', '145', '126', '143', '131', '125', '85', '142', '32', '103'] 256.32098765432113
162 5.126419753086421 ['80', '150', '148', '56', '139', '112', '145', '126', '143', '131', '125', '85', '142', '32', '103'] 256.32098765432113
163 5.126419753086421 ['80', '150', '148', '56', '139', '112', '145', '126', '143', '131', '125', '85', '142', '32', '103'] 256.32098765432113
164 5.126419753086421 ['80', '150', '148', '56', '139', '112', '145', '126', '143', '131', '125', '85', '142', '32', '103'] 256.32098765432113
165 5.126419753086421 ['80', '150', '148', '56', '139', '112', '145', '126', '143', '131', '125', '85', '142', '32', '103'] 256.32098765432113
166 5.126419753086421 ['80', '150', '148', '56', '139', '112', '145', '126', '143', '131', '125', '85', '142', '32', '103'] 256.32098765432113
167 5.126419753086421 ['80', '150', '148', '56', '139', '112', '145', '126', '143', '131', '125', '85', '142', '32', '103'] 256.32098765432113
168 5.126419753086421 ['80', '150', '148', '56', '139', '112', '145', '126', '143', '131', '125', '85', '142', '32', '103'] 256.32098765432113
169 5.126419753086421 ['80', '150', '148', '56', '139', '112', '145', '126', '143', '131', '125', '85', '142', '32', '103'] 256.32098765432113
170 5.126419753086421 ['80', '150', '148', '56', '139', '112', '145', '126', '143', '131', '125', '85', '142', '32', '103'] 256.32098765432113
171 5.126419753086421 ['80', '150', '148', '56', '139', '112', '145', '126', '143', '131', '125', '85', '142', '32', '103'] 256.32098765432113
172 5.126419753086421 ['80', '150', '148', '56', '139', '112', '145', '126', '143', '131', '125', '85', '142', '32', '103'] 256.32098765432113
173 5.126419753086421 ['80', '150', '148', '56', '139', '112', '145', '126', '143', '131', '125', '85', '142', '32', '103'] 256.32098765432113
174 5.126419753086421 ['80', '150', '148', '56', '139', '112', '145', '126', '143', '131', '125', '85', '142', '32', '103'] 256.32098765432113
175 5.126419753086421 ['80', '150', '148', '56', '139', '112', '145', '126', '143', '131', '125', '85', '142', '32', '103'] 256.32098765432113
176 5.126419753086421 ['80', '150', '148', '56', '139', '112', '145', '126', '143', '131', '125', '85', '142', '32', '103'] 256.32098765432113
177 5.126419753086421 ['80', '150', '148', '56', '139', '112', '145', '126', '143', '131', '125', '85', '142', '32', '103'] 256.32098765432113
178 5.126419753086421 ['80', '150', '148', '56', '139', '112', '145', '126', '143', '131', '125', '85', '142', '32', '103'] 256.32098765432113
179 5.126419753086421 ['80', '150', '148', '56', '139', '112', '145', '126', '143', '131', '125', '85', '142', '32', '103'] 256.32098765432113
180 5.126419753086421 ['80', '150', '148', '56', '139', '112', '145', '126', '143', '131', '125', '85', '142', '32', '103'] 256.32098765432113
181 5.126419753086421 ['80', '150', '148', '56', '139', '112', '145', '126', '143', '131', '125', '85', '142', '32', '103'] 256.32098765432113
182 5.126419753086421 ['80', '150', '148', '56', '139', '112', '145', '126', '143', '131', '125', '85', '142', '32', '103'] 256.32098765432113
183 5.126419753086421 ['80', '150', '148', '56', '139', '112', '145', '126', '143', '131', '125', '85', '142', '32', '103'] 256.32098765432113
184 5.126419753086421 ['80', '150', '148', '56', '139', '112', '145', '126', '143', '131', '125', '85', '142', '32', '103'] 256.32098765432113
185 5.126419753086421 ['80', '150', '148', '56', '139', '112', '145', '126', '143', '131', '125', '85', '142', '32', '103'] 256.32098765432113
186 5.126419753086421 ['80', '150', '148', '56', '139', '112', '145', '126', '143', '131', '125', '85', '142', '32', '103'] 256.32098765432113
187 5.126419753086421 ['80', '150', '148', '56', '139', '112', '145', '126', '143', '131', '125', '85', '142', '32', '103'] 256.32098765432113
188 5.126419753086421 ['80', '150', '148', '56', '139', '112', '145', '126', '143', '131', '125', '85', '142', '32', '103'] 256.32098765432113
189 5.126419753086421 ['80', '150', '148', '56', '139', '112', '145', '126', '143', '131', '125', '85', '142', '32', '103'] 256.32098765432113
190 5.126419753086421 ['80', '150', '148', '56', '139', '112', '145', '126', '143', '131', '125', '85', '142', '32', '103'] 256.32098765432113
191 5.126419753086421 ['80', '150', '148', '56', '139', '112', '145', '126', '143', '131', '125', '85', '142', '32', '103'] 256.32098765432113
192 5.126419753086421 ['80', '150', '148', '56', '139', '112', '145', '126', '143', '131', '125', '85', '142', '32', '103'] 256.32098765432113
193 5.126419753086421 ['80', '150', '148', '56', '139', '112', '145', '126', '143', '131', '125', '85', '142', '32', '103'] 256.32098765432113
194 5.126419753086421 ['80', '150', '148', '56', '139', '112', '145', '126', '143', '131', '125', '85', '142', '32', '103'] 256.32098765432113
195 5.126419753086421 ['80', '150', '148', '56', '139', '112', '145', '126', '143', '131', '125', '85', '142', '32', '103'] 256.32098765432113
196 5.126419753086421 ['80', '150', '148', '56', '139', '112', '145', '126', '143', '131', '125', '85', '142', '32', '103'] 256.32098765432113
197 5.126419753086421 ['80', '150', '148', '56', '139', '112', '145', '126', '143', '131', '125', '85', '142', '32', '103'] 256.32098765432113
198 5.126419753086421 ['80', '150', '148', '56', '139', '112', '145', '126', '143', '131', '125', '85', '142', '32', '103'] 256.32098765432113
199 5.126419753086421 ['80', '150', '148', '56', '139', '112', '145', '126', '143', '131', '125', '85', '142', '32', '103'] 256.32098765432113
