0 15.644444444444444 ['150', '116', '71', '115', '53', '148', '84', '73', '44', '68', '142', '72', '11', '92', '82'] 796.5037037037036
1 15.525925925925925 ['142', '135', '115', '80', '57', '79', '64', '78', '73', '94', '133', '43', '148', '110', '95'] 790.4888888888889
2 15.474074074074075 ['108', '142', '72', '1', '82', '71', '133', '34', '45', '137', '115', '136', '150', '73', '146'] 786.2814814814808
3 15.385185185185184 ['142', '64', '110', '100', '131', '115', '17', '148', '26', '125', '150', '117', '109', '45', '108'] 780.6370370370366
4 15.251851851851852 ['146', '108', '72', '136', '142', '92', '145', '115', '116', '112', '1', '73', '125', '113', '137'] 775.340740740741
5 15.2 ['45', '142', '115', '108', '149', '148', '34', '82', '136', '125', '146', '133', '64', '73', '131'] 771.3333333333329
6 15.088888888888889 ['142', '108', '64', '136', '125', '146', '115', '73', '82', '94', '116', '62', '131', '149', '148'] 767.0222222222221
7 15.088888888888889 ['142', '108', '64', '136', '125', '146', '115', '73', '82', '94', '116', '62', '131', '149', '148'] 762.9185185185188
8 15.007407407407408 ['142', '108', '149', '115', '136', '148', '145', '131', '20', '133', '121', '116', '113', '146', '57'] 759.4148148148146
9 14.933333333333334 ['113', '108', '116', '115', '145', '125', '142', '112', '64', '133', '131', '136', '137', '149', '127'] 755.6518518518521
10 14.8 ['146', '125', '116', '131', '142', '145', '73', '115', '108', '113', '112', '149', '136', '150', '129'] 752.2518518518514
11 14.8 ['146', '125', '116', '131', '142', '145', '73', '115', '108', '113', '112', '149', '136', '150', '129'] 749.0962962962967
12 14.777777777777779 ['120', '125', '142', '148', '115', '145', '146', '113', '108', '71', '117', '150', '136', '112', '131'] 745.9111111111109
13 14.733333333333333 ['142', '136', '125', '146', '115', '148', '112', '131', '113', '108', '73', '145', '120', '150', '116'] 742.9185185185191
14 14.696296296296296 ['125', '142', '115', '150', '136', '146', '131', '112', '108', '145', '116', '148', '129', '127', '117'] 740.9999999999999
15 14.696296296296296 ['125', '142', '115', '150', '136', '146', '131', '112', '108', '145', '116', '148', '129', '127', '117'] 739.0962962962958
16 14.651851851851852 ['142', '108', '136', '146', '117', '125', '127', '145', '115', '131', '150', '149', '113', '129', '148'] 737.6888888888891
17 14.651851851851852 ['142', '108', '136', '146', '117', '125', '127', '145', '115', '131', '150', '149', '113', '129', '148'] 736.45925925926
18 14.622222222222222 ['117', '131', '115', '148', '108', '145', '150', '125', '136', '113', '142', '129', '110', '127', '146'] 735.0444444444445
19 14.622222222222222 ['117', '131', '115', '148', '108', '145', '150', '125', '136', '113', '142', '129', '110', '127', '146'] 733.7481481481478
20 14.622222222222222 ['117', '131', '115', '148', '108', '145', '150', '125', '136', '113', '142', '129', '110', '127', '146'] 732.6518518518515
21 14.607407407407408 ['142', '113', '136', '108', '125', '145', '146', '148', '115', '150', '127', '117', '131', '120', '129'] 731.9851851851845
22 14.607407407407408 ['142', '113', '136', '108', '125', '145', '146', '148', '115', '150', '127', '117', '131', '120', '129'] 731.4296296296292
23 14.607407407407408 ['142', '113', '136', '108', '125', '145', '146', '148', '115', '150', '127', '117', '131', '120', '129'] 731.0370370370375
24 14.607407407407408 ['142', '113', '136', '108', '125', '145', '146', '148', '115', '150', '127', '117', '131', '120', '129'] 730.82962962963
25 14.607407407407408 ['142', '113', '136', '108', '125', '145', '146', '148', '115', '150', '127', '117', '131', '120', '129'] 730.5925925925936
26 14.607407407407408 ['142', '113', '136', '108', '125', '145', '146', '148', '115', '150', '127', '117', '131', '120', '129'] 730.3703703703712
27 14.607407407407408 ['142', '113', '136', '108', '125', '145', '146', '148', '115', '150', '127', '117', '131', '120', '129'] 730.3703703703712
28 14.607407407407408 ['142', '113', '136', '108', '125', '145', '146', '148', '115', '150', '127', '117', '131', '120', '129'] 730.3703703703712
29 14.607407407407408 ['142', '113', '136', '108', '125', '145', '146', '148', '115', '150', '127', '117', '131', '120', '129'] 730.3703703703712
30 14.607407407407408 ['142', '113', '136', '108', '125', '145', '146', '148', '115', '150', '127', '117', '131', '120', '129'] 730.3703703703712
31 14.607407407407408 ['142', '113', '136', '108', '125', '145', '146', '148', '115', '150', '127', '117', '131', '120', '129'] 730.3703703703712
32 14.607407407407408 ['142', '113', '136', '108', '125', '145', '146', '148', '115', '150', '127', '117', '131', '120', '129'] 730.3703703703712
33 14.607407407407408 ['142', '113', '136', '108', '125', '145', '146', '148', '115', '150', '127', '117', '131', '120', '129'] 730.3703703703712
34 14.607407407407408 ['142', '113', '136', '108', '125', '145', '146', '148', '115', '150', '127', '117', '131', '120', '129'] 730.3703703703712
35 14.607407407407408 ['142', '113', '136', '108', '125', '145', '146', '148', '115', '150', '127', '117', '131', '120', '129'] 730.3703703703712
36 14.607407407407408 ['142', '113', '136', '108', '125', '145', '146', '148', '115', '150', '127', '117', '131', '120', '129'] 730.3703703703712
37 14.607407407407408 ['142', '113', '136', '108', '125', '145', '146', '148', '115', '150', '127', '117', '131', '120', '129'] 730.3703703703712
38 14.607407407407408 ['142', '113', '136', '108', '125', '145', '146', '148', '115', '150', '127', '117', '131', '120', '129'] 730.3703703703712
39 14.607407407407408 ['142', '113', '136', '108', '125', '145', '146', '148', '115', '150', '127', '117', '131', '120', '129'] 730.3703703703712
40 14.607407407407408 ['142', '113', '136', '108', '125', '145', '146', '148', '115', '150', '127', '117', '131', '120', '129'] 730.3703703703712
41 14.607407407407408 ['142', '113', '136', '108', '125', '145', '146', '148', '115', '150', '127', '117', '131', '120', '129'] 730.3703703703712
42 14.607407407407408 ['142', '113', '136', '108', '125', '145', '146', '148', '115', '150', '127', '117', '131', '120', '129'] 730.3703703703712
43 14.607407407407408 ['142', '113', '136', '108', '125', '145', '146', '148', '115', '150', '127', '117', '131', '120', '129'] 730.3703703703712
44 14.607407407407408 ['142', '113', '136', '108', '125', '145', '146', '148', '115', '150', '127', '117', '131', '120', '129'] 730.3703703703712
45 14.607407407407408 ['142', '113', '136', '108', '125', '145', '146', '148', '115', '150', '127', '117', '131', '120', '129'] 730.3703703703712
46 14.607407407407408 ['142', '113', '136', '108', '125', '145', '146', '148', '115', '150', '127', '117', '131', '120', '129'] 730.3703703703712
47 14.607407407407408 ['142', '113', '136', '108', '125', '145', '146', '148', '115', '150', '127', '117', '131', '120', '129'] 730.3703703703712
48 14.607407407407408 ['142', '113', '136', '108', '125', '145', '146', '148', '115', '150', '127', '117', '131', '120', '129'] 730.3703703703712
49 14.607407407407408 ['142', '113', '136', '108', '125', '145', '146', '148', '115', '150', '127', '117', '131', '120', '129'] 730.3703703703712
50 14.607407407407408 ['142', '113', '136', '108', '125', '145', '146', '148', '115', '150', '127', '117', '131', '120', '129'] 730.3703703703712
51 14.607407407407408 ['142', '113', '136', '108', '125', '145', '146', '148', '115', '150', '127', '117', '131', '120', '129'] 730.3703703703712
52 14.607407407407408 ['142', '113', '136', '108', '125', '145', '146', '148', '115', '150', '127', '117', '131', '120', '129'] 730.3703703703712
53 14.607407407407408 ['142', '113', '136', '108', '125', '145', '146', '148', '115', '150', '127', '117', '131', '120', '129'] 730.3703703703712
54 14.607407407407408 ['142', '113', '136', '108', '125', '145', '146', '148', '115', '150', '127', '117', '131', '120', '129'] 730.3703703703712
55 14.607407407407408 ['142', '113', '136', '108', '125', '145', '146', '148', '115', '150', '127', '117', '131', '120', '129'] 730.3703703703712
56 14.607407407407408 ['142', '113', '136', '108', '125', '145', '146', '148', '115', '150', '127', '117', '131', '120', '129'] 730.3703703703712
57 14.607407407407408 ['142', '113', '136', '108', '125', '145', '146', '148', '115', '150', '127', '117', '131', '120', '129'] 730.3703703703712
58 14.607407407407408 ['142', '113', '136', '108', '125', '145', '146', '148', '115', '150', '127', '117', '131', '120', '129'] 730.3703703703712
59 14.607407407407408 ['142', '113', '136', '108', '125', '145', '146', '148', '115', '150', '127', '117', '131', '120', '129'] 730.3703703703712
60 14.607407407407408 ['142', '113', '136', '108', '125', '145', '146', '148', '115', '150', '127', '117', '131', '120', '129'] 730.3703703703712
61 14.607407407407408 ['142', '113', '136', '108', '125', '145', '146', '148', '115', '150', '127', '117', '131', '120', '129'] 730.3703703703712
62 14.607407407407408 ['142', '113', '136', '108', '125', '145', '146', '148', '115', '150', '127', '117', '131', '120', '129'] 730.3703703703712
63 14.607407407407408 ['142', '113', '136', '108', '125', '145', '146', '148', '115', '150', '127', '117', '131', '120', '129'] 730.3703703703712
64 14.607407407407408 ['142', '113', '136', '108', '125', '145', '146', '148', '115', '150', '127', '117', '131', '120', '129'] 730.3703703703712
65 14.607407407407408 ['142', '113', '136', '108', '125', '145', '146', '148', '115', '150', '127', '117', '131', '120', '129'] 730.3703703703712
66 14.607407407407408 ['142', '113', '136', '108', '125', '145', '146', '148', '115', '150', '127', '117', '131', '120', '129'] 730.3703703703712
67 14.607407407407408 ['142', '113', '136', '108', '125', '145', '146', '148', '115', '150', '127', '117', '131', '120', '129'] 730.3703703703712
68 14.607407407407408 ['142', '113', '136', '108', '125', '145', '146', '148', '115', '150', '127', '117', '131', '120', '129'] 730.3703703703712
69 14.607407407407408 ['142', '113', '136', '108', '125', '145', '146', '148', '115', '150', '127', '117', '131', '120', '129'] 730.3703703703712
70 14.607407407407408 ['142', '113', '136', '108', '125', '145', '146', '148', '115', '150', '127', '117', '131', '120', '129'] 730.3703703703712
71 14.607407407407408 ['142', '113', '136', '108', '125', '145', '146', '148', '115', '150', '127', '117', '131', '120', '129'] 730.3703703703712
72 14.607407407407408 ['142', '113', '136', '108', '125', '145', '146', '148', '115', '150', '127', '117', '131', '120', '129'] 730.3703703703712
73 14.607407407407408 ['142', '113', '136', '108', '125', '145', '146', '148', '115', '150', '127', '117', '131', '120', '129'] 730.3703703703712
74 14.607407407407408 ['142', '113', '136', '108', '125', '145', '146', '148', '115', '150', '127', '117', '131', '120', '129'] 730.3703703703712
75 14.607407407407408 ['142', '113', '136', '108', '125', '145', '146', '148', '115', '150', '127', '117', '131', '120', '129'] 730.3703703703712
76 14.607407407407408 ['142', '113', '136', '108', '125', '145', '146', '148', '115', '150', '127', '117', '131', '120', '129'] 730.3703703703712
77 14.607407407407408 ['142', '113', '136', '108', '125', '145', '146', '148', '115', '150', '127', '117', '131', '120', '129'] 730.3703703703712
78 14.607407407407408 ['142', '113', '136', '108', '125', '145', '146', '148', '115', '150', '127', '117', '131', '120', '129'] 730.3703703703712
79 14.607407407407408 ['142', '113', '136', '108', '125', '145', '146', '148', '115', '150', '127', '117', '131', '120', '129'] 730.3703703703712
80 14.607407407407408 ['142', '113', '136', '108', '125', '145', '146', '148', '115', '150', '127', '117', '131', '120', '129'] 730.3703703703712
81 14.607407407407408 ['142', '113', '136', '108', '125', '145', '146', '148', '115', '150', '127', '117', '131', '120', '129'] 730.3703703703712
82 14.607407407407408 ['142', '113', '136', '108', '125', '145', '146', '148', '115', '150', '127', '117', '131', '120', '129'] 730.3703703703712
83 14.607407407407408 ['142', '113', '136', '108', '125', '145', '146', '148', '115', '150', '127', '117', '131', '120', '129'] 730.3703703703712
84 14.607407407407408 ['142', '113', '136', '108', '125', '145', '146', '148', '115', '150', '127', '117', '131', '120', '129'] 730.3703703703712
85 14.607407407407408 ['142', '113', '136', '108', '125', '145', '146', '148', '115', '150', '127', '117', '131', '120', '129'] 730.3703703703712
86 14.607407407407408 ['142', '113', '136', '108', '125', '145', '146', '148', '115', '150', '127', '117', '131', '120', '129'] 730.3703703703712
87 14.607407407407408 ['142', '113', '136', '108', '125', '145', '146', '148', '115', '150', '127', '117', '131', '120', '129'] 730.3703703703712
88 14.607407407407408 ['142', '113', '136', '108', '125', '145', '146', '148', '115', '150', '127', '117', '131', '120', '129'] 730.3703703703712
89 14.607407407407408 ['142', '113', '136', '108', '125', '145', '146', '148', '115', '150', '127', '117', '131', '120', '129'] 730.3703703703712
90 14.607407407407408 ['142', '113', '136', '108', '125', '145', '146', '148', '115', '150', '127', '117', '131', '120', '129'] 730.3703703703712
91 14.607407407407408 ['142', '113', '136', '108', '125', '145', '146', '148', '115', '150', '127', '117', '131', '120', '129'] 730.3703703703712
92 14.607407407407408 ['142', '113', '136', '108', '125', '145', '146', '148', '115', '150', '127', '117', '131', '120', '129'] 730.3703703703712
93 14.607407407407408 ['142', '113', '136', '108', '125', '145', '146', '148', '115', '150', '127', '117', '131', '120', '129'] 730.3703703703712
94 14.607407407407408 ['142', '113', '136', '108', '125', '145', '146', '148', '115', '150', '127', '117', '131', '120', '129'] 730.3703703703712
95 14.607407407407408 ['142', '113', '136', '108', '125', '145', '146', '148', '115', '150', '127', '117', '131', '120', '129'] 730.3703703703712
96 14.607407407407408 ['142', '113', '136', '108', '125', '145', '146', '148', '115', '150', '127', '117', '131', '120', '129'] 730.3703703703712
97 14.607407407407408 ['142', '113', '136', '108', '125', '145', '146', '148', '115', '150', '127', '117', '131', '120', '129'] 730.3703703703712
98 14.607407407407408 ['142', '113', '136', '108', '125', '145', '146', '148', '115', '150', '127', '117', '131', '120', '129'] 730.3703703703712
99 14.607407407407408 ['142', '113', '136', '108', '125', '145', '146', '148', '115', '150', '127', '117', '131', '120', '129'] 730.3703703703712
100 14.607407407407408 ['142', '113', '136', '108', '125', '145', '146', '148', '115', '150', '127', '117', '131', '120', '129'] 730.3703703703712
101 14.607407407407408 ['142', '113', '136', '108', '125', '145', '146', '148', '115', '150', '127', '117', '131', '120', '129'] 730.3703703703712
102 14.607407407407408 ['142', '113', '136', '108', '125', '145', '146', '148', '115', '150', '127', '117', '131', '120', '129'] 730.3703703703712
103 14.607407407407408 ['142', '113', '136', '108', '125', '145', '146', '148', '115', '150', '127', '117', '131', '120', '129'] 730.3703703703712
104 14.607407407407408 ['142', '113', '136', '108', '125', '145', '146', '148', '115', '150', '127', '117', '131', '120', '129'] 730.3703703703712
105 14.607407407407408 ['142', '113', '136', '108', '125', '145', '146', '148', '115', '150', '127', '117', '131', '120', '129'] 730.3703703703712
106 14.607407407407408 ['142', '113', '136', '108', '125', '145', '146', '148', '115', '150', '127', '117', '131', '120', '129'] 730.3703703703712
107 14.607407407407408 ['142', '113', '136', '108', '125', '145', '146', '148', '115', '150', '127', '117', '131', '120', '129'] 730.3703703703712
108 14.607407407407408 ['142', '113', '136', '108', '125', '145', '146', '148', '115', '150', '127', '117', '131', '120', '129'] 730.3703703703712
109 14.607407407407408 ['142', '113', '136', '108', '125', '145', '146', '148', '115', '150', '127', '117', '131', '120', '129'] 730.3703703703712
110 14.607407407407408 ['142', '113', '136', '108', '125', '145', '146', '148', '115', '150', '127', '117', '131', '120', '129'] 730.3703703703712
111 14.607407407407408 ['142', '113', '136', '108', '125', '145', '146', '148', '115', '150', '127', '117', '131', '120', '129'] 730.3703703703712
112 14.607407407407408 ['142', '113', '136', '108', '125', '145', '146', '148', '115', '150', '127', '117', '131', '120', '129'] 730.3703703703712
113 14.607407407407408 ['142', '113', '136', '108', '125', '145', '146', '148', '115', '150', '127', '117', '131', '120', '129'] 730.3703703703712
114 14.607407407407408 ['142', '113', '136', '108', '125', '145', '146', '148', '115', '150', '127', '117', '131', '120', '129'] 730.3703703703712
115 14.607407407407408 ['142', '113', '136', '108', '125', '145', '146', '148', '115', '150', '127', '117', '131', '120', '129'] 730.3703703703712
116 14.607407407407408 ['142', '113', '136', '108', '125', '145', '146', '148', '115', '150', '127', '117', '131', '120', '129'] 730.3703703703712
117 14.607407407407408 ['142', '113', '136', '108', '125', '145', '146', '148', '115', '150', '127', '117', '131', '120', '129'] 730.3703703703712
118 14.607407407407408 ['142', '113', '136', '108', '125', '145', '146', '148', '115', '150', '127', '117', '131', '120', '129'] 730.3703703703712
119 14.607407407407408 ['142', '113', '136', '108', '125', '145', '146', '148', '115', '150', '127', '117', '131', '120', '129'] 730.3703703703712
120 14.607407407407408 ['142', '113', '136', '108', '125', '145', '146', '148', '115', '150', '127', '117', '131', '120', '129'] 730.3703703703712
121 14.607407407407408 ['142', '113', '136', '108', '125', '145', '146', '148', '115', '150', '127', '117', '131', '120', '129'] 730.3703703703712
122 14.607407407407408 ['142', '113', '136', '108', '125', '145', '146', '148', '115', '150', '127', '117', '131', '120', '129'] 730.3703703703712
123 14.607407407407408 ['142', '113', '136', '108', '125', '145', '146', '148', '115', '150', '127', '117', '131', '120', '129'] 730.3703703703712
124 14.607407407407408 ['142', '113', '136', '108', '125', '145', '146', '148', '115', '150', '127', '117', '131', '120', '129'] 730.3703703703712
125 14.607407407407408 ['142', '113', '136', '108', '125', '145', '146', '148', '115', '150', '127', '117', '131', '120', '129'] 730.3703703703712
126 14.607407407407408 ['142', '113', '136', '108', '125', '145', '146', '148', '115', '150', '127', '117', '131', '120', '129'] 730.3703703703712
127 14.607407407407408 ['142', '113', '136', '108', '125', '145', '146', '148', '115', '150', '127', '117', '131', '120', '129'] 730.3703703703712
128 14.607407407407408 ['142', '113', '136', '108', '125', '145', '146', '148', '115', '150', '127', '117', '131', '120', '129'] 730.3703703703712
129 14.607407407407408 ['142', '113', '136', '108', '125', '145', '146', '148', '115', '150', '127', '117', '131', '120', '129'] 730.3703703703712
130 14.607407407407408 ['142', '113', '136', '108', '125', '145', '146', '148', '115', '150', '127', '117', '131', '120', '129'] 730.3703703703712
131 14.607407407407408 ['142', '113', '136', '108', '125', '145', '146', '148', '115', '150', '127', '117', '131', '120', '129'] 730.3703703703712
132 14.607407407407408 ['142', '113', '136', '108', '125', '145', '146', '148', '115', '150', '127', '117', '131', '120', '129'] 730.3703703703712
133 14.607407407407408 ['142', '113', '136', '108', '125', '145', '146', '148', '115', '150', '127', '117', '131', '120', '129'] 730.3703703703712
134 14.607407407407408 ['142', '113', '136', '108', '125', '145', '146', '148', '115', '150', '127', '117', '131', '120', '129'] 730.3703703703712
135 14.607407407407408 ['142', '113', '136', '108', '125', '145', '146', '148', '115', '150', '127', '117', '131', '120', '129'] 730.3703703703712
136 14.607407407407408 ['142', '113', '136', '108', '125', '145', '146', '148', '115', '150', '127', '117', '131', '120', '129'] 730.3703703703712
137 14.607407407407408 ['142', '113', '136', '108', '125', '145', '146', '148', '115', '150', '127', '117', '131', '120', '129'] 730.3703703703712
138 14.607407407407408 ['142', '113', '136', '108', '125', '145', '146', '148', '115', '150', '127', '117', '131', '120', '129'] 730.3703703703712
139 14.607407407407408 ['142', '113', '136', '108', '125', '145', '146', '148', '115', '150', '127', '117', '131', '120', '129'] 730.3703703703712
140 14.607407407407408 ['142', '113', '136', '108', '125', '145', '146', '148', '115', '150', '127', '117', '131', '120', '129'] 730.3703703703712
141 14.607407407407408 ['142', '113', '136', '108', '125', '145', '146', '148', '115', '150', '127', '117', '131', '120', '129'] 730.3703703703712
142 14.585185185185185 ['136', '145', '148', '108', '125', '115', '127', '117', '142', '150', '131', '120', '146', '129', '147'] 730.3481481481491
143 14.585185185185185 ['136', '145', '148', '108', '125', '115', '127', '117', '142', '150', '131', '120', '146', '129', '147'] 730.2814814814824
144 14.585185185185185 ['136', '145', '148', '108', '125', '115', '127', '117', '142', '150', '131', '120', '146', '129', '147'] 730.1703703703713
145 14.585185185185185 ['136', '145', '148', '108', '125', '115', '127', '117', '142', '150', '131', '120', '146', '129', '147'] 729.9037037037047
146 14.585185185185185 ['136', '145', '148', '108', '125', '115', '127', '117', '142', '150', '131', '120', '146', '129', '147'] 729.5259259259266
147 14.585185185185185 ['136', '145', '148', '108', '125', '115', '127', '117', '142', '150', '131', '120', '146', '129', '147'] 729.2592592592597
148 14.585185185185185 ['136', '145', '148', '108', '125', '115', '127', '117', '142', '150', '131', '120', '146', '129', '147'] 729.2592592592597
149 14.585185185185185 ['136', '145', '148', '108', '125', '115', '127', '117', '142', '150', '131', '120', '146', '129', '147'] 729.2592592592597
150 14.585185185185185 ['136', '145', '148', '108', '125', '115', '127', '117', '142', '150', '131', '120', '146', '129', '147'] 729.2592592592597
151 14.585185185185185 ['136', '145', '148', '108', '125', '115', '127', '117', '142', '150', '131', '120', '146', '129', '147'] 729.2592592592597
152 14.585185185185185 ['136', '145', '148', '108', '125', '115', '127', '117', '142', '150', '131', '120', '146', '129', '147'] 729.2592592592597
153 14.585185185185185 ['136', '145', '148', '108', '125', '115', '127', '117', '142', '150', '131', '120', '146', '129', '147'] 729.2592592592597
154 14.585185185185185 ['136', '145', '148', '108', '125', '115', '127', '117', '142', '150', '131', '120', '146', '129', '147'] 729.2592592592597
155 14.585185185185185 ['136', '145', '148', '108', '125', '115', '127', '117', '142', '150', '131', '120', '146', '129', '147'] 729.2592592592597
156 14.585185185185185 ['136', '145', '148', '108', '125', '115', '127', '117', '142', '150', '131', '120', '146', '129', '147'] 729.2592592592597
157 14.585185185185185 ['136', '145', '148', '108', '125', '115', '127', '117', '142', '150', '131', '120', '146', '129', '147'] 729.2592592592597
158 14.585185185185185 ['136', '145', '148', '108', '125', '115', '127', '117', '142', '150', '131', '120', '146', '129', '147'] 729.2592592592597
159 14.585185185185185 ['136', '145', '148', '108', '125', '115', '127', '117', '142', '150', '131', '120', '146', '129', '147'] 729.2592592592597
160 14.585185185185185 ['136', '145', '148', '108', '125', '115', '127', '117', '142', '150', '131', '120', '146', '129', '147'] 729.2592592592597
161 14.585185185185185 ['136', '145', '148', '108', '125', '115', '127', '117', '142', '150', '131', '120', '146', '129', '147'] 729.2592592592597
162 14.585185185185185 ['136', '145', '148', '108', '125', '115', '127', '117', '142', '150', '131', '120', '146', '129', '147'] 729.2592592592597
163 14.585185185185185 ['136', '145', '148', '108', '125', '115', '127', '117', '142', '150', '131', '120', '146', '129', '147'] 729.2592592592597
164 14.585185185185185 ['136', '145', '148', '108', '125', '115', '127', '117', '142', '150', '131', '120', '146', '129', '147'] 729.2592592592597
165 14.585185185185185 ['136', '145', '148', '108', '125', '115', '127', '117', '142', '150', '131', '120', '146', '129', '147'] 729.2592592592597
166 14.585185185185185 ['136', '145', '148', '108', '125', '115', '127', '117', '142', '150', '131', '120', '146', '129', '147'] 729.2592592592597
167 14.585185185185185 ['136', '145', '148', '108', '125', '115', '127', '117', '142', '150', '131', '120', '146', '129', '147'] 729.2592592592597
168 14.585185185185185 ['136', '145', '148', '108', '125', '115', '127', '117', '142', '150', '131', '120', '146', '129', '147'] 729.2592592592597
169 14.585185185185185 ['136', '145', '148', '108', '125', '115', '127', '117', '142', '150', '131', '120', '146', '129', '147'] 729.2592592592597
170 14.585185185185185 ['136', '145', '148', '108', '125', '115', '127', '117', '142', '150', '131', '120', '146', '129', '147'] 729.2592592592597
171 14.585185185185185 ['136', '145', '148', '108', '125', '115', '127', '117', '142', '150', '131', '120', '146', '129', '147'] 729.2592592592597
172 14.585185185185185 ['136', '145', '148', '108', '125', '115', '127', '117', '142', '150', '131', '120', '146', '129', '147'] 729.2592592592597
173 14.585185185185185 ['136', '145', '148', '108', '125', '115', '127', '117', '142', '150', '131', '120', '146', '129', '147'] 729.2592592592597
174 14.585185185185185 ['136', '145', '148', '108', '125', '115', '127', '117', '142', '150', '131', '120', '146', '129', '147'] 729.2592592592597
175 14.585185185185185 ['136', '145', '148', '108', '125', '115', '127', '117', '142', '150', '131', '120', '146', '129', '147'] 729.2592592592597
176 14.585185185185185 ['136', '145', '148', '108', '125', '115', '127', '117', '142', '150', '131', '120', '146', '129', '147'] 729.2592592592597
177 14.585185185185185 ['136', '145', '148', '108', '125', '115', '127', '117', '142', '150', '131', '120', '146', '129', '147'] 729.2592592592597
178 14.585185185185185 ['136', '145', '148', '108', '125', '115', '127', '117', '142', '150', '131', '120', '146', '129', '147'] 729.2592592592597
179 14.585185185185185 ['136', '145', '148', '108', '125', '115', '127', '117', '142', '150', '131', '120', '146', '129', '147'] 729.2592592592597
180 14.585185185185185 ['136', '145', '148', '108', '125', '115', '127', '117', '142', '150', '131', '120', '146', '129', '147'] 729.2592592592597
181 14.585185185185185 ['136', '145', '148', '108', '125', '115', '127', '117', '142', '150', '131', '120', '146', '129', '147'] 729.2592592592597
182 14.585185185185185 ['136', '145', '148', '108', '125', '115', '127', '117', '142', '150', '131', '120', '146', '129', '147'] 729.2592592592597
183 14.585185185185185 ['136', '145', '148', '108', '125', '115', '127', '117', '142', '150', '131', '120', '146', '129', '147'] 729.2592592592597
184 14.585185185185185 ['136', '145', '148', '108', '125', '115', '127', '117', '142', '150', '131', '120', '146', '129', '147'] 729.2592592592597
185 14.585185185185185 ['136', '145', '148', '108', '125', '115', '127', '117', '142', '150', '131', '120', '146', '129', '147'] 729.2592592592597
186 14.585185185185185 ['136', '145', '148', '108', '125', '115', '127', '117', '142', '150', '131', '120', '146', '129', '147'] 729.2592592592597
187 14.585185185185185 ['136', '145', '148', '108', '125', '115', '127', '117', '142', '150', '131', '120', '146', '129', '147'] 729.2592592592597
188 14.585185185185185 ['136', '145', '148', '108', '125', '115', '127', '117', '142', '150', '131', '120', '146', '129', '147'] 729.2592592592597
189 14.585185185185185 ['136', '145', '148', '108', '125', '115', '127', '117', '142', '150', '131', '120', '146', '129', '147'] 729.2592592592597
190 14.585185185185185 ['136', '145', '148', '108', '125', '115', '127', '117', '142', '150', '131', '120', '146', '129', '147'] 729.2592592592597
191 14.585185185185185 ['136', '145', '148', '108', '125', '115', '127', '117', '142', '150', '131', '120', '146', '129', '147'] 729.2592592592597
192 14.585185185185185 ['136', '145', '148', '108', '125', '115', '127', '117', '142', '150', '131', '120', '146', '129', '147'] 729.2592592592597
193 14.585185185185185 ['136', '145', '148', '108', '125', '115', '127', '117', '142', '150', '131', '120', '146', '129', '147'] 729.2592592592597
194 14.585185185185185 ['136', '145', '148', '108', '125', '115', '127', '117', '142', '150', '131', '120', '146', '129', '147'] 729.2592592592597
195 14.585185185185185 ['136', '145', '148', '108', '125', '115', '127', '117', '142', '150', '131', '120', '146', '129', '147'] 729.2592592592597
196 14.585185185185185 ['136', '145', '148', '108', '125', '115', '127', '117', '142', '150', '131', '120', '146', '129', '147'] 729.2592592592597
197 14.585185185185185 ['136', '145', '148', '108', '125', '115', '127', '117', '142', '150', '131', '120', '146', '129', '147'] 729.2592592592597
198 14.585185185185185 ['136', '145', '148', '108', '125', '115', '127', '117', '142', '150', '131', '120', '146', '129', '147'] 729.2592592592597
199 14.585185185185185 ['136', '145', '148', '108', '125', '115', '127', '117', '142', '150', '131', '120', '146', '129', '147'] 729.2592592592597
