0 5.177530864197533 ['143', '113', '71', '139', '79', '142', '38', '75', '17', '33', '34', '81', '18', '136', '116'] 262.60580246913594
1 5.177530864197533 ['143', '113', '71', '139', '79', '142', '38', '75', '17', '33', '34', '81', '18', '136', '116'] 261.44629629629645
2 5.1383950617283976 ['30', '145', '142', '12', '146', '101', '148', '77', '119', '50', '127', '123', '14', '46', '125'] 260.2660493827162
3 5.1383950617283976 ['30', '145', '142', '12', '146', '101', '148', '77', '119', '50', '127', '123', '14', '46', '125'] 259.39506172839515
4 5.0775308641975325 ['136', '115', '11', '138', '113', '103', '59', '18', '124', '110', '126', '139', '102', '28', '149'] 258.60111111111127
5 5.0775308641975325 ['136', '115', '11', '138', '113', '103', '59', '18', '124', '110', '126', '139', '102', '28', '149'] 257.81740740740753
6 5.056296296296299 ['69', '92', '116', '146', '135', '37', '132', '102', '38', '128', '17', '147', '123', '106', '5'] 257.12098765432114
7 5.056296296296299 ['69', '92', '116', '146', '135', '37', '132', '102', '38', '128', '17', '147', '123', '106', '5'] 256.22246913580256
8 5.049382716049386 ['132', '128', '115', '146', '37', '69', '118', '116', '102', '136', '42', '119', '12', '138', '120'] 255.39012345679023
9 5.020864197530865 ['148', '93', '123', '46', '145', '81', '142', '127', '146', '119', '136', '80', '128', '92', '106'] 254.34148148148165
10 4.987160493827163 ['116', '69', '119', '102', '111', '135', '37', '139', '146', '38', '124', '17', '87', '136', '143'] 253.37765432098783
11 4.987160493827163 ['116', '69', '119', '102', '111', '135', '37', '139', '146', '38', '124', '17', '87', '136', '143'] 252.62555555555568
12 4.97913580246914 ['140', '28', '102', '128', '144', '69', '119', '149', '25', '136', '113', '11', '92', '138', '94'] 251.89407407407418
13 4.954320987654324 ['37', '136', '116', '102', '69', '118', '132', '138', '94', '26', '59', '145', '119', '128', '148'] 251.30975308642002
14 4.954320987654324 ['37', '136', '116', '102', '69', '118', '132', '138', '94', '26', '59', '145', '119', '128', '148'] 250.83049382716064
15 4.943580246913582 ['69', '136', '132', '102', '118', '138', '94', '37', '148', '128', '116', '26', '119', '124', '145'] 250.19308641975326
16 4.9383950617284 ['118', '102', '69', '37', '116', '26', '119', '136', '94', '148', '80', '146', '132', '143', '128'] 249.3564197530865
17 4.9383950617284 ['118', '102', '69', '37', '116', '26', '119', '136', '94', '148', '80', '146', '132', '143', '128'] 248.65975308641987
18 4.924691358024692 ['132', '69', '148', '102', '94', '118', '128', '136', '119', '116', '138', '127', '26', '139', '37'] 247.814814814815
19 4.906172839506176 ['148', '102', '26', '128', '118', '37', '116', '69', '136', '94', '132', '146', '80', '119', '138'] 247.18123456790133
20 4.889506172839507 ['118', '132', '136', '94', '119', '128', '69', '138', '116', '102', '148', '145', '80', '139', '37'] 246.53703703703712
21 4.877160493827162 ['37', '148', '138', '69', '128', '124', '116', '118', '136', '80', '132', '139', '102', '94', '113'] 245.89950617283958
22 4.875925925925928 ['132', '136', '128', '118', '102', '116', '138', '94', '148', '37', '69', '80', '139', '124', '147'] 245.2913580246914
23 4.874074074074078 ['146', '148', '132', '136', '69', '118', '102', '138', '116', '128', '94', '37', '124', '111', '139'] 244.9193827160497
24 4.874074074074076 ['94', '69', '116', '37', '139', '138', '148', '128', '102', '132', '136', '80', '118', '145', '124'] 244.58271604938284
25 4.8648148148148165 ['94', '148', '138', '128', '69', '139', '132', '116', '118', '37', '136', '102', '26', '124', '80'] 244.25753086419755
26 4.8648148148148165 ['94', '148', '138', '128', '69', '139', '132', '116', '118', '37', '136', '102', '26', '124', '80'] 243.94012345679013
27 4.8648148148148165 ['94', '148', '138', '128', '69', '139', '132', '116', '118', '37', '136', '102', '26', '124', '80'] 243.7443209876545
28 4.840740740740743 ['102', '118', '138', '128', '37', '116', '139', '132', '124', '148', '136', '69', '94', '80', '111'] 243.51604938271618
29 4.840740740740743 ['102', '118', '138', '128', '37', '116', '139', '132', '124', '148', '136', '69', '94', '80', '111'] 243.25925925925952
30 4.840740740740743 ['102', '118', '138', '128', '37', '116', '139', '132', '124', '148', '136', '69', '94', '80', '111'] 243.16481481481503
31 4.840740740740743 ['102', '118', '138', '128', '37', '116', '139', '132', '124', '148', '136', '69', '94', '80', '111'] 243.11419753086443
32 4.840740740740743 ['102', '118', '138', '128', '37', '116', '139', '132', '124', '148', '136', '69', '94', '80', '111'] 242.93703703703727
33 4.840740740740743 ['102', '118', '138', '128', '37', '116', '139', '132', '124', '148', '136', '69', '94', '80', '111'] 242.7006172839508
34 4.840740740740743 ['102', '118', '138', '128', '37', '116', '139', '132', '124', '148', '136', '69', '94', '80', '111'] 242.2425925925929
35 4.840740740740743 ['102', '118', '138', '128', '37', '116', '139', '132', '124', '148', '136', '69', '94', '80', '111'] 242.03703703703744
36 4.840740740740743 ['102', '118', '138', '128', '37', '116', '139', '132', '124', '148', '136', '69', '94', '80', '111'] 242.03703703703744
37 4.840740740740743 ['102', '118', '138', '128', '37', '116', '139', '132', '124', '148', '136', '69', '94', '80', '111'] 242.03703703703744
38 4.840740740740743 ['102', '118', '138', '128', '37', '116', '139', '132', '124', '148', '136', '69', '94', '80', '111'] 242.03703703703744
39 4.840740740740743 ['102', '118', '138', '128', '37', '116', '139', '132', '124', '148', '136', '69', '94', '80', '111'] 242.03703703703744
40 4.840740740740743 ['102', '118', '138', '128', '37', '116', '139', '132', '124', '148', '136', '69', '94', '80', '111'] 242.03703703703744
41 4.840740740740743 ['102', '118', '138', '128', '37', '116', '139', '132', '124', '148', '136', '69', '94', '80', '111'] 242.03703703703744
42 4.840740740740743 ['102', '118', '138', '128', '37', '116', '139', '132', '124', '148', '136', '69', '94', '80', '111'] 242.03703703703744
43 4.840740740740743 ['102', '118', '138', '128', '37', '116', '139', '132', '124', '148', '136', '69', '94', '80', '111'] 242.03703703703744
44 4.840740740740743 ['102', '118', '138', '128', '37', '116', '139', '132', '124', '148', '136', '69', '94', '80', '111'] 242.03703703703744
45 4.840740740740743 ['102', '118', '138', '128', '37', '116', '139', '132', '124', '148', '136', '69', '94', '80', '111'] 242.03703703703744
46 4.840740740740743 ['102', '118', '138', '128', '37', '116', '139', '132', '124', '148', '136', '69', '94', '80', '111'] 242.03703703703744
47 4.840740740740743 ['102', '118', '138', '128', '37', '116', '139', '132', '124', '148', '136', '69', '94', '80', '111'] 242.03703703703744
48 4.840740740740743 ['102', '118', '138', '128', '37', '116', '139', '132', '124', '148', '136', '69', '94', '80', '111'] 242.03703703703744
49 4.840740740740743 ['102', '118', '138', '128', '37', '116', '139', '132', '124', '148', '136', '69', '94', '80', '111'] 242.03703703703744
50 4.840740740740743 ['102', '118', '138', '128', '37', '116', '139', '132', '124', '148', '136', '69', '94', '80', '111'] 242.03703703703744
51 4.840740740740743 ['102', '118', '138', '128', '37', '116', '139', '132', '124', '148', '136', '69', '94', '80', '111'] 242.03703703703744
52 4.840740740740743 ['102', '118', '138', '128', '37', '116', '139', '132', '124', '148', '136', '69', '94', '80', '111'] 242.03703703703744
53 4.840740740740743 ['102', '118', '138', '128', '37', '116', '139', '132', '124', '148', '136', '69', '94', '80', '111'] 242.03703703703744
54 4.840740740740743 ['102', '118', '138', '128', '37', '116', '139', '132', '124', '148', '136', '69', '94', '80', '111'] 242.03703703703744
55 4.840740740740743 ['102', '118', '138', '128', '37', '116', '139', '132', '124', '148', '136', '69', '94', '80', '111'] 242.03703703703744
56 4.840740740740743 ['102', '118', '138', '128', '37', '116', '139', '132', '124', '148', '136', '69', '94', '80', '111'] 242.03703703703744
57 4.840740740740743 ['102', '118', '138', '128', '37', '116', '139', '132', '124', '148', '136', '69', '94', '80', '111'] 242.03703703703744
58 4.840740740740743 ['102', '118', '138', '128', '37', '116', '139', '132', '124', '148', '136', '69', '94', '80', '111'] 242.03703703703744
59 4.840740740740743 ['102', '118', '138', '128', '37', '116', '139', '132', '124', '148', '136', '69', '94', '80', '111'] 242.03703703703744
60 4.840740740740743 ['102', '118', '138', '128', '37', '116', '139', '132', '124', '148', '136', '69', '94', '80', '111'] 242.03703703703744
61 4.840740740740743 ['102', '118', '138', '128', '37', '116', '139', '132', '124', '148', '136', '69', '94', '80', '111'] 242.03703703703744
62 4.840740740740743 ['102', '118', '138', '128', '37', '116', '139', '132', '124', '148', '136', '69', '94', '80', '111'] 242.03703703703744
63 4.840740740740743 ['102', '118', '138', '128', '37', '116', '139', '132', '124', '148', '136', '69', '94', '80', '111'] 242.03703703703744
64 4.840740740740743 ['102', '118', '138', '128', '37', '116', '139', '132', '124', '148', '136', '69', '94', '80', '111'] 242.03703703703744
65 4.840740740740743 ['102', '118', '138', '128', '37', '116', '139', '132', '124', '148', '136', '69', '94', '80', '111'] 242.03703703703744
66 4.840740740740743 ['102', '118', '138', '128', '37', '116', '139', '132', '124', '148', '136', '69', '94', '80', '111'] 242.03703703703744
67 4.840740740740743 ['102', '118', '138', '128', '37', '116', '139', '132', '124', '148', '136', '69', '94', '80', '111'] 242.03703703703744
68 4.840740740740743 ['102', '118', '138', '128', '37', '116', '139', '132', '124', '148', '136', '69', '94', '80', '111'] 242.03703703703744
69 4.840740740740743 ['102', '118', '138', '128', '37', '116', '139', '132', '124', '148', '136', '69', '94', '80', '111'] 242.03703703703744
70 4.840740740740743 ['102', '118', '138', '128', '37', '116', '139', '132', '124', '148', '136', '69', '94', '80', '111'] 242.03703703703744
71 4.840740740740743 ['102', '118', '138', '128', '37', '116', '139', '132', '124', '148', '136', '69', '94', '80', '111'] 242.03703703703744
72 4.840740740740743 ['102', '118', '138', '128', '37', '116', '139', '132', '124', '148', '136', '69', '94', '80', '111'] 242.03703703703744
73 4.840740740740743 ['102', '118', '138', '128', '37', '116', '139', '132', '124', '148', '136', '69', '94', '80', '111'] 242.03703703703744
74 4.840740740740743 ['102', '118', '138', '128', '37', '116', '139', '132', '124', '148', '136', '69', '94', '80', '111'] 242.03703703703744
75 4.840740740740743 ['102', '118', '138', '128', '37', '116', '139', '132', '124', '148', '136', '69', '94', '80', '111'] 242.03703703703744
76 4.840740740740743 ['102', '118', '138', '128', '37', '116', '139', '132', '124', '148', '136', '69', '94', '80', '111'] 242.03703703703744
77 4.840740740740743 ['102', '118', '138', '128', '37', '116', '139', '132', '124', '148', '136', '69', '94', '80', '111'] 242.03703703703744
78 4.840740740740743 ['102', '118', '138', '128', '37', '116', '139', '132', '124', '148', '136', '69', '94', '80', '111'] 242.03703703703744
79 4.840740740740743 ['102', '118', '138', '128', '37', '116', '139', '132', '124', '148', '136', '69', '94', '80', '111'] 242.03703703703744
80 4.840740740740743 ['102', '118', '138', '128', '37', '116', '139', '132', '124', '148', '136', '69', '94', '80', '111'] 242.03703703703744
81 4.840740740740743 ['102', '118', '138', '128', '37', '116', '139', '132', '124', '148', '136', '69', '94', '80', '111'] 242.03703703703744
82 4.840740740740743 ['102', '118', '138', '128', '37', '116', '139', '132', '124', '148', '136', '69', '94', '80', '111'] 242.03703703703744
83 4.840740740740743 ['102', '118', '138', '128', '37', '116', '139', '132', '124', '148', '136', '69', '94', '80', '111'] 242.03703703703744
84 4.840740740740743 ['102', '118', '138', '128', '37', '116', '139', '132', '124', '148', '136', '69', '94', '80', '111'] 242.03703703703744
85 4.840740740740743 ['102', '118', '138', '128', '37', '116', '139', '132', '124', '148', '136', '69', '94', '80', '111'] 242.03703703703744
86 4.840740740740743 ['102', '118', '138', '128', '37', '116', '139', '132', '124', '148', '136', '69', '94', '80', '111'] 242.03703703703744
87 4.840740740740743 ['102', '118', '138', '128', '37', '116', '139', '132', '124', '148', '136', '69', '94', '80', '111'] 242.03703703703744
88 4.840740740740743 ['102', '118', '138', '128', '37', '116', '139', '132', '124', '148', '136', '69', '94', '80', '111'] 242.03703703703744
89 4.840740740740743 ['102', '118', '138', '128', '37', '116', '139', '132', '124', '148', '136', '69', '94', '80', '111'] 242.03703703703744
90 4.840740740740743 ['102', '118', '138', '128', '37', '116', '139', '132', '124', '148', '136', '69', '94', '80', '111'] 242.03703703703744
91 4.840740740740743 ['102', '118', '138', '128', '37', '116', '139', '132', '124', '148', '136', '69', '94', '80', '111'] 242.03703703703744
92 4.840740740740743 ['102', '118', '138', '128', '37', '116', '139', '132', '124', '148', '136', '69', '94', '80', '111'] 242.03703703703744
93 4.840740740740743 ['102', '118', '138', '128', '37', '116', '139', '132', '124', '148', '136', '69', '94', '80', '111'] 242.03703703703744
94 4.840740740740743 ['102', '118', '138', '128', '37', '116', '139', '132', '124', '148', '136', '69', '94', '80', '111'] 242.03703703703744
95 4.840740740740743 ['102', '118', '138', '128', '37', '116', '139', '132', '124', '148', '136', '69', '94', '80', '111'] 242.03703703703744
96 4.840740740740743 ['102', '118', '138', '128', '37', '116', '139', '132', '124', '148', '136', '69', '94', '80', '111'] 242.03703703703744
97 4.840740740740743 ['102', '118', '138', '128', '37', '116', '139', '132', '124', '148', '136', '69', '94', '80', '111'] 242.03703703703744
98 4.840740740740743 ['102', '118', '138', '128', '37', '116', '139', '132', '124', '148', '136', '69', '94', '80', '111'] 242.03703703703744
99 4.840740740740743 ['102', '118', '138', '128', '37', '116', '139', '132', '124', '148', '136', '69', '94', '80', '111'] 242.03703703703744
100 4.840740740740743 ['102', '118', '138', '128', '37', '116', '139', '132', '124', '148', '136', '69', '94', '80', '111'] 242.03703703703744
101 4.840740740740743 ['102', '118', '138', '128', '37', '116', '139', '132', '124', '148', '136', '69', '94', '80', '111'] 242.03703703703744
102 4.840740740740743 ['102', '118', '138', '128', '37', '116', '139', '132', '124', '148', '136', '69', '94', '80', '111'] 242.03703703703744
103 4.840740740740743 ['102', '118', '138', '128', '37', '116', '139', '132', '124', '148', '136', '69', '94', '80', '111'] 242.03703703703744
104 4.840740740740743 ['102', '118', '138', '128', '37', '116', '139', '132', '124', '148', '136', '69', '94', '80', '111'] 242.03703703703744
105 4.840740740740743 ['102', '118', '138', '128', '37', '116', '139', '132', '124', '148', '136', '69', '94', '80', '111'] 242.03703703703744
106 4.840740740740743 ['102', '118', '138', '128', '37', '116', '139', '132', '124', '148', '136', '69', '94', '80', '111'] 242.03703703703744
107 4.840740740740743 ['102', '118', '138', '128', '37', '116', '139', '132', '124', '148', '136', '69', '94', '80', '111'] 242.03703703703744
108 4.840740740740743 ['102', '118', '138', '128', '37', '116', '139', '132', '124', '148', '136', '69', '94', '80', '111'] 242.03703703703744
109 4.840740740740743 ['102', '118', '138', '128', '37', '116', '139', '132', '124', '148', '136', '69', '94', '80', '111'] 242.03703703703744
110 4.840740740740743 ['102', '118', '138', '128', '37', '116', '139', '132', '124', '148', '136', '69', '94', '80', '111'] 242.03703703703744
111 4.840740740740743 ['102', '118', '138', '128', '37', '116', '139', '132', '124', '148', '136', '69', '94', '80', '111'] 242.03703703703744
112 4.840740740740743 ['102', '118', '138', '128', '37', '116', '139', '132', '124', '148', '136', '69', '94', '80', '111'] 242.03703703703744
113 4.840740740740743 ['102', '118', '138', '128', '37', '116', '139', '132', '124', '148', '136', '69', '94', '80', '111'] 242.03703703703744
114 4.840740740740743 ['102', '118', '138', '128', '37', '116', '139', '132', '124', '148', '136', '69', '94', '80', '111'] 242.03703703703744
115 4.840740740740743 ['102', '118', '138', '128', '37', '116', '139', '132', '124', '148', '136', '69', '94', '80', '111'] 242.03703703703744
116 4.840740740740743 ['102', '118', '138', '128', '37', '116', '139', '132', '124', '148', '136', '69', '94', '80', '111'] 242.03703703703744
117 4.840740740740743 ['102', '118', '138', '128', '37', '116', '139', '132', '124', '148', '136', '69', '94', '80', '111'] 242.03703703703744
118 4.840740740740743 ['102', '118', '138', '128', '37', '116', '139', '132', '124', '148', '136', '69', '94', '80', '111'] 242.03703703703744
119 4.840740740740743 ['102', '118', '138', '128', '37', '116', '139', '132', '124', '148', '136', '69', '94', '80', '111'] 242.03703703703744
120 4.840740740740743 ['102', '118', '138', '128', '37', '116', '139', '132', '124', '148', '136', '69', '94', '80', '111'] 242.03703703703744
121 4.840740740740743 ['102', '118', '138', '128', '37', '116', '139', '132', '124', '148', '136', '69', '94', '80', '111'] 242.03703703703744
122 4.840740740740743 ['102', '118', '138', '128', '37', '116', '139', '132', '124', '148', '136', '69', '94', '80', '111'] 242.03703703703744
123 4.840740740740743 ['102', '118', '138', '128', '37', '116', '139', '132', '124', '148', '136', '69', '94', '80', '111'] 242.03703703703744
124 4.840740740740743 ['102', '118', '138', '128', '37', '116', '139', '132', '124', '148', '136', '69', '94', '80', '111'] 242.03703703703744
125 4.840740740740743 ['102', '118', '138', '128', '37', '116', '139', '132', '124', '148', '136', '69', '94', '80', '111'] 242.03703703703744
126 4.840740740740743 ['102', '118', '138', '128', '37', '116', '139', '132', '124', '148', '136', '69', '94', '80', '111'] 242.03703703703744
127 4.840740740740743 ['102', '118', '138', '128', '37', '116', '139', '132', '124', '148', '136', '69', '94', '80', '111'] 242.03703703703744
128 4.840740740740743 ['102', '118', '138', '128', '37', '116', '139', '132', '124', '148', '136', '69', '94', '80', '111'] 242.03703703703744
129 4.840740740740743 ['102', '118', '138', '128', '37', '116', '139', '132', '124', '148', '136', '69', '94', '80', '111'] 242.03703703703744
130 4.840740740740743 ['102', '118', '138', '128', '37', '116', '139', '132', '124', '148', '136', '69', '94', '80', '111'] 242.03703703703744
131 4.840740740740743 ['102', '118', '138', '128', '37', '116', '139', '132', '124', '148', '136', '69', '94', '80', '111'] 242.03703703703744
132 4.840740740740743 ['102', '118', '138', '128', '37', '116', '139', '132', '124', '148', '136', '69', '94', '80', '111'] 242.03703703703744
133 4.840740740740743 ['102', '118', '138', '128', '37', '116', '139', '132', '124', '148', '136', '69', '94', '80', '111'] 242.03703703703744
134 4.840740740740743 ['102', '118', '138', '128', '37', '116', '139', '132', '124', '148', '136', '69', '94', '80', '111'] 242.03703703703744
135 4.840740740740743 ['102', '118', '138', '128', '37', '116', '139', '132', '124', '148', '136', '69', '94', '80', '111'] 242.03703703703744
136 4.840740740740743 ['102', '118', '138', '128', '37', '116', '139', '132', '124', '148', '136', '69', '94', '80', '111'] 242.03703703703744
137 4.840740740740743 ['102', '118', '138', '128', '37', '116', '139', '132', '124', '148', '136', '69', '94', '80', '111'] 242.03703703703744
138 4.840740740740743 ['102', '118', '138', '128', '37', '116', '139', '132', '124', '148', '136', '69', '94', '80', '111'] 242.03703703703744
139 4.840740740740743 ['102', '118', '138', '128', '37', '116', '139', '132', '124', '148', '136', '69', '94', '80', '111'] 242.03703703703744
140 4.840740740740743 ['102', '118', '138', '128', '37', '116', '139', '132', '124', '148', '136', '69', '94', '80', '111'] 242.03703703703744
141 4.840740740740743 ['102', '118', '138', '128', '37', '116', '139', '132', '124', '148', '136', '69', '94', '80', '111'] 242.03703703703744
142 4.840740740740743 ['102', '118', '138', '128', '37', '116', '139', '132', '124', '148', '136', '69', '94', '80', '111'] 242.03703703703744
143 4.840740740740743 ['102', '118', '138', '128', '37', '116', '139', '132', '124', '148', '136', '69', '94', '80', '111'] 242.03703703703744
144 4.840740740740743 ['102', '118', '138', '128', '37', '116', '139', '132', '124', '148', '136', '69', '94', '80', '111'] 242.03703703703744
145 4.840740740740743 ['102', '118', '138', '128', '37', '116', '139', '132', '124', '148', '136', '69', '94', '80', '111'] 242.03703703703744
146 4.840740740740743 ['102', '118', '138', '128', '37', '116', '139', '132', '124', '148', '136', '69', '94', '80', '111'] 242.03703703703744
147 4.840740740740743 ['102', '118', '138', '128', '37', '116', '139', '132', '124', '148', '136', '69', '94', '80', '111'] 242.03703703703744
148 4.840740740740743 ['102', '118', '138', '128', '37', '116', '139', '132', '124', '148', '136', '69', '94', '80', '111'] 242.03703703703744
149 4.840740740740743 ['102', '118', '138', '128', '37', '116', '139', '132', '124', '148', '136', '69', '94', '80', '111'] 242.03703703703744
150 4.840740740740743 ['102', '118', '138', '128', '37', '116', '139', '132', '124', '148', '136', '69', '94', '80', '111'] 242.03703703703744
151 4.840740740740743 ['102', '118', '138', '128', '37', '116', '139', '132', '124', '148', '136', '69', '94', '80', '111'] 242.03703703703744
152 4.840740740740743 ['102', '118', '138', '128', '37', '116', '139', '132', '124', '148', '136', '69', '94', '80', '111'] 242.03703703703744
153 4.840740740740743 ['102', '118', '138', '128', '37', '116', '139', '132', '124', '148', '136', '69', '94', '80', '111'] 242.03703703703744
154 4.840740740740743 ['102', '118', '138', '128', '37', '116', '139', '132', '124', '148', '136', '69', '94', '80', '111'] 242.03703703703744
155 4.840740740740743 ['102', '118', '138', '128', '37', '116', '139', '132', '124', '148', '136', '69', '94', '80', '111'] 242.03703703703744
156 4.840740740740743 ['102', '118', '138', '128', '37', '116', '139', '132', '124', '148', '136', '69', '94', '80', '111'] 242.03703703703744
157 4.840740740740743 ['102', '118', '138', '128', '37', '116', '139', '132', '124', '148', '136', '69', '94', '80', '111'] 242.03703703703744
158 4.840740740740743 ['102', '118', '138', '128', '37', '116', '139', '132', '124', '148', '136', '69', '94', '80', '111'] 242.03703703703744
159 4.840740740740743 ['102', '118', '138', '128', '37', '116', '139', '132', '124', '148', '136', '69', '94', '80', '111'] 242.03703703703744
160 4.840740740740743 ['102', '118', '138', '128', '37', '116', '139', '132', '124', '148', '136', '69', '94', '80', '111'] 242.03703703703744
161 4.840740740740743 ['102', '118', '138', '128', '37', '116', '139', '132', '124', '148', '136', '69', '94', '80', '111'] 242.03703703703744
162 4.840740740740743 ['102', '118', '138', '128', '37', '116', '139', '132', '124', '148', '136', '69', '94', '80', '111'] 242.03703703703744
163 4.840740740740743 ['102', '118', '138', '128', '37', '116', '139', '132', '124', '148', '136', '69', '94', '80', '111'] 242.03703703703744
164 4.840740740740743 ['102', '118', '138', '128', '37', '116', '139', '132', '124', '148', '136', '69', '94', '80', '111'] 242.03703703703744
165 4.840740740740743 ['102', '118', '138', '128', '37', '116', '139', '132', '124', '148', '136', '69', '94', '80', '111'] 242.03703703703744
166 4.840740740740743 ['102', '118', '138', '128', '37', '116', '139', '132', '124', '148', '136', '69', '94', '80', '111'] 242.03703703703744
167 4.840740740740743 ['102', '118', '138', '128', '37', '116', '139', '132', '124', '148', '136', '69', '94', '80', '111'] 242.03703703703744
168 4.840740740740743 ['102', '118', '138', '128', '37', '116', '139', '132', '124', '148', '136', '69', '94', '80', '111'] 242.03703703703744
169 4.840740740740743 ['102', '118', '138', '128', '37', '116', '139', '132', '124', '148', '136', '69', '94', '80', '111'] 242.03703703703744
170 4.840740740740743 ['102', '118', '138', '128', '37', '116', '139', '132', '124', '148', '136', '69', '94', '80', '111'] 242.03703703703744
171 4.840740740740743 ['102', '118', '138', '128', '37', '116', '139', '132', '124', '148', '136', '69', '94', '80', '111'] 242.03703703703744
172 4.840740740740743 ['102', '118', '138', '128', '37', '116', '139', '132', '124', '148', '136', '69', '94', '80', '111'] 242.03703703703744
173 4.840740740740743 ['102', '118', '138', '128', '37', '116', '139', '132', '124', '148', '136', '69', '94', '80', '111'] 242.03703703703744
174 4.840740740740743 ['102', '118', '138', '128', '37', '116', '139', '132', '124', '148', '136', '69', '94', '80', '111'] 242.03703703703744
175 4.840740740740743 ['102', '118', '138', '128', '37', '116', '139', '132', '124', '148', '136', '69', '94', '80', '111'] 242.03703703703744
176 4.840740740740743 ['102', '118', '138', '128', '37', '116', '139', '132', '124', '148', '136', '69', '94', '80', '111'] 242.03703703703744
177 4.840740740740743 ['102', '118', '138', '128', '37', '116', '139', '132', '124', '148', '136', '69', '94', '80', '111'] 242.03703703703744
178 4.840740740740743 ['102', '118', '138', '128', '37', '116', '139', '132', '124', '148', '136', '69', '94', '80', '111'] 242.03703703703744
179 4.840740740740743 ['102', '118', '138', '128', '37', '116', '139', '132', '124', '148', '136', '69', '94', '80', '111'] 242.03703703703744
180 4.840740740740743 ['102', '118', '138', '128', '37', '116', '139', '132', '124', '148', '136', '69', '94', '80', '111'] 242.03703703703744
181 4.840740740740743 ['102', '118', '138', '128', '37', '116', '139', '132', '124', '148', '136', '69', '94', '80', '111'] 242.03703703703744
182 4.840740740740743 ['102', '118', '138', '128', '37', '116', '139', '132', '124', '148', '136', '69', '94', '80', '111'] 242.03703703703744
183 4.840740740740743 ['102', '118', '138', '128', '37', '116', '139', '132', '124', '148', '136', '69', '94', '80', '111'] 242.03703703703744
184 4.840740740740743 ['102', '118', '138', '128', '37', '116', '139', '132', '124', '148', '136', '69', '94', '80', '111'] 242.03703703703744
185 4.840740740740743 ['102', '118', '138', '128', '37', '116', '139', '132', '124', '148', '136', '69', '94', '80', '111'] 242.03703703703744
186 4.840740740740743 ['102', '118', '138', '128', '37', '116', '139', '132', '124', '148', '136', '69', '94', '80', '111'] 242.03703703703744
187 4.840740740740743 ['102', '118', '138', '128', '37', '116', '139', '132', '124', '148', '136', '69', '94', '80', '111'] 242.03703703703744
188 4.840740740740743 ['102', '118', '138', '128', '37', '116', '139', '132', '124', '148', '136', '69', '94', '80', '111'] 242.03703703703744
189 4.840740740740743 ['102', '118', '138', '128', '37', '116', '139', '132', '124', '148', '136', '69', '94', '80', '111'] 242.03703703703744
190 4.840740740740743 ['102', '118', '138', '128', '37', '116', '139', '132', '124', '148', '136', '69', '94', '80', '111'] 242.03703703703744
191 4.840740740740743 ['102', '118', '138', '128', '37', '116', '139', '132', '124', '148', '136', '69', '94', '80', '111'] 242.03703703703744
192 4.840740740740743 ['102', '118', '138', '128', '37', '116', '139', '132', '124', '148', '136', '69', '94', '80', '111'] 242.03703703703744
193 4.840740740740743 ['102', '118', '138', '128', '37', '116', '139', '132', '124', '148', '136', '69', '94', '80', '111'] 242.03703703703744
194 4.840740740740743 ['102', '118', '138', '128', '37', '116', '139', '132', '124', '148', '136', '69', '94', '80', '111'] 242.03703703703744
195 4.840740740740743 ['102', '118', '138', '128', '37', '116', '139', '132', '124', '148', '136', '69', '94', '80', '111'] 242.03703703703744
196 4.840740740740743 ['102', '118', '138', '128', '37', '116', '139', '132', '124', '148', '136', '69', '94', '80', '111'] 242.03703703703744
197 4.840740740740743 ['102', '118', '138', '128', '37', '116', '139', '132', '124', '148', '136', '69', '94', '80', '111'] 242.03703703703744
198 4.840740740740743 ['102', '118', '138', '128', '37', '116', '139', '132', '124', '148', '136', '69', '94', '80', '111'] 242.03703703703744
199 4.840740740740743 ['102', '118', '138', '128', '37', '116', '139', '132', '124', '148', '136', '69', '94', '80', '111'] 242.03703703703744
