0 37.20754716981132 ['43', '21', '42', '16', '32'] 2173.886792452831
1 37.20754716981132 ['43', '21', '42', '16', '32'] 2096.8301886792447
2 37.20754716981132 ['43', '21', '42', '16', '32'] 2013.584905660377
3 35.698113207547166 ['43', '21', '53', '32', '16'] 1955.8490566037738
4 35.698113207547166 ['43', '21', '53', '32', '16'] 1912.301886792452
5 35.16981132075472 ['43', '53', '16', '20', '32'] 1871.9999999999995
6 35.16981132075472 ['43', '53', '16', '20', '32'] 1832.7547169811326
7 35.16981132075472 ['43', '53', '16', '20', '32'] 1805.4339622641512
8 35.16981132075472 ['43', '53', '16', '20', '32'] 1787.698113207548
9 35.16981132075472 ['43', '53', '16', '20', '32'] 1765.660377358489
10 35.16981132075472 ['43', '53', '16', '20', '32'] 1758.490566037734
11 35.16981132075472 ['43', '53', '16', '20', '32'] 1758.490566037734
12 35.16981132075472 ['43', '53', '16', '20', '32'] 1758.490566037734
13 35.16981132075472 ['43', '53', '16', '20', '32'] 1758.490566037734
14 35.16981132075472 ['43', '53', '16', '20', '32'] 1758.490566037734
15 35.16981132075472 ['43', '53', '16', '20', '32'] 1758.490566037734
16 35.16981132075472 ['43', '53', '16', '20', '32'] 1758.490566037734
17 35.16981132075472 ['43', '53', '16', '20', '32'] 1758.490566037734
18 35.16981132075472 ['43', '53', '16', '20', '32'] 1758.490566037734
19 35.16981132075472 ['43', '53', '16', '20', '32'] 1758.490566037734
20 35.16981132075472 ['43', '53', '16', '20', '32'] 1758.490566037734
21 35.16981132075472 ['43', '53', '16', '20', '32'] 1758.490566037734
22 35.16981132075472 ['43', '53', '16', '20', '32'] 1758.490566037734
23 35.16981132075472 ['43', '53', '16', '20', '32'] 1758.490566037734
24 35.16981132075472 ['43', '53', '16', '20', '32'] 1758.490566037734
25 35.16981132075472 ['43', '53', '16', '20', '32'] 1758.490566037734
26 35.16981132075472 ['43', '53', '16', '20', '32'] 1758.490566037734
27 35.16981132075472 ['43', '53', '16', '20', '32'] 1758.490566037734
28 35.16981132075472 ['43', '53', '16', '20', '32'] 1758.490566037734
29 35.16981132075472 ['43', '53', '16', '20', '32'] 1758.490566037734
30 35.16981132075472 ['43', '53', '16', '20', '32'] 1758.490566037734
31 35.16981132075472 ['43', '53', '16', '20', '32'] 1758.490566037734
32 35.16981132075472 ['43', '53', '16', '20', '32'] 1758.490566037734
33 35.16981132075472 ['43', '53', '16', '20', '32'] 1758.490566037734
34 35.16981132075472 ['43', '53', '16', '20', '32'] 1758.490566037734
35 35.16981132075472 ['43', '53', '16', '20', '32'] 1758.490566037734
36 35.16981132075472 ['43', '53', '16', '20', '32'] 1758.490566037734
37 35.16981132075472 ['43', '53', '16', '20', '32'] 1758.490566037734
38 35.16981132075472 ['43', '53', '16', '20', '32'] 1758.490566037734
39 35.16981132075472 ['43', '53', '16', '20', '32'] 1758.490566037734
40 35.16981132075472 ['43', '53', '16', '20', '32'] 1758.490566037734
41 35.16981132075472 ['43', '53', '16', '20', '32'] 1758.490566037734
42 35.16981132075472 ['43', '53', '16', '20', '32'] 1758.490566037734
43 35.16981132075472 ['43', '53', '16', '20', '32'] 1758.490566037734
44 35.16981132075472 ['43', '53', '16', '20', '32'] 1758.490566037734
45 35.16981132075472 ['43', '53', '16', '20', '32'] 1758.490566037734
46 35.16981132075472 ['43', '53', '16', '20', '32'] 1758.490566037734
47 35.16981132075472 ['43', '53', '16', '20', '32'] 1758.490566037734
48 35.16981132075472 ['43', '53', '16', '20', '32'] 1758.490566037734
49 35.16981132075472 ['43', '53', '16', '20', '32'] 1758.490566037734
50 35.16981132075472 ['43', '53', '16', '20', '32'] 1758.490566037734
51 35.16981132075472 ['43', '53', '16', '20', '32'] 1758.490566037734
52 35.16981132075472 ['43', '53', '16', '20', '32'] 1758.490566037734
53 35.16981132075472 ['43', '53', '16', '20', '32'] 1758.490566037734
54 35.16981132075472 ['43', '53', '16', '20', '32'] 1758.490566037734
55 35.16981132075472 ['43', '53', '16', '20', '32'] 1758.490566037734
56 35.16981132075472 ['43', '53', '16', '20', '32'] 1758.490566037734
57 35.16981132075472 ['43', '53', '16', '20', '32'] 1758.490566037734
58 35.16981132075472 ['43', '53', '16', '20', '32'] 1758.490566037734
59 35.16981132075472 ['43', '53', '16', '20', '32'] 1758.490566037734
60 35.16981132075472 ['43', '53', '16', '20', '32'] 1758.490566037734
61 35.16981132075472 ['43', '53', '16', '20', '32'] 1758.490566037734
62 35.16981132075472 ['43', '53', '16', '20', '32'] 1758.490566037734
63 35.16981132075472 ['43', '53', '16', '20', '32'] 1758.490566037734
64 35.16981132075472 ['43', '53', '16', '20', '32'] 1758.490566037734
65 35.16981132075472 ['43', '53', '16', '20', '32'] 1758.490566037734
66 35.16981132075472 ['43', '53', '16', '20', '32'] 1758.490566037734
67 35.16981132075472 ['43', '53', '16', '20', '32'] 1758.490566037734
68 35.16981132075472 ['43', '53', '16', '20', '32'] 1758.490566037734
69 35.16981132075472 ['43', '53', '16', '20', '32'] 1758.490566037734
70 35.16981132075472 ['43', '53', '16', '20', '32'] 1758.490566037734
71 35.16981132075472 ['43', '53', '16', '20', '32'] 1758.490566037734
72 35.16981132075472 ['43', '53', '16', '20', '32'] 1758.490566037734
73 35.16981132075472 ['43', '53', '16', '20', '32'] 1758.490566037734
74 35.16981132075472 ['43', '53', '16', '20', '32'] 1758.490566037734
75 35.16981132075472 ['43', '53', '16', '20', '32'] 1758.490566037734
76 35.16981132075472 ['43', '53', '16', '20', '32'] 1758.490566037734
77 35.16981132075472 ['43', '53', '16', '20', '32'] 1758.490566037734
78 35.16981132075472 ['43', '53', '16', '20', '32'] 1758.490566037734
79 35.16981132075472 ['43', '53', '16', '20', '32'] 1758.490566037734
80 35.16981132075472 ['43', '53', '16', '20', '32'] 1758.490566037734
81 35.16981132075472 ['43', '53', '16', '20', '32'] 1758.490566037734
82 35.16981132075472 ['43', '53', '16', '20', '32'] 1758.490566037734
83 35.16981132075472 ['43', '53', '16', '20', '32'] 1758.490566037734
84 35.16981132075472 ['43', '53', '16', '20', '32'] 1758.490566037734
85 35.16981132075472 ['43', '53', '16', '20', '32'] 1758.490566037734
86 35.16981132075472 ['43', '53', '16', '20', '32'] 1758.490566037734
87 35.16981132075472 ['43', '53', '16', '20', '32'] 1758.490566037734
88 35.16981132075472 ['43', '53', '16', '20', '32'] 1758.490566037734
89 35.16981132075472 ['43', '53', '16', '20', '32'] 1758.490566037734
90 35.16981132075472 ['43', '53', '16', '20', '32'] 1758.490566037734
91 35.16981132075472 ['43', '53', '16', '20', '32'] 1758.490566037734
92 35.16981132075472 ['43', '53', '16', '20', '32'] 1758.490566037734
93 35.16981132075472 ['43', '53', '16', '20', '32'] 1758.490566037734
94 35.16981132075472 ['43', '53', '16', '20', '32'] 1758.490566037734
95 35.16981132075472 ['43', '53', '16', '20', '32'] 1758.490566037734
96 35.16981132075472 ['43', '53', '16', '20', '32'] 1758.490566037734
97 35.16981132075472 ['43', '53', '16', '20', '32'] 1758.490566037734
98 35.16981132075472 ['43', '53', '16', '20', '32'] 1758.490566037734
99 35.16981132075472 ['43', '53', '16', '20', '32'] 1758.490566037734
100 35.16981132075472 ['43', '53', '16', '20', '32'] 1758.490566037734
101 35.16981132075472 ['43', '53', '16', '20', '32'] 1758.490566037734
102 35.16981132075472 ['43', '53', '16', '20', '32'] 1758.490566037734
103 35.16981132075472 ['43', '53', '16', '20', '32'] 1758.490566037734
104 35.16981132075472 ['43', '53', '16', '20', '32'] 1758.490566037734
105 35.16981132075472 ['43', '53', '16', '20', '32'] 1758.490566037734
106 35.16981132075472 ['43', '53', '16', '20', '32'] 1758.490566037734
107 35.16981132075472 ['43', '53', '16', '20', '32'] 1758.490566037734
108 35.16981132075472 ['43', '53', '16', '20', '32'] 1758.490566037734
109 35.16981132075472 ['43', '53', '16', '20', '32'] 1758.490566037734
110 35.16981132075472 ['43', '53', '16', '20', '32'] 1758.490566037734
111 35.16981132075472 ['43', '53', '16', '20', '32'] 1758.490566037734
112 35.16981132075472 ['43', '53', '16', '20', '32'] 1758.490566037734
113 35.16981132075472 ['43', '53', '16', '20', '32'] 1758.490566037734
114 35.16981132075472 ['43', '53', '16', '20', '32'] 1758.490566037734
115 35.16981132075472 ['43', '53', '16', '20', '32'] 1758.490566037734
116 35.16981132075472 ['43', '53', '16', '20', '32'] 1758.490566037734
117 35.16981132075472 ['43', '53', '16', '20', '32'] 1758.490566037734
118 35.16981132075472 ['43', '53', '16', '20', '32'] 1758.490566037734
119 35.16981132075472 ['43', '53', '16', '20', '32'] 1758.490566037734
120 35.16981132075472 ['43', '53', '16', '20', '32'] 1758.490566037734
121 35.16981132075472 ['43', '53', '16', '20', '32'] 1758.490566037734
122 35.16981132075472 ['43', '53', '16', '20', '32'] 1758.490566037734
123 35.16981132075472 ['43', '53', '16', '20', '32'] 1758.490566037734
124 35.16981132075472 ['43', '53', '16', '20', '32'] 1758.490566037734
125 35.16981132075472 ['43', '53', '16', '20', '32'] 1758.490566037734
126 35.16981132075472 ['43', '53', '16', '20', '32'] 1758.490566037734
127 35.16981132075472 ['43', '53', '16', '20', '32'] 1758.490566037734
128 35.16981132075472 ['43', '53', '16', '20', '32'] 1758.490566037734
129 35.16981132075472 ['43', '53', '16', '20', '32'] 1758.490566037734
130 35.16981132075472 ['43', '53', '16', '20', '32'] 1758.490566037734
131 35.16981132075472 ['43', '53', '16', '20', '32'] 1758.490566037734
132 35.16981132075472 ['43', '53', '16', '20', '32'] 1758.490566037734
133 35.16981132075472 ['43', '53', '16', '20', '32'] 1758.490566037734
134 35.16981132075472 ['43', '53', '16', '20', '32'] 1758.490566037734
135 35.16981132075472 ['43', '53', '16', '20', '32'] 1758.490566037734
136 35.16981132075472 ['43', '53', '16', '20', '32'] 1758.490566037734
137 35.16981132075472 ['43', '53', '16', '20', '32'] 1758.490566037734
138 35.16981132075472 ['43', '53', '16', '20', '32'] 1758.490566037734
139 35.16981132075472 ['43', '53', '16', '20', '32'] 1758.490566037734
140 35.16981132075472 ['43', '53', '16', '20', '32'] 1758.490566037734
141 35.16981132075472 ['43', '53', '16', '20', '32'] 1758.490566037734
142 35.16981132075472 ['43', '53', '16', '20', '32'] 1758.490566037734
143 35.16981132075472 ['43', '53', '16', '20', '32'] 1758.490566037734
144 35.16981132075472 ['43', '53', '16', '20', '32'] 1758.490566037734
145 35.16981132075472 ['43', '53', '16', '20', '32'] 1758.490566037734
146 35.16981132075472 ['43', '53', '16', '20', '32'] 1758.490566037734
147 35.16981132075472 ['43', '53', '16', '20', '32'] 1758.490566037734
148 35.16981132075472 ['43', '53', '16', '20', '32'] 1758.490566037734
149 35.16981132075472 ['43', '53', '16', '20', '32'] 1758.490566037734
150 35.16981132075472 ['43', '53', '16', '20', '32'] 1758.490566037734
151 35.16981132075472 ['43', '53', '16', '20', '32'] 1758.490566037734
152 35.16981132075472 ['43', '53', '16', '20', '32'] 1758.490566037734
153 35.16981132075472 ['43', '53', '16', '20', '32'] 1758.490566037734
154 35.16981132075472 ['43', '53', '16', '20', '32'] 1758.490566037734
155 35.16981132075472 ['43', '53', '16', '20', '32'] 1758.490566037734
156 35.16981132075472 ['43', '53', '16', '20', '32'] 1758.490566037734
157 35.16981132075472 ['43', '53', '16', '20', '32'] 1758.490566037734
158 35.16981132075472 ['43', '53', '16', '20', '32'] 1758.490566037734
159 35.16981132075472 ['43', '53', '16', '20', '32'] 1758.490566037734
160 35.16981132075472 ['43', '53', '16', '20', '32'] 1758.490566037734
161 35.16981132075472 ['43', '53', '16', '20', '32'] 1758.490566037734
162 35.16981132075472 ['43', '53', '16', '20', '32'] 1758.490566037734
163 35.16981132075472 ['43', '53', '16', '20', '32'] 1758.490566037734
164 35.16981132075472 ['43', '53', '16', '20', '32'] 1758.490566037734
165 35.16981132075472 ['43', '53', '16', '20', '32'] 1758.490566037734
166 35.16981132075472 ['43', '53', '16', '20', '32'] 1758.490566037734
167 35.16981132075472 ['43', '53', '16', '20', '32'] 1758.490566037734
168 35.16981132075472 ['43', '53', '16', '20', '32'] 1758.490566037734
169 35.16981132075472 ['43', '53', '16', '20', '32'] 1758.490566037734
170 35.16981132075472 ['43', '53', '16', '20', '32'] 1758.490566037734
171 35.16981132075472 ['43', '53', '16', '20', '32'] 1758.490566037734
172 35.16981132075472 ['43', '53', '16', '20', '32'] 1758.490566037734
173 35.16981132075472 ['43', '53', '16', '20', '32'] 1758.490566037734
174 35.16981132075472 ['43', '53', '16', '20', '32'] 1758.490566037734
175 35.16981132075472 ['43', '53', '16', '20', '32'] 1758.490566037734
176 35.16981132075472 ['43', '53', '16', '20', '32'] 1758.490566037734
177 35.16981132075472 ['43', '53', '16', '20', '32'] 1758.490566037734
178 35.16981132075472 ['43', '53', '16', '20', '32'] 1758.490566037734
179 35.16981132075472 ['43', '53', '16', '20', '32'] 1758.490566037734
180 35.16981132075472 ['43', '53', '16', '20', '32'] 1758.490566037734
181 35.16981132075472 ['43', '53', '16', '20', '32'] 1758.490566037734
182 35.16981132075472 ['43', '53', '16', '20', '32'] 1758.490566037734
183 35.16981132075472 ['43', '53', '16', '20', '32'] 1758.490566037734
184 35.16981132075472 ['43', '53', '16', '20', '32'] 1758.490566037734
185 35.16981132075472 ['43', '53', '16', '20', '32'] 1758.490566037734
186 35.16981132075472 ['43', '53', '16', '20', '32'] 1758.490566037734
187 35.16981132075472 ['43', '53', '16', '20', '32'] 1758.490566037734
188 35.16981132075472 ['43', '53', '16', '20', '32'] 1758.490566037734
189 35.16981132075472 ['43', '53', '16', '20', '32'] 1758.490566037734
190 35.16981132075472 ['43', '53', '16', '20', '32'] 1758.490566037734
191 35.16981132075472 ['43', '53', '16', '20', '32'] 1758.490566037734
192 35.16981132075472 ['43', '53', '16', '20', '32'] 1758.490566037734
193 35.16981132075472 ['43', '53', '16', '20', '32'] 1758.490566037734
194 35.16981132075472 ['43', '53', '16', '20', '32'] 1758.490566037734
195 35.16981132075472 ['43', '53', '16', '20', '32'] 1758.490566037734
196 35.16981132075472 ['43', '53', '16', '20', '32'] 1758.490566037734
197 35.16981132075472 ['43', '53', '16', '20', '32'] 1758.490566037734
198 35.16981132075472 ['43', '53', '16', '20', '32'] 1758.490566037734
199 35.16981132075472 ['43', '53', '16', '20', '32'] 1758.490566037734
