0 36.12280701754386 ['32', '16', '33', '35', '49', '48'] 1880.4912280701753
1 35.96491228070175 ['38', '48', '60', '2', '29', '62'] 1854.0
2 35.54385964912281 ['62', '48', '60', '5', '36', '29'] 1829.8070175438593
3 35.54385964912281 ['62', '48', '60', '5', '36', '29'] 1811.59649122807
4 35.10526315789474 ['29', '35', '38', '59', '45', '48'] 1795.982456140351
5 34.92982456140351 ['60', '16', '35', '59', '48', '62'] 1782.8947368421054
6 34.8421052631579 ['29', '35', '59', '33', '38', '48'] 1770.421052631579
7 34.24561403508772 ['48', '5', '59', '38', '62', '14'] 1757.1578947368425
8 34.24561403508772 ['48', '5', '59', '38', '62', '14'] 1744.3333333333335
9 34.0 ['35', '62', '5', '59', '14', '48'] 1731.8596491228082
10 34.0 ['35', '62', '5', '59', '14', '48'] 1721.2456140350876
11 33.85964912280702 ['14', '48', '35', '52', '59', '5'] 1713.0701754385952
12 33.75438596491228 ['14', '59', '48', '35', '62', '52'] 1705.2807017543867
13 33.75438596491228 ['14', '59', '48', '35', '62', '52'] 1699.1403508771925
14 33.75438596491228 ['14', '59', '48', '35', '62', '52'] 1695.3684210526317
15 33.75438596491228 ['14', '59', '48', '35', '62', '52'] 1690.3508771929828
16 33.75438596491228 ['14', '59', '48', '35', '62', '52'] 1687.9649122807018
17 33.75438596491228 ['14', '59', '48', '35', '62', '52'] 1687.7192982456136
18 33.75438596491228 ['14', '59', '48', '35', '62', '52'] 1687.7192982456136
19 33.75438596491228 ['14', '59', '48', '35', '62', '52'] 1687.7192982456136
20 33.75438596491228 ['14', '59', '48', '35', '62', '52'] 1687.7192982456136
21 33.75438596491228 ['14', '59', '48', '35', '62', '52'] 1687.7192982456136
22 33.75438596491228 ['14', '59', '48', '35', '62', '52'] 1687.7192982456136
23 33.75438596491228 ['14', '59', '48', '35', '62', '52'] 1687.7192982456136
24 33.75438596491228 ['14', '59', '48', '35', '62', '52'] 1687.7192982456136
25 33.75438596491228 ['14', '59', '48', '35', '62', '52'] 1687.7192982456136
26 33.75438596491228 ['14', '59', '48', '35', '62', '52'] 1687.7192982456136
27 33.75438596491228 ['14', '59', '48', '35', '62', '52'] 1687.7192982456136
28 33.75438596491228 ['14', '59', '48', '35', '62', '52'] 1687.7192982456136
29 33.75438596491228 ['14', '59', '48', '35', '62', '52'] 1687.7192982456136
30 33.75438596491228 ['14', '59', '48', '35', '62', '52'] 1687.7192982456136
31 33.75438596491228 ['14', '59', '48', '35', '62', '52'] 1687.7192982456136
32 33.75438596491228 ['14', '59', '48', '35', '62', '52'] 1687.7192982456136
33 33.75438596491228 ['14', '59', '48', '35', '62', '52'] 1687.7192982456136
34 33.75438596491228 ['14', '59', '48', '35', '62', '52'] 1687.7192982456136
35 33.75438596491228 ['14', '59', '48', '35', '62', '52'] 1687.7192982456136
36 33.75438596491228 ['14', '59', '48', '35', '62', '52'] 1687.7192982456136
37 33.75438596491228 ['14', '59', '48', '35', '62', '52'] 1687.7192982456136
38 33.75438596491228 ['14', '59', '48', '35', '62', '52'] 1687.7192982456136
39 33.75438596491228 ['14', '59', '48', '35', '62', '52'] 1687.7192982456136
40 33.75438596491228 ['14', '59', '48', '35', '62', '52'] 1687.7192982456136
41 33.75438596491228 ['14', '59', '48', '35', '62', '52'] 1687.7192982456136
42 33.75438596491228 ['14', '59', '48', '35', '62', '52'] 1687.7192982456136
43 33.75438596491228 ['14', '59', '48', '35', '62', '52'] 1687.7192982456136
44 33.75438596491228 ['14', '59', '48', '35', '62', '52'] 1687.7192982456136
45 33.75438596491228 ['14', '59', '48', '35', '62', '52'] 1687.7192982456136
46 33.75438596491228 ['14', '59', '48', '35', '62', '52'] 1687.7192982456136
47 33.75438596491228 ['14', '59', '48', '35', '62', '52'] 1687.7192982456136
48 33.75438596491228 ['14', '59', '48', '35', '62', '52'] 1687.7192982456136
49 33.75438596491228 ['14', '59', '48', '35', '62', '52'] 1687.7192982456136
50 33.75438596491228 ['14', '59', '48', '35', '62', '52'] 1687.7192982456136
51 33.75438596491228 ['14', '59', '48', '35', '62', '52'] 1687.7192982456136
52 33.75438596491228 ['14', '59', '48', '35', '62', '52'] 1687.7192982456136
53 33.75438596491228 ['14', '59', '48', '35', '62', '52'] 1687.7192982456136
54 33.75438596491228 ['14', '59', '48', '35', '62', '52'] 1687.7192982456136
55 33.75438596491228 ['14', '59', '48', '35', '62', '52'] 1687.7192982456136
56 33.75438596491228 ['14', '59', '48', '35', '62', '52'] 1687.7192982456136
57 33.75438596491228 ['14', '59', '48', '35', '62', '52'] 1687.7192982456136
58 33.75438596491228 ['14', '59', '48', '35', '62', '52'] 1687.7192982456136
59 33.75438596491228 ['14', '59', '48', '35', '62', '52'] 1687.7192982456136
60 33.75438596491228 ['14', '59', '48', '35', '62', '52'] 1687.7192982456136
61 33.75438596491228 ['14', '59', '48', '35', '62', '52'] 1687.7192982456136
62 33.75438596491228 ['14', '59', '48', '35', '62', '52'] 1687.7192982456136
63 33.75438596491228 ['14', '59', '48', '35', '62', '52'] 1687.7192982456136
64 33.75438596491228 ['14', '59', '48', '35', '62', '52'] 1687.7192982456136
65 33.75438596491228 ['14', '59', '48', '35', '62', '52'] 1687.7192982456136
66 33.75438596491228 ['14', '59', '48', '35', '62', '52'] 1687.7192982456136
67 33.75438596491228 ['14', '59', '48', '35', '62', '52'] 1687.7192982456136
68 33.75438596491228 ['14', '59', '48', '35', '62', '52'] 1687.7192982456136
69 33.75438596491228 ['14', '59', '48', '35', '62', '52'] 1687.7192982456136
70 33.75438596491228 ['14', '59', '48', '35', '62', '52'] 1687.7192982456136
71 33.75438596491228 ['14', '59', '48', '35', '62', '52'] 1687.7192982456136
72 33.75438596491228 ['14', '59', '48', '35', '62', '52'] 1687.7192982456136
73 33.75438596491228 ['14', '59', '48', '35', '62', '52'] 1687.7192982456136
74 33.75438596491228 ['14', '59', '48', '35', '62', '52'] 1687.7192982456136
75 33.75438596491228 ['14', '59', '48', '35', '62', '52'] 1687.7192982456136
76 33.75438596491228 ['14', '59', '48', '35', '62', '52'] 1687.7192982456136
77 33.75438596491228 ['14', '59', '48', '35', '62', '52'] 1687.7192982456136
78 33.75438596491228 ['14', '59', '48', '35', '62', '52'] 1687.7192982456136
79 33.75438596491228 ['14', '59', '48', '35', '62', '52'] 1687.7192982456136
80 33.75438596491228 ['14', '59', '48', '35', '62', '52'] 1687.7192982456136
81 33.75438596491228 ['14', '59', '48', '35', '62', '52'] 1687.7192982456136
82 33.75438596491228 ['14', '59', '48', '35', '62', '52'] 1687.7192982456136
83 33.75438596491228 ['14', '59', '48', '35', '62', '52'] 1687.7192982456136
84 33.75438596491228 ['14', '59', '48', '35', '62', '52'] 1687.7192982456136
85 33.75438596491228 ['14', '59', '48', '35', '62', '52'] 1687.7192982456136
86 33.75438596491228 ['14', '59', '48', '35', '62', '52'] 1687.7192982456136
87 33.75438596491228 ['14', '59', '48', '35', '62', '52'] 1687.7192982456136
88 33.75438596491228 ['14', '59', '48', '35', '62', '52'] 1687.7192982456136
89 33.75438596491228 ['14', '59', '48', '35', '62', '52'] 1687.7192982456136
90 33.75438596491228 ['14', '59', '48', '35', '62', '52'] 1687.7192982456136
91 33.75438596491228 ['14', '59', '48', '35', '62', '52'] 1687.7192982456136
92 33.75438596491228 ['14', '59', '48', '35', '62', '52'] 1687.7192982456136
93 33.75438596491228 ['14', '59', '48', '35', '62', '52'] 1687.7192982456136
94 33.75438596491228 ['14', '59', '48', '35', '62', '52'] 1687.7192982456136
95 33.75438596491228 ['14', '59', '48', '35', '62', '52'] 1687.7192982456136
96 33.75438596491228 ['14', '59', '48', '35', '62', '52'] 1687.7192982456136
97 33.75438596491228 ['14', '59', '48', '35', '62', '52'] 1687.7192982456136
98 33.75438596491228 ['14', '59', '48', '35', '62', '52'] 1687.7192982456136
99 33.75438596491228 ['14', '59', '48', '35', '62', '52'] 1687.7192982456136
100 33.75438596491228 ['14', '59', '48', '35', '62', '52'] 1687.7192982456136
101 33.75438596491228 ['14', '59', '48', '35', '62', '52'] 1687.7192982456136
102 33.75438596491228 ['14', '59', '48', '35', '62', '52'] 1687.7192982456136
103 33.75438596491228 ['14', '59', '48', '35', '62', '52'] 1687.7192982456136
104 33.75438596491228 ['14', '59', '48', '35', '62', '52'] 1687.7192982456136
105 33.75438596491228 ['14', '59', '48', '35', '62', '52'] 1687.7192982456136
106 33.75438596491228 ['14', '59', '48', '35', '62', '52'] 1687.7192982456136
107 33.75438596491228 ['14', '59', '48', '35', '62', '52'] 1687.7192982456136
108 33.75438596491228 ['14', '59', '48', '35', '62', '52'] 1687.7192982456136
109 33.75438596491228 ['14', '59', '48', '35', '62', '52'] 1687.7192982456136
110 33.75438596491228 ['14', '59', '48', '35', '62', '52'] 1687.7192982456136
111 33.75438596491228 ['14', '59', '48', '35', '62', '52'] 1687.7192982456136
112 33.75438596491228 ['14', '59', '48', '35', '62', '52'] 1687.7192982456136
113 33.75438596491228 ['14', '59', '48', '35', '62', '52'] 1687.7192982456136
114 33.75438596491228 ['14', '59', '48', '35', '62', '52'] 1687.7192982456136
115 33.75438596491228 ['14', '59', '48', '35', '62', '52'] 1687.7192982456136
116 33.75438596491228 ['14', '59', '48', '35', '62', '52'] 1687.7192982456136
117 33.75438596491228 ['14', '59', '48', '35', '62', '52'] 1687.7192982456136
118 33.75438596491228 ['14', '59', '48', '35', '62', '52'] 1687.7192982456136
119 33.75438596491228 ['14', '59', '48', '35', '62', '52'] 1687.7192982456136
120 33.75438596491228 ['14', '59', '48', '35', '62', '52'] 1687.7192982456136
121 33.75438596491228 ['14', '59', '48', '35', '62', '52'] 1687.7192982456136
122 33.75438596491228 ['14', '59', '48', '35', '62', '52'] 1687.7192982456136
123 33.75438596491228 ['14', '59', '48', '35', '62', '52'] 1687.7192982456136
124 33.75438596491228 ['14', '59', '48', '35', '62', '52'] 1687.7192982456136
125 33.75438596491228 ['14', '59', '48', '35', '62', '52'] 1687.7192982456136
126 33.75438596491228 ['14', '59', '48', '35', '62', '52'] 1687.7192982456136
127 33.75438596491228 ['14', '59', '48', '35', '62', '52'] 1687.7192982456136
128 33.75438596491228 ['14', '59', '48', '35', '62', '52'] 1687.7192982456136
129 33.75438596491228 ['14', '59', '48', '35', '62', '52'] 1687.7192982456136
130 33.75438596491228 ['14', '59', '48', '35', '62', '52'] 1687.7192982456136
131 33.75438596491228 ['14', '59', '48', '35', '62', '52'] 1687.7192982456136
132 33.75438596491228 ['14', '59', '48', '35', '62', '52'] 1687.7192982456136
133 33.75438596491228 ['14', '59', '48', '35', '62', '52'] 1687.7192982456136
134 33.75438596491228 ['14', '59', '48', '35', '62', '52'] 1687.7192982456136
135 33.75438596491228 ['14', '59', '48', '35', '62', '52'] 1687.7192982456136
136 33.75438596491228 ['14', '59', '48', '35', '62', '52'] 1687.7192982456136
137 33.75438596491228 ['14', '59', '48', '35', '62', '52'] 1687.7192982456136
138 33.75438596491228 ['14', '59', '48', '35', '62', '52'] 1687.7192982456136
139 33.75438596491228 ['14', '59', '48', '35', '62', '52'] 1687.7192982456136
140 33.75438596491228 ['14', '59', '48', '35', '62', '52'] 1687.7192982456136
141 33.75438596491228 ['14', '59', '48', '35', '62', '52'] 1687.7192982456136
142 33.75438596491228 ['14', '59', '48', '35', '62', '52'] 1687.7192982456136
143 33.75438596491228 ['14', '59', '48', '35', '62', '52'] 1687.7192982456136
144 33.75438596491228 ['14', '59', '48', '35', '62', '52'] 1687.7192982456136
145 33.75438596491228 ['14', '59', '48', '35', '62', '52'] 1687.7192982456136
146 33.75438596491228 ['14', '59', '48', '35', '62', '52'] 1687.7192982456136
147 33.75438596491228 ['14', '59', '48', '35', '62', '52'] 1687.7192982456136
148 33.75438596491228 ['14', '59', '48', '35', '62', '52'] 1687.7192982456136
149 33.75438596491228 ['14', '59', '48', '35', '62', '52'] 1687.7192982456136
150 33.75438596491228 ['14', '59', '48', '35', '62', '52'] 1687.7192982456136
151 33.75438596491228 ['14', '59', '48', '35', '62', '52'] 1687.7192982456136
152 33.75438596491228 ['14', '59', '48', '35', '62', '52'] 1687.7192982456136
153 33.75438596491228 ['14', '59', '48', '35', '62', '52'] 1687.7192982456136
154 33.75438596491228 ['14', '59', '48', '35', '62', '52'] 1687.7192982456136
155 33.75438596491228 ['14', '59', '48', '35', '62', '52'] 1687.7192982456136
156 33.75438596491228 ['14', '59', '48', '35', '62', '52'] 1687.7192982456136
157 33.75438596491228 ['14', '59', '48', '35', '62', '52'] 1687.7192982456136
158 33.75438596491228 ['14', '59', '48', '35', '62', '52'] 1687.7192982456136
159 33.75438596491228 ['14', '59', '48', '35', '62', '52'] 1687.7192982456136
160 33.75438596491228 ['14', '59', '48', '35', '62', '52'] 1687.7192982456136
161 33.75438596491228 ['14', '59', '48', '35', '62', '52'] 1687.7192982456136
162 33.75438596491228 ['14', '59', '48', '35', '62', '52'] 1687.7192982456136
163 33.75438596491228 ['14', '59', '48', '35', '62', '52'] 1687.7192982456136
164 33.75438596491228 ['14', '59', '48', '35', '62', '52'] 1687.7192982456136
165 33.75438596491228 ['14', '59', '48', '35', '62', '52'] 1687.7192982456136
166 33.75438596491228 ['14', '59', '48', '35', '62', '52'] 1687.7192982456136
167 33.75438596491228 ['14', '59', '48', '35', '62', '52'] 1687.7192982456136
168 33.75438596491228 ['14', '59', '48', '35', '62', '52'] 1687.7192982456136
169 33.75438596491228 ['14', '59', '48', '35', '62', '52'] 1687.7192982456136
170 33.75438596491228 ['14', '59', '48', '35', '62', '52'] 1687.7192982456136
171 33.75438596491228 ['14', '59', '48', '35', '62', '52'] 1687.7192982456136
172 33.75438596491228 ['14', '59', '48', '35', '62', '52'] 1687.7192982456136
173 33.75438596491228 ['14', '59', '48', '35', '62', '52'] 1687.7192982456136
174 33.75438596491228 ['14', '59', '48', '35', '62', '52'] 1687.7192982456136
175 33.75438596491228 ['14', '59', '48', '35', '62', '52'] 1687.7192982456136
176 33.75438596491228 ['14', '59', '48', '35', '62', '52'] 1687.7192982456136
177 33.75438596491228 ['14', '59', '48', '35', '62', '52'] 1687.7192982456136
178 33.75438596491228 ['14', '59', '48', '35', '62', '52'] 1687.7192982456136
179 33.75438596491228 ['14', '59', '48', '35', '62', '52'] 1687.7192982456136
180 33.75438596491228 ['14', '59', '48', '35', '62', '52'] 1687.7192982456136
181 33.75438596491228 ['14', '59', '48', '35', '62', '52'] 1687.7192982456136
182 33.75438596491228 ['14', '59', '48', '35', '62', '52'] 1687.7192982456136
183 33.75438596491228 ['14', '59', '48', '35', '62', '52'] 1687.7192982456136
184 33.75438596491228 ['14', '59', '48', '35', '62', '52'] 1687.7192982456136
185 33.75438596491228 ['14', '59', '48', '35', '62', '52'] 1687.7192982456136
186 33.75438596491228 ['14', '59', '48', '35', '62', '52'] 1687.7192982456136
187 33.75438596491228 ['14', '59', '48', '35', '62', '52'] 1687.7192982456136
188 33.75438596491228 ['14', '59', '48', '35', '62', '52'] 1687.7192982456136
189 33.75438596491228 ['14', '59', '48', '35', '62', '52'] 1687.7192982456136
190 33.75438596491228 ['14', '59', '48', '35', '62', '52'] 1687.7192982456136
191 33.75438596491228 ['14', '59', '48', '35', '62', '52'] 1687.7192982456136
192 33.75438596491228 ['14', '59', '48', '35', '62', '52'] 1687.7192982456136
193 33.75438596491228 ['14', '59', '48', '35', '62', '52'] 1687.7192982456136
194 33.75438596491228 ['14', '59', '48', '35', '62', '52'] 1687.7192982456136
195 33.75438596491228 ['14', '59', '48', '35', '62', '52'] 1687.7192982456136
196 33.75438596491228 ['14', '59', '48', '35', '62', '52'] 1687.7192982456136
197 33.75438596491228 ['14', '59', '48', '35', '62', '52'] 1687.7192982456136
198 33.75438596491228 ['14', '59', '48', '35', '62', '52'] 1687.7192982456136
199 33.75438596491228 ['14', '59', '48', '35', '62', '52'] 1687.7192982456136
