0 5.394320987654321 ['100', '88', '150', '119', '56', '69', '58', '19', '147', '55', '15', '8', '90', '16', '133'] 274.15432098765433
1 5.390493827160493 ['134', '26', '24', '45', '92', '115', '107', '51', '48', '145', '129', '71', '34', '101', '12'] 272.9170370370372
2 5.390493827160493 ['134', '26', '24', '45', '92', '115', '107', '51', '48', '145', '129', '71', '34', '101', '12'] 272.0098765432099
3 5.359876543209878 ['140', '145', '70', '144', '50', '56', '80', '117', '94', '61', '29', '106', '141', '31', '112'] 271.194938271605
4 5.346172839506175 ['26', '9', '70', '127', '111', '34', '92', '145', '68', '114', '45', '143', '24', '18', '115'] 270.61358024691356
5 5.325555555555557 ['24', '145', '26', '45', '92', '34', '111', '115', '25', '134', '70', '18', '101', '48', '114'] 269.8920987654322
6 5.325061728395062 ['88', '128', '106', '80', '145', '47', '79', '129', '140', '134', '143', '113', '127', '48', '16'] 269.0148148148149
7 5.293333333333335 ['16', '145', '143', '48', '146', '25', '80', '92', '18', '77', '129', '9', '52', '106', '127'] 268.1944444444445
8 5.267530864197531 ['128', '47', '68', '113', '48', '95', '111', '140', '16', '145', '146', '136', '52', '114', '127'] 267.2024691358025
9 5.250740740740741 ['145', '128', '114', '68', '48', '140', '127', '147', '113', '109', '12', '16', '144', '17', '31'] 266.0975308641976
10 5.240000000000001 ['140', '109', '145', '12', '17', '70', '114', '50', '8', '144', '127', '148', '48', '111', '147'] 265.2343209876545
11 5.203086419753089 ['127', '16', '114', '147', '140', '9', '106', '18', '145', '48', '68', '143', '52', '109', '111'] 264.25246913580247
12 5.152469135802472 ['114', '16', '9', '145', '18', '140', '127', '106', '147', '109', '70', '116', '146', '48', '111'] 263.1538271604939
13 5.152469135802472 ['114', '16', '9', '145', '18', '140', '127', '106', '147', '109', '70', '116', '146', '48', '111'] 262.1055555555556
14 5.137530864197532 ['147', '145', '140', '111', '114', '109', '48', '16', '136', '92', '34', '107', '116', '106', '52'] 260.931975308642
15 5.129506172839509 ['114', '116', '16', '140', '136', '145', '111', '48', '109', '70', '34', '106', '92', '107', '147'] 259.7361728395062
16 5.129506172839509 ['114', '116', '16', '140', '136', '145', '111', '48', '109', '70', '34', '106', '92', '107', '147'] 258.76283950617284
17 5.125925925925925 ['113', '127', '109', '147', '111', '114', '48', '16', '145', '140', '146', '65', '128', '9', '106'] 258.0754320987655
18 5.125925925925925 ['113', '127', '109', '147', '111', '114', '48', '16', '145', '140', '146', '65', '128', '9', '106'] 257.4444444444445
19 5.09432098765432 ['106', '144', '16', '147', '48', '140', '17', '127', '109', '145', '70', '111', '92', '114', '136'] 256.92234567901227
20 5.082592592592592 ['41', '140', '48', '114', '147', '145', '128', '109', '111', '127', '136', '113', '144', '106', '16'] 256.3491358024692
21 5.077654320987653 ['114', '140', '147', '145', '48', '113', '128', '111', '16', '127', '109', '41', '70', '144', '106'] 255.82604938271618
22 5.048641975308642 ['147', '106', '16', '114', '136', '145', '48', '111', '140', '127', '109', '17', '70', '144', '41'] 255.19185185185182
23 5.048641975308642 ['147', '106', '16', '114', '136', '145', '48', '111', '140', '127', '109', '17', '70', '144', '41'] 254.812098765432
24 5.048641975308642 ['147', '106', '16', '114', '136', '145', '48', '111', '140', '127', '109', '17', '70', '144', '41'] 254.30765432098778
25 5.048641975308642 ['147', '106', '16', '114', '136', '145', '48', '111', '140', '127', '109', '17', '70', '144', '41'] 254.00753086419758
26 5.048641975308642 ['147', '106', '16', '114', '136', '145', '48', '111', '140', '127', '109', '17', '70', '144', '41'] 253.55358024691353
27 5.048641975308642 ['147', '106', '16', '114', '136', '145', '48', '111', '140', '127', '109', '17', '70', '144', '41'] 253.11580246913564
28 5.048641975308642 ['147', '106', '16', '114', '136', '145', '48', '111', '140', '127', '109', '17', '70', '144', '41'] 252.47098765432094
29 5.048641975308642 ['147', '106', '16', '114', '136', '145', '48', '111', '140', '127', '109', '17', '70', '144', '41'] 252.43209876543207
30 5.048641975308642 ['147', '106', '16', '114', '136', '145', '48', '111', '140', '127', '109', '17', '70', '144', '41'] 252.43209876543207
31 5.048641975308642 ['147', '106', '16', '114', '136', '145', '48', '111', '140', '127', '109', '17', '70', '144', '41'] 252.43209876543207
32 5.048641975308642 ['147', '106', '16', '114', '136', '145', '48', '111', '140', '127', '109', '17', '70', '144', '41'] 252.43209876543207
33 5.048641975308642 ['147', '106', '16', '114', '136', '145', '48', '111', '140', '127', '109', '17', '70', '144', '41'] 252.43209876543207
34 5.048641975308642 ['147', '106', '16', '114', '136', '145', '48', '111', '140', '127', '109', '17', '70', '144', '41'] 252.43209876543207
35 5.048641975308642 ['147', '106', '16', '114', '136', '145', '48', '111', '140', '127', '109', '17', '70', '144', '41'] 252.43209876543207
36 5.048641975308642 ['147', '106', '16', '114', '136', '145', '48', '111', '140', '127', '109', '17', '70', '144', '41'] 252.43209876543207
37 5.048641975308642 ['147', '106', '16', '114', '136', '145', '48', '111', '140', '127', '109', '17', '70', '144', '41'] 252.43209876543207
38 5.048641975308642 ['147', '106', '16', '114', '136', '145', '48', '111', '140', '127', '109', '17', '70', '144', '41'] 252.43209876543207
39 5.048641975308642 ['147', '106', '16', '114', '136', '145', '48', '111', '140', '127', '109', '17', '70', '144', '41'] 252.43209876543207
40 5.048641975308642 ['147', '106', '16', '114', '136', '145', '48', '111', '140', '127', '109', '17', '70', '144', '41'] 252.43209876543207
41 5.048641975308642 ['147', '106', '16', '114', '136', '145', '48', '111', '140', '127', '109', '17', '70', '144', '41'] 252.43209876543207
42 5.048641975308642 ['147', '106', '16', '114', '136', '145', '48', '111', '140', '127', '109', '17', '70', '144', '41'] 252.43209876543207
43 5.048641975308642 ['147', '106', '16', '114', '136', '145', '48', '111', '140', '127', '109', '17', '70', '144', '41'] 252.43209876543207
44 5.048641975308642 ['147', '106', '16', '114', '136', '145', '48', '111', '140', '127', '109', '17', '70', '144', '41'] 252.43209876543207
45 5.048641975308642 ['147', '106', '16', '114', '136', '145', '48', '111', '140', '127', '109', '17', '70', '144', '41'] 252.43209876543207
46 5.048641975308642 ['147', '106', '16', '114', '136', '145', '48', '111', '140', '127', '109', '17', '70', '144', '41'] 252.43209876543207
47 5.048641975308642 ['147', '106', '16', '114', '136', '145', '48', '111', '140', '127', '109', '17', '70', '144', '41'] 252.43209876543207
48 5.048641975308642 ['147', '106', '16', '114', '136', '145', '48', '111', '140', '127', '109', '17', '70', '144', '41'] 252.43209876543207
49 5.048641975308642 ['147', '106', '16', '114', '136', '145', '48', '111', '140', '127', '109', '17', '70', '144', '41'] 252.43209876543207
50 5.048641975308642 ['147', '106', '16', '114', '136', '145', '48', '111', '140', '127', '109', '17', '70', '144', '41'] 252.43209876543207
51 5.048641975308642 ['147', '106', '16', '114', '136', '145', '48', '111', '140', '127', '109', '17', '70', '144', '41'] 252.43209876543207
52 5.048641975308642 ['147', '106', '16', '114', '136', '145', '48', '111', '140', '127', '109', '17', '70', '144', '41'] 252.43209876543207
53 5.048641975308642 ['147', '106', '16', '114', '136', '145', '48', '111', '140', '127', '109', '17', '70', '144', '41'] 252.43209876543207
54 5.048641975308642 ['147', '106', '16', '114', '136', '145', '48', '111', '140', '127', '109', '17', '70', '144', '41'] 252.43209876543207
55 5.048641975308642 ['147', '106', '16', '114', '136', '145', '48', '111', '140', '127', '109', '17', '70', '144', '41'] 252.43209876543207
56 5.048641975308642 ['147', '106', '16', '114', '136', '145', '48', '111', '140', '127', '109', '17', '70', '144', '41'] 252.43209876543207
57 5.048641975308642 ['147', '106', '16', '114', '136', '145', '48', '111', '140', '127', '109', '17', '70', '144', '41'] 252.43209876543207
58 5.048641975308642 ['147', '106', '16', '114', '136', '145', '48', '111', '140', '127', '109', '17', '70', '144', '41'] 252.43209876543207
59 5.048641975308642 ['147', '106', '16', '114', '136', '145', '48', '111', '140', '127', '109', '17', '70', '144', '41'] 252.43209876543207
60 5.048641975308642 ['147', '106', '16', '114', '136', '145', '48', '111', '140', '127', '109', '17', '70', '144', '41'] 252.43209876543207
61 5.048641975308642 ['147', '106', '16', '114', '136', '145', '48', '111', '140', '127', '109', '17', '70', '144', '41'] 252.43209876543207
62 5.048641975308642 ['147', '106', '16', '114', '136', '145', '48', '111', '140', '127', '109', '17', '70', '144', '41'] 252.43209876543207
63 5.048641975308642 ['147', '106', '16', '114', '136', '145', '48', '111', '140', '127', '109', '17', '70', '144', '41'] 252.43209876543207
64 5.048641975308642 ['147', '106', '16', '114', '136', '145', '48', '111', '140', '127', '109', '17', '70', '144', '41'] 252.43209876543207
65 5.048641975308642 ['147', '106', '16', '114', '136', '145', '48', '111', '140', '127', '109', '17', '70', '144', '41'] 252.43209876543207
66 5.048641975308642 ['147', '106', '16', '114', '136', '145', '48', '111', '140', '127', '109', '17', '70', '144', '41'] 252.43209876543207
67 5.048641975308642 ['147', '106', '16', '114', '136', '145', '48', '111', '140', '127', '109', '17', '70', '144', '41'] 252.43209876543207
68 5.048641975308642 ['147', '106', '16', '114', '136', '145', '48', '111', '140', '127', '109', '17', '70', '144', '41'] 252.43209876543207
69 5.048641975308642 ['147', '106', '16', '114', '136', '145', '48', '111', '140', '127', '109', '17', '70', '144', '41'] 252.43209876543207
70 5.048641975308642 ['147', '106', '16', '114', '136', '145', '48', '111', '140', '127', '109', '17', '70', '144', '41'] 252.43209876543207
71 5.048641975308642 ['147', '106', '16', '114', '136', '145', '48', '111', '140', '127', '109', '17', '70', '144', '41'] 252.43209876543207
72 5.048641975308642 ['147', '106', '16', '114', '136', '145', '48', '111', '140', '127', '109', '17', '70', '144', '41'] 252.43209876543207
73 5.048641975308642 ['147', '106', '16', '114', '136', '145', '48', '111', '140', '127', '109', '17', '70', '144', '41'] 252.43209876543207
74 5.048641975308642 ['147', '106', '16', '114', '136', '145', '48', '111', '140', '127', '109', '17', '70', '144', '41'] 252.43209876543207
75 5.048641975308642 ['147', '106', '16', '114', '136', '145', '48', '111', '140', '127', '109', '17', '70', '144', '41'] 252.43209876543207
76 5.048641975308642 ['147', '106', '16', '114', '136', '145', '48', '111', '140', '127', '109', '17', '70', '144', '41'] 252.43209876543207
77 5.048641975308642 ['147', '106', '16', '114', '136', '145', '48', '111', '140', '127', '109', '17', '70', '144', '41'] 252.43209876543207
78 5.048641975308642 ['147', '106', '16', '114', '136', '145', '48', '111', '140', '127', '109', '17', '70', '144', '41'] 252.43209876543207
79 5.048641975308642 ['147', '106', '16', '114', '136', '145', '48', '111', '140', '127', '109', '17', '70', '144', '41'] 252.43209876543207
80 5.048641975308642 ['147', '106', '16', '114', '136', '145', '48', '111', '140', '127', '109', '17', '70', '144', '41'] 252.43209876543207
81 5.048641975308642 ['147', '106', '16', '114', '136', '145', '48', '111', '140', '127', '109', '17', '70', '144', '41'] 252.43209876543207
82 5.048641975308642 ['147', '106', '16', '114', '136', '145', '48', '111', '140', '127', '109', '17', '70', '144', '41'] 252.43209876543207
83 5.048641975308642 ['147', '106', '16', '114', '136', '145', '48', '111', '140', '127', '109', '17', '70', '144', '41'] 252.43209876543207
84 5.048641975308642 ['147', '106', '16', '114', '136', '145', '48', '111', '140', '127', '109', '17', '70', '144', '41'] 252.43209876543207
85 5.048641975308642 ['147', '106', '16', '114', '136', '145', '48', '111', '140', '127', '109', '17', '70', '144', '41'] 252.43209876543207
86 5.048641975308642 ['147', '106', '16', '114', '136', '145', '48', '111', '140', '127', '109', '17', '70', '144', '41'] 252.43209876543207
87 5.048641975308642 ['147', '106', '16', '114', '136', '145', '48', '111', '140', '127', '109', '17', '70', '144', '41'] 252.43209876543207
88 5.048641975308642 ['147', '106', '16', '114', '136', '145', '48', '111', '140', '127', '109', '17', '70', '144', '41'] 252.43209876543207
89 5.048641975308642 ['147', '106', '16', '114', '136', '145', '48', '111', '140', '127', '109', '17', '70', '144', '41'] 252.43209876543207
90 5.048641975308642 ['147', '106', '16', '114', '136', '145', '48', '111', '140', '127', '109', '17', '70', '144', '41'] 252.43209876543207
91 5.048641975308642 ['147', '106', '16', '114', '136', '145', '48', '111', '140', '127', '109', '17', '70', '144', '41'] 252.43209876543207
92 5.048641975308642 ['147', '106', '16', '114', '136', '145', '48', '111', '140', '127', '109', '17', '70', '144', '41'] 252.43209876543207
93 5.048641975308642 ['147', '106', '16', '114', '136', '145', '48', '111', '140', '127', '109', '17', '70', '144', '41'] 252.43209876543207
94 5.048641975308642 ['147', '106', '16', '114', '136', '145', '48', '111', '140', '127', '109', '17', '70', '144', '41'] 252.43209876543207
95 5.048641975308642 ['147', '106', '16', '114', '136', '145', '48', '111', '140', '127', '109', '17', '70', '144', '41'] 252.43209876543207
96 5.048641975308642 ['147', '106', '16', '114', '136', '145', '48', '111', '140', '127', '109', '17', '70', '144', '41'] 252.43209876543207
97 5.048641975308642 ['147', '106', '16', '114', '136', '145', '48', '111', '140', '127', '109', '17', '70', '144', '41'] 252.43209876543207
98 5.048641975308642 ['147', '106', '16', '114', '136', '145', '48', '111', '140', '127', '109', '17', '70', '144', '41'] 252.43209876543207
99 5.048641975308642 ['147', '106', '16', '114', '136', '145', '48', '111', '140', '127', '109', '17', '70', '144', '41'] 252.43209876543207
100 5.048641975308642 ['147', '106', '16', '114', '136', '145', '48', '111', '140', '127', '109', '17', '70', '144', '41'] 252.43209876543207
101 5.048641975308642 ['147', '106', '16', '114', '136', '145', '48', '111', '140', '127', '109', '17', '70', '144', '41'] 252.43209876543207
102 5.048641975308642 ['147', '106', '16', '114', '136', '145', '48', '111', '140', '127', '109', '17', '70', '144', '41'] 252.43209876543207
103 5.048641975308642 ['147', '106', '16', '114', '136', '145', '48', '111', '140', '127', '109', '17', '70', '144', '41'] 252.43209876543207
104 5.048641975308642 ['147', '106', '16', '114', '136', '145', '48', '111', '140', '127', '109', '17', '70', '144', '41'] 252.43209876543207
105 5.048641975308642 ['147', '106', '16', '114', '136', '145', '48', '111', '140', '127', '109', '17', '70', '144', '41'] 252.43209876543207
106 5.048641975308642 ['147', '106', '16', '114', '136', '145', '48', '111', '140', '127', '109', '17', '70', '144', '41'] 252.43209876543207
107 5.048641975308642 ['147', '106', '16', '114', '136', '145', '48', '111', '140', '127', '109', '17', '70', '144', '41'] 252.43209876543207
108 5.048641975308642 ['147', '106', '16', '114', '136', '145', '48', '111', '140', '127', '109', '17', '70', '144', '41'] 252.43209876543207
109 5.048641975308642 ['147', '106', '16', '114', '136', '145', '48', '111', '140', '127', '109', '17', '70', '144', '41'] 252.43209876543207
110 5.048641975308642 ['147', '106', '16', '114', '136', '145', '48', '111', '140', '127', '109', '17', '70', '144', '41'] 252.43209876543207
111 5.048641975308642 ['147', '106', '16', '114', '136', '145', '48', '111', '140', '127', '109', '17', '70', '144', '41'] 252.43209876543207
112 5.048641975308642 ['147', '106', '16', '114', '136', '145', '48', '111', '140', '127', '109', '17', '70', '144', '41'] 252.43209876543207
113 5.048641975308642 ['147', '106', '16', '114', '136', '145', '48', '111', '140', '127', '109', '17', '70', '144', '41'] 252.43209876543207
114 5.048641975308642 ['147', '106', '16', '114', '136', '145', '48', '111', '140', '127', '109', '17', '70', '144', '41'] 252.43209876543207
115 5.048641975308642 ['147', '106', '16', '114', '136', '145', '48', '111', '140', '127', '109', '17', '70', '144', '41'] 252.43209876543207
116 5.048641975308642 ['147', '106', '16', '114', '136', '145', '48', '111', '140', '127', '109', '17', '70', '144', '41'] 252.43209876543207
117 5.048641975308642 ['147', '106', '16', '114', '136', '145', '48', '111', '140', '127', '109', '17', '70', '144', '41'] 252.43209876543207
118 5.048641975308642 ['147', '106', '16', '114', '136', '145', '48', '111', '140', '127', '109', '17', '70', '144', '41'] 252.43209876543207
119 5.048641975308642 ['147', '106', '16', '114', '136', '145', '48', '111', '140', '127', '109', '17', '70', '144', '41'] 252.43209876543207
120 5.048641975308642 ['147', '106', '16', '114', '136', '145', '48', '111', '140', '127', '109', '17', '70', '144', '41'] 252.43209876543207
121 5.048641975308642 ['147', '106', '16', '114', '136', '145', '48', '111', '140', '127', '109', '17', '70', '144', '41'] 252.43209876543207
122 5.048641975308642 ['147', '106', '16', '114', '136', '145', '48', '111', '140', '127', '109', '17', '70', '144', '41'] 252.43209876543207
123 5.048641975308642 ['147', '106', '16', '114', '136', '145', '48', '111', '140', '127', '109', '17', '70', '144', '41'] 252.43209876543207
124 5.048641975308642 ['147', '106', '16', '114', '136', '145', '48', '111', '140', '127', '109', '17', '70', '144', '41'] 252.43209876543207
125 5.048641975308642 ['147', '106', '16', '114', '136', '145', '48', '111', '140', '127', '109', '17', '70', '144', '41'] 252.43209876543207
126 5.048641975308642 ['147', '106', '16', '114', '136', '145', '48', '111', '140', '127', '109', '17', '70', '144', '41'] 252.43209876543207
127 5.048641975308642 ['147', '106', '16', '114', '136', '145', '48', '111', '140', '127', '109', '17', '70', '144', '41'] 252.43209876543207
128 5.048641975308642 ['147', '106', '16', '114', '136', '145', '48', '111', '140', '127', '109', '17', '70', '144', '41'] 252.43209876543207
129 5.048641975308642 ['147', '106', '16', '114', '136', '145', '48', '111', '140', '127', '109', '17', '70', '144', '41'] 252.43209876543207
130 5.048641975308642 ['147', '106', '16', '114', '136', '145', '48', '111', '140', '127', '109', '17', '70', '144', '41'] 252.43209876543207
131 5.048641975308642 ['147', '106', '16', '114', '136', '145', '48', '111', '140', '127', '109', '17', '70', '144', '41'] 252.43209876543207
132 5.048641975308642 ['147', '106', '16', '114', '136', '145', '48', '111', '140', '127', '109', '17', '70', '144', '41'] 252.43209876543207
133 5.048641975308642 ['147', '106', '16', '114', '136', '145', '48', '111', '140', '127', '109', '17', '70', '144', '41'] 252.43209876543207
134 5.048641975308642 ['147', '106', '16', '114', '136', '145', '48', '111', '140', '127', '109', '17', '70', '144', '41'] 252.43209876543207
135 5.048641975308642 ['147', '106', '16', '114', '136', '145', '48', '111', '140', '127', '109', '17', '70', '144', '41'] 252.43209876543207
136 5.048641975308642 ['147', '106', '16', '114', '136', '145', '48', '111', '140', '127', '109', '17', '70', '144', '41'] 252.43209876543207
137 5.048641975308642 ['147', '106', '16', '114', '136', '145', '48', '111', '140', '127', '109', '17', '70', '144', '41'] 252.43209876543207
138 5.048641975308642 ['147', '106', '16', '114', '136', '145', '48', '111', '140', '127', '109', '17', '70', '144', '41'] 252.43209876543207
139 5.048641975308642 ['147', '106', '16', '114', '136', '145', '48', '111', '140', '127', '109', '17', '70', '144', '41'] 252.43209876543207
140 5.048641975308642 ['147', '106', '16', '114', '136', '145', '48', '111', '140', '127', '109', '17', '70', '144', '41'] 252.43209876543207
141 5.048641975308642 ['147', '106', '16', '114', '136', '145', '48', '111', '140', '127', '109', '17', '70', '144', '41'] 252.43209876543207
142 5.048641975308642 ['147', '106', '16', '114', '136', '145', '48', '111', '140', '127', '109', '17', '70', '144', '41'] 252.43209876543207
143 5.048641975308642 ['147', '106', '16', '114', '136', '145', '48', '111', '140', '127', '109', '17', '70', '144', '41'] 252.43209876543207
144 5.048641975308642 ['147', '106', '16', '114', '136', '145', '48', '111', '140', '127', '109', '17', '70', '144', '41'] 252.43209876543207
145 5.048641975308642 ['147', '106', '16', '114', '136', '145', '48', '111', '140', '127', '109', '17', '70', '144', '41'] 252.43209876543207
146 5.048641975308642 ['147', '106', '16', '114', '136', '145', '48', '111', '140', '127', '109', '17', '70', '144', '41'] 252.43209876543207
147 5.048641975308642 ['147', '106', '16', '114', '136', '145', '48', '111', '140', '127', '109', '17', '70', '144', '41'] 252.43209876543207
148 5.048641975308642 ['147', '106', '16', '114', '136', '145', '48', '111', '140', '127', '109', '17', '70', '144', '41'] 252.43209876543207
149 5.048641975308642 ['147', '106', '16', '114', '136', '145', '48', '111', '140', '127', '109', '17', '70', '144', '41'] 252.43209876543207
150 5.048641975308642 ['147', '106', '16', '114', '136', '145', '48', '111', '140', '127', '109', '17', '70', '144', '41'] 252.43209876543207
151 5.048641975308642 ['147', '106', '16', '114', '136', '145', '48', '111', '140', '127', '109', '17', '70', '144', '41'] 252.43209876543207
152 5.048641975308642 ['147', '106', '16', '114', '136', '145', '48', '111', '140', '127', '109', '17', '70', '144', '41'] 252.43209876543207
153 5.048641975308642 ['147', '106', '16', '114', '136', '145', '48', '111', '140', '127', '109', '17', '70', '144', '41'] 252.43209876543207
154 5.048641975308642 ['147', '106', '16', '114', '136', '145', '48', '111', '140', '127', '109', '17', '70', '144', '41'] 252.43209876543207
155 5.048641975308642 ['147', '106', '16', '114', '136', '145', '48', '111', '140', '127', '109', '17', '70', '144', '41'] 252.43209876543207
156 5.048641975308642 ['147', '106', '16', '114', '136', '145', '48', '111', '140', '127', '109', '17', '70', '144', '41'] 252.43209876543207
157 5.048641975308642 ['147', '106', '16', '114', '136', '145', '48', '111', '140', '127', '109', '17', '70', '144', '41'] 252.43209876543207
158 5.048641975308642 ['147', '106', '16', '114', '136', '145', '48', '111', '140', '127', '109', '17', '70', '144', '41'] 252.43209876543207
159 5.048641975308642 ['147', '106', '16', '114', '136', '145', '48', '111', '140', '127', '109', '17', '70', '144', '41'] 252.43209876543207
160 5.048641975308642 ['147', '106', '16', '114', '136', '145', '48', '111', '140', '127', '109', '17', '70', '144', '41'] 252.43209876543207
161 5.048641975308642 ['147', '106', '16', '114', '136', '145', '48', '111', '140', '127', '109', '17', '70', '144', '41'] 252.43209876543207
162 5.048641975308642 ['147', '106', '16', '114', '136', '145', '48', '111', '140', '127', '109', '17', '70', '144', '41'] 252.43209876543207
163 5.048641975308642 ['147', '106', '16', '114', '136', '145', '48', '111', '140', '127', '109', '17', '70', '144', '41'] 252.43209876543207
164 5.048641975308642 ['147', '106', '16', '114', '136', '145', '48', '111', '140', '127', '109', '17', '70', '144', '41'] 252.43209876543207
165 5.048641975308642 ['147', '106', '16', '114', '136', '145', '48', '111', '140', '127', '109', '17', '70', '144', '41'] 252.43209876543207
166 5.048641975308642 ['147', '106', '16', '114', '136', '145', '48', '111', '140', '127', '109', '17', '70', '144', '41'] 252.43209876543207
167 5.048641975308642 ['147', '106', '16', '114', '136', '145', '48', '111', '140', '127', '109', '17', '70', '144', '41'] 252.43209876543207
168 5.048641975308642 ['147', '106', '16', '114', '136', '145', '48', '111', '140', '127', '109', '17', '70', '144', '41'] 252.43209876543207
169 5.048641975308642 ['147', '106', '16', '114', '136', '145', '48', '111', '140', '127', '109', '17', '70', '144', '41'] 252.43209876543207
170 5.048641975308642 ['147', '106', '16', '114', '136', '145', '48', '111', '140', '127', '109', '17', '70', '144', '41'] 252.43209876543207
171 5.048641975308642 ['147', '106', '16', '114', '136', '145', '48', '111', '140', '127', '109', '17', '70', '144', '41'] 252.43209876543207
172 5.048641975308642 ['147', '106', '16', '114', '136', '145', '48', '111', '140', '127', '109', '17', '70', '144', '41'] 252.43209876543207
173 5.048641975308642 ['147', '106', '16', '114', '136', '145', '48', '111', '140', '127', '109', '17', '70', '144', '41'] 252.43209876543207
174 5.048641975308642 ['147', '106', '16', '114', '136', '145', '48', '111', '140', '127', '109', '17', '70', '144', '41'] 252.43209876543207
175 5.048641975308642 ['147', '106', '16', '114', '136', '145', '48', '111', '140', '127', '109', '17', '70', '144', '41'] 252.43209876543207
176 5.048641975308642 ['147', '106', '16', '114', '136', '145', '48', '111', '140', '127', '109', '17', '70', '144', '41'] 252.43209876543207
177 5.048641975308642 ['147', '106', '16', '114', '136', '145', '48', '111', '140', '127', '109', '17', '70', '144', '41'] 252.43209876543207
178 5.048641975308642 ['147', '106', '16', '114', '136', '145', '48', '111', '140', '127', '109', '17', '70', '144', '41'] 252.43209876543207
179 5.048641975308642 ['147', '106', '16', '114', '136', '145', '48', '111', '140', '127', '109', '17', '70', '144', '41'] 252.43209876543207
180 5.048641975308642 ['147', '106', '16', '114', '136', '145', '48', '111', '140', '127', '109', '17', '70', '144', '41'] 252.43209876543207
181 5.048641975308642 ['147', '106', '16', '114', '136', '145', '48', '111', '140', '127', '109', '17', '70', '144', '41'] 252.43209876543207
182 5.048641975308642 ['147', '106', '16', '114', '136', '145', '48', '111', '140', '127', '109', '17', '70', '144', '41'] 252.43209876543207
183 5.048641975308642 ['147', '106', '16', '114', '136', '145', '48', '111', '140', '127', '109', '17', '70', '144', '41'] 252.43209876543207
184 5.048641975308642 ['147', '106', '16', '114', '136', '145', '48', '111', '140', '127', '109', '17', '70', '144', '41'] 252.43209876543207
185 5.048641975308642 ['147', '106', '16', '114', '136', '145', '48', '111', '140', '127', '109', '17', '70', '144', '41'] 252.43209876543207
186 5.048641975308642 ['147', '106', '16', '114', '136', '145', '48', '111', '140', '127', '109', '17', '70', '144', '41'] 252.43209876543207
187 5.048641975308642 ['147', '106', '16', '114', '136', '145', '48', '111', '140', '127', '109', '17', '70', '144', '41'] 252.43209876543207
188 5.048641975308642 ['147', '106', '16', '114', '136', '145', '48', '111', '140', '127', '109', '17', '70', '144', '41'] 252.43209876543207
189 5.048641975308642 ['147', '106', '16', '114', '136', '145', '48', '111', '140', '127', '109', '17', '70', '144', '41'] 252.43209876543207
190 5.048641975308642 ['147', '106', '16', '114', '136', '145', '48', '111', '140', '127', '109', '17', '70', '144', '41'] 252.43209876543207
191 5.048641975308642 ['147', '106', '16', '114', '136', '145', '48', '111', '140', '127', '109', '17', '70', '144', '41'] 252.43209876543207
192 5.048641975308642 ['147', '106', '16', '114', '136', '145', '48', '111', '140', '127', '109', '17', '70', '144', '41'] 252.43209876543207
193 5.048641975308642 ['147', '106', '16', '114', '136', '145', '48', '111', '140', '127', '109', '17', '70', '144', '41'] 252.43209876543207
194 5.048641975308642 ['147', '106', '16', '114', '136', '145', '48', '111', '140', '127', '109', '17', '70', '144', '41'] 252.43209876543207
195 5.048641975308642 ['147', '106', '16', '114', '136', '145', '48', '111', '140', '127', '109', '17', '70', '144', '41'] 252.43209876543207
196 5.048641975308642 ['147', '106', '16', '114', '136', '145', '48', '111', '140', '127', '109', '17', '70', '144', '41'] 252.43209876543207
197 5.048641975308642 ['147', '106', '16', '114', '136', '145', '48', '111', '140', '127', '109', '17', '70', '144', '41'] 252.43209876543207
198 5.048641975308642 ['147', '106', '16', '114', '136', '145', '48', '111', '140', '127', '109', '17', '70', '144', '41'] 252.43209876543207
199 5.048641975308642 ['147', '106', '16', '114', '136', '145', '48', '111', '140', '127', '109', '17', '70', '144', '41'] 252.43209876543207
