0 12.777777777777779 ['13', '16', '11'] 702.5833333333331
1 12.777777777777779 ['13', '16', '11'] 683.7500000000001
2 12.777777777777779 ['13', '16', '11'] 668.3611111111112
3 12.444444444444445 ['11', '13', '5'] 653.9722222222223
4 12.444444444444445 ['11', '13', '5'] 640.4999999999999
5 12.444444444444445 ['11', '13', '5'] 634.2777777777782
6 12.444444444444445 ['11', '13', '5'] 628.472222222223
7 12.444444444444445 ['11', '13', '5'] 622.2222222222226
8 12.444444444444445 ['11', '13', '5'] 622.2222222222226
9 12.444444444444445 ['11', '13', '5'] 622.2222222222226
10 12.444444444444445 ['11', '13', '5'] 622.2222222222226
11 12.444444444444445 ['11', '13', '5'] 622.2222222222226
12 12.444444444444445 ['11', '13', '5'] 622.2222222222226
13 12.444444444444445 ['11', '13', '5'] 622.2222222222226
14 12.444444444444445 ['11', '13', '5'] 622.2222222222226
15 12.444444444444445 ['11', '13', '5'] 622.2222222222226
16 12.444444444444445 ['11', '13', '5'] 622.2222222222226
17 12.444444444444445 ['11', '13', '5'] 622.2222222222226
18 12.444444444444445 ['11', '13', '5'] 622.2222222222226
19 12.444444444444445 ['11', '13', '5'] 622.2222222222226
20 12.444444444444445 ['11', '13', '5'] 622.2222222222226
21 12.444444444444445 ['11', '13', '5'] 622.2222222222226
22 12.444444444444445 ['11', '13', '5'] 622.2222222222226
23 12.444444444444445 ['11', '13', '5'] 622.2222222222226
24 12.444444444444445 ['11', '13', '5'] 622.2222222222226
25 12.444444444444445 ['11', '13', '5'] 622.2222222222226
26 12.444444444444445 ['11', '13', '5'] 622.2222222222226
27 12.444444444444445 ['11', '13', '5'] 622.2222222222226
28 12.444444444444445 ['11', '13', '5'] 622.2222222222226
29 12.444444444444445 ['11', '13', '5'] 622.2222222222226
30 12.444444444444445 ['11', '13', '5'] 622.2222222222226
31 12.444444444444445 ['11', '13', '5'] 622.2222222222226
32 12.444444444444445 ['11', '13', '5'] 622.2222222222226
33 12.444444444444445 ['11', '13', '5'] 622.2222222222226
34 12.444444444444445 ['11', '13', '5'] 622.2222222222226
35 12.444444444444445 ['11', '13', '5'] 622.2222222222226
36 12.444444444444445 ['11', '13', '5'] 622.2222222222226
37 12.444444444444445 ['11', '13', '5'] 622.2222222222226
38 12.444444444444445 ['11', '13', '5'] 622.2222222222226
39 12.444444444444445 ['11', '13', '5'] 622.2222222222226
40 12.444444444444445 ['11', '13', '5'] 622.2222222222226
41 12.444444444444445 ['11', '13', '5'] 622.2222222222226
42 12.444444444444445 ['11', '13', '5'] 622.2222222222226
43 12.444444444444445 ['11', '13', '5'] 622.2222222222226
44 12.444444444444445 ['11', '13', '5'] 622.2222222222226
45 12.444444444444445 ['11', '13', '5'] 622.2222222222226
46 12.444444444444445 ['11', '13', '5'] 622.2222222222226
47 12.444444444444445 ['11', '13', '5'] 622.2222222222226
48 12.444444444444445 ['11', '13', '5'] 622.2222222222226
49 12.444444444444445 ['11', '13', '5'] 622.2222222222226
50 12.444444444444445 ['11', '13', '5'] 622.2222222222226
51 12.444444444444445 ['11', '13', '5'] 622.2222222222226
52 12.444444444444445 ['11', '13', '5'] 622.2222222222226
53 12.444444444444445 ['11', '13', '5'] 622.2222222222226
54 12.444444444444445 ['11', '13', '5'] 622.2222222222226
55 12.444444444444445 ['11', '13', '5'] 622.2222222222226
56 12.444444444444445 ['11', '13', '5'] 622.2222222222226
57 12.444444444444445 ['11', '13', '5'] 622.2222222222226
58 12.444444444444445 ['11', '13', '5'] 622.2222222222226
59 12.444444444444445 ['11', '13', '5'] 622.2222222222226
60 12.444444444444445 ['11', '13', '5'] 622.2222222222226
61 12.444444444444445 ['11', '13', '5'] 622.2222222222226
62 12.444444444444445 ['11', '13', '5'] 622.2222222222226
63 12.444444444444445 ['11', '13', '5'] 622.2222222222226
64 12.444444444444445 ['11', '13', '5'] 622.2222222222226
65 12.444444444444445 ['11', '13', '5'] 622.2222222222226
66 12.444444444444445 ['11', '13', '5'] 622.2222222222226
67 12.444444444444445 ['11', '13', '5'] 622.2222222222226
68 12.444444444444445 ['11', '13', '5'] 622.2222222222226
69 12.444444444444445 ['11', '13', '5'] 622.2222222222226
70 12.444444444444445 ['11', '13', '5'] 622.2222222222226
71 12.444444444444445 ['11', '13', '5'] 622.2222222222226
72 12.444444444444445 ['11', '13', '5'] 622.2222222222226
73 12.444444444444445 ['11', '13', '5'] 622.2222222222226
74 12.444444444444445 ['11', '13', '5'] 622.2222222222226
75 12.444444444444445 ['11', '13', '5'] 622.2222222222226
76 12.444444444444445 ['11', '13', '5'] 622.2222222222226
77 12.444444444444445 ['11', '13', '5'] 622.2222222222226
78 12.444444444444445 ['11', '13', '5'] 622.2222222222226
79 12.444444444444445 ['11', '13', '5'] 622.2222222222226
80 12.444444444444445 ['11', '13', '5'] 622.2222222222226
81 12.444444444444445 ['11', '13', '5'] 622.2222222222226
82 12.444444444444445 ['11', '13', '5'] 622.2222222222226
83 12.444444444444445 ['11', '13', '5'] 622.2222222222226
84 12.444444444444445 ['11', '13', '5'] 622.2222222222226
85 12.444444444444445 ['11', '13', '5'] 622.2222222222226
86 12.444444444444445 ['11', '13', '5'] 622.2222222222226
87 12.444444444444445 ['11', '13', '5'] 622.2222222222226
88 12.444444444444445 ['11', '13', '5'] 622.2222222222226
89 12.444444444444445 ['11', '13', '5'] 622.2222222222226
90 12.444444444444445 ['11', '13', '5'] 622.2222222222226
91 12.444444444444445 ['11', '13', '5'] 622.2222222222226
92 12.444444444444445 ['11', '13', '5'] 622.2222222222226
93 12.444444444444445 ['11', '13', '5'] 622.2222222222226
94 12.444444444444445 ['11', '13', '5'] 622.2222222222226
95 12.444444444444445 ['11', '13', '5'] 622.2222222222226
96 12.444444444444445 ['11', '13', '5'] 622.2222222222226
97 12.444444444444445 ['11', '13', '5'] 622.2222222222226
98 12.444444444444445 ['11', '13', '5'] 622.2222222222226
99 12.444444444444445 ['11', '13', '5'] 622.2222222222226
100 12.444444444444445 ['11', '13', '5'] 622.2222222222226
101 12.444444444444445 ['11', '13', '5'] 622.2222222222226
102 12.444444444444445 ['11', '13', '5'] 622.2222222222226
103 12.444444444444445 ['11', '13', '5'] 622.2222222222226
104 12.444444444444445 ['11', '13', '5'] 622.2222222222226
105 12.444444444444445 ['11', '13', '5'] 622.2222222222226
106 12.444444444444445 ['11', '13', '5'] 622.2222222222226
107 12.444444444444445 ['11', '13', '5'] 622.2222222222226
108 12.444444444444445 ['11', '13', '5'] 622.2222222222226
109 12.444444444444445 ['11', '13', '5'] 622.2222222222226
110 12.444444444444445 ['11', '13', '5'] 622.2222222222226
111 12.444444444444445 ['11', '13', '5'] 622.2222222222226
112 12.444444444444445 ['11', '13', '5'] 622.2222222222226
113 12.444444444444445 ['11', '13', '5'] 622.2222222222226
114 12.444444444444445 ['11', '13', '5'] 622.2222222222226
115 12.444444444444445 ['11', '13', '5'] 622.2222222222226
116 12.444444444444445 ['11', '13', '5'] 622.2222222222226
117 12.444444444444445 ['11', '13', '5'] 622.2222222222226
118 12.444444444444445 ['11', '13', '5'] 622.2222222222226
119 12.444444444444445 ['11', '13', '5'] 622.2222222222226
120 12.444444444444445 ['11', '13', '5'] 622.2222222222226
121 12.444444444444445 ['11', '13', '5'] 622.2222222222226
122 12.444444444444445 ['11', '13', '5'] 622.2222222222226
123 12.444444444444445 ['11', '13', '5'] 622.2222222222226
124 12.444444444444445 ['11', '13', '5'] 622.2222222222226
125 12.444444444444445 ['11', '13', '5'] 622.2222222222226
126 12.444444444444445 ['11', '13', '5'] 622.2222222222226
127 12.444444444444445 ['11', '13', '5'] 622.2222222222226
128 12.444444444444445 ['11', '13', '5'] 622.2222222222226
129 12.444444444444445 ['11', '13', '5'] 622.2222222222226
130 12.444444444444445 ['11', '13', '5'] 622.2222222222226
131 12.444444444444445 ['11', '13', '5'] 622.2222222222226
132 12.444444444444445 ['11', '13', '5'] 622.2222222222226
133 12.444444444444445 ['11', '13', '5'] 622.2222222222226
134 12.444444444444445 ['11', '13', '5'] 622.2222222222226
135 12.444444444444445 ['11', '13', '5'] 622.2222222222226
136 12.444444444444445 ['11', '13', '5'] 622.2222222222226
137 12.444444444444445 ['11', '13', '5'] 622.2222222222226
138 12.444444444444445 ['11', '13', '5'] 622.2222222222226
139 12.444444444444445 ['11', '13', '5'] 622.2222222222226
140 12.444444444444445 ['11', '13', '5'] 622.2222222222226
141 12.444444444444445 ['11', '13', '5'] 622.2222222222226
142 12.444444444444445 ['11', '13', '5'] 622.2222222222226
143 12.444444444444445 ['11', '13', '5'] 622.2222222222226
144 12.444444444444445 ['11', '13', '5'] 622.2222222222226
145 12.444444444444445 ['11', '13', '5'] 622.2222222222226
146 12.444444444444445 ['11', '13', '5'] 622.2222222222226
147 12.444444444444445 ['11', '13', '5'] 622.2222222222226
148 12.444444444444445 ['11', '13', '5'] 622.2222222222226
149 12.444444444444445 ['11', '13', '5'] 622.2222222222226
150 12.444444444444445 ['11', '13', '5'] 622.2222222222226
151 12.444444444444445 ['11', '13', '5'] 622.2222222222226
152 12.444444444444445 ['11', '13', '5'] 622.2222222222226
153 12.444444444444445 ['11', '13', '5'] 622.2222222222226
154 12.444444444444445 ['11', '13', '5'] 622.2222222222226
155 12.444444444444445 ['11', '13', '5'] 622.2222222222226
156 12.444444444444445 ['11', '13', '5'] 622.2222222222226
157 12.444444444444445 ['11', '13', '5'] 622.2222222222226
158 12.444444444444445 ['11', '13', '5'] 622.2222222222226
159 12.444444444444445 ['11', '13', '5'] 622.2222222222226
160 12.444444444444445 ['11', '13', '5'] 622.2222222222226
161 12.444444444444445 ['11', '13', '5'] 622.2222222222226
162 12.444444444444445 ['11', '13', '5'] 622.2222222222226
163 12.444444444444445 ['11', '13', '5'] 622.2222222222226
164 12.444444444444445 ['11', '13', '5'] 622.2222222222226
165 12.444444444444445 ['11', '13', '5'] 622.2222222222226
166 12.444444444444445 ['11', '13', '5'] 622.2222222222226
167 12.444444444444445 ['11', '13', '5'] 622.2222222222226
168 12.444444444444445 ['11', '13', '5'] 622.2222222222226
169 12.444444444444445 ['11', '13', '5'] 622.2222222222226
170 12.444444444444445 ['11', '13', '5'] 622.2222222222226
171 12.444444444444445 ['11', '13', '5'] 622.2222222222226
172 12.444444444444445 ['11', '13', '5'] 622.2222222222226
173 12.444444444444445 ['11', '13', '5'] 622.2222222222226
174 12.444444444444445 ['11', '13', '5'] 622.2222222222226
175 12.444444444444445 ['11', '13', '5'] 622.2222222222226
176 12.444444444444445 ['11', '13', '5'] 622.2222222222226
177 12.444444444444445 ['11', '13', '5'] 622.2222222222226
178 12.444444444444445 ['11', '13', '5'] 622.2222222222226
179 12.444444444444445 ['11', '13', '5'] 622.2222222222226
180 12.444444444444445 ['11', '13', '5'] 622.2222222222226
181 12.444444444444445 ['11', '13', '5'] 622.2222222222226
182 12.444444444444445 ['11', '13', '5'] 622.2222222222226
183 12.444444444444445 ['11', '13', '5'] 622.2222222222226
184 12.444444444444445 ['11', '13', '5'] 622.2222222222226
185 12.444444444444445 ['11', '13', '5'] 622.2222222222226
186 12.444444444444445 ['11', '13', '5'] 622.2222222222226
187 12.444444444444445 ['11', '13', '5'] 622.2222222222226
188 12.444444444444445 ['11', '13', '5'] 622.2222222222226
189 12.444444444444445 ['11', '13', '5'] 622.2222222222226
190 12.444444444444445 ['11', '13', '5'] 622.2222222222226
191 12.444444444444445 ['11', '13', '5'] 622.2222222222226
192 12.444444444444445 ['11', '13', '5'] 622.2222222222226
193 12.444444444444445 ['11', '13', '5'] 622.2222222222226
194 12.444444444444445 ['11', '13', '5'] 622.2222222222226
195 12.444444444444445 ['11', '13', '5'] 622.2222222222226
196 12.444444444444445 ['11', '13', '5'] 622.2222222222226
197 12.444444444444445 ['11', '13', '5'] 622.2222222222226
198 12.444444444444445 ['11', '13', '5'] 622.2222222222226
199 12.444444444444445 ['11', '13', '5'] 622.2222222222226
