0 25.964912280701753 ['4', '35', '52', '47', '1', '62'] 1387.6491228070167
1 25.68421052631579 ['52', '4', '25', '35', '48', '33'] 1354.526315789474
2 25.54385964912281 ['48', '33', '25', '14', '35', '32'] 1329.8947368421047
3 25.333333333333332 ['14', '4', '52', '17', '35', '31'] 1309.9649122807011
4 24.912280701754387 ['52', '4', '35', '62', '14', '13'] 1288.4210526315792
5 24.70175438596491 ['52', '25', '20', '62', '38', '35'] 1271.5789473684217
6 24.56140350877193 ['14', '52', '39', '38', '8', '35'] 1257.8245614035097
7 23.92982456140351 ['35', '52', '20', '17', '14', '62'] 1242.2456140350882
8 23.649122807017545 ['35', '52', '14', '20', '8', '38'] 1226.1052631578946
9 23.57894736842105 ['35', '62', '20', '52', '8', '14'] 1209.4035087719299
10 23.57894736842105 ['35', '62', '20', '52', '8', '14'] 1198.1754385964907
11 23.57894736842105 ['35', '62', '20', '52', '8', '14'] 1191.9298245614034
12 23.57894736842105 ['35', '62', '20', '52', '8', '14'] 1184.631578947368
13 23.57894736842105 ['35', '62', '20', '52', '8', '14'] 1179.7894736842106
14 23.57894736842105 ['35', '62', '20', '52', '8', '14'] 1178.9473684210523
15 23.57894736842105 ['35', '62', '20', '52', '8', '14'] 1178.9473684210523
16 23.57894736842105 ['35', '62', '20', '52', '8', '14'] 1178.9473684210523
17 23.57894736842105 ['35', '62', '20', '52', '8', '14'] 1178.9473684210523
18 23.43859649122807 ['52', '14', '8', '35', '20', '59'] 1178.8070175438593
19 23.43859649122807 ['52', '14', '8', '35', '20', '59'] 1178.5263157894733
20 23.43859649122807 ['52', '14', '8', '35', '20', '59'] 1178.2456140350873
21 23.43859649122807 ['52', '14', '8', '35', '20', '59'] 1177.9649122807014
22 23.43859649122807 ['52', '14', '8', '35', '20', '59'] 1177.0526315789468
23 23.43859649122807 ['52', '14', '8', '35', '20', '59'] 1174.807017543859
24 23.43859649122807 ['52', '14', '8', '35', '20', '59'] 1171.929824561403
25 23.43859649122807 ['52', '14', '8', '35', '20', '59'] 1171.929824561403
26 23.43859649122807 ['52', '14', '8', '35', '20', '59'] 1171.929824561403
27 23.43859649122807 ['52', '14', '8', '35', '20', '59'] 1171.929824561403
28 23.43859649122807 ['52', '14', '8', '35', '20', '59'] 1171.929824561403
29 23.43859649122807 ['52', '14', '8', '35', '20', '59'] 1171.929824561403
30 23.43859649122807 ['52', '14', '8', '35', '20', '59'] 1171.929824561403
31 23.43859649122807 ['52', '14', '8', '35', '20', '59'] 1171.929824561403
32 23.43859649122807 ['52', '14', '8', '35', '20', '59'] 1171.929824561403
33 23.43859649122807 ['52', '14', '8', '35', '20', '59'] 1171.929824561403
34 23.43859649122807 ['52', '14', '8', '35', '20', '59'] 1171.929824561403
35 23.43859649122807 ['52', '14', '8', '35', '20', '59'] 1171.929824561403
36 23.43859649122807 ['52', '14', '8', '35', '20', '59'] 1171.929824561403
37 23.43859649122807 ['52', '14', '8', '35', '20', '59'] 1171.929824561403
38 23.43859649122807 ['52', '14', '8', '35', '20', '59'] 1171.929824561403
39 23.43859649122807 ['52', '14', '8', '35', '20', '59'] 1171.929824561403
40 23.43859649122807 ['52', '14', '8', '35', '20', '59'] 1171.929824561403
41 23.43859649122807 ['52', '14', '8', '35', '20', '59'] 1171.929824561403
42 23.43859649122807 ['52', '14', '8', '35', '20', '59'] 1171.929824561403
43 23.43859649122807 ['52', '14', '8', '35', '20', '59'] 1171.929824561403
44 23.43859649122807 ['52', '14', '8', '35', '20', '59'] 1171.929824561403
45 23.43859649122807 ['52', '14', '8', '35', '20', '59'] 1171.929824561403
46 23.43859649122807 ['52', '14', '8', '35', '20', '59'] 1171.929824561403
47 23.43859649122807 ['52', '14', '8', '35', '20', '59'] 1171.929824561403
48 23.43859649122807 ['52', '14', '8', '35', '20', '59'] 1171.929824561403
49 23.43859649122807 ['52', '14', '8', '35', '20', '59'] 1171.929824561403
50 23.43859649122807 ['52', '14', '8', '35', '20', '59'] 1171.929824561403
51 23.43859649122807 ['52', '14', '8', '35', '20', '59'] 1171.929824561403
52 23.43859649122807 ['52', '14', '8', '35', '20', '59'] 1171.929824561403
53 23.43859649122807 ['52', '14', '8', '35', '20', '59'] 1171.929824561403
54 23.43859649122807 ['52', '14', '8', '35', '20', '59'] 1171.929824561403
55 23.43859649122807 ['52', '14', '8', '35', '20', '59'] 1171.929824561403
56 23.43859649122807 ['52', '14', '8', '35', '20', '59'] 1171.929824561403
57 23.43859649122807 ['52', '14', '8', '35', '20', '59'] 1171.929824561403
58 23.43859649122807 ['52', '14', '8', '35', '20', '59'] 1171.929824561403
59 23.43859649122807 ['52', '14', '8', '35', '20', '59'] 1171.929824561403
60 23.43859649122807 ['52', '14', '8', '35', '20', '59'] 1171.929824561403
61 23.43859649122807 ['52', '14', '8', '35', '20', '59'] 1171.929824561403
62 23.43859649122807 ['52', '14', '8', '35', '20', '59'] 1171.929824561403
63 23.43859649122807 ['52', '14', '8', '35', '20', '59'] 1171.929824561403
64 23.43859649122807 ['52', '14', '8', '35', '20', '59'] 1171.929824561403
65 23.43859649122807 ['52', '14', '8', '35', '20', '59'] 1171.929824561403
66 23.43859649122807 ['52', '14', '8', '35', '20', '59'] 1171.929824561403
67 23.43859649122807 ['52', '14', '8', '35', '20', '59'] 1171.929824561403
68 23.43859649122807 ['52', '14', '8', '35', '20', '59'] 1171.929824561403
69 23.43859649122807 ['52', '14', '8', '35', '20', '59'] 1171.929824561403
70 23.43859649122807 ['52', '14', '8', '35', '20', '59'] 1171.929824561403
71 23.43859649122807 ['52', '14', '8', '35', '20', '59'] 1171.929824561403
72 23.43859649122807 ['52', '14', '8', '35', '20', '59'] 1171.929824561403
73 23.43859649122807 ['52', '14', '8', '35', '20', '59'] 1171.929824561403
74 23.43859649122807 ['52', '14', '8', '35', '20', '59'] 1171.929824561403
75 23.43859649122807 ['52', '14', '8', '35', '20', '59'] 1171.929824561403
76 23.43859649122807 ['52', '14', '8', '35', '20', '59'] 1171.929824561403
77 23.43859649122807 ['52', '14', '8', '35', '20', '59'] 1171.929824561403
78 23.43859649122807 ['52', '14', '8', '35', '20', '59'] 1171.929824561403
79 23.43859649122807 ['52', '14', '8', '35', '20', '59'] 1171.929824561403
80 23.43859649122807 ['52', '14', '8', '35', '20', '59'] 1171.929824561403
81 23.43859649122807 ['52', '14', '8', '35', '20', '59'] 1171.929824561403
82 23.43859649122807 ['52', '14', '8', '35', '20', '59'] 1171.929824561403
83 23.43859649122807 ['52', '14', '8', '35', '20', '59'] 1171.929824561403
84 23.43859649122807 ['52', '14', '8', '35', '20', '59'] 1171.929824561403
85 23.43859649122807 ['52', '14', '8', '35', '20', '59'] 1171.929824561403
86 23.43859649122807 ['52', '14', '8', '35', '20', '59'] 1171.929824561403
87 23.43859649122807 ['52', '14', '8', '35', '20', '59'] 1171.929824561403
88 23.43859649122807 ['52', '14', '8', '35', '20', '59'] 1171.929824561403
89 23.43859649122807 ['52', '14', '8', '35', '20', '59'] 1171.929824561403
90 23.43859649122807 ['52', '14', '8', '35', '20', '59'] 1171.929824561403
91 23.43859649122807 ['52', '14', '8', '35', '20', '59'] 1171.929824561403
92 23.43859649122807 ['52', '14', '8', '35', '20', '59'] 1171.929824561403
93 23.43859649122807 ['52', '14', '8', '35', '20', '59'] 1171.929824561403
94 23.43859649122807 ['52', '14', '8', '35', '20', '59'] 1171.929824561403
95 23.43859649122807 ['52', '14', '8', '35', '20', '59'] 1171.929824561403
96 23.43859649122807 ['52', '14', '8', '35', '20', '59'] 1171.929824561403
97 23.43859649122807 ['52', '14', '8', '35', '20', '59'] 1171.929824561403
98 23.43859649122807 ['52', '14', '8', '35', '20', '59'] 1171.929824561403
99 23.43859649122807 ['52', '14', '8', '35', '20', '59'] 1171.929824561403
100 23.43859649122807 ['52', '14', '8', '35', '20', '59'] 1171.929824561403
101 23.43859649122807 ['52', '14', '8', '35', '20', '59'] 1171.929824561403
102 23.43859649122807 ['52', '14', '8', '35', '20', '59'] 1171.929824561403
103 23.43859649122807 ['52', '14', '8', '35', '20', '59'] 1171.929824561403
104 23.43859649122807 ['52', '14', '8', '35', '20', '59'] 1171.929824561403
105 23.43859649122807 ['52', '14', '8', '35', '20', '59'] 1171.929824561403
106 23.43859649122807 ['52', '14', '8', '35', '20', '59'] 1171.929824561403
107 23.43859649122807 ['52', '14', '8', '35', '20', '59'] 1171.929824561403
108 23.43859649122807 ['52', '14', '8', '35', '20', '59'] 1171.929824561403
109 23.43859649122807 ['52', '14', '8', '35', '20', '59'] 1171.929824561403
110 23.43859649122807 ['52', '14', '8', '35', '20', '59'] 1171.929824561403
111 23.43859649122807 ['52', '14', '8', '35', '20', '59'] 1171.929824561403
112 23.43859649122807 ['52', '14', '8', '35', '20', '59'] 1171.929824561403
113 23.43859649122807 ['52', '14', '8', '35', '20', '59'] 1171.929824561403
114 23.43859649122807 ['52', '14', '8', '35', '20', '59'] 1171.929824561403
115 23.43859649122807 ['52', '14', '8', '35', '20', '59'] 1171.929824561403
116 23.43859649122807 ['52', '14', '8', '35', '20', '59'] 1171.929824561403
117 23.43859649122807 ['52', '14', '8', '35', '20', '59'] 1171.929824561403
118 23.43859649122807 ['52', '14', '8', '35', '20', '59'] 1171.929824561403
119 23.43859649122807 ['52', '14', '8', '35', '20', '59'] 1171.929824561403
120 23.43859649122807 ['52', '14', '8', '35', '20', '59'] 1171.929824561403
121 23.43859649122807 ['52', '14', '8', '35', '20', '59'] 1171.929824561403
122 23.43859649122807 ['52', '14', '8', '35', '20', '59'] 1171.929824561403
123 23.43859649122807 ['52', '14', '8', '35', '20', '59'] 1171.929824561403
124 23.43859649122807 ['52', '14', '8', '35', '20', '59'] 1171.929824561403
125 23.43859649122807 ['52', '14', '8', '35', '20', '59'] 1171.929824561403
126 23.43859649122807 ['52', '14', '8', '35', '20', '59'] 1171.929824561403
127 23.43859649122807 ['52', '14', '8', '35', '20', '59'] 1171.929824561403
128 23.43859649122807 ['52', '14', '8', '35', '20', '59'] 1171.929824561403
129 23.43859649122807 ['52', '14', '8', '35', '20', '59'] 1171.929824561403
130 23.43859649122807 ['52', '14', '8', '35', '20', '59'] 1171.929824561403
131 23.43859649122807 ['52', '14', '8', '35', '20', '59'] 1171.929824561403
132 23.43859649122807 ['52', '14', '8', '35', '20', '59'] 1171.929824561403
133 23.43859649122807 ['52', '14', '8', '35', '20', '59'] 1171.929824561403
134 23.43859649122807 ['52', '14', '8', '35', '20', '59'] 1171.929824561403
135 23.43859649122807 ['52', '14', '8', '35', '20', '59'] 1171.929824561403
136 23.43859649122807 ['52', '14', '8', '35', '20', '59'] 1171.929824561403
137 23.43859649122807 ['52', '14', '8', '35', '20', '59'] 1171.929824561403
138 23.43859649122807 ['52', '14', '8', '35', '20', '59'] 1171.929824561403
139 23.43859649122807 ['52', '14', '8', '35', '20', '59'] 1171.929824561403
140 23.43859649122807 ['52', '14', '8', '35', '20', '59'] 1171.929824561403
141 23.43859649122807 ['52', '14', '8', '35', '20', '59'] 1171.929824561403
142 23.43859649122807 ['52', '14', '8', '35', '20', '59'] 1171.929824561403
143 23.43859649122807 ['52', '14', '8', '35', '20', '59'] 1171.929824561403
144 23.43859649122807 ['52', '14', '8', '35', '20', '59'] 1171.929824561403
145 23.43859649122807 ['52', '14', '8', '35', '20', '59'] 1171.929824561403
146 23.43859649122807 ['52', '14', '8', '35', '20', '59'] 1171.929824561403
147 23.43859649122807 ['52', '14', '8', '35', '20', '59'] 1171.929824561403
148 23.43859649122807 ['52', '14', '8', '35', '20', '59'] 1171.929824561403
149 23.43859649122807 ['52', '14', '8', '35', '20', '59'] 1171.929824561403
150 23.43859649122807 ['52', '14', '8', '35', '20', '59'] 1171.929824561403
151 23.43859649122807 ['52', '14', '8', '35', '20', '59'] 1171.929824561403
152 23.43859649122807 ['52', '14', '8', '35', '20', '59'] 1171.929824561403
153 23.43859649122807 ['52', '14', '8', '35', '20', '59'] 1171.929824561403
154 23.43859649122807 ['52', '14', '8', '35', '20', '59'] 1171.929824561403
155 23.43859649122807 ['52', '14', '8', '35', '20', '59'] 1171.929824561403
156 23.43859649122807 ['52', '14', '8', '35', '20', '59'] 1171.929824561403
157 23.43859649122807 ['52', '14', '8', '35', '20', '59'] 1171.929824561403
158 23.43859649122807 ['52', '14', '8', '35', '20', '59'] 1171.929824561403
159 23.43859649122807 ['52', '14', '8', '35', '20', '59'] 1171.929824561403
160 23.43859649122807 ['52', '14', '8', '35', '20', '59'] 1171.929824561403
161 23.43859649122807 ['52', '14', '8', '35', '20', '59'] 1171.929824561403
162 23.43859649122807 ['52', '14', '8', '35', '20', '59'] 1171.929824561403
163 23.43859649122807 ['52', '14', '8', '35', '20', '59'] 1171.929824561403
164 23.43859649122807 ['52', '14', '8', '35', '20', '59'] 1171.929824561403
165 23.43859649122807 ['52', '14', '8', '35', '20', '59'] 1171.929824561403
166 23.43859649122807 ['52', '14', '8', '35', '20', '59'] 1171.929824561403
167 23.43859649122807 ['52', '14', '8', '35', '20', '59'] 1171.929824561403
168 23.43859649122807 ['52', '14', '8', '35', '20', '59'] 1171.929824561403
169 23.43859649122807 ['52', '14', '8', '35', '20', '59'] 1171.929824561403
170 23.43859649122807 ['52', '14', '8', '35', '20', '59'] 1171.929824561403
171 23.43859649122807 ['52', '14', '8', '35', '20', '59'] 1171.929824561403
172 23.43859649122807 ['52', '14', '8', '35', '20', '59'] 1171.929824561403
173 23.43859649122807 ['52', '14', '8', '35', '20', '59'] 1171.929824561403
174 23.43859649122807 ['52', '14', '8', '35', '20', '59'] 1171.929824561403
175 23.43859649122807 ['52', '14', '8', '35', '20', '59'] 1171.929824561403
176 23.43859649122807 ['52', '14', '8', '35', '20', '59'] 1171.929824561403
177 23.43859649122807 ['52', '14', '8', '35', '20', '59'] 1171.929824561403
178 23.43859649122807 ['52', '14', '8', '35', '20', '59'] 1171.929824561403
179 23.43859649122807 ['52', '14', '8', '35', '20', '59'] 1171.929824561403
180 23.43859649122807 ['52', '14', '8', '35', '20', '59'] 1171.929824561403
181 23.43859649122807 ['52', '14', '8', '35', '20', '59'] 1171.929824561403
182 23.43859649122807 ['52', '14', '8', '35', '20', '59'] 1171.929824561403
183 23.43859649122807 ['52', '14', '8', '35', '20', '59'] 1171.929824561403
184 23.43859649122807 ['52', '14', '8', '35', '20', '59'] 1171.929824561403
185 23.43859649122807 ['52', '14', '8', '35', '20', '59'] 1171.929824561403
186 23.43859649122807 ['52', '14', '8', '35', '20', '59'] 1171.929824561403
187 23.43859649122807 ['52', '14', '8', '35', '20', '59'] 1171.929824561403
188 23.43859649122807 ['52', '14', '8', '35', '20', '59'] 1171.929824561403
189 23.43859649122807 ['52', '14', '8', '35', '20', '59'] 1171.929824561403
190 23.43859649122807 ['52', '14', '8', '35', '20', '59'] 1171.929824561403
191 23.43859649122807 ['52', '14', '8', '35', '20', '59'] 1171.929824561403
192 23.43859649122807 ['52', '14', '8', '35', '20', '59'] 1171.929824561403
193 23.43859649122807 ['52', '14', '8', '35', '20', '59'] 1171.929824561403
194 23.43859649122807 ['52', '14', '8', '35', '20', '59'] 1171.929824561403
195 23.43859649122807 ['52', '14', '8', '35', '20', '59'] 1171.929824561403
196 23.43859649122807 ['52', '14', '8', '35', '20', '59'] 1171.929824561403
197 23.43859649122807 ['52', '14', '8', '35', '20', '59'] 1171.929824561403
198 23.43859649122807 ['52', '14', '8', '35', '20', '59'] 1171.929824561403
199 23.43859649122807 ['52', '14', '8', '35', '20', '59'] 1171.929824561403
