0 15.585185185185185 ['144', '130', '133', '42', '81', '60', '118', '113', '41', '145', '138', '30', '33', '51', '115'] 792.437037037037
1 15.585185185185185 ['144', '130', '133', '42', '81', '60', '118', '113', '41', '145', '138', '30', '33', '51', '115'] 787.2444444444442
2 15.451851851851853 ['21', '96', '112', '81', '113', '118', '144', '150', '58', '143', '130', '121', '19', '110', '30'] 782.3037037037038
3 15.274074074074074 ['115', '150', '144', '68', '120', '52', '141', '132', '78', '130', '81', '96', '22', '95', '113'] 776.8296296296298
4 15.051851851851852 ['78', '96', '148', '113', '54', '110', '150', '119', '68', '144', '117', '141', '136', '131', '132'] 771.4444444444442
5 15.051851851851852 ['78', '96', '148', '113', '54', '110', '150', '119', '68', '144', '117', '141', '136', '131', '132'] 766.5185185185188
6 15.022222222222222 ['115', '130', '108', '150', '97', '120', '111', '136', '126', '106', '133', '144', '60', '122', '116'] 761.7481481481482
7 14.985185185185186 ['124', '150', '120', '130', '115', '22', '111', '78', '108', '96', '145', '133', '144', '141', '113'] 756.8074074074077
8 14.881481481481481 ['130', '144', '122', '150', '141', '78', '113', '131', '136', '115', '111', '120', '54', '146', '117'] 753.0518518518518
9 14.725925925925926 ['111', '115', '144', '120', '150', '130', '117', '141', '131', '113', '146', '132', '133', '122', '136'] 749.0592592592596
10 14.681481481481482 ['141', '78', '117', '150', '113', '131', '144', '137', '85', '132', '115', '148', '130', '122', '136'] 745.0074074074071
11 14.65925925925926 ['145', '130', '144', '136', '122', '150', '133', '115', '78', '124', '141', '113', '148', '138', '119'] 741.155555555556
12 14.555555555555555 ['132', '144', '130', '113', '150', '131', '110', '117', '146', '78', '115', '141', '138', '136', '108'] 737.2370370370364
13 14.555555555555555 ['132', '144', '130', '113', '150', '131', '110', '117', '146', '78', '115', '141', '138', '136', '108'] 734.4444444444445
14 14.555555555555555 ['132', '144', '130', '113', '150', '131', '110', '117', '146', '78', '115', '141', '138', '136', '108'] 732.3555555555553
15 14.555555555555555 ['132', '144', '130', '113', '150', '131', '110', '117', '146', '78', '115', '141', '138', '136', '108'] 731.0814814814805
16 14.555555555555555 ['132', '144', '130', '113', '150', '131', '110', '117', '146', '78', '115', '141', '138', '136', '108'] 729.925925925927
17 14.533333333333333 ['150', '144', '110', '131', '138', '136', '141', '148', '130', '117', '132', '78', '146', '113', '115'] 728.9703703703708
18 14.503703703703703 ['133', '144', '117', '148', '113', '145', '141', '138', '150', '130', '136', '108', '110', '132', '146'] 727.9259259259259
19 14.503703703703703 ['133', '144', '117', '148', '113', '145', '141', '138', '150', '130', '136', '108', '110', '132', '146'] 727.1555555555551
20 14.496296296296297 ['132', '113', '146', '110', '136', '145', '117', '108', '144', '130', '150', '141', '148', '131', '115'] 726.4074074074074
21 14.481481481481481 ['108', '148', '117', '131', '144', '150', '130', '132', '115', '145', '113', '146', '136', '120', '138'] 725.7629629629628
22 14.466666666666667 ['113', '148', '117', '146', '141', '136', '150', '132', '115', '144', '120', '130', '145', '138', '108'] 725.2740740740735
23 14.466666666666667 ['113', '148', '117', '146', '141', '136', '150', '132', '115', '144', '120', '130', '145', '138', '108'] 724.725925925925
24 14.466666666666667 ['113', '148', '117', '146', '141', '136', '150', '132', '115', '144', '120', '130', '145', '138', '108'] 724.3481481481487
25 14.466666666666667 ['113', '148', '117', '146', '141', '136', '150', '132', '115', '144', '120', '130', '145', '138', '108'] 724.0148148148152
26 14.466666666666667 ['113', '148', '117', '146', '141', '136', '150', '132', '115', '144', '120', '130', '145', '138', '108'] 723.6444444444446
27 14.466666666666667 ['113', '148', '117', '146', '141', '136', '150', '132', '115', '144', '120', '130', '145', '138', '108'] 723.3333333333333
28 14.466666666666667 ['113', '148', '117', '146', '141', '136', '150', '132', '115', '144', '120', '130', '145', '138', '108'] 723.3333333333333
29 14.466666666666667 ['113', '148', '117', '146', '141', '136', '150', '132', '115', '144', '120', '130', '145', '138', '108'] 723.3333333333333
30 14.466666666666667 ['113', '148', '117', '146', '141', '136', '150', '132', '115', '144', '120', '130', '145', '138', '108'] 723.3333333333333
31 14.466666666666667 ['113', '148', '117', '146', '141', '136', '150', '132', '115', '144', '120', '130', '145', '138', '108'] 723.3333333333333
32 14.466666666666667 ['113', '148', '117', '146', '141', '136', '150', '132', '115', '144', '120', '130', '145', '138', '108'] 723.3333333333333
33 14.466666666666667 ['113', '148', '117', '146', '141', '136', '150', '132', '115', '144', '120', '130', '145', '138', '108'] 723.3333333333333
34 14.466666666666667 ['113', '148', '117', '146', '141', '136', '150', '132', '115', '144', '120', '130', '145', '138', '108'] 723.3333333333333
35 14.466666666666667 ['113', '148', '117', '146', '141', '136', '150', '132', '115', '144', '120', '130', '145', '138', '108'] 723.3333333333333
36 14.466666666666667 ['113', '148', '117', '146', '141', '136', '150', '132', '115', '144', '120', '130', '145', '138', '108'] 723.3333333333333
37 14.466666666666667 ['113', '148', '117', '146', '141', '136', '150', '132', '115', '144', '120', '130', '145', '138', '108'] 723.3333333333333
38 14.466666666666667 ['113', '148', '117', '146', '141', '136', '150', '132', '115', '144', '120', '130', '145', '138', '108'] 723.3333333333333
39 14.466666666666667 ['113', '148', '117', '146', '141', '136', '150', '132', '115', '144', '120', '130', '145', '138', '108'] 723.3333333333333
40 14.466666666666667 ['113', '148', '117', '146', '141', '136', '150', '132', '115', '144', '120', '130', '145', '138', '108'] 723.3333333333333
41 14.466666666666667 ['113', '148', '117', '146', '141', '136', '150', '132', '115', '144', '120', '130', '145', '138', '108'] 723.3333333333333
42 14.466666666666667 ['113', '148', '117', '146', '141', '136', '150', '132', '115', '144', '120', '130', '145', '138', '108'] 723.3333333333333
43 14.466666666666667 ['113', '148', '117', '146', '141', '136', '150', '132', '115', '144', '120', '130', '145', '138', '108'] 723.3333333333333
44 14.466666666666667 ['113', '148', '117', '146', '141', '136', '150', '132', '115', '144', '120', '130', '145', '138', '108'] 723.3333333333333
45 14.466666666666667 ['113', '148', '117', '146', '141', '136', '150', '132', '115', '144', '120', '130', '145', '138', '108'] 723.3333333333333
46 14.466666666666667 ['113', '148', '117', '146', '141', '136', '150', '132', '115', '144', '120', '130', '145', '138', '108'] 723.3333333333333
47 14.466666666666667 ['113', '148', '117', '146', '141', '136', '150', '132', '115', '144', '120', '130', '145', '138', '108'] 723.3333333333333
48 14.466666666666667 ['113', '148', '117', '146', '141', '136', '150', '132', '115', '144', '120', '130', '145', '138', '108'] 723.3333333333333
49 14.466666666666667 ['113', '148', '117', '146', '141', '136', '150', '132', '115', '144', '120', '130', '145', '138', '108'] 723.3333333333333
50 14.466666666666667 ['113', '148', '117', '146', '141', '136', '150', '132', '115', '144', '120', '130', '145', '138', '108'] 723.3333333333333
51 14.466666666666667 ['113', '148', '117', '146', '141', '136', '150', '132', '115', '144', '120', '130', '145', '138', '108'] 723.3333333333333
52 14.466666666666667 ['113', '148', '117', '146', '141', '136', '150', '132', '115', '144', '120', '130', '145', '138', '108'] 723.3333333333333
53 14.466666666666667 ['113', '148', '117', '146', '141', '136', '150', '132', '115', '144', '120', '130', '145', '138', '108'] 723.3333333333333
54 14.466666666666667 ['113', '148', '117', '146', '141', '136', '150', '132', '115', '144', '120', '130', '145', '138', '108'] 723.3333333333333
55 14.466666666666667 ['113', '148', '117', '146', '141', '136', '150', '132', '115', '144', '120', '130', '145', '138', '108'] 723.3333333333333
56 14.466666666666667 ['113', '148', '117', '146', '141', '136', '150', '132', '115', '144', '120', '130', '145', '138', '108'] 723.3333333333333
57 14.466666666666667 ['113', '148', '117', '146', '141', '136', '150', '132', '115', '144', '120', '130', '145', '138', '108'] 723.3333333333333
58 14.466666666666667 ['113', '148', '117', '146', '141', '136', '150', '132', '115', '144', '120', '130', '145', '138', '108'] 723.3333333333333
59 14.466666666666667 ['113', '148', '117', '146', '141', '136', '150', '132', '115', '144', '120', '130', '145', '138', '108'] 723.3333333333333
60 14.466666666666667 ['113', '148', '117', '146', '141', '136', '150', '132', '115', '144', '120', '130', '145', '138', '108'] 723.3333333333333
61 14.466666666666667 ['113', '148', '117', '146', '141', '136', '150', '132', '115', '144', '120', '130', '145', '138', '108'] 723.3333333333333
62 14.466666666666667 ['113', '148', '117', '146', '141', '136', '150', '132', '115', '144', '120', '130', '145', '138', '108'] 723.3333333333333
63 14.466666666666667 ['113', '148', '117', '146', '141', '136', '150', '132', '115', '144', '120', '130', '145', '138', '108'] 723.3333333333333
64 14.466666666666667 ['113', '148', '117', '146', '141', '136', '150', '132', '115', '144', '120', '130', '145', '138', '108'] 723.3333333333333
65 14.466666666666667 ['113', '148', '117', '146', '141', '136', '150', '132', '115', '144', '120', '130', '145', '138', '108'] 723.3333333333333
66 14.466666666666667 ['113', '148', '117', '146', '141', '136', '150', '132', '115', '144', '120', '130', '145', '138', '108'] 723.3333333333333
67 14.466666666666667 ['113', '148', '117', '146', '141', '136', '150', '132', '115', '144', '120', '130', '145', '138', '108'] 723.3333333333333
68 14.466666666666667 ['113', '148', '117', '146', '141', '136', '150', '132', '115', '144', '120', '130', '145', '138', '108'] 723.3333333333333
69 14.466666666666667 ['113', '148', '117', '146', '141', '136', '150', '132', '115', '144', '120', '130', '145', '138', '108'] 723.3333333333333
70 14.466666666666667 ['113', '148', '117', '146', '141', '136', '150', '132', '115', '144', '120', '130', '145', '138', '108'] 723.3333333333333
71 14.466666666666667 ['113', '148', '117', '146', '141', '136', '150', '132', '115', '144', '120', '130', '145', '138', '108'] 723.3333333333333
72 14.466666666666667 ['113', '148', '117', '146', '141', '136', '150', '132', '115', '144', '120', '130', '145', '138', '108'] 723.3333333333333
73 14.466666666666667 ['113', '148', '117', '146', '141', '136', '150', '132', '115', '144', '120', '130', '145', '138', '108'] 723.3333333333333
74 14.466666666666667 ['113', '148', '117', '146', '141', '136', '150', '132', '115', '144', '120', '130', '145', '138', '108'] 723.3333333333333
75 14.466666666666667 ['113', '148', '117', '146', '141', '136', '150', '132', '115', '144', '120', '130', '145', '138', '108'] 723.3333333333333
76 14.466666666666667 ['113', '148', '117', '146', '141', '136', '150', '132', '115', '144', '120', '130', '145', '138', '108'] 723.3333333333333
77 14.466666666666667 ['113', '148', '117', '146', '141', '136', '150', '132', '115', '144', '120', '130', '145', '138', '108'] 723.3333333333333
78 14.466666666666667 ['113', '148', '117', '146', '141', '136', '150', '132', '115', '144', '120', '130', '145', '138', '108'] 723.3333333333333
79 14.466666666666667 ['113', '148', '117', '146', '141', '136', '150', '132', '115', '144', '120', '130', '145', '138', '108'] 723.3333333333333
80 14.466666666666667 ['113', '148', '117', '146', '141', '136', '150', '132', '115', '144', '120', '130', '145', '138', '108'] 723.3333333333333
81 14.466666666666667 ['113', '148', '117', '146', '141', '136', '150', '132', '115', '144', '120', '130', '145', '138', '108'] 723.3333333333333
82 14.466666666666667 ['113', '148', '117', '146', '141', '136', '150', '132', '115', '144', '120', '130', '145', '138', '108'] 723.3333333333333
83 14.466666666666667 ['113', '148', '117', '146', '141', '136', '150', '132', '115', '144', '120', '130', '145', '138', '108'] 723.3333333333333
84 14.466666666666667 ['113', '148', '117', '146', '141', '136', '150', '132', '115', '144', '120', '130', '145', '138', '108'] 723.3333333333333
85 14.466666666666667 ['113', '148', '117', '146', '141', '136', '150', '132', '115', '144', '120', '130', '145', '138', '108'] 723.3333333333333
86 14.466666666666667 ['113', '148', '117', '146', '141', '136', '150', '132', '115', '144', '120', '130', '145', '138', '108'] 723.3333333333333
87 14.466666666666667 ['113', '148', '117', '146', '141', '136', '150', '132', '115', '144', '120', '130', '145', '138', '108'] 723.3333333333333
88 14.466666666666667 ['113', '148', '117', '146', '141', '136', '150', '132', '115', '144', '120', '130', '145', '138', '108'] 723.3333333333333
89 14.466666666666667 ['113', '148', '117', '146', '141', '136', '150', '132', '115', '144', '120', '130', '145', '138', '108'] 723.3333333333333
90 14.466666666666667 ['113', '148', '117', '146', '141', '136', '150', '132', '115', '144', '120', '130', '145', '138', '108'] 723.3333333333333
91 14.466666666666667 ['113', '148', '117', '146', '141', '136', '150', '132', '115', '144', '120', '130', '145', '138', '108'] 723.3333333333333
92 14.466666666666667 ['113', '148', '117', '146', '141', '136', '150', '132', '115', '144', '120', '130', '145', '138', '108'] 723.3333333333333
93 14.466666666666667 ['113', '148', '117', '146', '141', '136', '150', '132', '115', '144', '120', '130', '145', '138', '108'] 723.3333333333333
94 14.466666666666667 ['113', '148', '117', '146', '141', '136', '150', '132', '115', '144', '120', '130', '145', '138', '108'] 723.3333333333333
95 14.466666666666667 ['113', '148', '117', '146', '141', '136', '150', '132', '115', '144', '120', '130', '145', '138', '108'] 723.3333333333333
96 14.466666666666667 ['113', '148', '117', '146', '141', '136', '150', '132', '115', '144', '120', '130', '145', '138', '108'] 723.3333333333333
97 14.466666666666667 ['113', '148', '117', '146', '141', '136', '150', '132', '115', '144', '120', '130', '145', '138', '108'] 723.3333333333333
98 14.466666666666667 ['113', '148', '117', '146', '141', '136', '150', '132', '115', '144', '120', '130', '145', '138', '108'] 723.3333333333333
99 14.466666666666667 ['113', '148', '117', '146', '141', '136', '150', '132', '115', '144', '120', '130', '145', '138', '108'] 723.3333333333333
100 14.466666666666667 ['113', '148', '117', '146', '141', '136', '150', '132', '115', '144', '120', '130', '145', '138', '108'] 723.3333333333333
101 14.466666666666667 ['113', '148', '117', '146', '141', '136', '150', '132', '115', '144', '120', '130', '145', '138', '108'] 723.3333333333333
102 14.466666666666667 ['113', '148', '117', '146', '141', '136', '150', '132', '115', '144', '120', '130', '145', '138', '108'] 723.3333333333333
103 14.466666666666667 ['113', '148', '117', '146', '141', '136', '150', '132', '115', '144', '120', '130', '145', '138', '108'] 723.3333333333333
104 14.466666666666667 ['113', '148', '117', '146', '141', '136', '150', '132', '115', '144', '120', '130', '145', '138', '108'] 723.3333333333333
105 14.466666666666667 ['113', '148', '117', '146', '141', '136', '150', '132', '115', '144', '120', '130', '145', '138', '108'] 723.3333333333333
106 14.466666666666667 ['113', '148', '117', '146', '141', '136', '150', '132', '115', '144', '120', '130', '145', '138', '108'] 723.3333333333333
107 14.466666666666667 ['113', '148', '117', '146', '141', '136', '150', '132', '115', '144', '120', '130', '145', '138', '108'] 723.3333333333333
108 14.466666666666667 ['113', '148', '117', '146', '141', '136', '150', '132', '115', '144', '120', '130', '145', '138', '108'] 723.3333333333333
109 14.466666666666667 ['113', '148', '117', '146', '141', '136', '150', '132', '115', '144', '120', '130', '145', '138', '108'] 723.3333333333333
110 14.466666666666667 ['113', '148', '117', '146', '141', '136', '150', '132', '115', '144', '120', '130', '145', '138', '108'] 723.3333333333333
111 14.466666666666667 ['113', '148', '117', '146', '141', '136', '150', '132', '115', '144', '120', '130', '145', '138', '108'] 723.3333333333333
112 14.466666666666667 ['113', '148', '117', '146', '141', '136', '150', '132', '115', '144', '120', '130', '145', '138', '108'] 723.3333333333333
113 14.466666666666667 ['113', '148', '117', '146', '141', '136', '150', '132', '115', '144', '120', '130', '145', '138', '108'] 723.3333333333333
114 14.466666666666667 ['113', '148', '117', '146', '141', '136', '150', '132', '115', '144', '120', '130', '145', '138', '108'] 723.3333333333333
115 14.466666666666667 ['113', '148', '117', '146', '141', '136', '150', '132', '115', '144', '120', '130', '145', '138', '108'] 723.3333333333333
116 14.466666666666667 ['113', '148', '117', '146', '141', '136', '150', '132', '115', '144', '120', '130', '145', '138', '108'] 723.3333333333333
117 14.466666666666667 ['113', '148', '117', '146', '141', '136', '150', '132', '115', '144', '120', '130', '145', '138', '108'] 723.3333333333333
118 14.466666666666667 ['113', '148', '117', '146', '141', '136', '150', '132', '115', '144', '120', '130', '145', '138', '108'] 723.3333333333333
119 14.466666666666667 ['113', '148', '117', '146', '141', '136', '150', '132', '115', '144', '120', '130', '145', '138', '108'] 723.3333333333333
120 14.466666666666667 ['113', '148', '117', '146', '141', '136', '150', '132', '115', '144', '120', '130', '145', '138', '108'] 723.3333333333333
121 14.466666666666667 ['113', '148', '117', '146', '141', '136', '150', '132', '115', '144', '120', '130', '145', '138', '108'] 723.3333333333333
122 14.466666666666667 ['113', '148', '117', '146', '141', '136', '150', '132', '115', '144', '120', '130', '145', '138', '108'] 723.3333333333333
123 14.466666666666667 ['113', '148', '117', '146', '141', '136', '150', '132', '115', '144', '120', '130', '145', '138', '108'] 723.3333333333333
124 14.466666666666667 ['113', '148', '117', '146', '141', '136', '150', '132', '115', '144', '120', '130', '145', '138', '108'] 723.3333333333333
125 14.466666666666667 ['113', '148', '117', '146', '141', '136', '150', '132', '115', '144', '120', '130', '145', '138', '108'] 723.3333333333333
126 14.466666666666667 ['113', '148', '117', '146', '141', '136', '150', '132', '115', '144', '120', '130', '145', '138', '108'] 723.3333333333333
127 14.466666666666667 ['113', '148', '117', '146', '141', '136', '150', '132', '115', '144', '120', '130', '145', '138', '108'] 723.3333333333333
128 14.466666666666667 ['113', '148', '117', '146', '141', '136', '150', '132', '115', '144', '120', '130', '145', '138', '108'] 723.3333333333333
129 14.466666666666667 ['113', '148', '117', '146', '141', '136', '150', '132', '115', '144', '120', '130', '145', '138', '108'] 723.3333333333333
130 14.466666666666667 ['113', '148', '117', '146', '141', '136', '150', '132', '115', '144', '120', '130', '145', '138', '108'] 723.3333333333333
131 14.466666666666667 ['113', '148', '117', '146', '141', '136', '150', '132', '115', '144', '120', '130', '145', '138', '108'] 723.3333333333333
132 14.466666666666667 ['113', '148', '117', '146', '141', '136', '150', '132', '115', '144', '120', '130', '145', '138', '108'] 723.3333333333333
133 14.466666666666667 ['113', '148', '117', '146', '141', '136', '150', '132', '115', '144', '120', '130', '145', '138', '108'] 723.3333333333333
134 14.466666666666667 ['113', '148', '117', '146', '141', '136', '150', '132', '115', '144', '120', '130', '145', '138', '108'] 723.3333333333333
135 14.466666666666667 ['113', '148', '117', '146', '141', '136', '150', '132', '115', '144', '120', '130', '145', '138', '108'] 723.3333333333333
136 14.466666666666667 ['113', '148', '117', '146', '141', '136', '150', '132', '115', '144', '120', '130', '145', '138', '108'] 723.3333333333333
137 14.466666666666667 ['113', '148', '117', '146', '141', '136', '150', '132', '115', '144', '120', '130', '145', '138', '108'] 723.3333333333333
138 14.466666666666667 ['113', '148', '117', '146', '141', '136', '150', '132', '115', '144', '120', '130', '145', '138', '108'] 723.3333333333333
139 14.466666666666667 ['113', '148', '117', '146', '141', '136', '150', '132', '115', '144', '120', '130', '145', '138', '108'] 723.3333333333333
140 14.466666666666667 ['113', '148', '117', '146', '141', '136', '150', '132', '115', '144', '120', '130', '145', '138', '108'] 723.3333333333333
141 14.466666666666667 ['113', '148', '117', '146', '141', '136', '150', '132', '115', '144', '120', '130', '145', '138', '108'] 723.3333333333333
142 14.466666666666667 ['113', '148', '117', '146', '141', '136', '150', '132', '115', '144', '120', '130', '145', '138', '108'] 723.3333333333333
143 14.466666666666667 ['113', '148', '117', '146', '141', '136', '150', '132', '115', '144', '120', '130', '145', '138', '108'] 723.3333333333333
144 14.466666666666667 ['113', '148', '117', '146', '141', '136', '150', '132', '115', '144', '120', '130', '145', '138', '108'] 723.3333333333333
145 14.466666666666667 ['113', '148', '117', '146', '141', '136', '150', '132', '115', '144', '120', '130', '145', '138', '108'] 723.3333333333333
146 14.466666666666667 ['113', '148', '117', '146', '141', '136', '150', '132', '115', '144', '120', '130', '145', '138', '108'] 723.3333333333333
147 14.466666666666667 ['113', '148', '117', '146', '141', '136', '150', '132', '115', '144', '120', '130', '145', '138', '108'] 723.3333333333333
148 14.466666666666667 ['113', '148', '117', '146', '141', '136', '150', '132', '115', '144', '120', '130', '145', '138', '108'] 723.3333333333333
149 14.466666666666667 ['113', '148', '117', '146', '141', '136', '150', '132', '115', '144', '120', '130', '145', '138', '108'] 723.3333333333333
150 14.466666666666667 ['113', '148', '117', '146', '141', '136', '150', '132', '115', '144', '120', '130', '145', '138', '108'] 723.3333333333333
151 14.466666666666667 ['113', '148', '117', '146', '141', '136', '150', '132', '115', '144', '120', '130', '145', '138', '108'] 723.3333333333333
152 14.466666666666667 ['113', '148', '117', '146', '141', '136', '150', '132', '115', '144', '120', '130', '145', '138', '108'] 723.3333333333333
153 14.466666666666667 ['113', '148', '117', '146', '141', '136', '150', '132', '115', '144', '120', '130', '145', '138', '108'] 723.3333333333333
154 14.466666666666667 ['113', '148', '117', '146', '141', '136', '150', '132', '115', '144', '120', '130', '145', '138', '108'] 723.3333333333333
155 14.466666666666667 ['113', '148', '117', '146', '141', '136', '150', '132', '115', '144', '120', '130', '145', '138', '108'] 723.3333333333333
156 14.466666666666667 ['113', '148', '117', '146', '141', '136', '150', '132', '115', '144', '120', '130', '145', '138', '108'] 723.3333333333333
157 14.466666666666667 ['113', '148', '117', '146', '141', '136', '150', '132', '115', '144', '120', '130', '145', '138', '108'] 723.3333333333333
158 14.466666666666667 ['113', '148', '117', '146', '141', '136', '150', '132', '115', '144', '120', '130', '145', '138', '108'] 723.3333333333333
159 14.466666666666667 ['113', '148', '117', '146', '141', '136', '150', '132', '115', '144', '120', '130', '145', '138', '108'] 723.3333333333333
160 14.466666666666667 ['113', '148', '117', '146', '141', '136', '150', '132', '115', '144', '120', '130', '145', '138', '108'] 723.3333333333333
161 14.466666666666667 ['113', '148', '117', '146', '141', '136', '150', '132', '115', '144', '120', '130', '145', '138', '108'] 723.3333333333333
162 14.466666666666667 ['113', '148', '117', '146', '141', '136', '150', '132', '115', '144', '120', '130', '145', '138', '108'] 723.3333333333333
163 14.466666666666667 ['113', '148', '117', '146', '141', '136', '150', '132', '115', '144', '120', '130', '145', '138', '108'] 723.3333333333333
164 14.466666666666667 ['113', '148', '117', '146', '141', '136', '150', '132', '115', '144', '120', '130', '145', '138', '108'] 723.3333333333333
165 14.466666666666667 ['113', '148', '117', '146', '141', '136', '150', '132', '115', '144', '120', '130', '145', '138', '108'] 723.3333333333333
166 14.466666666666667 ['113', '148', '117', '146', '141', '136', '150', '132', '115', '144', '120', '130', '145', '138', '108'] 723.3333333333333
167 14.466666666666667 ['113', '148', '117', '146', '141', '136', '150', '132', '115', '144', '120', '130', '145', '138', '108'] 723.3333333333333
168 14.466666666666667 ['113', '148', '117', '146', '141', '136', '150', '132', '115', '144', '120', '130', '145', '138', '108'] 723.3333333333333
169 14.466666666666667 ['113', '148', '117', '146', '141', '136', '150', '132', '115', '144', '120', '130', '145', '138', '108'] 723.3333333333333
170 14.466666666666667 ['113', '148', '117', '146', '141', '136', '150', '132', '115', '144', '120', '130', '145', '138', '108'] 723.3333333333333
171 14.466666666666667 ['113', '148', '117', '146', '141', '136', '150', '132', '115', '144', '120', '130', '145', '138', '108'] 723.3333333333333
172 14.466666666666667 ['113', '148', '117', '146', '141', '136', '150', '132', '115', '144', '120', '130', '145', '138', '108'] 723.3333333333333
173 14.466666666666667 ['113', '148', '117', '146', '141', '136', '150', '132', '115', '144', '120', '130', '145', '138', '108'] 723.3333333333333
174 14.466666666666667 ['113', '148', '117', '146', '141', '136', '150', '132', '115', '144', '120', '130', '145', '138', '108'] 723.3333333333333
175 14.466666666666667 ['113', '148', '117', '146', '141', '136', '150', '132', '115', '144', '120', '130', '145', '138', '108'] 723.3333333333333
176 14.466666666666667 ['113', '148', '117', '146', '141', '136', '150', '132', '115', '144', '120', '130', '145', '138', '108'] 723.3333333333333
177 14.466666666666667 ['113', '148', '117', '146', '141', '136', '150', '132', '115', '144', '120', '130', '145', '138', '108'] 723.3333333333333
178 14.466666666666667 ['113', '148', '117', '146', '141', '136', '150', '132', '115', '144', '120', '130', '145', '138', '108'] 723.3333333333333
179 14.466666666666667 ['113', '148', '117', '146', '141', '136', '150', '132', '115', '144', '120', '130', '145', '138', '108'] 723.3333333333333
180 14.466666666666667 ['113', '148', '117', '146', '141', '136', '150', '132', '115', '144', '120', '130', '145', '138', '108'] 723.3333333333333
181 14.466666666666667 ['113', '148', '117', '146', '141', '136', '150', '132', '115', '144', '120', '130', '145', '138', '108'] 723.3333333333333
182 14.466666666666667 ['113', '148', '117', '146', '141', '136', '150', '132', '115', '144', '120', '130', '145', '138', '108'] 723.3333333333333
183 14.466666666666667 ['113', '148', '117', '146', '141', '136', '150', '132', '115', '144', '120', '130', '145', '138', '108'] 723.3333333333333
184 14.466666666666667 ['113', '148', '117', '146', '141', '136', '150', '132', '115', '144', '120', '130', '145', '138', '108'] 723.3333333333333
185 14.466666666666667 ['113', '148', '117', '146', '141', '136', '150', '132', '115', '144', '120', '130', '145', '138', '108'] 723.3333333333333
186 14.466666666666667 ['113', '148', '117', '146', '141', '136', '150', '132', '115', '144', '120', '130', '145', '138', '108'] 723.3333333333333
187 14.466666666666667 ['113', '148', '117', '146', '141', '136', '150', '132', '115', '144', '120', '130', '145', '138', '108'] 723.3333333333333
188 14.466666666666667 ['113', '148', '117', '146', '141', '136', '150', '132', '115', '144', '120', '130', '145', '138', '108'] 723.3333333333333
189 14.466666666666667 ['113', '148', '117', '146', '141', '136', '150', '132', '115', '144', '120', '130', '145', '138', '108'] 723.3333333333333
190 14.466666666666667 ['113', '148', '117', '146', '141', '136', '150', '132', '115', '144', '120', '130', '145', '138', '108'] 723.3333333333333
191 14.466666666666667 ['113', '148', '117', '146', '141', '136', '150', '132', '115', '144', '120', '130', '145', '138', '108'] 723.3333333333333
192 14.466666666666667 ['113', '148', '117', '146', '141', '136', '150', '132', '115', '144', '120', '130', '145', '138', '108'] 723.3333333333333
193 14.466666666666667 ['113', '148', '117', '146', '141', '136', '150', '132', '115', '144', '120', '130', '145', '138', '108'] 723.3333333333333
194 14.466666666666667 ['113', '148', '117', '146', '141', '136', '150', '132', '115', '144', '120', '130', '145', '138', '108'] 723.3333333333333
195 14.466666666666667 ['113', '148', '117', '146', '141', '136', '150', '132', '115', '144', '120', '130', '145', '138', '108'] 723.3333333333333
196 14.466666666666667 ['113', '148', '117', '146', '141', '136', '150', '132', '115', '144', '120', '130', '145', '138', '108'] 723.3333333333333
197 14.466666666666667 ['113', '148', '117', '146', '141', '136', '150', '132', '115', '144', '120', '130', '145', '138', '108'] 723.3333333333333
198 14.466666666666667 ['113', '148', '117', '146', '141', '136', '150', '132', '115', '144', '120', '130', '145', '138', '108'] 723.3333333333333
199 14.466666666666667 ['113', '148', '117', '146', '141', '136', '150', '132', '115', '144', '120', '130', '145', '138', '108'] 723.3333333333333
