0 5.129876543209881 ['94', '35', '32', '88', '73', '140', '51', '47', '147', '144', '132', '148', '125', '124', '46'] 262.32333333333344
1 5.129876543209881 ['94', '35', '32', '88', '73', '140', '51', '47', '147', '144', '132', '148', '125', '124', '46'] 260.5117283950618
2 5.088765432098767 ['111', '139', '66', '87', '23', '25', '93', '112', '124', '126', '100', '135', '57', '102', '109'] 259.26740740740746
3 5.088765432098767 ['111', '139', '66', '87', '23', '25', '93', '112', '124', '126', '100', '135', '57', '102', '109'] 258.1213580246914
4 5.00493827160494 ['125', '46', '148', '73', '136', '94', '130', '35', '132', '139', '147', '144', '135', '124', '77'] 257.2414814814816
5 5.00493827160494 ['125', '46', '148', '73', '136', '94', '130', '35', '132', '139', '147', '144', '135', '124', '77'] 256.6882716049384
6 5.00493827160494 ['125', '46', '148', '73', '136', '94', '130', '35', '132', '139', '147', '144', '135', '124', '77'] 255.82962962962978
7 5.00493827160494 ['125', '46', '148', '73', '136', '94', '130', '35', '132', '139', '147', '144', '135', '124', '77'] 254.83975308641988
8 4.997160493827162 ['107', '49', '125', '130', '94', '136', '73', '135', '128', '139', '140', '144', '124', '34', '147'] 253.74358024691375
9 4.987407407407409 ['102', '135', '119', '136', '132', '94', '125', '141', '124', '131', '130', '112', '49', '139', '140'] 252.72530864197537
10 4.987407407407409 ['102', '135', '119', '136', '132', '94', '125', '141', '124', '131', '130', '112', '49', '139', '140'] 251.98407407407421
11 4.962345679012348 ['132', '139', '125', '124', '94', '147', '51', '90', '130', '136', '140', '102', '49', '144', '126'] 251.02185185185192
12 4.962345679012348 ['132', '139', '125', '124', '94', '147', '51', '90', '130', '136', '140', '102', '49', '144', '126'] 250.3918518518519
13 4.95740740740741 ['102', '131', '132', '94', '49', '136', '130', '140', '139', '124', '112', '135', '125', '147', '82'] 249.71209876543216
14 4.930864197530867 ['139', '140', '147', '125', '136', '102', '130', '134', '112', '131', '51', '128', '111', '124', '135'] 249.07851851851856
15 4.930864197530867 ['139', '140', '147', '125', '136', '102', '130', '134', '112', '131', '51', '128', '111', '124', '135'] 248.51160493827177
16 4.9246913580246945 ['147', '135', '136', '130', '102', '124', '139', '94', '125', '132', '111', '140', '112', '131', '26'] 247.96012345679028
17 4.917530864197532 ['94', '139', '147', '140', '102', '136', '125', '124', '131', '130', '112', '135', '111', '144', '106'] 247.38876543209878
18 4.894444444444446 ['106', '136', '139', '130', '49', '102', '140', '147', '124', '125', '94', '148', '132', '111', '144'] 246.90802469135812
19 4.892962962962965 ['136', '102', '94', '125', '131', '128', '147', '132', '150', '139', '140', '134', '112', '135', '120'] 246.42913580246932
20 4.8820987654321035 ['135', '125', '147', '139', '112', '131', '134', '136', '128', '102', '140', '124', '111', '144', '25'] 245.9245679012347
21 4.8790123456790155 ['124', '128', '136', '140', '148', '125', '139', '102', '147', '144', '135', '111', '94', '26', '132'] 245.4748148148149
22 4.875061728395064 ['125', '136', '134', '139', '132', '131', '140', '147', '102', '112', '128', '94', '124', '111', '49'] 245.10049382716065
23 4.860246913580249 ['94', '140', '128', '125', '102', '136', '139', '124', '144', '147', '135', '134', '111', '120', '148'] 244.73518518518534
24 4.860246913580249 ['94', '140', '128', '125', '102', '136', '139', '124', '144', '147', '135', '134', '111', '120', '148'] 244.42432098765445
25 4.860246913580249 ['94', '140', '128', '125', '102', '136', '139', '124', '144', '147', '135', '134', '111', '120', '148'] 244.22493827160505
26 4.860246913580249 ['94', '140', '128', '125', '102', '136', '139', '124', '144', '147', '135', '134', '111', '120', '148'] 243.98185185185184
27 4.860246913580249 ['94', '140', '128', '125', '102', '136', '139', '124', '144', '147', '135', '134', '111', '120', '148'] 243.82432098765432
28 4.860246913580249 ['94', '140', '128', '125', '102', '136', '139', '124', '144', '147', '135', '134', '111', '120', '148'] 243.69444444444485
29 4.853456790123459 ['111', '144', '125', '102', '136', '147', '140', '94', '139', '124', '134', '128', '148', '49', '120'] 243.5412345679016
30 4.853456790123459 ['111', '144', '125', '102', '136', '147', '140', '94', '139', '124', '134', '128', '148', '49', '120'] 243.41296296296335
31 4.853456790123459 ['111', '144', '125', '102', '136', '147', '140', '94', '139', '124', '134', '128', '148', '49', '120'] 243.41296296296335
32 4.853456790123459 ['111', '144', '125', '102', '136', '147', '140', '94', '139', '124', '134', '128', '148', '49', '120'] 243.36407407407447
33 4.853456790123459 ['111', '144', '125', '102', '136', '147', '140', '94', '139', '124', '134', '128', '148', '49', '120'] 243.26629629629667
34 4.853456790123459 ['111', '144', '125', '102', '136', '147', '140', '94', '139', '124', '134', '128', '148', '49', '120'] 243.15901234567934
35 4.853456790123459 ['111', '144', '125', '102', '136', '147', '140', '94', '139', '124', '134', '128', '148', '49', '120'] 242.9471604938274
36 4.853456790123459 ['111', '144', '125', '102', '136', '147', '140', '94', '139', '124', '134', '128', '148', '49', '120'] 242.67283950617295
37 4.853456790123459 ['111', '144', '125', '102', '136', '147', '140', '94', '139', '124', '134', '128', '148', '49', '120'] 242.67283950617295
38 4.853456790123459 ['111', '144', '125', '102', '136', '147', '140', '94', '139', '124', '134', '128', '148', '49', '120'] 242.67283950617295
39 4.853456790123459 ['111', '144', '125', '102', '136', '147', '140', '94', '139', '124', '134', '128', '148', '49', '120'] 242.67283950617295
40 4.853456790123459 ['111', '144', '125', '102', '136', '147', '140', '94', '139', '124', '134', '128', '148', '49', '120'] 242.67283950617295
41 4.853456790123459 ['111', '144', '125', '102', '136', '147', '140', '94', '139', '124', '134', '128', '148', '49', '120'] 242.67283950617295
42 4.853456790123459 ['111', '144', '125', '102', '136', '147', '140', '94', '139', '124', '134', '128', '148', '49', '120'] 242.67283950617295
43 4.853456790123459 ['111', '144', '125', '102', '136', '147', '140', '94', '139', '124', '134', '128', '148', '49', '120'] 242.67283950617295
44 4.853456790123459 ['111', '144', '125', '102', '136', '147', '140', '94', '139', '124', '134', '128', '148', '49', '120'] 242.67283950617295
45 4.853456790123459 ['111', '144', '125', '102', '136', '147', '140', '94', '139', '124', '134', '128', '148', '49', '120'] 242.67283950617295
46 4.853456790123459 ['111', '144', '125', '102', '136', '147', '140', '94', '139', '124', '134', '128', '148', '49', '120'] 242.67283950617295
47 4.853456790123459 ['111', '144', '125', '102', '136', '147', '140', '94', '139', '124', '134', '128', '148', '49', '120'] 242.67283950617295
48 4.853456790123459 ['111', '144', '125', '102', '136', '147', '140', '94', '139', '124', '134', '128', '148', '49', '120'] 242.67283950617295
49 4.853456790123459 ['111', '144', '125', '102', '136', '147', '140', '94', '139', '124', '134', '128', '148', '49', '120'] 242.67283950617295
50 4.853456790123459 ['111', '144', '125', '102', '136', '147', '140', '94', '139', '124', '134', '128', '148', '49', '120'] 242.67283950617295
51 4.853456790123459 ['111', '144', '125', '102', '136', '147', '140', '94', '139', '124', '134', '128', '148', '49', '120'] 242.67283950617295
52 4.853456790123459 ['111', '144', '125', '102', '136', '147', '140', '94', '139', '124', '134', '128', '148', '49', '120'] 242.67283950617295
53 4.853456790123459 ['111', '144', '125', '102', '136', '147', '140', '94', '139', '124', '134', '128', '148', '49', '120'] 242.67283950617295
54 4.853456790123459 ['111', '144', '125', '102', '136', '147', '140', '94', '139', '124', '134', '128', '148', '49', '120'] 242.67283950617295
55 4.853456790123459 ['111', '144', '125', '102', '136', '147', '140', '94', '139', '124', '134', '128', '148', '49', '120'] 242.67283950617295
56 4.853456790123459 ['111', '144', '125', '102', '136', '147', '140', '94', '139', '124', '134', '128', '148', '49', '120'] 242.67283950617295
57 4.853456790123459 ['111', '144', '125', '102', '136', '147', '140', '94', '139', '124', '134', '128', '148', '49', '120'] 242.67283950617295
58 4.853456790123459 ['111', '144', '125', '102', '136', '147', '140', '94', '139', '124', '134', '128', '148', '49', '120'] 242.67283950617295
59 4.853456790123459 ['111', '144', '125', '102', '136', '147', '140', '94', '139', '124', '134', '128', '148', '49', '120'] 242.67283950617295
60 4.853456790123459 ['111', '144', '125', '102', '136', '147', '140', '94', '139', '124', '134', '128', '148', '49', '120'] 242.67283950617295
61 4.853456790123459 ['111', '144', '125', '102', '136', '147', '140', '94', '139', '124', '134', '128', '148', '49', '120'] 242.67283950617295
62 4.853456790123459 ['111', '144', '125', '102', '136', '147', '140', '94', '139', '124', '134', '128', '148', '49', '120'] 242.67283950617295
63 4.853456790123459 ['111', '144', '125', '102', '136', '147', '140', '94', '139', '124', '134', '128', '148', '49', '120'] 242.67283950617295
64 4.853456790123459 ['111', '144', '125', '102', '136', '147', '140', '94', '139', '124', '134', '128', '148', '49', '120'] 242.67283950617295
65 4.853456790123459 ['111', '144', '125', '102', '136', '147', '140', '94', '139', '124', '134', '128', '148', '49', '120'] 242.67283950617295
66 4.853456790123459 ['111', '144', '125', '102', '136', '147', '140', '94', '139', '124', '134', '128', '148', '49', '120'] 242.67283950617295
67 4.853456790123459 ['111', '144', '125', '102', '136', '147', '140', '94', '139', '124', '134', '128', '148', '49', '120'] 242.67283950617295
68 4.853456790123459 ['111', '144', '125', '102', '136', '147', '140', '94', '139', '124', '134', '128', '148', '49', '120'] 242.67283950617295
69 4.853456790123459 ['111', '144', '125', '102', '136', '147', '140', '94', '139', '124', '134', '128', '148', '49', '120'] 242.67283950617295
70 4.853456790123459 ['111', '144', '125', '102', '136', '147', '140', '94', '139', '124', '134', '128', '148', '49', '120'] 242.67283950617295
71 4.853456790123459 ['111', '144', '125', '102', '136', '147', '140', '94', '139', '124', '134', '128', '148', '49', '120'] 242.67283950617295
72 4.853456790123459 ['111', '144', '125', '102', '136', '147', '140', '94', '139', '124', '134', '128', '148', '49', '120'] 242.67283950617295
73 4.853456790123459 ['111', '144', '125', '102', '136', '147', '140', '94', '139', '124', '134', '128', '148', '49', '120'] 242.67283950617295
74 4.853456790123459 ['111', '144', '125', '102', '136', '147', '140', '94', '139', '124', '134', '128', '148', '49', '120'] 242.67283950617295
75 4.853456790123459 ['111', '144', '125', '102', '136', '147', '140', '94', '139', '124', '134', '128', '148', '49', '120'] 242.67283950617295
76 4.853456790123459 ['111', '144', '125', '102', '136', '147', '140', '94', '139', '124', '134', '128', '148', '49', '120'] 242.67283950617295
77 4.853456790123459 ['111', '144', '125', '102', '136', '147', '140', '94', '139', '124', '134', '128', '148', '49', '120'] 242.67283950617295
78 4.853456790123459 ['111', '144', '125', '102', '136', '147', '140', '94', '139', '124', '134', '128', '148', '49', '120'] 242.67283950617295
79 4.853456790123459 ['111', '144', '125', '102', '136', '147', '140', '94', '139', '124', '134', '128', '148', '49', '120'] 242.67283950617295
80 4.853456790123459 ['111', '144', '125', '102', '136', '147', '140', '94', '139', '124', '134', '128', '148', '49', '120'] 242.67283950617295
81 4.853456790123459 ['111', '144', '125', '102', '136', '147', '140', '94', '139', '124', '134', '128', '148', '49', '120'] 242.67283950617295
82 4.853456790123459 ['111', '144', '125', '102', '136', '147', '140', '94', '139', '124', '134', '128', '148', '49', '120'] 242.67283950617295
83 4.853456790123459 ['111', '144', '125', '102', '136', '147', '140', '94', '139', '124', '134', '128', '148', '49', '120'] 242.67283950617295
84 4.853456790123459 ['111', '144', '125', '102', '136', '147', '140', '94', '139', '124', '134', '128', '148', '49', '120'] 242.67283950617295
85 4.853456790123459 ['111', '144', '125', '102', '136', '147', '140', '94', '139', '124', '134', '128', '148', '49', '120'] 242.67283950617295
86 4.853456790123459 ['111', '144', '125', '102', '136', '147', '140', '94', '139', '124', '134', '128', '148', '49', '120'] 242.67283950617295
87 4.853456790123459 ['111', '144', '125', '102', '136', '147', '140', '94', '139', '124', '134', '128', '148', '49', '120'] 242.67283950617295
88 4.853456790123459 ['111', '144', '125', '102', '136', '147', '140', '94', '139', '124', '134', '128', '148', '49', '120'] 242.67283950617295
89 4.853456790123459 ['111', '144', '125', '102', '136', '147', '140', '94', '139', '124', '134', '128', '148', '49', '120'] 242.67283950617295
90 4.853456790123459 ['111', '144', '125', '102', '136', '147', '140', '94', '139', '124', '134', '128', '148', '49', '120'] 242.67283950617295
91 4.853456790123459 ['111', '144', '125', '102', '136', '147', '140', '94', '139', '124', '134', '128', '148', '49', '120'] 242.67283950617295
92 4.853456790123459 ['111', '144', '125', '102', '136', '147', '140', '94', '139', '124', '134', '128', '148', '49', '120'] 242.67283950617295
93 4.853456790123459 ['111', '144', '125', '102', '136', '147', '140', '94', '139', '124', '134', '128', '148', '49', '120'] 242.67283950617295
94 4.853456790123459 ['111', '144', '125', '102', '136', '147', '140', '94', '139', '124', '134', '128', '148', '49', '120'] 242.67283950617295
95 4.853456790123459 ['111', '144', '125', '102', '136', '147', '140', '94', '139', '124', '134', '128', '148', '49', '120'] 242.67283950617295
96 4.853456790123459 ['111', '144', '125', '102', '136', '147', '140', '94', '139', '124', '134', '128', '148', '49', '120'] 242.67283950617295
97 4.853456790123459 ['111', '144', '125', '102', '136', '147', '140', '94', '139', '124', '134', '128', '148', '49', '120'] 242.67283950617295
98 4.853456790123459 ['111', '144', '125', '102', '136', '147', '140', '94', '139', '124', '134', '128', '148', '49', '120'] 242.67283950617295
99 4.853456790123459 ['111', '144', '125', '102', '136', '147', '140', '94', '139', '124', '134', '128', '148', '49', '120'] 242.67283950617295
100 4.853456790123459 ['111', '144', '125', '102', '136', '147', '140', '94', '139', '124', '134', '128', '148', '49', '120'] 242.67283950617295
101 4.853456790123459 ['111', '144', '125', '102', '136', '147', '140', '94', '139', '124', '134', '128', '148', '49', '120'] 242.67283950617295
102 4.853456790123459 ['111', '144', '125', '102', '136', '147', '140', '94', '139', '124', '134', '128', '148', '49', '120'] 242.67283950617295
103 4.853456790123459 ['111', '144', '125', '102', '136', '147', '140', '94', '139', '124', '134', '128', '148', '49', '120'] 242.67283950617295
104 4.853456790123459 ['111', '144', '125', '102', '136', '147', '140', '94', '139', '124', '134', '128', '148', '49', '120'] 242.67283950617295
105 4.853456790123459 ['111', '144', '125', '102', '136', '147', '140', '94', '139', '124', '134', '128', '148', '49', '120'] 242.67283950617295
106 4.853456790123459 ['111', '144', '125', '102', '136', '147', '140', '94', '139', '124', '134', '128', '148', '49', '120'] 242.67283950617295
107 4.853456790123459 ['111', '144', '125', '102', '136', '147', '140', '94', '139', '124', '134', '128', '148', '49', '120'] 242.67283950617295
108 4.853456790123459 ['111', '144', '125', '102', '136', '147', '140', '94', '139', '124', '134', '128', '148', '49', '120'] 242.67283950617295
109 4.853456790123459 ['111', '144', '125', '102', '136', '147', '140', '94', '139', '124', '134', '128', '148', '49', '120'] 242.67283950617295
110 4.853456790123459 ['111', '144', '125', '102', '136', '147', '140', '94', '139', '124', '134', '128', '148', '49', '120'] 242.67283950617295
111 4.853456790123459 ['111', '144', '125', '102', '136', '147', '140', '94', '139', '124', '134', '128', '148', '49', '120'] 242.67283950617295
112 4.853456790123459 ['111', '144', '125', '102', '136', '147', '140', '94', '139', '124', '134', '128', '148', '49', '120'] 242.67283950617295
113 4.853456790123459 ['111', '144', '125', '102', '136', '147', '140', '94', '139', '124', '134', '128', '148', '49', '120'] 242.67283950617295
114 4.853456790123459 ['111', '144', '125', '102', '136', '147', '140', '94', '139', '124', '134', '128', '148', '49', '120'] 242.67283950617295
115 4.853456790123459 ['111', '144', '125', '102', '136', '147', '140', '94', '139', '124', '134', '128', '148', '49', '120'] 242.67283950617295
116 4.853456790123459 ['111', '144', '125', '102', '136', '147', '140', '94', '139', '124', '134', '128', '148', '49', '120'] 242.67283950617295
117 4.853456790123459 ['111', '144', '125', '102', '136', '147', '140', '94', '139', '124', '134', '128', '148', '49', '120'] 242.67283950617295
118 4.853456790123459 ['111', '144', '125', '102', '136', '147', '140', '94', '139', '124', '134', '128', '148', '49', '120'] 242.67283950617295
119 4.853456790123459 ['111', '144', '125', '102', '136', '147', '140', '94', '139', '124', '134', '128', '148', '49', '120'] 242.67283950617295
120 4.853456790123459 ['111', '144', '125', '102', '136', '147', '140', '94', '139', '124', '134', '128', '148', '49', '120'] 242.67283950617295
121 4.853456790123459 ['111', '144', '125', '102', '136', '147', '140', '94', '139', '124', '134', '128', '148', '49', '120'] 242.67283950617295
122 4.853456790123459 ['111', '144', '125', '102', '136', '147', '140', '94', '139', '124', '134', '128', '148', '49', '120'] 242.67283950617295
123 4.853456790123459 ['111', '144', '125', '102', '136', '147', '140', '94', '139', '124', '134', '128', '148', '49', '120'] 242.67283950617295
124 4.853456790123459 ['111', '144', '125', '102', '136', '147', '140', '94', '139', '124', '134', '128', '148', '49', '120'] 242.67283950617295
125 4.853456790123459 ['111', '144', '125', '102', '136', '147', '140', '94', '139', '124', '134', '128', '148', '49', '120'] 242.67283950617295
126 4.853456790123459 ['111', '144', '125', '102', '136', '147', '140', '94', '139', '124', '134', '128', '148', '49', '120'] 242.67283950617295
127 4.853456790123459 ['111', '144', '125', '102', '136', '147', '140', '94', '139', '124', '134', '128', '148', '49', '120'] 242.67283950617295
128 4.853456790123459 ['111', '144', '125', '102', '136', '147', '140', '94', '139', '124', '134', '128', '148', '49', '120'] 242.67283950617295
129 4.853456790123459 ['111', '144', '125', '102', '136', '147', '140', '94', '139', '124', '134', '128', '148', '49', '120'] 242.67283950617295
130 4.853456790123459 ['111', '144', '125', '102', '136', '147', '140', '94', '139', '124', '134', '128', '148', '49', '120'] 242.67283950617295
131 4.853456790123459 ['111', '144', '125', '102', '136', '147', '140', '94', '139', '124', '134', '128', '148', '49', '120'] 242.67283950617295
132 4.853456790123459 ['111', '144', '125', '102', '136', '147', '140', '94', '139', '124', '134', '128', '148', '49', '120'] 242.67283950617295
133 4.853456790123459 ['111', '144', '125', '102', '136', '147', '140', '94', '139', '124', '134', '128', '148', '49', '120'] 242.67283950617295
134 4.853456790123459 ['111', '144', '125', '102', '136', '147', '140', '94', '139', '124', '134', '128', '148', '49', '120'] 242.67283950617295
135 4.853456790123459 ['111', '144', '125', '102', '136', '147', '140', '94', '139', '124', '134', '128', '148', '49', '120'] 242.67283950617295
136 4.853456790123459 ['111', '144', '125', '102', '136', '147', '140', '94', '139', '124', '134', '128', '148', '49', '120'] 242.67283950617295
137 4.853456790123459 ['111', '144', '125', '102', '136', '147', '140', '94', '139', '124', '134', '128', '148', '49', '120'] 242.67283950617295
138 4.853456790123459 ['111', '144', '125', '102', '136', '147', '140', '94', '139', '124', '134', '128', '148', '49', '120'] 242.67283950617295
139 4.853456790123459 ['111', '144', '125', '102', '136', '147', '140', '94', '139', '124', '134', '128', '148', '49', '120'] 242.67283950617295
140 4.853456790123459 ['111', '144', '125', '102', '136', '147', '140', '94', '139', '124', '134', '128', '148', '49', '120'] 242.67283950617295
141 4.853456790123459 ['111', '144', '125', '102', '136', '147', '140', '94', '139', '124', '134', '128', '148', '49', '120'] 242.67283950617295
142 4.853456790123459 ['111', '144', '125', '102', '136', '147', '140', '94', '139', '124', '134', '128', '148', '49', '120'] 242.67283950617295
143 4.853456790123459 ['111', '144', '125', '102', '136', '147', '140', '94', '139', '124', '134', '128', '148', '49', '120'] 242.67283950617295
144 4.853456790123459 ['111', '144', '125', '102', '136', '147', '140', '94', '139', '124', '134', '128', '148', '49', '120'] 242.67283950617295
145 4.853456790123459 ['111', '144', '125', '102', '136', '147', '140', '94', '139', '124', '134', '128', '148', '49', '120'] 242.67283950617295
146 4.853456790123459 ['111', '144', '125', '102', '136', '147', '140', '94', '139', '124', '134', '128', '148', '49', '120'] 242.67283950617295
147 4.853456790123459 ['111', '144', '125', '102', '136', '147', '140', '94', '139', '124', '134', '128', '148', '49', '120'] 242.67283950617295
148 4.853456790123459 ['111', '144', '125', '102', '136', '147', '140', '94', '139', '124', '134', '128', '148', '49', '120'] 242.67283950617295
149 4.853456790123459 ['111', '144', '125', '102', '136', '147', '140', '94', '139', '124', '134', '128', '148', '49', '120'] 242.67283950617295
150 4.853456790123459 ['111', '144', '125', '102', '136', '147', '140', '94', '139', '124', '134', '128', '148', '49', '120'] 242.67283950617295
151 4.853456790123459 ['111', '144', '125', '102', '136', '147', '140', '94', '139', '124', '134', '128', '148', '49', '120'] 242.67283950617295
152 4.853456790123459 ['111', '144', '125', '102', '136', '147', '140', '94', '139', '124', '134', '128', '148', '49', '120'] 242.67283950617295
153 4.853456790123459 ['111', '144', '125', '102', '136', '147', '140', '94', '139', '124', '134', '128', '148', '49', '120'] 242.67283950617295
154 4.853456790123459 ['111', '144', '125', '102', '136', '147', '140', '94', '139', '124', '134', '128', '148', '49', '120'] 242.67283950617295
155 4.853456790123459 ['111', '144', '125', '102', '136', '147', '140', '94', '139', '124', '134', '128', '148', '49', '120'] 242.67283950617295
156 4.853456790123459 ['111', '144', '125', '102', '136', '147', '140', '94', '139', '124', '134', '128', '148', '49', '120'] 242.67283950617295
157 4.853456790123459 ['111', '144', '125', '102', '136', '147', '140', '94', '139', '124', '134', '128', '148', '49', '120'] 242.67283950617295
158 4.853456790123459 ['111', '144', '125', '102', '136', '147', '140', '94', '139', '124', '134', '128', '148', '49', '120'] 242.67283950617295
159 4.853456790123459 ['111', '144', '125', '102', '136', '147', '140', '94', '139', '124', '134', '128', '148', '49', '120'] 242.67283950617295
160 4.853456790123459 ['111', '144', '125', '102', '136', '147', '140', '94', '139', '124', '134', '128', '148', '49', '120'] 242.67283950617295
161 4.853456790123459 ['111', '144', '125', '102', '136', '147', '140', '94', '139', '124', '134', '128', '148', '49', '120'] 242.67283950617295
162 4.853456790123459 ['111', '144', '125', '102', '136', '147', '140', '94', '139', '124', '134', '128', '148', '49', '120'] 242.67283950617295
163 4.853456790123459 ['111', '144', '125', '102', '136', '147', '140', '94', '139', '124', '134', '128', '148', '49', '120'] 242.67283950617295
164 4.853456790123459 ['111', '144', '125', '102', '136', '147', '140', '94', '139', '124', '134', '128', '148', '49', '120'] 242.67283950617295
165 4.853456790123459 ['111', '144', '125', '102', '136', '147', '140', '94', '139', '124', '134', '128', '148', '49', '120'] 242.67283950617295
166 4.853456790123459 ['111', '144', '125', '102', '136', '147', '140', '94', '139', '124', '134', '128', '148', '49', '120'] 242.67283950617295
167 4.853456790123459 ['111', '144', '125', '102', '136', '147', '140', '94', '139', '124', '134', '128', '148', '49', '120'] 242.67283950617295
168 4.853456790123459 ['111', '144', '125', '102', '136', '147', '140', '94', '139', '124', '134', '128', '148', '49', '120'] 242.67283950617295
169 4.853456790123459 ['111', '144', '125', '102', '136', '147', '140', '94', '139', '124', '134', '128', '148', '49', '120'] 242.67283950617295
170 4.853456790123459 ['111', '144', '125', '102', '136', '147', '140', '94', '139', '124', '134', '128', '148', '49', '120'] 242.67283950617295
171 4.853456790123459 ['111', '144', '125', '102', '136', '147', '140', '94', '139', '124', '134', '128', '148', '49', '120'] 242.67283950617295
172 4.853456790123459 ['111', '144', '125', '102', '136', '147', '140', '94', '139', '124', '134', '128', '148', '49', '120'] 242.67283950617295
173 4.853456790123459 ['111', '144', '125', '102', '136', '147', '140', '94', '139', '124', '134', '128', '148', '49', '120'] 242.67283950617295
174 4.853456790123459 ['111', '144', '125', '102', '136', '147', '140', '94', '139', '124', '134', '128', '148', '49', '120'] 242.67283950617295
175 4.853456790123459 ['111', '144', '125', '102', '136', '147', '140', '94', '139', '124', '134', '128', '148', '49', '120'] 242.67283950617295
176 4.853456790123459 ['111', '144', '125', '102', '136', '147', '140', '94', '139', '124', '134', '128', '148', '49', '120'] 242.67283950617295
177 4.853456790123459 ['111', '144', '125', '102', '136', '147', '140', '94', '139', '124', '134', '128', '148', '49', '120'] 242.67283950617295
178 4.853456790123459 ['111', '144', '125', '102', '136', '147', '140', '94', '139', '124', '134', '128', '148', '49', '120'] 242.67283950617295
179 4.853456790123459 ['111', '144', '125', '102', '136', '147', '140', '94', '139', '124', '134', '128', '148', '49', '120'] 242.67283950617295
180 4.853456790123459 ['111', '144', '125', '102', '136', '147', '140', '94', '139', '124', '134', '128', '148', '49', '120'] 242.67283950617295
181 4.853456790123459 ['111', '144', '125', '102', '136', '147', '140', '94', '139', '124', '134', '128', '148', '49', '120'] 242.67283950617295
182 4.853456790123459 ['111', '144', '125', '102', '136', '147', '140', '94', '139', '124', '134', '128', '148', '49', '120'] 242.67283950617295
183 4.853456790123459 ['111', '144', '125', '102', '136', '147', '140', '94', '139', '124', '134', '128', '148', '49', '120'] 242.67283950617295
184 4.853456790123459 ['111', '144', '125', '102', '136', '147', '140', '94', '139', '124', '134', '128', '148', '49', '120'] 242.67283950617295
185 4.853456790123459 ['111', '144', '125', '102', '136', '147', '140', '94', '139', '124', '134', '128', '148', '49', '120'] 242.67283950617295
186 4.853456790123459 ['111', '144', '125', '102', '136', '147', '140', '94', '139', '124', '134', '128', '148', '49', '120'] 242.67283950617295
187 4.853456790123459 ['111', '144', '125', '102', '136', '147', '140', '94', '139', '124', '134', '128', '148', '49', '120'] 242.67283950617295
188 4.853456790123459 ['111', '144', '125', '102', '136', '147', '140', '94', '139', '124', '134', '128', '148', '49', '120'] 242.67283950617295
189 4.853456790123459 ['111', '144', '125', '102', '136', '147', '140', '94', '139', '124', '134', '128', '148', '49', '120'] 242.67283950617295
190 4.853456790123459 ['111', '144', '125', '102', '136', '147', '140', '94', '139', '124', '134', '128', '148', '49', '120'] 242.67283950617295
191 4.853456790123459 ['111', '144', '125', '102', '136', '147', '140', '94', '139', '124', '134', '128', '148', '49', '120'] 242.67283950617295
192 4.853456790123459 ['111', '144', '125', '102', '136', '147', '140', '94', '139', '124', '134', '128', '148', '49', '120'] 242.67283950617295
193 4.853456790123459 ['111', '144', '125', '102', '136', '147', '140', '94', '139', '124', '134', '128', '148', '49', '120'] 242.67283950617295
194 4.853456790123459 ['111', '144', '125', '102', '136', '147', '140', '94', '139', '124', '134', '128', '148', '49', '120'] 242.67283950617295
195 4.853456790123459 ['111', '144', '125', '102', '136', '147', '140', '94', '139', '124', '134', '128', '148', '49', '120'] 242.67283950617295
196 4.853456790123459 ['111', '144', '125', '102', '136', '147', '140', '94', '139', '124', '134', '128', '148', '49', '120'] 242.67283950617295
197 4.853456790123459 ['111', '144', '125', '102', '136', '147', '140', '94', '139', '124', '134', '128', '148', '49', '120'] 242.67283950617295
198 4.853456790123459 ['111', '144', '125', '102', '136', '147', '140', '94', '139', '124', '134', '128', '148', '49', '120'] 242.67283950617295
199 4.853456790123459 ['111', '144', '125', '102', '136', '147', '140', '94', '139', '124', '134', '128', '148', '49', '120'] 242.67283950617295
