0 13.274074074074074 ['141', '140', '124', '149', '11', '133', '108', '61', '123', '146', '67', '139', '48', '45', '150'] 693.7777777777778
1 13.274074074074074 ['141', '140', '124', '149', '11', '133', '108', '61', '123', '146', '67', '139', '48', '45', '150'] 687.8740740740744
2 13.08148148148148 ['108', '141', '124', '53', '136', '61', '82', '5', '146', '139', '150', '129', '133', '123', '69'] 680.5481481481485
3 13.08148148148148 ['108', '141', '124', '53', '136', '61', '82', '5', '146', '139', '150', '129', '133', '123', '69'] 672.1185185185188
4 12.962962962962964 ['82', '150', '119', '106', '139', '129', '141', '53', '121', '148', '78', '33', '124', '133', '149'] 665.2370370370372
5 12.948148148148148 ['133', '124', '129', '135', '123', '98', '40', '136', '82', '149', '106', '20', '141', '146', '150'] 660.4000000000002
6 12.911111111111111 ['82', '141', '106', '98', '135', '136', '124', '149', '120', '123', '129', '148', '40', '81', '150'] 655.8148148148147
7 12.785185185185185 ['149', '148', '139', '141', '124', '56', '129', '123', '138', '133', '5', '67', '140', '131', '82'] 651.348148148148
8 12.785185185185185 ['149', '148', '139', '141', '124', '56', '129', '123', '138', '133', '5', '67', '140', '131', '82'] 648.3851851851854
9 12.622222222222222 ['129', '141', '140', '82', '149', '123', '124', '11', '133', '104', '136', '131', '139', '148', '138'] 644.3629629629627
10 12.622222222222222 ['129', '141', '140', '82', '149', '123', '124', '11', '133', '104', '136', '131', '139', '148', '138'] 640.8814814814817
11 12.511111111111111 ['124', '149', '131', '82', '141', '139', '123', '129', '150', '133', '140', '98', '148', '92', '136'] 636.859259259259
12 12.511111111111111 ['124', '149', '131', '82', '141', '139', '123', '129', '150', '133', '140', '98', '148', '92', '136'] 633.0518518518518
13 12.437037037037037 ['123', '131', '124', '129', '133', '141', '148', '150', '82', '139', '136', '92', '149', '140', '146'] 629.3037037037033
14 12.437037037037037 ['123', '131', '124', '129', '133', '141', '148', '150', '82', '139', '136', '92', '149', '140', '146'] 626.5555555555554
15 12.42962962962963 ['139', '140', '124', '123', '82', '149', '141', '133', '150', '146', '148', '131', '138', '130', '120'] 624.4370370370368
16 12.407407407407407 ['139', '133', '123', '148', '136', '131', '124', '140', '149', '141', '120', '129', '138', '146', '121'] 622.8592592592596
17 12.407407407407407 ['139', '133', '123', '148', '136', '131', '124', '140', '149', '141', '120', '129', '138', '146', '121'] 622.1259259259265
18 12.4 ['149', '124', '136', '139', '131', '148', '140', '150', '133', '82', '123', '141', '121', '146', '120'] 621.5037037037039
19 12.392592592592592 ['149', '123', '150', '140', '133', '148', '136', '124', '139', '131', '120', '141', '121', '129', '146'] 620.8148148148148
20 12.392592592592592 ['149', '123', '150', '140', '133', '148', '136', '124', '139', '131', '120', '141', '121', '129', '146'] 620.2444444444441
21 12.392592592592592 ['149', '123', '150', '140', '133', '148', '136', '124', '139', '131', '120', '141', '121', '129', '146'] 619.9407407407401
22 12.392592592592592 ['149', '123', '150', '140', '133', '148', '136', '124', '139', '131', '120', '141', '121', '129', '146'] 619.8518518518512
23 12.392592592592592 ['149', '123', '150', '140', '133', '148', '136', '124', '139', '131', '120', '141', '121', '129', '146'] 619.7037037037029
24 12.392592592592592 ['149', '123', '150', '140', '133', '148', '136', '124', '139', '131', '120', '141', '121', '129', '146'] 619.6296296296288
25 12.392592592592592 ['149', '123', '150', '140', '133', '148', '136', '124', '139', '131', '120', '141', '121', '129', '146'] 619.6296296296288
26 12.392592592592592 ['149', '123', '150', '140', '133', '148', '136', '124', '139', '131', '120', '141', '121', '129', '146'] 619.6296296296288
27 12.392592592592592 ['149', '123', '150', '140', '133', '148', '136', '124', '139', '131', '120', '141', '121', '129', '146'] 619.6296296296288
28 12.392592592592592 ['149', '123', '150', '140', '133', '148', '136', '124', '139', '131', '120', '141', '121', '129', '146'] 619.6296296296288
29 12.392592592592592 ['149', '123', '150', '140', '133', '148', '136', '124', '139', '131', '120', '141', '121', '129', '146'] 619.6296296296288
30 12.392592592592592 ['149', '123', '150', '140', '133', '148', '136', '124', '139', '131', '120', '141', '121', '129', '146'] 619.6296296296288
31 12.392592592592592 ['149', '123', '150', '140', '133', '148', '136', '124', '139', '131', '120', '141', '121', '129', '146'] 619.6296296296288
32 12.392592592592592 ['149', '123', '150', '140', '133', '148', '136', '124', '139', '131', '120', '141', '121', '129', '146'] 619.6296296296288
33 12.392592592592592 ['149', '123', '150', '140', '133', '148', '136', '124', '139', '131', '120', '141', '121', '129', '146'] 619.6296296296288
34 12.392592592592592 ['149', '123', '150', '140', '133', '148', '136', '124', '139', '131', '120', '141', '121', '129', '146'] 619.6296296296288
35 12.392592592592592 ['149', '123', '150', '140', '133', '148', '136', '124', '139', '131', '120', '141', '121', '129', '146'] 619.6296296296288
36 12.392592592592592 ['149', '123', '150', '140', '133', '148', '136', '124', '139', '131', '120', '141', '121', '129', '146'] 619.6296296296288
37 12.392592592592592 ['149', '123', '150', '140', '133', '148', '136', '124', '139', '131', '120', '141', '121', '129', '146'] 619.6296296296288
38 12.392592592592592 ['149', '123', '150', '140', '133', '148', '136', '124', '139', '131', '120', '141', '121', '129', '146'] 619.6296296296288
39 12.392592592592592 ['149', '123', '150', '140', '133', '148', '136', '124', '139', '131', '120', '141', '121', '129', '146'] 619.6296296296288
40 12.392592592592592 ['149', '123', '150', '140', '133', '148', '136', '124', '139', '131', '120', '141', '121', '129', '146'] 619.6296296296288
41 12.392592592592592 ['149', '123', '150', '140', '133', '148', '136', '124', '139', '131', '120', '141', '121', '129', '146'] 619.6296296296288
42 12.392592592592592 ['149', '123', '150', '140', '133', '148', '136', '124', '139', '131', '120', '141', '121', '129', '146'] 619.6296296296288
43 12.392592592592592 ['149', '123', '150', '140', '133', '148', '136', '124', '139', '131', '120', '141', '121', '129', '146'] 619.6296296296288
44 12.392592592592592 ['149', '123', '150', '140', '133', '148', '136', '124', '139', '131', '120', '141', '121', '129', '146'] 619.6296296296288
45 12.392592592592592 ['149', '123', '150', '140', '133', '148', '136', '124', '139', '131', '120', '141', '121', '129', '146'] 619.6296296296288
46 12.392592592592592 ['149', '123', '150', '140', '133', '148', '136', '124', '139', '131', '120', '141', '121', '129', '146'] 619.6296296296288
47 12.392592592592592 ['149', '123', '150', '140', '133', '148', '136', '124', '139', '131', '120', '141', '121', '129', '146'] 619.6296296296288
48 12.392592592592592 ['149', '123', '150', '140', '133', '148', '136', '124', '139', '131', '120', '141', '121', '129', '146'] 619.6296296296288
49 12.392592592592592 ['149', '123', '150', '140', '133', '148', '136', '124', '139', '131', '120', '141', '121', '129', '146'] 619.6296296296288
50 12.392592592592592 ['149', '123', '150', '140', '133', '148', '136', '124', '139', '131', '120', '141', '121', '129', '146'] 619.6296296296288
51 12.392592592592592 ['149', '123', '150', '140', '133', '148', '136', '124', '139', '131', '120', '141', '121', '129', '146'] 619.6296296296288
52 12.392592592592592 ['149', '123', '150', '140', '133', '148', '136', '124', '139', '131', '120', '141', '121', '129', '146'] 619.6296296296288
53 12.392592592592592 ['149', '123', '150', '140', '133', '148', '136', '124', '139', '131', '120', '141', '121', '129', '146'] 619.6296296296288
54 12.392592592592592 ['149', '123', '150', '140', '133', '148', '136', '124', '139', '131', '120', '141', '121', '129', '146'] 619.6296296296288
55 12.392592592592592 ['149', '123', '150', '140', '133', '148', '136', '124', '139', '131', '120', '141', '121', '129', '146'] 619.6296296296288
56 12.392592592592592 ['149', '123', '150', '140', '133', '148', '136', '124', '139', '131', '120', '141', '121', '129', '146'] 619.6296296296288
57 12.392592592592592 ['149', '123', '150', '140', '133', '148', '136', '124', '139', '131', '120', '141', '121', '129', '146'] 619.6296296296288
58 12.392592592592592 ['149', '123', '150', '140', '133', '148', '136', '124', '139', '131', '120', '141', '121', '129', '146'] 619.6296296296288
59 12.392592592592592 ['149', '123', '150', '140', '133', '148', '136', '124', '139', '131', '120', '141', '121', '129', '146'] 619.6296296296288
60 12.392592592592592 ['149', '123', '150', '140', '133', '148', '136', '124', '139', '131', '120', '141', '121', '129', '146'] 619.6296296296288
61 12.392592592592592 ['149', '123', '150', '140', '133', '148', '136', '124', '139', '131', '120', '141', '121', '129', '146'] 619.6296296296288
62 12.392592592592592 ['149', '123', '150', '140', '133', '148', '136', '124', '139', '131', '120', '141', '121', '129', '146'] 619.6296296296288
63 12.392592592592592 ['149', '123', '150', '140', '133', '148', '136', '124', '139', '131', '120', '141', '121', '129', '146'] 619.6296296296288
64 12.392592592592592 ['149', '123', '150', '140', '133', '148', '136', '124', '139', '131', '120', '141', '121', '129', '146'] 619.6296296296288
65 12.392592592592592 ['149', '123', '150', '140', '133', '148', '136', '124', '139', '131', '120', '141', '121', '129', '146'] 619.6296296296288
66 12.392592592592592 ['149', '123', '150', '140', '133', '148', '136', '124', '139', '131', '120', '141', '121', '129', '146'] 619.6296296296288
67 12.392592592592592 ['149', '123', '150', '140', '133', '148', '136', '124', '139', '131', '120', '141', '121', '129', '146'] 619.6296296296288
68 12.392592592592592 ['149', '123', '150', '140', '133', '148', '136', '124', '139', '131', '120', '141', '121', '129', '146'] 619.6296296296288
69 12.392592592592592 ['149', '123', '150', '140', '133', '148', '136', '124', '139', '131', '120', '141', '121', '129', '146'] 619.6296296296288
70 12.392592592592592 ['149', '123', '150', '140', '133', '148', '136', '124', '139', '131', '120', '141', '121', '129', '146'] 619.6296296296288
71 12.392592592592592 ['149', '123', '150', '140', '133', '148', '136', '124', '139', '131', '120', '141', '121', '129', '146'] 619.6296296296288
72 12.392592592592592 ['149', '123', '150', '140', '133', '148', '136', '124', '139', '131', '120', '141', '121', '129', '146'] 619.6296296296288
73 12.392592592592592 ['149', '123', '150', '140', '133', '148', '136', '124', '139', '131', '120', '141', '121', '129', '146'] 619.6296296296288
74 12.392592592592592 ['149', '123', '150', '140', '133', '148', '136', '124', '139', '131', '120', '141', '121', '129', '146'] 619.6296296296288
75 12.392592592592592 ['149', '123', '150', '140', '133', '148', '136', '124', '139', '131', '120', '141', '121', '129', '146'] 619.6296296296288
76 12.392592592592592 ['149', '123', '150', '140', '133', '148', '136', '124', '139', '131', '120', '141', '121', '129', '146'] 619.6296296296288
77 12.392592592592592 ['149', '123', '150', '140', '133', '148', '136', '124', '139', '131', '120', '141', '121', '129', '146'] 619.6296296296288
78 12.392592592592592 ['149', '123', '150', '140', '133', '148', '136', '124', '139', '131', '120', '141', '121', '129', '146'] 619.6296296296288
79 12.392592592592592 ['149', '123', '150', '140', '133', '148', '136', '124', '139', '131', '120', '141', '121', '129', '146'] 619.6296296296288
80 12.392592592592592 ['149', '123', '150', '140', '133', '148', '136', '124', '139', '131', '120', '141', '121', '129', '146'] 619.6296296296288
81 12.392592592592592 ['149', '123', '150', '140', '133', '148', '136', '124', '139', '131', '120', '141', '121', '129', '146'] 619.6296296296288
82 12.392592592592592 ['149', '123', '150', '140', '133', '148', '136', '124', '139', '131', '120', '141', '121', '129', '146'] 619.6296296296288
83 12.392592592592592 ['149', '123', '150', '140', '133', '148', '136', '124', '139', '131', '120', '141', '121', '129', '146'] 619.6296296296288
84 12.392592592592592 ['149', '123', '150', '140', '133', '148', '136', '124', '139', '131', '120', '141', '121', '129', '146'] 619.6296296296288
85 12.392592592592592 ['149', '123', '150', '140', '133', '148', '136', '124', '139', '131', '120', '141', '121', '129', '146'] 619.6296296296288
86 12.392592592592592 ['149', '123', '150', '140', '133', '148', '136', '124', '139', '131', '120', '141', '121', '129', '146'] 619.6296296296288
87 12.392592592592592 ['149', '123', '150', '140', '133', '148', '136', '124', '139', '131', '120', '141', '121', '129', '146'] 619.6296296296288
88 12.392592592592592 ['149', '123', '150', '140', '133', '148', '136', '124', '139', '131', '120', '141', '121', '129', '146'] 619.6296296296288
89 12.392592592592592 ['149', '123', '150', '140', '133', '148', '136', '124', '139', '131', '120', '141', '121', '129', '146'] 619.6296296296288
90 12.392592592592592 ['149', '123', '150', '140', '133', '148', '136', '124', '139', '131', '120', '141', '121', '129', '146'] 619.6296296296288
91 12.392592592592592 ['149', '123', '150', '140', '133', '148', '136', '124', '139', '131', '120', '141', '121', '129', '146'] 619.6296296296288
92 12.392592592592592 ['149', '123', '150', '140', '133', '148', '136', '124', '139', '131', '120', '141', '121', '129', '146'] 619.6296296296288
93 12.392592592592592 ['149', '123', '150', '140', '133', '148', '136', '124', '139', '131', '120', '141', '121', '129', '146'] 619.6296296296288
94 12.392592592592592 ['149', '123', '150', '140', '133', '148', '136', '124', '139', '131', '120', '141', '121', '129', '146'] 619.6296296296288
95 12.392592592592592 ['149', '123', '150', '140', '133', '148', '136', '124', '139', '131', '120', '141', '121', '129', '146'] 619.6296296296288
96 12.392592592592592 ['149', '123', '150', '140', '133', '148', '136', '124', '139', '131', '120', '141', '121', '129', '146'] 619.6296296296288
97 12.392592592592592 ['149', '123', '150', '140', '133', '148', '136', '124', '139', '131', '120', '141', '121', '129', '146'] 619.6296296296288
98 12.392592592592592 ['149', '123', '150', '140', '133', '148', '136', '124', '139', '131', '120', '141', '121', '129', '146'] 619.6296296296288
99 12.392592592592592 ['149', '123', '150', '140', '133', '148', '136', '124', '139', '131', '120', '141', '121', '129', '146'] 619.6296296296288
100 12.392592592592592 ['149', '123', '150', '140', '133', '148', '136', '124', '139', '131', '120', '141', '121', '129', '146'] 619.6296296296288
101 12.392592592592592 ['149', '123', '150', '140', '133', '148', '136', '124', '139', '131', '120', '141', '121', '129', '146'] 619.6296296296288
102 12.392592592592592 ['149', '123', '150', '140', '133', '148', '136', '124', '139', '131', '120', '141', '121', '129', '146'] 619.6296296296288
103 12.392592592592592 ['149', '123', '150', '140', '133', '148', '136', '124', '139', '131', '120', '141', '121', '129', '146'] 619.6296296296288
104 12.392592592592592 ['149', '123', '150', '140', '133', '148', '136', '124', '139', '131', '120', '141', '121', '129', '146'] 619.6296296296288
105 12.392592592592592 ['149', '123', '150', '140', '133', '148', '136', '124', '139', '131', '120', '141', '121', '129', '146'] 619.6296296296288
106 12.392592592592592 ['149', '123', '150', '140', '133', '148', '136', '124', '139', '131', '120', '141', '121', '129', '146'] 619.6296296296288
107 12.392592592592592 ['149', '123', '150', '140', '133', '148', '136', '124', '139', '131', '120', '141', '121', '129', '146'] 619.6296296296288
108 12.392592592592592 ['149', '123', '150', '140', '133', '148', '136', '124', '139', '131', '120', '141', '121', '129', '146'] 619.6296296296288
109 12.392592592592592 ['149', '123', '150', '140', '133', '148', '136', '124', '139', '131', '120', '141', '121', '129', '146'] 619.6296296296288
110 12.392592592592592 ['149', '123', '150', '140', '133', '148', '136', '124', '139', '131', '120', '141', '121', '129', '146'] 619.6296296296288
111 12.392592592592592 ['149', '123', '150', '140', '133', '148', '136', '124', '139', '131', '120', '141', '121', '129', '146'] 619.6296296296288
112 12.392592592592592 ['149', '123', '150', '140', '133', '148', '136', '124', '139', '131', '120', '141', '121', '129', '146'] 619.6296296296288
113 12.392592592592592 ['149', '123', '150', '140', '133', '148', '136', '124', '139', '131', '120', '141', '121', '129', '146'] 619.6296296296288
114 12.392592592592592 ['149', '123', '150', '140', '133', '148', '136', '124', '139', '131', '120', '141', '121', '129', '146'] 619.6296296296288
115 12.392592592592592 ['149', '123', '150', '140', '133', '148', '136', '124', '139', '131', '120', '141', '121', '129', '146'] 619.6296296296288
116 12.392592592592592 ['149', '123', '150', '140', '133', '148', '136', '124', '139', '131', '120', '141', '121', '129', '146'] 619.6296296296288
117 12.392592592592592 ['149', '123', '150', '140', '133', '148', '136', '124', '139', '131', '120', '141', '121', '129', '146'] 619.6296296296288
118 12.392592592592592 ['149', '123', '150', '140', '133', '148', '136', '124', '139', '131', '120', '141', '121', '129', '146'] 619.6296296296288
119 12.392592592592592 ['149', '123', '150', '140', '133', '148', '136', '124', '139', '131', '120', '141', '121', '129', '146'] 619.6296296296288
120 12.392592592592592 ['149', '123', '150', '140', '133', '148', '136', '124', '139', '131', '120', '141', '121', '129', '146'] 619.6296296296288
121 12.392592592592592 ['149', '123', '150', '140', '133', '148', '136', '124', '139', '131', '120', '141', '121', '129', '146'] 619.6296296296288
122 12.392592592592592 ['149', '123', '150', '140', '133', '148', '136', '124', '139', '131', '120', '141', '121', '129', '146'] 619.6296296296288
123 12.392592592592592 ['149', '123', '150', '140', '133', '148', '136', '124', '139', '131', '120', '141', '121', '129', '146'] 619.6296296296288
124 12.392592592592592 ['149', '123', '150', '140', '133', '148', '136', '124', '139', '131', '120', '141', '121', '129', '146'] 619.6296296296288
125 12.392592592592592 ['149', '123', '150', '140', '133', '148', '136', '124', '139', '131', '120', '141', '121', '129', '146'] 619.6296296296288
126 12.392592592592592 ['149', '123', '150', '140', '133', '148', '136', '124', '139', '131', '120', '141', '121', '129', '146'] 619.6296296296288
127 12.392592592592592 ['149', '123', '150', '140', '133', '148', '136', '124', '139', '131', '120', '141', '121', '129', '146'] 619.6296296296288
128 12.392592592592592 ['149', '123', '150', '140', '133', '148', '136', '124', '139', '131', '120', '141', '121', '129', '146'] 619.6296296296288
129 12.392592592592592 ['149', '123', '150', '140', '133', '148', '136', '124', '139', '131', '120', '141', '121', '129', '146'] 619.6296296296288
130 12.392592592592592 ['149', '123', '150', '140', '133', '148', '136', '124', '139', '131', '120', '141', '121', '129', '146'] 619.6296296296288
131 12.392592592592592 ['149', '123', '150', '140', '133', '148', '136', '124', '139', '131', '120', '141', '121', '129', '146'] 619.6296296296288
132 12.392592592592592 ['149', '123', '150', '140', '133', '148', '136', '124', '139', '131', '120', '141', '121', '129', '146'] 619.6296296296288
133 12.392592592592592 ['149', '123', '150', '140', '133', '148', '136', '124', '139', '131', '120', '141', '121', '129', '146'] 619.6296296296288
134 12.392592592592592 ['149', '123', '150', '140', '133', '148', '136', '124', '139', '131', '120', '141', '121', '129', '146'] 619.6296296296288
135 12.392592592592592 ['149', '123', '150', '140', '133', '148', '136', '124', '139', '131', '120', '141', '121', '129', '146'] 619.6296296296288
136 12.392592592592592 ['149', '123', '150', '140', '133', '148', '136', '124', '139', '131', '120', '141', '121', '129', '146'] 619.6296296296288
137 12.392592592592592 ['149', '123', '150', '140', '133', '148', '136', '124', '139', '131', '120', '141', '121', '129', '146'] 619.6296296296288
138 12.392592592592592 ['149', '123', '150', '140', '133', '148', '136', '124', '139', '131', '120', '141', '121', '129', '146'] 619.6296296296288
139 12.392592592592592 ['149', '123', '150', '140', '133', '148', '136', '124', '139', '131', '120', '141', '121', '129', '146'] 619.6296296296288
140 12.392592592592592 ['149', '123', '150', '140', '133', '148', '136', '124', '139', '131', '120', '141', '121', '129', '146'] 619.6296296296288
141 12.392592592592592 ['149', '123', '150', '140', '133', '148', '136', '124', '139', '131', '120', '141', '121', '129', '146'] 619.6296296296288
142 12.392592592592592 ['149', '123', '150', '140', '133', '148', '136', '124', '139', '131', '120', '141', '121', '129', '146'] 619.6296296296288
143 12.392592592592592 ['149', '123', '150', '140', '133', '148', '136', '124', '139', '131', '120', '141', '121', '129', '146'] 619.6296296296288
144 12.392592592592592 ['149', '123', '150', '140', '133', '148', '136', '124', '139', '131', '120', '141', '121', '129', '146'] 619.6296296296288
145 12.392592592592592 ['149', '123', '150', '140', '133', '148', '136', '124', '139', '131', '120', '141', '121', '129', '146'] 619.6296296296288
146 12.392592592592592 ['149', '123', '150', '140', '133', '148', '136', '124', '139', '131', '120', '141', '121', '129', '146'] 619.6296296296288
147 12.392592592592592 ['149', '123', '150', '140', '133', '148', '136', '124', '139', '131', '120', '141', '121', '129', '146'] 619.6296296296288
148 12.392592592592592 ['149', '123', '150', '140', '133', '148', '136', '124', '139', '131', '120', '141', '121', '129', '146'] 619.6296296296288
149 12.392592592592592 ['149', '123', '150', '140', '133', '148', '136', '124', '139', '131', '120', '141', '121', '129', '146'] 619.6296296296288
150 12.392592592592592 ['149', '123', '150', '140', '133', '148', '136', '124', '139', '131', '120', '141', '121', '129', '146'] 619.6296296296288
151 12.392592592592592 ['149', '123', '150', '140', '133', '148', '136', '124', '139', '131', '120', '141', '121', '129', '146'] 619.6296296296288
152 12.392592592592592 ['149', '123', '150', '140', '133', '148', '136', '124', '139', '131', '120', '141', '121', '129', '146'] 619.6296296296288
153 12.392592592592592 ['149', '123', '150', '140', '133', '148', '136', '124', '139', '131', '120', '141', '121', '129', '146'] 619.6296296296288
154 12.392592592592592 ['149', '123', '150', '140', '133', '148', '136', '124', '139', '131', '120', '141', '121', '129', '146'] 619.6296296296288
155 12.392592592592592 ['149', '123', '150', '140', '133', '148', '136', '124', '139', '131', '120', '141', '121', '129', '146'] 619.6296296296288
156 12.392592592592592 ['149', '123', '150', '140', '133', '148', '136', '124', '139', '131', '120', '141', '121', '129', '146'] 619.6296296296288
157 12.392592592592592 ['149', '123', '150', '140', '133', '148', '136', '124', '139', '131', '120', '141', '121', '129', '146'] 619.6296296296288
158 12.392592592592592 ['149', '123', '150', '140', '133', '148', '136', '124', '139', '131', '120', '141', '121', '129', '146'] 619.6296296296288
159 12.392592592592592 ['149', '123', '150', '140', '133', '148', '136', '124', '139', '131', '120', '141', '121', '129', '146'] 619.6296296296288
160 12.392592592592592 ['149', '123', '150', '140', '133', '148', '136', '124', '139', '131', '120', '141', '121', '129', '146'] 619.6296296296288
161 12.392592592592592 ['149', '123', '150', '140', '133', '148', '136', '124', '139', '131', '120', '141', '121', '129', '146'] 619.6296296296288
162 12.392592592592592 ['149', '123', '150', '140', '133', '148', '136', '124', '139', '131', '120', '141', '121', '129', '146'] 619.6296296296288
163 12.392592592592592 ['149', '123', '150', '140', '133', '148', '136', '124', '139', '131', '120', '141', '121', '129', '146'] 619.6296296296288
164 12.392592592592592 ['149', '123', '150', '140', '133', '148', '136', '124', '139', '131', '120', '141', '121', '129', '146'] 619.6296296296288
165 12.392592592592592 ['149', '123', '150', '140', '133', '148', '136', '124', '139', '131', '120', '141', '121', '129', '146'] 619.6296296296288
166 12.392592592592592 ['149', '123', '150', '140', '133', '148', '136', '124', '139', '131', '120', '141', '121', '129', '146'] 619.6296296296288
167 12.392592592592592 ['149', '123', '150', '140', '133', '148', '136', '124', '139', '131', '120', '141', '121', '129', '146'] 619.6296296296288
168 12.392592592592592 ['149', '123', '150', '140', '133', '148', '136', '124', '139', '131', '120', '141', '121', '129', '146'] 619.6296296296288
169 12.392592592592592 ['149', '123', '150', '140', '133', '148', '136', '124', '139', '131', '120', '141', '121', '129', '146'] 619.6296296296288
170 12.392592592592592 ['149', '123', '150', '140', '133', '148', '136', '124', '139', '131', '120', '141', '121', '129', '146'] 619.6296296296288
171 12.392592592592592 ['149', '123', '150', '140', '133', '148', '136', '124', '139', '131', '120', '141', '121', '129', '146'] 619.6296296296288
172 12.392592592592592 ['149', '123', '150', '140', '133', '148', '136', '124', '139', '131', '120', '141', '121', '129', '146'] 619.6296296296288
173 12.392592592592592 ['149', '123', '150', '140', '133', '148', '136', '124', '139', '131', '120', '141', '121', '129', '146'] 619.6296296296288
174 12.392592592592592 ['149', '123', '150', '140', '133', '148', '136', '124', '139', '131', '120', '141', '121', '129', '146'] 619.6296296296288
175 12.392592592592592 ['149', '123', '150', '140', '133', '148', '136', '124', '139', '131', '120', '141', '121', '129', '146'] 619.6296296296288
176 12.392592592592592 ['149', '123', '150', '140', '133', '148', '136', '124', '139', '131', '120', '141', '121', '129', '146'] 619.6296296296288
177 12.392592592592592 ['149', '123', '150', '140', '133', '148', '136', '124', '139', '131', '120', '141', '121', '129', '146'] 619.6296296296288
178 12.392592592592592 ['149', '123', '150', '140', '133', '148', '136', '124', '139', '131', '120', '141', '121', '129', '146'] 619.6296296296288
179 12.392592592592592 ['149', '123', '150', '140', '133', '148', '136', '124', '139', '131', '120', '141', '121', '129', '146'] 619.6296296296288
180 12.392592592592592 ['149', '123', '150', '140', '133', '148', '136', '124', '139', '131', '120', '141', '121', '129', '146'] 619.6296296296288
181 12.392592592592592 ['149', '123', '150', '140', '133', '148', '136', '124', '139', '131', '120', '141', '121', '129', '146'] 619.6296296296288
182 12.392592592592592 ['149', '123', '150', '140', '133', '148', '136', '124', '139', '131', '120', '141', '121', '129', '146'] 619.6296296296288
183 12.392592592592592 ['149', '123', '150', '140', '133', '148', '136', '124', '139', '131', '120', '141', '121', '129', '146'] 619.6296296296288
184 12.392592592592592 ['149', '123', '150', '140', '133', '148', '136', '124', '139', '131', '120', '141', '121', '129', '146'] 619.6296296296288
185 12.392592592592592 ['149', '123', '150', '140', '133', '148', '136', '124', '139', '131', '120', '141', '121', '129', '146'] 619.6296296296288
186 12.392592592592592 ['149', '123', '150', '140', '133', '148', '136', '124', '139', '131', '120', '141', '121', '129', '146'] 619.6296296296288
187 12.392592592592592 ['149', '123', '150', '140', '133', '148', '136', '124', '139', '131', '120', '141', '121', '129', '146'] 619.6296296296288
188 12.392592592592592 ['149', '123', '150', '140', '133', '148', '136', '124', '139', '131', '120', '141', '121', '129', '146'] 619.6296296296288
189 12.392592592592592 ['149', '123', '150', '140', '133', '148', '136', '124', '139', '131', '120', '141', '121', '129', '146'] 619.6296296296288
190 12.392592592592592 ['149', '123', '150', '140', '133', '148', '136', '124', '139', '131', '120', '141', '121', '129', '146'] 619.6296296296288
191 12.392592592592592 ['149', '123', '150', '140', '133', '148', '136', '124', '139', '131', '120', '141', '121', '129', '146'] 619.6296296296288
192 12.392592592592592 ['149', '123', '150', '140', '133', '148', '136', '124', '139', '131', '120', '141', '121', '129', '146'] 619.6296296296288
193 12.392592592592592 ['149', '123', '150', '140', '133', '148', '136', '124', '139', '131', '120', '141', '121', '129', '146'] 619.6296296296288
194 12.392592592592592 ['149', '123', '150', '140', '133', '148', '136', '124', '139', '131', '120', '141', '121', '129', '146'] 619.6296296296288
195 12.392592592592592 ['149', '123', '150', '140', '133', '148', '136', '124', '139', '131', '120', '141', '121', '129', '146'] 619.6296296296288
196 12.392592592592592 ['149', '123', '150', '140', '133', '148', '136', '124', '139', '131', '120', '141', '121', '129', '146'] 619.6296296296288
197 12.392592592592592 ['149', '123', '150', '140', '133', '148', '136', '124', '139', '131', '120', '141', '121', '129', '146'] 619.6296296296288
198 12.392592592592592 ['149', '123', '150', '140', '133', '148', '136', '124', '139', '131', '120', '141', '121', '129', '146'] 619.6296296296288
199 12.392592592592592 ['149', '123', '150', '140', '133', '148', '136', '124', '139', '131', '120', '141', '121', '129', '146'] 619.6296296296288
