0 15.62962962962963 ['46', '29', '6', '47', '55', '12'] 850.1481481481485
1 15.62962962962963 ['46', '29', '6', '47', '55', '12'] 827.5555555555559
2 15.11111111111111 ['55', '12', '56', '29', '6', '10'] 811.5555555555555
3 14.592592592592593 ['29', '12', '8', '4', '55', '10'] 790.2962962962957
4 14.37037037037037 ['29', '42', '6', '27', '12', '55'] 767.7777777777778
5 14.296296296296296 ['12', '29', '27', '55', '6', '8'] 744.3703703703707
6 14.148148148148149 ['55', '8', '6', '29', '42', '4'] 730.4444444444446
7 14.148148148148149 ['55', '8', '6', '29', '42', '4'] 722.666666666667
8 14.074074074074074 ['8', '7', '42', '55', '29', '4'] 715.1851851851852
9 14.0 ['29', '4', '55', '8', '6', '7'] 710.8148148148151
10 14.0 ['29', '4', '55', '8', '6', '7'] 706.4444444444443
11 14.0 ['29', '4', '55', '8', '6', '7'] 704.3703703703704
12 14.0 ['29', '4', '55', '8', '6', '7'] 701.9259259259252
13 14.0 ['29', '4', '55', '8', '6', '7'] 700.074074074074
14 14.0 ['29', '4', '55', '8', '6', '7'] 700.0
15 14.0 ['29', '4', '55', '8', '6', '7'] 700.0
16 14.0 ['29', '4', '55', '8', '6', '7'] 700.0
17 14.0 ['29', '4', '55', '8', '6', '7'] 700.0
18 14.0 ['29', '4', '55', '8', '6', '7'] 700.0
19 14.0 ['29', '4', '55', '8', '6', '7'] 700.0
20 14.0 ['29', '4', '55', '8', '6', '7'] 700.0
21 14.0 ['29', '4', '55', '8', '6', '7'] 700.0
22 14.0 ['29', '4', '55', '8', '6', '7'] 700.0
23 14.0 ['29', '4', '55', '8', '6', '7'] 700.0
24 14.0 ['29', '4', '55', '8', '6', '7'] 700.0
25 14.0 ['29', '4', '55', '8', '6', '7'] 700.0
26 14.0 ['29', '4', '55', '8', '6', '7'] 700.0
27 14.0 ['29', '4', '55', '8', '6', '7'] 700.0
28 14.0 ['29', '4', '55', '8', '6', '7'] 700.0
29 14.0 ['29', '4', '55', '8', '6', '7'] 700.0
30 14.0 ['29', '4', '55', '8', '6', '7'] 700.0
31 14.0 ['29', '4', '55', '8', '6', '7'] 700.0
32 14.0 ['29', '4', '55', '8', '6', '7'] 700.0
33 14.0 ['29', '4', '55', '8', '6', '7'] 700.0
34 14.0 ['29', '4', '55', '8', '6', '7'] 700.0
35 14.0 ['29', '4', '55', '8', '6', '7'] 700.0
36 14.0 ['29', '4', '55', '8', '6', '7'] 700.0
37 14.0 ['29', '4', '55', '8', '6', '7'] 700.0
38 14.0 ['29', '4', '55', '8', '6', '7'] 700.0
39 14.0 ['29', '4', '55', '8', '6', '7'] 700.0
40 14.0 ['29', '4', '55', '8', '6', '7'] 700.0
41 14.0 ['29', '4', '55', '8', '6', '7'] 700.0
42 14.0 ['29', '4', '55', '8', '6', '7'] 700.0
43 14.0 ['29', '4', '55', '8', '6', '7'] 700.0
44 14.0 ['29', '4', '55', '8', '6', '7'] 700.0
45 14.0 ['29', '4', '55', '8', '6', '7'] 700.0
46 14.0 ['29', '4', '55', '8', '6', '7'] 700.0
47 14.0 ['29', '4', '55', '8', '6', '7'] 700.0
48 14.0 ['29', '4', '55', '8', '6', '7'] 700.0
49 14.0 ['29', '4', '55', '8', '6', '7'] 700.0
50 14.0 ['29', '4', '55', '8', '6', '7'] 700.0
51 14.0 ['29', '4', '55', '8', '6', '7'] 700.0
52 14.0 ['29', '4', '55', '8', '6', '7'] 700.0
53 14.0 ['29', '4', '55', '8', '6', '7'] 700.0
54 14.0 ['29', '4', '55', '8', '6', '7'] 700.0
55 14.0 ['29', '4', '55', '8', '6', '7'] 700.0
56 14.0 ['29', '4', '55', '8', '6', '7'] 700.0
57 14.0 ['29', '4', '55', '8', '6', '7'] 700.0
58 14.0 ['29', '4', '55', '8', '6', '7'] 700.0
59 14.0 ['29', '4', '55', '8', '6', '7'] 700.0
60 14.0 ['29', '4', '55', '8', '6', '7'] 700.0
61 14.0 ['29', '4', '55', '8', '6', '7'] 700.0
62 14.0 ['29', '4', '55', '8', '6', '7'] 700.0
63 14.0 ['29', '4', '55', '8', '6', '7'] 700.0
64 14.0 ['29', '4', '55', '8', '6', '7'] 700.0
65 14.0 ['29', '4', '55', '8', '6', '7'] 700.0
66 14.0 ['29', '4', '55', '8', '6', '7'] 700.0
67 14.0 ['29', '4', '55', '8', '6', '7'] 700.0
68 14.0 ['29', '4', '55', '8', '6', '7'] 700.0
69 14.0 ['29', '4', '55', '8', '6', '7'] 700.0
70 14.0 ['29', '4', '55', '8', '6', '7'] 700.0
71 14.0 ['29', '4', '55', '8', '6', '7'] 700.0
72 14.0 ['29', '4', '55', '8', '6', '7'] 700.0
73 14.0 ['29', '4', '55', '8', '6', '7'] 700.0
74 14.0 ['29', '4', '55', '8', '6', '7'] 700.0
75 14.0 ['29', '4', '55', '8', '6', '7'] 700.0
76 14.0 ['29', '4', '55', '8', '6', '7'] 700.0
77 14.0 ['29', '4', '55', '8', '6', '7'] 700.0
78 14.0 ['29', '4', '55', '8', '6', '7'] 700.0
79 14.0 ['29', '4', '55', '8', '6', '7'] 700.0
80 14.0 ['29', '4', '55', '8', '6', '7'] 700.0
81 14.0 ['29', '4', '55', '8', '6', '7'] 700.0
82 14.0 ['29', '4', '55', '8', '6', '7'] 700.0
83 14.0 ['29', '4', '55', '8', '6', '7'] 700.0
84 14.0 ['29', '4', '55', '8', '6', '7'] 700.0
85 14.0 ['29', '4', '55', '8', '6', '7'] 700.0
86 14.0 ['29', '4', '55', '8', '6', '7'] 700.0
87 14.0 ['29', '4', '55', '8', '6', '7'] 700.0
88 14.0 ['29', '4', '55', '8', '6', '7'] 700.0
89 14.0 ['29', '4', '55', '8', '6', '7'] 700.0
90 14.0 ['29', '4', '55', '8', '6', '7'] 700.0
91 14.0 ['29', '4', '55', '8', '6', '7'] 700.0
92 14.0 ['29', '4', '55', '8', '6', '7'] 700.0
93 14.0 ['29', '4', '55', '8', '6', '7'] 700.0
94 14.0 ['29', '4', '55', '8', '6', '7'] 700.0
95 14.0 ['29', '4', '55', '8', '6', '7'] 700.0
96 14.0 ['29', '4', '55', '8', '6', '7'] 700.0
97 14.0 ['29', '4', '55', '8', '6', '7'] 700.0
98 14.0 ['29', '4', '55', '8', '6', '7'] 700.0
99 14.0 ['29', '4', '55', '8', '6', '7'] 700.0
100 14.0 ['29', '4', '55', '8', '6', '7'] 700.0
101 14.0 ['29', '4', '55', '8', '6', '7'] 700.0
102 14.0 ['29', '4', '55', '8', '6', '7'] 700.0
103 14.0 ['29', '4', '55', '8', '6', '7'] 700.0
104 14.0 ['29', '4', '55', '8', '6', '7'] 700.0
105 14.0 ['29', '4', '55', '8', '6', '7'] 700.0
106 14.0 ['29', '4', '55', '8', '6', '7'] 700.0
107 14.0 ['29', '4', '55', '8', '6', '7'] 700.0
108 14.0 ['29', '4', '55', '8', '6', '7'] 700.0
109 14.0 ['29', '4', '55', '8', '6', '7'] 700.0
110 14.0 ['29', '4', '55', '8', '6', '7'] 700.0
111 14.0 ['29', '4', '55', '8', '6', '7'] 700.0
112 14.0 ['29', '4', '55', '8', '6', '7'] 700.0
113 14.0 ['29', '4', '55', '8', '6', '7'] 700.0
114 14.0 ['29', '4', '55', '8', '6', '7'] 700.0
115 14.0 ['29', '4', '55', '8', '6', '7'] 700.0
116 14.0 ['29', '4', '55', '8', '6', '7'] 700.0
117 14.0 ['29', '4', '55', '8', '6', '7'] 700.0
118 14.0 ['29', '4', '55', '8', '6', '7'] 700.0
119 14.0 ['29', '4', '55', '8', '6', '7'] 700.0
120 14.0 ['29', '4', '55', '8', '6', '7'] 700.0
121 14.0 ['29', '4', '55', '8', '6', '7'] 700.0
122 14.0 ['29', '4', '55', '8', '6', '7'] 700.0
123 14.0 ['29', '4', '55', '8', '6', '7'] 700.0
124 14.0 ['29', '4', '55', '8', '6', '7'] 700.0
125 14.0 ['29', '4', '55', '8', '6', '7'] 700.0
126 14.0 ['29', '4', '55', '8', '6', '7'] 700.0
127 14.0 ['29', '4', '55', '8', '6', '7'] 700.0
128 14.0 ['29', '4', '55', '8', '6', '7'] 700.0
129 14.0 ['29', '4', '55', '8', '6', '7'] 700.0
130 14.0 ['29', '4', '55', '8', '6', '7'] 700.0
131 14.0 ['29', '4', '55', '8', '6', '7'] 700.0
132 14.0 ['29', '4', '55', '8', '6', '7'] 700.0
133 14.0 ['29', '4', '55', '8', '6', '7'] 700.0
134 14.0 ['29', '4', '55', '8', '6', '7'] 700.0
135 14.0 ['29', '4', '55', '8', '6', '7'] 700.0
136 14.0 ['29', '4', '55', '8', '6', '7'] 700.0
137 14.0 ['29', '4', '55', '8', '6', '7'] 700.0
138 14.0 ['29', '4', '55', '8', '6', '7'] 700.0
139 14.0 ['29', '4', '55', '8', '6', '7'] 700.0
140 14.0 ['29', '4', '55', '8', '6', '7'] 700.0
141 14.0 ['29', '4', '55', '8', '6', '7'] 700.0
142 14.0 ['29', '4', '55', '8', '6', '7'] 700.0
143 14.0 ['29', '4', '55', '8', '6', '7'] 700.0
144 14.0 ['29', '4', '55', '8', '6', '7'] 700.0
145 14.0 ['29', '4', '55', '8', '6', '7'] 700.0
146 14.0 ['29', '4', '55', '8', '6', '7'] 700.0
147 14.0 ['29', '4', '55', '8', '6', '7'] 700.0
148 14.0 ['29', '4', '55', '8', '6', '7'] 700.0
149 14.0 ['29', '4', '55', '8', '6', '7'] 700.0
150 14.0 ['29', '4', '55', '8', '6', '7'] 700.0
151 14.0 ['29', '4', '55', '8', '6', '7'] 700.0
152 14.0 ['29', '4', '55', '8', '6', '7'] 700.0
153 14.0 ['29', '4', '55', '8', '6', '7'] 700.0
154 14.0 ['29', '4', '55', '8', '6', '7'] 700.0
155 14.0 ['29', '4', '55', '8', '6', '7'] 700.0
156 14.0 ['29', '4', '55', '8', '6', '7'] 700.0
157 14.0 ['29', '4', '55', '8', '6', '7'] 700.0
158 14.0 ['29', '4', '55', '8', '6', '7'] 700.0
159 14.0 ['29', '4', '55', '8', '6', '7'] 700.0
160 14.0 ['29', '4', '55', '8', '6', '7'] 700.0
161 14.0 ['29', '4', '55', '8', '6', '7'] 700.0
162 14.0 ['29', '4', '55', '8', '6', '7'] 700.0
163 14.0 ['29', '4', '55', '8', '6', '7'] 700.0
164 14.0 ['29', '4', '55', '8', '6', '7'] 700.0
165 14.0 ['29', '4', '55', '8', '6', '7'] 700.0
166 14.0 ['29', '4', '55', '8', '6', '7'] 700.0
167 14.0 ['29', '4', '55', '8', '6', '7'] 700.0
168 14.0 ['29', '4', '55', '8', '6', '7'] 700.0
169 14.0 ['29', '4', '55', '8', '6', '7'] 700.0
170 14.0 ['29', '4', '55', '8', '6', '7'] 700.0
171 14.0 ['29', '4', '55', '8', '6', '7'] 700.0
172 14.0 ['29', '4', '55', '8', '6', '7'] 700.0
173 14.0 ['29', '4', '55', '8', '6', '7'] 700.0
174 14.0 ['29', '4', '55', '8', '6', '7'] 700.0
175 14.0 ['29', '4', '55', '8', '6', '7'] 700.0
176 14.0 ['29', '4', '55', '8', '6', '7'] 700.0
177 14.0 ['29', '4', '55', '8', '6', '7'] 700.0
178 14.0 ['29', '4', '55', '8', '6', '7'] 700.0
179 14.0 ['29', '4', '55', '8', '6', '7'] 700.0
180 14.0 ['29', '4', '55', '8', '6', '7'] 700.0
181 14.0 ['29', '4', '55', '8', '6', '7'] 700.0
182 14.0 ['29', '4', '55', '8', '6', '7'] 700.0
183 14.0 ['29', '4', '55', '8', '6', '7'] 700.0
184 14.0 ['29', '4', '55', '8', '6', '7'] 700.0
185 14.0 ['29', '4', '55', '8', '6', '7'] 700.0
186 14.0 ['29', '4', '55', '8', '6', '7'] 700.0
187 14.0 ['29', '4', '55', '8', '6', '7'] 700.0
188 14.0 ['29', '4', '55', '8', '6', '7'] 700.0
189 14.0 ['29', '4', '55', '8', '6', '7'] 700.0
190 14.0 ['29', '4', '55', '8', '6', '7'] 700.0
191 14.0 ['29', '4', '55', '8', '6', '7'] 700.0
192 14.0 ['29', '4', '55', '8', '6', '7'] 700.0
193 14.0 ['29', '4', '55', '8', '6', '7'] 700.0
194 14.0 ['29', '4', '55', '8', '6', '7'] 700.0
195 14.0 ['29', '4', '55', '8', '6', '7'] 700.0
196 14.0 ['29', '4', '55', '8', '6', '7'] 700.0
197 14.0 ['29', '4', '55', '8', '6', '7'] 700.0
198 14.0 ['29', '4', '55', '8', '6', '7'] 700.0
199 14.0 ['29', '4', '55', '8', '6', '7'] 700.0
