0 504.97435897435895 ['39', '11', '22', '36'] 27312.256410256414
1 488.79487179487177 ['36', '40', '33', '22'] 26592.48717948718
2 488.79487179487177 ['36', '40', '33', '22'] 26108.256410256407
3 487.46153846153845 ['36', '11', '33', '28'] 25437.05128205128
4 481.79487179487177 ['22', '33', '36', '11'] 24927.794871794864
5 481.79487179487177 ['22', '33', '36', '11'] 24549.871794871797
6 480.5128205128205 ['36', '11', '33', '40'] 24315.897435897426
7 480.5128205128205 ['36', '11', '33', '40'] 24192.12820512821
8 480.5128205128205 ['36', '11', '33', '40'] 24076.923076923056
9 480.5128205128205 ['36', '11', '33', '40'] 24061.538461538443
10 480.5128205128205 ['36', '11', '33', '40'] 24033.333333333325
11 480.5128205128205 ['36', '11', '33', '40'] 24025.64102564102
12 480.5128205128205 ['36', '11', '33', '40'] 24025.64102564102
13 480.5128205128205 ['36', '11', '33', '40'] 24025.64102564102
14 480.5128205128205 ['36', '11', '33', '40'] 24025.64102564102
15 480.5128205128205 ['36', '11', '33', '40'] 24025.64102564102
16 480.5128205128205 ['36', '11', '33', '40'] 24025.64102564102
17 480.5128205128205 ['36', '11', '33', '40'] 24025.64102564102
18 480.5128205128205 ['36', '11', '33', '40'] 24025.64102564102
19 480.5128205128205 ['36', '11', '33', '40'] 24025.64102564102
20 480.5128205128205 ['36', '11', '33', '40'] 24025.64102564102
21 480.5128205128205 ['36', '11', '33', '40'] 24025.64102564102
22 480.5128205128205 ['36', '11', '33', '40'] 24025.64102564102
23 480.5128205128205 ['36', '11', '33', '40'] 24025.64102564102
24 480.5128205128205 ['36', '11', '33', '40'] 24025.64102564102
25 480.5128205128205 ['36', '11', '33', '40'] 24025.64102564102
26 480.5128205128205 ['36', '11', '33', '40'] 24025.64102564102
27 480.5128205128205 ['36', '11', '33', '40'] 24025.64102564102
28 480.5128205128205 ['36', '11', '33', '40'] 24025.64102564102
29 480.5128205128205 ['36', '11', '33', '40'] 24025.64102564102
30 480.5128205128205 ['36', '11', '33', '40'] 24025.64102564102
31 480.5128205128205 ['36', '11', '33', '40'] 24025.64102564102
32 480.5128205128205 ['36', '11', '33', '40'] 24025.64102564102
33 480.5128205128205 ['36', '11', '33', '40'] 24025.64102564102
34 480.5128205128205 ['36', '11', '33', '40'] 24025.64102564102
35 480.5128205128205 ['36', '11', '33', '40'] 24025.64102564102
36 480.5128205128205 ['36', '11', '33', '40'] 24025.64102564102
37 480.5128205128205 ['36', '11', '33', '40'] 24025.64102564102
38 480.5128205128205 ['36', '11', '33', '40'] 24025.64102564102
39 480.5128205128205 ['36', '11', '33', '40'] 24025.64102564102
40 480.5128205128205 ['36', '11', '33', '40'] 24025.64102564102
41 480.5128205128205 ['36', '11', '33', '40'] 24025.64102564102
42 480.5128205128205 ['36', '11', '33', '40'] 24025.64102564102
43 480.5128205128205 ['36', '11', '33', '40'] 24025.64102564102
44 480.5128205128205 ['36', '11', '33', '40'] 24025.64102564102
45 480.5128205128205 ['36', '11', '33', '40'] 24025.64102564102
46 480.5128205128205 ['36', '11', '33', '40'] 24025.64102564102
47 480.5128205128205 ['36', '11', '33', '40'] 24025.64102564102
48 480.5128205128205 ['36', '11', '33', '40'] 24025.64102564102
49 480.5128205128205 ['36', '11', '33', '40'] 24025.64102564102
50 480.5128205128205 ['36', '11', '33', '40'] 24025.64102564102
51 480.5128205128205 ['36', '11', '33', '40'] 24025.64102564102
52 480.5128205128205 ['36', '11', '33', '40'] 24025.64102564102
53 480.5128205128205 ['36', '11', '33', '40'] 24025.64102564102
54 480.5128205128205 ['36', '11', '33', '40'] 24025.64102564102
55 480.5128205128205 ['36', '11', '33', '40'] 24025.64102564102
56 480.5128205128205 ['36', '11', '33', '40'] 24025.64102564102
57 480.5128205128205 ['36', '11', '33', '40'] 24025.64102564102
58 480.5128205128205 ['36', '11', '33', '40'] 24025.64102564102
59 480.5128205128205 ['36', '11', '33', '40'] 24025.64102564102
60 480.5128205128205 ['36', '11', '33', '40'] 24025.64102564102
61 480.5128205128205 ['36', '11', '33', '40'] 24025.64102564102
62 480.5128205128205 ['36', '11', '33', '40'] 24025.64102564102
63 480.5128205128205 ['36', '11', '33', '40'] 24025.64102564102
64 480.5128205128205 ['36', '11', '33', '40'] 24025.64102564102
65 480.5128205128205 ['36', '11', '33', '40'] 24025.64102564102
66 480.5128205128205 ['36', '11', '33', '40'] 24025.64102564102
67 480.5128205128205 ['36', '11', '33', '40'] 24025.64102564102
68 480.5128205128205 ['36', '11', '33', '40'] 24025.64102564102
69 480.5128205128205 ['36', '11', '33', '40'] 24025.64102564102
70 480.5128205128205 ['36', '11', '33', '40'] 24025.64102564102
71 480.5128205128205 ['36', '11', '33', '40'] 24025.64102564102
72 480.5128205128205 ['36', '11', '33', '40'] 24025.64102564102
73 480.5128205128205 ['36', '11', '33', '40'] 24025.64102564102
74 480.5128205128205 ['36', '11', '33', '40'] 24025.64102564102
75 480.5128205128205 ['36', '11', '33', '40'] 24025.64102564102
76 480.5128205128205 ['36', '11', '33', '40'] 24025.64102564102
77 480.5128205128205 ['36', '11', '33', '40'] 24025.64102564102
78 480.5128205128205 ['36', '11', '33', '40'] 24025.64102564102
79 480.5128205128205 ['36', '11', '33', '40'] 24025.64102564102
80 480.5128205128205 ['36', '11', '33', '40'] 24025.64102564102
81 480.5128205128205 ['36', '11', '33', '40'] 24025.64102564102
82 480.5128205128205 ['36', '11', '33', '40'] 24025.64102564102
83 480.5128205128205 ['36', '11', '33', '40'] 24025.64102564102
84 480.5128205128205 ['36', '11', '33', '40'] 24025.64102564102
85 480.5128205128205 ['36', '11', '33', '40'] 24025.64102564102
86 480.5128205128205 ['36', '11', '33', '40'] 24025.64102564102
87 480.5128205128205 ['36', '11', '33', '40'] 24025.64102564102
88 480.5128205128205 ['36', '11', '33', '40'] 24025.64102564102
89 480.5128205128205 ['36', '11', '33', '40'] 24025.64102564102
90 480.5128205128205 ['36', '11', '33', '40'] 24025.64102564102
91 480.5128205128205 ['36', '11', '33', '40'] 24025.64102564102
92 480.5128205128205 ['36', '11', '33', '40'] 24025.64102564102
93 480.5128205128205 ['36', '11', '33', '40'] 24025.64102564102
94 480.5128205128205 ['36', '11', '33', '40'] 24025.64102564102
95 480.5128205128205 ['36', '11', '33', '40'] 24025.64102564102
96 480.5128205128205 ['36', '11', '33', '40'] 24025.64102564102
97 480.5128205128205 ['36', '11', '33', '40'] 24025.64102564102
98 480.5128205128205 ['36', '11', '33', '40'] 24025.64102564102
99 480.5128205128205 ['36', '11', '33', '40'] 24025.64102564102
100 480.5128205128205 ['36', '11', '33', '40'] 24025.64102564102
101 480.5128205128205 ['36', '11', '33', '40'] 24025.64102564102
102 480.5128205128205 ['36', '11', '33', '40'] 24025.64102564102
103 480.5128205128205 ['36', '11', '33', '40'] 24025.64102564102
104 480.5128205128205 ['36', '11', '33', '40'] 24025.64102564102
105 480.5128205128205 ['36', '11', '33', '40'] 24025.64102564102
106 480.5128205128205 ['36', '11', '33', '40'] 24025.64102564102
107 480.5128205128205 ['36', '11', '33', '40'] 24025.64102564102
108 480.5128205128205 ['36', '11', '33', '40'] 24025.64102564102
109 480.5128205128205 ['36', '11', '33', '40'] 24025.64102564102
110 480.5128205128205 ['36', '11', '33', '40'] 24025.64102564102
111 480.5128205128205 ['36', '11', '33', '40'] 24025.64102564102
112 480.5128205128205 ['36', '11', '33', '40'] 24025.64102564102
113 480.5128205128205 ['36', '11', '33', '40'] 24025.64102564102
114 480.5128205128205 ['36', '11', '33', '40'] 24025.64102564102
115 480.5128205128205 ['36', '11', '33', '40'] 24025.64102564102
116 480.5128205128205 ['36', '11', '33', '40'] 24025.64102564102
117 480.5128205128205 ['36', '11', '33', '40'] 24025.64102564102
118 480.5128205128205 ['36', '11', '33', '40'] 24025.64102564102
119 480.5128205128205 ['36', '11', '33', '40'] 24025.64102564102
120 480.5128205128205 ['36', '11', '33', '40'] 24025.64102564102
121 480.5128205128205 ['36', '11', '33', '40'] 24025.64102564102
122 480.5128205128205 ['36', '11', '33', '40'] 24025.64102564102
123 480.5128205128205 ['36', '11', '33', '40'] 24025.64102564102
124 480.5128205128205 ['36', '11', '33', '40'] 24025.64102564102
125 480.5128205128205 ['36', '11', '33', '40'] 24025.64102564102
126 480.5128205128205 ['36', '11', '33', '40'] 24025.64102564102
127 480.5128205128205 ['36', '11', '33', '40'] 24025.64102564102
128 480.5128205128205 ['36', '11', '33', '40'] 24025.64102564102
129 480.5128205128205 ['36', '11', '33', '40'] 24025.64102564102
130 480.5128205128205 ['36', '11', '33', '40'] 24025.64102564102
131 480.5128205128205 ['36', '11', '33', '40'] 24025.64102564102
132 480.5128205128205 ['36', '11', '33', '40'] 24025.64102564102
133 480.5128205128205 ['36', '11', '33', '40'] 24025.64102564102
134 480.5128205128205 ['36', '11', '33', '40'] 24025.64102564102
135 480.5128205128205 ['36', '11', '33', '40'] 24025.64102564102
136 480.5128205128205 ['36', '11', '33', '40'] 24025.64102564102
137 480.5128205128205 ['36', '11', '33', '40'] 24025.64102564102
138 480.5128205128205 ['36', '11', '33', '40'] 24025.64102564102
139 480.5128205128205 ['36', '11', '33', '40'] 24025.64102564102
140 480.5128205128205 ['36', '11', '33', '40'] 24025.64102564102
141 480.5128205128205 ['36', '11', '33', '40'] 24025.64102564102
142 480.5128205128205 ['36', '11', '33', '40'] 24025.64102564102
143 480.5128205128205 ['36', '11', '33', '40'] 24025.64102564102
144 480.5128205128205 ['36', '11', '33', '40'] 24025.64102564102
145 480.5128205128205 ['36', '11', '33', '40'] 24025.64102564102
146 480.5128205128205 ['36', '11', '33', '40'] 24025.64102564102
147 480.5128205128205 ['36', '11', '33', '40'] 24025.64102564102
148 480.5128205128205 ['36', '11', '33', '40'] 24025.64102564102
149 480.5128205128205 ['36', '11', '33', '40'] 24025.64102564102
150 480.5128205128205 ['36', '11', '33', '40'] 24025.64102564102
151 480.5128205128205 ['36', '11', '33', '40'] 24025.64102564102
152 480.5128205128205 ['36', '11', '33', '40'] 24025.64102564102
153 480.5128205128205 ['36', '11', '33', '40'] 24025.64102564102
154 480.5128205128205 ['36', '11', '33', '40'] 24025.64102564102
155 480.5128205128205 ['36', '11', '33', '40'] 24025.64102564102
156 480.5128205128205 ['36', '11', '33', '40'] 24025.64102564102
157 480.5128205128205 ['36', '11', '33', '40'] 24025.64102564102
158 480.5128205128205 ['36', '11', '33', '40'] 24025.64102564102
159 480.5128205128205 ['36', '11', '33', '40'] 24025.64102564102
160 480.5128205128205 ['36', '11', '33', '40'] 24025.64102564102
161 480.5128205128205 ['36', '11', '33', '40'] 24025.64102564102
162 480.5128205128205 ['36', '11', '33', '40'] 24025.64102564102
163 480.5128205128205 ['36', '11', '33', '40'] 24025.64102564102
164 480.5128205128205 ['36', '11', '33', '40'] 24025.64102564102
165 480.5128205128205 ['36', '11', '33', '40'] 24025.64102564102
166 480.5128205128205 ['36', '11', '33', '40'] 24025.64102564102
167 480.5128205128205 ['36', '11', '33', '40'] 24025.64102564102
168 480.5128205128205 ['36', '11', '33', '40'] 24025.64102564102
169 480.5128205128205 ['36', '11', '33', '40'] 24025.64102564102
170 480.5128205128205 ['36', '11', '33', '40'] 24025.64102564102
171 480.5128205128205 ['36', '11', '33', '40'] 24025.64102564102
172 480.5128205128205 ['36', '11', '33', '40'] 24025.64102564102
173 480.5128205128205 ['36', '11', '33', '40'] 24025.64102564102
174 480.5128205128205 ['36', '11', '33', '40'] 24025.64102564102
175 480.5128205128205 ['36', '11', '33', '40'] 24025.64102564102
176 480.5128205128205 ['36', '11', '33', '40'] 24025.64102564102
177 480.5128205128205 ['36', '11', '33', '40'] 24025.64102564102
178 480.5128205128205 ['36', '11', '33', '40'] 24025.64102564102
179 480.5128205128205 ['36', '11', '33', '40'] 24025.64102564102
180 480.5128205128205 ['36', '11', '33', '40'] 24025.64102564102
181 480.5128205128205 ['36', '11', '33', '40'] 24025.64102564102
182 480.5128205128205 ['36', '11', '33', '40'] 24025.64102564102
183 480.5128205128205 ['36', '11', '33', '40'] 24025.64102564102
184 480.5128205128205 ['36', '11', '33', '40'] 24025.64102564102
185 480.5128205128205 ['36', '11', '33', '40'] 24025.64102564102
186 480.5128205128205 ['36', '11', '33', '40'] 24025.64102564102
187 480.5128205128205 ['36', '11', '33', '40'] 24025.64102564102
188 480.5128205128205 ['36', '11', '33', '40'] 24025.64102564102
189 480.5128205128205 ['36', '11', '33', '40'] 24025.64102564102
190 480.5128205128205 ['36', '11', '33', '40'] 24025.64102564102
191 480.5128205128205 ['36', '11', '33', '40'] 24025.64102564102
192 480.5128205128205 ['36', '11', '33', '40'] 24025.64102564102
193 480.5128205128205 ['36', '11', '33', '40'] 24025.64102564102
194 480.5128205128205 ['36', '11', '33', '40'] 24025.64102564102
195 480.5128205128205 ['36', '11', '33', '40'] 24025.64102564102
196 480.5128205128205 ['36', '11', '33', '40'] 24025.64102564102
197 480.5128205128205 ['36', '11', '33', '40'] 24025.64102564102
198 480.5128205128205 ['36', '11', '33', '40'] 24025.64102564102
199 480.5128205128205 ['36', '11', '33', '40'] 24025.64102564102
