0 6.875 ['4', '29', '33'] 375.75
1 6.5 ['29', '23', '33'] 361.875
2 6.375 ['33', '3', '23'] 350.375
3 6.375 ['33', '3', '23'] 339.25
4 6.375 ['33', '3', '23'] 329.0
5 6.375 ['33', '3', '23'] 323.75
6 6.375 ['33', '3', '23'] 320.75
7 6.375 ['33', '3', '23'] 318.75
8 6.375 ['33', '3', '23'] 318.75
9 6.375 ['33', '3', '23'] 318.75
10 6.375 ['33', '3', '23'] 318.75
11 6.375 ['33', '3', '23'] 318.75
12 6.375 ['33', '3', '23'] 318.75
13 6.375 ['33', '3', '23'] 318.75
14 6.375 ['33', '3', '23'] 318.75
15 6.375 ['33', '3', '23'] 318.75
16 6.375 ['33', '3', '23'] 318.75
17 6.375 ['33', '3', '23'] 318.75
18 6.375 ['33', '3', '23'] 318.75
19 6.375 ['33', '3', '23'] 318.75
20 6.375 ['33', '3', '23'] 318.75
21 6.375 ['33', '3', '23'] 318.75
22 6.375 ['33', '3', '23'] 318.75
23 6.375 ['33', '3', '23'] 318.75
24 6.375 ['33', '3', '23'] 318.75
25 6.375 ['33', '3', '23'] 318.75
26 6.375 ['33', '3', '23'] 318.75
27 6.375 ['33', '3', '23'] 318.75
28 6.375 ['33', '3', '23'] 318.75
29 6.375 ['33', '3', '23'] 318.75
30 6.375 ['33', '3', '23'] 318.75
31 6.375 ['33', '3', '23'] 318.75
32 6.375 ['33', '3', '23'] 318.75
33 6.375 ['33', '3', '23'] 318.75
34 6.375 ['33', '3', '23'] 318.75
35 6.375 ['33', '3', '23'] 318.75
36 6.375 ['33', '3', '23'] 318.75
37 6.375 ['33', '3', '23'] 318.75
38 6.375 ['33', '3', '23'] 318.75
39 6.375 ['33', '3', '23'] 318.75
40 6.375 ['33', '3', '23'] 318.75
41 6.375 ['33', '3', '23'] 318.75
42 6.375 ['33', '3', '23'] 318.75
43 6.375 ['33', '3', '23'] 318.75
44 6.375 ['33', '3', '23'] 318.75
45 6.375 ['33', '3', '23'] 318.75
46 6.375 ['33', '3', '23'] 318.75
47 6.375 ['33', '3', '23'] 318.75
48 6.375 ['33', '3', '23'] 318.75
49 6.375 ['33', '3', '23'] 318.75
50 6.375 ['33', '3', '23'] 318.75
51 6.375 ['33', '3', '23'] 318.75
52 6.375 ['33', '3', '23'] 318.75
53 6.375 ['33', '3', '23'] 318.75
54 6.375 ['33', '3', '23'] 318.75
55 6.375 ['33', '3', '23'] 318.75
56 6.375 ['33', '3', '23'] 318.75
57 6.375 ['33', '3', '23'] 318.75
58 6.375 ['33', '3', '23'] 318.75
59 6.375 ['33', '3', '23'] 318.75
60 6.375 ['33', '3', '23'] 318.75
61 6.375 ['33', '3', '23'] 318.75
62 6.375 ['33', '3', '23'] 318.75
63 6.375 ['33', '3', '23'] 318.75
64 6.375 ['33', '3', '23'] 318.75
65 6.375 ['33', '3', '23'] 318.75
66 6.375 ['33', '3', '23'] 318.75
67 6.375 ['33', '3', '23'] 318.75
68 6.375 ['33', '3', '23'] 318.75
69 6.375 ['33', '3', '23'] 318.75
70 6.375 ['33', '3', '23'] 318.75
71 6.375 ['33', '3', '23'] 318.75
72 6.375 ['33', '3', '23'] 318.75
73 6.375 ['33', '3', '23'] 318.75
74 6.375 ['33', '3', '23'] 318.75
75 6.375 ['33', '3', '23'] 318.75
76 6.375 ['33', '3', '23'] 318.75
77 6.375 ['33', '3', '23'] 318.75
78 6.375 ['33', '3', '23'] 318.75
79 6.375 ['33', '3', '23'] 318.75
80 6.375 ['33', '3', '23'] 318.75
81 6.375 ['33', '3', '23'] 318.75
82 6.375 ['33', '3', '23'] 318.75
83 6.375 ['33', '3', '23'] 318.75
84 6.375 ['33', '3', '23'] 318.75
85 6.375 ['33', '3', '23'] 318.75
86 6.375 ['33', '3', '23'] 318.75
87 6.375 ['33', '3', '23'] 318.75
88 6.375 ['33', '3', '23'] 318.75
89 6.375 ['33', '3', '23'] 318.75
90 6.375 ['33', '3', '23'] 318.75
91 6.375 ['33', '3', '23'] 318.75
92 6.375 ['33', '3', '23'] 318.75
93 6.375 ['33', '3', '23'] 318.75
94 6.375 ['33', '3', '23'] 318.75
95 6.375 ['33', '3', '23'] 318.75
96 6.375 ['33', '3', '23'] 318.75
97 6.375 ['33', '3', '23'] 318.75
98 6.375 ['33', '3', '23'] 318.75
99 6.375 ['33', '3', '23'] 318.75
100 6.375 ['33', '3', '23'] 318.75
101 6.375 ['33', '3', '23'] 318.75
102 6.375 ['33', '3', '23'] 318.75
103 6.375 ['33', '3', '23'] 318.75
104 6.375 ['33', '3', '23'] 318.75
105 6.375 ['33', '3', '23'] 318.75
106 6.375 ['33', '3', '23'] 318.75
107 6.375 ['33', '3', '23'] 318.75
108 6.375 ['33', '3', '23'] 318.75
109 6.375 ['33', '3', '23'] 318.75
110 6.375 ['33', '3', '23'] 318.75
111 6.375 ['33', '3', '23'] 318.75
112 6.375 ['33', '3', '23'] 318.75
113 6.375 ['33', '3', '23'] 318.75
114 6.375 ['33', '3', '23'] 318.75
115 6.375 ['33', '3', '23'] 318.75
116 6.375 ['33', '3', '23'] 318.75
117 6.375 ['33', '3', '23'] 318.75
118 6.375 ['33', '3', '23'] 318.75
119 6.375 ['33', '3', '23'] 318.75
120 6.375 ['33', '3', '23'] 318.75
121 6.375 ['33', '3', '23'] 318.75
122 6.375 ['33', '3', '23'] 318.75
123 6.375 ['33', '3', '23'] 318.75
124 6.375 ['33', '3', '23'] 318.75
125 6.375 ['33', '3', '23'] 318.75
126 6.375 ['33', '3', '23'] 318.75
127 6.375 ['33', '3', '23'] 318.75
128 6.375 ['33', '3', '23'] 318.75
129 6.375 ['33', '3', '23'] 318.75
130 6.375 ['33', '3', '23'] 318.75
131 6.375 ['33', '3', '23'] 318.75
132 6.375 ['33', '3', '23'] 318.75
133 6.375 ['33', '3', '23'] 318.75
134 6.375 ['33', '3', '23'] 318.75
135 6.375 ['33', '3', '23'] 318.75
136 6.375 ['33', '3', '23'] 318.75
137 6.375 ['33', '3', '23'] 318.75
138 6.375 ['33', '3', '23'] 318.75
139 6.375 ['33', '3', '23'] 318.75
140 6.375 ['33', '3', '23'] 318.75
141 6.375 ['33', '3', '23'] 318.75
142 6.375 ['33', '3', '23'] 318.75
143 6.375 ['33', '3', '23'] 318.75
144 6.375 ['33', '3', '23'] 318.75
145 6.375 ['33', '3', '23'] 318.75
146 6.375 ['33', '3', '23'] 318.75
147 6.375 ['33', '3', '23'] 318.75
148 6.375 ['33', '3', '23'] 318.75
149 6.375 ['33', '3', '23'] 318.75
150 6.375 ['33', '3', '23'] 318.75
151 6.375 ['33', '3', '23'] 318.75
152 6.375 ['33', '3', '23'] 318.75
153 6.375 ['33', '3', '23'] 318.75
154 6.375 ['33', '3', '23'] 318.75
155 6.375 ['33', '3', '23'] 318.75
156 6.375 ['33', '3', '23'] 318.75
157 6.375 ['33', '3', '23'] 318.75
158 6.375 ['33', '3', '23'] 318.75
159 6.375 ['33', '3', '23'] 318.75
160 6.375 ['33', '3', '23'] 318.75
161 6.375 ['33', '3', '23'] 318.75
162 6.375 ['33', '3', '23'] 318.75
163 6.375 ['33', '3', '23'] 318.75
164 6.375 ['33', '3', '23'] 318.75
165 6.375 ['33', '3', '23'] 318.75
166 6.375 ['33', '3', '23'] 318.75
167 6.375 ['33', '3', '23'] 318.75
168 6.375 ['33', '3', '23'] 318.75
169 6.375 ['33', '3', '23'] 318.75
170 6.375 ['33', '3', '23'] 318.75
171 6.375 ['33', '3', '23'] 318.75
172 6.375 ['33', '3', '23'] 318.75
173 6.375 ['33', '3', '23'] 318.75
174 6.375 ['33', '3', '23'] 318.75
175 6.375 ['33', '3', '23'] 318.75
176 6.375 ['33', '3', '23'] 318.75
177 6.375 ['33', '3', '23'] 318.75
178 6.375 ['33', '3', '23'] 318.75
179 6.375 ['33', '3', '23'] 318.75
180 6.375 ['33', '3', '23'] 318.75
181 6.375 ['33', '3', '23'] 318.75
182 6.375 ['33', '3', '23'] 318.75
183 6.375 ['33', '3', '23'] 318.75
184 6.375 ['33', '3', '23'] 318.75
185 6.375 ['33', '3', '23'] 318.75
186 6.375 ['33', '3', '23'] 318.75
187 6.375 ['33', '3', '23'] 318.75
188 6.375 ['33', '3', '23'] 318.75
189 6.375 ['33', '3', '23'] 318.75
190 6.375 ['33', '3', '23'] 318.75
191 6.375 ['33', '3', '23'] 318.75
192 6.375 ['33', '3', '23'] 318.75
193 6.375 ['33', '3', '23'] 318.75
194 6.375 ['33', '3', '23'] 318.75
195 6.375 ['33', '3', '23'] 318.75
196 6.375 ['33', '3', '23'] 318.75
197 6.375 ['33', '3', '23'] 318.75
198 6.375 ['33', '3', '23'] 318.75
199 6.375 ['33', '3', '23'] 318.75
