0 28.09259259259259 ['31', '36', '10', '38', '55', '7'] 1483.888888888889
1 28.09259259259259 ['31', '36', '10', '38', '55', '7'] 1461.1111111111109
2 27.425925925925927 ['52', '53', '31', '7', '41', '38'] 1442.4259259259256
3 27.425925925925927 ['52', '53', '31', '7', '41', '38'] 1423.7592592592591
4 26.944444444444443 ['55', '6', '33', '53', '7', '31'] 1403.8888888888887
5 26.944444444444443 ['55', '6', '33', '53', '7', '31'] 1387.4259259259256
6 26.555555555555557 ['53', '41', '56', '4', '55', '7'] 1372.0740740740744
7 26.555555555555557 ['53', '41', '56', '4', '55', '7'] 1358.0925925925926
8 26.555555555555557 ['53', '41', '56', '4', '55', '7'] 1344.7592592592591
9 26.333333333333332 ['55', '7', '53', '31', '8', '38'] 1335.5925925925926
10 26.24074074074074 ['55', '53', '8', '6', '7', '41'] 1329.0185185185194
11 26.12962962962963 ['7', '41', '53', '55', '4', '8'] 1320.5555555555563
12 26.12962962962963 ['7', '41', '53', '55', '4', '8'] 1313.981481481482
13 26.12962962962963 ['7', '41', '53', '55', '4', '8'] 1310.8333333333328
14 26.074074074074073 ['55', '7', '8', '53', '4', '12'] 1307.3888888888887
15 26.074074074074073 ['55', '7', '8', '53', '4', '12'] 1306.425925925926
16 26.074074074074073 ['55', '7', '8', '53', '4', '12'] 1306.425925925926
17 26.074074074074073 ['55', '7', '8', '53', '4', '12'] 1306.425925925926
18 26.074074074074073 ['55', '7', '8', '53', '4', '12'] 1306.3703703703704
19 26.074074074074073 ['55', '7', '8', '53', '4', '12'] 1306.2592592592594
20 26.074074074074073 ['55', '7', '8', '53', '4', '12'] 1306.0370370370372
21 26.074074074074073 ['55', '7', '8', '53', '4', '12'] 1305.4814814814818
22 26.074074074074073 ['55', '7', '8', '53', '4', '12'] 1304.314814814813
23 26.074074074074073 ['55', '7', '8', '53', '4', '12'] 1303.7037037037032
24 26.074074074074073 ['55', '7', '8', '53', '4', '12'] 1303.7037037037032
25 26.074074074074073 ['55', '7', '8', '53', '4', '12'] 1303.7037037037032
26 26.074074074074073 ['55', '7', '8', '53', '4', '12'] 1303.7037037037032
27 26.074074074074073 ['55', '7', '8', '53', '4', '12'] 1303.7037037037032
28 26.074074074074073 ['55', '7', '8', '53', '4', '12'] 1303.7037037037032
29 26.074074074074073 ['55', '7', '8', '53', '4', '12'] 1303.7037037037032
30 26.074074074074073 ['55', '7', '8', '53', '4', '12'] 1303.7037037037032
31 26.074074074074073 ['55', '7', '8', '53', '4', '12'] 1303.7037037037032
32 26.074074074074073 ['55', '7', '8', '53', '4', '12'] 1303.7037037037032
33 26.074074074074073 ['55', '7', '8', '53', '4', '12'] 1303.7037037037032
34 26.074074074074073 ['55', '7', '8', '53', '4', '12'] 1303.7037037037032
35 26.074074074074073 ['55', '7', '8', '53', '4', '12'] 1303.7037037037032
36 26.074074074074073 ['55', '7', '8', '53', '4', '12'] 1303.7037037037032
37 26.074074074074073 ['55', '7', '8', '53', '4', '12'] 1303.7037037037032
38 26.074074074074073 ['55', '7', '8', '53', '4', '12'] 1303.7037037037032
39 26.074074074074073 ['55', '7', '8', '53', '4', '12'] 1303.7037037037032
40 26.074074074074073 ['55', '7', '8', '53', '4', '12'] 1303.7037037037032
41 26.074074074074073 ['55', '7', '8', '53', '4', '12'] 1303.7037037037032
42 26.074074074074073 ['55', '7', '8', '53', '4', '12'] 1303.7037037037032
43 26.074074074074073 ['55', '7', '8', '53', '4', '12'] 1303.7037037037032
44 26.074074074074073 ['55', '7', '8', '53', '4', '12'] 1303.7037037037032
45 26.074074074074073 ['55', '7', '8', '53', '4', '12'] 1303.7037037037032
46 26.074074074074073 ['55', '7', '8', '53', '4', '12'] 1303.7037037037032
47 26.074074074074073 ['55', '7', '8', '53', '4', '12'] 1303.7037037037032
48 26.074074074074073 ['55', '7', '8', '53', '4', '12'] 1303.7037037037032
49 26.074074074074073 ['55', '7', '8', '53', '4', '12'] 1303.7037037037032
50 26.074074074074073 ['55', '7', '8', '53', '4', '12'] 1303.7037037037032
51 26.074074074074073 ['55', '7', '8', '53', '4', '12'] 1303.7037037037032
52 26.074074074074073 ['55', '7', '8', '53', '4', '12'] 1303.7037037037032
53 26.074074074074073 ['55', '7', '8', '53', '4', '12'] 1303.7037037037032
54 26.074074074074073 ['55', '7', '8', '53', '4', '12'] 1303.7037037037032
55 26.074074074074073 ['55', '7', '8', '53', '4', '12'] 1303.7037037037032
56 26.074074074074073 ['55', '7', '8', '53', '4', '12'] 1303.7037037037032
57 26.074074074074073 ['55', '7', '8', '53', '4', '12'] 1303.7037037037032
58 26.074074074074073 ['55', '7', '8', '53', '4', '12'] 1303.7037037037032
59 26.074074074074073 ['55', '7', '8', '53', '4', '12'] 1303.7037037037032
60 26.074074074074073 ['55', '7', '8', '53', '4', '12'] 1303.7037037037032
61 26.074074074074073 ['55', '7', '8', '53', '4', '12'] 1303.7037037037032
62 26.074074074074073 ['55', '7', '8', '53', '4', '12'] 1303.7037037037032
63 26.074074074074073 ['55', '7', '8', '53', '4', '12'] 1303.7037037037032
64 26.074074074074073 ['55', '7', '8', '53', '4', '12'] 1303.7037037037032
65 26.074074074074073 ['55', '7', '8', '53', '4', '12'] 1303.7037037037032
66 26.074074074074073 ['55', '7', '8', '53', '4', '12'] 1303.7037037037032
67 26.074074074074073 ['55', '7', '8', '53', '4', '12'] 1303.7037037037032
68 26.074074074074073 ['55', '7', '8', '53', '4', '12'] 1303.7037037037032
69 26.074074074074073 ['55', '7', '8', '53', '4', '12'] 1303.7037037037032
70 26.074074074074073 ['55', '7', '8', '53', '4', '12'] 1303.7037037037032
71 26.074074074074073 ['55', '7', '8', '53', '4', '12'] 1303.7037037037032
72 26.074074074074073 ['55', '7', '8', '53', '4', '12'] 1303.7037037037032
73 26.074074074074073 ['55', '7', '8', '53', '4', '12'] 1303.7037037037032
74 26.074074074074073 ['55', '7', '8', '53', '4', '12'] 1303.7037037037032
75 26.074074074074073 ['55', '7', '8', '53', '4', '12'] 1303.7037037037032
76 26.074074074074073 ['55', '7', '8', '53', '4', '12'] 1303.7037037037032
77 26.074074074074073 ['55', '7', '8', '53', '4', '12'] 1303.7037037037032
78 26.074074074074073 ['55', '7', '8', '53', '4', '12'] 1303.7037037037032
79 26.074074074074073 ['55', '7', '8', '53', '4', '12'] 1303.7037037037032
80 26.074074074074073 ['55', '7', '8', '53', '4', '12'] 1303.7037037037032
81 26.074074074074073 ['55', '7', '8', '53', '4', '12'] 1303.7037037037032
82 26.074074074074073 ['55', '7', '8', '53', '4', '12'] 1303.7037037037032
83 26.074074074074073 ['55', '7', '8', '53', '4', '12'] 1303.7037037037032
84 26.074074074074073 ['55', '7', '8', '53', '4', '12'] 1303.7037037037032
85 26.074074074074073 ['55', '7', '8', '53', '4', '12'] 1303.7037037037032
86 26.074074074074073 ['55', '7', '8', '53', '4', '12'] 1303.7037037037032
87 26.074074074074073 ['55', '7', '8', '53', '4', '12'] 1303.7037037037032
88 26.074074074074073 ['55', '7', '8', '53', '4', '12'] 1303.7037037037032
89 26.074074074074073 ['55', '7', '8', '53', '4', '12'] 1303.7037037037032
90 26.074074074074073 ['55', '7', '8', '53', '4', '12'] 1303.7037037037032
91 26.074074074074073 ['55', '7', '8', '53', '4', '12'] 1303.7037037037032
92 26.074074074074073 ['55', '7', '8', '53', '4', '12'] 1303.7037037037032
93 26.074074074074073 ['55', '7', '8', '53', '4', '12'] 1303.7037037037032
94 26.074074074074073 ['55', '7', '8', '53', '4', '12'] 1303.7037037037032
95 26.074074074074073 ['55', '7', '8', '53', '4', '12'] 1303.7037037037032
96 26.074074074074073 ['55', '7', '8', '53', '4', '12'] 1303.7037037037032
97 26.074074074074073 ['55', '7', '8', '53', '4', '12'] 1303.7037037037032
98 26.074074074074073 ['55', '7', '8', '53', '4', '12'] 1303.7037037037032
99 26.074074074074073 ['55', '7', '8', '53', '4', '12'] 1303.7037037037032
100 26.074074074074073 ['55', '7', '8', '53', '4', '12'] 1303.7037037037032
101 26.074074074074073 ['55', '7', '8', '53', '4', '12'] 1303.7037037037032
102 26.074074074074073 ['55', '7', '8', '53', '4', '12'] 1303.7037037037032
103 26.074074074074073 ['55', '7', '8', '53', '4', '12'] 1303.7037037037032
104 26.074074074074073 ['55', '7', '8', '53', '4', '12'] 1303.7037037037032
105 26.074074074074073 ['55', '7', '8', '53', '4', '12'] 1303.7037037037032
106 26.074074074074073 ['55', '7', '8', '53', '4', '12'] 1303.7037037037032
107 26.074074074074073 ['55', '7', '8', '53', '4', '12'] 1303.7037037037032
108 26.074074074074073 ['55', '7', '8', '53', '4', '12'] 1303.7037037037032
109 26.074074074074073 ['55', '7', '8', '53', '4', '12'] 1303.7037037037032
110 26.074074074074073 ['55', '7', '8', '53', '4', '12'] 1303.7037037037032
111 26.074074074074073 ['55', '7', '8', '53', '4', '12'] 1303.7037037037032
112 26.074074074074073 ['55', '7', '8', '53', '4', '12'] 1303.7037037037032
113 26.074074074074073 ['55', '7', '8', '53', '4', '12'] 1303.7037037037032
114 26.074074074074073 ['55', '7', '8', '53', '4', '12'] 1303.7037037037032
115 26.074074074074073 ['55', '7', '8', '53', '4', '12'] 1303.7037037037032
116 26.074074074074073 ['55', '7', '8', '53', '4', '12'] 1303.7037037037032
117 26.074074074074073 ['55', '7', '8', '53', '4', '12'] 1303.7037037037032
118 26.074074074074073 ['55', '7', '8', '53', '4', '12'] 1303.7037037037032
119 26.074074074074073 ['55', '7', '8', '53', '4', '12'] 1303.7037037037032
120 26.074074074074073 ['55', '7', '8', '53', '4', '12'] 1303.7037037037032
121 26.074074074074073 ['55', '7', '8', '53', '4', '12'] 1303.7037037037032
122 26.074074074074073 ['55', '7', '8', '53', '4', '12'] 1303.7037037037032
123 26.074074074074073 ['55', '7', '8', '53', '4', '12'] 1303.7037037037032
124 26.074074074074073 ['55', '7', '8', '53', '4', '12'] 1303.7037037037032
125 26.074074074074073 ['55', '7', '8', '53', '4', '12'] 1303.7037037037032
126 26.074074074074073 ['55', '7', '8', '53', '4', '12'] 1303.7037037037032
127 26.074074074074073 ['55', '7', '8', '53', '4', '12'] 1303.7037037037032
128 26.074074074074073 ['55', '7', '8', '53', '4', '12'] 1303.7037037037032
129 26.074074074074073 ['55', '7', '8', '53', '4', '12'] 1303.7037037037032
130 26.074074074074073 ['55', '7', '8', '53', '4', '12'] 1303.7037037037032
131 26.074074074074073 ['55', '7', '8', '53', '4', '12'] 1303.7037037037032
132 26.074074074074073 ['55', '7', '8', '53', '4', '12'] 1303.7037037037032
133 26.074074074074073 ['55', '7', '8', '53', '4', '12'] 1303.7037037037032
134 26.074074074074073 ['55', '7', '8', '53', '4', '12'] 1303.7037037037032
135 26.074074074074073 ['55', '7', '8', '53', '4', '12'] 1303.7037037037032
136 26.074074074074073 ['55', '7', '8', '53', '4', '12'] 1303.7037037037032
137 26.074074074074073 ['55', '7', '8', '53', '4', '12'] 1303.7037037037032
138 26.074074074074073 ['55', '7', '8', '53', '4', '12'] 1303.7037037037032
139 26.074074074074073 ['55', '7', '8', '53', '4', '12'] 1303.7037037037032
140 26.074074074074073 ['55', '7', '8', '53', '4', '12'] 1303.7037037037032
141 26.074074074074073 ['55', '7', '8', '53', '4', '12'] 1303.7037037037032
142 26.074074074074073 ['55', '7', '8', '53', '4', '12'] 1303.7037037037032
143 26.074074074074073 ['55', '7', '8', '53', '4', '12'] 1303.7037037037032
144 26.074074074074073 ['55', '7', '8', '53', '4', '12'] 1303.7037037037032
145 26.074074074074073 ['55', '7', '8', '53', '4', '12'] 1303.7037037037032
146 26.074074074074073 ['55', '7', '8', '53', '4', '12'] 1303.7037037037032
147 26.074074074074073 ['55', '7', '8', '53', '4', '12'] 1303.7037037037032
148 26.074074074074073 ['55', '7', '8', '53', '4', '12'] 1303.7037037037032
149 26.074074074074073 ['55', '7', '8', '53', '4', '12'] 1303.7037037037032
150 26.074074074074073 ['55', '7', '8', '53', '4', '12'] 1303.7037037037032
151 26.074074074074073 ['55', '7', '8', '53', '4', '12'] 1303.7037037037032
152 26.074074074074073 ['55', '7', '8', '53', '4', '12'] 1303.7037037037032
153 26.074074074074073 ['55', '7', '8', '53', '4', '12'] 1303.7037037037032
154 26.074074074074073 ['55', '7', '8', '53', '4', '12'] 1303.7037037037032
155 26.074074074074073 ['55', '7', '8', '53', '4', '12'] 1303.7037037037032
156 26.074074074074073 ['55', '7', '8', '53', '4', '12'] 1303.7037037037032
157 26.074074074074073 ['55', '7', '8', '53', '4', '12'] 1303.7037037037032
158 26.074074074074073 ['55', '7', '8', '53', '4', '12'] 1303.7037037037032
159 26.074074074074073 ['55', '7', '8', '53', '4', '12'] 1303.7037037037032
160 26.074074074074073 ['55', '7', '8', '53', '4', '12'] 1303.7037037037032
161 26.074074074074073 ['55', '7', '8', '53', '4', '12'] 1303.7037037037032
162 26.074074074074073 ['55', '7', '8', '53', '4', '12'] 1303.7037037037032
163 26.074074074074073 ['55', '7', '8', '53', '4', '12'] 1303.7037037037032
164 26.074074074074073 ['55', '7', '8', '53', '4', '12'] 1303.7037037037032
165 26.074074074074073 ['55', '7', '8', '53', '4', '12'] 1303.7037037037032
166 26.074074074074073 ['55', '7', '8', '53', '4', '12'] 1303.7037037037032
167 26.074074074074073 ['55', '7', '8', '53', '4', '12'] 1303.7037037037032
168 26.074074074074073 ['55', '7', '8', '53', '4', '12'] 1303.7037037037032
169 26.074074074074073 ['55', '7', '8', '53', '4', '12'] 1303.7037037037032
170 26.074074074074073 ['55', '7', '8', '53', '4', '12'] 1303.7037037037032
171 26.074074074074073 ['55', '7', '8', '53', '4', '12'] 1303.7037037037032
172 26.074074074074073 ['55', '7', '8', '53', '4', '12'] 1303.7037037037032
173 26.074074074074073 ['55', '7', '8', '53', '4', '12'] 1303.7037037037032
174 26.074074074074073 ['55', '7', '8', '53', '4', '12'] 1303.7037037037032
175 26.074074074074073 ['55', '7', '8', '53', '4', '12'] 1303.7037037037032
176 26.074074074074073 ['55', '7', '8', '53', '4', '12'] 1303.7037037037032
177 26.074074074074073 ['55', '7', '8', '53', '4', '12'] 1303.7037037037032
178 26.074074074074073 ['55', '7', '8', '53', '4', '12'] 1303.7037037037032
179 26.074074074074073 ['55', '7', '8', '53', '4', '12'] 1303.7037037037032
180 26.074074074074073 ['55', '7', '8', '53', '4', '12'] 1303.7037037037032
181 26.074074074074073 ['55', '7', '8', '53', '4', '12'] 1303.7037037037032
182 26.074074074074073 ['55', '7', '8', '53', '4', '12'] 1303.7037037037032
183 26.074074074074073 ['55', '7', '8', '53', '4', '12'] 1303.7037037037032
184 26.074074074074073 ['55', '7', '8', '53', '4', '12'] 1303.7037037037032
185 26.074074074074073 ['55', '7', '8', '53', '4', '12'] 1303.7037037037032
186 26.074074074074073 ['55', '7', '8', '53', '4', '12'] 1303.7037037037032
187 26.074074074074073 ['55', '7', '8', '53', '4', '12'] 1303.7037037037032
188 26.074074074074073 ['55', '7', '8', '53', '4', '12'] 1303.7037037037032
189 26.074074074074073 ['55', '7', '8', '53', '4', '12'] 1303.7037037037032
190 26.074074074074073 ['55', '7', '8', '53', '4', '12'] 1303.7037037037032
191 26.074074074074073 ['55', '7', '8', '53', '4', '12'] 1303.7037037037032
192 26.074074074074073 ['55', '7', '8', '53', '4', '12'] 1303.7037037037032
193 26.074074074074073 ['55', '7', '8', '53', '4', '12'] 1303.7037037037032
194 26.074074074074073 ['55', '7', '8', '53', '4', '12'] 1303.7037037037032
195 26.074074074074073 ['55', '7', '8', '53', '4', '12'] 1303.7037037037032
196 26.074074074074073 ['55', '7', '8', '53', '4', '12'] 1303.7037037037032
197 26.074074074074073 ['55', '7', '8', '53', '4', '12'] 1303.7037037037032
198 26.074074074074073 ['55', '7', '8', '53', '4', '12'] 1303.7037037037032
199 26.074074074074073 ['55', '7', '8', '53', '4', '12'] 1303.7037037037032
