0 5.376172839506173 ['92', '56', '8', '95', '51', '135', '66', '79', '121', '127', '46', '148', '85', '6', '143'] 272.9187654320987
1 5.343086419753087 ['72', '68', '139', '143', '49', '85', '106', '121', '24', '60', '56', '84', '97', '8', '54'] 271.7985185185185
2 5.343086419753087 ['72', '68', '139', '143', '49', '85', '106', '121', '24', '60', '56', '84', '97', '8', '54'] 271.2062962962964
3 5.339135802469134 ['84', '54', '60', '72', '97', '24', '68', '143', '56', '139', '117', '121', '8', '49', '106'] 270.3961728395061
4 5.298395061728392 ['139', '143', '98', '148', '8', '38', '43', '79', '49', '138', '106', '27', '56', '68', '135'] 269.62098765432097
5 5.295061728395059 ['8', '121', '72', '56', '143', '54', '84', '106', '139', '85', '60', '127', '97', '117', '24'] 268.9282716049383
6 5.284444444444448 ['145', '60', '143', '119', '57', '14', '137', '106', '147', '92', '139', '102', '146', '55', '78'] 267.9951851851852
7 5.262716049382716 ['8', '106', '143', '92', '139', '85', '94', '60', '148', '53', '49', '56', '121', '112', '66'] 267.3228395061728
8 5.259999999999996 ['97', '143', '117', '139', '56', '141', '60', '108', '121', '95', '147', '93', '85', '148', '54'] 266.71074074074085
9 5.248024691358023 ['60', '143', '139', '117', '56', '24', '148', '84', '85', '121', '93', '8', '55', '54', '97'] 265.86703703703705
10 5.248024691358023 ['60', '143', '139', '117', '56', '24', '148', '84', '85', '121', '93', '8', '55', '54', '97'] 265.0951851851851
11 5.228641975308641 ['139', '121', '148', '57', '54', '97', '106', '8', '143', '140', '55', '96', '56', '94', '137'] 264.2825925925926
12 5.21358024691358 ['56', '139', '106', '94', '143', '148', '121', '8', '49', '85', '96', '57', '55', '60', '97'] 263.40777777777777
13 5.211234567901233 ['142', '148', '121', '106', '139', '143', '124', '55', '92', '8', '97', '140', '54', '85', '81'] 262.60370370370373
14 5.195802469135802 ['148', '147', '56', '139', '143', '8', '117', '94', '141', '126', '96', '97', '55', '140', '66'] 261.8548148148147
15 5.191481481481481 ['55', '121', '139', '143', '117', '97', '106', '60', '148', '56', '8', '57', '127', '81', '85'] 261.12320987654317
16 5.148395061728393 ['121', '106', '117', '54', '148', '139', '56', '8', '143', '55', '97', '98', '96', '124', '142'] 260.502098765432
17 5.111604938271603 ['54', '148', '117', '8', '139', '121', '97', '56', '106', '143', '55', '124', '112', '43', '142'] 259.7028395061728
18 5.111604938271603 ['54', '148', '117', '8', '139', '121', '97', '56', '106', '143', '55', '124', '112', '43', '142'] 259.03333333333325
19 5.111604938271603 ['54', '148', '117', '8', '139', '121', '97', '56', '106', '143', '55', '124', '112', '43', '142'] 258.2572839506172
20 5.111604938271603 ['54', '148', '117', '8', '139', '121', '97', '56', '106', '143', '55', '124', '112', '43', '142'] 257.74851851851855
21 5.111604938271603 ['54', '148', '117', '8', '139', '121', '97', '56', '106', '143', '55', '124', '112', '43', '142'] 257.4088888888889
22 5.111604938271603 ['54', '148', '117', '8', '139', '121', '97', '56', '106', '143', '55', '124', '112', '43', '142'] 257.2413580246914
23 5.1035802469135785 ['55', '139', '97', '94', '137', '106', '143', '56', '85', '148', '117', '8', '121', '141', '96'] 256.8254320987653
24 5.102962962962962 ['97', '117', '55', '143', '148', '139', '106', '56', '121', '8', '57', '141', '85', '137', '94'] 256.3734567901234
25 5.075679012345678 ['139', '117', '143', '94', '85', '121', '148', '106', '97', '8', '55', '56', '141', '142', '124'] 255.914938271605
26 5.075679012345678 ['139', '117', '143', '94', '85', '121', '148', '106', '97', '8', '55', '56', '141', '142', '124'] 255.6127160493825
27 5.075679012345678 ['139', '117', '143', '94', '85', '121', '148', '106', '97', '8', '55', '56', '141', '142', '124'] 255.47074074074067
28 5.075679012345678 ['139', '117', '143', '94', '85', '121', '148', '106', '97', '8', '55', '56', '141', '142', '124'] 255.21740740740734
29 5.075679012345678 ['139', '117', '143', '94', '85', '121', '148', '106', '97', '8', '55', '56', '141', '142', '124'] 254.9530864197528
30 5.075679012345678 ['139', '117', '143', '94', '85', '121', '148', '106', '97', '8', '55', '56', '141', '142', '124'] 254.88913580246873
31 5.075679012345678 ['139', '117', '143', '94', '85', '121', '148', '106', '97', '8', '55', '56', '141', '142', '124'] 254.6834567901232
32 5.075679012345678 ['139', '117', '143', '94', '85', '121', '148', '106', '97', '8', '55', '56', '141', '142', '124'] 254.26530864197517
33 5.0750617283950605 ['148', '117', '8', '106', '97', '55', '143', '56', '139', '121', '124', '142', '94', '112', '141'] 253.94197530864201
34 5.0750617283950605 ['148', '117', '8', '106', '97', '55', '143', '56', '139', '121', '124', '142', '94', '112', '141'] 253.78271604938288
35 5.0750617283950605 ['148', '117', '8', '106', '97', '55', '143', '56', '139', '121', '124', '142', '94', '112', '141'] 253.7802469135804
36 5.0750617283950605 ['148', '117', '8', '106', '97', '55', '143', '56', '139', '121', '124', '142', '94', '112', '141'] 253.77407407407424
37 5.0750617283950605 ['148', '117', '8', '106', '97', '55', '143', '56', '139', '121', '124', '142', '94', '112', '141'] 253.76666666666682
38 5.0750617283950605 ['148', '117', '8', '106', '97', '55', '143', '56', '139', '121', '124', '142', '94', '112', '141'] 253.75308641975323
39 5.0750617283950605 ['148', '117', '8', '106', '97', '55', '143', '56', '139', '121', '124', '142', '94', '112', '141'] 253.75308641975323
40 5.0750617283950605 ['148', '117', '8', '106', '97', '55', '143', '56', '139', '121', '124', '142', '94', '112', '141'] 253.75308641975323
41 5.0750617283950605 ['148', '117', '8', '106', '97', '55', '143', '56', '139', '121', '124', '142', '94', '112', '141'] 253.75308641975323
42 5.0750617283950605 ['148', '117', '8', '106', '97', '55', '143', '56', '139', '121', '124', '142', '94', '112', '141'] 253.75308641975323
43 5.0750617283950605 ['148', '117', '8', '106', '97', '55', '143', '56', '139', '121', '124', '142', '94', '112', '141'] 253.75308641975323
44 5.0750617283950605 ['148', '117', '8', '106', '97', '55', '143', '56', '139', '121', '124', '142', '94', '112', '141'] 253.75308641975323
45 5.0750617283950605 ['148', '117', '8', '106', '97', '55', '143', '56', '139', '121', '124', '142', '94', '112', '141'] 253.75308641975323
46 5.0750617283950605 ['148', '117', '8', '106', '97', '55', '143', '56', '139', '121', '124', '142', '94', '112', '141'] 253.75308641975323
47 5.0750617283950605 ['148', '117', '8', '106', '97', '55', '143', '56', '139', '121', '124', '142', '94', '112', '141'] 253.75308641975323
48 5.0750617283950605 ['148', '117', '8', '106', '97', '55', '143', '56', '139', '121', '124', '142', '94', '112', '141'] 253.75308641975323
49 5.0750617283950605 ['148', '117', '8', '106', '97', '55', '143', '56', '139', '121', '124', '142', '94', '112', '141'] 253.75308641975323
50 5.0750617283950605 ['148', '117', '8', '106', '97', '55', '143', '56', '139', '121', '124', '142', '94', '112', '141'] 253.75308641975323
51 5.0750617283950605 ['148', '117', '8', '106', '97', '55', '143', '56', '139', '121', '124', '142', '94', '112', '141'] 253.75308641975323
52 5.0750617283950605 ['148', '117', '8', '106', '97', '55', '143', '56', '139', '121', '124', '142', '94', '112', '141'] 253.75308641975323
53 5.0750617283950605 ['148', '117', '8', '106', '97', '55', '143', '56', '139', '121', '124', '142', '94', '112', '141'] 253.75308641975323
54 5.0750617283950605 ['148', '117', '8', '106', '97', '55', '143', '56', '139', '121', '124', '142', '94', '112', '141'] 253.75308641975323
55 5.0750617283950605 ['148', '117', '8', '106', '97', '55', '143', '56', '139', '121', '124', '142', '94', '112', '141'] 253.75308641975323
56 5.0750617283950605 ['148', '117', '8', '106', '97', '55', '143', '56', '139', '121', '124', '142', '94', '112', '141'] 253.75308641975323
57 5.0750617283950605 ['148', '117', '8', '106', '97', '55', '143', '56', '139', '121', '124', '142', '94', '112', '141'] 253.75308641975323
58 5.0750617283950605 ['148', '117', '8', '106', '97', '55', '143', '56', '139', '121', '124', '142', '94', '112', '141'] 253.75308641975323
59 5.0750617283950605 ['148', '117', '8', '106', '97', '55', '143', '56', '139', '121', '124', '142', '94', '112', '141'] 253.75308641975323
60 5.0750617283950605 ['148', '117', '8', '106', '97', '55', '143', '56', '139', '121', '124', '142', '94', '112', '141'] 253.75308641975323
61 5.0750617283950605 ['148', '117', '8', '106', '97', '55', '143', '56', '139', '121', '124', '142', '94', '112', '141'] 253.75308641975323
62 5.0750617283950605 ['148', '117', '8', '106', '97', '55', '143', '56', '139', '121', '124', '142', '94', '112', '141'] 253.75308641975323
63 5.0750617283950605 ['148', '117', '8', '106', '97', '55', '143', '56', '139', '121', '124', '142', '94', '112', '141'] 253.75308641975323
64 5.0750617283950605 ['148', '117', '8', '106', '97', '55', '143', '56', '139', '121', '124', '142', '94', '112', '141'] 253.75308641975323
65 5.0750617283950605 ['148', '117', '8', '106', '97', '55', '143', '56', '139', '121', '124', '142', '94', '112', '141'] 253.75308641975323
66 5.0750617283950605 ['148', '117', '8', '106', '97', '55', '143', '56', '139', '121', '124', '142', '94', '112', '141'] 253.75308641975323
67 5.0750617283950605 ['148', '117', '8', '106', '97', '55', '143', '56', '139', '121', '124', '142', '94', '112', '141'] 253.75308641975323
68 5.0750617283950605 ['148', '117', '8', '106', '97', '55', '143', '56', '139', '121', '124', '142', '94', '112', '141'] 253.75308641975323
69 5.0750617283950605 ['148', '117', '8', '106', '97', '55', '143', '56', '139', '121', '124', '142', '94', '112', '141'] 253.75308641975323
70 5.0750617283950605 ['148', '117', '8', '106', '97', '55', '143', '56', '139', '121', '124', '142', '94', '112', '141'] 253.75308641975323
71 5.0750617283950605 ['148', '117', '8', '106', '97', '55', '143', '56', '139', '121', '124', '142', '94', '112', '141'] 253.75308641975323
72 5.0750617283950605 ['148', '117', '8', '106', '97', '55', '143', '56', '139', '121', '124', '142', '94', '112', '141'] 253.75308641975323
73 5.0750617283950605 ['148', '117', '8', '106', '97', '55', '143', '56', '139', '121', '124', '142', '94', '112', '141'] 253.75308641975323
74 5.0750617283950605 ['148', '117', '8', '106', '97', '55', '143', '56', '139', '121', '124', '142', '94', '112', '141'] 253.75308641975323
75 5.0750617283950605 ['148', '117', '8', '106', '97', '55', '143', '56', '139', '121', '124', '142', '94', '112', '141'] 253.75308641975323
76 5.0750617283950605 ['148', '117', '8', '106', '97', '55', '143', '56', '139', '121', '124', '142', '94', '112', '141'] 253.75308641975323
77 5.0750617283950605 ['148', '117', '8', '106', '97', '55', '143', '56', '139', '121', '124', '142', '94', '112', '141'] 253.75308641975323
78 5.0750617283950605 ['148', '117', '8', '106', '97', '55', '143', '56', '139', '121', '124', '142', '94', '112', '141'] 253.75308641975323
79 5.0750617283950605 ['148', '117', '8', '106', '97', '55', '143', '56', '139', '121', '124', '142', '94', '112', '141'] 253.75308641975323
80 5.0750617283950605 ['148', '117', '8', '106', '97', '55', '143', '56', '139', '121', '124', '142', '94', '112', '141'] 253.75308641975323
81 5.0750617283950605 ['148', '117', '8', '106', '97', '55', '143', '56', '139', '121', '124', '142', '94', '112', '141'] 253.75308641975323
82 5.0750617283950605 ['148', '117', '8', '106', '97', '55', '143', '56', '139', '121', '124', '142', '94', '112', '141'] 253.75308641975323
83 5.0750617283950605 ['148', '117', '8', '106', '97', '55', '143', '56', '139', '121', '124', '142', '94', '112', '141'] 253.75308641975323
84 5.0750617283950605 ['148', '117', '8', '106', '97', '55', '143', '56', '139', '121', '124', '142', '94', '112', '141'] 253.75308641975323
85 5.0750617283950605 ['148', '117', '8', '106', '97', '55', '143', '56', '139', '121', '124', '142', '94', '112', '141'] 253.75308641975323
86 5.0750617283950605 ['148', '117', '8', '106', '97', '55', '143', '56', '139', '121', '124', '142', '94', '112', '141'] 253.75308641975323
87 5.0750617283950605 ['148', '117', '8', '106', '97', '55', '143', '56', '139', '121', '124', '142', '94', '112', '141'] 253.75308641975323
88 5.0750617283950605 ['148', '117', '8', '106', '97', '55', '143', '56', '139', '121', '124', '142', '94', '112', '141'] 253.75308641975323
89 5.0750617283950605 ['148', '117', '8', '106', '97', '55', '143', '56', '139', '121', '124', '142', '94', '112', '141'] 253.75308641975323
90 5.0750617283950605 ['148', '117', '8', '106', '97', '55', '143', '56', '139', '121', '124', '142', '94', '112', '141'] 253.75308641975323
91 5.0750617283950605 ['148', '117', '8', '106', '97', '55', '143', '56', '139', '121', '124', '142', '94', '112', '141'] 253.75308641975323
92 5.0750617283950605 ['148', '117', '8', '106', '97', '55', '143', '56', '139', '121', '124', '142', '94', '112', '141'] 253.75308641975323
93 5.0750617283950605 ['148', '117', '8', '106', '97', '55', '143', '56', '139', '121', '124', '142', '94', '112', '141'] 253.75308641975323
94 5.0750617283950605 ['148', '117', '8', '106', '97', '55', '143', '56', '139', '121', '124', '142', '94', '112', '141'] 253.75308641975323
95 5.0750617283950605 ['148', '117', '8', '106', '97', '55', '143', '56', '139', '121', '124', '142', '94', '112', '141'] 253.75308641975323
96 5.0750617283950605 ['148', '117', '8', '106', '97', '55', '143', '56', '139', '121', '124', '142', '94', '112', '141'] 253.75308641975323
97 5.0750617283950605 ['148', '117', '8', '106', '97', '55', '143', '56', '139', '121', '124', '142', '94', '112', '141'] 253.75308641975323
98 5.0750617283950605 ['148', '117', '8', '106', '97', '55', '143', '56', '139', '121', '124', '142', '94', '112', '141'] 253.75308641975323
99 5.0750617283950605 ['148', '117', '8', '106', '97', '55', '143', '56', '139', '121', '124', '142', '94', '112', '141'] 253.75308641975323
100 5.0750617283950605 ['148', '117', '8', '106', '97', '55', '143', '56', '139', '121', '124', '142', '94', '112', '141'] 253.75308641975323
101 5.0750617283950605 ['148', '117', '8', '106', '97', '55', '143', '56', '139', '121', '124', '142', '94', '112', '141'] 253.75308641975323
102 5.0750617283950605 ['148', '117', '8', '106', '97', '55', '143', '56', '139', '121', '124', '142', '94', '112', '141'] 253.75308641975323
103 5.0750617283950605 ['148', '117', '8', '106', '97', '55', '143', '56', '139', '121', '124', '142', '94', '112', '141'] 253.75308641975323
104 5.0750617283950605 ['148', '117', '8', '106', '97', '55', '143', '56', '139', '121', '124', '142', '94', '112', '141'] 253.75308641975323
105 5.0750617283950605 ['148', '117', '8', '106', '97', '55', '143', '56', '139', '121', '124', '142', '94', '112', '141'] 253.75308641975323
106 5.0750617283950605 ['148', '117', '8', '106', '97', '55', '143', '56', '139', '121', '124', '142', '94', '112', '141'] 253.75308641975323
107 5.0750617283950605 ['148', '117', '8', '106', '97', '55', '143', '56', '139', '121', '124', '142', '94', '112', '141'] 253.75308641975323
108 5.0750617283950605 ['148', '117', '8', '106', '97', '55', '143', '56', '139', '121', '124', '142', '94', '112', '141'] 253.75308641975323
109 5.0750617283950605 ['148', '117', '8', '106', '97', '55', '143', '56', '139', '121', '124', '142', '94', '112', '141'] 253.75308641975323
110 5.0750617283950605 ['148', '117', '8', '106', '97', '55', '143', '56', '139', '121', '124', '142', '94', '112', '141'] 253.75308641975323
111 5.0750617283950605 ['148', '117', '8', '106', '97', '55', '143', '56', '139', '121', '124', '142', '94', '112', '141'] 253.75308641975323
112 5.0750617283950605 ['148', '117', '8', '106', '97', '55', '143', '56', '139', '121', '124', '142', '94', '112', '141'] 253.75308641975323
113 5.0750617283950605 ['148', '117', '8', '106', '97', '55', '143', '56', '139', '121', '124', '142', '94', '112', '141'] 253.75308641975323
114 5.0750617283950605 ['148', '117', '8', '106', '97', '55', '143', '56', '139', '121', '124', '142', '94', '112', '141'] 253.75308641975323
115 5.0750617283950605 ['148', '117', '8', '106', '97', '55', '143', '56', '139', '121', '124', '142', '94', '112', '141'] 253.75308641975323
116 5.0750617283950605 ['148', '117', '8', '106', '97', '55', '143', '56', '139', '121', '124', '142', '94', '112', '141'] 253.75308641975323
117 5.0750617283950605 ['148', '117', '8', '106', '97', '55', '143', '56', '139', '121', '124', '142', '94', '112', '141'] 253.75308641975323
118 5.0750617283950605 ['148', '117', '8', '106', '97', '55', '143', '56', '139', '121', '124', '142', '94', '112', '141'] 253.75308641975323
119 5.0750617283950605 ['148', '117', '8', '106', '97', '55', '143', '56', '139', '121', '124', '142', '94', '112', '141'] 253.75308641975323
120 5.0750617283950605 ['148', '117', '8', '106', '97', '55', '143', '56', '139', '121', '124', '142', '94', '112', '141'] 253.75308641975323
121 5.0750617283950605 ['148', '117', '8', '106', '97', '55', '143', '56', '139', '121', '124', '142', '94', '112', '141'] 253.75308641975323
122 5.0750617283950605 ['148', '117', '8', '106', '97', '55', '143', '56', '139', '121', '124', '142', '94', '112', '141'] 253.75308641975323
123 5.0750617283950605 ['148', '117', '8', '106', '97', '55', '143', '56', '139', '121', '124', '142', '94', '112', '141'] 253.75308641975323
124 5.0750617283950605 ['148', '117', '8', '106', '97', '55', '143', '56', '139', '121', '124', '142', '94', '112', '141'] 253.75308641975323
125 5.0750617283950605 ['148', '117', '8', '106', '97', '55', '143', '56', '139', '121', '124', '142', '94', '112', '141'] 253.75308641975323
126 5.0750617283950605 ['148', '117', '8', '106', '97', '55', '143', '56', '139', '121', '124', '142', '94', '112', '141'] 253.75308641975323
127 5.0750617283950605 ['148', '117', '8', '106', '97', '55', '143', '56', '139', '121', '124', '142', '94', '112', '141'] 253.75308641975323
128 5.0750617283950605 ['148', '117', '8', '106', '97', '55', '143', '56', '139', '121', '124', '142', '94', '112', '141'] 253.75308641975323
129 5.0750617283950605 ['148', '117', '8', '106', '97', '55', '143', '56', '139', '121', '124', '142', '94', '112', '141'] 253.75308641975323
130 5.0750617283950605 ['148', '117', '8', '106', '97', '55', '143', '56', '139', '121', '124', '142', '94', '112', '141'] 253.75308641975323
131 5.0750617283950605 ['148', '117', '8', '106', '97', '55', '143', '56', '139', '121', '124', '142', '94', '112', '141'] 253.75308641975323
132 5.0750617283950605 ['148', '117', '8', '106', '97', '55', '143', '56', '139', '121', '124', '142', '94', '112', '141'] 253.75308641975323
133 5.0750617283950605 ['148', '117', '8', '106', '97', '55', '143', '56', '139', '121', '124', '142', '94', '112', '141'] 253.75308641975323
134 5.0750617283950605 ['148', '117', '8', '106', '97', '55', '143', '56', '139', '121', '124', '142', '94', '112', '141'] 253.75308641975323
135 5.0750617283950605 ['148', '117', '8', '106', '97', '55', '143', '56', '139', '121', '124', '142', '94', '112', '141'] 253.75308641975323
136 5.0750617283950605 ['148', '117', '8', '106', '97', '55', '143', '56', '139', '121', '124', '142', '94', '112', '141'] 253.75308641975323
137 5.0750617283950605 ['148', '117', '8', '106', '97', '55', '143', '56', '139', '121', '124', '142', '94', '112', '141'] 253.75308641975323
138 5.0750617283950605 ['148', '117', '8', '106', '97', '55', '143', '56', '139', '121', '124', '142', '94', '112', '141'] 253.75308641975323
139 5.0750617283950605 ['148', '117', '8', '106', '97', '55', '143', '56', '139', '121', '124', '142', '94', '112', '141'] 253.75308641975323
140 5.0750617283950605 ['148', '117', '8', '106', '97', '55', '143', '56', '139', '121', '124', '142', '94', '112', '141'] 253.75308641975323
141 5.0750617283950605 ['148', '117', '8', '106', '97', '55', '143', '56', '139', '121', '124', '142', '94', '112', '141'] 253.75308641975323
142 5.0750617283950605 ['148', '117', '8', '106', '97', '55', '143', '56', '139', '121', '124', '142', '94', '112', '141'] 253.75308641975323
143 5.0750617283950605 ['148', '117', '8', '106', '97', '55', '143', '56', '139', '121', '124', '142', '94', '112', '141'] 253.75308641975323
144 5.0750617283950605 ['148', '117', '8', '106', '97', '55', '143', '56', '139', '121', '124', '142', '94', '112', '141'] 253.75308641975323
145 5.0750617283950605 ['148', '117', '8', '106', '97', '55', '143', '56', '139', '121', '124', '142', '94', '112', '141'] 253.75308641975323
146 5.0750617283950605 ['148', '117', '8', '106', '97', '55', '143', '56', '139', '121', '124', '142', '94', '112', '141'] 253.75308641975323
147 5.0750617283950605 ['148', '117', '8', '106', '97', '55', '143', '56', '139', '121', '124', '142', '94', '112', '141'] 253.75308641975323
148 5.0750617283950605 ['148', '117', '8', '106', '97', '55', '143', '56', '139', '121', '124', '142', '94', '112', '141'] 253.75308641975323
149 5.0750617283950605 ['148', '117', '8', '106', '97', '55', '143', '56', '139', '121', '124', '142', '94', '112', '141'] 253.75308641975323
150 5.0750617283950605 ['148', '117', '8', '106', '97', '55', '143', '56', '139', '121', '124', '142', '94', '112', '141'] 253.75308641975323
151 5.0750617283950605 ['148', '117', '8', '106', '97', '55', '143', '56', '139', '121', '124', '142', '94', '112', '141'] 253.75308641975323
152 5.0750617283950605 ['148', '117', '8', '106', '97', '55', '143', '56', '139', '121', '124', '142', '94', '112', '141'] 253.75308641975323
153 5.0750617283950605 ['148', '117', '8', '106', '97', '55', '143', '56', '139', '121', '124', '142', '94', '112', '141'] 253.75308641975323
154 5.0750617283950605 ['148', '117', '8', '106', '97', '55', '143', '56', '139', '121', '124', '142', '94', '112', '141'] 253.75308641975323
155 5.0750617283950605 ['148', '117', '8', '106', '97', '55', '143', '56', '139', '121', '124', '142', '94', '112', '141'] 253.75308641975323
156 5.0750617283950605 ['148', '117', '8', '106', '97', '55', '143', '56', '139', '121', '124', '142', '94', '112', '141'] 253.75308641975323
157 5.0750617283950605 ['148', '117', '8', '106', '97', '55', '143', '56', '139', '121', '124', '142', '94', '112', '141'] 253.75308641975323
158 5.0750617283950605 ['148', '117', '8', '106', '97', '55', '143', '56', '139', '121', '124', '142', '94', '112', '141'] 253.75308641975323
159 5.0750617283950605 ['148', '117', '8', '106', '97', '55', '143', '56', '139', '121', '124', '142', '94', '112', '141'] 253.75308641975323
160 5.0750617283950605 ['148', '117', '8', '106', '97', '55', '143', '56', '139', '121', '124', '142', '94', '112', '141'] 253.75308641975323
161 5.0750617283950605 ['148', '117', '8', '106', '97', '55', '143', '56', '139', '121', '124', '142', '94', '112', '141'] 253.75308641975323
162 5.0750617283950605 ['148', '117', '8', '106', '97', '55', '143', '56', '139', '121', '124', '142', '94', '112', '141'] 253.75308641975323
163 5.0750617283950605 ['148', '117', '8', '106', '97', '55', '143', '56', '139', '121', '124', '142', '94', '112', '141'] 253.75308641975323
164 5.0750617283950605 ['148', '117', '8', '106', '97', '55', '143', '56', '139', '121', '124', '142', '94', '112', '141'] 253.75308641975323
165 5.0750617283950605 ['148', '117', '8', '106', '97', '55', '143', '56', '139', '121', '124', '142', '94', '112', '141'] 253.75308641975323
166 5.0750617283950605 ['148', '117', '8', '106', '97', '55', '143', '56', '139', '121', '124', '142', '94', '112', '141'] 253.75308641975323
167 5.0750617283950605 ['148', '117', '8', '106', '97', '55', '143', '56', '139', '121', '124', '142', '94', '112', '141'] 253.75308641975323
168 5.0750617283950605 ['148', '117', '8', '106', '97', '55', '143', '56', '139', '121', '124', '142', '94', '112', '141'] 253.75308641975323
169 5.0750617283950605 ['148', '117', '8', '106', '97', '55', '143', '56', '139', '121', '124', '142', '94', '112', '141'] 253.75308641975323
170 5.0750617283950605 ['148', '117', '8', '106', '97', '55', '143', '56', '139', '121', '124', '142', '94', '112', '141'] 253.75308641975323
171 5.0750617283950605 ['148', '117', '8', '106', '97', '55', '143', '56', '139', '121', '124', '142', '94', '112', '141'] 253.75308641975323
172 5.0750617283950605 ['148', '117', '8', '106', '97', '55', '143', '56', '139', '121', '124', '142', '94', '112', '141'] 253.75308641975323
173 5.0750617283950605 ['148', '117', '8', '106', '97', '55', '143', '56', '139', '121', '124', '142', '94', '112', '141'] 253.75308641975323
174 5.0750617283950605 ['148', '117', '8', '106', '97', '55', '143', '56', '139', '121', '124', '142', '94', '112', '141'] 253.75308641975323
175 5.0750617283950605 ['148', '117', '8', '106', '97', '55', '143', '56', '139', '121', '124', '142', '94', '112', '141'] 253.75308641975323
176 5.0750617283950605 ['148', '117', '8', '106', '97', '55', '143', '56', '139', '121', '124', '142', '94', '112', '141'] 253.75308641975323
177 5.0750617283950605 ['148', '117', '8', '106', '97', '55', '143', '56', '139', '121', '124', '142', '94', '112', '141'] 253.75308641975323
178 5.0750617283950605 ['148', '117', '8', '106', '97', '55', '143', '56', '139', '121', '124', '142', '94', '112', '141'] 253.75308641975323
179 5.0750617283950605 ['148', '117', '8', '106', '97', '55', '143', '56', '139', '121', '124', '142', '94', '112', '141'] 253.75308641975323
180 5.0750617283950605 ['148', '117', '8', '106', '97', '55', '143', '56', '139', '121', '124', '142', '94', '112', '141'] 253.75308641975323
181 5.0750617283950605 ['148', '117', '8', '106', '97', '55', '143', '56', '139', '121', '124', '142', '94', '112', '141'] 253.75308641975323
182 5.0750617283950605 ['148', '117', '8', '106', '97', '55', '143', '56', '139', '121', '124', '142', '94', '112', '141'] 253.75308641975323
183 5.0750617283950605 ['148', '117', '8', '106', '97', '55', '143', '56', '139', '121', '124', '142', '94', '112', '141'] 253.75308641975323
184 5.0750617283950605 ['148', '117', '8', '106', '97', '55', '143', '56', '139', '121', '124', '142', '94', '112', '141'] 253.75308641975323
185 5.0750617283950605 ['148', '117', '8', '106', '97', '55', '143', '56', '139', '121', '124', '142', '94', '112', '141'] 253.75308641975323
186 5.0750617283950605 ['148', '117', '8', '106', '97', '55', '143', '56', '139', '121', '124', '142', '94', '112', '141'] 253.75308641975323
187 5.0750617283950605 ['148', '117', '8', '106', '97', '55', '143', '56', '139', '121', '124', '142', '94', '112', '141'] 253.75308641975323
188 5.0750617283950605 ['148', '117', '8', '106', '97', '55', '143', '56', '139', '121', '124', '142', '94', '112', '141'] 253.75308641975323
189 5.0750617283950605 ['148', '117', '8', '106', '97', '55', '143', '56', '139', '121', '124', '142', '94', '112', '141'] 253.75308641975323
190 5.0750617283950605 ['148', '117', '8', '106', '97', '55', '143', '56', '139', '121', '124', '142', '94', '112', '141'] 253.75308641975323
191 5.0750617283950605 ['148', '117', '8', '106', '97', '55', '143', '56', '139', '121', '124', '142', '94', '112', '141'] 253.75308641975323
192 5.0750617283950605 ['148', '117', '8', '106', '97', '55', '143', '56', '139', '121', '124', '142', '94', '112', '141'] 253.75308641975323
193 5.0750617283950605 ['148', '117', '8', '106', '97', '55', '143', '56', '139', '121', '124', '142', '94', '112', '141'] 253.75308641975323
194 5.0750617283950605 ['148', '117', '8', '106', '97', '55', '143', '56', '139', '121', '124', '142', '94', '112', '141'] 253.75308641975323
195 5.0750617283950605 ['148', '117', '8', '106', '97', '55', '143', '56', '139', '121', '124', '142', '94', '112', '141'] 253.75308641975323
196 5.0750617283950605 ['148', '117', '8', '106', '97', '55', '143', '56', '139', '121', '124', '142', '94', '112', '141'] 253.75308641975323
197 5.0750617283950605 ['148', '117', '8', '106', '97', '55', '143', '56', '139', '121', '124', '142', '94', '112', '141'] 253.75308641975323
198 5.0750617283950605 ['148', '117', '8', '106', '97', '55', '143', '56', '139', '121', '124', '142', '94', '112', '141'] 253.75308641975323
199 5.0750617283950605 ['148', '117', '8', '106', '97', '55', '143', '56', '139', '121', '124', '142', '94', '112', '141'] 253.75308641975323
