0 24.704545454545453 ['1', '2', '48', '46'] 1301.3863636363633
1 24.318181818181817 ['46', '28', '1', '32'] 1275.3181818181818
2 24.272727272727273 ['1', '46', '27', '32'] 1254.7500000000005
3 24.0 ['5', '32', '1', '46'] 1238.2954545454543
4 24.0 ['5', '32', '1', '46'] 1223.2727272727273
5 23.84090909090909 ['1', '48', '5', '46'] 1208.65909090909
6 23.84090909090909 ['1', '48', '5', '46'] 1201.1363636363642
7 23.84090909090909 ['1', '48', '5', '46'] 1195.1136363636365
8 23.84090909090909 ['1', '48', '5', '46'] 1192.3636363636374
9 23.84090909090909 ['1', '48', '5', '46'] 1192.0454545454543
10 23.84090909090909 ['1', '48', '5', '46'] 1192.0454545454543
11 23.84090909090909 ['1', '48', '5', '46'] 1192.0454545454543
12 23.84090909090909 ['1', '48', '5', '46'] 1192.0454545454543
13 23.84090909090909 ['1', '48', '5', '46'] 1192.0454545454543
14 23.84090909090909 ['1', '48', '5', '46'] 1192.0454545454543
15 23.84090909090909 ['1', '48', '5', '46'] 1192.0454545454543
16 23.84090909090909 ['1', '48', '5', '46'] 1192.0454545454543
17 23.84090909090909 ['1', '48', '5', '46'] 1192.0454545454543
18 23.84090909090909 ['1', '48', '5', '46'] 1192.0454545454543
19 23.84090909090909 ['1', '48', '5', '46'] 1192.0454545454543
20 23.84090909090909 ['1', '48', '5', '46'] 1192.0454545454543
21 23.84090909090909 ['1', '48', '5', '46'] 1192.0454545454543
22 23.84090909090909 ['1', '48', '5', '46'] 1192.0454545454543
23 23.84090909090909 ['1', '48', '5', '46'] 1192.0454545454543
24 23.84090909090909 ['1', '48', '5', '46'] 1192.0454545454543
25 23.84090909090909 ['1', '48', '5', '46'] 1192.0454545454543
26 23.84090909090909 ['1', '48', '5', '46'] 1192.0454545454543
27 23.84090909090909 ['1', '48', '5', '46'] 1192.0454545454543
28 23.84090909090909 ['1', '48', '5', '46'] 1192.0454545454543
29 23.84090909090909 ['1', '48', '5', '46'] 1192.0454545454543
30 23.84090909090909 ['1', '48', '5', '46'] 1192.0454545454543
31 23.84090909090909 ['1', '48', '5', '46'] 1192.0454545454543
32 23.84090909090909 ['1', '48', '5', '46'] 1192.0454545454543
33 23.84090909090909 ['1', '48', '5', '46'] 1192.0454545454543
34 23.84090909090909 ['1', '48', '5', '46'] 1192.0454545454543
35 23.84090909090909 ['1', '48', '5', '46'] 1192.0454545454543
36 23.84090909090909 ['1', '48', '5', '46'] 1192.0454545454543
37 23.84090909090909 ['1', '48', '5', '46'] 1192.0454545454543
38 23.84090909090909 ['1', '48', '5', '46'] 1192.0454545454543
39 23.84090909090909 ['1', '48', '5', '46'] 1192.0454545454543
40 23.84090909090909 ['1', '48', '5', '46'] 1192.0454545454543
41 23.84090909090909 ['1', '48', '5', '46'] 1192.0454545454543
42 23.84090909090909 ['1', '48', '5', '46'] 1192.0454545454543
43 23.84090909090909 ['1', '48', '5', '46'] 1192.0454545454543
44 23.84090909090909 ['1', '48', '5', '46'] 1192.0454545454543
45 23.84090909090909 ['1', '48', '5', '46'] 1192.0454545454543
46 23.84090909090909 ['1', '48', '5', '46'] 1192.0454545454543
47 23.84090909090909 ['1', '48', '5', '46'] 1192.0454545454543
48 23.84090909090909 ['1', '48', '5', '46'] 1192.0454545454543
49 23.84090909090909 ['1', '48', '5', '46'] 1192.0454545454543
50 23.84090909090909 ['1', '48', '5', '46'] 1192.0454545454543
51 23.84090909090909 ['1', '48', '5', '46'] 1192.0454545454543
52 23.84090909090909 ['1', '48', '5', '46'] 1192.0454545454543
53 23.84090909090909 ['1', '48', '5', '46'] 1192.0454545454543
54 23.84090909090909 ['1', '48', '5', '46'] 1192.0454545454543
55 23.84090909090909 ['1', '48', '5', '46'] 1192.0454545454543
56 23.84090909090909 ['1', '48', '5', '46'] 1192.0454545454543
57 23.84090909090909 ['1', '48', '5', '46'] 1192.0454545454543
58 23.84090909090909 ['1', '48', '5', '46'] 1192.0454545454543
59 23.84090909090909 ['1', '48', '5', '46'] 1192.0454545454543
60 23.84090909090909 ['1', '48', '5', '46'] 1192.0454545454543
61 23.84090909090909 ['1', '48', '5', '46'] 1192.0454545454543
62 23.84090909090909 ['1', '48', '5', '46'] 1192.0454545454543
63 23.84090909090909 ['1', '48', '5', '46'] 1192.0454545454543
64 23.84090909090909 ['1', '48', '5', '46'] 1192.0454545454543
65 23.84090909090909 ['1', '48', '5', '46'] 1192.0454545454543
66 23.84090909090909 ['1', '48', '5', '46'] 1192.0454545454543
67 23.84090909090909 ['1', '48', '5', '46'] 1192.0454545454543
68 23.84090909090909 ['1', '48', '5', '46'] 1192.0454545454543
69 23.84090909090909 ['1', '48', '5', '46'] 1192.0454545454543
70 23.84090909090909 ['1', '48', '5', '46'] 1192.0454545454543
71 23.84090909090909 ['1', '48', '5', '46'] 1192.0454545454543
72 23.84090909090909 ['1', '48', '5', '46'] 1192.0454545454543
73 23.84090909090909 ['1', '48', '5', '46'] 1192.0454545454543
74 23.84090909090909 ['1', '48', '5', '46'] 1192.0454545454543
75 23.84090909090909 ['1', '48', '5', '46'] 1192.0454545454543
76 23.84090909090909 ['1', '48', '5', '46'] 1192.0454545454543
77 23.84090909090909 ['1', '48', '5', '46'] 1192.0454545454543
78 23.84090909090909 ['1', '48', '5', '46'] 1192.0454545454543
79 23.84090909090909 ['1', '48', '5', '46'] 1192.0454545454543
80 23.84090909090909 ['1', '48', '5', '46'] 1192.0454545454543
81 23.84090909090909 ['1', '48', '5', '46'] 1192.0454545454543
82 23.84090909090909 ['1', '48', '5', '46'] 1192.0454545454543
83 23.84090909090909 ['1', '48', '5', '46'] 1192.0454545454543
84 23.84090909090909 ['1', '48', '5', '46'] 1192.0454545454543
85 23.84090909090909 ['1', '48', '5', '46'] 1192.0454545454543
86 23.84090909090909 ['1', '48', '5', '46'] 1192.0454545454543
87 23.84090909090909 ['1', '48', '5', '46'] 1192.0454545454543
88 23.84090909090909 ['1', '48', '5', '46'] 1192.0454545454543
89 23.84090909090909 ['1', '48', '5', '46'] 1192.0454545454543
90 23.84090909090909 ['1', '48', '5', '46'] 1192.0454545454543
91 23.84090909090909 ['1', '48', '5', '46'] 1192.0454545454543
92 23.84090909090909 ['1', '48', '5', '46'] 1192.0454545454543
93 23.84090909090909 ['1', '48', '5', '46'] 1192.0454545454543
94 23.84090909090909 ['1', '48', '5', '46'] 1192.0454545454543
95 23.84090909090909 ['1', '48', '5', '46'] 1192.0454545454543
96 23.84090909090909 ['1', '48', '5', '46'] 1192.0454545454543
97 23.84090909090909 ['1', '48', '5', '46'] 1192.0454545454543
98 23.84090909090909 ['1', '48', '5', '46'] 1192.0454545454543
99 23.84090909090909 ['1', '48', '5', '46'] 1192.0454545454543
100 23.84090909090909 ['1', '48', '5', '46'] 1192.0454545454543
101 23.84090909090909 ['1', '48', '5', '46'] 1192.0454545454543
102 23.84090909090909 ['1', '48', '5', '46'] 1192.0454545454543
103 23.84090909090909 ['1', '48', '5', '46'] 1192.0454545454543
104 23.84090909090909 ['1', '48', '5', '46'] 1192.0454545454543
105 23.84090909090909 ['1', '48', '5', '46'] 1192.0454545454543
106 23.84090909090909 ['1', '48', '5', '46'] 1192.0454545454543
107 23.84090909090909 ['1', '48', '5', '46'] 1192.0454545454543
108 23.84090909090909 ['1', '48', '5', '46'] 1192.0454545454543
109 23.84090909090909 ['1', '48', '5', '46'] 1192.0454545454543
110 23.84090909090909 ['1', '48', '5', '46'] 1192.0454545454543
111 23.84090909090909 ['1', '48', '5', '46'] 1192.0454545454543
112 23.84090909090909 ['1', '48', '5', '46'] 1192.0454545454543
113 23.84090909090909 ['1', '48', '5', '46'] 1192.0454545454543
114 23.84090909090909 ['1', '48', '5', '46'] 1192.0454545454543
115 23.84090909090909 ['1', '48', '5', '46'] 1192.0454545454543
116 23.84090909090909 ['1', '48', '5', '46'] 1192.0454545454543
117 23.84090909090909 ['1', '48', '5', '46'] 1192.0454545454543
118 23.84090909090909 ['1', '48', '5', '46'] 1192.0454545454543
119 23.84090909090909 ['1', '48', '5', '46'] 1192.0454545454543
120 23.84090909090909 ['1', '48', '5', '46'] 1192.0454545454543
121 23.84090909090909 ['1', '48', '5', '46'] 1192.0454545454543
122 23.84090909090909 ['1', '48', '5', '46'] 1192.0454545454543
123 23.84090909090909 ['1', '48', '5', '46'] 1192.0454545454543
124 23.84090909090909 ['1', '48', '5', '46'] 1192.0454545454543
125 23.84090909090909 ['1', '48', '5', '46'] 1192.0454545454543
126 23.84090909090909 ['1', '48', '5', '46'] 1192.0454545454543
127 23.84090909090909 ['1', '48', '5', '46'] 1192.0454545454543
128 23.84090909090909 ['1', '48', '5', '46'] 1192.0454545454543
129 23.84090909090909 ['1', '48', '5', '46'] 1192.0454545454543
130 23.84090909090909 ['1', '48', '5', '46'] 1192.0454545454543
131 23.84090909090909 ['1', '48', '5', '46'] 1192.0454545454543
132 23.84090909090909 ['1', '48', '5', '46'] 1192.0454545454543
133 23.84090909090909 ['1', '48', '5', '46'] 1192.0454545454543
134 23.84090909090909 ['1', '48', '5', '46'] 1192.0454545454543
135 23.84090909090909 ['1', '48', '5', '46'] 1192.0454545454543
136 23.84090909090909 ['1', '48', '5', '46'] 1192.0454545454543
137 23.84090909090909 ['1', '48', '5', '46'] 1192.0454545454543
138 23.84090909090909 ['1', '48', '5', '46'] 1192.0454545454543
139 23.84090909090909 ['1', '48', '5', '46'] 1192.0454545454543
140 23.84090909090909 ['1', '48', '5', '46'] 1192.0454545454543
141 23.84090909090909 ['1', '48', '5', '46'] 1192.0454545454543
142 23.84090909090909 ['1', '48', '5', '46'] 1192.0454545454543
143 23.84090909090909 ['1', '48', '5', '46'] 1192.0454545454543
144 23.84090909090909 ['1', '48', '5', '46'] 1192.0454545454543
145 23.84090909090909 ['1', '48', '5', '46'] 1192.0454545454543
146 23.84090909090909 ['1', '48', '5', '46'] 1192.0454545454543
147 23.84090909090909 ['1', '48', '5', '46'] 1192.0454545454543
148 23.84090909090909 ['1', '48', '5', '46'] 1192.0454545454543
149 23.84090909090909 ['1', '48', '5', '46'] 1192.0454545454543
150 23.84090909090909 ['1', '48', '5', '46'] 1192.0454545454543
151 23.84090909090909 ['1', '48', '5', '46'] 1192.0454545454543
152 23.84090909090909 ['1', '48', '5', '46'] 1192.0454545454543
153 23.84090909090909 ['1', '48', '5', '46'] 1192.0454545454543
154 23.84090909090909 ['1', '48', '5', '46'] 1192.0454545454543
155 23.84090909090909 ['1', '48', '5', '46'] 1192.0454545454543
156 23.84090909090909 ['1', '48', '5', '46'] 1192.0454545454543
157 23.84090909090909 ['1', '48', '5', '46'] 1192.0454545454543
158 23.84090909090909 ['1', '48', '5', '46'] 1192.0454545454543
159 23.84090909090909 ['1', '48', '5', '46'] 1192.0454545454543
160 23.84090909090909 ['1', '48', '5', '46'] 1192.0454545454543
161 23.84090909090909 ['1', '48', '5', '46'] 1192.0454545454543
162 23.84090909090909 ['1', '48', '5', '46'] 1192.0454545454543
163 23.84090909090909 ['1', '48', '5', '46'] 1192.0454545454543
164 23.84090909090909 ['1', '48', '5', '46'] 1192.0454545454543
165 23.84090909090909 ['1', '48', '5', '46'] 1192.0454545454543
166 23.84090909090909 ['1', '48', '5', '46'] 1192.0454545454543
167 23.84090909090909 ['1', '48', '5', '46'] 1192.0454545454543
168 23.84090909090909 ['1', '48', '5', '46'] 1192.0454545454543
169 23.84090909090909 ['1', '48', '5', '46'] 1192.0454545454543
170 23.84090909090909 ['1', '48', '5', '46'] 1192.0454545454543
171 23.84090909090909 ['1', '48', '5', '46'] 1192.0454545454543
172 23.84090909090909 ['1', '48', '5', '46'] 1192.0454545454543
173 23.84090909090909 ['1', '48', '5', '46'] 1192.0454545454543
174 23.84090909090909 ['1', '48', '5', '46'] 1192.0454545454543
175 23.84090909090909 ['1', '48', '5', '46'] 1192.0454545454543
176 23.84090909090909 ['1', '48', '5', '46'] 1192.0454545454543
177 23.84090909090909 ['1', '48', '5', '46'] 1192.0454545454543
178 23.84090909090909 ['1', '48', '5', '46'] 1192.0454545454543
179 23.84090909090909 ['1', '48', '5', '46'] 1192.0454545454543
180 23.84090909090909 ['1', '48', '5', '46'] 1192.0454545454543
181 23.84090909090909 ['1', '48', '5', '46'] 1192.0454545454543
182 23.84090909090909 ['1', '48', '5', '46'] 1192.0454545454543
183 23.84090909090909 ['1', '48', '5', '46'] 1192.0454545454543
184 23.84090909090909 ['1', '48', '5', '46'] 1192.0454545454543
185 23.84090909090909 ['1', '48', '5', '46'] 1192.0454545454543
186 23.84090909090909 ['1', '48', '5', '46'] 1192.0454545454543
187 23.84090909090909 ['1', '48', '5', '46'] 1192.0454545454543
188 23.84090909090909 ['1', '48', '5', '46'] 1192.0454545454543
189 23.84090909090909 ['1', '48', '5', '46'] 1192.0454545454543
190 23.84090909090909 ['1', '48', '5', '46'] 1192.0454545454543
191 23.84090909090909 ['1', '48', '5', '46'] 1192.0454545454543
192 23.84090909090909 ['1', '48', '5', '46'] 1192.0454545454543
193 23.84090909090909 ['1', '48', '5', '46'] 1192.0454545454543
194 23.84090909090909 ['1', '48', '5', '46'] 1192.0454545454543
195 23.84090909090909 ['1', '48', '5', '46'] 1192.0454545454543
196 23.84090909090909 ['1', '48', '5', '46'] 1192.0454545454543
197 23.84090909090909 ['1', '48', '5', '46'] 1192.0454545454543
198 23.84090909090909 ['1', '48', '5', '46'] 1192.0454545454543
199 23.84090909090909 ['1', '48', '5', '46'] 1192.0454545454543
