0 5.159753086419758 ['140', '99', '116', '134', '108', '80', '148', '138', '64', '139', '51', '61', '84', '28', '6'] 261.71370370370386
1 5.155679012345683 ['108', '99', '135', '22', '43', '70', '122', '136', '141', '28', '15', '142', '137', '140', '105'] 260.34493827160514
2 5.117037037037039 ['133', '120', '102', '75', '136', '38', '115', '83', '34', '116', '131', '63', '80', '117', '145'] 258.87111111111125
3 5.105802469135805 ['138', '48', '141', '117', '70', '102', '147', '131', '8', '115', '98', '135', '15', '142', '106'] 258.03876543209884
4 5.049506172839507 ['140', '101', '145', '141', '142', '120', '137', '12', '106', '133', '144', '11', '96', '117', '15'] 256.9055555555557
5 5.032345679012348 ['140', '80', '141', '116', '142', '61', '149', '15', '111', '46', '102', '101', '92', '145', '139'] 255.8139506172841
6 4.994814814814818 ['15', '135', '142', '102', '98', '148', '101', '149', '138', '120', '147', '48', '80', '115', '134'] 254.58419753086423
7 4.994814814814818 ['15', '135', '142', '102', '98', '148', '101', '149', '138', '120', '147', '48', '80', '115', '134'] 253.17444444444462
8 4.990123456790126 ['142', '135', '147', '98', '102', '138', '15', '137', '130', '70', '148', '106', '149', '120', '141'] 251.75913580246925
9 4.961111111111117 ['98', '134', '15', '135', '80', '48', '148', '142', '102', '131', '101', '113', '141', '147', '138'] 250.75888888888898
10 4.939629629629634 ['102', '141', '15', '70', '142', '148', '137', '80', '71', '120', '147', '130', '135', '134', '101'] 249.82975308641997
11 4.919506172839509 ['148', '102', '142', '15', '138', '101', '141', '120', '140', '135', '80', '134', '149', '61', '147'] 248.75950617283968
12 4.870123456790124 ['101', '142', '15', '102', '120', '135', '147', '134', '80', '148', '140', '144', '138', '111', '141'] 247.72234567901245
13 4.870123456790124 ['101', '142', '15', '102', '120', '135', '147', '134', '80', '148', '140', '144', '138', '111', '141'] 246.6067901234569
14 4.839259259259263 ['137', '147', '142', '138', '134', '135', '102', '101', '148', '15', '141', '80', '143', '140', '120'] 245.40975308641984
15 4.836172839506175 ['142', '120', '148', '144', '15', '102', '147', '141', '80', '135', '101', '140', '137', '134', '138'] 244.28555555555573
16 4.836172839506175 ['142', '120', '148', '144', '15', '102', '147', '141', '80', '135', '101', '140', '137', '134', '138'] 243.2507407407409
17 4.836172839506175 ['142', '120', '148', '144', '15', '102', '147', '141', '80', '135', '101', '140', '137', '134', '138'] 242.47098765432125
18 4.833333333333335 ['140', '15', '137', '138', '141', '147', '101', '144', '142', '102', '80', '135', '148', '143', '134'] 241.95888888888885
19 4.833333333333335 ['140', '15', '137', '138', '141', '147', '101', '144', '142', '102', '80', '135', '148', '143', '134'] 241.8722222222222
20 4.833333333333335 ['140', '15', '137', '138', '141', '147', '101', '144', '142', '102', '80', '135', '148', '143', '134'] 241.82160493827183
21 4.833333333333335 ['140', '15', '137', '138', '141', '147', '101', '144', '142', '102', '80', '135', '148', '143', '134'] 241.77728395061717
22 4.833333333333335 ['140', '15', '137', '138', '141', '147', '101', '144', '142', '102', '80', '135', '148', '143', '134'] 241.73765432098736
23 4.833333333333335 ['140', '15', '137', '138', '141', '147', '101', '144', '142', '102', '80', '135', '148', '143', '134'] 241.66666666666686
24 4.833333333333335 ['140', '15', '137', '138', '141', '147', '101', '144', '142', '102', '80', '135', '148', '143', '134'] 241.66666666666686
25 4.833333333333335 ['140', '15', '137', '138', '141', '147', '101', '144', '142', '102', '80', '135', '148', '143', '134'] 241.66666666666686
26 4.833333333333335 ['140', '15', '137', '138', '141', '147', '101', '144', '142', '102', '80', '135', '148', '143', '134'] 241.66666666666686
27 4.833333333333335 ['140', '15', '137', '138', '141', '147', '101', '144', '142', '102', '80', '135', '148', '143', '134'] 241.66666666666686
28 4.833333333333335 ['140', '15', '137', '138', '141', '147', '101', '144', '142', '102', '80', '135', '148', '143', '134'] 241.66666666666686
29 4.833333333333335 ['140', '15', '137', '138', '141', '147', '101', '144', '142', '102', '80', '135', '148', '143', '134'] 241.66666666666686
30 4.833333333333335 ['140', '15', '137', '138', '141', '147', '101', '144', '142', '102', '80', '135', '148', '143', '134'] 241.66666666666686
31 4.833333333333335 ['140', '15', '137', '138', '141', '147', '101', '144', '142', '102', '80', '135', '148', '143', '134'] 241.66666666666686
32 4.833333333333335 ['140', '15', '137', '138', '141', '147', '101', '144', '142', '102', '80', '135', '148', '143', '134'] 241.66666666666686
33 4.833333333333335 ['140', '15', '137', '138', '141', '147', '101', '144', '142', '102', '80', '135', '148', '143', '134'] 241.66666666666686
34 4.833333333333335 ['140', '15', '137', '138', '141', '147', '101', '144', '142', '102', '80', '135', '148', '143', '134'] 241.66666666666686
35 4.833333333333335 ['140', '15', '137', '138', '141', '147', '101', '144', '142', '102', '80', '135', '148', '143', '134'] 241.66666666666686
36 4.833333333333335 ['140', '15', '137', '138', '141', '147', '101', '144', '142', '102', '80', '135', '148', '143', '134'] 241.66666666666686
37 4.833333333333335 ['140', '15', '137', '138', '141', '147', '101', '144', '142', '102', '80', '135', '148', '143', '134'] 241.66666666666686
38 4.833333333333335 ['140', '15', '137', '138', '141', '147', '101', '144', '142', '102', '80', '135', '148', '143', '134'] 241.66666666666686
39 4.833333333333335 ['140', '15', '137', '138', '141', '147', '101', '144', '142', '102', '80', '135', '148', '143', '134'] 241.66666666666686
40 4.833333333333335 ['140', '15', '137', '138', '141', '147', '101', '144', '142', '102', '80', '135', '148', '143', '134'] 241.66666666666686
41 4.833333333333335 ['140', '15', '137', '138', '141', '147', '101', '144', '142', '102', '80', '135', '148', '143', '134'] 241.66666666666686
42 4.833333333333335 ['140', '15', '137', '138', '141', '147', '101', '144', '142', '102', '80', '135', '148', '143', '134'] 241.66666666666686
43 4.833333333333335 ['140', '15', '137', '138', '141', '147', '101', '144', '142', '102', '80', '135', '148', '143', '134'] 241.66666666666686
44 4.833333333333335 ['140', '15', '137', '138', '141', '147', '101', '144', '142', '102', '80', '135', '148', '143', '134'] 241.66666666666686
45 4.833333333333335 ['140', '15', '137', '138', '141', '147', '101', '144', '142', '102', '80', '135', '148', '143', '134'] 241.66666666666686
46 4.833333333333335 ['140', '15', '137', '138', '141', '147', '101', '144', '142', '102', '80', '135', '148', '143', '134'] 241.66666666666686
47 4.833333333333335 ['140', '15', '137', '138', '141', '147', '101', '144', '142', '102', '80', '135', '148', '143', '134'] 241.66666666666686
48 4.833333333333335 ['140', '15', '137', '138', '141', '147', '101', '144', '142', '102', '80', '135', '148', '143', '134'] 241.66666666666686
49 4.833333333333335 ['140', '15', '137', '138', '141', '147', '101', '144', '142', '102', '80', '135', '148', '143', '134'] 241.66666666666686
50 4.833333333333335 ['140', '15', '137', '138', '141', '147', '101', '144', '142', '102', '80', '135', '148', '143', '134'] 241.66666666666686
51 4.833333333333335 ['140', '15', '137', '138', '141', '147', '101', '144', '142', '102', '80', '135', '148', '143', '134'] 241.66666666666686
52 4.833333333333335 ['140', '15', '137', '138', '141', '147', '101', '144', '142', '102', '80', '135', '148', '143', '134'] 241.66666666666686
53 4.833333333333335 ['140', '15', '137', '138', '141', '147', '101', '144', '142', '102', '80', '135', '148', '143', '134'] 241.66666666666686
54 4.833333333333335 ['140', '15', '137', '138', '141', '147', '101', '144', '142', '102', '80', '135', '148', '143', '134'] 241.66666666666686
55 4.833333333333335 ['140', '15', '137', '138', '141', '147', '101', '144', '142', '102', '80', '135', '148', '143', '134'] 241.66666666666686
56 4.833333333333335 ['140', '15', '137', '138', '141', '147', '101', '144', '142', '102', '80', '135', '148', '143', '134'] 241.66666666666686
57 4.833333333333335 ['140', '15', '137', '138', '141', '147', '101', '144', '142', '102', '80', '135', '148', '143', '134'] 241.66666666666686
58 4.833333333333335 ['140', '15', '137', '138', '141', '147', '101', '144', '142', '102', '80', '135', '148', '143', '134'] 241.66666666666686
59 4.833333333333335 ['140', '15', '137', '138', '141', '147', '101', '144', '142', '102', '80', '135', '148', '143', '134'] 241.66666666666686
60 4.833333333333335 ['140', '15', '137', '138', '141', '147', '101', '144', '142', '102', '80', '135', '148', '143', '134'] 241.66666666666686
61 4.833333333333335 ['140', '15', '137', '138', '141', '147', '101', '144', '142', '102', '80', '135', '148', '143', '134'] 241.66666666666686
62 4.833333333333335 ['140', '15', '137', '138', '141', '147', '101', '144', '142', '102', '80', '135', '148', '143', '134'] 241.66666666666686
63 4.833333333333335 ['140', '15', '137', '138', '141', '147', '101', '144', '142', '102', '80', '135', '148', '143', '134'] 241.66666666666686
64 4.833333333333335 ['140', '15', '137', '138', '141', '147', '101', '144', '142', '102', '80', '135', '148', '143', '134'] 241.66666666666686
65 4.833333333333335 ['140', '15', '137', '138', '141', '147', '101', '144', '142', '102', '80', '135', '148', '143', '134'] 241.66666666666686
66 4.833333333333335 ['140', '15', '137', '138', '141', '147', '101', '144', '142', '102', '80', '135', '148', '143', '134'] 241.66666666666686
67 4.833333333333335 ['140', '15', '137', '138', '141', '147', '101', '144', '142', '102', '80', '135', '148', '143', '134'] 241.66666666666686
68 4.833333333333335 ['140', '15', '137', '138', '141', '147', '101', '144', '142', '102', '80', '135', '148', '143', '134'] 241.66666666666686
69 4.833333333333335 ['140', '15', '137', '138', '141', '147', '101', '144', '142', '102', '80', '135', '148', '143', '134'] 241.66666666666686
70 4.833333333333335 ['140', '15', '137', '138', '141', '147', '101', '144', '142', '102', '80', '135', '148', '143', '134'] 241.66666666666686
71 4.833333333333335 ['140', '15', '137', '138', '141', '147', '101', '144', '142', '102', '80', '135', '148', '143', '134'] 241.66666666666686
72 4.833333333333335 ['140', '15', '137', '138', '141', '147', '101', '144', '142', '102', '80', '135', '148', '143', '134'] 241.66666666666686
73 4.833333333333335 ['140', '15', '137', '138', '141', '147', '101', '144', '142', '102', '80', '135', '148', '143', '134'] 241.66666666666686
74 4.833333333333335 ['140', '15', '137', '138', '141', '147', '101', '144', '142', '102', '80', '135', '148', '143', '134'] 241.66666666666686
75 4.833333333333335 ['140', '15', '137', '138', '141', '147', '101', '144', '142', '102', '80', '135', '148', '143', '134'] 241.66666666666686
76 4.833333333333335 ['140', '15', '137', '138', '141', '147', '101', '144', '142', '102', '80', '135', '148', '143', '134'] 241.66666666666686
77 4.833333333333335 ['140', '15', '137', '138', '141', '147', '101', '144', '142', '102', '80', '135', '148', '143', '134'] 241.66666666666686
78 4.833333333333335 ['140', '15', '137', '138', '141', '147', '101', '144', '142', '102', '80', '135', '148', '143', '134'] 241.66666666666686
79 4.833333333333335 ['140', '15', '137', '138', '141', '147', '101', '144', '142', '102', '80', '135', '148', '143', '134'] 241.66666666666686
80 4.833333333333335 ['140', '15', '137', '138', '141', '147', '101', '144', '142', '102', '80', '135', '148', '143', '134'] 241.66666666666686
81 4.833333333333335 ['140', '15', '137', '138', '141', '147', '101', '144', '142', '102', '80', '135', '148', '143', '134'] 241.66666666666686
82 4.833333333333335 ['140', '15', '137', '138', '141', '147', '101', '144', '142', '102', '80', '135', '148', '143', '134'] 241.66666666666686
83 4.833333333333335 ['140', '15', '137', '138', '141', '147', '101', '144', '142', '102', '80', '135', '148', '143', '134'] 241.66666666666686
84 4.833333333333335 ['140', '15', '137', '138', '141', '147', '101', '144', '142', '102', '80', '135', '148', '143', '134'] 241.66666666666686
85 4.833333333333335 ['140', '15', '137', '138', '141', '147', '101', '144', '142', '102', '80', '135', '148', '143', '134'] 241.66666666666686
86 4.833333333333335 ['140', '15', '137', '138', '141', '147', '101', '144', '142', '102', '80', '135', '148', '143', '134'] 241.66666666666686
87 4.833333333333335 ['140', '15', '137', '138', '141', '147', '101', '144', '142', '102', '80', '135', '148', '143', '134'] 241.66666666666686
88 4.833333333333335 ['140', '15', '137', '138', '141', '147', '101', '144', '142', '102', '80', '135', '148', '143', '134'] 241.66666666666686
89 4.833333333333335 ['140', '15', '137', '138', '141', '147', '101', '144', '142', '102', '80', '135', '148', '143', '134'] 241.66666666666686
90 4.833333333333335 ['140', '15', '137', '138', '141', '147', '101', '144', '142', '102', '80', '135', '148', '143', '134'] 241.66666666666686
91 4.833333333333335 ['140', '15', '137', '138', '141', '147', '101', '144', '142', '102', '80', '135', '148', '143', '134'] 241.66666666666686
92 4.833333333333335 ['140', '15', '137', '138', '141', '147', '101', '144', '142', '102', '80', '135', '148', '143', '134'] 241.66666666666686
93 4.833333333333335 ['140', '15', '137', '138', '141', '147', '101', '144', '142', '102', '80', '135', '148', '143', '134'] 241.66666666666686
94 4.833333333333335 ['140', '15', '137', '138', '141', '147', '101', '144', '142', '102', '80', '135', '148', '143', '134'] 241.66666666666686
95 4.833333333333335 ['140', '15', '137', '138', '141', '147', '101', '144', '142', '102', '80', '135', '148', '143', '134'] 241.66666666666686
96 4.833333333333335 ['140', '15', '137', '138', '141', '147', '101', '144', '142', '102', '80', '135', '148', '143', '134'] 241.66666666666686
97 4.833333333333335 ['140', '15', '137', '138', '141', '147', '101', '144', '142', '102', '80', '135', '148', '143', '134'] 241.66666666666686
98 4.833333333333335 ['140', '15', '137', '138', '141', '147', '101', '144', '142', '102', '80', '135', '148', '143', '134'] 241.66666666666686
99 4.833333333333335 ['140', '15', '137', '138', '141', '147', '101', '144', '142', '102', '80', '135', '148', '143', '134'] 241.66666666666686
100 4.833333333333335 ['140', '15', '137', '138', '141', '147', '101', '144', '142', '102', '80', '135', '148', '143', '134'] 241.66666666666686
101 4.833333333333335 ['140', '15', '137', '138', '141', '147', '101', '144', '142', '102', '80', '135', '148', '143', '134'] 241.66666666666686
102 4.833333333333335 ['140', '15', '137', '138', '141', '147', '101', '144', '142', '102', '80', '135', '148', '143', '134'] 241.66666666666686
103 4.833333333333335 ['140', '15', '137', '138', '141', '147', '101', '144', '142', '102', '80', '135', '148', '143', '134'] 241.66666666666686
104 4.833333333333335 ['140', '15', '137', '138', '141', '147', '101', '144', '142', '102', '80', '135', '148', '143', '134'] 241.66666666666686
105 4.833333333333335 ['140', '15', '137', '138', '141', '147', '101', '144', '142', '102', '80', '135', '148', '143', '134'] 241.66666666666686
106 4.833333333333335 ['140', '15', '137', '138', '141', '147', '101', '144', '142', '102', '80', '135', '148', '143', '134'] 241.66666666666686
107 4.833333333333335 ['140', '15', '137', '138', '141', '147', '101', '144', '142', '102', '80', '135', '148', '143', '134'] 241.66666666666686
108 4.833333333333335 ['140', '15', '137', '138', '141', '147', '101', '144', '142', '102', '80', '135', '148', '143', '134'] 241.66666666666686
109 4.833333333333335 ['140', '15', '137', '138', '141', '147', '101', '144', '142', '102', '80', '135', '148', '143', '134'] 241.66666666666686
110 4.833333333333335 ['140', '15', '137', '138', '141', '147', '101', '144', '142', '102', '80', '135', '148', '143', '134'] 241.66666666666686
111 4.833333333333335 ['140', '15', '137', '138', '141', '147', '101', '144', '142', '102', '80', '135', '148', '143', '134'] 241.66666666666686
112 4.833333333333335 ['140', '15', '137', '138', '141', '147', '101', '144', '142', '102', '80', '135', '148', '143', '134'] 241.66666666666686
113 4.833333333333335 ['140', '15', '137', '138', '141', '147', '101', '144', '142', '102', '80', '135', '148', '143', '134'] 241.66666666666686
114 4.833333333333335 ['140', '15', '137', '138', '141', '147', '101', '144', '142', '102', '80', '135', '148', '143', '134'] 241.66666666666686
115 4.833333333333335 ['140', '15', '137', '138', '141', '147', '101', '144', '142', '102', '80', '135', '148', '143', '134'] 241.66666666666686
116 4.833333333333335 ['140', '15', '137', '138', '141', '147', '101', '144', '142', '102', '80', '135', '148', '143', '134'] 241.66666666666686
117 4.833333333333335 ['140', '15', '137', '138', '141', '147', '101', '144', '142', '102', '80', '135', '148', '143', '134'] 241.66666666666686
118 4.833333333333335 ['140', '15', '137', '138', '141', '147', '101', '144', '142', '102', '80', '135', '148', '143', '134'] 241.66666666666686
119 4.833333333333335 ['140', '15', '137', '138', '141', '147', '101', '144', '142', '102', '80', '135', '148', '143', '134'] 241.66666666666686
120 4.833333333333335 ['140', '15', '137', '138', '141', '147', '101', '144', '142', '102', '80', '135', '148', '143', '134'] 241.66666666666686
121 4.833333333333335 ['140', '15', '137', '138', '141', '147', '101', '144', '142', '102', '80', '135', '148', '143', '134'] 241.66666666666686
122 4.833333333333335 ['140', '15', '137', '138', '141', '147', '101', '144', '142', '102', '80', '135', '148', '143', '134'] 241.66666666666686
123 4.833333333333335 ['140', '15', '137', '138', '141', '147', '101', '144', '142', '102', '80', '135', '148', '143', '134'] 241.66666666666686
124 4.833333333333335 ['140', '15', '137', '138', '141', '147', '101', '144', '142', '102', '80', '135', '148', '143', '134'] 241.66666666666686
125 4.833333333333335 ['140', '15', '137', '138', '141', '147', '101', '144', '142', '102', '80', '135', '148', '143', '134'] 241.66666666666686
126 4.833333333333335 ['140', '15', '137', '138', '141', '147', '101', '144', '142', '102', '80', '135', '148', '143', '134'] 241.66666666666686
127 4.833333333333335 ['140', '15', '137', '138', '141', '147', '101', '144', '142', '102', '80', '135', '148', '143', '134'] 241.66666666666686
128 4.833333333333335 ['140', '15', '137', '138', '141', '147', '101', '144', '142', '102', '80', '135', '148', '143', '134'] 241.66666666666686
129 4.833333333333335 ['140', '15', '137', '138', '141', '147', '101', '144', '142', '102', '80', '135', '148', '143', '134'] 241.66666666666686
130 4.833333333333335 ['140', '15', '137', '138', '141', '147', '101', '144', '142', '102', '80', '135', '148', '143', '134'] 241.66666666666686
131 4.833333333333335 ['140', '15', '137', '138', '141', '147', '101', '144', '142', '102', '80', '135', '148', '143', '134'] 241.66666666666686
132 4.833333333333335 ['140', '15', '137', '138', '141', '147', '101', '144', '142', '102', '80', '135', '148', '143', '134'] 241.66666666666686
133 4.833333333333335 ['140', '15', '137', '138', '141', '147', '101', '144', '142', '102', '80', '135', '148', '143', '134'] 241.66666666666686
134 4.833333333333335 ['140', '15', '137', '138', '141', '147', '101', '144', '142', '102', '80', '135', '148', '143', '134'] 241.66666666666686
135 4.833333333333335 ['140', '15', '137', '138', '141', '147', '101', '144', '142', '102', '80', '135', '148', '143', '134'] 241.66666666666686
136 4.833333333333335 ['140', '15', '137', '138', '141', '147', '101', '144', '142', '102', '80', '135', '148', '143', '134'] 241.66666666666686
137 4.833333333333335 ['140', '15', '137', '138', '141', '147', '101', '144', '142', '102', '80', '135', '148', '143', '134'] 241.66666666666686
138 4.833333333333335 ['140', '15', '137', '138', '141', '147', '101', '144', '142', '102', '80', '135', '148', '143', '134'] 241.66666666666686
139 4.833333333333335 ['140', '15', '137', '138', '141', '147', '101', '144', '142', '102', '80', '135', '148', '143', '134'] 241.66666666666686
140 4.833333333333335 ['140', '15', '137', '138', '141', '147', '101', '144', '142', '102', '80', '135', '148', '143', '134'] 241.66666666666686
141 4.833333333333335 ['140', '15', '137', '138', '141', '147', '101', '144', '142', '102', '80', '135', '148', '143', '134'] 241.66666666666686
142 4.833333333333335 ['140', '15', '137', '138', '141', '147', '101', '144', '142', '102', '80', '135', '148', '143', '134'] 241.66666666666686
143 4.833333333333335 ['140', '15', '137', '138', '141', '147', '101', '144', '142', '102', '80', '135', '148', '143', '134'] 241.66666666666686
144 4.833333333333335 ['140', '15', '137', '138', '141', '147', '101', '144', '142', '102', '80', '135', '148', '143', '134'] 241.66666666666686
145 4.833333333333335 ['140', '15', '137', '138', '141', '147', '101', '144', '142', '102', '80', '135', '148', '143', '134'] 241.66666666666686
146 4.833333333333335 ['140', '15', '137', '138', '141', '147', '101', '144', '142', '102', '80', '135', '148', '143', '134'] 241.66666666666686
147 4.833333333333335 ['140', '15', '137', '138', '141', '147', '101', '144', '142', '102', '80', '135', '148', '143', '134'] 241.66666666666686
148 4.833333333333335 ['140', '15', '137', '138', '141', '147', '101', '144', '142', '102', '80', '135', '148', '143', '134'] 241.66666666666686
149 4.833333333333335 ['140', '15', '137', '138', '141', '147', '101', '144', '142', '102', '80', '135', '148', '143', '134'] 241.66666666666686
150 4.833333333333335 ['140', '15', '137', '138', '141', '147', '101', '144', '142', '102', '80', '135', '148', '143', '134'] 241.66666666666686
151 4.833333333333335 ['140', '15', '137', '138', '141', '147', '101', '144', '142', '102', '80', '135', '148', '143', '134'] 241.66666666666686
152 4.833333333333335 ['140', '15', '137', '138', '141', '147', '101', '144', '142', '102', '80', '135', '148', '143', '134'] 241.66666666666686
153 4.833333333333335 ['140', '15', '137', '138', '141', '147', '101', '144', '142', '102', '80', '135', '148', '143', '134'] 241.66666666666686
154 4.833333333333335 ['140', '15', '137', '138', '141', '147', '101', '144', '142', '102', '80', '135', '148', '143', '134'] 241.66666666666686
155 4.833333333333335 ['140', '15', '137', '138', '141', '147', '101', '144', '142', '102', '80', '135', '148', '143', '134'] 241.66666666666686
156 4.833333333333335 ['140', '15', '137', '138', '141', '147', '101', '144', '142', '102', '80', '135', '148', '143', '134'] 241.66666666666686
157 4.833333333333335 ['140', '15', '137', '138', '141', '147', '101', '144', '142', '102', '80', '135', '148', '143', '134'] 241.66666666666686
158 4.833333333333335 ['140', '15', '137', '138', '141', '147', '101', '144', '142', '102', '80', '135', '148', '143', '134'] 241.66666666666686
159 4.833333333333335 ['140', '15', '137', '138', '141', '147', '101', '144', '142', '102', '80', '135', '148', '143', '134'] 241.66666666666686
160 4.833333333333335 ['140', '15', '137', '138', '141', '147', '101', '144', '142', '102', '80', '135', '148', '143', '134'] 241.66666666666686
161 4.833333333333335 ['140', '15', '137', '138', '141', '147', '101', '144', '142', '102', '80', '135', '148', '143', '134'] 241.66666666666686
162 4.833333333333335 ['140', '15', '137', '138', '141', '147', '101', '144', '142', '102', '80', '135', '148', '143', '134'] 241.66666666666686
163 4.833333333333335 ['140', '15', '137', '138', '141', '147', '101', '144', '142', '102', '80', '135', '148', '143', '134'] 241.66666666666686
164 4.833333333333335 ['140', '15', '137', '138', '141', '147', '101', '144', '142', '102', '80', '135', '148', '143', '134'] 241.66666666666686
165 4.833333333333335 ['140', '15', '137', '138', '141', '147', '101', '144', '142', '102', '80', '135', '148', '143', '134'] 241.66666666666686
166 4.833333333333335 ['140', '15', '137', '138', '141', '147', '101', '144', '142', '102', '80', '135', '148', '143', '134'] 241.66666666666686
167 4.833333333333335 ['140', '15', '137', '138', '141', '147', '101', '144', '142', '102', '80', '135', '148', '143', '134'] 241.66666666666686
168 4.833333333333335 ['140', '15', '137', '138', '141', '147', '101', '144', '142', '102', '80', '135', '148', '143', '134'] 241.66666666666686
169 4.833333333333335 ['140', '15', '137', '138', '141', '147', '101', '144', '142', '102', '80', '135', '148', '143', '134'] 241.66666666666686
170 4.833333333333335 ['140', '15', '137', '138', '141', '147', '101', '144', '142', '102', '80', '135', '148', '143', '134'] 241.66666666666686
171 4.833333333333335 ['140', '15', '137', '138', '141', '147', '101', '144', '142', '102', '80', '135', '148', '143', '134'] 241.66666666666686
172 4.833333333333335 ['140', '15', '137', '138', '141', '147', '101', '144', '142', '102', '80', '135', '148', '143', '134'] 241.66666666666686
173 4.833333333333335 ['140', '15', '137', '138', '141', '147', '101', '144', '142', '102', '80', '135', '148', '143', '134'] 241.66666666666686
174 4.833333333333335 ['140', '15', '137', '138', '141', '147', '101', '144', '142', '102', '80', '135', '148', '143', '134'] 241.66666666666686
175 4.833333333333335 ['140', '15', '137', '138', '141', '147', '101', '144', '142', '102', '80', '135', '148', '143', '134'] 241.66666666666686
176 4.833333333333335 ['140', '15', '137', '138', '141', '147', '101', '144', '142', '102', '80', '135', '148', '143', '134'] 241.66666666666686
177 4.833333333333335 ['140', '15', '137', '138', '141', '147', '101', '144', '142', '102', '80', '135', '148', '143', '134'] 241.66666666666686
178 4.833333333333335 ['140', '15', '137', '138', '141', '147', '101', '144', '142', '102', '80', '135', '148', '143', '134'] 241.66666666666686
179 4.833333333333335 ['140', '15', '137', '138', '141', '147', '101', '144', '142', '102', '80', '135', '148', '143', '134'] 241.66666666666686
180 4.833333333333335 ['140', '15', '137', '138', '141', '147', '101', '144', '142', '102', '80', '135', '148', '143', '134'] 241.66666666666686
181 4.833333333333335 ['140', '15', '137', '138', '141', '147', '101', '144', '142', '102', '80', '135', '148', '143', '134'] 241.66666666666686
182 4.833333333333335 ['140', '15', '137', '138', '141', '147', '101', '144', '142', '102', '80', '135', '148', '143', '134'] 241.66666666666686
183 4.833333333333335 ['140', '15', '137', '138', '141', '147', '101', '144', '142', '102', '80', '135', '148', '143', '134'] 241.66666666666686
184 4.833333333333335 ['140', '15', '137', '138', '141', '147', '101', '144', '142', '102', '80', '135', '148', '143', '134'] 241.66666666666686
185 4.833333333333335 ['140', '15', '137', '138', '141', '147', '101', '144', '142', '102', '80', '135', '148', '143', '134'] 241.66666666666686
186 4.833333333333335 ['140', '15', '137', '138', '141', '147', '101', '144', '142', '102', '80', '135', '148', '143', '134'] 241.66666666666686
187 4.833333333333335 ['140', '15', '137', '138', '141', '147', '101', '144', '142', '102', '80', '135', '148', '143', '134'] 241.66666666666686
188 4.833333333333335 ['140', '15', '137', '138', '141', '147', '101', '144', '142', '102', '80', '135', '148', '143', '134'] 241.66666666666686
189 4.833333333333335 ['140', '15', '137', '138', '141', '147', '101', '144', '142', '102', '80', '135', '148', '143', '134'] 241.66666666666686
190 4.833333333333335 ['140', '15', '137', '138', '141', '147', '101', '144', '142', '102', '80', '135', '148', '143', '134'] 241.66666666666686
191 4.833333333333335 ['140', '15', '137', '138', '141', '147', '101', '144', '142', '102', '80', '135', '148', '143', '134'] 241.66666666666686
192 4.833333333333335 ['140', '15', '137', '138', '141', '147', '101', '144', '142', '102', '80', '135', '148', '143', '134'] 241.66666666666686
193 4.833333333333335 ['140', '15', '137', '138', '141', '147', '101', '144', '142', '102', '80', '135', '148', '143', '134'] 241.66666666666686
194 4.833333333333335 ['140', '15', '137', '138', '141', '147', '101', '144', '142', '102', '80', '135', '148', '143', '134'] 241.66666666666686
195 4.833333333333335 ['140', '15', '137', '138', '141', '147', '101', '144', '142', '102', '80', '135', '148', '143', '134'] 241.66666666666686
196 4.833333333333335 ['140', '15', '137', '138', '141', '147', '101', '144', '142', '102', '80', '135', '148', '143', '134'] 241.66666666666686
197 4.833333333333335 ['140', '15', '137', '138', '141', '147', '101', '144', '142', '102', '80', '135', '148', '143', '134'] 241.66666666666686
198 4.833333333333335 ['140', '15', '137', '138', '141', '147', '101', '144', '142', '102', '80', '135', '148', '143', '134'] 241.66666666666686
199 4.833333333333335 ['140', '15', '137', '138', '141', '147', '101', '144', '142', '102', '80', '135', '148', '143', '134'] 241.66666666666686
