0 14.22962962962963 ['150', '144', '22', '12', '138', '146', '114', '83', '111', '29', '45', '2', '118', '126', '122'] 732.5481481481477
1 14.2 ['53', '148', '125', '14', '78', '81', '104', '96', '146', '21', '92', '131', '139', '137', '128'] 725.8370370370369
2 14.170370370370371 ['22', '111', '126', '114', '17', '148', '73', '138', '146', '45', '150', '29', '144', '95', '139'] 720.2814814814813
3 14.066666666666666 ['101', '128', '113', '135', '140', '92', '104', '71', '148', '138', '141', '110', '124', '91', '103'] 714.681481481481
4 13.977777777777778 ['144', '114', '126', '116', '66', '95', '122', '146', '73', '87', '138', '150', '149', '117', '147'] 710.688888888889
5 13.977777777777778 ['144', '114', '126', '116', '66', '95', '122', '146', '73', '87', '138', '150', '149', '117', '147'] 707.0666666666666
6 13.748148148148148 ['126', '111', '138', '122', '118', '144', '139', '73', '147', '137', '116', '150', '117', '83', '22'] 703.1703703703706
7 13.681481481481482 ['150', '139', '126', '104', '148', '113', '83', '103', '144', '122', '114', '111', '117', '137', '141'] 698.0444444444449
8 13.503703703703703 ['146', '142', '148', '139', '126', '132', '102', '137', '114', '138', '116', '149', '118', '125', '78'] 692.8444444444441
9 13.503703703703703 ['146', '142', '148', '139', '126', '132', '102', '137', '114', '138', '116', '149', '118', '125', '78'] 687.7703703703703
10 13.488888888888889 ['149', '114', '138', '139', '126', '116', '148', '146', '125', '132', '83', '137', '142', '147', '45'] 683.5629629629635
11 13.296296296296296 ['126', '148', '125', '147', '139', '149', '140', '144', '116', '138', '146', '150', '122', '113', '114'] 679.5259259259254
12 13.296296296296296 ['126', '148', '125', '147', '139', '149', '140', '144', '116', '138', '146', '150', '122', '113', '114'] 676.392592592593
13 13.296296296296296 ['126', '148', '125', '147', '139', '149', '140', '144', '116', '138', '146', '150', '122', '113', '114'] 673.0444444444439
14 13.244444444444444 ['148', '137', '147', '139', '126', '149', '150', '138', '114', '113', '116', '135', '140', '122', '146'] 670.4592592592596
15 13.244444444444444 ['148', '137', '147', '139', '126', '149', '150', '138', '114', '113', '116', '135', '140', '122', '146'] 668.6888888888888
16 13.214814814814815 ['139', '116', '150', '125', '147', '149', '138', '148', '114', '146', '144', '126', '113', '140', '137'] 667.0148148148144
17 13.214814814814815 ['139', '116', '150', '125', '147', '149', '138', '148', '114', '146', '144', '126', '113', '140', '137'] 664.9851851851857
18 13.214814814814815 ['139', '116', '150', '125', '147', '149', '138', '148', '114', '146', '144', '126', '113', '140', '137'] 663.4222222222222
19 13.214814814814815 ['139', '116', '150', '125', '147', '149', '138', '148', '114', '146', '144', '126', '113', '140', '137'] 662.2962962962964
20 13.214814814814815 ['139', '116', '150', '125', '147', '149', '138', '148', '114', '146', '144', '126', '113', '140', '137'] 661.8666666666667
21 13.214814814814815 ['139', '116', '150', '125', '147', '149', '138', '148', '114', '146', '144', '126', '113', '140', '137'] 661.5555555555554
22 13.214814814814815 ['139', '116', '150', '125', '147', '149', '138', '148', '114', '146', '144', '126', '113', '140', '137'] 661.3037037037035
23 13.214814814814815 ['139', '116', '150', '125', '147', '149', '138', '148', '114', '146', '144', '126', '113', '140', '137'] 660.807407407407
24 13.214814814814815 ['139', '116', '150', '125', '147', '149', '138', '148', '114', '146', '144', '126', '113', '140', '137'] 660.7407407407413
25 13.214814814814815 ['139', '116', '150', '125', '147', '149', '138', '148', '114', '146', '144', '126', '113', '140', '137'] 660.7407407407413
26 13.214814814814815 ['139', '116', '150', '125', '147', '149', '138', '148', '114', '146', '144', '126', '113', '140', '137'] 660.7407407407413
27 13.214814814814815 ['139', '116', '150', '125', '147', '149', '138', '148', '114', '146', '144', '126', '113', '140', '137'] 660.7407407407413
28 13.214814814814815 ['139', '116', '150', '125', '147', '149', '138', '148', '114', '146', '144', '126', '113', '140', '137'] 660.7407407407413
29 13.214814814814815 ['139', '116', '150', '125', '147', '149', '138', '148', '114', '146', '144', '126', '113', '140', '137'] 660.7407407407413
30 13.214814814814815 ['139', '116', '150', '125', '147', '149', '138', '148', '114', '146', '144', '126', '113', '140', '137'] 660.7407407407413
31 13.214814814814815 ['139', '116', '150', '125', '147', '149', '138', '148', '114', '146', '144', '126', '113', '140', '137'] 660.7407407407413
32 13.214814814814815 ['139', '116', '150', '125', '147', '149', '138', '148', '114', '146', '144', '126', '113', '140', '137'] 660.7407407407413
33 13.214814814814815 ['139', '116', '150', '125', '147', '149', '138', '148', '114', '146', '144', '126', '113', '140', '137'] 660.7407407407413
34 13.214814814814815 ['139', '116', '150', '125', '147', '149', '138', '148', '114', '146', '144', '126', '113', '140', '137'] 660.7407407407413
35 13.214814814814815 ['139', '116', '150', '125', '147', '149', '138', '148', '114', '146', '144', '126', '113', '140', '137'] 660.7407407407413
36 13.214814814814815 ['139', '116', '150', '125', '147', '149', '138', '148', '114', '146', '144', '126', '113', '140', '137'] 660.7407407407413
37 13.214814814814815 ['139', '116', '150', '125', '147', '149', '138', '148', '114', '146', '144', '126', '113', '140', '137'] 660.7407407407413
38 13.214814814814815 ['139', '116', '150', '125', '147', '149', '138', '148', '114', '146', '144', '126', '113', '140', '137'] 660.7407407407413
39 13.214814814814815 ['139', '116', '150', '125', '147', '149', '138', '148', '114', '146', '144', '126', '113', '140', '137'] 660.7407407407413
40 13.214814814814815 ['139', '116', '150', '125', '147', '149', '138', '148', '114', '146', '144', '126', '113', '140', '137'] 660.7407407407413
41 13.214814814814815 ['139', '116', '150', '125', '147', '149', '138', '148', '114', '146', '144', '126', '113', '140', '137'] 660.7407407407413
42 13.214814814814815 ['139', '116', '150', '125', '147', '149', '138', '148', '114', '146', '144', '126', '113', '140', '137'] 660.7407407407413
43 13.214814814814815 ['139', '116', '150', '125', '147', '149', '138', '148', '114', '146', '144', '126', '113', '140', '137'] 660.7407407407413
44 13.214814814814815 ['139', '116', '150', '125', '147', '149', '138', '148', '114', '146', '144', '126', '113', '140', '137'] 660.7407407407413
45 13.214814814814815 ['139', '116', '150', '125', '147', '149', '138', '148', '114', '146', '144', '126', '113', '140', '137'] 660.7407407407413
46 13.214814814814815 ['139', '116', '150', '125', '147', '149', '138', '148', '114', '146', '144', '126', '113', '140', '137'] 660.7407407407413
47 13.214814814814815 ['139', '116', '150', '125', '147', '149', '138', '148', '114', '146', '144', '126', '113', '140', '137'] 660.7407407407413
48 13.214814814814815 ['139', '116', '150', '125', '147', '149', '138', '148', '114', '146', '144', '126', '113', '140', '137'] 660.7407407407413
49 13.214814814814815 ['139', '116', '150', '125', '147', '149', '138', '148', '114', '146', '144', '126', '113', '140', '137'] 660.7407407407413
50 13.214814814814815 ['139', '116', '150', '125', '147', '149', '138', '148', '114', '146', '144', '126', '113', '140', '137'] 660.7407407407413
51 13.214814814814815 ['139', '116', '150', '125', '147', '149', '138', '148', '114', '146', '144', '126', '113', '140', '137'] 660.7407407407413
52 13.214814814814815 ['139', '116', '150', '125', '147', '149', '138', '148', '114', '146', '144', '126', '113', '140', '137'] 660.7407407407413
53 13.214814814814815 ['139', '116', '150', '125', '147', '149', '138', '148', '114', '146', '144', '126', '113', '140', '137'] 660.7407407407413
54 13.214814814814815 ['139', '116', '150', '125', '147', '149', '138', '148', '114', '146', '144', '126', '113', '140', '137'] 660.7407407407413
55 13.214814814814815 ['139', '116', '150', '125', '147', '149', '138', '148', '114', '146', '144', '126', '113', '140', '137'] 660.7407407407413
56 13.214814814814815 ['139', '116', '150', '125', '147', '149', '138', '148', '114', '146', '144', '126', '113', '140', '137'] 660.7407407407413
57 13.214814814814815 ['139', '116', '150', '125', '147', '149', '138', '148', '114', '146', '144', '126', '113', '140', '137'] 660.7407407407413
58 13.214814814814815 ['139', '116', '150', '125', '147', '149', '138', '148', '114', '146', '144', '126', '113', '140', '137'] 660.7407407407413
59 13.214814814814815 ['139', '116', '150', '125', '147', '149', '138', '148', '114', '146', '144', '126', '113', '140', '137'] 660.7407407407413
60 13.214814814814815 ['139', '116', '150', '125', '147', '149', '138', '148', '114', '146', '144', '126', '113', '140', '137'] 660.7407407407413
61 13.214814814814815 ['139', '116', '150', '125', '147', '149', '138', '148', '114', '146', '144', '126', '113', '140', '137'] 660.7407407407413
62 13.214814814814815 ['139', '116', '150', '125', '147', '149', '138', '148', '114', '146', '144', '126', '113', '140', '137'] 660.7407407407413
63 13.214814814814815 ['139', '116', '150', '125', '147', '149', '138', '148', '114', '146', '144', '126', '113', '140', '137'] 660.7407407407413
64 13.214814814814815 ['139', '116', '150', '125', '147', '149', '138', '148', '114', '146', '144', '126', '113', '140', '137'] 660.7407407407413
65 13.214814814814815 ['139', '116', '150', '125', '147', '149', '138', '148', '114', '146', '144', '126', '113', '140', '137'] 660.7407407407413
66 13.214814814814815 ['139', '116', '150', '125', '147', '149', '138', '148', '114', '146', '144', '126', '113', '140', '137'] 660.7407407407413
67 13.214814814814815 ['139', '116', '150', '125', '147', '149', '138', '148', '114', '146', '144', '126', '113', '140', '137'] 660.7407407407413
68 13.214814814814815 ['139', '116', '150', '125', '147', '149', '138', '148', '114', '146', '144', '126', '113', '140', '137'] 660.7407407407413
69 13.214814814814815 ['139', '116', '150', '125', '147', '149', '138', '148', '114', '146', '144', '126', '113', '140', '137'] 660.7407407407413
70 13.214814814814815 ['139', '116', '150', '125', '147', '149', '138', '148', '114', '146', '144', '126', '113', '140', '137'] 660.7407407407413
71 13.214814814814815 ['139', '116', '150', '125', '147', '149', '138', '148', '114', '146', '144', '126', '113', '140', '137'] 660.7407407407413
72 13.214814814814815 ['139', '116', '150', '125', '147', '149', '138', '148', '114', '146', '144', '126', '113', '140', '137'] 660.7407407407413
73 13.214814814814815 ['139', '116', '150', '125', '147', '149', '138', '148', '114', '146', '144', '126', '113', '140', '137'] 660.7407407407413
74 13.214814814814815 ['139', '116', '150', '125', '147', '149', '138', '148', '114', '146', '144', '126', '113', '140', '137'] 660.7407407407413
75 13.214814814814815 ['139', '116', '150', '125', '147', '149', '138', '148', '114', '146', '144', '126', '113', '140', '137'] 660.7407407407413
76 13.214814814814815 ['139', '116', '150', '125', '147', '149', '138', '148', '114', '146', '144', '126', '113', '140', '137'] 660.7407407407413
77 13.214814814814815 ['139', '116', '150', '125', '147', '149', '138', '148', '114', '146', '144', '126', '113', '140', '137'] 660.7407407407413
78 13.214814814814815 ['139', '116', '150', '125', '147', '149', '138', '148', '114', '146', '144', '126', '113', '140', '137'] 660.7407407407413
79 13.214814814814815 ['139', '116', '150', '125', '147', '149', '138', '148', '114', '146', '144', '126', '113', '140', '137'] 660.7407407407413
80 13.214814814814815 ['139', '116', '150', '125', '147', '149', '138', '148', '114', '146', '144', '126', '113', '140', '137'] 660.7407407407413
81 13.214814814814815 ['139', '116', '150', '125', '147', '149', '138', '148', '114', '146', '144', '126', '113', '140', '137'] 660.7407407407413
82 13.214814814814815 ['139', '116', '150', '125', '147', '149', '138', '148', '114', '146', '144', '126', '113', '140', '137'] 660.7407407407413
83 13.214814814814815 ['139', '116', '150', '125', '147', '149', '138', '148', '114', '146', '144', '126', '113', '140', '137'] 660.7407407407413
84 13.214814814814815 ['139', '116', '150', '125', '147', '149', '138', '148', '114', '146', '144', '126', '113', '140', '137'] 660.7407407407413
85 13.214814814814815 ['139', '116', '150', '125', '147', '149', '138', '148', '114', '146', '144', '126', '113', '140', '137'] 660.7407407407413
86 13.214814814814815 ['139', '116', '150', '125', '147', '149', '138', '148', '114', '146', '144', '126', '113', '140', '137'] 660.7407407407413
87 13.214814814814815 ['139', '116', '150', '125', '147', '149', '138', '148', '114', '146', '144', '126', '113', '140', '137'] 660.7407407407413
88 13.214814814814815 ['139', '116', '150', '125', '147', '149', '138', '148', '114', '146', '144', '126', '113', '140', '137'] 660.7407407407413
89 13.214814814814815 ['139', '116', '150', '125', '147', '149', '138', '148', '114', '146', '144', '126', '113', '140', '137'] 660.7407407407413
90 13.214814814814815 ['139', '116', '150', '125', '147', '149', '138', '148', '114', '146', '144', '126', '113', '140', '137'] 660.7407407407413
91 13.214814814814815 ['139', '116', '150', '125', '147', '149', '138', '148', '114', '146', '144', '126', '113', '140', '137'] 660.7407407407413
92 13.214814814814815 ['139', '116', '150', '125', '147', '149', '138', '148', '114', '146', '144', '126', '113', '140', '137'] 660.7407407407413
93 13.214814814814815 ['139', '116', '150', '125', '147', '149', '138', '148', '114', '146', '144', '126', '113', '140', '137'] 660.7407407407413
94 13.214814814814815 ['139', '116', '150', '125', '147', '149', '138', '148', '114', '146', '144', '126', '113', '140', '137'] 660.7407407407413
95 13.214814814814815 ['139', '116', '150', '125', '147', '149', '138', '148', '114', '146', '144', '126', '113', '140', '137'] 660.7407407407413
96 13.214814814814815 ['139', '116', '150', '125', '147', '149', '138', '148', '114', '146', '144', '126', '113', '140', '137'] 660.7407407407413
97 13.214814814814815 ['139', '116', '150', '125', '147', '149', '138', '148', '114', '146', '144', '126', '113', '140', '137'] 660.7407407407413
98 13.214814814814815 ['139', '116', '150', '125', '147', '149', '138', '148', '114', '146', '144', '126', '113', '140', '137'] 660.7407407407413
99 13.214814814814815 ['139', '116', '150', '125', '147', '149', '138', '148', '114', '146', '144', '126', '113', '140', '137'] 660.7407407407413
100 13.214814814814815 ['139', '116', '150', '125', '147', '149', '138', '148', '114', '146', '144', '126', '113', '140', '137'] 660.7407407407413
101 13.214814814814815 ['139', '116', '150', '125', '147', '149', '138', '148', '114', '146', '144', '126', '113', '140', '137'] 660.7407407407413
102 13.214814814814815 ['139', '116', '150', '125', '147', '149', '138', '148', '114', '146', '144', '126', '113', '140', '137'] 660.7407407407413
103 13.214814814814815 ['139', '116', '150', '125', '147', '149', '138', '148', '114', '146', '144', '126', '113', '140', '137'] 660.7407407407413
104 13.214814814814815 ['139', '116', '150', '125', '147', '149', '138', '148', '114', '146', '144', '126', '113', '140', '137'] 660.7407407407413
105 13.214814814814815 ['139', '116', '150', '125', '147', '149', '138', '148', '114', '146', '144', '126', '113', '140', '137'] 660.7407407407413
106 13.214814814814815 ['139', '116', '150', '125', '147', '149', '138', '148', '114', '146', '144', '126', '113', '140', '137'] 660.7407407407413
107 13.214814814814815 ['139', '116', '150', '125', '147', '149', '138', '148', '114', '146', '144', '126', '113', '140', '137'] 660.7407407407413
108 13.214814814814815 ['139', '116', '150', '125', '147', '149', '138', '148', '114', '146', '144', '126', '113', '140', '137'] 660.7407407407413
109 13.214814814814815 ['139', '116', '150', '125', '147', '149', '138', '148', '114', '146', '144', '126', '113', '140', '137'] 660.7407407407413
110 13.214814814814815 ['139', '116', '150', '125', '147', '149', '138', '148', '114', '146', '144', '126', '113', '140', '137'] 660.7407407407413
111 13.214814814814815 ['139', '116', '150', '125', '147', '149', '138', '148', '114', '146', '144', '126', '113', '140', '137'] 660.7407407407413
112 13.214814814814815 ['139', '116', '150', '125', '147', '149', '138', '148', '114', '146', '144', '126', '113', '140', '137'] 660.7407407407413
113 13.214814814814815 ['139', '116', '150', '125', '147', '149', '138', '148', '114', '146', '144', '126', '113', '140', '137'] 660.7407407407413
114 13.214814814814815 ['139', '116', '150', '125', '147', '149', '138', '148', '114', '146', '144', '126', '113', '140', '137'] 660.7407407407413
115 13.214814814814815 ['139', '116', '150', '125', '147', '149', '138', '148', '114', '146', '144', '126', '113', '140', '137'] 660.7407407407413
116 13.214814814814815 ['139', '116', '150', '125', '147', '149', '138', '148', '114', '146', '144', '126', '113', '140', '137'] 660.7407407407413
117 13.214814814814815 ['139', '116', '150', '125', '147', '149', '138', '148', '114', '146', '144', '126', '113', '140', '137'] 660.7407407407413
118 13.214814814814815 ['139', '116', '150', '125', '147', '149', '138', '148', '114', '146', '144', '126', '113', '140', '137'] 660.7407407407413
119 13.214814814814815 ['139', '116', '150', '125', '147', '149', '138', '148', '114', '146', '144', '126', '113', '140', '137'] 660.7407407407413
120 13.214814814814815 ['139', '116', '150', '125', '147', '149', '138', '148', '114', '146', '144', '126', '113', '140', '137'] 660.7407407407413
121 13.214814814814815 ['139', '116', '150', '125', '147', '149', '138', '148', '114', '146', '144', '126', '113', '140', '137'] 660.7407407407413
122 13.214814814814815 ['139', '116', '150', '125', '147', '149', '138', '148', '114', '146', '144', '126', '113', '140', '137'] 660.7407407407413
123 13.214814814814815 ['139', '116', '150', '125', '147', '149', '138', '148', '114', '146', '144', '126', '113', '140', '137'] 660.7407407407413
124 13.214814814814815 ['139', '116', '150', '125', '147', '149', '138', '148', '114', '146', '144', '126', '113', '140', '137'] 660.7407407407413
125 13.214814814814815 ['139', '116', '150', '125', '147', '149', '138', '148', '114', '146', '144', '126', '113', '140', '137'] 660.7407407407413
126 13.214814814814815 ['139', '116', '150', '125', '147', '149', '138', '148', '114', '146', '144', '126', '113', '140', '137'] 660.7407407407413
127 13.214814814814815 ['139', '116', '150', '125', '147', '149', '138', '148', '114', '146', '144', '126', '113', '140', '137'] 660.7407407407413
128 13.214814814814815 ['139', '116', '150', '125', '147', '149', '138', '148', '114', '146', '144', '126', '113', '140', '137'] 660.7407407407413
129 13.214814814814815 ['139', '116', '150', '125', '147', '149', '138', '148', '114', '146', '144', '126', '113', '140', '137'] 660.7407407407413
130 13.214814814814815 ['139', '116', '150', '125', '147', '149', '138', '148', '114', '146', '144', '126', '113', '140', '137'] 660.7407407407413
131 13.214814814814815 ['139', '116', '150', '125', '147', '149', '138', '148', '114', '146', '144', '126', '113', '140', '137'] 660.7407407407413
132 13.214814814814815 ['139', '116', '150', '125', '147', '149', '138', '148', '114', '146', '144', '126', '113', '140', '137'] 660.7407407407413
133 13.214814814814815 ['139', '116', '150', '125', '147', '149', '138', '148', '114', '146', '144', '126', '113', '140', '137'] 660.7407407407413
134 13.214814814814815 ['139', '116', '150', '125', '147', '149', '138', '148', '114', '146', '144', '126', '113', '140', '137'] 660.7407407407413
135 13.214814814814815 ['139', '116', '150', '125', '147', '149', '138', '148', '114', '146', '144', '126', '113', '140', '137'] 660.7407407407413
136 13.214814814814815 ['139', '116', '150', '125', '147', '149', '138', '148', '114', '146', '144', '126', '113', '140', '137'] 660.7407407407413
137 13.214814814814815 ['139', '116', '150', '125', '147', '149', '138', '148', '114', '146', '144', '126', '113', '140', '137'] 660.7407407407413
138 13.214814814814815 ['139', '116', '150', '125', '147', '149', '138', '148', '114', '146', '144', '126', '113', '140', '137'] 660.7407407407413
139 13.214814814814815 ['139', '116', '150', '125', '147', '149', '138', '148', '114', '146', '144', '126', '113', '140', '137'] 660.7407407407413
140 13.214814814814815 ['139', '116', '150', '125', '147', '149', '138', '148', '114', '146', '144', '126', '113', '140', '137'] 660.7407407407413
141 13.214814814814815 ['139', '116', '150', '125', '147', '149', '138', '148', '114', '146', '144', '126', '113', '140', '137'] 660.7407407407413
142 13.214814814814815 ['139', '116', '150', '125', '147', '149', '138', '148', '114', '146', '144', '126', '113', '140', '137'] 660.7407407407413
143 13.214814814814815 ['139', '116', '150', '125', '147', '149', '138', '148', '114', '146', '144', '126', '113', '140', '137'] 660.7407407407413
144 13.214814814814815 ['139', '116', '150', '125', '147', '149', '138', '148', '114', '146', '144', '126', '113', '140', '137'] 660.7407407407413
145 13.214814814814815 ['139', '116', '150', '125', '147', '149', '138', '148', '114', '146', '144', '126', '113', '140', '137'] 660.7407407407413
146 13.214814814814815 ['139', '116', '150', '125', '147', '149', '138', '148', '114', '146', '144', '126', '113', '140', '137'] 660.7407407407413
147 13.214814814814815 ['139', '116', '150', '125', '147', '149', '138', '148', '114', '146', '144', '126', '113', '140', '137'] 660.7407407407413
148 13.214814814814815 ['139', '116', '150', '125', '147', '149', '138', '148', '114', '146', '144', '126', '113', '140', '137'] 660.7407407407413
149 13.214814814814815 ['139', '116', '150', '125', '147', '149', '138', '148', '114', '146', '144', '126', '113', '140', '137'] 660.7407407407413
150 13.214814814814815 ['139', '116', '150', '125', '147', '149', '138', '148', '114', '146', '144', '126', '113', '140', '137'] 660.7407407407413
151 13.214814814814815 ['139', '116', '150', '125', '147', '149', '138', '148', '114', '146', '144', '126', '113', '140', '137'] 660.7407407407413
152 13.214814814814815 ['139', '116', '150', '125', '147', '149', '138', '148', '114', '146', '144', '126', '113', '140', '137'] 660.7407407407413
153 13.214814814814815 ['139', '116', '150', '125', '147', '149', '138', '148', '114', '146', '144', '126', '113', '140', '137'] 660.7407407407413
154 13.214814814814815 ['139', '116', '150', '125', '147', '149', '138', '148', '114', '146', '144', '126', '113', '140', '137'] 660.7407407407413
155 13.214814814814815 ['139', '116', '150', '125', '147', '149', '138', '148', '114', '146', '144', '126', '113', '140', '137'] 660.7407407407413
156 13.214814814814815 ['139', '116', '150', '125', '147', '149', '138', '148', '114', '146', '144', '126', '113', '140', '137'] 660.7407407407413
157 13.214814814814815 ['139', '116', '150', '125', '147', '149', '138', '148', '114', '146', '144', '126', '113', '140', '137'] 660.7407407407413
158 13.214814814814815 ['139', '116', '150', '125', '147', '149', '138', '148', '114', '146', '144', '126', '113', '140', '137'] 660.7407407407413
159 13.214814814814815 ['139', '116', '150', '125', '147', '149', '138', '148', '114', '146', '144', '126', '113', '140', '137'] 660.7407407407413
160 13.214814814814815 ['139', '116', '150', '125', '147', '149', '138', '148', '114', '146', '144', '126', '113', '140', '137'] 660.7407407407413
161 13.214814814814815 ['139', '116', '150', '125', '147', '149', '138', '148', '114', '146', '144', '126', '113', '140', '137'] 660.7407407407413
162 13.214814814814815 ['139', '116', '150', '125', '147', '149', '138', '148', '114', '146', '144', '126', '113', '140', '137'] 660.7407407407413
163 13.214814814814815 ['139', '116', '150', '125', '147', '149', '138', '148', '114', '146', '144', '126', '113', '140', '137'] 660.7407407407413
164 13.214814814814815 ['139', '116', '150', '125', '147', '149', '138', '148', '114', '146', '144', '126', '113', '140', '137'] 660.7407407407413
165 13.214814814814815 ['139', '116', '150', '125', '147', '149', '138', '148', '114', '146', '144', '126', '113', '140', '137'] 660.7407407407413
166 13.214814814814815 ['139', '116', '150', '125', '147', '149', '138', '148', '114', '146', '144', '126', '113', '140', '137'] 660.7407407407413
167 13.214814814814815 ['139', '116', '150', '125', '147', '149', '138', '148', '114', '146', '144', '126', '113', '140', '137'] 660.7407407407413
168 13.214814814814815 ['139', '116', '150', '125', '147', '149', '138', '148', '114', '146', '144', '126', '113', '140', '137'] 660.7407407407413
169 13.214814814814815 ['139', '116', '150', '125', '147', '149', '138', '148', '114', '146', '144', '126', '113', '140', '137'] 660.7407407407413
170 13.214814814814815 ['139', '116', '150', '125', '147', '149', '138', '148', '114', '146', '144', '126', '113', '140', '137'] 660.7407407407413
171 13.214814814814815 ['139', '116', '150', '125', '147', '149', '138', '148', '114', '146', '144', '126', '113', '140', '137'] 660.7407407407413
172 13.214814814814815 ['139', '116', '150', '125', '147', '149', '138', '148', '114', '146', '144', '126', '113', '140', '137'] 660.7407407407413
173 13.214814814814815 ['139', '116', '150', '125', '147', '149', '138', '148', '114', '146', '144', '126', '113', '140', '137'] 660.7407407407413
174 13.214814814814815 ['139', '116', '150', '125', '147', '149', '138', '148', '114', '146', '144', '126', '113', '140', '137'] 660.7407407407413
175 13.214814814814815 ['139', '116', '150', '125', '147', '149', '138', '148', '114', '146', '144', '126', '113', '140', '137'] 660.7407407407413
176 13.214814814814815 ['139', '116', '150', '125', '147', '149', '138', '148', '114', '146', '144', '126', '113', '140', '137'] 660.7407407407413
177 13.214814814814815 ['139', '116', '150', '125', '147', '149', '138', '148', '114', '146', '144', '126', '113', '140', '137'] 660.7407407407413
178 13.214814814814815 ['139', '116', '150', '125', '147', '149', '138', '148', '114', '146', '144', '126', '113', '140', '137'] 660.7407407407413
179 13.214814814814815 ['139', '116', '150', '125', '147', '149', '138', '148', '114', '146', '144', '126', '113', '140', '137'] 660.7407407407413
180 13.214814814814815 ['139', '116', '150', '125', '147', '149', '138', '148', '114', '146', '144', '126', '113', '140', '137'] 660.7407407407413
181 13.214814814814815 ['139', '116', '150', '125', '147', '149', '138', '148', '114', '146', '144', '126', '113', '140', '137'] 660.7407407407413
182 13.214814814814815 ['139', '116', '150', '125', '147', '149', '138', '148', '114', '146', '144', '126', '113', '140', '137'] 660.7407407407413
183 13.214814814814815 ['139', '116', '150', '125', '147', '149', '138', '148', '114', '146', '144', '126', '113', '140', '137'] 660.7407407407413
184 13.214814814814815 ['139', '116', '150', '125', '147', '149', '138', '148', '114', '146', '144', '126', '113', '140', '137'] 660.7407407407413
185 13.214814814814815 ['139', '116', '150', '125', '147', '149', '138', '148', '114', '146', '144', '126', '113', '140', '137'] 660.7407407407413
186 13.214814814814815 ['139', '116', '150', '125', '147', '149', '138', '148', '114', '146', '144', '126', '113', '140', '137'] 660.7407407407413
187 13.214814814814815 ['139', '116', '150', '125', '147', '149', '138', '148', '114', '146', '144', '126', '113', '140', '137'] 660.7407407407413
188 13.214814814814815 ['139', '116', '150', '125', '147', '149', '138', '148', '114', '146', '144', '126', '113', '140', '137'] 660.7407407407413
189 13.214814814814815 ['139', '116', '150', '125', '147', '149', '138', '148', '114', '146', '144', '126', '113', '140', '137'] 660.7407407407413
190 13.214814814814815 ['139', '116', '150', '125', '147', '149', '138', '148', '114', '146', '144', '126', '113', '140', '137'] 660.7407407407413
191 13.214814814814815 ['139', '116', '150', '125', '147', '149', '138', '148', '114', '146', '144', '126', '113', '140', '137'] 660.7407407407413
192 13.214814814814815 ['139', '116', '150', '125', '147', '149', '138', '148', '114', '146', '144', '126', '113', '140', '137'] 660.7407407407413
193 13.214814814814815 ['139', '116', '150', '125', '147', '149', '138', '148', '114', '146', '144', '126', '113', '140', '137'] 660.7407407407413
194 13.214814814814815 ['139', '116', '150', '125', '147', '149', '138', '148', '114', '146', '144', '126', '113', '140', '137'] 660.7407407407413
195 13.214814814814815 ['139', '116', '150', '125', '147', '149', '138', '148', '114', '146', '144', '126', '113', '140', '137'] 660.7407407407413
196 13.214814814814815 ['139', '116', '150', '125', '147', '149', '138', '148', '114', '146', '144', '126', '113', '140', '137'] 660.7407407407413
197 13.214814814814815 ['139', '116', '150', '125', '147', '149', '138', '148', '114', '146', '144', '126', '113', '140', '137'] 660.7407407407413
198 13.214814814814815 ['139', '116', '150', '125', '147', '149', '138', '148', '114', '146', '144', '126', '113', '140', '137'] 660.7407407407413
199 13.214814814814815 ['139', '116', '150', '125', '147', '149', '138', '148', '114', '146', '144', '126', '113', '140', '137'] 660.7407407407413
