0 5.458765432098766 ['24', '131', '101', '111', '149', '112', '107', '10', '142', '130', '144', '104', '34', '66', '23'] 277.70950617283967
1 5.458765432098766 ['24', '131', '101', '111', '149', '112', '107', '10', '142', '130', '144', '104', '34', '66', '23'] 276.3711111111113
2 5.45098765432099 ['110', '96', '104', '115', '92', '120', '147', '131', '128', '127', '135', '49', '107', '148', '117'] 275.2558024691359
3 5.4077777777777785 ['115', '110', '73', '85', '147', '49', '142', '144', '135', '57', '38', '96', '141', '140', '145'] 274.125925925926
4 5.377530864197532 ['135', '148', '119', '141', '110', '49', '73', '92', '115', '97', '26', '89', '128', '20', '93'] 273.3245679012346
5 5.377530864197532 ['135', '148', '119', '141', '110', '49', '73', '92', '115', '97', '26', '89', '128', '20', '93'] 272.47567901234595
6 5.336172839506174 ['147', '117', '135', '148', '49', '141', '82', '137', '20', '70', '31', '39', '98', '110', '129'] 271.24469135802485
7 5.325432098765436 ['70', '110', '141', '135', '148', '49', '20', '147', '82', '89', '31', '122', '97', '98', '26'] 270.00864197530876
8 5.323456790123461 ['110', '49', '141', '148', '124', '93', '147', '101', '107', '131', '70', '98', '135', '144', '90'] 269.2282716049384
9 5.291851851851855 ['135', '147', '115', '148', '141', '89', '39', '128', '144', '137', '95', '82', '117', '93', '130'] 268.69074074074086
10 5.291851851851855 ['135', '147', '115', '148', '141', '89', '39', '128', '144', '137', '95', '82', '117', '93', '130'] 268.0845679012348
11 5.291851851851855 ['135', '147', '115', '148', '141', '89', '39', '128', '144', '137', '95', '82', '117', '93', '130'] 267.5016049382717
12 5.291851851851855 ['135', '147', '115', '148', '141', '89', '39', '128', '144', '137', '95', '82', '117', '93', '130'] 267.1232098765434
13 5.291851851851855 ['135', '147', '115', '148', '141', '89', '39', '128', '144', '137', '95', '82', '117', '93', '130'] 266.61185185185195
14 5.27876543209877 ['148', '141', '110', '93', '26', '135', '119', '130', '129', '49', '137', '144', '85', '138', '147'] 266.1397530864199
15 5.277654320987654 ['131', '148', '49', '144', '110', '89', '147', '130', '31', '124', '20', '93', '129', '123', '135'] 265.52172839506187
16 5.275679012345684 ['49', '89', '147', '135', '129', '144', '93', '148', '110', '26', '20', '141', '115', '98', '131'] 265.0901234567902
17 5.252962962962963 ['135', '93', '148', '110', '49', '20', '70', '147', '129', '141', '124', '130', '119', '137', '26'] 264.5417283950618
18 5.252962962962963 ['135', '93', '148', '110', '49', '20', '70', '147', '129', '141', '124', '130', '119', '137', '26'] 264.1354320987656
19 5.235925925925928 ['148', '89', '110', '70', '49', '135', '20', '141', '31', '123', '147', '129', '144', '93', '26'] 263.59987654321003
20 5.235925925925928 ['148', '89', '110', '70', '49', '135', '20', '141', '31', '123', '147', '129', '144', '93', '26'] 263.36975308641985
21 5.2338271604938305 ['20', '49', '129', '26', '110', '148', '135', '137', '130', '141', '144', '147', '85', '119', '131'] 263.03148148148153
22 5.205185185185185 ['70', '20', '110', '141', '135', '26', '129', '93', '148', '49', '147', '130', '123', '137', '119'] 262.57049382716053
23 5.205185185185185 ['70', '20', '110', '141', '135', '26', '129', '93', '148', '49', '147', '130', '123', '137', '119'] 262.20000000000005
24 5.205185185185185 ['70', '20', '110', '141', '135', '26', '129', '93', '148', '49', '147', '130', '123', '137', '119'] 261.65469135802476
25 5.203580246913581 ['49', '147', '144', '26', '89', '141', '135', '148', '130', '137', '129', '119', '123', '31', '20'] 261.25864197530876
26 5.18604938271605 ['137', '148', '135', '130', '26', '141', '147', '110', '49', '144', '129', '123', '31', '93', '20'] 260.85271604938265
27 5.185802469135803 ['135', '141', '130', '129', '148', '123', '137', '110', '49', '20', '147', '26', '93', '31', '119'] 260.49469135802457
28 5.185802469135803 ['135', '141', '130', '129', '148', '123', '137', '110', '49', '20', '147', '26', '93', '31', '119'] 260.0940740740741
29 5.185802469135803 ['135', '141', '130', '129', '148', '123', '137', '110', '49', '20', '147', '26', '93', '31', '119'] 259.8696296296297
30 5.185802469135803 ['135', '141', '130', '129', '148', '123', '137', '110', '49', '20', '147', '26', '93', '31', '119'] 259.61987654321007
31 5.185802469135803 ['135', '141', '130', '129', '148', '123', '137', '110', '49', '20', '147', '26', '93', '31', '119'] 259.47271604938294
32 5.185802469135803 ['135', '141', '130', '129', '148', '123', '137', '110', '49', '20', '147', '26', '93', '31', '119'] 259.29950617283953
33 5.185802469135803 ['135', '141', '130', '129', '148', '123', '137', '110', '49', '20', '147', '26', '93', '31', '119'] 259.2972839506173
34 5.185802469135803 ['135', '141', '130', '129', '148', '123', '137', '110', '49', '20', '147', '26', '93', '31', '119'] 259.29259259259277
35 5.185802469135803 ['135', '141', '130', '129', '148', '123', '137', '110', '49', '20', '147', '26', '93', '31', '119'] 259.2901234567903
36 5.185802469135803 ['135', '141', '130', '129', '148', '123', '137', '110', '49', '20', '147', '26', '93', '31', '119'] 259.2901234567903
37 5.185802469135803 ['135', '141', '130', '129', '148', '123', '137', '110', '49', '20', '147', '26', '93', '31', '119'] 259.2901234567903
38 5.185802469135803 ['135', '141', '130', '129', '148', '123', '137', '110', '49', '20', '147', '26', '93', '31', '119'] 259.2901234567903
39 5.185802469135803 ['135', '141', '130', '129', '148', '123', '137', '110', '49', '20', '147', '26', '93', '31', '119'] 259.2901234567903
40 5.185802469135803 ['135', '141', '130', '129', '148', '123', '137', '110', '49', '20', '147', '26', '93', '31', '119'] 259.2901234567903
41 5.185802469135803 ['135', '141', '130', '129', '148', '123', '137', '110', '49', '20', '147', '26', '93', '31', '119'] 259.2901234567903
42 5.185802469135803 ['135', '141', '130', '129', '148', '123', '137', '110', '49', '20', '147', '26', '93', '31', '119'] 259.2901234567903
43 5.185802469135803 ['135', '141', '130', '129', '148', '123', '137', '110', '49', '20', '147', '26', '93', '31', '119'] 259.2901234567903
44 5.185802469135803 ['135', '141', '130', '129', '148', '123', '137', '110', '49', '20', '147', '26', '93', '31', '119'] 259.2901234567903
45 5.185802469135803 ['135', '141', '130', '129', '148', '123', '137', '110', '49', '20', '147', '26', '93', '31', '119'] 259.2901234567903
46 5.185802469135803 ['135', '141', '130', '129', '148', '123', '137', '110', '49', '20', '147', '26', '93', '31', '119'] 259.2901234567903
47 5.185802469135803 ['135', '141', '130', '129', '148', '123', '137', '110', '49', '20', '147', '26', '93', '31', '119'] 259.2901234567903
48 5.185802469135803 ['135', '141', '130', '129', '148', '123', '137', '110', '49', '20', '147', '26', '93', '31', '119'] 259.2901234567903
49 5.185802469135803 ['135', '141', '130', '129', '148', '123', '137', '110', '49', '20', '147', '26', '93', '31', '119'] 259.2901234567903
50 5.185802469135803 ['135', '141', '130', '129', '148', '123', '137', '110', '49', '20', '147', '26', '93', '31', '119'] 259.2901234567903
51 5.185802469135803 ['135', '141', '130', '129', '148', '123', '137', '110', '49', '20', '147', '26', '93', '31', '119'] 259.2901234567903
52 5.185802469135803 ['135', '141', '130', '129', '148', '123', '137', '110', '49', '20', '147', '26', '93', '31', '119'] 259.2901234567903
53 5.185802469135803 ['135', '141', '130', '129', '148', '123', '137', '110', '49', '20', '147', '26', '93', '31', '119'] 259.2901234567903
54 5.185802469135803 ['135', '141', '130', '129', '148', '123', '137', '110', '49', '20', '147', '26', '93', '31', '119'] 259.2901234567903
55 5.185802469135803 ['135', '141', '130', '129', '148', '123', '137', '110', '49', '20', '147', '26', '93', '31', '119'] 259.2901234567903
56 5.185802469135803 ['135', '141', '130', '129', '148', '123', '137', '110', '49', '20', '147', '26', '93', '31', '119'] 259.2901234567903
57 5.185802469135803 ['135', '141', '130', '129', '148', '123', '137', '110', '49', '20', '147', '26', '93', '31', '119'] 259.2901234567903
58 5.185802469135803 ['135', '141', '130', '129', '148', '123', '137', '110', '49', '20', '147', '26', '93', '31', '119'] 259.2901234567903
59 5.185802469135803 ['135', '141', '130', '129', '148', '123', '137', '110', '49', '20', '147', '26', '93', '31', '119'] 259.2901234567903
60 5.185802469135803 ['135', '141', '130', '129', '148', '123', '137', '110', '49', '20', '147', '26', '93', '31', '119'] 259.2901234567903
61 5.185802469135803 ['135', '141', '130', '129', '148', '123', '137', '110', '49', '20', '147', '26', '93', '31', '119'] 259.2901234567903
62 5.185802469135803 ['135', '141', '130', '129', '148', '123', '137', '110', '49', '20', '147', '26', '93', '31', '119'] 259.2901234567903
63 5.185802469135803 ['135', '141', '130', '129', '148', '123', '137', '110', '49', '20', '147', '26', '93', '31', '119'] 259.2901234567903
64 5.185802469135803 ['135', '141', '130', '129', '148', '123', '137', '110', '49', '20', '147', '26', '93', '31', '119'] 259.2901234567903
65 5.185802469135803 ['135', '141', '130', '129', '148', '123', '137', '110', '49', '20', '147', '26', '93', '31', '119'] 259.2901234567903
66 5.185802469135803 ['135', '141', '130', '129', '148', '123', '137', '110', '49', '20', '147', '26', '93', '31', '119'] 259.2901234567903
67 5.185802469135803 ['135', '141', '130', '129', '148', '123', '137', '110', '49', '20', '147', '26', '93', '31', '119'] 259.2901234567903
68 5.185802469135803 ['135', '141', '130', '129', '148', '123', '137', '110', '49', '20', '147', '26', '93', '31', '119'] 259.2901234567903
69 5.185802469135803 ['135', '141', '130', '129', '148', '123', '137', '110', '49', '20', '147', '26', '93', '31', '119'] 259.2901234567903
70 5.185802469135803 ['135', '141', '130', '129', '148', '123', '137', '110', '49', '20', '147', '26', '93', '31', '119'] 259.2901234567903
71 5.185802469135803 ['135', '141', '130', '129', '148', '123', '137', '110', '49', '20', '147', '26', '93', '31', '119'] 259.2901234567903
72 5.185802469135803 ['135', '141', '130', '129', '148', '123', '137', '110', '49', '20', '147', '26', '93', '31', '119'] 259.2901234567903
73 5.185802469135803 ['135', '141', '130', '129', '148', '123', '137', '110', '49', '20', '147', '26', '93', '31', '119'] 259.2901234567903
74 5.185802469135803 ['135', '141', '130', '129', '148', '123', '137', '110', '49', '20', '147', '26', '93', '31', '119'] 259.2901234567903
75 5.185802469135803 ['135', '141', '130', '129', '148', '123', '137', '110', '49', '20', '147', '26', '93', '31', '119'] 259.2901234567903
76 5.185802469135803 ['135', '141', '130', '129', '148', '123', '137', '110', '49', '20', '147', '26', '93', '31', '119'] 259.2901234567903
77 5.185802469135803 ['135', '141', '130', '129', '148', '123', '137', '110', '49', '20', '147', '26', '93', '31', '119'] 259.2901234567903
78 5.185802469135803 ['135', '141', '130', '129', '148', '123', '137', '110', '49', '20', '147', '26', '93', '31', '119'] 259.2901234567903
79 5.185802469135803 ['135', '141', '130', '129', '148', '123', '137', '110', '49', '20', '147', '26', '93', '31', '119'] 259.2901234567903
80 5.185802469135803 ['135', '141', '130', '129', '148', '123', '137', '110', '49', '20', '147', '26', '93', '31', '119'] 259.2901234567903
81 5.185802469135803 ['135', '141', '130', '129', '148', '123', '137', '110', '49', '20', '147', '26', '93', '31', '119'] 259.2901234567903
82 5.185802469135803 ['135', '141', '130', '129', '148', '123', '137', '110', '49', '20', '147', '26', '93', '31', '119'] 259.2901234567903
83 5.185802469135803 ['135', '141', '130', '129', '148', '123', '137', '110', '49', '20', '147', '26', '93', '31', '119'] 259.2901234567903
84 5.185802469135803 ['135', '141', '130', '129', '148', '123', '137', '110', '49', '20', '147', '26', '93', '31', '119'] 259.2901234567903
85 5.185802469135803 ['135', '141', '130', '129', '148', '123', '137', '110', '49', '20', '147', '26', '93', '31', '119'] 259.2901234567903
86 5.185802469135803 ['135', '141', '130', '129', '148', '123', '137', '110', '49', '20', '147', '26', '93', '31', '119'] 259.2901234567903
87 5.185802469135803 ['135', '141', '130', '129', '148', '123', '137', '110', '49', '20', '147', '26', '93', '31', '119'] 259.2901234567903
88 5.185802469135803 ['135', '141', '130', '129', '148', '123', '137', '110', '49', '20', '147', '26', '93', '31', '119'] 259.2901234567903
89 5.185802469135803 ['135', '141', '130', '129', '148', '123', '137', '110', '49', '20', '147', '26', '93', '31', '119'] 259.2901234567903
90 5.185802469135803 ['135', '141', '130', '129', '148', '123', '137', '110', '49', '20', '147', '26', '93', '31', '119'] 259.2901234567903
91 5.185802469135803 ['135', '141', '130', '129', '148', '123', '137', '110', '49', '20', '147', '26', '93', '31', '119'] 259.2901234567903
92 5.185802469135803 ['135', '141', '130', '129', '148', '123', '137', '110', '49', '20', '147', '26', '93', '31', '119'] 259.2901234567903
93 5.185802469135803 ['135', '141', '130', '129', '148', '123', '137', '110', '49', '20', '147', '26', '93', '31', '119'] 259.2901234567903
94 5.185802469135803 ['135', '141', '130', '129', '148', '123', '137', '110', '49', '20', '147', '26', '93', '31', '119'] 259.2901234567903
95 5.185802469135803 ['135', '141', '130', '129', '148', '123', '137', '110', '49', '20', '147', '26', '93', '31', '119'] 259.2901234567903
96 5.185802469135803 ['135', '141', '130', '129', '148', '123', '137', '110', '49', '20', '147', '26', '93', '31', '119'] 259.2901234567903
97 5.185802469135803 ['135', '141', '130', '129', '148', '123', '137', '110', '49', '20', '147', '26', '93', '31', '119'] 259.2901234567903
98 5.185802469135803 ['135', '141', '130', '129', '148', '123', '137', '110', '49', '20', '147', '26', '93', '31', '119'] 259.2901234567903
99 5.185802469135803 ['135', '141', '130', '129', '148', '123', '137', '110', '49', '20', '147', '26', '93', '31', '119'] 259.2901234567903
100 5.185802469135803 ['135', '141', '130', '129', '148', '123', '137', '110', '49', '20', '147', '26', '93', '31', '119'] 259.2901234567903
101 5.185802469135803 ['135', '141', '130', '129', '148', '123', '137', '110', '49', '20', '147', '26', '93', '31', '119'] 259.2901234567903
102 5.185802469135803 ['135', '141', '130', '129', '148', '123', '137', '110', '49', '20', '147', '26', '93', '31', '119'] 259.2901234567903
103 5.185802469135803 ['135', '141', '130', '129', '148', '123', '137', '110', '49', '20', '147', '26', '93', '31', '119'] 259.2901234567903
104 5.185802469135803 ['135', '141', '130', '129', '148', '123', '137', '110', '49', '20', '147', '26', '93', '31', '119'] 259.2901234567903
105 5.185802469135803 ['135', '141', '130', '129', '148', '123', '137', '110', '49', '20', '147', '26', '93', '31', '119'] 259.2901234567903
106 5.185802469135803 ['135', '141', '130', '129', '148', '123', '137', '110', '49', '20', '147', '26', '93', '31', '119'] 259.2901234567903
107 5.185802469135803 ['135', '141', '130', '129', '148', '123', '137', '110', '49', '20', '147', '26', '93', '31', '119'] 259.2901234567903
108 5.185802469135803 ['135', '141', '130', '129', '148', '123', '137', '110', '49', '20', '147', '26', '93', '31', '119'] 259.2901234567903
109 5.185802469135803 ['135', '141', '130', '129', '148', '123', '137', '110', '49', '20', '147', '26', '93', '31', '119'] 259.2901234567903
110 5.185802469135803 ['135', '141', '130', '129', '148', '123', '137', '110', '49', '20', '147', '26', '93', '31', '119'] 259.2901234567903
111 5.185802469135803 ['135', '141', '130', '129', '148', '123', '137', '110', '49', '20', '147', '26', '93', '31', '119'] 259.2901234567903
112 5.185802469135803 ['135', '141', '130', '129', '148', '123', '137', '110', '49', '20', '147', '26', '93', '31', '119'] 259.2901234567903
113 5.185802469135803 ['135', '141', '130', '129', '148', '123', '137', '110', '49', '20', '147', '26', '93', '31', '119'] 259.2901234567903
114 5.185802469135803 ['135', '141', '130', '129', '148', '123', '137', '110', '49', '20', '147', '26', '93', '31', '119'] 259.2901234567903
115 5.185802469135803 ['135', '141', '130', '129', '148', '123', '137', '110', '49', '20', '147', '26', '93', '31', '119'] 259.2901234567903
116 5.185802469135803 ['135', '141', '130', '129', '148', '123', '137', '110', '49', '20', '147', '26', '93', '31', '119'] 259.2901234567903
117 5.185802469135803 ['135', '141', '130', '129', '148', '123', '137', '110', '49', '20', '147', '26', '93', '31', '119'] 259.2901234567903
118 5.185802469135803 ['135', '141', '130', '129', '148', '123', '137', '110', '49', '20', '147', '26', '93', '31', '119'] 259.2901234567903
119 5.185802469135803 ['135', '141', '130', '129', '148', '123', '137', '110', '49', '20', '147', '26', '93', '31', '119'] 259.2901234567903
120 5.185802469135803 ['135', '141', '130', '129', '148', '123', '137', '110', '49', '20', '147', '26', '93', '31', '119'] 259.2901234567903
121 5.185802469135803 ['135', '141', '130', '129', '148', '123', '137', '110', '49', '20', '147', '26', '93', '31', '119'] 259.2901234567903
122 5.185802469135803 ['135', '141', '130', '129', '148', '123', '137', '110', '49', '20', '147', '26', '93', '31', '119'] 259.2901234567903
123 5.185802469135803 ['135', '141', '130', '129', '148', '123', '137', '110', '49', '20', '147', '26', '93', '31', '119'] 259.2901234567903
124 5.185802469135803 ['135', '141', '130', '129', '148', '123', '137', '110', '49', '20', '147', '26', '93', '31', '119'] 259.2901234567903
125 5.185802469135803 ['135', '141', '130', '129', '148', '123', '137', '110', '49', '20', '147', '26', '93', '31', '119'] 259.2901234567903
126 5.185802469135803 ['135', '141', '130', '129', '148', '123', '137', '110', '49', '20', '147', '26', '93', '31', '119'] 259.2901234567903
127 5.185802469135803 ['135', '141', '130', '129', '148', '123', '137', '110', '49', '20', '147', '26', '93', '31', '119'] 259.2901234567903
128 5.185802469135803 ['135', '141', '130', '129', '148', '123', '137', '110', '49', '20', '147', '26', '93', '31', '119'] 259.2901234567903
129 5.185802469135803 ['135', '141', '130', '129', '148', '123', '137', '110', '49', '20', '147', '26', '93', '31', '119'] 259.2901234567903
130 5.185802469135803 ['135', '141', '130', '129', '148', '123', '137', '110', '49', '20', '147', '26', '93', '31', '119'] 259.2901234567903
131 5.185802469135803 ['135', '141', '130', '129', '148', '123', '137', '110', '49', '20', '147', '26', '93', '31', '119'] 259.2901234567903
132 5.185802469135803 ['135', '141', '130', '129', '148', '123', '137', '110', '49', '20', '147', '26', '93', '31', '119'] 259.2901234567903
133 5.185802469135803 ['135', '141', '130', '129', '148', '123', '137', '110', '49', '20', '147', '26', '93', '31', '119'] 259.2901234567903
134 5.185802469135803 ['135', '141', '130', '129', '148', '123', '137', '110', '49', '20', '147', '26', '93', '31', '119'] 259.2901234567903
135 5.185802469135803 ['135', '141', '130', '129', '148', '123', '137', '110', '49', '20', '147', '26', '93', '31', '119'] 259.2901234567903
136 5.185802469135803 ['135', '141', '130', '129', '148', '123', '137', '110', '49', '20', '147', '26', '93', '31', '119'] 259.2901234567903
137 5.185802469135803 ['135', '141', '130', '129', '148', '123', '137', '110', '49', '20', '147', '26', '93', '31', '119'] 259.2901234567903
138 5.185802469135803 ['135', '141', '130', '129', '148', '123', '137', '110', '49', '20', '147', '26', '93', '31', '119'] 259.2901234567903
139 5.185802469135803 ['135', '141', '130', '129', '148', '123', '137', '110', '49', '20', '147', '26', '93', '31', '119'] 259.2901234567903
140 5.185802469135803 ['135', '141', '130', '129', '148', '123', '137', '110', '49', '20', '147', '26', '93', '31', '119'] 259.2901234567903
141 5.185802469135803 ['135', '141', '130', '129', '148', '123', '137', '110', '49', '20', '147', '26', '93', '31', '119'] 259.2901234567903
142 5.185802469135803 ['135', '141', '130', '129', '148', '123', '137', '110', '49', '20', '147', '26', '93', '31', '119'] 259.2901234567903
143 5.185802469135803 ['135', '141', '130', '129', '148', '123', '137', '110', '49', '20', '147', '26', '93', '31', '119'] 259.2901234567903
144 5.185802469135803 ['135', '141', '130', '129', '148', '123', '137', '110', '49', '20', '147', '26', '93', '31', '119'] 259.2901234567903
145 5.185802469135803 ['135', '141', '130', '129', '148', '123', '137', '110', '49', '20', '147', '26', '93', '31', '119'] 259.2901234567903
146 5.185802469135803 ['135', '141', '130', '129', '148', '123', '137', '110', '49', '20', '147', '26', '93', '31', '119'] 259.2901234567903
147 5.185802469135803 ['135', '141', '130', '129', '148', '123', '137', '110', '49', '20', '147', '26', '93', '31', '119'] 259.2901234567903
148 5.185802469135803 ['135', '141', '130', '129', '148', '123', '137', '110', '49', '20', '147', '26', '93', '31', '119'] 259.2901234567903
149 5.185802469135803 ['135', '141', '130', '129', '148', '123', '137', '110', '49', '20', '147', '26', '93', '31', '119'] 259.2901234567903
150 5.185802469135803 ['135', '141', '130', '129', '148', '123', '137', '110', '49', '20', '147', '26', '93', '31', '119'] 259.2901234567903
151 5.185802469135803 ['135', '141', '130', '129', '148', '123', '137', '110', '49', '20', '147', '26', '93', '31', '119'] 259.2901234567903
152 5.185802469135803 ['135', '141', '130', '129', '148', '123', '137', '110', '49', '20', '147', '26', '93', '31', '119'] 259.2901234567903
153 5.185802469135803 ['135', '141', '130', '129', '148', '123', '137', '110', '49', '20', '147', '26', '93', '31', '119'] 259.2901234567903
154 5.185802469135803 ['135', '141', '130', '129', '148', '123', '137', '110', '49', '20', '147', '26', '93', '31', '119'] 259.2901234567903
155 5.185802469135803 ['135', '141', '130', '129', '148', '123', '137', '110', '49', '20', '147', '26', '93', '31', '119'] 259.2901234567903
156 5.185802469135803 ['135', '141', '130', '129', '148', '123', '137', '110', '49', '20', '147', '26', '93', '31', '119'] 259.2901234567903
157 5.185802469135803 ['135', '141', '130', '129', '148', '123', '137', '110', '49', '20', '147', '26', '93', '31', '119'] 259.2901234567903
158 5.185802469135803 ['135', '141', '130', '129', '148', '123', '137', '110', '49', '20', '147', '26', '93', '31', '119'] 259.2901234567903
159 5.185802469135803 ['135', '141', '130', '129', '148', '123', '137', '110', '49', '20', '147', '26', '93', '31', '119'] 259.2901234567903
160 5.185802469135803 ['135', '141', '130', '129', '148', '123', '137', '110', '49', '20', '147', '26', '93', '31', '119'] 259.2901234567903
161 5.185802469135803 ['135', '141', '130', '129', '148', '123', '137', '110', '49', '20', '147', '26', '93', '31', '119'] 259.2901234567903
162 5.185802469135803 ['135', '141', '130', '129', '148', '123', '137', '110', '49', '20', '147', '26', '93', '31', '119'] 259.2901234567903
163 5.185802469135803 ['135', '141', '130', '129', '148', '123', '137', '110', '49', '20', '147', '26', '93', '31', '119'] 259.2901234567903
164 5.185802469135803 ['135', '141', '130', '129', '148', '123', '137', '110', '49', '20', '147', '26', '93', '31', '119'] 259.2901234567903
165 5.185802469135803 ['135', '141', '130', '129', '148', '123', '137', '110', '49', '20', '147', '26', '93', '31', '119'] 259.2901234567903
166 5.185802469135803 ['135', '141', '130', '129', '148', '123', '137', '110', '49', '20', '147', '26', '93', '31', '119'] 259.2901234567903
167 5.185802469135803 ['135', '141', '130', '129', '148', '123', '137', '110', '49', '20', '147', '26', '93', '31', '119'] 259.2901234567903
168 5.185802469135803 ['135', '141', '130', '129', '148', '123', '137', '110', '49', '20', '147', '26', '93', '31', '119'] 259.2901234567903
169 5.185802469135803 ['135', '141', '130', '129', '148', '123', '137', '110', '49', '20', '147', '26', '93', '31', '119'] 259.2901234567903
170 5.185802469135803 ['135', '141', '130', '129', '148', '123', '137', '110', '49', '20', '147', '26', '93', '31', '119'] 259.2901234567903
171 5.185802469135803 ['135', '141', '130', '129', '148', '123', '137', '110', '49', '20', '147', '26', '93', '31', '119'] 259.2901234567903
172 5.185802469135803 ['135', '141', '130', '129', '148', '123', '137', '110', '49', '20', '147', '26', '93', '31', '119'] 259.2901234567903
173 5.185802469135803 ['135', '141', '130', '129', '148', '123', '137', '110', '49', '20', '147', '26', '93', '31', '119'] 259.2901234567903
174 5.185802469135803 ['135', '141', '130', '129', '148', '123', '137', '110', '49', '20', '147', '26', '93', '31', '119'] 259.2901234567903
175 5.185802469135803 ['135', '141', '130', '129', '148', '123', '137', '110', '49', '20', '147', '26', '93', '31', '119'] 259.2901234567903
176 5.185802469135803 ['135', '141', '130', '129', '148', '123', '137', '110', '49', '20', '147', '26', '93', '31', '119'] 259.2901234567903
177 5.185802469135803 ['135', '141', '130', '129', '148', '123', '137', '110', '49', '20', '147', '26', '93', '31', '119'] 259.2901234567903
178 5.185802469135803 ['135', '141', '130', '129', '148', '123', '137', '110', '49', '20', '147', '26', '93', '31', '119'] 259.2901234567903
179 5.185802469135803 ['135', '141', '130', '129', '148', '123', '137', '110', '49', '20', '147', '26', '93', '31', '119'] 259.2901234567903
180 5.185802469135803 ['135', '141', '130', '129', '148', '123', '137', '110', '49', '20', '147', '26', '93', '31', '119'] 259.2901234567903
181 5.185802469135803 ['135', '141', '130', '129', '148', '123', '137', '110', '49', '20', '147', '26', '93', '31', '119'] 259.2901234567903
182 5.185802469135803 ['135', '141', '130', '129', '148', '123', '137', '110', '49', '20', '147', '26', '93', '31', '119'] 259.2901234567903
183 5.185802469135803 ['135', '141', '130', '129', '148', '123', '137', '110', '49', '20', '147', '26', '93', '31', '119'] 259.2901234567903
184 5.185802469135803 ['135', '141', '130', '129', '148', '123', '137', '110', '49', '20', '147', '26', '93', '31', '119'] 259.2901234567903
185 5.185802469135803 ['135', '141', '130', '129', '148', '123', '137', '110', '49', '20', '147', '26', '93', '31', '119'] 259.2901234567903
186 5.185802469135803 ['135', '141', '130', '129', '148', '123', '137', '110', '49', '20', '147', '26', '93', '31', '119'] 259.2901234567903
187 5.185802469135803 ['135', '141', '130', '129', '148', '123', '137', '110', '49', '20', '147', '26', '93', '31', '119'] 259.2901234567903
188 5.185802469135803 ['135', '141', '130', '129', '148', '123', '137', '110', '49', '20', '147', '26', '93', '31', '119'] 259.2901234567903
189 5.185802469135803 ['135', '141', '130', '129', '148', '123', '137', '110', '49', '20', '147', '26', '93', '31', '119'] 259.2901234567903
190 5.185802469135803 ['135', '141', '130', '129', '148', '123', '137', '110', '49', '20', '147', '26', '93', '31', '119'] 259.2901234567903
191 5.185802469135803 ['135', '141', '130', '129', '148', '123', '137', '110', '49', '20', '147', '26', '93', '31', '119'] 259.2901234567903
192 5.185802469135803 ['135', '141', '130', '129', '148', '123', '137', '110', '49', '20', '147', '26', '93', '31', '119'] 259.2901234567903
193 5.185802469135803 ['135', '141', '130', '129', '148', '123', '137', '110', '49', '20', '147', '26', '93', '31', '119'] 259.2901234567903
194 5.185802469135803 ['135', '141', '130', '129', '148', '123', '137', '110', '49', '20', '147', '26', '93', '31', '119'] 259.2901234567903
195 5.185802469135803 ['135', '141', '130', '129', '148', '123', '137', '110', '49', '20', '147', '26', '93', '31', '119'] 259.2901234567903
196 5.185802469135803 ['135', '141', '130', '129', '148', '123', '137', '110', '49', '20', '147', '26', '93', '31', '119'] 259.2901234567903
197 5.185802469135803 ['135', '141', '130', '129', '148', '123', '137', '110', '49', '20', '147', '26', '93', '31', '119'] 259.2901234567903
198 5.185802469135803 ['135', '141', '130', '129', '148', '123', '137', '110', '49', '20', '147', '26', '93', '31', '119'] 259.2901234567903
199 5.185802469135803 ['135', '141', '130', '129', '148', '123', '137', '110', '49', '20', '147', '26', '93', '31', '119'] 259.2901234567903
