0 15.525925925925925 ['150', '148', '142', '75', '106', '80', '82', '79', '71', '127', '131', '83', '36', '21', '134'] 793.007407407407
1 15.385185185185184 ['134', '44', '130', '133', '60', '146', '144', '45', '90', '126', '64', '150', '117', '46', '65'] 787.0444444444441
2 15.37037037037037 ['147', '115', '22', '18', '73', '144', '128', '119', '136', '68', '130', '105', '127', '88', '1'] 781.8074074074077
3 15.2 ['130', '144', '117', '44', '64', '134', '65', '128', '133', '1', '136', '150', '45', '146', '119'] 776.6148148148148
4 15.148148148148149 ['44', '150', '117', '136', '146', '131', '135', '64', '148', '128', '45', '133', '109', '60', '74'] 771.4444444444443
5 15.022222222222222 ['83', '93', '109', '82', '148', '78', '131', '74', '127', '120', '117', '130', '145', '144', '146'] 766.1851851851852
6 15.014814814814814 ['82', '144', '85', '127', '120', '106', '136', '83', '130', '123', '115', '79', '146', '77', '150'] 761.6000000000004
7 14.955555555555556 ['144', '83', '127', '131', '146', '82', '78', '148', '75', '106', '110', '145', '129', '108', '150'] 757.9999999999995
8 14.822222222222223 ['150', '131', '146', '74', '144', '136', '108', '147', '64', '117', '79', '148', '134', '109', '133'] 753.5037037037038
9 14.755555555555556 ['74', '146', '147', '131', '148', '144', '150', '78', '79', '136', '127', '145', '108', '130', '64'] 749.214814814815
10 14.644444444444444 ['108', '131', '148', '74', '146', '144', '150', '133', '115', '136', '147', '117', '145', '134', '64'] 745.2518518518514
11 14.644444444444444 ['108', '131', '148', '74', '146', '144', '150', '133', '115', '136', '147', '117', '145', '134', '64'] 742.5851851851859
12 14.540740740740741 ['146', '144', '150', '133', '145', '108', '134', '148', '117', '74', '130', '115', '127', '110', '147'] 739.0666666666665
13 14.540740740740741 ['146', '144', '150', '133', '145', '108', '134', '148', '117', '74', '130', '115', '127', '110', '147'] 736.325925925926
14 14.540740740740741 ['146', '144', '150', '133', '145', '108', '134', '148', '117', '74', '130', '115', '127', '110', '147'] 733.5703703703705
15 14.518518518518519 ['145', '148', '115', '144', '134', '117', '147', '108', '150', '146', '127', '74', '133', '130', '136'] 730.9259259259252
16 14.488888888888889 ['145', '144', '130', '147', '127', '146', '150', '148', '115', '108', '136', '131', '134', '133', '120'] 728.9185185185192
17 14.451851851851853 ['133', '108', '144', '148', '150', '146', '130', '131', '115', '145', '127', '147', '120', '136', '117'] 727.1185185185185
18 14.451851851851853 ['133', '108', '144', '148', '150', '146', '130', '131', '115', '145', '127', '147', '120', '136', '117'] 725.5703703703701
19 14.437037037037037 ['136', '144', '148', '147', '133', '150', '145', '108', '127', '130', '146', '115', '117', '131', '110'] 724.2740740740733
20 14.437037037037037 ['136', '144', '148', '147', '133', '150', '145', '108', '127', '130', '146', '115', '117', '131', '110'] 723.3259259259261
21 14.437037037037037 ['136', '144', '148', '147', '133', '150', '145', '108', '127', '130', '146', '115', '117', '131', '110'] 722.7629629629637
22 14.437037037037037 ['136', '144', '148', '147', '133', '150', '145', '108', '127', '130', '146', '115', '117', '131', '110'] 722.3925925925932
23 14.437037037037037 ['136', '144', '148', '147', '133', '150', '145', '108', '127', '130', '146', '115', '117', '131', '110'] 722.1703703703708
24 14.437037037037037 ['136', '144', '148', '147', '133', '150', '145', '108', '127', '130', '146', '115', '117', '131', '110'] 721.9333333333336
25 14.437037037037037 ['136', '144', '148', '147', '133', '150', '145', '108', '127', '130', '146', '115', '117', '131', '110'] 721.8518518518521
26 14.437037037037037 ['136', '144', '148', '147', '133', '150', '145', '108', '127', '130', '146', '115', '117', '131', '110'] 721.8518518518521
27 14.437037037037037 ['136', '144', '148', '147', '133', '150', '145', '108', '127', '130', '146', '115', '117', '131', '110'] 721.8518518518521
28 14.437037037037037 ['136', '144', '148', '147', '133', '150', '145', '108', '127', '130', '146', '115', '117', '131', '110'] 721.8518518518521
29 14.437037037037037 ['136', '144', '148', '147', '133', '150', '145', '108', '127', '130', '146', '115', '117', '131', '110'] 721.8518518518521
30 14.437037037037037 ['136', '144', '148', '147', '133', '150', '145', '108', '127', '130', '146', '115', '117', '131', '110'] 721.8518518518521
31 14.437037037037037 ['136', '144', '148', '147', '133', '150', '145', '108', '127', '130', '146', '115', '117', '131', '110'] 721.8518518518521
32 14.437037037037037 ['136', '144', '148', '147', '133', '150', '145', '108', '127', '130', '146', '115', '117', '131', '110'] 721.8518518518521
33 14.437037037037037 ['136', '144', '148', '147', '133', '150', '145', '108', '127', '130', '146', '115', '117', '131', '110'] 721.8518518518521
34 14.437037037037037 ['136', '144', '148', '147', '133', '150', '145', '108', '127', '130', '146', '115', '117', '131', '110'] 721.8518518518521
35 14.437037037037037 ['136', '144', '148', '147', '133', '150', '145', '108', '127', '130', '146', '115', '117', '131', '110'] 721.8518518518521
36 14.437037037037037 ['136', '144', '148', '147', '133', '150', '145', '108', '127', '130', '146', '115', '117', '131', '110'] 721.8518518518521
37 14.437037037037037 ['136', '144', '148', '147', '133', '150', '145', '108', '127', '130', '146', '115', '117', '131', '110'] 721.8518518518521
38 14.437037037037037 ['136', '144', '148', '147', '133', '150', '145', '108', '127', '130', '146', '115', '117', '131', '110'] 721.8518518518521
39 14.437037037037037 ['136', '144', '148', '147', '133', '150', '145', '108', '127', '130', '146', '115', '117', '131', '110'] 721.8518518518521
40 14.437037037037037 ['136', '144', '148', '147', '133', '150', '145', '108', '127', '130', '146', '115', '117', '131', '110'] 721.8518518518521
41 14.437037037037037 ['136', '144', '148', '147', '133', '150', '145', '108', '127', '130', '146', '115', '117', '131', '110'] 721.8518518518521
42 14.437037037037037 ['136', '144', '148', '147', '133', '150', '145', '108', '127', '130', '146', '115', '117', '131', '110'] 721.8518518518521
43 14.437037037037037 ['136', '144', '148', '147', '133', '150', '145', '108', '127', '130', '146', '115', '117', '131', '110'] 721.8518518518521
44 14.437037037037037 ['136', '144', '148', '147', '133', '150', '145', '108', '127', '130', '146', '115', '117', '131', '110'] 721.8518518518521
45 14.437037037037037 ['136', '144', '148', '147', '133', '150', '145', '108', '127', '130', '146', '115', '117', '131', '110'] 721.8518518518521
46 14.437037037037037 ['136', '144', '148', '147', '133', '150', '145', '108', '127', '130', '146', '115', '117', '131', '110'] 721.8518518518521
47 14.437037037037037 ['136', '144', '148', '147', '133', '150', '145', '108', '127', '130', '146', '115', '117', '131', '110'] 721.8518518518521
48 14.437037037037037 ['136', '144', '148', '147', '133', '150', '145', '108', '127', '130', '146', '115', '117', '131', '110'] 721.8518518518521
49 14.437037037037037 ['136', '144', '148', '147', '133', '150', '145', '108', '127', '130', '146', '115', '117', '131', '110'] 721.8518518518521
50 14.437037037037037 ['136', '144', '148', '147', '133', '150', '145', '108', '127', '130', '146', '115', '117', '131', '110'] 721.8518518518521
51 14.437037037037037 ['136', '144', '148', '147', '133', '150', '145', '108', '127', '130', '146', '115', '117', '131', '110'] 721.8518518518521
52 14.437037037037037 ['136', '144', '148', '147', '133', '150', '145', '108', '127', '130', '146', '115', '117', '131', '110'] 721.8518518518521
53 14.437037037037037 ['136', '144', '148', '147', '133', '150', '145', '108', '127', '130', '146', '115', '117', '131', '110'] 721.8518518518521
54 14.437037037037037 ['136', '144', '148', '147', '133', '150', '145', '108', '127', '130', '146', '115', '117', '131', '110'] 721.8518518518521
55 14.437037037037037 ['136', '144', '148', '147', '133', '150', '145', '108', '127', '130', '146', '115', '117', '131', '110'] 721.8518518518521
56 14.437037037037037 ['136', '144', '148', '147', '133', '150', '145', '108', '127', '130', '146', '115', '117', '131', '110'] 721.8518518518521
57 14.437037037037037 ['136', '144', '148', '147', '133', '150', '145', '108', '127', '130', '146', '115', '117', '131', '110'] 721.8518518518521
58 14.437037037037037 ['136', '144', '148', '147', '133', '150', '145', '108', '127', '130', '146', '115', '117', '131', '110'] 721.8518518518521
59 14.437037037037037 ['136', '144', '148', '147', '133', '150', '145', '108', '127', '130', '146', '115', '117', '131', '110'] 721.8518518518521
60 14.437037037037037 ['136', '144', '148', '147', '133', '150', '145', '108', '127', '130', '146', '115', '117', '131', '110'] 721.8518518518521
61 14.437037037037037 ['136', '144', '148', '147', '133', '150', '145', '108', '127', '130', '146', '115', '117', '131', '110'] 721.8518518518521
62 14.437037037037037 ['136', '144', '148', '147', '133', '150', '145', '108', '127', '130', '146', '115', '117', '131', '110'] 721.8518518518521
63 14.437037037037037 ['136', '144', '148', '147', '133', '150', '145', '108', '127', '130', '146', '115', '117', '131', '110'] 721.8518518518521
64 14.437037037037037 ['136', '144', '148', '147', '133', '150', '145', '108', '127', '130', '146', '115', '117', '131', '110'] 721.8518518518521
65 14.437037037037037 ['136', '144', '148', '147', '133', '150', '145', '108', '127', '130', '146', '115', '117', '131', '110'] 721.8518518518521
66 14.437037037037037 ['136', '144', '148', '147', '133', '150', '145', '108', '127', '130', '146', '115', '117', '131', '110'] 721.8518518518521
67 14.437037037037037 ['136', '144', '148', '147', '133', '150', '145', '108', '127', '130', '146', '115', '117', '131', '110'] 721.8518518518521
68 14.437037037037037 ['136', '144', '148', '147', '133', '150', '145', '108', '127', '130', '146', '115', '117', '131', '110'] 721.8518518518521
69 14.437037037037037 ['136', '144', '148', '147', '133', '150', '145', '108', '127', '130', '146', '115', '117', '131', '110'] 721.8518518518521
70 14.437037037037037 ['136', '144', '148', '147', '133', '150', '145', '108', '127', '130', '146', '115', '117', '131', '110'] 721.8518518518521
71 14.437037037037037 ['136', '144', '148', '147', '133', '150', '145', '108', '127', '130', '146', '115', '117', '131', '110'] 721.8518518518521
72 14.437037037037037 ['136', '144', '148', '147', '133', '150', '145', '108', '127', '130', '146', '115', '117', '131', '110'] 721.8518518518521
73 14.437037037037037 ['136', '144', '148', '147', '133', '150', '145', '108', '127', '130', '146', '115', '117', '131', '110'] 721.8518518518521
74 14.437037037037037 ['136', '144', '148', '147', '133', '150', '145', '108', '127', '130', '146', '115', '117', '131', '110'] 721.8518518518521
75 14.437037037037037 ['136', '144', '148', '147', '133', '150', '145', '108', '127', '130', '146', '115', '117', '131', '110'] 721.8518518518521
76 14.437037037037037 ['136', '144', '148', '147', '133', '150', '145', '108', '127', '130', '146', '115', '117', '131', '110'] 721.8518518518521
77 14.437037037037037 ['136', '144', '148', '147', '133', '150', '145', '108', '127', '130', '146', '115', '117', '131', '110'] 721.8518518518521
78 14.437037037037037 ['136', '144', '148', '147', '133', '150', '145', '108', '127', '130', '146', '115', '117', '131', '110'] 721.8518518518521
79 14.437037037037037 ['136', '144', '148', '147', '133', '150', '145', '108', '127', '130', '146', '115', '117', '131', '110'] 721.8518518518521
80 14.437037037037037 ['136', '144', '148', '147', '133', '150', '145', '108', '127', '130', '146', '115', '117', '131', '110'] 721.8518518518521
81 14.437037037037037 ['136', '144', '148', '147', '133', '150', '145', '108', '127', '130', '146', '115', '117', '131', '110'] 721.8518518518521
82 14.437037037037037 ['136', '144', '148', '147', '133', '150', '145', '108', '127', '130', '146', '115', '117', '131', '110'] 721.8518518518521
83 14.437037037037037 ['136', '144', '148', '147', '133', '150', '145', '108', '127', '130', '146', '115', '117', '131', '110'] 721.8518518518521
84 14.437037037037037 ['136', '144', '148', '147', '133', '150', '145', '108', '127', '130', '146', '115', '117', '131', '110'] 721.8518518518521
85 14.437037037037037 ['136', '144', '148', '147', '133', '150', '145', '108', '127', '130', '146', '115', '117', '131', '110'] 721.8518518518521
86 14.437037037037037 ['136', '144', '148', '147', '133', '150', '145', '108', '127', '130', '146', '115', '117', '131', '110'] 721.8518518518521
87 14.437037037037037 ['136', '144', '148', '147', '133', '150', '145', '108', '127', '130', '146', '115', '117', '131', '110'] 721.8518518518521
88 14.437037037037037 ['136', '144', '148', '147', '133', '150', '145', '108', '127', '130', '146', '115', '117', '131', '110'] 721.8518518518521
89 14.437037037037037 ['136', '144', '148', '147', '133', '150', '145', '108', '127', '130', '146', '115', '117', '131', '110'] 721.8518518518521
90 14.437037037037037 ['136', '144', '148', '147', '133', '150', '145', '108', '127', '130', '146', '115', '117', '131', '110'] 721.8518518518521
91 14.437037037037037 ['136', '144', '148', '147', '133', '150', '145', '108', '127', '130', '146', '115', '117', '131', '110'] 721.8518518518521
92 14.437037037037037 ['136', '144', '148', '147', '133', '150', '145', '108', '127', '130', '146', '115', '117', '131', '110'] 721.8518518518521
93 14.437037037037037 ['136', '144', '148', '147', '133', '150', '145', '108', '127', '130', '146', '115', '117', '131', '110'] 721.8518518518521
94 14.437037037037037 ['136', '144', '148', '147', '133', '150', '145', '108', '127', '130', '146', '115', '117', '131', '110'] 721.8518518518521
95 14.437037037037037 ['136', '144', '148', '147', '133', '150', '145', '108', '127', '130', '146', '115', '117', '131', '110'] 721.8518518518521
96 14.437037037037037 ['136', '144', '148', '147', '133', '150', '145', '108', '127', '130', '146', '115', '117', '131', '110'] 721.8518518518521
97 14.437037037037037 ['136', '144', '148', '147', '133', '150', '145', '108', '127', '130', '146', '115', '117', '131', '110'] 721.8518518518521
98 14.437037037037037 ['136', '144', '148', '147', '133', '150', '145', '108', '127', '130', '146', '115', '117', '131', '110'] 721.8518518518521
99 14.437037037037037 ['136', '144', '148', '147', '133', '150', '145', '108', '127', '130', '146', '115', '117', '131', '110'] 721.8518518518521
100 14.437037037037037 ['136', '144', '148', '147', '133', '150', '145', '108', '127', '130', '146', '115', '117', '131', '110'] 721.8518518518521
101 14.437037037037037 ['136', '144', '148', '147', '133', '150', '145', '108', '127', '130', '146', '115', '117', '131', '110'] 721.8518518518521
102 14.437037037037037 ['136', '144', '148', '147', '133', '150', '145', '108', '127', '130', '146', '115', '117', '131', '110'] 721.8518518518521
103 14.437037037037037 ['136', '144', '148', '147', '133', '150', '145', '108', '127', '130', '146', '115', '117', '131', '110'] 721.8518518518521
104 14.437037037037037 ['136', '144', '148', '147', '133', '150', '145', '108', '127', '130', '146', '115', '117', '131', '110'] 721.8518518518521
105 14.437037037037037 ['136', '144', '148', '147', '133', '150', '145', '108', '127', '130', '146', '115', '117', '131', '110'] 721.8518518518521
106 14.437037037037037 ['136', '144', '148', '147', '133', '150', '145', '108', '127', '130', '146', '115', '117', '131', '110'] 721.8518518518521
107 14.437037037037037 ['136', '144', '148', '147', '133', '150', '145', '108', '127', '130', '146', '115', '117', '131', '110'] 721.8518518518521
108 14.437037037037037 ['136', '144', '148', '147', '133', '150', '145', '108', '127', '130', '146', '115', '117', '131', '110'] 721.8518518518521
109 14.437037037037037 ['136', '144', '148', '147', '133', '150', '145', '108', '127', '130', '146', '115', '117', '131', '110'] 721.8518518518521
110 14.437037037037037 ['136', '144', '148', '147', '133', '150', '145', '108', '127', '130', '146', '115', '117', '131', '110'] 721.8518518518521
111 14.437037037037037 ['136', '144', '148', '147', '133', '150', '145', '108', '127', '130', '146', '115', '117', '131', '110'] 721.8518518518521
112 14.437037037037037 ['136', '144', '148', '147', '133', '150', '145', '108', '127', '130', '146', '115', '117', '131', '110'] 721.8518518518521
113 14.437037037037037 ['136', '144', '148', '147', '133', '150', '145', '108', '127', '130', '146', '115', '117', '131', '110'] 721.8518518518521
114 14.437037037037037 ['136', '144', '148', '147', '133', '150', '145', '108', '127', '130', '146', '115', '117', '131', '110'] 721.8518518518521
115 14.437037037037037 ['136', '144', '148', '147', '133', '150', '145', '108', '127', '130', '146', '115', '117', '131', '110'] 721.8518518518521
116 14.437037037037037 ['136', '144', '148', '147', '133', '150', '145', '108', '127', '130', '146', '115', '117', '131', '110'] 721.8518518518521
117 14.437037037037037 ['136', '144', '148', '147', '133', '150', '145', '108', '127', '130', '146', '115', '117', '131', '110'] 721.8518518518521
118 14.437037037037037 ['136', '144', '148', '147', '133', '150', '145', '108', '127', '130', '146', '115', '117', '131', '110'] 721.8518518518521
119 14.437037037037037 ['136', '144', '148', '147', '133', '150', '145', '108', '127', '130', '146', '115', '117', '131', '110'] 721.8518518518521
120 14.437037037037037 ['136', '144', '148', '147', '133', '150', '145', '108', '127', '130', '146', '115', '117', '131', '110'] 721.8518518518521
121 14.437037037037037 ['136', '144', '148', '147', '133', '150', '145', '108', '127', '130', '146', '115', '117', '131', '110'] 721.8518518518521
122 14.437037037037037 ['136', '144', '148', '147', '133', '150', '145', '108', '127', '130', '146', '115', '117', '131', '110'] 721.8518518518521
123 14.437037037037037 ['136', '144', '148', '147', '133', '150', '145', '108', '127', '130', '146', '115', '117', '131', '110'] 721.8518518518521
124 14.437037037037037 ['136', '144', '148', '147', '133', '150', '145', '108', '127', '130', '146', '115', '117', '131', '110'] 721.8518518518521
125 14.437037037037037 ['136', '144', '148', '147', '133', '150', '145', '108', '127', '130', '146', '115', '117', '131', '110'] 721.8518518518521
126 14.437037037037037 ['136', '144', '148', '147', '133', '150', '145', '108', '127', '130', '146', '115', '117', '131', '110'] 721.8518518518521
127 14.437037037037037 ['136', '144', '148', '147', '133', '150', '145', '108', '127', '130', '146', '115', '117', '131', '110'] 721.8518518518521
128 14.437037037037037 ['136', '144', '148', '147', '133', '150', '145', '108', '127', '130', '146', '115', '117', '131', '110'] 721.8518518518521
129 14.437037037037037 ['136', '144', '148', '147', '133', '150', '145', '108', '127', '130', '146', '115', '117', '131', '110'] 721.8518518518521
130 14.437037037037037 ['136', '144', '148', '147', '133', '150', '145', '108', '127', '130', '146', '115', '117', '131', '110'] 721.8518518518521
131 14.437037037037037 ['136', '144', '148', '147', '133', '150', '145', '108', '127', '130', '146', '115', '117', '131', '110'] 721.8518518518521
132 14.437037037037037 ['136', '144', '148', '147', '133', '150', '145', '108', '127', '130', '146', '115', '117', '131', '110'] 721.8518518518521
133 14.437037037037037 ['136', '144', '148', '147', '133', '150', '145', '108', '127', '130', '146', '115', '117', '131', '110'] 721.8518518518521
134 14.437037037037037 ['136', '144', '148', '147', '133', '150', '145', '108', '127', '130', '146', '115', '117', '131', '110'] 721.8518518518521
135 14.437037037037037 ['136', '144', '148', '147', '133', '150', '145', '108', '127', '130', '146', '115', '117', '131', '110'] 721.8518518518521
136 14.437037037037037 ['136', '144', '148', '147', '133', '150', '145', '108', '127', '130', '146', '115', '117', '131', '110'] 721.8518518518521
137 14.437037037037037 ['136', '144', '148', '147', '133', '150', '145', '108', '127', '130', '146', '115', '117', '131', '110'] 721.8518518518521
138 14.437037037037037 ['136', '144', '148', '147', '133', '150', '145', '108', '127', '130', '146', '115', '117', '131', '110'] 721.8518518518521
139 14.437037037037037 ['136', '144', '148', '147', '133', '150', '145', '108', '127', '130', '146', '115', '117', '131', '110'] 721.8518518518521
140 14.437037037037037 ['136', '144', '148', '147', '133', '150', '145', '108', '127', '130', '146', '115', '117', '131', '110'] 721.8518518518521
141 14.437037037037037 ['136', '144', '148', '147', '133', '150', '145', '108', '127', '130', '146', '115', '117', '131', '110'] 721.8518518518521
142 14.437037037037037 ['136', '144', '148', '147', '133', '150', '145', '108', '127', '130', '146', '115', '117', '131', '110'] 721.8518518518521
143 14.437037037037037 ['136', '144', '148', '147', '133', '150', '145', '108', '127', '130', '146', '115', '117', '131', '110'] 721.8518518518521
144 14.437037037037037 ['136', '144', '148', '147', '133', '150', '145', '108', '127', '130', '146', '115', '117', '131', '110'] 721.8518518518521
145 14.437037037037037 ['136', '144', '148', '147', '133', '150', '145', '108', '127', '130', '146', '115', '117', '131', '110'] 721.8518518518521
146 14.437037037037037 ['136', '144', '148', '147', '133', '150', '145', '108', '127', '130', '146', '115', '117', '131', '110'] 721.8518518518521
147 14.437037037037037 ['136', '144', '148', '147', '133', '150', '145', '108', '127', '130', '146', '115', '117', '131', '110'] 721.8518518518521
148 14.437037037037037 ['136', '144', '148', '147', '133', '150', '145', '108', '127', '130', '146', '115', '117', '131', '110'] 721.8518518518521
149 14.437037037037037 ['136', '144', '148', '147', '133', '150', '145', '108', '127', '130', '146', '115', '117', '131', '110'] 721.8518518518521
150 14.437037037037037 ['136', '144', '148', '147', '133', '150', '145', '108', '127', '130', '146', '115', '117', '131', '110'] 721.8518518518521
151 14.437037037037037 ['136', '144', '148', '147', '133', '150', '145', '108', '127', '130', '146', '115', '117', '131', '110'] 721.8518518518521
152 14.437037037037037 ['136', '144', '148', '147', '133', '150', '145', '108', '127', '130', '146', '115', '117', '131', '110'] 721.8518518518521
153 14.437037037037037 ['136', '144', '148', '147', '133', '150', '145', '108', '127', '130', '146', '115', '117', '131', '110'] 721.8518518518521
154 14.437037037037037 ['136', '144', '148', '147', '133', '150', '145', '108', '127', '130', '146', '115', '117', '131', '110'] 721.8518518518521
155 14.437037037037037 ['136', '144', '148', '147', '133', '150', '145', '108', '127', '130', '146', '115', '117', '131', '110'] 721.8518518518521
156 14.437037037037037 ['136', '144', '148', '147', '133', '150', '145', '108', '127', '130', '146', '115', '117', '131', '110'] 721.8518518518521
157 14.437037037037037 ['136', '144', '148', '147', '133', '150', '145', '108', '127', '130', '146', '115', '117', '131', '110'] 721.8518518518521
158 14.437037037037037 ['136', '144', '148', '147', '133', '150', '145', '108', '127', '130', '146', '115', '117', '131', '110'] 721.8518518518521
159 14.437037037037037 ['136', '144', '148', '147', '133', '150', '145', '108', '127', '130', '146', '115', '117', '131', '110'] 721.8518518518521
160 14.437037037037037 ['136', '144', '148', '147', '133', '150', '145', '108', '127', '130', '146', '115', '117', '131', '110'] 721.8518518518521
161 14.437037037037037 ['136', '144', '148', '147', '133', '150', '145', '108', '127', '130', '146', '115', '117', '131', '110'] 721.8518518518521
162 14.437037037037037 ['136', '144', '148', '147', '133', '150', '145', '108', '127', '130', '146', '115', '117', '131', '110'] 721.8518518518521
163 14.437037037037037 ['136', '144', '148', '147', '133', '150', '145', '108', '127', '130', '146', '115', '117', '131', '110'] 721.8518518518521
164 14.437037037037037 ['136', '144', '148', '147', '133', '150', '145', '108', '127', '130', '146', '115', '117', '131', '110'] 721.8518518518521
165 14.437037037037037 ['136', '144', '148', '147', '133', '150', '145', '108', '127', '130', '146', '115', '117', '131', '110'] 721.8518518518521
166 14.437037037037037 ['136', '144', '148', '147', '133', '150', '145', '108', '127', '130', '146', '115', '117', '131', '110'] 721.8518518518521
167 14.437037037037037 ['136', '144', '148', '147', '133', '150', '145', '108', '127', '130', '146', '115', '117', '131', '110'] 721.8518518518521
168 14.437037037037037 ['136', '144', '148', '147', '133', '150', '145', '108', '127', '130', '146', '115', '117', '131', '110'] 721.8518518518521
169 14.437037037037037 ['136', '144', '148', '147', '133', '150', '145', '108', '127', '130', '146', '115', '117', '131', '110'] 721.8518518518521
170 14.437037037037037 ['136', '144', '148', '147', '133', '150', '145', '108', '127', '130', '146', '115', '117', '131', '110'] 721.8518518518521
171 14.437037037037037 ['136', '144', '148', '147', '133', '150', '145', '108', '127', '130', '146', '115', '117', '131', '110'] 721.8518518518521
172 14.437037037037037 ['136', '144', '148', '147', '133', '150', '145', '108', '127', '130', '146', '115', '117', '131', '110'] 721.8518518518521
173 14.437037037037037 ['136', '144', '148', '147', '133', '150', '145', '108', '127', '130', '146', '115', '117', '131', '110'] 721.8518518518521
174 14.437037037037037 ['136', '144', '148', '147', '133', '150', '145', '108', '127', '130', '146', '115', '117', '131', '110'] 721.8518518518521
175 14.437037037037037 ['136', '144', '148', '147', '133', '150', '145', '108', '127', '130', '146', '115', '117', '131', '110'] 721.8518518518521
176 14.437037037037037 ['136', '144', '148', '147', '133', '150', '145', '108', '127', '130', '146', '115', '117', '131', '110'] 721.8518518518521
177 14.437037037037037 ['136', '144', '148', '147', '133', '150', '145', '108', '127', '130', '146', '115', '117', '131', '110'] 721.8518518518521
178 14.437037037037037 ['136', '144', '148', '147', '133', '150', '145', '108', '127', '130', '146', '115', '117', '131', '110'] 721.8518518518521
179 14.437037037037037 ['136', '144', '148', '147', '133', '150', '145', '108', '127', '130', '146', '115', '117', '131', '110'] 721.8518518518521
180 14.437037037037037 ['136', '144', '148', '147', '133', '150', '145', '108', '127', '130', '146', '115', '117', '131', '110'] 721.8518518518521
181 14.437037037037037 ['136', '144', '148', '147', '133', '150', '145', '108', '127', '130', '146', '115', '117', '131', '110'] 721.8518518518521
182 14.437037037037037 ['136', '144', '148', '147', '133', '150', '145', '108', '127', '130', '146', '115', '117', '131', '110'] 721.8518518518521
183 14.437037037037037 ['136', '144', '148', '147', '133', '150', '145', '108', '127', '130', '146', '115', '117', '131', '110'] 721.8518518518521
184 14.437037037037037 ['136', '144', '148', '147', '133', '150', '145', '108', '127', '130', '146', '115', '117', '131', '110'] 721.8518518518521
185 14.437037037037037 ['136', '144', '148', '147', '133', '150', '145', '108', '127', '130', '146', '115', '117', '131', '110'] 721.8518518518521
186 14.437037037037037 ['136', '144', '148', '147', '133', '150', '145', '108', '127', '130', '146', '115', '117', '131', '110'] 721.8518518518521
187 14.437037037037037 ['136', '144', '148', '147', '133', '150', '145', '108', '127', '130', '146', '115', '117', '131', '110'] 721.8518518518521
188 14.437037037037037 ['136', '144', '148', '147', '133', '150', '145', '108', '127', '130', '146', '115', '117', '131', '110'] 721.8518518518521
189 14.437037037037037 ['136', '144', '148', '147', '133', '150', '145', '108', '127', '130', '146', '115', '117', '131', '110'] 721.8518518518521
190 14.437037037037037 ['136', '144', '148', '147', '133', '150', '145', '108', '127', '130', '146', '115', '117', '131', '110'] 721.8518518518521
191 14.437037037037037 ['136', '144', '148', '147', '133', '150', '145', '108', '127', '130', '146', '115', '117', '131', '110'] 721.8518518518521
192 14.437037037037037 ['136', '144', '148', '147', '133', '150', '145', '108', '127', '130', '146', '115', '117', '131', '110'] 721.8518518518521
193 14.437037037037037 ['136', '144', '148', '147', '133', '150', '145', '108', '127', '130', '146', '115', '117', '131', '110'] 721.8518518518521
194 14.437037037037037 ['136', '144', '148', '147', '133', '150', '145', '108', '127', '130', '146', '115', '117', '131', '110'] 721.8518518518521
195 14.437037037037037 ['136', '144', '148', '147', '133', '150', '145', '108', '127', '130', '146', '115', '117', '131', '110'] 721.8518518518521
196 14.437037037037037 ['136', '144', '148', '147', '133', '150', '145', '108', '127', '130', '146', '115', '117', '131', '110'] 721.8518518518521
197 14.437037037037037 ['136', '144', '148', '147', '133', '150', '145', '108', '127', '130', '146', '115', '117', '131', '110'] 721.8518518518521
198 14.437037037037037 ['136', '144', '148', '147', '133', '150', '145', '108', '127', '130', '146', '115', '117', '131', '110'] 721.8518518518521
199 14.437037037037037 ['136', '144', '148', '147', '133', '150', '145', '108', '127', '130', '146', '115', '117', '131', '110'] 721.8518518518521
