0 15.562962962962963 ['89', '131', '145', '122', '110', '79', '150', '84', '61', '56', '26', '96', '73', '134', '42'] 796.7555555555556
1 15.496296296296297 ['81', '143', '44', '64', '111', '146', '18', '107', '67', '4', '38', '130', '144', '99', '136'] 789.2888888888889
2 15.37037037037037 ['62', '103', '3', '133', '47', '20', '115', '127', '40', '150', '107', '137', '96', '131', '136'] 783.2740740740745
3 15.34074074074074 ['4', '111', '107', '67', '146', '150', '114', '61', '127', '18', '130', '142', '38', '143', '139'] 778.6518518518513
4 15.08148148148148 ['67', '92', '99', '146', '142', '136', '139', '121', '125', '116', '147', '137', '108', '150', '130'] 773.7407407407409
5 15.08148148148148 ['67', '92', '99', '146', '142', '136', '139', '121', '125', '116', '147', '137', '108', '150', '130'] 768.244444444445
6 14.955555555555556 ['110', '116', '61', '95', '150', '73', '127', '131', '137', '134', '144', '96', '147', '136', '133'] 763.1925925925925
7 14.88888888888889 ['73', '127', '144', '147', '150', '61', '132', '143', '130', '133', '96', '116', '142', '131', '134'] 759.3999999999999
8 14.88888888888889 ['73', '127', '144', '147', '150', '61', '132', '143', '130', '133', '96', '116', '142', '131', '134'] 755.355555555556
9 14.851851851851851 ['144', '116', '127', '73', '150', '147', '131', '134', '99', '95', '130', '125', '61', '142', '146'] 751.0370370370366
10 14.8 ['147', '110', '144', '131', '136', '95', '127', '32', '150', '116', '133', '146', '132', '130', '61'] 746.9185185185187
11 14.718518518518518 ['144', '133', '150', '136', '131', '130', '147', '137', '73', '143', '127', '108', '95', '141', '110'] 744.0074074074072
12 14.651851851851852 ['116', '150', '144', '131', '61', '127', '147', '137', '134', '146', '110', '139', '130', '128', '136'] 741.0962962962961
13 14.62962962962963 ['131', '110', '150', '144', '142', '133', '137', '127', '143', '139', '140', '116', '130', '147', '134'] 738.659259259259
14 14.555555555555555 ['110', '144', '150', '147', '131', '127', '116', '137', '139', '133', '130', '143', '146', '136', '140'] 736.2000000000007
15 14.555555555555555 ['110', '144', '150', '147', '131', '127', '116', '137', '139', '133', '130', '143', '146', '136', '140'] 734.2222222222221
16 14.555555555555555 ['110', '144', '150', '147', '131', '127', '116', '137', '139', '133', '130', '143', '146', '136', '140'] 732.5629629629628
17 14.503703703703703 ['110', '150', '136', '127', '130', '139', '108', '144', '146', '131', '142', '140', '133', '128', '147'] 730.814814814814
18 14.503703703703703 ['110', '150', '136', '127', '130', '139', '108', '144', '146', '131', '142', '140', '133', '128', '147'] 729.1777777777785
19 14.503703703703703 ['110', '150', '136', '127', '130', '139', '108', '144', '146', '131', '142', '140', '133', '128', '147'] 727.6814814814815
20 14.474074074074075 ['139', '133', '131', '110', '136', '144', '147', '146', '127', '150', '140', '130', '143', '108', '128'] 726.6518518518517
21 14.474074074074075 ['139', '133', '131', '110', '136', '144', '147', '146', '127', '150', '140', '130', '143', '108', '128'] 725.6370370370367
22 14.466666666666667 ['150', '147', '131', '127', '139', '136', '140', '146', '130', '134', '110', '133', '144', '141', '128'] 725.0222222222216
23 14.459259259259259 ['150', '144', '133', '131', '141', '140', '110', '147', '136', '130', '127', '139', '108', '128', '146'] 724.577777777777
24 14.459259259259259 ['150', '144', '133', '131', '141', '140', '110', '147', '136', '130', '127', '139', '108', '128', '146'] 724.0148148148154
25 14.459259259259259 ['150', '144', '133', '131', '141', '140', '110', '147', '136', '130', '127', '139', '108', '128', '146'] 723.3333333333335
26 14.459259259259259 ['150', '144', '133', '131', '141', '140', '110', '147', '136', '130', '127', '139', '108', '128', '146'] 723.0740740740749
27 14.459259259259259 ['150', '144', '133', '131', '141', '140', '110', '147', '136', '130', '127', '139', '108', '128', '146'] 722.9629629629637
28 14.459259259259259 ['150', '144', '133', '131', '141', '140', '110', '147', '136', '130', '127', '139', '108', '128', '146'] 722.9629629629637
29 14.459259259259259 ['150', '144', '133', '131', '141', '140', '110', '147', '136', '130', '127', '139', '108', '128', '146'] 722.9629629629637
30 14.459259259259259 ['150', '144', '133', '131', '141', '140', '110', '147', '136', '130', '127', '139', '108', '128', '146'] 722.9629629629637
31 14.459259259259259 ['150', '144', '133', '131', '141', '140', '110', '147', '136', '130', '127', '139', '108', '128', '146'] 722.9629629629637
32 14.459259259259259 ['150', '144', '133', '131', '141', '140', '110', '147', '136', '130', '127', '139', '108', '128', '146'] 722.9629629629637
33 14.459259259259259 ['150', '144', '133', '131', '141', '140', '110', '147', '136', '130', '127', '139', '108', '128', '146'] 722.9629629629637
34 14.459259259259259 ['150', '144', '133', '131', '141', '140', '110', '147', '136', '130', '127', '139', '108', '128', '146'] 722.9629629629637
35 14.459259259259259 ['150', '144', '133', '131', '141', '140', '110', '147', '136', '130', '127', '139', '108', '128', '146'] 722.9629629629637
36 14.459259259259259 ['150', '144', '133', '131', '141', '140', '110', '147', '136', '130', '127', '139', '108', '128', '146'] 722.9629629629637
37 14.459259259259259 ['150', '144', '133', '131', '141', '140', '110', '147', '136', '130', '127', '139', '108', '128', '146'] 722.9629629629637
38 14.459259259259259 ['150', '144', '133', '131', '141', '140', '110', '147', '136', '130', '127', '139', '108', '128', '146'] 722.9629629629637
39 14.459259259259259 ['150', '144', '133', '131', '141', '140', '110', '147', '136', '130', '127', '139', '108', '128', '146'] 722.9629629629637
40 14.459259259259259 ['150', '144', '133', '131', '141', '140', '110', '147', '136', '130', '127', '139', '108', '128', '146'] 722.9629629629637
41 14.459259259259259 ['150', '144', '133', '131', '141', '140', '110', '147', '136', '130', '127', '139', '108', '128', '146'] 722.9629629629637
42 14.459259259259259 ['150', '144', '133', '131', '141', '140', '110', '147', '136', '130', '127', '139', '108', '128', '146'] 722.9629629629637
43 14.459259259259259 ['150', '144', '133', '131', '141', '140', '110', '147', '136', '130', '127', '139', '108', '128', '146'] 722.9629629629637
44 14.459259259259259 ['150', '144', '133', '131', '141', '140', '110', '147', '136', '130', '127', '139', '108', '128', '146'] 722.9629629629637
45 14.459259259259259 ['150', '144', '133', '131', '141', '140', '110', '147', '136', '130', '127', '139', '108', '128', '146'] 722.9629629629637
46 14.459259259259259 ['150', '144', '133', '131', '141', '140', '110', '147', '136', '130', '127', '139', '108', '128', '146'] 722.9629629629637
47 14.459259259259259 ['150', '144', '133', '131', '141', '140', '110', '147', '136', '130', '127', '139', '108', '128', '146'] 722.9629629629637
48 14.459259259259259 ['150', '144', '133', '131', '141', '140', '110', '147', '136', '130', '127', '139', '108', '128', '146'] 722.9629629629637
49 14.459259259259259 ['150', '144', '133', '131', '141', '140', '110', '147', '136', '130', '127', '139', '108', '128', '146'] 722.9629629629637
50 14.459259259259259 ['150', '144', '133', '131', '141', '140', '110', '147', '136', '130', '127', '139', '108', '128', '146'] 722.9629629629637
51 14.459259259259259 ['150', '144', '133', '131', '141', '140', '110', '147', '136', '130', '127', '139', '108', '128', '146'] 722.9629629629637
52 14.459259259259259 ['150', '144', '133', '131', '141', '140', '110', '147', '136', '130', '127', '139', '108', '128', '146'] 722.9629629629637
53 14.459259259259259 ['150', '144', '133', '131', '141', '140', '110', '147', '136', '130', '127', '139', '108', '128', '146'] 722.9629629629637
54 14.459259259259259 ['150', '144', '133', '131', '141', '140', '110', '147', '136', '130', '127', '139', '108', '128', '146'] 722.9629629629637
55 14.459259259259259 ['150', '144', '133', '131', '141', '140', '110', '147', '136', '130', '127', '139', '108', '128', '146'] 722.9629629629637
56 14.459259259259259 ['150', '144', '133', '131', '141', '140', '110', '147', '136', '130', '127', '139', '108', '128', '146'] 722.9629629629637
57 14.459259259259259 ['150', '144', '133', '131', '141', '140', '110', '147', '136', '130', '127', '139', '108', '128', '146'] 722.9629629629637
58 14.459259259259259 ['150', '144', '133', '131', '141', '140', '110', '147', '136', '130', '127', '139', '108', '128', '146'] 722.9629629629637
59 14.459259259259259 ['150', '144', '133', '131', '141', '140', '110', '147', '136', '130', '127', '139', '108', '128', '146'] 722.9629629629637
60 14.459259259259259 ['150', '144', '133', '131', '141', '140', '110', '147', '136', '130', '127', '139', '108', '128', '146'] 722.9629629629637
61 14.459259259259259 ['150', '144', '133', '131', '141', '140', '110', '147', '136', '130', '127', '139', '108', '128', '146'] 722.9629629629637
62 14.459259259259259 ['150', '144', '133', '131', '141', '140', '110', '147', '136', '130', '127', '139', '108', '128', '146'] 722.9629629629637
63 14.459259259259259 ['150', '144', '133', '131', '141', '140', '110', '147', '136', '130', '127', '139', '108', '128', '146'] 722.9629629629637
64 14.459259259259259 ['150', '144', '133', '131', '141', '140', '110', '147', '136', '130', '127', '139', '108', '128', '146'] 722.9629629629637
65 14.459259259259259 ['150', '144', '133', '131', '141', '140', '110', '147', '136', '130', '127', '139', '108', '128', '146'] 722.9629629629637
66 14.459259259259259 ['150', '144', '133', '131', '141', '140', '110', '147', '136', '130', '127', '139', '108', '128', '146'] 722.9629629629637
67 14.459259259259259 ['150', '144', '133', '131', '141', '140', '110', '147', '136', '130', '127', '139', '108', '128', '146'] 722.9629629629637
68 14.459259259259259 ['150', '144', '133', '131', '141', '140', '110', '147', '136', '130', '127', '139', '108', '128', '146'] 722.9629629629637
69 14.459259259259259 ['150', '144', '133', '131', '141', '140', '110', '147', '136', '130', '127', '139', '108', '128', '146'] 722.9629629629637
70 14.459259259259259 ['150', '144', '133', '131', '141', '140', '110', '147', '136', '130', '127', '139', '108', '128', '146'] 722.9629629629637
71 14.459259259259259 ['150', '144', '133', '131', '141', '140', '110', '147', '136', '130', '127', '139', '108', '128', '146'] 722.9629629629637
72 14.459259259259259 ['150', '144', '133', '131', '141', '140', '110', '147', '136', '130', '127', '139', '108', '128', '146'] 722.9629629629637
73 14.459259259259259 ['150', '144', '133', '131', '141', '140', '110', '147', '136', '130', '127', '139', '108', '128', '146'] 722.9629629629637
74 14.459259259259259 ['150', '144', '133', '131', '141', '140', '110', '147', '136', '130', '127', '139', '108', '128', '146'] 722.9629629629637
75 14.459259259259259 ['150', '144', '133', '131', '141', '140', '110', '147', '136', '130', '127', '139', '108', '128', '146'] 722.9629629629637
76 14.459259259259259 ['150', '144', '133', '131', '141', '140', '110', '147', '136', '130', '127', '139', '108', '128', '146'] 722.9629629629637
77 14.459259259259259 ['150', '144', '133', '131', '141', '140', '110', '147', '136', '130', '127', '139', '108', '128', '146'] 722.9629629629637
78 14.459259259259259 ['150', '144', '133', '131', '141', '140', '110', '147', '136', '130', '127', '139', '108', '128', '146'] 722.9629629629637
79 14.459259259259259 ['150', '144', '133', '131', '141', '140', '110', '147', '136', '130', '127', '139', '108', '128', '146'] 722.9629629629637
80 14.459259259259259 ['150', '144', '133', '131', '141', '140', '110', '147', '136', '130', '127', '139', '108', '128', '146'] 722.9629629629637
81 14.459259259259259 ['150', '144', '133', '131', '141', '140', '110', '147', '136', '130', '127', '139', '108', '128', '146'] 722.9629629629637
82 14.459259259259259 ['150', '144', '133', '131', '141', '140', '110', '147', '136', '130', '127', '139', '108', '128', '146'] 722.9629629629637
83 14.459259259259259 ['150', '144', '133', '131', '141', '140', '110', '147', '136', '130', '127', '139', '108', '128', '146'] 722.9629629629637
84 14.459259259259259 ['150', '144', '133', '131', '141', '140', '110', '147', '136', '130', '127', '139', '108', '128', '146'] 722.9629629629637
85 14.459259259259259 ['150', '144', '133', '131', '141', '140', '110', '147', '136', '130', '127', '139', '108', '128', '146'] 722.9629629629637
86 14.459259259259259 ['150', '144', '133', '131', '141', '140', '110', '147', '136', '130', '127', '139', '108', '128', '146'] 722.9629629629637
87 14.459259259259259 ['150', '144', '133', '131', '141', '140', '110', '147', '136', '130', '127', '139', '108', '128', '146'] 722.9629629629637
88 14.459259259259259 ['150', '144', '133', '131', '141', '140', '110', '147', '136', '130', '127', '139', '108', '128', '146'] 722.9629629629637
89 14.459259259259259 ['150', '144', '133', '131', '141', '140', '110', '147', '136', '130', '127', '139', '108', '128', '146'] 722.9629629629637
90 14.459259259259259 ['150', '144', '133', '131', '141', '140', '110', '147', '136', '130', '127', '139', '108', '128', '146'] 722.9629629629637
91 14.459259259259259 ['150', '144', '133', '131', '141', '140', '110', '147', '136', '130', '127', '139', '108', '128', '146'] 722.9629629629637
92 14.459259259259259 ['150', '144', '133', '131', '141', '140', '110', '147', '136', '130', '127', '139', '108', '128', '146'] 722.9629629629637
93 14.459259259259259 ['150', '144', '133', '131', '141', '140', '110', '147', '136', '130', '127', '139', '108', '128', '146'] 722.9629629629637
94 14.459259259259259 ['150', '144', '133', '131', '141', '140', '110', '147', '136', '130', '127', '139', '108', '128', '146'] 722.9629629629637
95 14.459259259259259 ['150', '144', '133', '131', '141', '140', '110', '147', '136', '130', '127', '139', '108', '128', '146'] 722.9629629629637
96 14.459259259259259 ['150', '144', '133', '131', '141', '140', '110', '147', '136', '130', '127', '139', '108', '128', '146'] 722.9629629629637
97 14.459259259259259 ['150', '144', '133', '131', '141', '140', '110', '147', '136', '130', '127', '139', '108', '128', '146'] 722.9629629629637
98 14.459259259259259 ['150', '144', '133', '131', '141', '140', '110', '147', '136', '130', '127', '139', '108', '128', '146'] 722.9629629629637
99 14.459259259259259 ['150', '144', '133', '131', '141', '140', '110', '147', '136', '130', '127', '139', '108', '128', '146'] 722.9629629629637
100 14.459259259259259 ['150', '144', '133', '131', '141', '140', '110', '147', '136', '130', '127', '139', '108', '128', '146'] 722.9629629629637
101 14.459259259259259 ['150', '144', '133', '131', '141', '140', '110', '147', '136', '130', '127', '139', '108', '128', '146'] 722.9629629629637
102 14.459259259259259 ['150', '144', '133', '131', '141', '140', '110', '147', '136', '130', '127', '139', '108', '128', '146'] 722.9629629629637
103 14.459259259259259 ['150', '144', '133', '131', '141', '140', '110', '147', '136', '130', '127', '139', '108', '128', '146'] 722.9629629629637
104 14.459259259259259 ['150', '144', '133', '131', '141', '140', '110', '147', '136', '130', '127', '139', '108', '128', '146'] 722.9629629629637
105 14.459259259259259 ['150', '144', '133', '131', '141', '140', '110', '147', '136', '130', '127', '139', '108', '128', '146'] 722.9629629629637
106 14.459259259259259 ['150', '144', '133', '131', '141', '140', '110', '147', '136', '130', '127', '139', '108', '128', '146'] 722.9629629629637
107 14.459259259259259 ['150', '144', '133', '131', '141', '140', '110', '147', '136', '130', '127', '139', '108', '128', '146'] 722.9629629629637
108 14.459259259259259 ['150', '144', '133', '131', '141', '140', '110', '147', '136', '130', '127', '139', '108', '128', '146'] 722.9629629629637
109 14.459259259259259 ['150', '144', '133', '131', '141', '140', '110', '147', '136', '130', '127', '139', '108', '128', '146'] 722.9629629629637
110 14.459259259259259 ['150', '144', '133', '131', '141', '140', '110', '147', '136', '130', '127', '139', '108', '128', '146'] 722.9629629629637
111 14.459259259259259 ['150', '144', '133', '131', '141', '140', '110', '147', '136', '130', '127', '139', '108', '128', '146'] 722.9629629629637
112 14.459259259259259 ['150', '144', '133', '131', '141', '140', '110', '147', '136', '130', '127', '139', '108', '128', '146'] 722.9629629629637
113 14.459259259259259 ['150', '144', '133', '131', '141', '140', '110', '147', '136', '130', '127', '139', '108', '128', '146'] 722.9629629629637
114 14.459259259259259 ['150', '144', '133', '131', '141', '140', '110', '147', '136', '130', '127', '139', '108', '128', '146'] 722.9629629629637
115 14.459259259259259 ['150', '144', '133', '131', '141', '140', '110', '147', '136', '130', '127', '139', '108', '128', '146'] 722.9629629629637
116 14.459259259259259 ['150', '144', '133', '131', '141', '140', '110', '147', '136', '130', '127', '139', '108', '128', '146'] 722.9629629629637
117 14.459259259259259 ['150', '144', '133', '131', '141', '140', '110', '147', '136', '130', '127', '139', '108', '128', '146'] 722.9629629629637
118 14.459259259259259 ['150', '144', '133', '131', '141', '140', '110', '147', '136', '130', '127', '139', '108', '128', '146'] 722.9629629629637
119 14.459259259259259 ['150', '144', '133', '131', '141', '140', '110', '147', '136', '130', '127', '139', '108', '128', '146'] 722.9629629629637
120 14.459259259259259 ['150', '144', '133', '131', '141', '140', '110', '147', '136', '130', '127', '139', '108', '128', '146'] 722.9629629629637
121 14.459259259259259 ['150', '144', '133', '131', '141', '140', '110', '147', '136', '130', '127', '139', '108', '128', '146'] 722.9629629629637
122 14.459259259259259 ['150', '144', '133', '131', '141', '140', '110', '147', '136', '130', '127', '139', '108', '128', '146'] 722.9629629629637
123 14.459259259259259 ['150', '144', '133', '131', '141', '140', '110', '147', '136', '130', '127', '139', '108', '128', '146'] 722.9629629629637
124 14.459259259259259 ['150', '144', '133', '131', '141', '140', '110', '147', '136', '130', '127', '139', '108', '128', '146'] 722.9629629629637
125 14.459259259259259 ['150', '144', '133', '131', '141', '140', '110', '147', '136', '130', '127', '139', '108', '128', '146'] 722.9629629629637
126 14.459259259259259 ['150', '144', '133', '131', '141', '140', '110', '147', '136', '130', '127', '139', '108', '128', '146'] 722.9629629629637
127 14.459259259259259 ['150', '144', '133', '131', '141', '140', '110', '147', '136', '130', '127', '139', '108', '128', '146'] 722.9629629629637
128 14.459259259259259 ['150', '144', '133', '131', '141', '140', '110', '147', '136', '130', '127', '139', '108', '128', '146'] 722.9629629629637
129 14.459259259259259 ['150', '144', '133', '131', '141', '140', '110', '147', '136', '130', '127', '139', '108', '128', '146'] 722.9629629629637
130 14.459259259259259 ['150', '144', '133', '131', '141', '140', '110', '147', '136', '130', '127', '139', '108', '128', '146'] 722.9629629629637
131 14.459259259259259 ['150', '144', '133', '131', '141', '140', '110', '147', '136', '130', '127', '139', '108', '128', '146'] 722.9629629629637
132 14.459259259259259 ['150', '144', '133', '131', '141', '140', '110', '147', '136', '130', '127', '139', '108', '128', '146'] 722.9629629629637
133 14.459259259259259 ['150', '144', '133', '131', '141', '140', '110', '147', '136', '130', '127', '139', '108', '128', '146'] 722.9629629629637
134 14.459259259259259 ['150', '144', '133', '131', '141', '140', '110', '147', '136', '130', '127', '139', '108', '128', '146'] 722.9629629629637
135 14.459259259259259 ['150', '144', '133', '131', '141', '140', '110', '147', '136', '130', '127', '139', '108', '128', '146'] 722.9629629629637
136 14.459259259259259 ['150', '144', '133', '131', '141', '140', '110', '147', '136', '130', '127', '139', '108', '128', '146'] 722.9629629629637
137 14.459259259259259 ['150', '144', '133', '131', '141', '140', '110', '147', '136', '130', '127', '139', '108', '128', '146'] 722.9629629629637
138 14.459259259259259 ['150', '144', '133', '131', '141', '140', '110', '147', '136', '130', '127', '139', '108', '128', '146'] 722.9629629629637
139 14.459259259259259 ['150', '144', '133', '131', '141', '140', '110', '147', '136', '130', '127', '139', '108', '128', '146'] 722.9629629629637
140 14.459259259259259 ['150', '144', '133', '131', '141', '140', '110', '147', '136', '130', '127', '139', '108', '128', '146'] 722.9629629629637
141 14.459259259259259 ['150', '144', '133', '131', '141', '140', '110', '147', '136', '130', '127', '139', '108', '128', '146'] 722.9629629629637
142 14.459259259259259 ['150', '144', '133', '131', '141', '140', '110', '147', '136', '130', '127', '139', '108', '128', '146'] 722.9629629629637
143 14.459259259259259 ['150', '144', '133', '131', '141', '140', '110', '147', '136', '130', '127', '139', '108', '128', '146'] 722.9629629629637
144 14.459259259259259 ['150', '144', '133', '131', '141', '140', '110', '147', '136', '130', '127', '139', '108', '128', '146'] 722.9629629629637
145 14.459259259259259 ['150', '144', '133', '131', '141', '140', '110', '147', '136', '130', '127', '139', '108', '128', '146'] 722.9629629629637
146 14.459259259259259 ['150', '144', '133', '131', '141', '140', '110', '147', '136', '130', '127', '139', '108', '128', '146'] 722.9629629629637
147 14.459259259259259 ['150', '144', '133', '131', '141', '140', '110', '147', '136', '130', '127', '139', '108', '128', '146'] 722.9629629629637
148 14.459259259259259 ['150', '144', '133', '131', '141', '140', '110', '147', '136', '130', '127', '139', '108', '128', '146'] 722.9629629629637
149 14.459259259259259 ['150', '144', '133', '131', '141', '140', '110', '147', '136', '130', '127', '139', '108', '128', '146'] 722.9629629629637
150 14.459259259259259 ['150', '144', '133', '131', '141', '140', '110', '147', '136', '130', '127', '139', '108', '128', '146'] 722.9629629629637
151 14.459259259259259 ['150', '144', '133', '131', '141', '140', '110', '147', '136', '130', '127', '139', '108', '128', '146'] 722.9629629629637
152 14.459259259259259 ['150', '144', '133', '131', '141', '140', '110', '147', '136', '130', '127', '139', '108', '128', '146'] 722.9629629629637
153 14.459259259259259 ['150', '144', '133', '131', '141', '140', '110', '147', '136', '130', '127', '139', '108', '128', '146'] 722.9629629629637
154 14.459259259259259 ['150', '144', '133', '131', '141', '140', '110', '147', '136', '130', '127', '139', '108', '128', '146'] 722.9629629629637
155 14.459259259259259 ['150', '144', '133', '131', '141', '140', '110', '147', '136', '130', '127', '139', '108', '128', '146'] 722.9629629629637
156 14.459259259259259 ['150', '144', '133', '131', '141', '140', '110', '147', '136', '130', '127', '139', '108', '128', '146'] 722.9629629629637
157 14.459259259259259 ['150', '144', '133', '131', '141', '140', '110', '147', '136', '130', '127', '139', '108', '128', '146'] 722.9629629629637
158 14.459259259259259 ['150', '144', '133', '131', '141', '140', '110', '147', '136', '130', '127', '139', '108', '128', '146'] 722.9629629629637
159 14.459259259259259 ['150', '144', '133', '131', '141', '140', '110', '147', '136', '130', '127', '139', '108', '128', '146'] 722.9629629629637
160 14.459259259259259 ['150', '144', '133', '131', '141', '140', '110', '147', '136', '130', '127', '139', '108', '128', '146'] 722.9629629629637
161 14.459259259259259 ['150', '144', '133', '131', '141', '140', '110', '147', '136', '130', '127', '139', '108', '128', '146'] 722.9629629629637
162 14.459259259259259 ['150', '144', '133', '131', '141', '140', '110', '147', '136', '130', '127', '139', '108', '128', '146'] 722.9629629629637
163 14.459259259259259 ['150', '144', '133', '131', '141', '140', '110', '147', '136', '130', '127', '139', '108', '128', '146'] 722.9629629629637
164 14.459259259259259 ['150', '144', '133', '131', '141', '140', '110', '147', '136', '130', '127', '139', '108', '128', '146'] 722.9629629629637
165 14.459259259259259 ['150', '144', '133', '131', '141', '140', '110', '147', '136', '130', '127', '139', '108', '128', '146'] 722.9629629629637
166 14.459259259259259 ['150', '144', '133', '131', '141', '140', '110', '147', '136', '130', '127', '139', '108', '128', '146'] 722.9629629629637
167 14.459259259259259 ['150', '144', '133', '131', '141', '140', '110', '147', '136', '130', '127', '139', '108', '128', '146'] 722.9629629629637
168 14.459259259259259 ['150', '144', '133', '131', '141', '140', '110', '147', '136', '130', '127', '139', '108', '128', '146'] 722.9629629629637
169 14.459259259259259 ['150', '144', '133', '131', '141', '140', '110', '147', '136', '130', '127', '139', '108', '128', '146'] 722.9629629629637
170 14.459259259259259 ['150', '144', '133', '131', '141', '140', '110', '147', '136', '130', '127', '139', '108', '128', '146'] 722.9629629629637
171 14.459259259259259 ['150', '144', '133', '131', '141', '140', '110', '147', '136', '130', '127', '139', '108', '128', '146'] 722.9629629629637
172 14.459259259259259 ['150', '144', '133', '131', '141', '140', '110', '147', '136', '130', '127', '139', '108', '128', '146'] 722.9629629629637
173 14.459259259259259 ['150', '144', '133', '131', '141', '140', '110', '147', '136', '130', '127', '139', '108', '128', '146'] 722.9629629629637
174 14.459259259259259 ['150', '144', '133', '131', '141', '140', '110', '147', '136', '130', '127', '139', '108', '128', '146'] 722.9629629629637
175 14.459259259259259 ['150', '144', '133', '131', '141', '140', '110', '147', '136', '130', '127', '139', '108', '128', '146'] 722.9629629629637
176 14.459259259259259 ['150', '144', '133', '131', '141', '140', '110', '147', '136', '130', '127', '139', '108', '128', '146'] 722.9629629629637
177 14.459259259259259 ['150', '144', '133', '131', '141', '140', '110', '147', '136', '130', '127', '139', '108', '128', '146'] 722.9629629629637
178 14.459259259259259 ['150', '144', '133', '131', '141', '140', '110', '147', '136', '130', '127', '139', '108', '128', '146'] 722.9629629629637
179 14.459259259259259 ['150', '144', '133', '131', '141', '140', '110', '147', '136', '130', '127', '139', '108', '128', '146'] 722.9629629629637
180 14.459259259259259 ['150', '144', '133', '131', '141', '140', '110', '147', '136', '130', '127', '139', '108', '128', '146'] 722.9629629629637
181 14.459259259259259 ['150', '144', '133', '131', '141', '140', '110', '147', '136', '130', '127', '139', '108', '128', '146'] 722.9629629629637
182 14.459259259259259 ['150', '144', '133', '131', '141', '140', '110', '147', '136', '130', '127', '139', '108', '128', '146'] 722.9629629629637
183 14.459259259259259 ['150', '144', '133', '131', '141', '140', '110', '147', '136', '130', '127', '139', '108', '128', '146'] 722.9629629629637
184 14.459259259259259 ['150', '144', '133', '131', '141', '140', '110', '147', '136', '130', '127', '139', '108', '128', '146'] 722.9629629629637
185 14.459259259259259 ['150', '144', '133', '131', '141', '140', '110', '147', '136', '130', '127', '139', '108', '128', '146'] 722.9629629629637
186 14.459259259259259 ['150', '144', '133', '131', '141', '140', '110', '147', '136', '130', '127', '139', '108', '128', '146'] 722.9629629629637
187 14.459259259259259 ['150', '144', '133', '131', '141', '140', '110', '147', '136', '130', '127', '139', '108', '128', '146'] 722.9629629629637
188 14.459259259259259 ['150', '144', '133', '131', '141', '140', '110', '147', '136', '130', '127', '139', '108', '128', '146'] 722.9629629629637
189 14.459259259259259 ['150', '144', '133', '131', '141', '140', '110', '147', '136', '130', '127', '139', '108', '128', '146'] 722.9629629629637
190 14.459259259259259 ['150', '144', '133', '131', '141', '140', '110', '147', '136', '130', '127', '139', '108', '128', '146'] 722.9629629629637
191 14.459259259259259 ['150', '144', '133', '131', '141', '140', '110', '147', '136', '130', '127', '139', '108', '128', '146'] 722.9629629629637
192 14.459259259259259 ['150', '144', '133', '131', '141', '140', '110', '147', '136', '130', '127', '139', '108', '128', '146'] 722.9629629629637
193 14.459259259259259 ['150', '144', '133', '131', '141', '140', '110', '147', '136', '130', '127', '139', '108', '128', '146'] 722.9629629629637
194 14.459259259259259 ['150', '144', '133', '131', '141', '140', '110', '147', '136', '130', '127', '139', '108', '128', '146'] 722.9629629629637
195 14.459259259259259 ['150', '144', '133', '131', '141', '140', '110', '147', '136', '130', '127', '139', '108', '128', '146'] 722.9629629629637
196 14.459259259259259 ['150', '144', '133', '131', '141', '140', '110', '147', '136', '130', '127', '139', '108', '128', '146'] 722.9629629629637
197 14.459259259259259 ['150', '144', '133', '131', '141', '140', '110', '147', '136', '130', '127', '139', '108', '128', '146'] 722.9629629629637
198 14.459259259259259 ['150', '144', '133', '131', '141', '140', '110', '147', '136', '130', '127', '139', '108', '128', '146'] 722.9629629629637
199 14.459259259259259 ['150', '144', '133', '131', '141', '140', '110', '147', '136', '130', '127', '139', '108', '128', '146'] 722.9629629629637
