0 13.014814814814814 ['96', '129', '119', '16', '142', '141', '133', '120', '90', '117', '46', '146', '115', '131', '134'] 676.8074074074074
1 12.829629629629629 ['119', '141', '115', '134', '146', '138', '16', '143', '137', '102', '63', '96', '92', '142', '18'] 667.933333333333
2 12.829629629629629 ['119', '141', '115', '134', '146', '138', '16', '143', '137', '102', '63', '96', '92', '142', '18'] 659.2148148148151
3 12.666666666666666 ['89', '150', '109', '125', '146', '141', '88', '105', '119', '129', '61', '132', '142', '128', '43'] 651.814814814815
4 12.57037037037037 ['125', '142', '129', '119', '146', '61', '144', '120', '128', '88', '148', '73', '141', '31', '132'] 645.5555555555559
5 12.511111111111111 ['146', '119', '125', '129', '128', '61', '137', '142', '88', '96', '148', '147', '115', '114', '18'] 639.3185185185188
6 12.481481481481481 ['96', '134', '63', '137', '142', '119', '141', '138', '121', '133', '88', '129', '18', '143', '146'] 635.207407407407
7 12.325925925925926 ['142', '96', '119', '137', '146', '61', '88', '138', '150', '148', '125', '57', '147', '141', '129'] 630.4444444444445
8 12.303703703703704 ['88', '119', '146', '128', '141', '129', '148', '61', '125', '138', '132', '150', '144', '87', '89'] 625.4814814814818
9 12.25925925925926 ['61', '142', '148', '129', '146', '120', '131', '119', '96', '144', '141', '135', '139', '143', '128'] 621.133333333333
10 12.103703703703705 ['128', '150', '141', '146', '119', '129', '144', '125', '142', '143', '117', '148', '135', '88', '149'] 616.7407407407408
11 12.103703703703705 ['128', '150', '141', '146', '119', '129', '144', '125', '142', '143', '117', '148', '135', '88', '149'] 613.9851851851856
12 12.103703703703705 ['128', '150', '141', '146', '119', '129', '144', '125', '142', '143', '117', '148', '135', '88', '149'] 611.4222222222221
13 12.051851851851852 ['141', '119', '146', '129', '128', '142', '125', '131', '144', '149', '143', '148', '150', '135', '147'] 609.2148148148144
14 12.014814814814814 ['142', '146', '125', '144', '141', '131', '147', '137', '119', '149', '135', '138', '143', '148', '128'] 607.2814814814822
15 11.97037037037037 ['128', '141', '142', '138', '144', '125', '119', '146', '129', '135', '143', '126', '149', '120', '148'] 605.5851851851851
16 11.97037037037037 ['128', '141', '142', '138', '144', '125', '119', '146', '129', '135', '143', '126', '149', '120', '148'] 603.5777777777778
17 11.955555555555556 ['149', '144', '125', '141', '148', '135', '150', '146', '119', '147', '138', '142', '128', '143', '132'] 601.6074074074066
18 11.948148148148148 ['129', '148', '146', '143', '119', '128', '138', '142', '149', '141', '144', '125', '120', '135', '139'] 599.8740740740744
19 11.903703703703703 ['149', '125', '135', '142', '141', '147', '129', '146', '148', '144', '132', '138', '119', '143', '134'] 598.496296296296
20 11.896296296296295 ['146', '138', '143', '148', '129', '135', '128', '125', '119', '141', '142', '149', '132', '134', '144'] 597.7407407407405
21 11.896296296296295 ['146', '138', '143', '148', '129', '135', '128', '125', '119', '141', '142', '149', '132', '134', '144'] 596.9703703703705
22 11.874074074074073 ['128', '148', '144', '146', '138', '119', '134', '141', '125', '142', '149', '143', '129', '145', '135'] 596.2296296296292
23 11.874074074074073 ['128', '148', '144', '146', '138', '119', '134', '141', '125', '142', '149', '143', '129', '145', '135'] 595.3407407407408
24 11.874074074074073 ['128', '148', '144', '146', '138', '119', '134', '141', '125', '142', '149', '143', '129', '145', '135'] 594.7111111111109
25 11.85925925925926 ['142', '143', '148', '138', '119', '149', '129', '144', '135', '125', '146', '141', '134', '132', '145'] 594.2444444444446
26 11.85925925925926 ['142', '143', '148', '138', '119', '149', '129', '144', '135', '125', '146', '141', '134', '132', '145'] 593.7777777777784
27 11.85925925925926 ['142', '143', '148', '138', '119', '149', '129', '144', '135', '125', '146', '141', '134', '132', '145'] 593.6296296296301
28 11.85925925925926 ['142', '143', '148', '138', '119', '149', '129', '144', '135', '125', '146', '141', '134', '132', '145'] 593.5407407407412
29 11.85925925925926 ['142', '143', '148', '138', '119', '149', '129', '144', '135', '125', '146', '141', '134', '132', '145'] 593.3185185185188
30 11.85925925925926 ['142', '143', '148', '138', '119', '149', '129', '144', '135', '125', '146', '141', '134', '132', '145'] 592.9629629629629
31 11.85925925925926 ['142', '143', '148', '138', '119', '149', '129', '144', '135', '125', '146', '141', '134', '132', '145'] 592.9629629629629
32 11.85925925925926 ['142', '143', '148', '138', '119', '149', '129', '144', '135', '125', '146', '141', '134', '132', '145'] 592.9629629629629
33 11.85925925925926 ['142', '143', '148', '138', '119', '149', '129', '144', '135', '125', '146', '141', '134', '132', '145'] 592.9629629629629
34 11.85925925925926 ['142', '143', '148', '138', '119', '149', '129', '144', '135', '125', '146', '141', '134', '132', '145'] 592.9629629629629
35 11.85925925925926 ['142', '143', '148', '138', '119', '149', '129', '144', '135', '125', '146', '141', '134', '132', '145'] 592.9629629629629
36 11.85925925925926 ['142', '143', '148', '138', '119', '149', '129', '144', '135', '125', '146', '141', '134', '132', '145'] 592.9629629629629
37 11.85925925925926 ['142', '143', '148', '138', '119', '149', '129', '144', '135', '125', '146', '141', '134', '132', '145'] 592.9629629629629
38 11.85925925925926 ['142', '143', '148', '138', '119', '149', '129', '144', '135', '125', '146', '141', '134', '132', '145'] 592.9629629629629
39 11.85925925925926 ['142', '143', '148', '138', '119', '149', '129', '144', '135', '125', '146', '141', '134', '132', '145'] 592.9629629629629
40 11.85925925925926 ['142', '143', '148', '138', '119', '149', '129', '144', '135', '125', '146', '141', '134', '132', '145'] 592.9629629629629
41 11.85925925925926 ['142', '143', '148', '138', '119', '149', '129', '144', '135', '125', '146', '141', '134', '132', '145'] 592.9629629629629
42 11.85925925925926 ['142', '143', '148', '138', '119', '149', '129', '144', '135', '125', '146', '141', '134', '132', '145'] 592.9629629629629
43 11.85925925925926 ['142', '143', '148', '138', '119', '149', '129', '144', '135', '125', '146', '141', '134', '132', '145'] 592.9629629629629
44 11.85925925925926 ['142', '143', '148', '138', '119', '149', '129', '144', '135', '125', '146', '141', '134', '132', '145'] 592.9629629629629
45 11.85925925925926 ['142', '143', '148', '138', '119', '149', '129', '144', '135', '125', '146', '141', '134', '132', '145'] 592.9629629629629
46 11.85925925925926 ['142', '143', '148', '138', '119', '149', '129', '144', '135', '125', '146', '141', '134', '132', '145'] 592.9629629629629
47 11.85925925925926 ['142', '143', '148', '138', '119', '149', '129', '144', '135', '125', '146', '141', '134', '132', '145'] 592.9629629629629
48 11.85925925925926 ['142', '143', '148', '138', '119', '149', '129', '144', '135', '125', '146', '141', '134', '132', '145'] 592.9629629629629
49 11.85925925925926 ['142', '143', '148', '138', '119', '149', '129', '144', '135', '125', '146', '141', '134', '132', '145'] 592.9629629629629
50 11.85925925925926 ['142', '143', '148', '138', '119', '149', '129', '144', '135', '125', '146', '141', '134', '132', '145'] 592.9629629629629
51 11.85925925925926 ['142', '143', '148', '138', '119', '149', '129', '144', '135', '125', '146', '141', '134', '132', '145'] 592.9629629629629
52 11.85925925925926 ['142', '143', '148', '138', '119', '149', '129', '144', '135', '125', '146', '141', '134', '132', '145'] 592.9629629629629
53 11.85925925925926 ['142', '143', '148', '138', '119', '149', '129', '144', '135', '125', '146', '141', '134', '132', '145'] 592.9629629629629
54 11.85925925925926 ['142', '143', '148', '138', '119', '149', '129', '144', '135', '125', '146', '141', '134', '132', '145'] 592.9629629629629
55 11.85925925925926 ['142', '143', '148', '138', '119', '149', '129', '144', '135', '125', '146', '141', '134', '132', '145'] 592.9629629629629
56 11.85925925925926 ['142', '143', '148', '138', '119', '149', '129', '144', '135', '125', '146', '141', '134', '132', '145'] 592.9629629629629
57 11.85925925925926 ['142', '143', '148', '138', '119', '149', '129', '144', '135', '125', '146', '141', '134', '132', '145'] 592.9629629629629
58 11.85925925925926 ['142', '143', '148', '138', '119', '149', '129', '144', '135', '125', '146', '141', '134', '132', '145'] 592.9629629629629
59 11.85925925925926 ['142', '143', '148', '138', '119', '149', '129', '144', '135', '125', '146', '141', '134', '132', '145'] 592.9629629629629
60 11.85925925925926 ['142', '143', '148', '138', '119', '149', '129', '144', '135', '125', '146', '141', '134', '132', '145'] 592.9629629629629
61 11.85925925925926 ['142', '143', '148', '138', '119', '149', '129', '144', '135', '125', '146', '141', '134', '132', '145'] 592.9629629629629
62 11.85925925925926 ['142', '143', '148', '138', '119', '149', '129', '144', '135', '125', '146', '141', '134', '132', '145'] 592.9629629629629
63 11.85925925925926 ['142', '143', '148', '138', '119', '149', '129', '144', '135', '125', '146', '141', '134', '132', '145'] 592.9629629629629
64 11.85925925925926 ['142', '143', '148', '138', '119', '149', '129', '144', '135', '125', '146', '141', '134', '132', '145'] 592.9629629629629
65 11.85925925925926 ['142', '143', '148', '138', '119', '149', '129', '144', '135', '125', '146', '141', '134', '132', '145'] 592.9629629629629
66 11.85925925925926 ['142', '143', '148', '138', '119', '149', '129', '144', '135', '125', '146', '141', '134', '132', '145'] 592.9629629629629
67 11.85925925925926 ['142', '143', '148', '138', '119', '149', '129', '144', '135', '125', '146', '141', '134', '132', '145'] 592.9629629629629
68 11.85925925925926 ['142', '143', '148', '138', '119', '149', '129', '144', '135', '125', '146', '141', '134', '132', '145'] 592.9629629629629
69 11.85925925925926 ['142', '143', '148', '138', '119', '149', '129', '144', '135', '125', '146', '141', '134', '132', '145'] 592.9629629629629
70 11.85925925925926 ['142', '143', '148', '138', '119', '149', '129', '144', '135', '125', '146', '141', '134', '132', '145'] 592.9629629629629
71 11.85925925925926 ['142', '143', '148', '138', '119', '149', '129', '144', '135', '125', '146', '141', '134', '132', '145'] 592.9629629629629
72 11.85925925925926 ['142', '143', '148', '138', '119', '149', '129', '144', '135', '125', '146', '141', '134', '132', '145'] 592.9629629629629
73 11.85925925925926 ['142', '143', '148', '138', '119', '149', '129', '144', '135', '125', '146', '141', '134', '132', '145'] 592.9629629629629
74 11.85925925925926 ['142', '143', '148', '138', '119', '149', '129', '144', '135', '125', '146', '141', '134', '132', '145'] 592.9629629629629
75 11.85925925925926 ['142', '143', '148', '138', '119', '149', '129', '144', '135', '125', '146', '141', '134', '132', '145'] 592.9629629629629
76 11.85925925925926 ['142', '143', '148', '138', '119', '149', '129', '144', '135', '125', '146', '141', '134', '132', '145'] 592.9629629629629
77 11.85925925925926 ['142', '143', '148', '138', '119', '149', '129', '144', '135', '125', '146', '141', '134', '132', '145'] 592.9629629629629
78 11.85925925925926 ['142', '143', '148', '138', '119', '149', '129', '144', '135', '125', '146', '141', '134', '132', '145'] 592.9629629629629
79 11.85925925925926 ['142', '143', '148', '138', '119', '149', '129', '144', '135', '125', '146', '141', '134', '132', '145'] 592.9629629629629
80 11.85925925925926 ['142', '143', '148', '138', '119', '149', '129', '144', '135', '125', '146', '141', '134', '132', '145'] 592.9629629629629
81 11.85925925925926 ['142', '143', '148', '138', '119', '149', '129', '144', '135', '125', '146', '141', '134', '132', '145'] 592.9629629629629
82 11.85925925925926 ['142', '143', '148', '138', '119', '149', '129', '144', '135', '125', '146', '141', '134', '132', '145'] 592.9629629629629
83 11.85925925925926 ['142', '143', '148', '138', '119', '149', '129', '144', '135', '125', '146', '141', '134', '132', '145'] 592.9629629629629
84 11.85925925925926 ['142', '143', '148', '138', '119', '149', '129', '144', '135', '125', '146', '141', '134', '132', '145'] 592.9629629629629
85 11.85925925925926 ['142', '143', '148', '138', '119', '149', '129', '144', '135', '125', '146', '141', '134', '132', '145'] 592.9629629629629
86 11.85925925925926 ['142', '143', '148', '138', '119', '149', '129', '144', '135', '125', '146', '141', '134', '132', '145'] 592.9629629629629
87 11.85925925925926 ['142', '143', '148', '138', '119', '149', '129', '144', '135', '125', '146', '141', '134', '132', '145'] 592.9629629629629
88 11.85925925925926 ['142', '143', '148', '138', '119', '149', '129', '144', '135', '125', '146', '141', '134', '132', '145'] 592.9629629629629
89 11.85925925925926 ['142', '143', '148', '138', '119', '149', '129', '144', '135', '125', '146', '141', '134', '132', '145'] 592.9629629629629
90 11.85925925925926 ['142', '143', '148', '138', '119', '149', '129', '144', '135', '125', '146', '141', '134', '132', '145'] 592.9629629629629
91 11.85925925925926 ['142', '143', '148', '138', '119', '149', '129', '144', '135', '125', '146', '141', '134', '132', '145'] 592.9629629629629
92 11.85925925925926 ['142', '143', '148', '138', '119', '149', '129', '144', '135', '125', '146', '141', '134', '132', '145'] 592.9629629629629
93 11.85925925925926 ['142', '143', '148', '138', '119', '149', '129', '144', '135', '125', '146', '141', '134', '132', '145'] 592.9629629629629
94 11.85925925925926 ['142', '143', '148', '138', '119', '149', '129', '144', '135', '125', '146', '141', '134', '132', '145'] 592.9629629629629
95 11.85925925925926 ['142', '143', '148', '138', '119', '149', '129', '144', '135', '125', '146', '141', '134', '132', '145'] 592.9629629629629
96 11.85925925925926 ['142', '143', '148', '138', '119', '149', '129', '144', '135', '125', '146', '141', '134', '132', '145'] 592.9629629629629
97 11.85925925925926 ['142', '143', '148', '138', '119', '149', '129', '144', '135', '125', '146', '141', '134', '132', '145'] 592.9629629629629
98 11.85925925925926 ['142', '143', '148', '138', '119', '149', '129', '144', '135', '125', '146', '141', '134', '132', '145'] 592.9629629629629
99 11.85925925925926 ['142', '143', '148', '138', '119', '149', '129', '144', '135', '125', '146', '141', '134', '132', '145'] 592.9629629629629
100 11.85925925925926 ['142', '143', '148', '138', '119', '149', '129', '144', '135', '125', '146', '141', '134', '132', '145'] 592.9629629629629
101 11.85925925925926 ['142', '143', '148', '138', '119', '149', '129', '144', '135', '125', '146', '141', '134', '132', '145'] 592.9629629629629
102 11.85925925925926 ['142', '143', '148', '138', '119', '149', '129', '144', '135', '125', '146', '141', '134', '132', '145'] 592.9629629629629
103 11.85925925925926 ['142', '143', '148', '138', '119', '149', '129', '144', '135', '125', '146', '141', '134', '132', '145'] 592.9629629629629
104 11.85925925925926 ['142', '143', '148', '138', '119', '149', '129', '144', '135', '125', '146', '141', '134', '132', '145'] 592.9629629629629
105 11.85925925925926 ['142', '143', '148', '138', '119', '149', '129', '144', '135', '125', '146', '141', '134', '132', '145'] 592.9629629629629
106 11.85925925925926 ['142', '143', '148', '138', '119', '149', '129', '144', '135', '125', '146', '141', '134', '132', '145'] 592.9629629629629
107 11.85925925925926 ['142', '143', '148', '138', '119', '149', '129', '144', '135', '125', '146', '141', '134', '132', '145'] 592.9629629629629
108 11.85925925925926 ['142', '143', '148', '138', '119', '149', '129', '144', '135', '125', '146', '141', '134', '132', '145'] 592.9629629629629
109 11.85925925925926 ['142', '143', '148', '138', '119', '149', '129', '144', '135', '125', '146', '141', '134', '132', '145'] 592.9629629629629
110 11.85925925925926 ['142', '143', '148', '138', '119', '149', '129', '144', '135', '125', '146', '141', '134', '132', '145'] 592.9629629629629
111 11.85925925925926 ['142', '143', '148', '138', '119', '149', '129', '144', '135', '125', '146', '141', '134', '132', '145'] 592.9629629629629
112 11.85925925925926 ['142', '143', '148', '138', '119', '149', '129', '144', '135', '125', '146', '141', '134', '132', '145'] 592.9629629629629
113 11.85925925925926 ['142', '143', '148', '138', '119', '149', '129', '144', '135', '125', '146', '141', '134', '132', '145'] 592.9629629629629
114 11.85925925925926 ['142', '143', '148', '138', '119', '149', '129', '144', '135', '125', '146', '141', '134', '132', '145'] 592.9629629629629
115 11.85925925925926 ['142', '143', '148', '138', '119', '149', '129', '144', '135', '125', '146', '141', '134', '132', '145'] 592.9629629629629
116 11.85925925925926 ['142', '143', '148', '138', '119', '149', '129', '144', '135', '125', '146', '141', '134', '132', '145'] 592.9629629629629
117 11.85925925925926 ['142', '143', '148', '138', '119', '149', '129', '144', '135', '125', '146', '141', '134', '132', '145'] 592.9629629629629
118 11.85925925925926 ['142', '143', '148', '138', '119', '149', '129', '144', '135', '125', '146', '141', '134', '132', '145'] 592.9629629629629
119 11.85925925925926 ['142', '143', '148', '138', '119', '149', '129', '144', '135', '125', '146', '141', '134', '132', '145'] 592.9629629629629
120 11.85925925925926 ['142', '143', '148', '138', '119', '149', '129', '144', '135', '125', '146', '141', '134', '132', '145'] 592.9629629629629
121 11.85925925925926 ['142', '143', '148', '138', '119', '149', '129', '144', '135', '125', '146', '141', '134', '132', '145'] 592.9629629629629
122 11.85925925925926 ['142', '143', '148', '138', '119', '149', '129', '144', '135', '125', '146', '141', '134', '132', '145'] 592.9629629629629
123 11.85925925925926 ['142', '143', '148', '138', '119', '149', '129', '144', '135', '125', '146', '141', '134', '132', '145'] 592.9629629629629
124 11.85925925925926 ['142', '143', '148', '138', '119', '149', '129', '144', '135', '125', '146', '141', '134', '132', '145'] 592.9629629629629
125 11.85925925925926 ['142', '143', '148', '138', '119', '149', '129', '144', '135', '125', '146', '141', '134', '132', '145'] 592.9629629629629
126 11.85925925925926 ['142', '143', '148', '138', '119', '149', '129', '144', '135', '125', '146', '141', '134', '132', '145'] 592.9629629629629
127 11.85925925925926 ['142', '143', '148', '138', '119', '149', '129', '144', '135', '125', '146', '141', '134', '132', '145'] 592.9629629629629
128 11.85925925925926 ['142', '143', '148', '138', '119', '149', '129', '144', '135', '125', '146', '141', '134', '132', '145'] 592.9629629629629
129 11.85925925925926 ['142', '143', '148', '138', '119', '149', '129', '144', '135', '125', '146', '141', '134', '132', '145'] 592.9629629629629
130 11.85925925925926 ['142', '143', '148', '138', '119', '149', '129', '144', '135', '125', '146', '141', '134', '132', '145'] 592.9629629629629
131 11.85925925925926 ['142', '143', '148', '138', '119', '149', '129', '144', '135', '125', '146', '141', '134', '132', '145'] 592.9629629629629
132 11.85925925925926 ['142', '143', '148', '138', '119', '149', '129', '144', '135', '125', '146', '141', '134', '132', '145'] 592.9629629629629
133 11.85925925925926 ['142', '143', '148', '138', '119', '149', '129', '144', '135', '125', '146', '141', '134', '132', '145'] 592.9629629629629
134 11.85925925925926 ['142', '143', '148', '138', '119', '149', '129', '144', '135', '125', '146', '141', '134', '132', '145'] 592.9629629629629
135 11.85925925925926 ['142', '143', '148', '138', '119', '149', '129', '144', '135', '125', '146', '141', '134', '132', '145'] 592.9629629629629
136 11.85925925925926 ['142', '143', '148', '138', '119', '149', '129', '144', '135', '125', '146', '141', '134', '132', '145'] 592.9629629629629
137 11.85925925925926 ['142', '143', '148', '138', '119', '149', '129', '144', '135', '125', '146', '141', '134', '132', '145'] 592.9629629629629
138 11.85925925925926 ['142', '143', '148', '138', '119', '149', '129', '144', '135', '125', '146', '141', '134', '132', '145'] 592.9629629629629
139 11.85925925925926 ['142', '143', '148', '138', '119', '149', '129', '144', '135', '125', '146', '141', '134', '132', '145'] 592.9629629629629
140 11.85925925925926 ['142', '143', '148', '138', '119', '149', '129', '144', '135', '125', '146', '141', '134', '132', '145'] 592.9629629629629
141 11.85925925925926 ['142', '143', '148', '138', '119', '149', '129', '144', '135', '125', '146', '141', '134', '132', '145'] 592.9629629629629
142 11.85925925925926 ['142', '143', '148', '138', '119', '149', '129', '144', '135', '125', '146', '141', '134', '132', '145'] 592.9629629629629
143 11.85925925925926 ['142', '143', '148', '138', '119', '149', '129', '144', '135', '125', '146', '141', '134', '132', '145'] 592.9629629629629
144 11.85925925925926 ['142', '143', '148', '138', '119', '149', '129', '144', '135', '125', '146', '141', '134', '132', '145'] 592.9629629629629
145 11.85925925925926 ['142', '143', '148', '138', '119', '149', '129', '144', '135', '125', '146', '141', '134', '132', '145'] 592.9629629629629
146 11.85925925925926 ['142', '143', '148', '138', '119', '149', '129', '144', '135', '125', '146', '141', '134', '132', '145'] 592.9629629629629
147 11.85925925925926 ['142', '143', '148', '138', '119', '149', '129', '144', '135', '125', '146', '141', '134', '132', '145'] 592.9629629629629
148 11.85925925925926 ['142', '143', '148', '138', '119', '149', '129', '144', '135', '125', '146', '141', '134', '132', '145'] 592.9629629629629
149 11.85925925925926 ['142', '143', '148', '138', '119', '149', '129', '144', '135', '125', '146', '141', '134', '132', '145'] 592.9629629629629
150 11.85925925925926 ['142', '143', '148', '138', '119', '149', '129', '144', '135', '125', '146', '141', '134', '132', '145'] 592.9629629629629
151 11.85925925925926 ['142', '143', '148', '138', '119', '149', '129', '144', '135', '125', '146', '141', '134', '132', '145'] 592.9629629629629
152 11.85925925925926 ['142', '143', '148', '138', '119', '149', '129', '144', '135', '125', '146', '141', '134', '132', '145'] 592.9629629629629
153 11.85925925925926 ['142', '143', '148', '138', '119', '149', '129', '144', '135', '125', '146', '141', '134', '132', '145'] 592.9629629629629
154 11.85925925925926 ['142', '143', '148', '138', '119', '149', '129', '144', '135', '125', '146', '141', '134', '132', '145'] 592.9629629629629
155 11.85925925925926 ['142', '143', '148', '138', '119', '149', '129', '144', '135', '125', '146', '141', '134', '132', '145'] 592.9629629629629
156 11.85925925925926 ['142', '143', '148', '138', '119', '149', '129', '144', '135', '125', '146', '141', '134', '132', '145'] 592.9629629629629
157 11.85925925925926 ['142', '143', '148', '138', '119', '149', '129', '144', '135', '125', '146', '141', '134', '132', '145'] 592.9629629629629
158 11.85925925925926 ['142', '143', '148', '138', '119', '149', '129', '144', '135', '125', '146', '141', '134', '132', '145'] 592.9629629629629
159 11.85925925925926 ['142', '143', '148', '138', '119', '149', '129', '144', '135', '125', '146', '141', '134', '132', '145'] 592.9629629629629
160 11.85925925925926 ['142', '143', '148', '138', '119', '149', '129', '144', '135', '125', '146', '141', '134', '132', '145'] 592.9629629629629
161 11.85925925925926 ['142', '143', '148', '138', '119', '149', '129', '144', '135', '125', '146', '141', '134', '132', '145'] 592.9629629629629
162 11.85925925925926 ['142', '143', '148', '138', '119', '149', '129', '144', '135', '125', '146', '141', '134', '132', '145'] 592.9629629629629
163 11.85925925925926 ['142', '143', '148', '138', '119', '149', '129', '144', '135', '125', '146', '141', '134', '132', '145'] 592.9629629629629
164 11.85925925925926 ['142', '143', '148', '138', '119', '149', '129', '144', '135', '125', '146', '141', '134', '132', '145'] 592.9629629629629
165 11.85925925925926 ['142', '143', '148', '138', '119', '149', '129', '144', '135', '125', '146', '141', '134', '132', '145'] 592.9629629629629
166 11.85925925925926 ['142', '143', '148', '138', '119', '149', '129', '144', '135', '125', '146', '141', '134', '132', '145'] 592.9629629629629
167 11.85925925925926 ['142', '143', '148', '138', '119', '149', '129', '144', '135', '125', '146', '141', '134', '132', '145'] 592.9629629629629
168 11.85925925925926 ['142', '143', '148', '138', '119', '149', '129', '144', '135', '125', '146', '141', '134', '132', '145'] 592.9629629629629
169 11.85925925925926 ['142', '143', '148', '138', '119', '149', '129', '144', '135', '125', '146', '141', '134', '132', '145'] 592.9629629629629
170 11.85925925925926 ['142', '143', '148', '138', '119', '149', '129', '144', '135', '125', '146', '141', '134', '132', '145'] 592.9629629629629
171 11.85925925925926 ['142', '143', '148', '138', '119', '149', '129', '144', '135', '125', '146', '141', '134', '132', '145'] 592.9629629629629
172 11.85925925925926 ['142', '143', '148', '138', '119', '149', '129', '144', '135', '125', '146', '141', '134', '132', '145'] 592.9629629629629
173 11.85925925925926 ['142', '143', '148', '138', '119', '149', '129', '144', '135', '125', '146', '141', '134', '132', '145'] 592.9629629629629
174 11.85925925925926 ['142', '143', '148', '138', '119', '149', '129', '144', '135', '125', '146', '141', '134', '132', '145'] 592.9629629629629
175 11.85925925925926 ['142', '143', '148', '138', '119', '149', '129', '144', '135', '125', '146', '141', '134', '132', '145'] 592.9629629629629
176 11.85925925925926 ['142', '143', '148', '138', '119', '149', '129', '144', '135', '125', '146', '141', '134', '132', '145'] 592.9629629629629
177 11.85925925925926 ['142', '143', '148', '138', '119', '149', '129', '144', '135', '125', '146', '141', '134', '132', '145'] 592.9629629629629
178 11.85925925925926 ['142', '143', '148', '138', '119', '149', '129', '144', '135', '125', '146', '141', '134', '132', '145'] 592.9629629629629
179 11.85925925925926 ['142', '143', '148', '138', '119', '149', '129', '144', '135', '125', '146', '141', '134', '132', '145'] 592.9629629629629
180 11.85925925925926 ['142', '143', '148', '138', '119', '149', '129', '144', '135', '125', '146', '141', '134', '132', '145'] 592.9629629629629
181 11.85925925925926 ['142', '143', '148', '138', '119', '149', '129', '144', '135', '125', '146', '141', '134', '132', '145'] 592.9629629629629
182 11.85925925925926 ['142', '143', '148', '138', '119', '149', '129', '144', '135', '125', '146', '141', '134', '132', '145'] 592.9629629629629
183 11.85925925925926 ['142', '143', '148', '138', '119', '149', '129', '144', '135', '125', '146', '141', '134', '132', '145'] 592.9629629629629
184 11.85925925925926 ['142', '143', '148', '138', '119', '149', '129', '144', '135', '125', '146', '141', '134', '132', '145'] 592.9629629629629
185 11.85925925925926 ['142', '143', '148', '138', '119', '149', '129', '144', '135', '125', '146', '141', '134', '132', '145'] 592.9629629629629
186 11.85925925925926 ['142', '143', '148', '138', '119', '149', '129', '144', '135', '125', '146', '141', '134', '132', '145'] 592.9629629629629
187 11.85925925925926 ['142', '143', '148', '138', '119', '149', '129', '144', '135', '125', '146', '141', '134', '132', '145'] 592.9629629629629
188 11.85925925925926 ['142', '143', '148', '138', '119', '149', '129', '144', '135', '125', '146', '141', '134', '132', '145'] 592.9629629629629
189 11.85925925925926 ['142', '143', '148', '138', '119', '149', '129', '144', '135', '125', '146', '141', '134', '132', '145'] 592.9629629629629
190 11.85925925925926 ['142', '143', '148', '138', '119', '149', '129', '144', '135', '125', '146', '141', '134', '132', '145'] 592.9629629629629
191 11.85925925925926 ['142', '143', '148', '138', '119', '149', '129', '144', '135', '125', '146', '141', '134', '132', '145'] 592.9629629629629
192 11.85925925925926 ['142', '143', '148', '138', '119', '149', '129', '144', '135', '125', '146', '141', '134', '132', '145'] 592.9629629629629
193 11.85925925925926 ['142', '143', '148', '138', '119', '149', '129', '144', '135', '125', '146', '141', '134', '132', '145'] 592.9629629629629
194 11.85925925925926 ['142', '143', '148', '138', '119', '149', '129', '144', '135', '125', '146', '141', '134', '132', '145'] 592.9629629629629
195 11.85925925925926 ['142', '143', '148', '138', '119', '149', '129', '144', '135', '125', '146', '141', '134', '132', '145'] 592.9629629629629
196 11.85925925925926 ['142', '143', '148', '138', '119', '149', '129', '144', '135', '125', '146', '141', '134', '132', '145'] 592.9629629629629
197 11.85925925925926 ['142', '143', '148', '138', '119', '149', '129', '144', '135', '125', '146', '141', '134', '132', '145'] 592.9629629629629
198 11.85925925925926 ['142', '143', '148', '138', '119', '149', '129', '144', '135', '125', '146', '141', '134', '132', '145'] 592.9629629629629
199 11.85925925925926 ['142', '143', '148', '138', '119', '149', '129', '144', '135', '125', '146', '141', '134', '132', '145'] 592.9629629629629
