0 4.774193548387097 ['21', '34', '16'] 290.9677419354838
1 4.645161290322581 ['24', '11', '34'] 270.45161290322596
2 4.645161290322581 ['24', '11', '34'] 252.51612903225794
3 4.258064516129032 ['34', '24', '21'] 242.7096774193549
4 4.258064516129032 ['34', '24', '21'] 236.1290322580647
5 4.258064516129032 ['34', '24', '21'] 230.19354838709688
6 4.258064516129032 ['34', '24', '21'] 224.12903225806474
7 4.258064516129032 ['34', '24', '21'] 215.99999999999974
8 4.258064516129032 ['34', '24', '21'] 212.90322580645136
9 4.258064516129032 ['34', '24', '21'] 212.90322580645136
10 4.258064516129032 ['34', '24', '21'] 212.90322580645136
11 4.258064516129032 ['34', '24', '21'] 212.90322580645136
12 4.258064516129032 ['34', '24', '21'] 212.90322580645136
13 4.258064516129032 ['34', '24', '21'] 212.90322580645136
14 4.258064516129032 ['34', '24', '21'] 212.90322580645136
15 4.258064516129032 ['34', '24', '21'] 212.90322580645136
16 4.258064516129032 ['34', '24', '21'] 212.90322580645136
17 4.258064516129032 ['34', '24', '21'] 212.90322580645136
18 4.258064516129032 ['34', '24', '21'] 212.90322580645136
19 4.258064516129032 ['34', '24', '21'] 212.90322580645136
20 4.258064516129032 ['34', '24', '21'] 212.90322580645136
21 4.258064516129032 ['34', '24', '21'] 212.90322580645136
22 4.258064516129032 ['34', '24', '21'] 212.90322580645136
23 4.258064516129032 ['34', '24', '21'] 212.90322580645136
24 4.258064516129032 ['34', '24', '21'] 212.90322580645136
25 4.258064516129032 ['34', '24', '21'] 212.90322580645136
26 4.258064516129032 ['34', '24', '21'] 212.90322580645136
27 4.129032258064516 ['34', '21', '31'] 212.77419354838685
28 4.129032258064516 ['34', '21', '31'] 212.77419354838685
29 4.129032258064516 ['34', '21', '31'] 212.51612903225782
30 4.129032258064516 ['34', '21', '31'] 212.12903225806426
31 4.129032258064516 ['34', '21', '31'] 211.35483870967715
32 4.129032258064516 ['34', '21', '31'] 209.1612903225804
33 4.129032258064516 ['34', '21', '31'] 206.45161290322565
34 4.129032258064516 ['34', '21', '31'] 206.45161290322565
35 4.129032258064516 ['34', '21', '31'] 206.45161290322565
36 4.129032258064516 ['34', '21', '31'] 206.45161290322565
37 4.129032258064516 ['34', '21', '31'] 206.45161290322565
38 4.129032258064516 ['34', '21', '31'] 206.45161290322565
39 4.129032258064516 ['34', '21', '31'] 206.45161290322565
40 4.129032258064516 ['34', '21', '31'] 206.45161290322565
41 4.129032258064516 ['34', '21', '31'] 206.45161290322565
42 4.129032258064516 ['34', '21', '31'] 206.45161290322565
43 4.129032258064516 ['34', '21', '31'] 206.45161290322565
44 4.129032258064516 ['34', '21', '31'] 206.45161290322565
45 4.129032258064516 ['34', '21', '31'] 206.45161290322565
46 4.129032258064516 ['34', '21', '31'] 206.45161290322565
47 4.129032258064516 ['34', '21', '31'] 206.45161290322565
48 4.129032258064516 ['34', '21', '31'] 206.45161290322565
49 4.129032258064516 ['34', '21', '31'] 206.45161290322565
50 4.129032258064516 ['34', '21', '31'] 206.45161290322565
51 4.129032258064516 ['34', '21', '31'] 206.45161290322565
52 4.129032258064516 ['34', '21', '31'] 206.45161290322565
53 4.129032258064516 ['34', '21', '31'] 206.45161290322565
54 4.129032258064516 ['34', '21', '31'] 206.45161290322565
55 4.129032258064516 ['34', '21', '31'] 206.45161290322565
56 4.129032258064516 ['34', '21', '31'] 206.45161290322565
57 4.129032258064516 ['34', '21', '31'] 206.45161290322565
58 4.129032258064516 ['34', '21', '31'] 206.45161290322565
59 4.129032258064516 ['34', '21', '31'] 206.45161290322565
60 4.129032258064516 ['34', '21', '31'] 206.45161290322565
61 4.129032258064516 ['34', '21', '31'] 206.45161290322565
62 4.129032258064516 ['34', '21', '31'] 206.45161290322565
63 4.129032258064516 ['34', '21', '31'] 206.45161290322565
64 4.129032258064516 ['34', '21', '31'] 206.45161290322565
65 4.129032258064516 ['34', '21', '31'] 206.45161290322565
66 4.129032258064516 ['34', '21', '31'] 206.45161290322565
67 4.129032258064516 ['34', '21', '31'] 206.45161290322565
68 4.129032258064516 ['34', '21', '31'] 206.45161290322565
69 4.129032258064516 ['34', '21', '31'] 206.45161290322565
70 4.129032258064516 ['34', '21', '31'] 206.45161290322565
71 4.129032258064516 ['34', '21', '31'] 206.45161290322565
72 4.129032258064516 ['34', '21', '31'] 206.45161290322565
73 4.129032258064516 ['34', '21', '31'] 206.45161290322565
74 4.129032258064516 ['34', '21', '31'] 206.45161290322565
75 4.129032258064516 ['34', '21', '31'] 206.45161290322565
76 4.129032258064516 ['34', '21', '31'] 206.45161290322565
77 4.129032258064516 ['34', '21', '31'] 206.45161290322565
78 4.129032258064516 ['34', '21', '31'] 206.45161290322565
79 4.129032258064516 ['34', '21', '31'] 206.45161290322565
80 4.129032258064516 ['34', '21', '31'] 206.45161290322565
81 4.129032258064516 ['34', '21', '31'] 206.45161290322565
82 4.129032258064516 ['34', '21', '31'] 206.45161290322565
83 4.129032258064516 ['34', '21', '31'] 206.45161290322565
84 4.129032258064516 ['34', '21', '31'] 206.45161290322565
85 4.129032258064516 ['34', '21', '31'] 206.45161290322565
86 4.129032258064516 ['34', '21', '31'] 206.45161290322565
87 4.129032258064516 ['34', '21', '31'] 206.45161290322565
88 4.129032258064516 ['34', '21', '31'] 206.45161290322565
89 4.129032258064516 ['34', '21', '31'] 206.45161290322565
90 4.129032258064516 ['34', '21', '31'] 206.45161290322565
91 4.129032258064516 ['34', '21', '31'] 206.45161290322565
92 4.129032258064516 ['34', '21', '31'] 206.45161290322565
93 4.129032258064516 ['34', '21', '31'] 206.45161290322565
94 4.129032258064516 ['34', '21', '31'] 206.45161290322565
95 4.129032258064516 ['34', '21', '31'] 206.45161290322565
96 4.129032258064516 ['34', '21', '31'] 206.45161290322565
97 4.129032258064516 ['34', '21', '31'] 206.45161290322565
98 4.129032258064516 ['34', '21', '31'] 206.45161290322565
99 4.129032258064516 ['34', '21', '31'] 206.45161290322565
100 4.129032258064516 ['34', '21', '31'] 206.45161290322565
101 4.129032258064516 ['34', '21', '31'] 206.45161290322565
102 4.129032258064516 ['34', '21', '31'] 206.45161290322565
103 4.129032258064516 ['34', '21', '31'] 206.45161290322565
104 4.129032258064516 ['34', '21', '31'] 206.45161290322565
105 4.129032258064516 ['34', '21', '31'] 206.45161290322565
106 4.129032258064516 ['34', '21', '31'] 206.45161290322565
107 4.129032258064516 ['34', '21', '31'] 206.45161290322565
108 4.129032258064516 ['34', '21', '31'] 206.45161290322565
109 4.129032258064516 ['34', '21', '31'] 206.45161290322565
110 4.129032258064516 ['34', '21', '31'] 206.45161290322565
111 4.129032258064516 ['34', '21', '31'] 206.45161290322565
112 4.129032258064516 ['34', '21', '31'] 206.45161290322565
113 4.129032258064516 ['34', '21', '31'] 206.45161290322565
114 4.129032258064516 ['34', '21', '31'] 206.45161290322565
115 4.129032258064516 ['34', '21', '31'] 206.45161290322565
116 4.129032258064516 ['34', '21', '31'] 206.45161290322565
117 4.129032258064516 ['34', '21', '31'] 206.45161290322565
118 4.129032258064516 ['34', '21', '31'] 206.45161290322565
119 4.129032258064516 ['34', '21', '31'] 206.45161290322565
120 4.129032258064516 ['34', '21', '31'] 206.45161290322565
121 4.129032258064516 ['34', '21', '31'] 206.45161290322565
122 4.129032258064516 ['34', '21', '31'] 206.45161290322565
123 4.129032258064516 ['34', '21', '31'] 206.45161290322565
124 4.129032258064516 ['34', '21', '31'] 206.45161290322565
125 4.129032258064516 ['34', '21', '31'] 206.45161290322565
126 4.129032258064516 ['34', '21', '31'] 206.45161290322565
127 4.129032258064516 ['34', '21', '31'] 206.45161290322565
128 4.129032258064516 ['34', '21', '31'] 206.45161290322565
129 4.129032258064516 ['34', '21', '31'] 206.45161290322565
130 4.129032258064516 ['34', '21', '31'] 206.45161290322565
131 4.129032258064516 ['34', '21', '31'] 206.45161290322565
132 4.129032258064516 ['34', '21', '31'] 206.45161290322565
133 4.129032258064516 ['34', '21', '31'] 206.45161290322565
134 4.129032258064516 ['34', '21', '31'] 206.45161290322565
135 4.129032258064516 ['34', '21', '31'] 206.45161290322565
136 4.129032258064516 ['34', '21', '31'] 206.45161290322565
137 4.129032258064516 ['34', '21', '31'] 206.45161290322565
138 4.129032258064516 ['34', '21', '31'] 206.45161290322565
139 4.129032258064516 ['34', '21', '31'] 206.45161290322565
140 4.129032258064516 ['34', '21', '31'] 206.45161290322565
141 4.129032258064516 ['34', '21', '31'] 206.45161290322565
142 4.129032258064516 ['34', '21', '31'] 206.45161290322565
143 4.129032258064516 ['34', '21', '31'] 206.45161290322565
144 4.129032258064516 ['34', '21', '31'] 206.45161290322565
145 4.129032258064516 ['34', '21', '31'] 206.45161290322565
146 4.129032258064516 ['34', '21', '31'] 206.45161290322565
147 4.129032258064516 ['34', '21', '31'] 206.45161290322565
148 4.129032258064516 ['34', '21', '31'] 206.45161290322565
149 4.129032258064516 ['34', '21', '31'] 206.45161290322565
150 4.129032258064516 ['34', '21', '31'] 206.45161290322565
151 4.129032258064516 ['34', '21', '31'] 206.45161290322565
152 4.129032258064516 ['34', '21', '31'] 206.45161290322565
153 4.129032258064516 ['34', '21', '31'] 206.45161290322565
154 4.129032258064516 ['34', '21', '31'] 206.45161290322565
155 4.129032258064516 ['34', '21', '31'] 206.45161290322565
156 4.129032258064516 ['34', '21', '31'] 206.45161290322565
157 4.129032258064516 ['34', '21', '31'] 206.45161290322565
158 4.129032258064516 ['34', '21', '31'] 206.45161290322565
159 4.129032258064516 ['34', '21', '31'] 206.45161290322565
160 4.129032258064516 ['34', '21', '31'] 206.45161290322565
161 4.129032258064516 ['34', '21', '31'] 206.45161290322565
162 4.129032258064516 ['34', '21', '31'] 206.45161290322565
163 4.129032258064516 ['34', '21', '31'] 206.45161290322565
164 4.129032258064516 ['34', '21', '31'] 206.45161290322565
165 4.129032258064516 ['34', '21', '31'] 206.45161290322565
166 4.129032258064516 ['34', '21', '31'] 206.45161290322565
167 4.129032258064516 ['34', '21', '31'] 206.45161290322565
168 4.129032258064516 ['34', '21', '31'] 206.45161290322565
169 4.129032258064516 ['34', '21', '31'] 206.45161290322565
170 4.129032258064516 ['34', '21', '31'] 206.45161290322565
171 4.129032258064516 ['34', '21', '31'] 206.45161290322565
172 4.129032258064516 ['34', '21', '31'] 206.45161290322565
173 4.129032258064516 ['34', '21', '31'] 206.45161290322565
174 4.129032258064516 ['34', '21', '31'] 206.45161290322565
175 4.129032258064516 ['34', '21', '31'] 206.45161290322565
176 4.129032258064516 ['34', '21', '31'] 206.45161290322565
177 4.129032258064516 ['34', '21', '31'] 206.45161290322565
178 4.129032258064516 ['34', '21', '31'] 206.45161290322565
179 4.129032258064516 ['34', '21', '31'] 206.45161290322565
180 4.129032258064516 ['34', '21', '31'] 206.45161290322565
181 4.129032258064516 ['34', '21', '31'] 206.45161290322565
182 4.129032258064516 ['34', '21', '31'] 206.45161290322565
183 4.129032258064516 ['34', '21', '31'] 206.45161290322565
184 4.129032258064516 ['34', '21', '31'] 206.45161290322565
185 4.129032258064516 ['34', '21', '31'] 206.45161290322565
186 4.129032258064516 ['34', '21', '31'] 206.45161290322565
187 4.129032258064516 ['34', '21', '31'] 206.45161290322565
188 4.129032258064516 ['34', '21', '31'] 206.45161290322565
189 4.129032258064516 ['34', '21', '31'] 206.45161290322565
190 4.129032258064516 ['34', '21', '31'] 206.45161290322565
191 4.129032258064516 ['34', '21', '31'] 206.45161290322565
192 4.129032258064516 ['34', '21', '31'] 206.45161290322565
193 4.129032258064516 ['34', '21', '31'] 206.45161290322565
194 4.129032258064516 ['34', '21', '31'] 206.45161290322565
195 4.129032258064516 ['34', '21', '31'] 206.45161290322565
196 4.129032258064516 ['34', '21', '31'] 206.45161290322565
197 4.129032258064516 ['34', '21', '31'] 206.45161290322565
198 4.129032258064516 ['34', '21', '31'] 206.45161290322565
199 4.129032258064516 ['34', '21', '31'] 206.45161290322565
