0 268.40425531914894 ['44', '29', '19', '9', '20'] 13989.936170212763
1 265.25531914893617 ['25', '19', '20', '43', '48'] 13776.319148936167
2 257.0 ['29', '1', '8', '19', '20'] 13568.191489361703
3 256.1914893617021 ['20', '43', '23', '19', '1'] 13374.170212765952
4 252.80851063829786 ['20', '23', '19', '17', '43'] 13194.978723404254
5 246.7872340425532 ['20', '19', '8', '23', '5'] 13008.787234042557
6 246.27659574468086 ['19', '8', '20', '23', '52'] 12796.042553191488
7 246.27659574468086 ['19', '8', '20', '23', '52'] 12652.914893617022
8 243.59574468085106 ['20', '23', '19', '8', '17'] 12480.851063829788
9 237.53191489361703 ['8', '23', '20', '12', '19'] 12332.872340425527
10 237.53191489361703 ['8', '23', '20', '12', '19'] 12253.893617021275
11 237.53191489361703 ['8', '23', '20', '12', '19'] 12204.31914893617
12 237.53191489361703 ['8', '23', '20', '12', '19'] 12174.382978723408
13 237.53191489361703 ['8', '23', '20', '12', '19'] 12149.468085106384
14 237.53191489361703 ['8', '23', '20', '12', '19'] 12100.957446808512
15 237.53191489361703 ['8', '23', '20', '12', '19'] 12016.063829787237
16 237.53191489361703 ['8', '23', '20', '12', '19'] 11876.59574468086
17 237.53191489361703 ['8', '23', '20', '12', '19'] 11876.59574468086
18 237.53191489361703 ['8', '23', '20', '12', '19'] 11876.59574468086
19 237.53191489361703 ['8', '23', '20', '12', '19'] 11876.59574468086
20 237.53191489361703 ['8', '23', '20', '12', '19'] 11876.59574468086
21 237.53191489361703 ['8', '23', '20', '12', '19'] 11876.59574468086
22 237.53191489361703 ['8', '23', '20', '12', '19'] 11876.59574468086
23 237.53191489361703 ['8', '23', '20', '12', '19'] 11876.59574468086
24 237.53191489361703 ['8', '23', '20', '12', '19'] 11876.59574468086
25 237.53191489361703 ['8', '23', '20', '12', '19'] 11876.59574468086
26 237.53191489361703 ['8', '23', '20', '12', '19'] 11876.59574468086
27 237.53191489361703 ['8', '23', '20', '12', '19'] 11876.59574468086
28 237.53191489361703 ['8', '23', '20', '12', '19'] 11876.59574468086
29 237.53191489361703 ['8', '23', '20', '12', '19'] 11876.59574468086
30 237.53191489361703 ['8', '23', '20', '12', '19'] 11876.59574468086
31 237.53191489361703 ['8', '23', '20', '12', '19'] 11876.59574468086
32 237.53191489361703 ['8', '23', '20', '12', '19'] 11876.59574468086
33 237.53191489361703 ['8', '23', '20', '12', '19'] 11876.59574468086
34 237.53191489361703 ['8', '23', '20', '12', '19'] 11876.59574468086
35 237.53191489361703 ['8', '23', '20', '12', '19'] 11876.59574468086
36 237.53191489361703 ['8', '23', '20', '12', '19'] 11876.59574468086
37 237.53191489361703 ['8', '23', '20', '12', '19'] 11876.59574468086
38 237.53191489361703 ['8', '23', '20', '12', '19'] 11876.59574468086
39 237.53191489361703 ['8', '23', '20', '12', '19'] 11876.59574468086
40 237.53191489361703 ['8', '23', '20', '12', '19'] 11876.59574468086
41 237.53191489361703 ['8', '23', '20', '12', '19'] 11876.59574468086
42 237.53191489361703 ['8', '23', '20', '12', '19'] 11876.59574468086
43 237.53191489361703 ['8', '23', '20', '12', '19'] 11876.59574468086
44 237.53191489361703 ['8', '23', '20', '12', '19'] 11876.59574468086
45 237.53191489361703 ['8', '23', '20', '12', '19'] 11876.59574468086
46 237.53191489361703 ['8', '23', '20', '12', '19'] 11876.59574468086
47 237.53191489361703 ['8', '23', '20', '12', '19'] 11876.59574468086
48 237.53191489361703 ['8', '23', '20', '12', '19'] 11876.59574468086
49 237.53191489361703 ['8', '23', '20', '12', '19'] 11876.59574468086
50 237.53191489361703 ['8', '23', '20', '12', '19'] 11876.59574468086
51 237.53191489361703 ['8', '23', '20', '12', '19'] 11876.59574468086
52 237.53191489361703 ['8', '23', '20', '12', '19'] 11876.59574468086
53 237.53191489361703 ['8', '23', '20', '12', '19'] 11876.59574468086
54 237.53191489361703 ['8', '23', '20', '12', '19'] 11876.59574468086
55 237.53191489361703 ['8', '23', '20', '12', '19'] 11876.59574468086
56 237.53191489361703 ['8', '23', '20', '12', '19'] 11876.59574468086
57 237.53191489361703 ['8', '23', '20', '12', '19'] 11876.59574468086
58 237.53191489361703 ['8', '23', '20', '12', '19'] 11876.59574468086
59 237.53191489361703 ['8', '23', '20', '12', '19'] 11876.59574468086
60 237.53191489361703 ['8', '23', '20', '12', '19'] 11876.59574468086
61 237.53191489361703 ['8', '23', '20', '12', '19'] 11876.59574468086
62 237.53191489361703 ['8', '23', '20', '12', '19'] 11876.59574468086
63 237.53191489361703 ['8', '23', '20', '12', '19'] 11876.59574468086
64 237.53191489361703 ['8', '23', '20', '12', '19'] 11876.59574468086
65 237.53191489361703 ['8', '23', '20', '12', '19'] 11876.59574468086
66 237.53191489361703 ['8', '23', '20', '12', '19'] 11876.59574468086
67 237.53191489361703 ['8', '23', '20', '12', '19'] 11876.59574468086
68 237.53191489361703 ['8', '23', '20', '12', '19'] 11876.59574468086
69 237.53191489361703 ['8', '23', '20', '12', '19'] 11876.59574468086
70 237.53191489361703 ['8', '23', '20', '12', '19'] 11876.59574468086
71 237.53191489361703 ['8', '23', '20', '12', '19'] 11876.59574468086
72 237.53191489361703 ['8', '23', '20', '12', '19'] 11876.59574468086
73 237.53191489361703 ['8', '23', '20', '12', '19'] 11876.59574468086
74 237.53191489361703 ['8', '23', '20', '12', '19'] 11876.59574468086
75 237.53191489361703 ['8', '23', '20', '12', '19'] 11876.59574468086
76 237.53191489361703 ['8', '23', '20', '12', '19'] 11876.59574468086
77 237.53191489361703 ['8', '23', '20', '12', '19'] 11876.59574468086
78 237.53191489361703 ['8', '23', '20', '12', '19'] 11876.59574468086
79 237.53191489361703 ['8', '23', '20', '12', '19'] 11876.59574468086
80 237.53191489361703 ['8', '23', '20', '12', '19'] 11876.59574468086
81 237.53191489361703 ['8', '23', '20', '12', '19'] 11876.59574468086
82 237.53191489361703 ['8', '23', '20', '12', '19'] 11876.59574468086
83 237.53191489361703 ['8', '23', '20', '12', '19'] 11876.59574468086
84 237.53191489361703 ['8', '23', '20', '12', '19'] 11876.59574468086
85 237.53191489361703 ['8', '23', '20', '12', '19'] 11876.59574468086
86 237.53191489361703 ['8', '23', '20', '12', '19'] 11876.59574468086
87 237.53191489361703 ['8', '23', '20', '12', '19'] 11876.59574468086
88 237.53191489361703 ['8', '23', '20', '12', '19'] 11876.59574468086
89 237.53191489361703 ['8', '23', '20', '12', '19'] 11876.59574468086
90 237.53191489361703 ['8', '23', '20', '12', '19'] 11876.59574468086
91 237.53191489361703 ['8', '23', '20', '12', '19'] 11876.59574468086
92 237.53191489361703 ['8', '23', '20', '12', '19'] 11876.59574468086
93 237.53191489361703 ['8', '23', '20', '12', '19'] 11876.59574468086
94 237.53191489361703 ['8', '23', '20', '12', '19'] 11876.59574468086
95 237.53191489361703 ['8', '23', '20', '12', '19'] 11876.59574468086
96 237.53191489361703 ['8', '23', '20', '12', '19'] 11876.59574468086
97 237.53191489361703 ['8', '23', '20', '12', '19'] 11876.59574468086
98 237.53191489361703 ['8', '23', '20', '12', '19'] 11876.59574468086
99 237.53191489361703 ['8', '23', '20', '12', '19'] 11876.59574468086
100 237.53191489361703 ['8', '23', '20', '12', '19'] 11876.59574468086
101 237.53191489361703 ['8', '23', '20', '12', '19'] 11876.59574468086
102 237.53191489361703 ['8', '23', '20', '12', '19'] 11876.59574468086
103 237.53191489361703 ['8', '23', '20', '12', '19'] 11876.59574468086
104 237.53191489361703 ['8', '23', '20', '12', '19'] 11876.59574468086
105 237.53191489361703 ['8', '23', '20', '12', '19'] 11876.59574468086
106 237.53191489361703 ['8', '23', '20', '12', '19'] 11876.59574468086
107 237.53191489361703 ['8', '23', '20', '12', '19'] 11876.59574468086
108 237.53191489361703 ['8', '23', '20', '12', '19'] 11876.59574468086
109 237.53191489361703 ['8', '23', '20', '12', '19'] 11876.59574468086
110 237.53191489361703 ['8', '23', '20', '12', '19'] 11876.59574468086
111 237.53191489361703 ['8', '23', '20', '12', '19'] 11876.59574468086
112 237.53191489361703 ['8', '23', '20', '12', '19'] 11876.59574468086
113 237.53191489361703 ['8', '23', '20', '12', '19'] 11876.59574468086
114 237.53191489361703 ['8', '23', '20', '12', '19'] 11876.59574468086
115 237.53191489361703 ['8', '23', '20', '12', '19'] 11876.59574468086
116 237.53191489361703 ['8', '23', '20', '12', '19'] 11876.59574468086
117 237.53191489361703 ['8', '23', '20', '12', '19'] 11876.59574468086
118 237.53191489361703 ['8', '23', '20', '12', '19'] 11876.59574468086
119 237.53191489361703 ['8', '23', '20', '12', '19'] 11876.59574468086
120 237.53191489361703 ['8', '23', '20', '12', '19'] 11876.59574468086
121 237.53191489361703 ['8', '23', '20', '12', '19'] 11876.59574468086
122 237.53191489361703 ['8', '23', '20', '12', '19'] 11876.59574468086
123 237.53191489361703 ['8', '23', '20', '12', '19'] 11876.59574468086
124 237.53191489361703 ['8', '23', '20', '12', '19'] 11876.59574468086
125 237.53191489361703 ['8', '23', '20', '12', '19'] 11876.59574468086
126 237.53191489361703 ['8', '23', '20', '12', '19'] 11876.59574468086
127 237.53191489361703 ['8', '23', '20', '12', '19'] 11876.59574468086
128 237.53191489361703 ['8', '23', '20', '12', '19'] 11876.59574468086
129 237.53191489361703 ['8', '23', '20', '12', '19'] 11876.59574468086
130 237.53191489361703 ['8', '23', '20', '12', '19'] 11876.59574468086
131 237.53191489361703 ['8', '23', '20', '12', '19'] 11876.59574468086
132 237.53191489361703 ['8', '23', '20', '12', '19'] 11876.59574468086
133 237.53191489361703 ['8', '23', '20', '12', '19'] 11876.59574468086
134 237.53191489361703 ['8', '23', '20', '12', '19'] 11876.59574468086
135 237.53191489361703 ['8', '23', '20', '12', '19'] 11876.59574468086
136 237.53191489361703 ['8', '23', '20', '12', '19'] 11876.59574468086
137 237.53191489361703 ['8', '23', '20', '12', '19'] 11876.59574468086
138 237.53191489361703 ['8', '23', '20', '12', '19'] 11876.59574468086
139 237.53191489361703 ['8', '23', '20', '12', '19'] 11876.59574468086
140 237.53191489361703 ['8', '23', '20', '12', '19'] 11876.59574468086
141 237.53191489361703 ['8', '23', '20', '12', '19'] 11876.59574468086
142 237.53191489361703 ['8', '23', '20', '12', '19'] 11876.59574468086
143 237.53191489361703 ['8', '23', '20', '12', '19'] 11876.59574468086
144 237.53191489361703 ['8', '23', '20', '12', '19'] 11876.59574468086
145 237.53191489361703 ['8', '23', '20', '12', '19'] 11876.59574468086
146 237.53191489361703 ['8', '23', '20', '12', '19'] 11876.59574468086
147 237.53191489361703 ['8', '23', '20', '12', '19'] 11876.59574468086
148 237.53191489361703 ['8', '23', '20', '12', '19'] 11876.59574468086
149 237.53191489361703 ['8', '23', '20', '12', '19'] 11876.59574468086
150 237.53191489361703 ['8', '23', '20', '12', '19'] 11876.59574468086
151 237.53191489361703 ['8', '23', '20', '12', '19'] 11876.59574468086
152 237.53191489361703 ['8', '23', '20', '12', '19'] 11876.59574468086
153 237.53191489361703 ['8', '23', '20', '12', '19'] 11876.59574468086
154 237.53191489361703 ['8', '23', '20', '12', '19'] 11876.59574468086
155 237.53191489361703 ['8', '23', '20', '12', '19'] 11876.59574468086
156 237.53191489361703 ['8', '23', '20', '12', '19'] 11876.59574468086
157 237.53191489361703 ['8', '23', '20', '12', '19'] 11876.59574468086
158 237.53191489361703 ['8', '23', '20', '12', '19'] 11876.59574468086
159 237.53191489361703 ['8', '23', '20', '12', '19'] 11876.59574468086
160 237.53191489361703 ['8', '23', '20', '12', '19'] 11876.59574468086
161 237.53191489361703 ['8', '23', '20', '12', '19'] 11876.59574468086
162 237.53191489361703 ['8', '23', '20', '12', '19'] 11876.59574468086
163 237.53191489361703 ['8', '23', '20', '12', '19'] 11876.59574468086
164 237.53191489361703 ['8', '23', '20', '12', '19'] 11876.59574468086
165 237.53191489361703 ['8', '23', '20', '12', '19'] 11876.59574468086
166 237.53191489361703 ['8', '23', '20', '12', '19'] 11876.59574468086
167 237.53191489361703 ['8', '23', '20', '12', '19'] 11876.59574468086
168 237.53191489361703 ['8', '23', '20', '12', '19'] 11876.59574468086
169 237.53191489361703 ['8', '23', '20', '12', '19'] 11876.59574468086
170 237.53191489361703 ['8', '23', '20', '12', '19'] 11876.59574468086
171 237.53191489361703 ['8', '23', '20', '12', '19'] 11876.59574468086
172 237.53191489361703 ['8', '23', '20', '12', '19'] 11876.59574468086
173 237.53191489361703 ['8', '23', '20', '12', '19'] 11876.59574468086
174 237.53191489361703 ['8', '23', '20', '12', '19'] 11876.59574468086
175 237.53191489361703 ['8', '23', '20', '12', '19'] 11876.59574468086
176 237.53191489361703 ['8', '23', '20', '12', '19'] 11876.59574468086
177 237.53191489361703 ['8', '23', '20', '12', '19'] 11876.59574468086
178 237.53191489361703 ['8', '23', '20', '12', '19'] 11876.59574468086
179 237.53191489361703 ['8', '23', '20', '12', '19'] 11876.59574468086
180 237.53191489361703 ['8', '23', '20', '12', '19'] 11876.59574468086
181 237.53191489361703 ['8', '23', '20', '12', '19'] 11876.59574468086
182 237.53191489361703 ['8', '23', '20', '12', '19'] 11876.59574468086
183 237.53191489361703 ['8', '23', '20', '12', '19'] 11876.59574468086
184 237.53191489361703 ['8', '23', '20', '12', '19'] 11876.59574468086
185 237.53191489361703 ['8', '23', '20', '12', '19'] 11876.59574468086
186 237.53191489361703 ['8', '23', '20', '12', '19'] 11876.59574468086
187 237.53191489361703 ['8', '23', '20', '12', '19'] 11876.59574468086
188 237.53191489361703 ['8', '23', '20', '12', '19'] 11876.59574468086
189 237.53191489361703 ['8', '23', '20', '12', '19'] 11876.59574468086
190 237.53191489361703 ['8', '23', '20', '12', '19'] 11876.59574468086
191 237.53191489361703 ['8', '23', '20', '12', '19'] 11876.59574468086
192 237.53191489361703 ['8', '23', '20', '12', '19'] 11876.59574468086
193 237.53191489361703 ['8', '23', '20', '12', '19'] 11876.59574468086
194 237.53191489361703 ['8', '23', '20', '12', '19'] 11876.59574468086
195 237.53191489361703 ['8', '23', '20', '12', '19'] 11876.59574468086
196 237.53191489361703 ['8', '23', '20', '12', '19'] 11876.59574468086
197 237.53191489361703 ['8', '23', '20', '12', '19'] 11876.59574468086
198 237.53191489361703 ['8', '23', '20', '12', '19'] 11876.59574468086
199 237.53191489361703 ['8', '23', '20', '12', '19'] 11876.59574468086
