0 7.638888888888889 ['34', '28', '22', '19'] 421.97222222222234
1 7.638888888888889 ['34', '28', '22', '19'] 413.2777777777782
2 7.611111111111111 ['34', '5', '19', '28'] 404.5833333333333
3 7.611111111111111 ['34', '5', '19', '28'] 395.1666666666664
4 7.5 ['34', '19', '28', '4'] 387.3333333333329
5 7.5 ['34', '19', '28', '4'] 382.83333333333337
6 7.5 ['34', '19', '28', '4'] 380.36111111111154
7 7.5 ['34', '19', '28', '4'] 378.2222222222218
8 7.5 ['34', '19', '28', '4'] 375.91666666666646
9 7.5 ['34', '19', '28', '4'] 375.0
10 7.5 ['34', '19', '28', '4'] 375.0
11 7.5 ['34', '19', '28', '4'] 375.0
12 7.5 ['34', '19', '28', '4'] 375.0
13 7.5 ['34', '19', '28', '4'] 375.0
14 7.5 ['34', '19', '28', '4'] 375.0
15 7.5 ['34', '19', '28', '4'] 375.0
16 7.5 ['34', '19', '28', '4'] 375.0
17 7.5 ['34', '19', '28', '4'] 375.0
18 7.5 ['34', '19', '28', '4'] 375.0
19 7.5 ['34', '19', '28', '4'] 375.0
20 7.5 ['34', '19', '28', '4'] 375.0
21 7.5 ['34', '19', '28', '4'] 375.0
22 7.5 ['34', '19', '28', '4'] 375.0
23 7.5 ['34', '19', '28', '4'] 375.0
24 7.5 ['34', '19', '28', '4'] 375.0
25 7.5 ['34', '19', '28', '4'] 375.0
26 7.5 ['34', '19', '28', '4'] 375.0
27 7.5 ['34', '19', '28', '4'] 375.0
28 7.5 ['34', '19', '28', '4'] 375.0
29 7.5 ['34', '19', '28', '4'] 375.0
30 7.5 ['34', '19', '28', '4'] 375.0
31 7.5 ['34', '19', '28', '4'] 375.0
32 7.5 ['34', '19', '28', '4'] 375.0
33 7.5 ['34', '19', '28', '4'] 375.0
34 7.5 ['34', '19', '28', '4'] 375.0
35 7.5 ['34', '19', '28', '4'] 375.0
36 7.5 ['34', '19', '28', '4'] 375.0
37 7.5 ['34', '19', '28', '4'] 375.0
38 7.5 ['34', '19', '28', '4'] 375.0
39 7.5 ['34', '19', '28', '4'] 375.0
40 7.5 ['34', '19', '28', '4'] 375.0
41 7.5 ['34', '19', '28', '4'] 375.0
42 7.5 ['34', '19', '28', '4'] 375.0
43 7.5 ['34', '19', '28', '4'] 375.0
44 7.5 ['34', '19', '28', '4'] 375.0
45 7.5 ['34', '19', '28', '4'] 375.0
46 7.5 ['34', '19', '28', '4'] 375.0
47 7.5 ['34', '19', '28', '4'] 375.0
48 7.5 ['34', '19', '28', '4'] 375.0
49 7.5 ['34', '19', '28', '4'] 375.0
50 7.5 ['34', '19', '28', '4'] 375.0
51 7.5 ['34', '19', '28', '4'] 375.0
52 7.5 ['34', '19', '28', '4'] 375.0
53 7.5 ['34', '19', '28', '4'] 375.0
54 7.5 ['34', '19', '28', '4'] 375.0
55 7.5 ['34', '19', '28', '4'] 375.0
56 7.5 ['34', '19', '28', '4'] 375.0
57 7.5 ['34', '19', '28', '4'] 375.0
58 7.5 ['34', '19', '28', '4'] 375.0
59 7.5 ['34', '19', '28', '4'] 375.0
60 7.5 ['34', '19', '28', '4'] 375.0
61 7.5 ['34', '19', '28', '4'] 375.0
62 7.5 ['34', '19', '28', '4'] 375.0
63 7.5 ['34', '19', '28', '4'] 375.0
64 7.5 ['34', '19', '28', '4'] 375.0
65 7.5 ['34', '19', '28', '4'] 375.0
66 7.5 ['34', '19', '28', '4'] 375.0
67 7.5 ['34', '19', '28', '4'] 375.0
68 7.5 ['34', '19', '28', '4'] 375.0
69 7.5 ['34', '19', '28', '4'] 375.0
70 7.5 ['34', '19', '28', '4'] 375.0
71 7.5 ['34', '19', '28', '4'] 375.0
72 7.5 ['34', '19', '28', '4'] 375.0
73 7.5 ['34', '19', '28', '4'] 375.0
74 7.5 ['34', '19', '28', '4'] 375.0
75 7.5 ['34', '19', '28', '4'] 375.0
76 7.5 ['34', '19', '28', '4'] 375.0
77 7.5 ['34', '19', '28', '4'] 375.0
78 7.5 ['34', '19', '28', '4'] 375.0
79 7.5 ['34', '19', '28', '4'] 375.0
80 7.5 ['34', '19', '28', '4'] 375.0
81 7.5 ['34', '19', '28', '4'] 375.0
82 7.5 ['34', '19', '28', '4'] 375.0
83 7.5 ['34', '19', '28', '4'] 375.0
84 7.5 ['34', '19', '28', '4'] 375.0
85 7.5 ['34', '19', '28', '4'] 375.0
86 7.5 ['34', '19', '28', '4'] 375.0
87 7.5 ['34', '19', '28', '4'] 375.0
88 7.5 ['34', '19', '28', '4'] 375.0
89 7.5 ['34', '19', '28', '4'] 375.0
90 7.5 ['34', '19', '28', '4'] 375.0
91 7.5 ['34', '19', '28', '4'] 375.0
92 7.5 ['34', '19', '28', '4'] 375.0
93 7.5 ['34', '19', '28', '4'] 375.0
94 7.5 ['34', '19', '28', '4'] 375.0
95 7.5 ['34', '19', '28', '4'] 375.0
96 7.5 ['34', '19', '28', '4'] 375.0
97 7.5 ['34', '19', '28', '4'] 375.0
98 7.5 ['34', '19', '28', '4'] 375.0
99 7.5 ['34', '19', '28', '4'] 375.0
100 7.5 ['34', '19', '28', '4'] 375.0
101 7.5 ['34', '19', '28', '4'] 375.0
102 7.5 ['34', '19', '28', '4'] 375.0
103 7.5 ['34', '19', '28', '4'] 375.0
104 7.5 ['34', '19', '28', '4'] 375.0
105 7.5 ['34', '19', '28', '4'] 375.0
106 7.5 ['34', '19', '28', '4'] 375.0
107 7.5 ['34', '19', '28', '4'] 375.0
108 7.5 ['34', '19', '28', '4'] 375.0
109 7.5 ['34', '19', '28', '4'] 375.0
110 7.5 ['34', '19', '28', '4'] 375.0
111 7.5 ['34', '19', '28', '4'] 375.0
112 7.5 ['34', '19', '28', '4'] 375.0
113 7.5 ['34', '19', '28', '4'] 375.0
114 7.5 ['34', '19', '28', '4'] 375.0
115 7.5 ['34', '19', '28', '4'] 375.0
116 7.5 ['34', '19', '28', '4'] 375.0
117 7.5 ['34', '19', '28', '4'] 375.0
118 7.5 ['34', '19', '28', '4'] 375.0
119 7.5 ['34', '19', '28', '4'] 375.0
120 7.5 ['34', '19', '28', '4'] 375.0
121 7.5 ['34', '19', '28', '4'] 375.0
122 7.5 ['34', '19', '28', '4'] 375.0
123 7.5 ['34', '19', '28', '4'] 375.0
124 7.5 ['34', '19', '28', '4'] 375.0
125 7.5 ['34', '19', '28', '4'] 375.0
126 7.5 ['34', '19', '28', '4'] 375.0
127 7.5 ['34', '19', '28', '4'] 375.0
128 7.5 ['34', '19', '28', '4'] 375.0
129 7.5 ['34', '19', '28', '4'] 375.0
130 7.5 ['34', '19', '28', '4'] 375.0
131 7.5 ['34', '19', '28', '4'] 375.0
132 7.5 ['34', '19', '28', '4'] 375.0
133 7.5 ['34', '19', '28', '4'] 375.0
134 7.5 ['34', '19', '28', '4'] 375.0
135 7.5 ['34', '19', '28', '4'] 375.0
136 7.5 ['34', '19', '28', '4'] 375.0
137 7.5 ['34', '19', '28', '4'] 375.0
138 7.5 ['34', '19', '28', '4'] 375.0
139 7.5 ['34', '19', '28', '4'] 375.0
140 7.5 ['34', '19', '28', '4'] 375.0
141 7.5 ['34', '19', '28', '4'] 375.0
142 7.5 ['34', '19', '28', '4'] 375.0
143 7.5 ['34', '19', '28', '4'] 375.0
144 7.5 ['34', '19', '28', '4'] 375.0
145 7.5 ['34', '19', '28', '4'] 375.0
146 7.5 ['34', '19', '28', '4'] 375.0
147 7.5 ['34', '19', '28', '4'] 375.0
148 7.5 ['34', '19', '28', '4'] 375.0
149 7.5 ['34', '19', '28', '4'] 375.0
150 7.5 ['34', '19', '28', '4'] 375.0
151 7.5 ['34', '19', '28', '4'] 375.0
152 7.5 ['34', '19', '28', '4'] 375.0
153 7.5 ['34', '19', '28', '4'] 375.0
154 7.5 ['34', '19', '28', '4'] 375.0
155 7.5 ['34', '19', '28', '4'] 375.0
156 7.5 ['34', '19', '28', '4'] 375.0
157 7.5 ['34', '19', '28', '4'] 375.0
158 7.5 ['34', '19', '28', '4'] 375.0
159 7.5 ['34', '19', '28', '4'] 375.0
160 7.5 ['34', '19', '28', '4'] 375.0
161 7.5 ['34', '19', '28', '4'] 375.0
162 7.5 ['34', '19', '28', '4'] 375.0
163 7.5 ['34', '19', '28', '4'] 375.0
164 7.5 ['34', '19', '28', '4'] 375.0
165 7.5 ['34', '19', '28', '4'] 375.0
166 7.5 ['34', '19', '28', '4'] 375.0
167 7.5 ['34', '19', '28', '4'] 375.0
168 7.5 ['34', '19', '28', '4'] 375.0
169 7.5 ['34', '19', '28', '4'] 375.0
170 7.5 ['34', '19', '28', '4'] 375.0
171 7.5 ['34', '19', '28', '4'] 375.0
172 7.5 ['34', '19', '28', '4'] 375.0
173 7.5 ['34', '19', '28', '4'] 375.0
174 7.5 ['34', '19', '28', '4'] 375.0
175 7.5 ['34', '19', '28', '4'] 375.0
176 7.5 ['34', '19', '28', '4'] 375.0
177 7.5 ['34', '19', '28', '4'] 375.0
178 7.5 ['34', '19', '28', '4'] 375.0
179 7.5 ['34', '19', '28', '4'] 375.0
180 7.5 ['34', '19', '28', '4'] 375.0
181 7.5 ['34', '19', '28', '4'] 375.0
182 7.5 ['34', '19', '28', '4'] 375.0
183 7.5 ['34', '19', '28', '4'] 375.0
184 7.5 ['34', '19', '28', '4'] 375.0
185 7.5 ['34', '19', '28', '4'] 375.0
186 7.5 ['34', '19', '28', '4'] 375.0
187 7.5 ['34', '19', '28', '4'] 375.0
188 7.5 ['34', '19', '28', '4'] 375.0
189 7.5 ['34', '19', '28', '4'] 375.0
190 7.5 ['34', '19', '28', '4'] 375.0
191 7.5 ['34', '19', '28', '4'] 375.0
192 7.5 ['34', '19', '28', '4'] 375.0
193 7.5 ['34', '19', '28', '4'] 375.0
194 7.5 ['34', '19', '28', '4'] 375.0
195 7.5 ['34', '19', '28', '4'] 375.0
196 7.5 ['34', '19', '28', '4'] 375.0
197 7.5 ['34', '19', '28', '4'] 375.0
198 7.5 ['34', '19', '28', '4'] 375.0
199 7.5 ['34', '19', '28', '4'] 375.0
