0 13.055555555555555 ['21', '40', '23', '32'] 720.6944444444446
1 13.055555555555555 ['21', '40', '23', '32'] 703.0833333333334
2 12.777777777777779 ['23', '21', '5', '19'] 686.5
3 12.777777777777779 ['23', '21', '5', '19'] 675.3611111111115
4 12.666666666666666 ['23', '19', '32', '21'] 662.1666666666666
5 12.666666666666666 ['23', '19', '32', '21'] 653.9444444444445
6 12.666666666666666 ['23', '19', '32', '21'] 648.5555555555555
7 12.666666666666666 ['23', '19', '32', '21'] 642.6111111111111
8 12.666666666666666 ['23', '19', '32', '21'] 633.9444444444448
9 12.666666666666666 ['23', '19', '32', '21'] 633.3333333333333
10 12.666666666666666 ['23', '19', '32', '21'] 633.3333333333333
11 12.666666666666666 ['23', '19', '32', '21'] 633.3333333333333
12 12.666666666666666 ['23', '19', '32', '21'] 633.3333333333333
13 12.666666666666666 ['23', '19', '32', '21'] 633.3333333333333
14 12.666666666666666 ['23', '19', '32', '21'] 633.3333333333333
15 12.666666666666666 ['23', '19', '32', '21'] 633.3333333333333
16 12.666666666666666 ['23', '19', '32', '21'] 633.3333333333333
17 12.666666666666666 ['23', '19', '32', '21'] 633.3333333333333
18 12.666666666666666 ['23', '19', '32', '21'] 633.3333333333333
19 12.666666666666666 ['23', '19', '32', '21'] 633.3333333333333
20 12.666666666666666 ['23', '19', '32', '21'] 633.3333333333333
21 12.666666666666666 ['23', '19', '32', '21'] 633.3333333333333
22 12.666666666666666 ['23', '19', '32', '21'] 633.3333333333333
23 12.666666666666666 ['23', '19', '32', '21'] 633.3333333333333
24 12.666666666666666 ['23', '19', '32', '21'] 633.3333333333333
25 12.666666666666666 ['23', '19', '32', '21'] 633.3333333333333
26 12.666666666666666 ['23', '19', '32', '21'] 633.3333333333333
27 12.666666666666666 ['23', '19', '32', '21'] 633.3333333333333
28 12.666666666666666 ['23', '19', '32', '21'] 633.3333333333333
29 12.666666666666666 ['23', '19', '32', '21'] 633.3333333333333
30 12.666666666666666 ['23', '19', '32', '21'] 633.3333333333333
31 12.666666666666666 ['23', '19', '32', '21'] 633.3333333333333
32 12.666666666666666 ['23', '19', '32', '21'] 633.3333333333333
33 12.666666666666666 ['23', '19', '32', '21'] 633.3333333333333
34 12.666666666666666 ['23', '19', '32', '21'] 633.3333333333333
35 12.666666666666666 ['23', '19', '32', '21'] 633.3333333333333
36 12.666666666666666 ['23', '19', '32', '21'] 633.3333333333333
37 12.666666666666666 ['23', '19', '32', '21'] 633.3333333333333
38 12.666666666666666 ['23', '19', '32', '21'] 633.3333333333333
39 12.666666666666666 ['23', '19', '32', '21'] 633.3333333333333
40 12.666666666666666 ['23', '19', '32', '21'] 633.3333333333333
41 12.666666666666666 ['23', '19', '32', '21'] 633.3333333333333
42 12.666666666666666 ['23', '19', '32', '21'] 633.3333333333333
43 12.666666666666666 ['23', '19', '32', '21'] 633.3333333333333
44 12.666666666666666 ['23', '19', '32', '21'] 633.3333333333333
45 12.666666666666666 ['23', '19', '32', '21'] 633.3333333333333
46 12.666666666666666 ['23', '19', '32', '21'] 633.3333333333333
47 12.666666666666666 ['23', '19', '32', '21'] 633.3333333333333
48 12.666666666666666 ['23', '19', '32', '21'] 633.3333333333333
49 12.666666666666666 ['23', '19', '32', '21'] 633.3333333333333
50 12.666666666666666 ['23', '19', '32', '21'] 633.3333333333333
51 12.666666666666666 ['23', '19', '32', '21'] 633.3333333333333
52 12.666666666666666 ['23', '19', '32', '21'] 633.3333333333333
53 12.666666666666666 ['23', '19', '32', '21'] 633.3333333333333
54 12.666666666666666 ['23', '19', '32', '21'] 633.3333333333333
55 12.666666666666666 ['23', '19', '32', '21'] 633.3333333333333
56 12.666666666666666 ['23', '19', '32', '21'] 633.3333333333333
57 12.666666666666666 ['23', '19', '32', '21'] 633.3333333333333
58 12.666666666666666 ['23', '19', '32', '21'] 633.3333333333333
59 12.666666666666666 ['23', '19', '32', '21'] 633.3333333333333
60 12.666666666666666 ['23', '19', '32', '21'] 633.3333333333333
61 12.666666666666666 ['23', '19', '32', '21'] 633.3333333333333
62 12.666666666666666 ['23', '19', '32', '21'] 633.3333333333333
63 12.666666666666666 ['23', '19', '32', '21'] 633.3333333333333
64 12.666666666666666 ['23', '19', '32', '21'] 633.3333333333333
65 12.666666666666666 ['23', '19', '32', '21'] 633.3333333333333
66 12.666666666666666 ['23', '19', '32', '21'] 633.3333333333333
67 12.666666666666666 ['23', '19', '32', '21'] 633.3333333333333
68 12.666666666666666 ['23', '19', '32', '21'] 633.3333333333333
69 12.666666666666666 ['23', '19', '32', '21'] 633.3333333333333
70 12.666666666666666 ['23', '19', '32', '21'] 633.3333333333333
71 12.666666666666666 ['23', '19', '32', '21'] 633.3333333333333
72 12.666666666666666 ['23', '19', '32', '21'] 633.3333333333333
73 12.666666666666666 ['23', '19', '32', '21'] 633.3333333333333
74 12.666666666666666 ['23', '19', '32', '21'] 633.3333333333333
75 12.666666666666666 ['23', '19', '32', '21'] 633.3333333333333
76 12.666666666666666 ['23', '19', '32', '21'] 633.3333333333333
77 12.666666666666666 ['23', '19', '32', '21'] 633.3333333333333
78 12.666666666666666 ['23', '19', '32', '21'] 633.3333333333333
79 12.666666666666666 ['23', '19', '32', '21'] 633.3333333333333
80 12.666666666666666 ['23', '19', '32', '21'] 633.3333333333333
81 12.666666666666666 ['23', '19', '32', '21'] 633.3333333333333
82 12.666666666666666 ['23', '19', '32', '21'] 633.3333333333333
83 12.666666666666666 ['23', '19', '32', '21'] 633.3333333333333
84 12.666666666666666 ['23', '19', '32', '21'] 633.3333333333333
85 12.666666666666666 ['23', '19', '32', '21'] 633.3333333333333
86 12.666666666666666 ['23', '19', '32', '21'] 633.3333333333333
87 12.666666666666666 ['23', '19', '32', '21'] 633.3333333333333
88 12.666666666666666 ['23', '19', '32', '21'] 633.3333333333333
89 12.666666666666666 ['23', '19', '32', '21'] 633.3333333333333
90 12.666666666666666 ['23', '19', '32', '21'] 633.3333333333333
91 12.666666666666666 ['23', '19', '32', '21'] 633.3333333333333
92 12.666666666666666 ['23', '19', '32', '21'] 633.3333333333333
93 12.666666666666666 ['23', '19', '32', '21'] 633.3333333333333
94 12.666666666666666 ['23', '19', '32', '21'] 633.3333333333333
95 12.666666666666666 ['23', '19', '32', '21'] 633.3333333333333
96 12.666666666666666 ['23', '19', '32', '21'] 633.3333333333333
97 12.666666666666666 ['23', '19', '32', '21'] 633.3333333333333
98 12.666666666666666 ['23', '19', '32', '21'] 633.3333333333333
99 12.666666666666666 ['23', '19', '32', '21'] 633.3333333333333
100 12.666666666666666 ['23', '19', '32', '21'] 633.3333333333333
101 12.666666666666666 ['23', '19', '32', '21'] 633.3333333333333
102 12.666666666666666 ['23', '19', '32', '21'] 633.3333333333333
103 12.666666666666666 ['23', '19', '32', '21'] 633.3333333333333
104 12.666666666666666 ['23', '19', '32', '21'] 633.3333333333333
105 12.666666666666666 ['23', '19', '32', '21'] 633.3333333333333
106 12.666666666666666 ['23', '19', '32', '21'] 633.3333333333333
107 12.666666666666666 ['23', '19', '32', '21'] 633.3333333333333
108 12.666666666666666 ['23', '19', '32', '21'] 633.3333333333333
109 12.666666666666666 ['23', '19', '32', '21'] 633.3333333333333
110 12.666666666666666 ['23', '19', '32', '21'] 633.3333333333333
111 12.666666666666666 ['23', '19', '32', '21'] 633.3333333333333
112 12.666666666666666 ['23', '19', '32', '21'] 633.3333333333333
113 12.666666666666666 ['23', '19', '32', '21'] 633.3333333333333
114 12.666666666666666 ['23', '19', '32', '21'] 633.3333333333333
115 12.666666666666666 ['23', '19', '32', '21'] 633.3333333333333
116 12.666666666666666 ['23', '19', '32', '21'] 633.3333333333333
117 12.666666666666666 ['23', '19', '32', '21'] 633.3333333333333
118 12.666666666666666 ['23', '19', '32', '21'] 633.3333333333333
119 12.666666666666666 ['23', '19', '32', '21'] 633.3333333333333
120 12.666666666666666 ['23', '19', '32', '21'] 633.3333333333333
121 12.666666666666666 ['23', '19', '32', '21'] 633.3333333333333
122 12.666666666666666 ['23', '19', '32', '21'] 633.3333333333333
123 12.666666666666666 ['23', '19', '32', '21'] 633.3333333333333
124 12.666666666666666 ['23', '19', '32', '21'] 633.3333333333333
125 12.666666666666666 ['23', '19', '32', '21'] 633.3333333333333
126 12.666666666666666 ['23', '19', '32', '21'] 633.3333333333333
127 12.666666666666666 ['23', '19', '32', '21'] 633.3333333333333
128 12.666666666666666 ['23', '19', '32', '21'] 633.3333333333333
129 12.666666666666666 ['23', '19', '32', '21'] 633.3333333333333
130 12.666666666666666 ['23', '19', '32', '21'] 633.3333333333333
131 12.666666666666666 ['23', '19', '32', '21'] 633.3333333333333
132 12.666666666666666 ['23', '19', '32', '21'] 633.3333333333333
133 12.666666666666666 ['23', '19', '32', '21'] 633.3333333333333
134 12.666666666666666 ['23', '19', '32', '21'] 633.3333333333333
135 12.666666666666666 ['23', '19', '32', '21'] 633.3333333333333
136 12.666666666666666 ['23', '19', '32', '21'] 633.3333333333333
137 12.666666666666666 ['23', '19', '32', '21'] 633.3333333333333
138 12.666666666666666 ['23', '19', '32', '21'] 633.3333333333333
139 12.666666666666666 ['23', '19', '32', '21'] 633.3333333333333
140 12.666666666666666 ['23', '19', '32', '21'] 633.3333333333333
141 12.666666666666666 ['23', '19', '32', '21'] 633.3333333333333
142 12.666666666666666 ['23', '19', '32', '21'] 633.3333333333333
143 12.666666666666666 ['23', '19', '32', '21'] 633.3333333333333
144 12.666666666666666 ['23', '19', '32', '21'] 633.3333333333333
145 12.666666666666666 ['23', '19', '32', '21'] 633.3333333333333
146 12.666666666666666 ['23', '19', '32', '21'] 633.3333333333333
147 12.666666666666666 ['23', '19', '32', '21'] 633.3333333333333
148 12.666666666666666 ['23', '19', '32', '21'] 633.3333333333333
149 12.666666666666666 ['23', '19', '32', '21'] 633.3333333333333
150 12.666666666666666 ['23', '19', '32', '21'] 633.3333333333333
151 12.666666666666666 ['23', '19', '32', '21'] 633.3333333333333
152 12.666666666666666 ['23', '19', '32', '21'] 633.3333333333333
153 12.666666666666666 ['23', '19', '32', '21'] 633.3333333333333
154 12.666666666666666 ['23', '19', '32', '21'] 633.3333333333333
155 12.666666666666666 ['23', '19', '32', '21'] 633.3333333333333
156 12.666666666666666 ['23', '19', '32', '21'] 633.3333333333333
157 12.666666666666666 ['23', '19', '32', '21'] 633.3333333333333
158 12.666666666666666 ['23', '19', '32', '21'] 633.3333333333333
159 12.666666666666666 ['23', '19', '32', '21'] 633.3333333333333
160 12.666666666666666 ['23', '19', '32', '21'] 633.3333333333333
161 12.666666666666666 ['23', '19', '32', '21'] 633.3333333333333
162 12.666666666666666 ['23', '19', '32', '21'] 633.3333333333333
163 12.666666666666666 ['23', '19', '32', '21'] 633.3333333333333
164 12.666666666666666 ['23', '19', '32', '21'] 633.3333333333333
165 12.666666666666666 ['23', '19', '32', '21'] 633.3333333333333
166 12.666666666666666 ['23', '19', '32', '21'] 633.3333333333333
167 12.666666666666666 ['23', '19', '32', '21'] 633.3333333333333
168 12.666666666666666 ['23', '19', '32', '21'] 633.3333333333333
169 12.666666666666666 ['23', '19', '32', '21'] 633.3333333333333
170 12.666666666666666 ['23', '19', '32', '21'] 633.3333333333333
171 12.666666666666666 ['23', '19', '32', '21'] 633.3333333333333
172 12.666666666666666 ['23', '19', '32', '21'] 633.3333333333333
173 12.666666666666666 ['23', '19', '32', '21'] 633.3333333333333
174 12.666666666666666 ['23', '19', '32', '21'] 633.3333333333333
175 12.666666666666666 ['23', '19', '32', '21'] 633.3333333333333
176 12.666666666666666 ['23', '19', '32', '21'] 633.3333333333333
177 12.666666666666666 ['23', '19', '32', '21'] 633.3333333333333
178 12.666666666666666 ['23', '19', '32', '21'] 633.3333333333333
179 12.666666666666666 ['23', '19', '32', '21'] 633.3333333333333
180 12.666666666666666 ['23', '19', '32', '21'] 633.3333333333333
181 12.666666666666666 ['23', '19', '32', '21'] 633.3333333333333
182 12.666666666666666 ['23', '19', '32', '21'] 633.3333333333333
183 12.666666666666666 ['23', '19', '32', '21'] 633.3333333333333
184 12.666666666666666 ['23', '19', '32', '21'] 633.3333333333333
185 12.666666666666666 ['23', '19', '32', '21'] 633.3333333333333
186 12.666666666666666 ['23', '19', '32', '21'] 633.3333333333333
187 12.666666666666666 ['23', '19', '32', '21'] 633.3333333333333
188 12.666666666666666 ['23', '19', '32', '21'] 633.3333333333333
189 12.666666666666666 ['23', '19', '32', '21'] 633.3333333333333
190 12.666666666666666 ['23', '19', '32', '21'] 633.3333333333333
191 12.666666666666666 ['23', '19', '32', '21'] 633.3333333333333
192 12.666666666666666 ['23', '19', '32', '21'] 633.3333333333333
193 12.666666666666666 ['23', '19', '32', '21'] 633.3333333333333
194 12.666666666666666 ['23', '19', '32', '21'] 633.3333333333333
195 12.666666666666666 ['23', '19', '32', '21'] 633.3333333333333
196 12.666666666666666 ['23', '19', '32', '21'] 633.3333333333333
197 12.666666666666666 ['23', '19', '32', '21'] 633.3333333333333
198 12.666666666666666 ['23', '19', '32', '21'] 633.3333333333333
199 12.666666666666666 ['23', '19', '32', '21'] 633.3333333333333
