0 13.5 ['17', '21', '37'] 712.1944444444445
1 13.333333333333334 ['29', '21', '16'] 694.8611111111107
2 13.25 ['5', '24', '11'] 681.2222222222226
3 12.833333333333334 ['17', '5', '21'] 671.3888888888891
4 12.833333333333334 ['17', '5', '21'] 664.5277777777776
5 12.555555555555555 ['5', '11', '17'] 655.8611111111111
6 12.555555555555555 ['5', '11', '17'] 646.361111111111
7 12.444444444444445 ['21', '17', '11'] 638.9166666666665
8 12.444444444444445 ['21', '17', '11'] 636.0000000000001
9 12.444444444444445 ['21', '17', '11'] 631.2222222222216
10 12.444444444444445 ['21', '17', '11'] 626.6666666666662
11 12.444444444444445 ['21', '17', '11'] 625.4444444444442
12 12.444444444444445 ['21', '17', '11'] 622.8888888888891
13 12.444444444444445 ['21', '17', '11'] 622.2222222222226
14 12.444444444444445 ['21', '17', '11'] 622.2222222222226
15 12.444444444444445 ['21', '17', '11'] 622.2222222222226
16 12.444444444444445 ['21', '17', '11'] 622.2222222222226
17 12.444444444444445 ['21', '17', '11'] 622.2222222222226
18 12.444444444444445 ['21', '17', '11'] 622.2222222222226
19 12.444444444444445 ['21', '17', '11'] 622.2222222222226
20 12.444444444444445 ['21', '17', '11'] 622.2222222222226
21 12.444444444444445 ['21', '17', '11'] 622.2222222222226
22 12.444444444444445 ['21', '17', '11'] 622.2222222222226
23 12.444444444444445 ['21', '17', '11'] 622.2222222222226
24 12.444444444444445 ['21', '17', '11'] 622.2222222222226
25 12.444444444444445 ['21', '17', '11'] 622.2222222222226
26 12.444444444444445 ['21', '17', '11'] 622.2222222222226
27 12.444444444444445 ['21', '17', '11'] 622.2222222222226
28 12.444444444444445 ['21', '17', '11'] 622.2222222222226
29 12.444444444444445 ['21', '17', '11'] 622.2222222222226
30 12.444444444444445 ['21', '17', '11'] 622.2222222222226
31 12.444444444444445 ['21', '17', '11'] 622.2222222222226
32 12.444444444444445 ['21', '17', '11'] 622.2222222222226
33 12.444444444444445 ['21', '17', '11'] 622.2222222222226
34 12.444444444444445 ['21', '17', '11'] 622.2222222222226
35 12.444444444444445 ['21', '17', '11'] 622.2222222222226
36 12.444444444444445 ['21', '17', '11'] 622.2222222222226
37 12.444444444444445 ['21', '17', '11'] 622.2222222222226
38 12.444444444444445 ['21', '17', '11'] 622.2222222222226
39 12.444444444444445 ['21', '17', '11'] 622.2222222222226
40 12.444444444444445 ['21', '17', '11'] 622.2222222222226
41 12.444444444444445 ['21', '17', '11'] 622.2222222222226
42 12.444444444444445 ['21', '17', '11'] 622.2222222222226
43 12.444444444444445 ['21', '17', '11'] 622.2222222222226
44 12.444444444444445 ['21', '17', '11'] 622.2222222222226
45 12.444444444444445 ['21', '17', '11'] 622.2222222222226
46 12.444444444444445 ['21', '17', '11'] 622.2222222222226
47 12.444444444444445 ['21', '17', '11'] 622.2222222222226
48 12.444444444444445 ['21', '17', '11'] 622.2222222222226
49 12.444444444444445 ['21', '17', '11'] 622.2222222222226
50 12.444444444444445 ['21', '17', '11'] 622.2222222222226
51 12.444444444444445 ['21', '17', '11'] 622.2222222222226
52 12.444444444444445 ['21', '17', '11'] 622.2222222222226
53 12.444444444444445 ['21', '17', '11'] 622.2222222222226
54 12.444444444444445 ['21', '17', '11'] 622.2222222222226
55 12.444444444444445 ['21', '17', '11'] 622.2222222222226
56 12.444444444444445 ['21', '17', '11'] 622.2222222222226
57 12.444444444444445 ['21', '17', '11'] 622.2222222222226
58 12.444444444444445 ['21', '17', '11'] 622.2222222222226
59 12.444444444444445 ['21', '17', '11'] 622.2222222222226
60 12.444444444444445 ['21', '17', '11'] 622.2222222222226
61 12.444444444444445 ['21', '17', '11'] 622.2222222222226
62 12.444444444444445 ['21', '17', '11'] 622.2222222222226
63 12.444444444444445 ['21', '17', '11'] 622.2222222222226
64 12.444444444444445 ['21', '17', '11'] 622.2222222222226
65 12.444444444444445 ['21', '17', '11'] 622.2222222222226
66 12.444444444444445 ['21', '17', '11'] 622.2222222222226
67 12.444444444444445 ['21', '17', '11'] 622.2222222222226
68 12.444444444444445 ['21', '17', '11'] 622.2222222222226
69 12.444444444444445 ['21', '17', '11'] 622.2222222222226
70 12.444444444444445 ['21', '17', '11'] 622.2222222222226
71 12.444444444444445 ['21', '17', '11'] 622.2222222222226
72 12.444444444444445 ['21', '17', '11'] 622.2222222222226
73 12.444444444444445 ['21', '17', '11'] 622.2222222222226
74 12.444444444444445 ['21', '17', '11'] 622.2222222222226
75 12.444444444444445 ['21', '17', '11'] 622.2222222222226
76 12.444444444444445 ['21', '17', '11'] 622.2222222222226
77 12.444444444444445 ['21', '17', '11'] 622.2222222222226
78 12.444444444444445 ['21', '17', '11'] 622.2222222222226
79 12.444444444444445 ['21', '17', '11'] 622.2222222222226
80 12.444444444444445 ['21', '17', '11'] 622.2222222222226
81 12.444444444444445 ['21', '17', '11'] 622.2222222222226
82 12.444444444444445 ['21', '17', '11'] 622.2222222222226
83 12.444444444444445 ['21', '17', '11'] 622.2222222222226
84 12.444444444444445 ['21', '17', '11'] 622.2222222222226
85 12.444444444444445 ['21', '17', '11'] 622.2222222222226
86 12.444444444444445 ['21', '17', '11'] 622.2222222222226
87 12.444444444444445 ['21', '17', '11'] 622.2222222222226
88 12.444444444444445 ['21', '17', '11'] 622.2222222222226
89 12.444444444444445 ['21', '17', '11'] 622.2222222222226
90 12.444444444444445 ['21', '17', '11'] 622.2222222222226
91 12.333333333333334 ['21', '11', '13'] 622.1111111111115
92 12.333333333333334 ['21', '11', '13'] 622.0000000000005
93 12.333333333333334 ['21', '11', '13'] 621.555555555556
94 12.333333333333334 ['21', '11', '13'] 620.555555555556
95 12.333333333333334 ['21', '11', '13'] 618.3333333333333
96 12.333333333333334 ['21', '11', '13'] 616.6666666666666
97 12.333333333333334 ['21', '11', '13'] 616.6666666666666
98 12.333333333333334 ['21', '11', '13'] 616.6666666666666
99 12.333333333333334 ['21', '11', '13'] 616.6666666666666
100 12.333333333333334 ['21', '11', '13'] 616.6666666666666
101 12.333333333333334 ['21', '11', '13'] 616.6666666666666
102 12.333333333333334 ['21', '11', '13'] 616.6666666666666
103 12.333333333333334 ['21', '11', '13'] 616.6666666666666
104 12.333333333333334 ['21', '11', '13'] 616.6666666666666
105 12.333333333333334 ['21', '11', '13'] 616.6666666666666
106 12.333333333333334 ['21', '11', '13'] 616.6666666666666
107 12.333333333333334 ['21', '11', '13'] 616.6666666666666
108 12.333333333333334 ['21', '11', '13'] 616.6666666666666
109 12.333333333333334 ['21', '11', '13'] 616.6666666666666
110 12.333333333333334 ['21', '11', '13'] 616.6666666666666
111 12.333333333333334 ['21', '11', '13'] 616.6666666666666
112 12.333333333333334 ['21', '11', '13'] 616.6666666666666
113 12.333333333333334 ['21', '11', '13'] 616.6666666666666
114 12.333333333333334 ['21', '11', '13'] 616.6666666666666
115 12.333333333333334 ['21', '11', '13'] 616.6666666666666
116 12.333333333333334 ['21', '11', '13'] 616.6666666666666
117 12.333333333333334 ['21', '11', '13'] 616.6666666666666
118 12.333333333333334 ['21', '11', '13'] 616.6666666666666
119 12.333333333333334 ['21', '11', '13'] 616.6666666666666
120 12.333333333333334 ['21', '11', '13'] 616.6666666666666
121 12.333333333333334 ['21', '11', '13'] 616.6666666666666
122 12.333333333333334 ['21', '11', '13'] 616.6666666666666
123 12.333333333333334 ['21', '11', '13'] 616.6666666666666
124 12.333333333333334 ['21', '11', '13'] 616.6666666666666
125 12.333333333333334 ['21', '11', '13'] 616.6666666666666
126 12.333333333333334 ['21', '11', '13'] 616.6666666666666
127 12.333333333333334 ['21', '11', '13'] 616.6666666666666
128 12.333333333333334 ['21', '11', '13'] 616.6666666666666
129 12.333333333333334 ['21', '11', '13'] 616.6666666666666
130 12.333333333333334 ['21', '11', '13'] 616.6666666666666
131 12.333333333333334 ['21', '11', '13'] 616.6666666666666
132 12.333333333333334 ['21', '11', '13'] 616.6666666666666
133 12.333333333333334 ['21', '11', '13'] 616.6666666666666
134 12.333333333333334 ['21', '11', '13'] 616.6666666666666
135 12.333333333333334 ['21', '11', '13'] 616.6666666666666
136 12.333333333333334 ['21', '11', '13'] 616.6666666666666
137 12.333333333333334 ['21', '11', '13'] 616.6666666666666
138 12.333333333333334 ['21', '11', '13'] 616.6666666666666
139 12.333333333333334 ['21', '11', '13'] 616.6666666666666
140 12.333333333333334 ['21', '11', '13'] 616.6666666666666
141 12.333333333333334 ['21', '11', '13'] 616.6666666666666
142 12.333333333333334 ['21', '11', '13'] 616.6666666666666
143 12.333333333333334 ['21', '11', '13'] 616.6666666666666
144 12.333333333333334 ['21', '11', '13'] 616.6666666666666
145 12.333333333333334 ['21', '11', '13'] 616.6666666666666
146 12.333333333333334 ['21', '11', '13'] 616.6666666666666
147 12.333333333333334 ['21', '11', '13'] 616.6666666666666
148 12.333333333333334 ['21', '11', '13'] 616.6666666666666
149 12.333333333333334 ['21', '11', '13'] 616.6666666666666
150 12.333333333333334 ['21', '11', '13'] 616.6666666666666
151 12.333333333333334 ['21', '11', '13'] 616.6666666666666
152 12.333333333333334 ['21', '11', '13'] 616.6666666666666
153 12.333333333333334 ['21', '11', '13'] 616.6666666666666
154 12.333333333333334 ['21', '11', '13'] 616.6666666666666
155 12.333333333333334 ['21', '11', '13'] 616.6666666666666
156 12.333333333333334 ['21', '11', '13'] 616.6666666666666
157 12.333333333333334 ['21', '11', '13'] 616.6666666666666
158 12.333333333333334 ['21', '11', '13'] 616.6666666666666
159 12.333333333333334 ['21', '11', '13'] 616.6666666666666
160 12.333333333333334 ['21', '11', '13'] 616.6666666666666
161 12.333333333333334 ['21', '11', '13'] 616.6666666666666
162 12.333333333333334 ['21', '11', '13'] 616.6666666666666
163 12.333333333333334 ['21', '11', '13'] 616.6666666666666
164 12.333333333333334 ['21', '11', '13'] 616.6666666666666
165 12.333333333333334 ['21', '11', '13'] 616.6666666666666
166 12.333333333333334 ['21', '11', '13'] 616.6666666666666
167 12.333333333333334 ['21', '11', '13'] 616.6666666666666
168 12.333333333333334 ['21', '11', '13'] 616.6666666666666
169 12.333333333333334 ['21', '11', '13'] 616.6666666666666
170 12.333333333333334 ['21', '11', '13'] 616.6666666666666
171 12.333333333333334 ['21', '11', '13'] 616.6666666666666
172 12.333333333333334 ['21', '11', '13'] 616.6666666666666
173 12.333333333333334 ['21', '11', '13'] 616.6666666666666
174 12.333333333333334 ['21', '11', '13'] 616.6666666666666
175 12.333333333333334 ['21', '11', '13'] 616.6666666666666
176 12.333333333333334 ['21', '11', '13'] 616.6666666666666
177 12.333333333333334 ['21', '11', '13'] 616.6666666666666
178 12.333333333333334 ['21', '11', '13'] 616.6666666666666
179 12.333333333333334 ['21', '11', '13'] 616.6666666666666
180 12.333333333333334 ['21', '11', '13'] 616.6666666666666
181 12.333333333333334 ['21', '11', '13'] 616.6666666666666
182 12.333333333333334 ['21', '11', '13'] 616.6666666666666
183 12.333333333333334 ['21', '11', '13'] 616.6666666666666
184 12.333333333333334 ['21', '11', '13'] 616.6666666666666
185 12.333333333333334 ['21', '11', '13'] 616.6666666666666
186 12.333333333333334 ['21', '11', '13'] 616.6666666666666
187 12.333333333333334 ['21', '11', '13'] 616.6666666666666
188 12.333333333333334 ['21', '11', '13'] 616.6666666666666
189 12.333333333333334 ['21', '11', '13'] 616.6666666666666
190 12.333333333333334 ['21', '11', '13'] 616.6666666666666
191 12.333333333333334 ['21', '11', '13'] 616.6666666666666
192 12.333333333333334 ['21', '11', '13'] 616.6666666666666
193 12.333333333333334 ['21', '11', '13'] 616.6666666666666
194 12.333333333333334 ['21', '11', '13'] 616.6666666666666
195 12.333333333333334 ['21', '11', '13'] 616.6666666666666
196 12.333333333333334 ['21', '11', '13'] 616.6666666666666
197 12.333333333333334 ['21', '11', '13'] 616.6666666666666
198 12.333333333333334 ['21', '11', '13'] 616.6666666666666
199 12.333333333333334 ['21', '11', '13'] 616.6666666666666
