0 5.383209876543213 ['40', '113', '108', '49', '14', '141', '127', '63', '136', '118', '61', '137', '69', '140', '1'] 272.7123456790125
1 5.356913580246914 ['17', '119', '83', '138', '92', '114', '2', '104', '107', '102', '106', '74', '25', '57', '41'] 271.5855555555557
2 5.331481481481484 ['89', '47', '96', '133', '54', '98', '119', '2', '83', '127', '104', '121', '65', '93', '130'] 270.7375308641977
3 5.331481481481484 ['89', '47', '96', '133', '54', '98', '119', '2', '83', '127', '104', '121', '65', '93', '130'] 270.16641975308653
4 5.300246913580249 ['2', '12', '104', '52', '83', '114', '137', '57', '25', '112', '96', '6', '46', '146', '150'] 269.2520987654322
5 5.300246913580249 ['2', '12', '104', '52', '83', '114', '137', '57', '25', '112', '96', '6', '46', '146', '150'] 268.56913580246936
6 5.300246913580249 ['2', '12', '104', '52', '83', '114', '137', '57', '25', '112', '96', '6', '46', '146', '150'] 267.8562962962965
7 5.284567901234571 ['12', '96', '52', '114', '104', '146', '137', '6', '118', '2', '150', '136', '46', '121', '112'] 267.06679012345705
8 5.2539506172839525 ['104', '137', '12', '114', '146', '96', '52', '118', '93', '2', '121', '112', '57', '46', '83'] 266.32864197530876
9 5.2539506172839525 ['104', '137', '12', '114', '146', '96', '52', '118', '93', '2', '121', '112', '57', '46', '83'] 265.95395061728414
10 5.2539506172839525 ['104', '137', '12', '114', '146', '96', '52', '118', '93', '2', '121', '112', '57', '46', '83'] 265.43987654321
11 5.22172839506173 ['150', '25', '137', '114', '32', '112', '104', '2', '46', '140', '139', '149', '146', '133', '79'] 264.7095061728396
12 5.22172839506173 ['150', '25', '137', '114', '32', '112', '104', '2', '46', '140', '139', '149', '146', '133', '79'] 263.9129629629631
13 5.22172839506173 ['150', '25', '137', '114', '32', '112', '104', '2', '46', '140', '139', '149', '146', '133', '79'] 263.19740740740764
14 5.197407407407408 ['150', '114', '104', '46', '2', '146', '133', '137', '79', '147', '139', '136', '149', '108', '83'] 262.59469135802493
15 5.151975308641979 ['106', '2', '140', '137', '104', '89', '83', '145', '114', '133', '149', '79', '46', '146', '92'] 262.00567901234587
16 5.151975308641979 ['106', '2', '140', '137', '104', '89', '83', '145', '114', '133', '149', '79', '46', '146', '92'] 261.3245679012347
17 5.151975308641979 ['106', '2', '140', '137', '104', '89', '83', '145', '114', '133', '149', '79', '46', '146', '92'] 260.8465432098767
18 5.151975308641979 ['106', '2', '140', '137', '104', '89', '83', '145', '114', '133', '149', '79', '46', '146', '92'] 260.3546913580248
19 5.151975308641979 ['106', '2', '140', '137', '104', '89', '83', '145', '114', '133', '149', '79', '46', '146', '92'] 259.9307407407409
20 5.1448148148148185 ['114', '133', '2', '146', '104', '149', '79', '137', '46', '145', '92', '136', '106', '83', '150'] 259.47567901234584
21 5.1448148148148185 ['114', '133', '2', '146', '104', '149', '79', '137', '46', '145', '92', '136', '106', '83', '150'] 259.0248148148149
22 5.1448148148148185 ['114', '133', '2', '146', '104', '149', '79', '137', '46', '145', '92', '136', '106', '83', '150'] 258.7501234567902
23 5.143580246913583 ['114', '146', '2', '79', '83', '149', '106', '137', '133', '89', '46', '145', '57', '92', '104'] 258.3754320987656
24 5.126790123456791 ['46', '104', '114', '149', '79', '145', '133', '137', '146', '2', '150', '139', '140', '57', '144'] 258.0461728395064
25 5.126790123456791 ['46', '104', '114', '149', '79', '145', '133', '137', '146', '2', '150', '139', '140', '57', '144'] 257.6397530864199
26 5.122098765432099 ['133', '46', '150', '114', '146', '104', '149', '140', '145', '137', '79', '2', '147', '57', '139'] 257.3474074074075
27 5.122098765432099 ['133', '46', '150', '114', '146', '104', '149', '140', '145', '137', '79', '2', '147', '57', '139'] 257.0420987654322
28 5.122098765432099 ['133', '46', '150', '114', '146', '104', '149', '140', '145', '137', '79', '2', '147', '57', '139'] 256.778765432099
29 5.122098765432099 ['133', '46', '150', '114', '146', '104', '149', '140', '145', '137', '79', '2', '147', '57', '139'] 256.607901234568
30 5.122098765432099 ['133', '46', '150', '114', '146', '104', '149', '140', '145', '137', '79', '2', '147', '57', '139'] 256.4765432098764
31 5.111975308641977 ['140', '104', '114', '137', '79', '150', '145', '133', '146', '149', '2', '46', '106', '57', '144'] 256.37530864197527
32 5.111975308641977 ['140', '104', '114', '137', '79', '150', '145', '133', '146', '149', '2', '46', '106', '57', '144'] 256.30543209876555
33 5.111975308641977 ['140', '104', '114', '137', '79', '150', '145', '133', '146', '149', '2', '46', '106', '57', '144'] 256.2054320987655
34 5.111975308641977 ['140', '104', '114', '137', '79', '150', '145', '133', '146', '149', '2', '46', '106', '57', '144'] 256.14172839506153
35 5.111975308641977 ['140', '104', '114', '137', '79', '150', '145', '133', '146', '149', '2', '46', '106', '57', '144'] 256.0998765432097
36 5.111975308641977 ['140', '104', '114', '137', '79', '150', '145', '133', '146', '149', '2', '46', '106', '57', '144'] 256.0765432098764
37 5.111975308641977 ['140', '104', '114', '137', '79', '150', '145', '133', '146', '149', '2', '46', '106', '57', '144'] 255.99703703703705
38 5.111975308641977 ['140', '104', '114', '137', '79', '150', '145', '133', '146', '149', '2', '46', '106', '57', '144'] 255.94432098765435
39 5.111975308641977 ['140', '104', '114', '137', '79', '150', '145', '133', '146', '149', '2', '46', '106', '57', '144'] 255.77000000000018
40 5.111975308641977 ['140', '104', '114', '137', '79', '150', '145', '133', '146', '149', '2', '46', '106', '57', '144'] 255.5987654320987
41 5.111975308641977 ['140', '104', '114', '137', '79', '150', '145', '133', '146', '149', '2', '46', '106', '57', '144'] 255.5987654320987
42 5.111975308641977 ['140', '104', '114', '137', '79', '150', '145', '133', '146', '149', '2', '46', '106', '57', '144'] 255.5987654320987
43 5.111975308641977 ['140', '104', '114', '137', '79', '150', '145', '133', '146', '149', '2', '46', '106', '57', '144'] 255.5987654320987
44 5.111975308641977 ['140', '104', '114', '137', '79', '150', '145', '133', '146', '149', '2', '46', '106', '57', '144'] 255.5987654320987
45 5.111975308641977 ['140', '104', '114', '137', '79', '150', '145', '133', '146', '149', '2', '46', '106', '57', '144'] 255.5987654320987
46 5.111975308641977 ['140', '104', '114', '137', '79', '150', '145', '133', '146', '149', '2', '46', '106', '57', '144'] 255.5987654320987
47 5.111975308641977 ['140', '104', '114', '137', '79', '150', '145', '133', '146', '149', '2', '46', '106', '57', '144'] 255.5987654320987
48 5.111975308641977 ['140', '104', '114', '137', '79', '150', '145', '133', '146', '149', '2', '46', '106', '57', '144'] 255.5987654320987
49 5.111975308641977 ['140', '104', '114', '137', '79', '150', '145', '133', '146', '149', '2', '46', '106', '57', '144'] 255.5987654320987
50 5.111975308641977 ['140', '104', '114', '137', '79', '150', '145', '133', '146', '149', '2', '46', '106', '57', '144'] 255.5987654320987
51 5.111975308641977 ['140', '104', '114', '137', '79', '150', '145', '133', '146', '149', '2', '46', '106', '57', '144'] 255.5987654320987
52 5.111975308641977 ['140', '104', '114', '137', '79', '150', '145', '133', '146', '149', '2', '46', '106', '57', '144'] 255.5987654320987
53 5.111975308641977 ['140', '104', '114', '137', '79', '150', '145', '133', '146', '149', '2', '46', '106', '57', '144'] 255.5987654320987
54 5.111975308641977 ['140', '104', '114', '137', '79', '150', '145', '133', '146', '149', '2', '46', '106', '57', '144'] 255.5987654320987
55 5.111975308641977 ['140', '104', '114', '137', '79', '150', '145', '133', '146', '149', '2', '46', '106', '57', '144'] 255.5987654320987
56 5.111975308641977 ['140', '104', '114', '137', '79', '150', '145', '133', '146', '149', '2', '46', '106', '57', '144'] 255.5987654320987
57 5.111975308641977 ['140', '104', '114', '137', '79', '150', '145', '133', '146', '149', '2', '46', '106', '57', '144'] 255.5987654320987
58 5.111975308641977 ['140', '104', '114', '137', '79', '150', '145', '133', '146', '149', '2', '46', '106', '57', '144'] 255.5987654320987
59 5.111975308641977 ['140', '104', '114', '137', '79', '150', '145', '133', '146', '149', '2', '46', '106', '57', '144'] 255.5987654320987
60 5.111975308641977 ['140', '104', '114', '137', '79', '150', '145', '133', '146', '149', '2', '46', '106', '57', '144'] 255.5987654320987
61 5.111975308641977 ['140', '104', '114', '137', '79', '150', '145', '133', '146', '149', '2', '46', '106', '57', '144'] 255.5987654320987
62 5.111975308641977 ['140', '104', '114', '137', '79', '150', '145', '133', '146', '149', '2', '46', '106', '57', '144'] 255.5987654320987
63 5.111975308641977 ['140', '104', '114', '137', '79', '150', '145', '133', '146', '149', '2', '46', '106', '57', '144'] 255.5987654320987
64 5.111975308641977 ['140', '104', '114', '137', '79', '150', '145', '133', '146', '149', '2', '46', '106', '57', '144'] 255.5987654320987
65 5.111975308641977 ['140', '104', '114', '137', '79', '150', '145', '133', '146', '149', '2', '46', '106', '57', '144'] 255.5987654320987
66 5.111975308641977 ['140', '104', '114', '137', '79', '150', '145', '133', '146', '149', '2', '46', '106', '57', '144'] 255.5987654320987
67 5.111975308641977 ['140', '104', '114', '137', '79', '150', '145', '133', '146', '149', '2', '46', '106', '57', '144'] 255.5987654320987
68 5.111975308641977 ['140', '104', '114', '137', '79', '150', '145', '133', '146', '149', '2', '46', '106', '57', '144'] 255.5987654320987
69 5.111975308641977 ['140', '104', '114', '137', '79', '150', '145', '133', '146', '149', '2', '46', '106', '57', '144'] 255.5987654320987
70 5.111975308641977 ['140', '104', '114', '137', '79', '150', '145', '133', '146', '149', '2', '46', '106', '57', '144'] 255.5987654320987
71 5.111975308641977 ['140', '104', '114', '137', '79', '150', '145', '133', '146', '149', '2', '46', '106', '57', '144'] 255.5987654320987
72 5.111975308641977 ['140', '104', '114', '137', '79', '150', '145', '133', '146', '149', '2', '46', '106', '57', '144'] 255.5987654320987
73 5.111975308641977 ['140', '104', '114', '137', '79', '150', '145', '133', '146', '149', '2', '46', '106', '57', '144'] 255.5987654320987
74 5.111975308641977 ['140', '104', '114', '137', '79', '150', '145', '133', '146', '149', '2', '46', '106', '57', '144'] 255.5987654320987
75 5.111975308641977 ['140', '104', '114', '137', '79', '150', '145', '133', '146', '149', '2', '46', '106', '57', '144'] 255.5987654320987
76 5.111975308641977 ['140', '104', '114', '137', '79', '150', '145', '133', '146', '149', '2', '46', '106', '57', '144'] 255.5987654320987
77 5.111975308641977 ['140', '104', '114', '137', '79', '150', '145', '133', '146', '149', '2', '46', '106', '57', '144'] 255.5987654320987
78 5.111975308641977 ['140', '104', '114', '137', '79', '150', '145', '133', '146', '149', '2', '46', '106', '57', '144'] 255.5987654320987
79 5.111975308641977 ['140', '104', '114', '137', '79', '150', '145', '133', '146', '149', '2', '46', '106', '57', '144'] 255.5987654320987
80 5.111975308641977 ['140', '104', '114', '137', '79', '150', '145', '133', '146', '149', '2', '46', '106', '57', '144'] 255.5987654320987
81 5.111975308641977 ['140', '104', '114', '137', '79', '150', '145', '133', '146', '149', '2', '46', '106', '57', '144'] 255.5987654320987
82 5.111975308641977 ['140', '104', '114', '137', '79', '150', '145', '133', '146', '149', '2', '46', '106', '57', '144'] 255.5987654320987
83 5.111975308641977 ['140', '104', '114', '137', '79', '150', '145', '133', '146', '149', '2', '46', '106', '57', '144'] 255.5987654320987
84 5.111975308641977 ['140', '104', '114', '137', '79', '150', '145', '133', '146', '149', '2', '46', '106', '57', '144'] 255.5987654320987
85 5.111975308641977 ['140', '104', '114', '137', '79', '150', '145', '133', '146', '149', '2', '46', '106', '57', '144'] 255.5987654320987
86 5.111975308641977 ['140', '104', '114', '137', '79', '150', '145', '133', '146', '149', '2', '46', '106', '57', '144'] 255.5987654320987
87 5.111975308641977 ['140', '104', '114', '137', '79', '150', '145', '133', '146', '149', '2', '46', '106', '57', '144'] 255.5987654320987
88 5.111975308641977 ['140', '104', '114', '137', '79', '150', '145', '133', '146', '149', '2', '46', '106', '57', '144'] 255.5987654320987
89 5.111975308641977 ['140', '104', '114', '137', '79', '150', '145', '133', '146', '149', '2', '46', '106', '57', '144'] 255.5987654320987
90 5.111975308641977 ['140', '104', '114', '137', '79', '150', '145', '133', '146', '149', '2', '46', '106', '57', '144'] 255.5987654320987
91 5.111975308641977 ['140', '104', '114', '137', '79', '150', '145', '133', '146', '149', '2', '46', '106', '57', '144'] 255.5987654320987
92 5.111975308641977 ['140', '104', '114', '137', '79', '150', '145', '133', '146', '149', '2', '46', '106', '57', '144'] 255.5987654320987
93 5.111975308641977 ['140', '104', '114', '137', '79', '150', '145', '133', '146', '149', '2', '46', '106', '57', '144'] 255.5987654320987
94 5.111975308641977 ['140', '104', '114', '137', '79', '150', '145', '133', '146', '149', '2', '46', '106', '57', '144'] 255.5987654320987
95 5.111975308641977 ['140', '104', '114', '137', '79', '150', '145', '133', '146', '149', '2', '46', '106', '57', '144'] 255.5987654320987
96 5.111975308641977 ['140', '104', '114', '137', '79', '150', '145', '133', '146', '149', '2', '46', '106', '57', '144'] 255.5987654320987
97 5.111975308641977 ['140', '104', '114', '137', '79', '150', '145', '133', '146', '149', '2', '46', '106', '57', '144'] 255.5987654320987
98 5.111975308641977 ['140', '104', '114', '137', '79', '150', '145', '133', '146', '149', '2', '46', '106', '57', '144'] 255.5987654320987
99 5.111975308641977 ['140', '104', '114', '137', '79', '150', '145', '133', '146', '149', '2', '46', '106', '57', '144'] 255.5987654320987
100 5.111975308641977 ['140', '104', '114', '137', '79', '150', '145', '133', '146', '149', '2', '46', '106', '57', '144'] 255.5987654320987
101 5.111975308641977 ['140', '104', '114', '137', '79', '150', '145', '133', '146', '149', '2', '46', '106', '57', '144'] 255.5987654320987
102 5.111975308641977 ['140', '104', '114', '137', '79', '150', '145', '133', '146', '149', '2', '46', '106', '57', '144'] 255.5987654320987
103 5.111975308641977 ['140', '104', '114', '137', '79', '150', '145', '133', '146', '149', '2', '46', '106', '57', '144'] 255.5987654320987
104 5.111975308641977 ['140', '104', '114', '137', '79', '150', '145', '133', '146', '149', '2', '46', '106', '57', '144'] 255.5987654320987
105 5.111975308641977 ['140', '104', '114', '137', '79', '150', '145', '133', '146', '149', '2', '46', '106', '57', '144'] 255.5987654320987
106 5.111975308641977 ['140', '104', '114', '137', '79', '150', '145', '133', '146', '149', '2', '46', '106', '57', '144'] 255.5987654320987
107 5.111975308641977 ['140', '104', '114', '137', '79', '150', '145', '133', '146', '149', '2', '46', '106', '57', '144'] 255.5987654320987
108 5.111975308641977 ['140', '104', '114', '137', '79', '150', '145', '133', '146', '149', '2', '46', '106', '57', '144'] 255.5987654320987
109 5.111975308641977 ['140', '104', '114', '137', '79', '150', '145', '133', '146', '149', '2', '46', '106', '57', '144'] 255.5987654320987
110 5.111975308641977 ['140', '104', '114', '137', '79', '150', '145', '133', '146', '149', '2', '46', '106', '57', '144'] 255.5987654320987
111 5.111975308641977 ['140', '104', '114', '137', '79', '150', '145', '133', '146', '149', '2', '46', '106', '57', '144'] 255.5987654320987
112 5.111975308641977 ['140', '104', '114', '137', '79', '150', '145', '133', '146', '149', '2', '46', '106', '57', '144'] 255.5987654320987
113 5.111975308641977 ['140', '104', '114', '137', '79', '150', '145', '133', '146', '149', '2', '46', '106', '57', '144'] 255.5987654320987
114 5.111975308641977 ['140', '104', '114', '137', '79', '150', '145', '133', '146', '149', '2', '46', '106', '57', '144'] 255.5987654320987
115 5.111975308641977 ['140', '104', '114', '137', '79', '150', '145', '133', '146', '149', '2', '46', '106', '57', '144'] 255.5987654320987
116 5.111975308641977 ['140', '104', '114', '137', '79', '150', '145', '133', '146', '149', '2', '46', '106', '57', '144'] 255.5987654320987
117 5.111975308641977 ['140', '104', '114', '137', '79', '150', '145', '133', '146', '149', '2', '46', '106', '57', '144'] 255.5987654320987
118 5.111975308641977 ['140', '104', '114', '137', '79', '150', '145', '133', '146', '149', '2', '46', '106', '57', '144'] 255.5987654320987
119 5.111975308641977 ['140', '104', '114', '137', '79', '150', '145', '133', '146', '149', '2', '46', '106', '57', '144'] 255.5987654320987
120 5.111975308641977 ['140', '104', '114', '137', '79', '150', '145', '133', '146', '149', '2', '46', '106', '57', '144'] 255.5987654320987
121 5.111975308641977 ['140', '104', '114', '137', '79', '150', '145', '133', '146', '149', '2', '46', '106', '57', '144'] 255.5987654320987
122 5.111975308641977 ['140', '104', '114', '137', '79', '150', '145', '133', '146', '149', '2', '46', '106', '57', '144'] 255.5987654320987
123 5.111975308641977 ['140', '104', '114', '137', '79', '150', '145', '133', '146', '149', '2', '46', '106', '57', '144'] 255.5987654320987
124 5.111975308641977 ['140', '104', '114', '137', '79', '150', '145', '133', '146', '149', '2', '46', '106', '57', '144'] 255.5987654320987
125 5.111975308641977 ['140', '104', '114', '137', '79', '150', '145', '133', '146', '149', '2', '46', '106', '57', '144'] 255.5987654320987
126 5.111975308641977 ['140', '104', '114', '137', '79', '150', '145', '133', '146', '149', '2', '46', '106', '57', '144'] 255.5987654320987
127 5.111975308641977 ['140', '104', '114', '137', '79', '150', '145', '133', '146', '149', '2', '46', '106', '57', '144'] 255.5987654320987
128 5.111975308641977 ['140', '104', '114', '137', '79', '150', '145', '133', '146', '149', '2', '46', '106', '57', '144'] 255.5987654320987
129 5.111975308641977 ['140', '104', '114', '137', '79', '150', '145', '133', '146', '149', '2', '46', '106', '57', '144'] 255.5987654320987
130 5.111975308641977 ['140', '104', '114', '137', '79', '150', '145', '133', '146', '149', '2', '46', '106', '57', '144'] 255.5987654320987
131 5.111975308641977 ['140', '104', '114', '137', '79', '150', '145', '133', '146', '149', '2', '46', '106', '57', '144'] 255.5987654320987
132 5.111975308641977 ['140', '104', '114', '137', '79', '150', '145', '133', '146', '149', '2', '46', '106', '57', '144'] 255.5987654320987
133 5.111975308641977 ['140', '104', '114', '137', '79', '150', '145', '133', '146', '149', '2', '46', '106', '57', '144'] 255.5987654320987
134 5.111975308641977 ['140', '104', '114', '137', '79', '150', '145', '133', '146', '149', '2', '46', '106', '57', '144'] 255.5987654320987
135 5.111975308641977 ['140', '104', '114', '137', '79', '150', '145', '133', '146', '149', '2', '46', '106', '57', '144'] 255.5987654320987
136 5.111975308641977 ['140', '104', '114', '137', '79', '150', '145', '133', '146', '149', '2', '46', '106', '57', '144'] 255.5987654320987
137 5.111975308641977 ['140', '104', '114', '137', '79', '150', '145', '133', '146', '149', '2', '46', '106', '57', '144'] 255.5987654320987
138 5.111975308641977 ['140', '104', '114', '137', '79', '150', '145', '133', '146', '149', '2', '46', '106', '57', '144'] 255.5987654320987
139 5.111975308641977 ['140', '104', '114', '137', '79', '150', '145', '133', '146', '149', '2', '46', '106', '57', '144'] 255.5987654320987
140 5.111975308641977 ['140', '104', '114', '137', '79', '150', '145', '133', '146', '149', '2', '46', '106', '57', '144'] 255.5987654320987
141 5.111975308641977 ['140', '104', '114', '137', '79', '150', '145', '133', '146', '149', '2', '46', '106', '57', '144'] 255.5987654320987
142 5.111975308641977 ['140', '104', '114', '137', '79', '150', '145', '133', '146', '149', '2', '46', '106', '57', '144'] 255.5987654320987
143 5.111975308641977 ['140', '104', '114', '137', '79', '150', '145', '133', '146', '149', '2', '46', '106', '57', '144'] 255.5987654320987
144 5.111975308641977 ['140', '104', '114', '137', '79', '150', '145', '133', '146', '149', '2', '46', '106', '57', '144'] 255.5987654320987
145 5.111975308641977 ['140', '104', '114', '137', '79', '150', '145', '133', '146', '149', '2', '46', '106', '57', '144'] 255.5987654320987
146 5.111975308641977 ['140', '104', '114', '137', '79', '150', '145', '133', '146', '149', '2', '46', '106', '57', '144'] 255.5987654320987
147 5.111975308641977 ['140', '104', '114', '137', '79', '150', '145', '133', '146', '149', '2', '46', '106', '57', '144'] 255.5987654320987
148 5.111975308641977 ['140', '104', '114', '137', '79', '150', '145', '133', '146', '149', '2', '46', '106', '57', '144'] 255.5987654320987
149 5.111975308641977 ['140', '104', '114', '137', '79', '150', '145', '133', '146', '149', '2', '46', '106', '57', '144'] 255.5987654320987
150 5.111975308641977 ['140', '104', '114', '137', '79', '150', '145', '133', '146', '149', '2', '46', '106', '57', '144'] 255.5987654320987
151 5.111975308641977 ['140', '104', '114', '137', '79', '150', '145', '133', '146', '149', '2', '46', '106', '57', '144'] 255.5987654320987
152 5.111975308641977 ['140', '104', '114', '137', '79', '150', '145', '133', '146', '149', '2', '46', '106', '57', '144'] 255.5987654320987
153 5.111975308641977 ['140', '104', '114', '137', '79', '150', '145', '133', '146', '149', '2', '46', '106', '57', '144'] 255.5987654320987
154 5.111975308641977 ['140', '104', '114', '137', '79', '150', '145', '133', '146', '149', '2', '46', '106', '57', '144'] 255.5987654320987
155 5.111975308641977 ['140', '104', '114', '137', '79', '150', '145', '133', '146', '149', '2', '46', '106', '57', '144'] 255.5987654320987
156 5.111975308641977 ['140', '104', '114', '137', '79', '150', '145', '133', '146', '149', '2', '46', '106', '57', '144'] 255.5987654320987
157 5.111975308641977 ['140', '104', '114', '137', '79', '150', '145', '133', '146', '149', '2', '46', '106', '57', '144'] 255.5987654320987
158 5.111975308641977 ['140', '104', '114', '137', '79', '150', '145', '133', '146', '149', '2', '46', '106', '57', '144'] 255.5987654320987
159 5.111975308641977 ['140', '104', '114', '137', '79', '150', '145', '133', '146', '149', '2', '46', '106', '57', '144'] 255.5987654320987
160 5.111975308641977 ['140', '104', '114', '137', '79', '150', '145', '133', '146', '149', '2', '46', '106', '57', '144'] 255.5987654320987
161 5.111975308641977 ['140', '104', '114', '137', '79', '150', '145', '133', '146', '149', '2', '46', '106', '57', '144'] 255.5987654320987
162 5.111975308641977 ['140', '104', '114', '137', '79', '150', '145', '133', '146', '149', '2', '46', '106', '57', '144'] 255.5987654320987
163 5.111975308641977 ['140', '104', '114', '137', '79', '150', '145', '133', '146', '149', '2', '46', '106', '57', '144'] 255.5987654320987
164 5.111975308641977 ['140', '104', '114', '137', '79', '150', '145', '133', '146', '149', '2', '46', '106', '57', '144'] 255.5987654320987
165 5.111975308641977 ['140', '104', '114', '137', '79', '150', '145', '133', '146', '149', '2', '46', '106', '57', '144'] 255.5987654320987
166 5.111975308641977 ['140', '104', '114', '137', '79', '150', '145', '133', '146', '149', '2', '46', '106', '57', '144'] 255.5987654320987
167 5.111975308641977 ['140', '104', '114', '137', '79', '150', '145', '133', '146', '149', '2', '46', '106', '57', '144'] 255.5987654320987
168 5.111975308641977 ['140', '104', '114', '137', '79', '150', '145', '133', '146', '149', '2', '46', '106', '57', '144'] 255.5987654320987
169 5.111975308641977 ['140', '104', '114', '137', '79', '150', '145', '133', '146', '149', '2', '46', '106', '57', '144'] 255.5987654320987
170 5.111975308641977 ['140', '104', '114', '137', '79', '150', '145', '133', '146', '149', '2', '46', '106', '57', '144'] 255.5987654320987
171 5.111975308641977 ['140', '104', '114', '137', '79', '150', '145', '133', '146', '149', '2', '46', '106', '57', '144'] 255.5987654320987
172 5.111975308641977 ['140', '104', '114', '137', '79', '150', '145', '133', '146', '149', '2', '46', '106', '57', '144'] 255.5987654320987
173 5.111975308641977 ['140', '104', '114', '137', '79', '150', '145', '133', '146', '149', '2', '46', '106', '57', '144'] 255.5987654320987
174 5.111975308641977 ['140', '104', '114', '137', '79', '150', '145', '133', '146', '149', '2', '46', '106', '57', '144'] 255.5987654320987
175 5.111975308641977 ['140', '104', '114', '137', '79', '150', '145', '133', '146', '149', '2', '46', '106', '57', '144'] 255.5987654320987
176 5.111975308641977 ['140', '104', '114', '137', '79', '150', '145', '133', '146', '149', '2', '46', '106', '57', '144'] 255.5987654320987
177 5.111975308641977 ['140', '104', '114', '137', '79', '150', '145', '133', '146', '149', '2', '46', '106', '57', '144'] 255.5987654320987
178 5.111975308641977 ['140', '104', '114', '137', '79', '150', '145', '133', '146', '149', '2', '46', '106', '57', '144'] 255.5987654320987
179 5.111975308641977 ['140', '104', '114', '137', '79', '150', '145', '133', '146', '149', '2', '46', '106', '57', '144'] 255.5987654320987
180 5.111975308641977 ['140', '104', '114', '137', '79', '150', '145', '133', '146', '149', '2', '46', '106', '57', '144'] 255.5987654320987
181 5.111975308641977 ['140', '104', '114', '137', '79', '150', '145', '133', '146', '149', '2', '46', '106', '57', '144'] 255.5987654320987
182 5.111975308641977 ['140', '104', '114', '137', '79', '150', '145', '133', '146', '149', '2', '46', '106', '57', '144'] 255.5987654320987
183 5.111975308641977 ['140', '104', '114', '137', '79', '150', '145', '133', '146', '149', '2', '46', '106', '57', '144'] 255.5987654320987
184 5.111975308641977 ['140', '104', '114', '137', '79', '150', '145', '133', '146', '149', '2', '46', '106', '57', '144'] 255.5987654320987
185 5.111975308641977 ['140', '104', '114', '137', '79', '150', '145', '133', '146', '149', '2', '46', '106', '57', '144'] 255.5987654320987
186 5.111975308641977 ['140', '104', '114', '137', '79', '150', '145', '133', '146', '149', '2', '46', '106', '57', '144'] 255.5987654320987
187 5.111975308641977 ['140', '104', '114', '137', '79', '150', '145', '133', '146', '149', '2', '46', '106', '57', '144'] 255.5987654320987
188 5.111975308641977 ['140', '104', '114', '137', '79', '150', '145', '133', '146', '149', '2', '46', '106', '57', '144'] 255.5987654320987
189 5.111975308641977 ['140', '104', '114', '137', '79', '150', '145', '133', '146', '149', '2', '46', '106', '57', '144'] 255.5987654320987
190 5.111975308641977 ['140', '104', '114', '137', '79', '150', '145', '133', '146', '149', '2', '46', '106', '57', '144'] 255.5987654320987
191 5.111975308641977 ['140', '104', '114', '137', '79', '150', '145', '133', '146', '149', '2', '46', '106', '57', '144'] 255.5987654320987
192 5.111975308641977 ['140', '104', '114', '137', '79', '150', '145', '133', '146', '149', '2', '46', '106', '57', '144'] 255.5987654320987
193 5.111975308641977 ['140', '104', '114', '137', '79', '150', '145', '133', '146', '149', '2', '46', '106', '57', '144'] 255.5987654320987
194 5.111975308641977 ['140', '104', '114', '137', '79', '150', '145', '133', '146', '149', '2', '46', '106', '57', '144'] 255.5987654320987
195 5.111975308641977 ['140', '104', '114', '137', '79', '150', '145', '133', '146', '149', '2', '46', '106', '57', '144'] 255.5987654320987
196 5.111975308641977 ['140', '104', '114', '137', '79', '150', '145', '133', '146', '149', '2', '46', '106', '57', '144'] 255.5987654320987
197 5.111975308641977 ['140', '104', '114', '137', '79', '150', '145', '133', '146', '149', '2', '46', '106', '57', '144'] 255.5987654320987
198 5.111975308641977 ['140', '104', '114', '137', '79', '150', '145', '133', '146', '149', '2', '46', '106', '57', '144'] 255.5987654320987
199 5.111975308641977 ['140', '104', '114', '137', '79', '150', '145', '133', '146', '149', '2', '46', '106', '57', '144'] 255.5987654320987
