0 18.382978723404257 ['43', '4', '21', '45', '12'] 1003.7446808510645
1 18.382978723404257 ['43', '4', '21', '45', '12'] 975.4893617021274
2 17.19148936170213 ['47', '45', '23', '12', '5'] 951.914893617021
3 17.19148936170213 ['47', '45', '23', '12', '5'] 930.8936170212766
4 17.19148936170213 ['47', '45', '23', '12', '5'] 908.595744680851
5 17.19148936170213 ['47', '45', '23', '12', '5'] 889.2765957446804
6 16.93617021276596 ['45', '47', '23', '22', '30'] 876.1702127659572
7 16.595744680851062 ['12', '45', '23', '30', '47'] 863.6595744680853
8 16.595744680851062 ['12', '45', '23', '30', '47'] 854.2978723404249
9 16.595744680851062 ['12', '45', '23', '30', '47'] 846.7234042553191
10 16.595744680851062 ['12', '45', '23', '30', '47'] 834.8936170212769
11 16.595744680851062 ['12', '45', '23', '30', '47'] 829.7872340425539
12 16.595744680851062 ['12', '45', '23', '30', '47'] 829.7872340425539
13 16.595744680851062 ['12', '45', '23', '30', '47'] 829.7872340425539
14 16.595744680851062 ['12', '45', '23', '30', '47'] 829.7872340425539
15 16.595744680851062 ['12', '45', '23', '30', '47'] 829.7872340425539
16 16.595744680851062 ['12', '45', '23', '30', '47'] 829.7872340425539
17 16.595744680851062 ['12', '45', '23', '30', '47'] 829.7872340425539
18 16.595744680851062 ['12', '45', '23', '30', '47'] 829.7872340425539
19 16.595744680851062 ['12', '45', '23', '30', '47'] 829.7872340425539
20 16.595744680851062 ['12', '45', '23', '30', '47'] 829.7872340425539
21 16.595744680851062 ['12', '45', '23', '30', '47'] 829.7872340425539
22 16.595744680851062 ['12', '45', '23', '30', '47'] 829.7872340425539
23 16.595744680851062 ['12', '45', '23', '30', '47'] 829.7872340425539
24 16.595744680851062 ['12', '45', '23', '30', '47'] 829.7872340425539
25 16.595744680851062 ['12', '45', '23', '30', '47'] 829.7872340425539
26 16.595744680851062 ['12', '45', '23', '30', '47'] 829.7872340425539
27 16.595744680851062 ['12', '45', '23', '30', '47'] 829.7872340425539
28 16.595744680851062 ['12', '45', '23', '30', '47'] 829.7872340425539
29 16.595744680851062 ['12', '45', '23', '30', '47'] 829.7872340425539
30 16.595744680851062 ['12', '45', '23', '30', '47'] 829.7872340425539
31 16.595744680851062 ['12', '45', '23', '30', '47'] 829.7872340425539
32 16.595744680851062 ['12', '45', '23', '30', '47'] 829.7872340425539
33 16.595744680851062 ['12', '45', '23', '30', '47'] 829.7872340425539
34 16.595744680851062 ['12', '45', '23', '30', '47'] 829.7872340425539
35 16.595744680851062 ['12', '45', '23', '30', '47'] 829.7872340425539
36 16.595744680851062 ['12', '45', '23', '30', '47'] 829.7872340425539
37 16.595744680851062 ['12', '45', '23', '30', '47'] 829.7872340425539
38 16.595744680851062 ['12', '45', '23', '30', '47'] 829.7872340425539
39 16.595744680851062 ['12', '45', '23', '30', '47'] 829.7872340425539
40 16.595744680851062 ['12', '45', '23', '30', '47'] 829.7872340425539
41 16.595744680851062 ['12', '45', '23', '30', '47'] 829.7872340425539
42 16.595744680851062 ['12', '45', '23', '30', '47'] 829.7872340425539
43 16.595744680851062 ['12', '45', '23', '30', '47'] 829.7872340425539
44 16.595744680851062 ['12', '45', '23', '30', '47'] 829.7872340425539
45 16.595744680851062 ['12', '45', '23', '30', '47'] 829.7872340425539
46 16.595744680851062 ['12', '45', '23', '30', '47'] 829.7872340425539
47 16.595744680851062 ['12', '45', '23', '30', '47'] 829.7872340425539
48 16.595744680851062 ['12', '45', '23', '30', '47'] 829.7872340425539
49 16.595744680851062 ['12', '45', '23', '30', '47'] 829.7872340425539
50 16.595744680851062 ['12', '45', '23', '30', '47'] 829.7872340425539
51 16.595744680851062 ['12', '45', '23', '30', '47'] 829.7872340425539
52 16.595744680851062 ['12', '45', '23', '30', '47'] 829.7872340425539
53 16.595744680851062 ['12', '45', '23', '30', '47'] 829.7872340425539
54 16.595744680851062 ['12', '45', '23', '30', '47'] 829.7872340425539
55 16.595744680851062 ['12', '45', '23', '30', '47'] 829.7872340425539
56 16.595744680851062 ['12', '45', '23', '30', '47'] 829.7872340425539
57 16.595744680851062 ['12', '45', '23', '30', '47'] 829.7872340425539
58 16.595744680851062 ['12', '45', '23', '30', '47'] 829.7872340425539
59 16.595744680851062 ['12', '45', '23', '30', '47'] 829.7872340425539
60 16.595744680851062 ['12', '45', '23', '30', '47'] 829.7872340425539
61 16.595744680851062 ['12', '45', '23', '30', '47'] 829.7872340425539
62 16.595744680851062 ['12', '45', '23', '30', '47'] 829.7872340425539
63 16.595744680851062 ['12', '45', '23', '30', '47'] 829.7872340425539
64 16.595744680851062 ['12', '45', '23', '30', '47'] 829.7872340425539
65 16.595744680851062 ['12', '45', '23', '30', '47'] 829.7872340425539
66 16.595744680851062 ['12', '45', '23', '30', '47'] 829.7872340425539
67 16.595744680851062 ['12', '45', '23', '30', '47'] 829.7872340425539
68 16.595744680851062 ['12', '45', '23', '30', '47'] 829.7872340425539
69 16.595744680851062 ['12', '45', '23', '30', '47'] 829.7872340425539
70 16.595744680851062 ['12', '45', '23', '30', '47'] 829.7872340425539
71 16.595744680851062 ['12', '45', '23', '30', '47'] 829.7872340425539
72 16.595744680851062 ['12', '45', '23', '30', '47'] 829.7872340425539
73 16.595744680851062 ['12', '45', '23', '30', '47'] 829.7872340425539
74 16.595744680851062 ['12', '45', '23', '30', '47'] 829.7872340425539
75 16.595744680851062 ['12', '45', '23', '30', '47'] 829.7872340425539
76 16.595744680851062 ['12', '45', '23', '30', '47'] 829.7872340425539
77 16.595744680851062 ['12', '45', '23', '30', '47'] 829.7872340425539
78 16.595744680851062 ['12', '45', '23', '30', '47'] 829.7872340425539
79 16.595744680851062 ['12', '45', '23', '30', '47'] 829.7872340425539
80 16.595744680851062 ['12', '45', '23', '30', '47'] 829.7872340425539
81 16.595744680851062 ['12', '45', '23', '30', '47'] 829.7872340425539
82 16.595744680851062 ['12', '45', '23', '30', '47'] 829.7872340425539
83 16.595744680851062 ['12', '45', '23', '30', '47'] 829.7872340425539
84 16.595744680851062 ['12', '45', '23', '30', '47'] 829.7872340425539
85 16.595744680851062 ['12', '45', '23', '30', '47'] 829.7872340425539
86 16.595744680851062 ['12', '45', '23', '30', '47'] 829.7872340425539
87 16.595744680851062 ['12', '45', '23', '30', '47'] 829.7872340425539
88 16.595744680851062 ['12', '45', '23', '30', '47'] 829.7872340425539
89 16.595744680851062 ['12', '45', '23', '30', '47'] 829.7872340425539
90 16.595744680851062 ['12', '45', '23', '30', '47'] 829.7872340425539
91 16.595744680851062 ['12', '45', '23', '30', '47'] 829.7872340425539
92 16.595744680851062 ['12', '45', '23', '30', '47'] 829.7872340425539
93 16.595744680851062 ['12', '45', '23', '30', '47'] 829.7872340425539
94 16.595744680851062 ['12', '45', '23', '30', '47'] 829.7872340425539
95 16.595744680851062 ['12', '45', '23', '30', '47'] 829.7872340425539
96 16.595744680851062 ['12', '45', '23', '30', '47'] 829.7872340425539
97 16.595744680851062 ['12', '45', '23', '30', '47'] 829.7872340425539
98 16.595744680851062 ['12', '45', '23', '30', '47'] 829.7872340425539
99 16.595744680851062 ['12', '45', '23', '30', '47'] 829.7872340425539
100 16.595744680851062 ['12', '45', '23', '30', '47'] 829.7872340425539
101 16.595744680851062 ['12', '45', '23', '30', '47'] 829.7872340425539
102 16.595744680851062 ['12', '45', '23', '30', '47'] 829.7872340425539
103 16.595744680851062 ['12', '45', '23', '30', '47'] 829.7872340425539
104 16.595744680851062 ['12', '45', '23', '30', '47'] 829.7872340425539
105 16.595744680851062 ['12', '45', '23', '30', '47'] 829.7872340425539
106 16.595744680851062 ['12', '45', '23', '30', '47'] 829.7872340425539
107 16.595744680851062 ['12', '45', '23', '30', '47'] 829.7872340425539
108 16.595744680851062 ['12', '45', '23', '30', '47'] 829.7872340425539
109 16.595744680851062 ['12', '45', '23', '30', '47'] 829.7872340425539
110 16.595744680851062 ['12', '45', '23', '30', '47'] 829.7872340425539
111 16.595744680851062 ['12', '45', '23', '30', '47'] 829.7872340425539
112 16.595744680851062 ['12', '45', '23', '30', '47'] 829.7872340425539
113 16.595744680851062 ['12', '45', '23', '30', '47'] 829.7872340425539
114 16.595744680851062 ['12', '45', '23', '30', '47'] 829.7872340425539
115 16.595744680851062 ['12', '45', '23', '30', '47'] 829.7872340425539
116 16.595744680851062 ['12', '45', '23', '30', '47'] 829.7872340425539
117 16.595744680851062 ['12', '45', '23', '30', '47'] 829.7872340425539
118 16.595744680851062 ['12', '45', '23', '30', '47'] 829.7872340425539
119 16.595744680851062 ['12', '45', '23', '30', '47'] 829.7872340425539
120 16.595744680851062 ['12', '45', '23', '30', '47'] 829.7872340425539
121 16.595744680851062 ['12', '45', '23', '30', '47'] 829.7872340425539
122 16.595744680851062 ['12', '45', '23', '30', '47'] 829.7872340425539
123 16.595744680851062 ['12', '45', '23', '30', '47'] 829.7872340425539
124 16.595744680851062 ['12', '45', '23', '30', '47'] 829.7872340425539
125 16.595744680851062 ['12', '45', '23', '30', '47'] 829.7872340425539
126 16.595744680851062 ['12', '45', '23', '30', '47'] 829.7872340425539
127 16.595744680851062 ['12', '45', '23', '30', '47'] 829.7872340425539
128 16.595744680851062 ['12', '45', '23', '30', '47'] 829.7872340425539
129 16.595744680851062 ['12', '45', '23', '30', '47'] 829.7872340425539
130 16.595744680851062 ['12', '45', '23', '30', '47'] 829.7872340425539
131 16.595744680851062 ['12', '45', '23', '30', '47'] 829.7872340425539
132 16.595744680851062 ['12', '45', '23', '30', '47'] 829.7872340425539
133 16.595744680851062 ['12', '45', '23', '30', '47'] 829.7872340425539
134 16.595744680851062 ['12', '45', '23', '30', '47'] 829.7872340425539
135 16.595744680851062 ['12', '45', '23', '30', '47'] 829.7872340425539
136 16.595744680851062 ['12', '45', '23', '30', '47'] 829.7872340425539
137 16.595744680851062 ['12', '45', '23', '30', '47'] 829.7872340425539
138 16.595744680851062 ['12', '45', '23', '30', '47'] 829.7872340425539
139 16.595744680851062 ['12', '45', '23', '30', '47'] 829.7872340425539
140 16.595744680851062 ['12', '45', '23', '30', '47'] 829.7872340425539
141 16.595744680851062 ['12', '45', '23', '30', '47'] 829.7872340425539
142 16.595744680851062 ['12', '45', '23', '30', '47'] 829.7872340425539
143 16.595744680851062 ['12', '45', '23', '30', '47'] 829.7872340425539
144 16.595744680851062 ['12', '45', '23', '30', '47'] 829.7872340425539
145 16.595744680851062 ['12', '45', '23', '30', '47'] 829.7872340425539
146 16.595744680851062 ['12', '45', '23', '30', '47'] 829.7872340425539
147 16.595744680851062 ['12', '45', '23', '30', '47'] 829.7872340425539
148 16.595744680851062 ['12', '45', '23', '30', '47'] 829.7872340425539
149 16.595744680851062 ['12', '45', '23', '30', '47'] 829.7872340425539
150 16.595744680851062 ['12', '45', '23', '30', '47'] 829.7872340425539
151 16.595744680851062 ['12', '45', '23', '30', '47'] 829.7872340425539
152 16.595744680851062 ['12', '45', '23', '30', '47'] 829.7872340425539
153 16.595744680851062 ['12', '45', '23', '30', '47'] 829.7872340425539
154 16.595744680851062 ['12', '45', '23', '30', '47'] 829.7872340425539
155 16.595744680851062 ['12', '45', '23', '30', '47'] 829.7872340425539
156 16.595744680851062 ['12', '45', '23', '30', '47'] 829.7872340425539
157 16.595744680851062 ['12', '45', '23', '30', '47'] 829.7872340425539
158 16.595744680851062 ['12', '45', '23', '30', '47'] 829.7872340425539
159 16.595744680851062 ['12', '45', '23', '30', '47'] 829.7872340425539
160 16.595744680851062 ['12', '45', '23', '30', '47'] 829.7872340425539
161 16.595744680851062 ['12', '45', '23', '30', '47'] 829.7872340425539
162 16.595744680851062 ['12', '45', '23', '30', '47'] 829.7872340425539
163 16.595744680851062 ['12', '45', '23', '30', '47'] 829.7872340425539
164 16.595744680851062 ['12', '45', '23', '30', '47'] 829.7872340425539
165 16.595744680851062 ['12', '45', '23', '30', '47'] 829.7872340425539
166 16.595744680851062 ['12', '45', '23', '30', '47'] 829.7872340425539
167 16.595744680851062 ['12', '45', '23', '30', '47'] 829.7872340425539
168 16.595744680851062 ['12', '45', '23', '30', '47'] 829.7872340425539
169 16.595744680851062 ['12', '45', '23', '30', '47'] 829.7872340425539
170 16.595744680851062 ['12', '45', '23', '30', '47'] 829.7872340425539
171 16.595744680851062 ['12', '45', '23', '30', '47'] 829.7872340425539
172 16.595744680851062 ['12', '45', '23', '30', '47'] 829.7872340425539
173 16.595744680851062 ['12', '45', '23', '30', '47'] 829.7872340425539
174 16.595744680851062 ['12', '45', '23', '30', '47'] 829.7872340425539
175 16.595744680851062 ['12', '45', '23', '30', '47'] 829.7872340425539
176 16.595744680851062 ['12', '45', '23', '30', '47'] 829.7872340425539
177 16.595744680851062 ['12', '45', '23', '30', '47'] 829.7872340425539
178 16.595744680851062 ['12', '45', '23', '30', '47'] 829.7872340425539
179 16.595744680851062 ['12', '45', '23', '30', '47'] 829.7872340425539
180 16.595744680851062 ['12', '45', '23', '30', '47'] 829.7872340425539
181 16.595744680851062 ['12', '45', '23', '30', '47'] 829.7872340425539
182 16.595744680851062 ['12', '45', '23', '30', '47'] 829.7872340425539
183 16.595744680851062 ['12', '45', '23', '30', '47'] 829.7872340425539
184 16.595744680851062 ['12', '45', '23', '30', '47'] 829.7872340425539
185 16.595744680851062 ['12', '45', '23', '30', '47'] 829.7872340425539
186 16.595744680851062 ['12', '45', '23', '30', '47'] 829.7872340425539
187 16.595744680851062 ['12', '45', '23', '30', '47'] 829.7872340425539
188 16.595744680851062 ['12', '45', '23', '30', '47'] 829.7872340425539
189 16.595744680851062 ['12', '45', '23', '30', '47'] 829.7872340425539
190 16.595744680851062 ['12', '45', '23', '30', '47'] 829.7872340425539
191 16.595744680851062 ['12', '45', '23', '30', '47'] 829.7872340425539
192 16.595744680851062 ['12', '45', '23', '30', '47'] 829.7872340425539
193 16.595744680851062 ['12', '45', '23', '30', '47'] 829.7872340425539
194 16.595744680851062 ['12', '45', '23', '30', '47'] 829.7872340425539
195 16.595744680851062 ['12', '45', '23', '30', '47'] 829.7872340425539
196 16.595744680851062 ['12', '45', '23', '30', '47'] 829.7872340425539
197 16.595744680851062 ['12', '45', '23', '30', '47'] 829.7872340425539
198 16.595744680851062 ['12', '45', '23', '30', '47'] 829.7872340425539
199 16.595744680851062 ['12', '45', '23', '30', '47'] 829.7872340425539
