0 5.386419753086419 ['6', '101', '79', '54', '131', '115', '67', '107', '109', '140', '119', '73', '16', '87', '144'] 273.6566666666667
1 5.341111111111112 ['8', '144', '127', '39', '133', '95', '87', '119', '73', '115', '56', '147', '6', '107', '109'] 271.9013580246913
2 5.331728395061731 ['16', '141', '143', '142', '48', '136', '123', '133', '114', '104', '58', '145', '117', '45', '98'] 270.62617283950624
3 5.313209876543208 ['147', '144', '33', '8', '133', '73', '109', '115', '39', '45', '111', '128', '120', '75', '127'] 269.6522222222223
4 5.313209876543208 ['147', '144', '33', '8', '133', '73', '109', '115', '39', '45', '111', '128', '120', '75', '127'] 268.6211111111112
5 5.285679012345679 ['147', '109', '144', '33', '127', '75', '48', '119', '107', '8', '136', '12', '139', '133', '39'] 267.917037037037
6 5.258641975308643 ['107', '87', '109', '144', '143', '58', '72', '133', '145', '140', '9', '101', '127', '45', '39'] 266.9522222222223
7 5.242222222222224 ['109', '147', '144', '139', '43', '107', '127', '73', '128', '123', '39', '136', '48', '133', '140'] 266.0225925925926
8 5.232098765432097 ['109', '133', '144', '127', '73', '147', '48', '39', '140', '119', '111', '107', '75', '45', '136'] 264.9724691358025
9 5.180617283950616 ['43', '109', '133', '136', '48', '123', '107', '127', '73', '144', '147', '139', '142', '141', '143'] 263.633950617284
10 5.180617283950616 ['43', '109', '133', '136', '48', '123', '107', '127', '73', '144', '147', '139', '142', '141', '143'] 262.6243209876543
11 5.166296296296297 ['43', '147', '48', '136', '128', '139', '127', '109', '140', '73', '144', '16', '133', '141', '107'] 261.5616049382715
12 5.1511111111111125 ['45', '109', '136', '144', '133', '145', '127', '48', '140', '147', '58', '139', '116', '39', '101'] 260.73580246913576
13 5.135185185185184 ['107', '127', '147', '45', '144', '133', '109', '39', '145', '140', '9', '136', '123', '87', '143'] 259.8001234567901
14 5.12901234567901 ['45', '145', '109', '143', '140', '136', '127', '144', '12', '133', '87', '123', '139', '147', '39'] 258.98074074074077
15 5.12901234567901 ['45', '145', '109', '143', '140', '136', '127', '144', '12', '133', '87', '123', '139', '147', '39'] 258.2583950617283
16 5.113209876543209 ['127', '39', '109', '145', '144', '147', '107', '45', '140', '136', '141', '48', '73', '139', '133'] 257.38222222222225
17 5.110864197530863 ['136', '145', '39', '147', '140', '133', '45', '127', '139', '109', '144', '87', '75', '141', '120'] 256.6930864197531
18 5.087654320987654 ['136', '147', '139', '45', '39', '145', '127', '48', '109', '144', '133', '140', '141', '117', '87'] 256.2887654320988
19 5.087037037037035 ['109', '139', '45', '127', '133', '145', '140', '136', '39', '107', '144', '147', '48', '141', '87'] 255.76518518518515
20 5.080617283950616 ['147', '145', '136', '45', '144', '139', '140', '127', '109', '87', '39', '133', '141', '48', '123'] 255.37320987654311
21 5.080617283950616 ['147', '145', '136', '45', '144', '139', '140', '127', '109', '87', '39', '133', '141', '48', '123'] 254.9392592592593
22 5.077530864197529 ['133', '45', '109', '127', '48', '147', '144', '139', '140', '136', '145', '39', '141', '120', '87'] 254.40654320987647
23 5.074074074074073 ['141', '48', '147', '145', '139', '127', '144', '39', '136', '109', '133', '140', '45', '87', '16'] 254.1860493827159
24 5.074074074074073 ['141', '48', '147', '145', '139', '127', '144', '39', '136', '109', '133', '140', '45', '87', '16'] 254.01654320987643
25 5.074074074074073 ['141', '48', '147', '145', '139', '127', '144', '39', '136', '109', '133', '140', '45', '87', '16'] 253.83506172839526
26 5.074074074074073 ['141', '48', '147', '145', '139', '127', '144', '39', '136', '109', '133', '140', '45', '87', '16'] 253.78320987654348
27 5.074074074074073 ['141', '48', '147', '145', '139', '127', '144', '39', '136', '109', '133', '140', '45', '87', '16'] 253.70370370370378
28 5.074074074074073 ['141', '48', '147', '145', '139', '127', '144', '39', '136', '109', '133', '140', '45', '87', '16'] 253.70370370370378
29 5.074074074074073 ['141', '48', '147', '145', '139', '127', '144', '39', '136', '109', '133', '140', '45', '87', '16'] 253.70370370370378
30 5.074074074074073 ['141', '48', '147', '145', '139', '127', '144', '39', '136', '109', '133', '140', '45', '87', '16'] 253.70370370370378
31 5.074074074074073 ['141', '48', '147', '145', '139', '127', '144', '39', '136', '109', '133', '140', '45', '87', '16'] 253.70370370370378
32 5.074074074074073 ['141', '48', '147', '145', '139', '127', '144', '39', '136', '109', '133', '140', '45', '87', '16'] 253.70370370370378
33 5.074074074074073 ['141', '48', '147', '145', '139', '127', '144', '39', '136', '109', '133', '140', '45', '87', '16'] 253.70370370370378
34 5.074074074074073 ['141', '48', '147', '145', '139', '127', '144', '39', '136', '109', '133', '140', '45', '87', '16'] 253.70370370370378
35 5.074074074074073 ['141', '48', '147', '145', '139', '127', '144', '39', '136', '109', '133', '140', '45', '87', '16'] 253.70370370370378
36 5.074074074074073 ['141', '48', '147', '145', '139', '127', '144', '39', '136', '109', '133', '140', '45', '87', '16'] 253.70370370370378
37 5.074074074074073 ['141', '48', '147', '145', '139', '127', '144', '39', '136', '109', '133', '140', '45', '87', '16'] 253.70370370370378
38 5.074074074074073 ['141', '48', '147', '145', '139', '127', '144', '39', '136', '109', '133', '140', '45', '87', '16'] 253.70370370370378
39 5.074074074074073 ['141', '48', '147', '145', '139', '127', '144', '39', '136', '109', '133', '140', '45', '87', '16'] 253.70370370370378
40 5.074074074074073 ['141', '48', '147', '145', '139', '127', '144', '39', '136', '109', '133', '140', '45', '87', '16'] 253.70370370370378
41 5.074074074074073 ['141', '48', '147', '145', '139', '127', '144', '39', '136', '109', '133', '140', '45', '87', '16'] 253.70370370370378
42 5.074074074074073 ['141', '48', '147', '145', '139', '127', '144', '39', '136', '109', '133', '140', '45', '87', '16'] 253.70370370370378
43 5.074074074074073 ['141', '48', '147', '145', '139', '127', '144', '39', '136', '109', '133', '140', '45', '87', '16'] 253.70370370370378
44 5.074074074074073 ['141', '48', '147', '145', '139', '127', '144', '39', '136', '109', '133', '140', '45', '87', '16'] 253.70370370370378
45 5.074074074074073 ['141', '48', '147', '145', '139', '127', '144', '39', '136', '109', '133', '140', '45', '87', '16'] 253.70370370370378
46 5.074074074074073 ['141', '48', '147', '145', '139', '127', '144', '39', '136', '109', '133', '140', '45', '87', '16'] 253.70370370370378
47 5.074074074074073 ['141', '48', '147', '145', '139', '127', '144', '39', '136', '109', '133', '140', '45', '87', '16'] 253.70370370370378
48 5.074074074074073 ['141', '48', '147', '145', '139', '127', '144', '39', '136', '109', '133', '140', '45', '87', '16'] 253.70370370370378
49 5.074074074074073 ['141', '48', '147', '145', '139', '127', '144', '39', '136', '109', '133', '140', '45', '87', '16'] 253.70370370370378
50 5.074074074074073 ['141', '48', '147', '145', '139', '127', '144', '39', '136', '109', '133', '140', '45', '87', '16'] 253.70370370370378
51 5.074074074074073 ['141', '48', '147', '145', '139', '127', '144', '39', '136', '109', '133', '140', '45', '87', '16'] 253.70370370370378
52 5.074074074074073 ['141', '48', '147', '145', '139', '127', '144', '39', '136', '109', '133', '140', '45', '87', '16'] 253.70370370370378
53 5.074074074074073 ['141', '48', '147', '145', '139', '127', '144', '39', '136', '109', '133', '140', '45', '87', '16'] 253.70370370370378
54 5.074074074074073 ['141', '48', '147', '145', '139', '127', '144', '39', '136', '109', '133', '140', '45', '87', '16'] 253.70370370370378
55 5.074074074074073 ['141', '48', '147', '145', '139', '127', '144', '39', '136', '109', '133', '140', '45', '87', '16'] 253.70370370370378
56 5.074074074074073 ['141', '48', '147', '145', '139', '127', '144', '39', '136', '109', '133', '140', '45', '87', '16'] 253.70370370370378
57 5.074074074074073 ['141', '48', '147', '145', '139', '127', '144', '39', '136', '109', '133', '140', '45', '87', '16'] 253.70370370370378
58 5.074074074074073 ['141', '48', '147', '145', '139', '127', '144', '39', '136', '109', '133', '140', '45', '87', '16'] 253.70370370370378
59 5.074074074074073 ['141', '48', '147', '145', '139', '127', '144', '39', '136', '109', '133', '140', '45', '87', '16'] 253.70370370370378
60 5.074074074074073 ['141', '48', '147', '145', '139', '127', '144', '39', '136', '109', '133', '140', '45', '87', '16'] 253.70370370370378
61 5.074074074074073 ['141', '48', '147', '145', '139', '127', '144', '39', '136', '109', '133', '140', '45', '87', '16'] 253.70370370370378
62 5.074074074074073 ['141', '48', '147', '145', '139', '127', '144', '39', '136', '109', '133', '140', '45', '87', '16'] 253.70370370370378
63 5.074074074074073 ['141', '48', '147', '145', '139', '127', '144', '39', '136', '109', '133', '140', '45', '87', '16'] 253.70370370370378
64 5.074074074074073 ['141', '48', '147', '145', '139', '127', '144', '39', '136', '109', '133', '140', '45', '87', '16'] 253.70370370370378
65 5.074074074074073 ['141', '48', '147', '145', '139', '127', '144', '39', '136', '109', '133', '140', '45', '87', '16'] 253.70370370370378
66 5.074074074074073 ['141', '48', '147', '145', '139', '127', '144', '39', '136', '109', '133', '140', '45', '87', '16'] 253.70370370370378
67 5.074074074074073 ['141', '48', '147', '145', '139', '127', '144', '39', '136', '109', '133', '140', '45', '87', '16'] 253.70370370370378
68 5.074074074074073 ['141', '48', '147', '145', '139', '127', '144', '39', '136', '109', '133', '140', '45', '87', '16'] 253.70370370370378
69 5.074074074074073 ['141', '48', '147', '145', '139', '127', '144', '39', '136', '109', '133', '140', '45', '87', '16'] 253.70370370370378
70 5.074074074074073 ['141', '48', '147', '145', '139', '127', '144', '39', '136', '109', '133', '140', '45', '87', '16'] 253.70370370370378
71 5.074074074074073 ['141', '48', '147', '145', '139', '127', '144', '39', '136', '109', '133', '140', '45', '87', '16'] 253.70370370370378
72 5.074074074074073 ['141', '48', '147', '145', '139', '127', '144', '39', '136', '109', '133', '140', '45', '87', '16'] 253.70370370370378
73 5.074074074074073 ['141', '48', '147', '145', '139', '127', '144', '39', '136', '109', '133', '140', '45', '87', '16'] 253.70370370370378
74 5.074074074074073 ['141', '48', '147', '145', '139', '127', '144', '39', '136', '109', '133', '140', '45', '87', '16'] 253.70370370370378
75 5.074074074074073 ['141', '48', '147', '145', '139', '127', '144', '39', '136', '109', '133', '140', '45', '87', '16'] 253.70370370370378
76 5.074074074074073 ['141', '48', '147', '145', '139', '127', '144', '39', '136', '109', '133', '140', '45', '87', '16'] 253.70370370370378
77 5.074074074074073 ['141', '48', '147', '145', '139', '127', '144', '39', '136', '109', '133', '140', '45', '87', '16'] 253.70370370370378
78 5.074074074074073 ['141', '48', '147', '145', '139', '127', '144', '39', '136', '109', '133', '140', '45', '87', '16'] 253.70370370370378
79 5.074074074074073 ['141', '48', '147', '145', '139', '127', '144', '39', '136', '109', '133', '140', '45', '87', '16'] 253.70370370370378
80 5.074074074074073 ['141', '48', '147', '145', '139', '127', '144', '39', '136', '109', '133', '140', '45', '87', '16'] 253.70370370370378
81 5.074074074074073 ['141', '48', '147', '145', '139', '127', '144', '39', '136', '109', '133', '140', '45', '87', '16'] 253.70370370370378
82 5.074074074074073 ['141', '48', '147', '145', '139', '127', '144', '39', '136', '109', '133', '140', '45', '87', '16'] 253.70370370370378
83 5.074074074074073 ['141', '48', '147', '145', '139', '127', '144', '39', '136', '109', '133', '140', '45', '87', '16'] 253.70370370370378
84 5.074074074074073 ['141', '48', '147', '145', '139', '127', '144', '39', '136', '109', '133', '140', '45', '87', '16'] 253.70370370370378
85 5.074074074074073 ['141', '48', '147', '145', '139', '127', '144', '39', '136', '109', '133', '140', '45', '87', '16'] 253.70370370370378
86 5.074074074074073 ['141', '48', '147', '145', '139', '127', '144', '39', '136', '109', '133', '140', '45', '87', '16'] 253.70370370370378
87 5.074074074074073 ['141', '48', '147', '145', '139', '127', '144', '39', '136', '109', '133', '140', '45', '87', '16'] 253.70370370370378
88 5.074074074074073 ['141', '48', '147', '145', '139', '127', '144', '39', '136', '109', '133', '140', '45', '87', '16'] 253.70370370370378
89 5.074074074074073 ['141', '48', '147', '145', '139', '127', '144', '39', '136', '109', '133', '140', '45', '87', '16'] 253.70370370370378
90 5.074074074074073 ['141', '48', '147', '145', '139', '127', '144', '39', '136', '109', '133', '140', '45', '87', '16'] 253.70370370370378
91 5.074074074074073 ['141', '48', '147', '145', '139', '127', '144', '39', '136', '109', '133', '140', '45', '87', '16'] 253.70370370370378
92 5.074074074074073 ['141', '48', '147', '145', '139', '127', '144', '39', '136', '109', '133', '140', '45', '87', '16'] 253.70370370370378
93 5.074074074074073 ['141', '48', '147', '145', '139', '127', '144', '39', '136', '109', '133', '140', '45', '87', '16'] 253.70370370370378
94 5.074074074074073 ['141', '48', '147', '145', '139', '127', '144', '39', '136', '109', '133', '140', '45', '87', '16'] 253.70370370370378
95 5.074074074074073 ['141', '48', '147', '145', '139', '127', '144', '39', '136', '109', '133', '140', '45', '87', '16'] 253.70370370370378
96 5.074074074074073 ['141', '48', '147', '145', '139', '127', '144', '39', '136', '109', '133', '140', '45', '87', '16'] 253.70370370370378
97 5.074074074074073 ['141', '48', '147', '145', '139', '127', '144', '39', '136', '109', '133', '140', '45', '87', '16'] 253.70370370370378
98 5.074074074074073 ['141', '48', '147', '145', '139', '127', '144', '39', '136', '109', '133', '140', '45', '87', '16'] 253.70370370370378
99 5.074074074074073 ['141', '48', '147', '145', '139', '127', '144', '39', '136', '109', '133', '140', '45', '87', '16'] 253.70370370370378
100 5.074074074074073 ['141', '48', '147', '145', '139', '127', '144', '39', '136', '109', '133', '140', '45', '87', '16'] 253.70370370370378
101 5.074074074074073 ['141', '48', '147', '145', '139', '127', '144', '39', '136', '109', '133', '140', '45', '87', '16'] 253.70370370370378
102 5.074074074074073 ['141', '48', '147', '145', '139', '127', '144', '39', '136', '109', '133', '140', '45', '87', '16'] 253.70370370370378
103 5.074074074074073 ['141', '48', '147', '145', '139', '127', '144', '39', '136', '109', '133', '140', '45', '87', '16'] 253.70370370370378
104 5.074074074074073 ['141', '48', '147', '145', '139', '127', '144', '39', '136', '109', '133', '140', '45', '87', '16'] 253.70370370370378
105 5.074074074074073 ['141', '48', '147', '145', '139', '127', '144', '39', '136', '109', '133', '140', '45', '87', '16'] 253.70370370370378
106 5.074074074074073 ['141', '48', '147', '145', '139', '127', '144', '39', '136', '109', '133', '140', '45', '87', '16'] 253.70370370370378
107 5.074074074074073 ['141', '48', '147', '145', '139', '127', '144', '39', '136', '109', '133', '140', '45', '87', '16'] 253.70370370370378
108 5.074074074074073 ['141', '48', '147', '145', '139', '127', '144', '39', '136', '109', '133', '140', '45', '87', '16'] 253.70370370370378
109 5.074074074074073 ['141', '48', '147', '145', '139', '127', '144', '39', '136', '109', '133', '140', '45', '87', '16'] 253.70370370370378
110 5.074074074074073 ['141', '48', '147', '145', '139', '127', '144', '39', '136', '109', '133', '140', '45', '87', '16'] 253.70370370370378
111 5.074074074074073 ['141', '48', '147', '145', '139', '127', '144', '39', '136', '109', '133', '140', '45', '87', '16'] 253.70370370370378
112 5.074074074074073 ['141', '48', '147', '145', '139', '127', '144', '39', '136', '109', '133', '140', '45', '87', '16'] 253.70370370370378
113 5.074074074074073 ['141', '48', '147', '145', '139', '127', '144', '39', '136', '109', '133', '140', '45', '87', '16'] 253.70370370370378
114 5.074074074074073 ['141', '48', '147', '145', '139', '127', '144', '39', '136', '109', '133', '140', '45', '87', '16'] 253.70370370370378
115 5.074074074074073 ['141', '48', '147', '145', '139', '127', '144', '39', '136', '109', '133', '140', '45', '87', '16'] 253.70370370370378
116 5.074074074074073 ['141', '48', '147', '145', '139', '127', '144', '39', '136', '109', '133', '140', '45', '87', '16'] 253.70370370370378
117 5.074074074074073 ['141', '48', '147', '145', '139', '127', '144', '39', '136', '109', '133', '140', '45', '87', '16'] 253.70370370370378
118 5.074074074074073 ['141', '48', '147', '145', '139', '127', '144', '39', '136', '109', '133', '140', '45', '87', '16'] 253.70370370370378
119 5.074074074074073 ['141', '48', '147', '145', '139', '127', '144', '39', '136', '109', '133', '140', '45', '87', '16'] 253.70370370370378
120 5.074074074074073 ['141', '48', '147', '145', '139', '127', '144', '39', '136', '109', '133', '140', '45', '87', '16'] 253.70370370370378
121 5.074074074074073 ['141', '48', '147', '145', '139', '127', '144', '39', '136', '109', '133', '140', '45', '87', '16'] 253.70370370370378
122 5.074074074074073 ['141', '48', '147', '145', '139', '127', '144', '39', '136', '109', '133', '140', '45', '87', '16'] 253.70370370370378
123 5.074074074074073 ['141', '48', '147', '145', '139', '127', '144', '39', '136', '109', '133', '140', '45', '87', '16'] 253.70370370370378
124 5.074074074074073 ['141', '48', '147', '145', '139', '127', '144', '39', '136', '109', '133', '140', '45', '87', '16'] 253.70370370370378
125 5.074074074074073 ['141', '48', '147', '145', '139', '127', '144', '39', '136', '109', '133', '140', '45', '87', '16'] 253.70370370370378
126 5.074074074074073 ['141', '48', '147', '145', '139', '127', '144', '39', '136', '109', '133', '140', '45', '87', '16'] 253.70370370370378
127 5.074074074074073 ['141', '48', '147', '145', '139', '127', '144', '39', '136', '109', '133', '140', '45', '87', '16'] 253.70370370370378
128 5.074074074074073 ['141', '48', '147', '145', '139', '127', '144', '39', '136', '109', '133', '140', '45', '87', '16'] 253.70370370370378
129 5.074074074074073 ['141', '48', '147', '145', '139', '127', '144', '39', '136', '109', '133', '140', '45', '87', '16'] 253.70370370370378
130 5.074074074074073 ['141', '48', '147', '145', '139', '127', '144', '39', '136', '109', '133', '140', '45', '87', '16'] 253.70370370370378
131 5.074074074074073 ['141', '48', '147', '145', '139', '127', '144', '39', '136', '109', '133', '140', '45', '87', '16'] 253.70370370370378
132 5.074074074074073 ['141', '48', '147', '145', '139', '127', '144', '39', '136', '109', '133', '140', '45', '87', '16'] 253.70370370370378
133 5.074074074074073 ['141', '48', '147', '145', '139', '127', '144', '39', '136', '109', '133', '140', '45', '87', '16'] 253.70370370370378
134 5.074074074074073 ['141', '48', '147', '145', '139', '127', '144', '39', '136', '109', '133', '140', '45', '87', '16'] 253.70370370370378
135 5.074074074074073 ['141', '48', '147', '145', '139', '127', '144', '39', '136', '109', '133', '140', '45', '87', '16'] 253.70370370370378
136 5.074074074074073 ['141', '48', '147', '145', '139', '127', '144', '39', '136', '109', '133', '140', '45', '87', '16'] 253.70370370370378
137 5.074074074074073 ['141', '48', '147', '145', '139', '127', '144', '39', '136', '109', '133', '140', '45', '87', '16'] 253.70370370370378
138 5.074074074074073 ['141', '48', '147', '145', '139', '127', '144', '39', '136', '109', '133', '140', '45', '87', '16'] 253.70370370370378
139 5.074074074074073 ['141', '48', '147', '145', '139', '127', '144', '39', '136', '109', '133', '140', '45', '87', '16'] 253.70370370370378
140 5.074074074074073 ['141', '48', '147', '145', '139', '127', '144', '39', '136', '109', '133', '140', '45', '87', '16'] 253.70370370370378
141 5.074074074074073 ['141', '48', '147', '145', '139', '127', '144', '39', '136', '109', '133', '140', '45', '87', '16'] 253.70370370370378
142 5.074074074074073 ['141', '48', '147', '145', '139', '127', '144', '39', '136', '109', '133', '140', '45', '87', '16'] 253.70370370370378
143 5.074074074074073 ['141', '48', '147', '145', '139', '127', '144', '39', '136', '109', '133', '140', '45', '87', '16'] 253.70370370370378
144 5.074074074074073 ['141', '48', '147', '145', '139', '127', '144', '39', '136', '109', '133', '140', '45', '87', '16'] 253.70370370370378
145 5.074074074074073 ['141', '48', '147', '145', '139', '127', '144', '39', '136', '109', '133', '140', '45', '87', '16'] 253.70370370370378
146 5.074074074074073 ['141', '48', '147', '145', '139', '127', '144', '39', '136', '109', '133', '140', '45', '87', '16'] 253.70370370370378
147 5.074074074074073 ['141', '48', '147', '145', '139', '127', '144', '39', '136', '109', '133', '140', '45', '87', '16'] 253.70370370370378
148 5.074074074074073 ['141', '48', '147', '145', '139', '127', '144', '39', '136', '109', '133', '140', '45', '87', '16'] 253.70370370370378
149 5.074074074074073 ['141', '48', '147', '145', '139', '127', '144', '39', '136', '109', '133', '140', '45', '87', '16'] 253.70370370370378
150 5.074074074074073 ['141', '48', '147', '145', '139', '127', '144', '39', '136', '109', '133', '140', '45', '87', '16'] 253.70370370370378
151 5.074074074074073 ['141', '48', '147', '145', '139', '127', '144', '39', '136', '109', '133', '140', '45', '87', '16'] 253.70370370370378
152 5.074074074074073 ['141', '48', '147', '145', '139', '127', '144', '39', '136', '109', '133', '140', '45', '87', '16'] 253.70370370370378
153 5.074074074074073 ['141', '48', '147', '145', '139', '127', '144', '39', '136', '109', '133', '140', '45', '87', '16'] 253.70370370370378
154 5.074074074074073 ['141', '48', '147', '145', '139', '127', '144', '39', '136', '109', '133', '140', '45', '87', '16'] 253.70370370370378
155 5.074074074074073 ['141', '48', '147', '145', '139', '127', '144', '39', '136', '109', '133', '140', '45', '87', '16'] 253.70370370370378
156 5.074074074074073 ['141', '48', '147', '145', '139', '127', '144', '39', '136', '109', '133', '140', '45', '87', '16'] 253.70370370370378
157 5.074074074074073 ['141', '48', '147', '145', '139', '127', '144', '39', '136', '109', '133', '140', '45', '87', '16'] 253.70370370370378
158 5.074074074074073 ['141', '48', '147', '145', '139', '127', '144', '39', '136', '109', '133', '140', '45', '87', '16'] 253.70370370370378
159 5.074074074074073 ['141', '48', '147', '145', '139', '127', '144', '39', '136', '109', '133', '140', '45', '87', '16'] 253.70370370370378
160 5.074074074074073 ['141', '48', '147', '145', '139', '127', '144', '39', '136', '109', '133', '140', '45', '87', '16'] 253.70370370370378
161 5.074074074074073 ['141', '48', '147', '145', '139', '127', '144', '39', '136', '109', '133', '140', '45', '87', '16'] 253.70370370370378
162 5.074074074074073 ['141', '48', '147', '145', '139', '127', '144', '39', '136', '109', '133', '140', '45', '87', '16'] 253.70370370370378
163 5.074074074074073 ['141', '48', '147', '145', '139', '127', '144', '39', '136', '109', '133', '140', '45', '87', '16'] 253.70370370370378
164 5.074074074074073 ['141', '48', '147', '145', '139', '127', '144', '39', '136', '109', '133', '140', '45', '87', '16'] 253.70370370370378
165 5.074074074074073 ['141', '48', '147', '145', '139', '127', '144', '39', '136', '109', '133', '140', '45', '87', '16'] 253.70370370370378
166 5.074074074074073 ['141', '48', '147', '145', '139', '127', '144', '39', '136', '109', '133', '140', '45', '87', '16'] 253.70370370370378
167 5.074074074074073 ['141', '48', '147', '145', '139', '127', '144', '39', '136', '109', '133', '140', '45', '87', '16'] 253.70370370370378
168 5.074074074074073 ['141', '48', '147', '145', '139', '127', '144', '39', '136', '109', '133', '140', '45', '87', '16'] 253.70370370370378
169 5.074074074074073 ['141', '48', '147', '145', '139', '127', '144', '39', '136', '109', '133', '140', '45', '87', '16'] 253.70370370370378
170 5.074074074074073 ['141', '48', '147', '145', '139', '127', '144', '39', '136', '109', '133', '140', '45', '87', '16'] 253.70370370370378
171 5.074074074074073 ['141', '48', '147', '145', '139', '127', '144', '39', '136', '109', '133', '140', '45', '87', '16'] 253.70370370370378
172 5.074074074074073 ['141', '48', '147', '145', '139', '127', '144', '39', '136', '109', '133', '140', '45', '87', '16'] 253.70370370370378
173 5.074074074074073 ['141', '48', '147', '145', '139', '127', '144', '39', '136', '109', '133', '140', '45', '87', '16'] 253.70370370370378
174 5.074074074074073 ['141', '48', '147', '145', '139', '127', '144', '39', '136', '109', '133', '140', '45', '87', '16'] 253.70370370370378
175 5.074074074074073 ['141', '48', '147', '145', '139', '127', '144', '39', '136', '109', '133', '140', '45', '87', '16'] 253.70370370370378
176 5.074074074074073 ['141', '48', '147', '145', '139', '127', '144', '39', '136', '109', '133', '140', '45', '87', '16'] 253.70370370370378
177 5.074074074074073 ['141', '48', '147', '145', '139', '127', '144', '39', '136', '109', '133', '140', '45', '87', '16'] 253.70370370370378
178 5.074074074074073 ['141', '48', '147', '145', '139', '127', '144', '39', '136', '109', '133', '140', '45', '87', '16'] 253.70370370370378
179 5.074074074074073 ['141', '48', '147', '145', '139', '127', '144', '39', '136', '109', '133', '140', '45', '87', '16'] 253.70370370370378
180 5.074074074074073 ['141', '48', '147', '145', '139', '127', '144', '39', '136', '109', '133', '140', '45', '87', '16'] 253.70370370370378
181 5.074074074074073 ['141', '48', '147', '145', '139', '127', '144', '39', '136', '109', '133', '140', '45', '87', '16'] 253.70370370370378
182 5.074074074074073 ['141', '48', '147', '145', '139', '127', '144', '39', '136', '109', '133', '140', '45', '87', '16'] 253.70370370370378
183 5.074074074074073 ['141', '48', '147', '145', '139', '127', '144', '39', '136', '109', '133', '140', '45', '87', '16'] 253.70370370370378
184 5.074074074074073 ['141', '48', '147', '145', '139', '127', '144', '39', '136', '109', '133', '140', '45', '87', '16'] 253.70370370370378
185 5.074074074074073 ['141', '48', '147', '145', '139', '127', '144', '39', '136', '109', '133', '140', '45', '87', '16'] 253.70370370370378
186 5.074074074074073 ['141', '48', '147', '145', '139', '127', '144', '39', '136', '109', '133', '140', '45', '87', '16'] 253.70370370370378
187 5.074074074074073 ['141', '48', '147', '145', '139', '127', '144', '39', '136', '109', '133', '140', '45', '87', '16'] 253.70370370370378
188 5.074074074074073 ['141', '48', '147', '145', '139', '127', '144', '39', '136', '109', '133', '140', '45', '87', '16'] 253.70370370370378
189 5.074074074074073 ['141', '48', '147', '145', '139', '127', '144', '39', '136', '109', '133', '140', '45', '87', '16'] 253.70370370370378
190 5.074074074074073 ['141', '48', '147', '145', '139', '127', '144', '39', '136', '109', '133', '140', '45', '87', '16'] 253.70370370370378
191 5.074074074074073 ['141', '48', '147', '145', '139', '127', '144', '39', '136', '109', '133', '140', '45', '87', '16'] 253.70370370370378
192 5.074074074074073 ['141', '48', '147', '145', '139', '127', '144', '39', '136', '109', '133', '140', '45', '87', '16'] 253.70370370370378
193 5.074074074074073 ['141', '48', '147', '145', '139', '127', '144', '39', '136', '109', '133', '140', '45', '87', '16'] 253.70370370370378
194 5.074074074074073 ['141', '48', '147', '145', '139', '127', '144', '39', '136', '109', '133', '140', '45', '87', '16'] 253.70370370370378
195 5.074074074074073 ['141', '48', '147', '145', '139', '127', '144', '39', '136', '109', '133', '140', '45', '87', '16'] 253.70370370370378
196 5.074074074074073 ['141', '48', '147', '145', '139', '127', '144', '39', '136', '109', '133', '140', '45', '87', '16'] 253.70370370370378
197 5.074074074074073 ['141', '48', '147', '145', '139', '127', '144', '39', '136', '109', '133', '140', '45', '87', '16'] 253.70370370370378
198 5.074074074074073 ['141', '48', '147', '145', '139', '127', '144', '39', '136', '109', '133', '140', '45', '87', '16'] 253.70370370370378
199 5.074074074074073 ['141', '48', '147', '145', '139', '127', '144', '39', '136', '109', '133', '140', '45', '87', '16'] 253.70370370370378
