0 28.185185185185187 ['53', '14', '2', '29', '42', '12'] 1501.3333333333335
1 28.12962962962963 ['57', '42', '53', '55', '41', '5'] 1475.7962962962963
2 27.703703703703702 ['42', '14', '12', '55', '2', '53'] 1451.2037037037037
3 27.12962962962963 ['29', '12', '53', '31', '7', '42'] 1426.592592592593
4 27.01851851851852 ['29', '55', '12', '46', '53', '41'] 1401.1481481481476
5 27.0 ['42', '53', '41', '29', '31', '55'] 1379.3148148148148
6 26.59259259259259 ['53', '55', '12', '41', '29', '14'] 1363.1666666666667
7 26.35185185185185 ['12', '53', '31', '29', '55', '7'] 1352.1666666666667
8 26.12962962962963 ['29', '55', '53', '4', '12', '7'] 1340.9444444444443
9 26.12962962962963 ['29', '55', '53', '4', '12', '7'] 1331.5000000000007
10 26.12962962962963 ['29', '55', '53', '4', '12', '7'] 1324.2962962962958
11 26.12962962962963 ['29', '55', '53', '4', '12', '7'] 1316.9074074074076
12 26.12962962962963 ['29', '55', '53', '4', '12', '7'] 1310.9444444444455
13 26.12962962962963 ['29', '55', '53', '4', '12', '7'] 1306.7037037037044
14 26.12962962962963 ['29', '55', '53', '4', '12', '7'] 1306.4814814814815
15 26.12962962962963 ['29', '55', '53', '4', '12', '7'] 1306.4814814814815
16 26.12962962962963 ['29', '55', '53', '4', '12', '7'] 1306.4814814814815
17 26.12962962962963 ['29', '55', '53', '4', '12', '7'] 1306.4814814814815
18 26.12962962962963 ['29', '55', '53', '4', '12', '7'] 1306.4814814814815
19 26.12962962962963 ['29', '55', '53', '4', '12', '7'] 1306.4814814814815
20 26.12962962962963 ['29', '55', '53', '4', '12', '7'] 1306.4814814814815
21 26.12962962962963 ['29', '55', '53', '4', '12', '7'] 1306.4814814814815
22 26.12962962962963 ['29', '55', '53', '4', '12', '7'] 1306.4814814814815
23 26.12962962962963 ['29', '55', '53', '4', '12', '7'] 1306.4814814814815
24 26.12962962962963 ['29', '55', '53', '4', '12', '7'] 1306.4814814814815
25 26.12962962962963 ['29', '55', '53', '4', '12', '7'] 1306.4814814814815
26 26.12962962962963 ['29', '55', '53', '4', '12', '7'] 1306.4814814814815
27 26.12962962962963 ['29', '55', '53', '4', '12', '7'] 1306.4814814814815
28 26.12962962962963 ['29', '55', '53', '4', '12', '7'] 1306.4814814814815
29 26.12962962962963 ['29', '55', '53', '4', '12', '7'] 1306.4814814814815
30 26.12962962962963 ['29', '55', '53', '4', '12', '7'] 1306.4814814814815
31 26.12962962962963 ['29', '55', '53', '4', '12', '7'] 1306.4814814814815
32 26.12962962962963 ['29', '55', '53', '4', '12', '7'] 1306.4814814814815
33 26.12962962962963 ['29', '55', '53', '4', '12', '7'] 1306.4814814814815
34 26.12962962962963 ['29', '55', '53', '4', '12', '7'] 1306.4814814814815
35 26.12962962962963 ['29', '55', '53', '4', '12', '7'] 1306.4814814814815
36 26.12962962962963 ['29', '55', '53', '4', '12', '7'] 1306.4814814814815
37 26.12962962962963 ['29', '55', '53', '4', '12', '7'] 1306.4814814814815
38 26.12962962962963 ['29', '55', '53', '4', '12', '7'] 1306.4814814814815
39 26.12962962962963 ['29', '55', '53', '4', '12', '7'] 1306.4814814814815
40 26.12962962962963 ['29', '55', '53', '4', '12', '7'] 1306.4814814814815
41 26.12962962962963 ['29', '55', '53', '4', '12', '7'] 1306.4814814814815
42 26.12962962962963 ['29', '55', '53', '4', '12', '7'] 1306.4814814814815
43 26.12962962962963 ['29', '55', '53', '4', '12', '7'] 1306.4814814814815
44 26.12962962962963 ['29', '55', '53', '4', '12', '7'] 1306.4814814814815
45 26.12962962962963 ['29', '55', '53', '4', '12', '7'] 1306.4814814814815
46 26.12962962962963 ['29', '55', '53', '4', '12', '7'] 1306.4814814814815
47 26.12962962962963 ['29', '55', '53', '4', '12', '7'] 1306.4814814814815
48 26.12962962962963 ['29', '55', '53', '4', '12', '7'] 1306.4814814814815
49 26.12962962962963 ['29', '55', '53', '4', '12', '7'] 1306.4814814814815
50 26.12962962962963 ['29', '55', '53', '4', '12', '7'] 1306.4814814814815
51 26.12962962962963 ['29', '55', '53', '4', '12', '7'] 1306.4814814814815
52 26.12962962962963 ['29', '55', '53', '4', '12', '7'] 1306.4814814814815
53 26.12962962962963 ['29', '55', '53', '4', '12', '7'] 1306.4814814814815
54 26.12962962962963 ['29', '55', '53', '4', '12', '7'] 1306.4814814814815
55 26.12962962962963 ['29', '55', '53', '4', '12', '7'] 1306.4814814814815
56 26.12962962962963 ['29', '55', '53', '4', '12', '7'] 1306.4814814814815
57 26.12962962962963 ['29', '55', '53', '4', '12', '7'] 1306.4814814814815
58 26.12962962962963 ['29', '55', '53', '4', '12', '7'] 1306.4814814814815
59 26.12962962962963 ['29', '55', '53', '4', '12', '7'] 1306.4814814814815
60 26.12962962962963 ['29', '55', '53', '4', '12', '7'] 1306.4814814814815
61 26.12962962962963 ['29', '55', '53', '4', '12', '7'] 1306.4814814814815
62 26.12962962962963 ['29', '55', '53', '4', '12', '7'] 1306.4814814814815
63 26.12962962962963 ['29', '55', '53', '4', '12', '7'] 1306.4814814814815
64 26.12962962962963 ['29', '55', '53', '4', '12', '7'] 1306.4814814814815
65 26.12962962962963 ['29', '55', '53', '4', '12', '7'] 1306.4814814814815
66 26.12962962962963 ['29', '55', '53', '4', '12', '7'] 1306.4814814814815
67 26.12962962962963 ['29', '55', '53', '4', '12', '7'] 1306.4814814814815
68 26.12962962962963 ['29', '55', '53', '4', '12', '7'] 1306.4814814814815
69 26.12962962962963 ['29', '55', '53', '4', '12', '7'] 1306.4814814814815
70 26.12962962962963 ['29', '55', '53', '4', '12', '7'] 1306.4814814814815
71 26.12962962962963 ['29', '55', '53', '4', '12', '7'] 1306.4814814814815
72 26.12962962962963 ['29', '55', '53', '4', '12', '7'] 1306.4814814814815
73 26.12962962962963 ['29', '55', '53', '4', '12', '7'] 1306.4814814814815
74 26.12962962962963 ['29', '55', '53', '4', '12', '7'] 1306.4814814814815
75 26.12962962962963 ['29', '55', '53', '4', '12', '7'] 1306.4814814814815
76 26.12962962962963 ['29', '55', '53', '4', '12', '7'] 1306.4814814814815
77 26.12962962962963 ['29', '55', '53', '4', '12', '7'] 1306.4814814814815
78 26.12962962962963 ['29', '55', '53', '4', '12', '7'] 1306.4814814814815
79 26.12962962962963 ['29', '55', '53', '4', '12', '7'] 1306.4814814814815
80 26.12962962962963 ['29', '55', '53', '4', '12', '7'] 1306.4814814814815
81 26.12962962962963 ['29', '55', '53', '4', '12', '7'] 1306.4814814814815
82 26.12962962962963 ['29', '55', '53', '4', '12', '7'] 1306.4814814814815
83 26.12962962962963 ['29', '55', '53', '4', '12', '7'] 1306.4814814814815
84 26.12962962962963 ['29', '55', '53', '4', '12', '7'] 1306.4814814814815
85 26.12962962962963 ['29', '55', '53', '4', '12', '7'] 1306.4814814814815
86 26.12962962962963 ['29', '55', '53', '4', '12', '7'] 1306.4814814814815
87 26.12962962962963 ['29', '55', '53', '4', '12', '7'] 1306.4814814814815
88 26.12962962962963 ['29', '55', '53', '4', '12', '7'] 1306.4814814814815
89 26.12962962962963 ['29', '55', '53', '4', '12', '7'] 1306.4814814814815
90 26.12962962962963 ['29', '55', '53', '4', '12', '7'] 1306.4814814814815
91 26.12962962962963 ['29', '55', '53', '4', '12', '7'] 1306.4814814814815
92 26.12962962962963 ['29', '55', '53', '4', '12', '7'] 1306.4814814814815
93 26.12962962962963 ['29', '55', '53', '4', '12', '7'] 1306.4814814814815
94 26.12962962962963 ['29', '55', '53', '4', '12', '7'] 1306.4814814814815
95 26.12962962962963 ['29', '55', '53', '4', '12', '7'] 1306.4814814814815
96 26.12962962962963 ['29', '55', '53', '4', '12', '7'] 1306.4814814814815
97 26.12962962962963 ['29', '55', '53', '4', '12', '7'] 1306.4814814814815
98 26.12962962962963 ['29', '55', '53', '4', '12', '7'] 1306.4814814814815
99 26.12962962962963 ['29', '55', '53', '4', '12', '7'] 1306.4814814814815
100 26.12962962962963 ['29', '55', '53', '4', '12', '7'] 1306.4814814814815
101 26.12962962962963 ['29', '55', '53', '4', '12', '7'] 1306.4814814814815
102 26.12962962962963 ['29', '55', '53', '4', '12', '7'] 1306.4814814814815
103 26.12962962962963 ['29', '55', '53', '4', '12', '7'] 1306.4814814814815
104 26.12962962962963 ['29', '55', '53', '4', '12', '7'] 1306.4814814814815
105 26.12962962962963 ['29', '55', '53', '4', '12', '7'] 1306.4814814814815
106 26.12962962962963 ['29', '55', '53', '4', '12', '7'] 1306.4814814814815
107 26.12962962962963 ['29', '55', '53', '4', '12', '7'] 1306.4814814814815
108 26.12962962962963 ['29', '55', '53', '4', '12', '7'] 1306.4814814814815
109 26.12962962962963 ['29', '55', '53', '4', '12', '7'] 1306.4814814814815
110 26.12962962962963 ['29', '55', '53', '4', '12', '7'] 1306.4814814814815
111 26.12962962962963 ['29', '55', '53', '4', '12', '7'] 1306.4814814814815
112 26.12962962962963 ['29', '55', '53', '4', '12', '7'] 1306.4814814814815
113 26.12962962962963 ['29', '55', '53', '4', '12', '7'] 1306.4814814814815
114 26.12962962962963 ['29', '55', '53', '4', '12', '7'] 1306.4814814814815
115 26.12962962962963 ['29', '55', '53', '4', '12', '7'] 1306.4814814814815
116 26.12962962962963 ['29', '55', '53', '4', '12', '7'] 1306.4814814814815
117 26.12962962962963 ['29', '55', '53', '4', '12', '7'] 1306.4814814814815
118 26.12962962962963 ['29', '55', '53', '4', '12', '7'] 1306.4814814814815
119 26.12962962962963 ['29', '55', '53', '4', '12', '7'] 1306.4814814814815
120 26.12962962962963 ['29', '55', '53', '4', '12', '7'] 1306.4814814814815
121 26.12962962962963 ['29', '55', '53', '4', '12', '7'] 1306.4814814814815
122 26.12962962962963 ['29', '55', '53', '4', '12', '7'] 1306.4814814814815
123 26.12962962962963 ['29', '55', '53', '4', '12', '7'] 1306.4814814814815
124 26.12962962962963 ['29', '55', '53', '4', '12', '7'] 1306.4814814814815
125 26.12962962962963 ['29', '55', '53', '4', '12', '7'] 1306.4814814814815
126 26.12962962962963 ['29', '55', '53', '4', '12', '7'] 1306.4814814814815
127 26.12962962962963 ['29', '55', '53', '4', '12', '7'] 1306.4814814814815
128 26.12962962962963 ['29', '55', '53', '4', '12', '7'] 1306.4814814814815
129 26.12962962962963 ['29', '55', '53', '4', '12', '7'] 1306.4814814814815
130 26.12962962962963 ['29', '55', '53', '4', '12', '7'] 1306.4814814814815
131 26.12962962962963 ['29', '55', '53', '4', '12', '7'] 1306.4814814814815
132 26.12962962962963 ['29', '55', '53', '4', '12', '7'] 1306.4814814814815
133 26.12962962962963 ['29', '55', '53', '4', '12', '7'] 1306.4814814814815
134 26.12962962962963 ['29', '55', '53', '4', '12', '7'] 1306.4814814814815
135 26.12962962962963 ['29', '55', '53', '4', '12', '7'] 1306.4814814814815
136 26.12962962962963 ['29', '55', '53', '4', '12', '7'] 1306.4814814814815
137 26.12962962962963 ['29', '55', '53', '4', '12', '7'] 1306.4814814814815
138 26.12962962962963 ['29', '55', '53', '4', '12', '7'] 1306.4814814814815
139 26.12962962962963 ['29', '55', '53', '4', '12', '7'] 1306.4814814814815
140 26.12962962962963 ['29', '55', '53', '4', '12', '7'] 1306.4814814814815
141 26.12962962962963 ['29', '55', '53', '4', '12', '7'] 1306.4814814814815
142 26.12962962962963 ['29', '55', '53', '4', '12', '7'] 1306.4814814814815
143 26.12962962962963 ['29', '55', '53', '4', '12', '7'] 1306.4814814814815
144 26.12962962962963 ['29', '55', '53', '4', '12', '7'] 1306.4814814814815
145 26.12962962962963 ['29', '55', '53', '4', '12', '7'] 1306.4814814814815
146 26.12962962962963 ['29', '55', '53', '4', '12', '7'] 1306.4814814814815
147 26.12962962962963 ['29', '55', '53', '4', '12', '7'] 1306.4814814814815
148 26.12962962962963 ['29', '55', '53', '4', '12', '7'] 1306.4814814814815
149 26.12962962962963 ['29', '55', '53', '4', '12', '7'] 1306.4814814814815
150 26.12962962962963 ['29', '55', '53', '4', '12', '7'] 1306.4814814814815
151 26.12962962962963 ['29', '55', '53', '4', '12', '7'] 1306.4814814814815
152 26.12962962962963 ['29', '55', '53', '4', '12', '7'] 1306.4814814814815
153 26.12962962962963 ['29', '55', '53', '4', '12', '7'] 1306.4814814814815
154 26.12962962962963 ['29', '55', '53', '4', '12', '7'] 1306.4814814814815
155 26.12962962962963 ['29', '55', '53', '4', '12', '7'] 1306.4814814814815
156 26.12962962962963 ['29', '55', '53', '4', '12', '7'] 1306.4814814814815
157 26.12962962962963 ['29', '55', '53', '4', '12', '7'] 1306.4814814814815
158 26.12962962962963 ['29', '55', '53', '4', '12', '7'] 1306.4814814814815
159 26.12962962962963 ['29', '55', '53', '4', '12', '7'] 1306.4814814814815
160 26.12962962962963 ['29', '55', '53', '4', '12', '7'] 1306.4814814814815
161 26.12962962962963 ['29', '55', '53', '4', '12', '7'] 1306.4814814814815
162 26.12962962962963 ['29', '55', '53', '4', '12', '7'] 1306.4814814814815
163 26.12962962962963 ['29', '55', '53', '4', '12', '7'] 1306.4814814814815
164 26.12962962962963 ['29', '55', '53', '4', '12', '7'] 1306.4814814814815
165 26.12962962962963 ['29', '55', '53', '4', '12', '7'] 1306.4814814814815
166 26.12962962962963 ['29', '55', '53', '4', '12', '7'] 1306.4814814814815
167 26.12962962962963 ['29', '55', '53', '4', '12', '7'] 1306.4814814814815
168 26.12962962962963 ['29', '55', '53', '4', '12', '7'] 1306.4814814814815
169 26.12962962962963 ['29', '55', '53', '4', '12', '7'] 1306.4814814814815
170 26.12962962962963 ['29', '55', '53', '4', '12', '7'] 1306.4814814814815
171 26.12962962962963 ['29', '55', '53', '4', '12', '7'] 1306.4814814814815
172 26.12962962962963 ['29', '55', '53', '4', '12', '7'] 1306.4814814814815
173 26.12962962962963 ['29', '55', '53', '4', '12', '7'] 1306.4814814814815
174 26.12962962962963 ['29', '55', '53', '4', '12', '7'] 1306.4814814814815
175 26.12962962962963 ['29', '55', '53', '4', '12', '7'] 1306.4814814814815
176 26.12962962962963 ['29', '55', '53', '4', '12', '7'] 1306.4814814814815
177 26.12962962962963 ['29', '55', '53', '4', '12', '7'] 1306.4814814814815
178 26.12962962962963 ['29', '55', '53', '4', '12', '7'] 1306.4814814814815
179 26.12962962962963 ['29', '55', '53', '4', '12', '7'] 1306.4814814814815
180 26.12962962962963 ['29', '55', '53', '4', '12', '7'] 1306.4814814814815
181 26.12962962962963 ['29', '55', '53', '4', '12', '7'] 1306.4814814814815
182 26.12962962962963 ['29', '55', '53', '4', '12', '7'] 1306.4814814814815
183 26.12962962962963 ['29', '55', '53', '4', '12', '7'] 1306.4814814814815
184 26.12962962962963 ['29', '55', '53', '4', '12', '7'] 1306.4814814814815
185 26.12962962962963 ['29', '55', '53', '4', '12', '7'] 1306.4814814814815
186 26.12962962962963 ['29', '55', '53', '4', '12', '7'] 1306.4814814814815
187 26.12962962962963 ['29', '55', '53', '4', '12', '7'] 1306.4814814814815
188 26.12962962962963 ['29', '55', '53', '4', '12', '7'] 1306.4814814814815
189 26.12962962962963 ['29', '55', '53', '4', '12', '7'] 1306.4814814814815
190 26.12962962962963 ['29', '55', '53', '4', '12', '7'] 1306.4814814814815
191 26.12962962962963 ['29', '55', '53', '4', '12', '7'] 1306.4814814814815
192 26.12962962962963 ['29', '55', '53', '4', '12', '7'] 1306.4814814814815
193 26.12962962962963 ['29', '55', '53', '4', '12', '7'] 1306.4814814814815
194 26.12962962962963 ['29', '55', '53', '4', '12', '7'] 1306.4814814814815
195 26.12962962962963 ['29', '55', '53', '4', '12', '7'] 1306.4814814814815
196 26.12962962962963 ['29', '55', '53', '4', '12', '7'] 1306.4814814814815
197 26.12962962962963 ['29', '55', '53', '4', '12', '7'] 1306.4814814814815
198 26.12962962962963 ['29', '55', '53', '4', '12', '7'] 1306.4814814814815
199 26.12962962962963 ['29', '55', '53', '4', '12', '7'] 1306.4814814814815
