0 1.3333333333333333 ['21', '12'] 96.50000000000004
1 1.3333333333333333 ['21', '12'] 85.66666666666667
2 1.3333333333333333 ['21', '12'] 78.49999999999994
3 1.3333333333333333 ['21', '12'] 68.16666666666671
4 1.3333333333333333 ['21', '12'] 66.6666666666667
5 1.3333333333333333 ['21', '12'] 66.6666666666667
6 1.3333333333333333 ['21', '12'] 66.6666666666667
7 1.3333333333333333 ['21', '12'] 66.6666666666667
8 1.3333333333333333 ['21', '12'] 66.6666666666667
9 1.3333333333333333 ['21', '12'] 66.6666666666667
10 1.3333333333333333 ['21', '12'] 66.6666666666667
11 1.3333333333333333 ['21', '12'] 66.6666666666667
12 1.3333333333333333 ['21', '12'] 66.6666666666667
13 1.3333333333333333 ['21', '12'] 66.6666666666667
14 1.3333333333333333 ['21', '12'] 66.6666666666667
15 1.3333333333333333 ['21', '12'] 66.6666666666667
16 1.3333333333333333 ['21', '12'] 66.6666666666667
17 1.3333333333333333 ['21', '12'] 66.6666666666667
18 1.3333333333333333 ['21', '12'] 66.6666666666667
19 1.3333333333333333 ['21', '12'] 66.6666666666667
20 1.3333333333333333 ['21', '12'] 66.6666666666667
21 1.3333333333333333 ['21', '12'] 66.6666666666667
22 1.3333333333333333 ['21', '12'] 66.6666666666667
23 1.3333333333333333 ['21', '12'] 66.6666666666667
24 1.3333333333333333 ['21', '12'] 66.6666666666667
25 1.3333333333333333 ['21', '12'] 66.6666666666667
26 1.3333333333333333 ['21', '12'] 66.6666666666667
27 1.3333333333333333 ['21', '12'] 66.6666666666667
28 1.3333333333333333 ['21', '12'] 66.6666666666667
29 1.3333333333333333 ['21', '12'] 66.6666666666667
30 1.3333333333333333 ['21', '12'] 66.6666666666667
31 1.3333333333333333 ['21', '12'] 66.6666666666667
32 1.3333333333333333 ['21', '12'] 66.6666666666667
33 1.3333333333333333 ['21', '12'] 66.6666666666667
34 1.3333333333333333 ['21', '12'] 66.6666666666667
35 1.3333333333333333 ['21', '12'] 66.6666666666667
36 1.3333333333333333 ['21', '12'] 66.6666666666667
37 1.3333333333333333 ['21', '12'] 66.6666666666667
38 1.3333333333333333 ['21', '12'] 66.6666666666667
39 1.3333333333333333 ['21', '12'] 66.6666666666667
40 1.3333333333333333 ['21', '12'] 66.6666666666667
41 1.3333333333333333 ['21', '12'] 66.6666666666667
42 1.3333333333333333 ['21', '12'] 66.6666666666667
43 1.3333333333333333 ['21', '12'] 66.6666666666667
44 1.3333333333333333 ['21', '12'] 66.6666666666667
45 1.3333333333333333 ['21', '12'] 66.6666666666667
46 1.3333333333333333 ['21', '12'] 66.6666666666667
47 1.3333333333333333 ['21', '12'] 66.6666666666667
48 1.3333333333333333 ['21', '12'] 66.6666666666667
49 1.3333333333333333 ['21', '12'] 66.6666666666667
50 1.3333333333333333 ['21', '12'] 66.6666666666667
51 1.3333333333333333 ['21', '12'] 66.6666666666667
52 1.3333333333333333 ['21', '12'] 66.6666666666667
53 1.3333333333333333 ['21', '12'] 66.6666666666667
54 1.3333333333333333 ['21', '12'] 66.6666666666667
55 1.3333333333333333 ['21', '12'] 66.6666666666667
56 1.3333333333333333 ['21', '12'] 66.6666666666667
57 1.3333333333333333 ['21', '12'] 66.6666666666667
58 1.3333333333333333 ['21', '12'] 66.6666666666667
59 1.3333333333333333 ['21', '12'] 66.6666666666667
60 1.3333333333333333 ['21', '12'] 66.6666666666667
61 1.3333333333333333 ['21', '12'] 66.6666666666667
62 1.3333333333333333 ['21', '12'] 66.6666666666667
63 1.3333333333333333 ['21', '12'] 66.6666666666667
64 1.3333333333333333 ['21', '12'] 66.6666666666667
65 1.3333333333333333 ['21', '12'] 66.6666666666667
66 1.3333333333333333 ['21', '12'] 66.6666666666667
67 1.3333333333333333 ['21', '12'] 66.6666666666667
68 1.3333333333333333 ['21', '12'] 66.6666666666667
69 1.3333333333333333 ['21', '12'] 66.6666666666667
70 1.3333333333333333 ['21', '12'] 66.6666666666667
71 1.3333333333333333 ['21', '12'] 66.6666666666667
72 1.3333333333333333 ['21', '12'] 66.6666666666667
73 1.3333333333333333 ['21', '12'] 66.6666666666667
74 1.3333333333333333 ['21', '12'] 66.6666666666667
75 1.3333333333333333 ['21', '12'] 66.6666666666667
76 1.3333333333333333 ['21', '12'] 66.6666666666667
77 1.3333333333333333 ['21', '12'] 66.6666666666667
78 1.3333333333333333 ['21', '12'] 66.6666666666667
79 1.3333333333333333 ['21', '12'] 66.6666666666667
80 1.3333333333333333 ['21', '12'] 66.6666666666667
81 1.3333333333333333 ['21', '12'] 66.6666666666667
82 1.3333333333333333 ['21', '12'] 66.6666666666667
83 1.3333333333333333 ['21', '12'] 66.6666666666667
84 1.3333333333333333 ['21', '12'] 66.6666666666667
85 1.3333333333333333 ['21', '12'] 66.6666666666667
86 1.3333333333333333 ['21', '12'] 66.6666666666667
87 1.3333333333333333 ['21', '12'] 66.6666666666667
88 1.3333333333333333 ['21', '12'] 66.6666666666667
89 1.3333333333333333 ['21', '12'] 66.6666666666667
90 1.3333333333333333 ['21', '12'] 66.6666666666667
91 1.3333333333333333 ['21', '12'] 66.6666666666667
92 1.3333333333333333 ['21', '12'] 66.6666666666667
93 1.3333333333333333 ['21', '12'] 66.6666666666667
94 1.3333333333333333 ['21', '12'] 66.6666666666667
95 1.3333333333333333 ['21', '12'] 66.6666666666667
96 1.3333333333333333 ['21', '12'] 66.6666666666667
97 1.3333333333333333 ['21', '12'] 66.6666666666667
98 1.3333333333333333 ['21', '12'] 66.6666666666667
99 1.3333333333333333 ['21', '12'] 66.6666666666667
100 1.3333333333333333 ['21', '12'] 66.6666666666667
101 1.3333333333333333 ['21', '12'] 66.6666666666667
102 1.3333333333333333 ['21', '12'] 66.6666666666667
103 1.3333333333333333 ['21', '12'] 66.6666666666667
104 1.3333333333333333 ['21', '12'] 66.6666666666667
105 1.3333333333333333 ['21', '12'] 66.6666666666667
106 1.3333333333333333 ['21', '12'] 66.6666666666667
107 1.3333333333333333 ['21', '12'] 66.6666666666667
108 1.3333333333333333 ['21', '12'] 66.6666666666667
109 1.3333333333333333 ['21', '12'] 66.6666666666667
110 1.3333333333333333 ['21', '12'] 66.6666666666667
111 1.3333333333333333 ['21', '12'] 66.6666666666667
112 1.3333333333333333 ['21', '12'] 66.6666666666667
113 1.3333333333333333 ['21', '12'] 66.6666666666667
114 1.3333333333333333 ['21', '12'] 66.6666666666667
115 1.3333333333333333 ['21', '12'] 66.6666666666667
116 1.3333333333333333 ['21', '12'] 66.6666666666667
117 1.3333333333333333 ['21', '12'] 66.6666666666667
118 1.3333333333333333 ['21', '12'] 66.6666666666667
119 1.3333333333333333 ['21', '12'] 66.6666666666667
120 1.3333333333333333 ['21', '12'] 66.6666666666667
121 1.3333333333333333 ['21', '12'] 66.6666666666667
122 1.3333333333333333 ['21', '12'] 66.6666666666667
123 1.3333333333333333 ['21', '12'] 66.6666666666667
124 1.3333333333333333 ['21', '12'] 66.6666666666667
125 1.3333333333333333 ['21', '12'] 66.6666666666667
126 1.3333333333333333 ['21', '12'] 66.6666666666667
127 1.3333333333333333 ['21', '12'] 66.6666666666667
128 1.3333333333333333 ['21', '12'] 66.6666666666667
129 1.3333333333333333 ['21', '12'] 66.6666666666667
130 1.3333333333333333 ['21', '12'] 66.6666666666667
131 1.3333333333333333 ['21', '12'] 66.6666666666667
132 1.3333333333333333 ['21', '12'] 66.6666666666667
133 1.3333333333333333 ['21', '12'] 66.6666666666667
134 1.3333333333333333 ['21', '12'] 66.6666666666667
135 1.3333333333333333 ['21', '12'] 66.6666666666667
136 1.3333333333333333 ['21', '12'] 66.6666666666667
137 1.3333333333333333 ['21', '12'] 66.6666666666667
138 1.3333333333333333 ['21', '12'] 66.6666666666667
139 1.3333333333333333 ['21', '12'] 66.6666666666667
140 1.3333333333333333 ['21', '12'] 66.6666666666667
141 1.3333333333333333 ['21', '12'] 66.6666666666667
142 1.3333333333333333 ['21', '12'] 66.6666666666667
143 1.3333333333333333 ['21', '12'] 66.6666666666667
144 1.3333333333333333 ['21', '12'] 66.6666666666667
145 1.3333333333333333 ['21', '12'] 66.6666666666667
146 1.3333333333333333 ['21', '12'] 66.6666666666667
147 1.3333333333333333 ['21', '12'] 66.6666666666667
148 1.3333333333333333 ['21', '12'] 66.6666666666667
149 1.3333333333333333 ['21', '12'] 66.6666666666667
150 1.3333333333333333 ['21', '12'] 66.6666666666667
151 1.3333333333333333 ['21', '12'] 66.6666666666667
152 1.3333333333333333 ['21', '12'] 66.6666666666667
153 1.3333333333333333 ['21', '12'] 66.6666666666667
154 1.3333333333333333 ['21', '12'] 66.6666666666667
155 1.3333333333333333 ['21', '12'] 66.6666666666667
156 1.3333333333333333 ['21', '12'] 66.6666666666667
157 1.3333333333333333 ['21', '12'] 66.6666666666667
158 1.3333333333333333 ['21', '12'] 66.6666666666667
159 1.3333333333333333 ['21', '12'] 66.6666666666667
160 1.3333333333333333 ['21', '12'] 66.6666666666667
161 1.3333333333333333 ['21', '12'] 66.6666666666667
162 1.3333333333333333 ['21', '12'] 66.6666666666667
163 1.3333333333333333 ['21', '12'] 66.6666666666667
164 1.3333333333333333 ['21', '12'] 66.6666666666667
165 1.3333333333333333 ['21', '12'] 66.6666666666667
166 1.3333333333333333 ['21', '12'] 66.6666666666667
167 1.3333333333333333 ['21', '12'] 66.6666666666667
168 1.3333333333333333 ['21', '12'] 66.6666666666667
169 1.3333333333333333 ['21', '12'] 66.6666666666667
170 1.3333333333333333 ['21', '12'] 66.6666666666667
171 1.3333333333333333 ['21', '12'] 66.6666666666667
172 1.3333333333333333 ['21', '12'] 66.6666666666667
173 1.3333333333333333 ['21', '12'] 66.6666666666667
174 1.3333333333333333 ['21', '12'] 66.6666666666667
175 1.3333333333333333 ['21', '12'] 66.6666666666667
176 1.3333333333333333 ['21', '12'] 66.6666666666667
177 1.3333333333333333 ['21', '12'] 66.6666666666667
178 1.3333333333333333 ['21', '12'] 66.6666666666667
179 1.3333333333333333 ['21', '12'] 66.6666666666667
180 1.3333333333333333 ['21', '12'] 66.6666666666667
181 1.3333333333333333 ['21', '12'] 66.6666666666667
182 1.3333333333333333 ['21', '12'] 66.6666666666667
183 1.3333333333333333 ['21', '12'] 66.6666666666667
184 1.3333333333333333 ['21', '12'] 66.6666666666667
185 1.3333333333333333 ['21', '12'] 66.6666666666667
186 1.3333333333333333 ['21', '12'] 66.6666666666667
187 1.3333333333333333 ['21', '12'] 66.6666666666667
188 1.3333333333333333 ['21', '12'] 66.6666666666667
189 1.3333333333333333 ['21', '12'] 66.6666666666667
190 1.3333333333333333 ['21', '12'] 66.6666666666667
191 1.3333333333333333 ['21', '12'] 66.6666666666667
192 1.3333333333333333 ['21', '12'] 66.6666666666667
193 1.3333333333333333 ['21', '12'] 66.6666666666667
194 1.3333333333333333 ['21', '12'] 66.6666666666667
195 1.3333333333333333 ['21', '12'] 66.6666666666667
196 1.3333333333333333 ['21', '12'] 66.6666666666667
197 1.3333333333333333 ['21', '12'] 66.6666666666667
198 1.3333333333333333 ['21', '12'] 66.6666666666667
199 1.3333333333333333 ['21', '12'] 66.6666666666667
