0 6.375 ['23', '30', '29'] 349.375
1 6.25 ['23', '4', '3'] 340.5
2 6.125 ['3', '13', '23'] 331.875
3 6.125 ['3', '13', '23'] 322.875
4 5.875 ['23', '33', '3'] 313.75
5 5.875 ['23', '33', '3'] 308.0
6 5.875 ['23', '33', '3'] 302.0
7 5.875 ['23', '33', '3'] 296.75
8 5.875 ['23', '33', '3'] 293.75
9 5.875 ['23', '33', '3'] 293.75
10 5.875 ['23', '33', '3'] 293.75
11 5.875 ['23', '33', '3'] 293.75
12 5.875 ['23', '33', '3'] 293.75
13 5.875 ['23', '33', '3'] 293.75
14 5.875 ['23', '33', '3'] 293.75
15 5.875 ['23', '33', '3'] 293.75
16 5.875 ['23', '33', '3'] 293.75
17 5.875 ['23', '33', '3'] 293.75
18 5.875 ['23', '33', '3'] 293.75
19 5.875 ['23', '33', '3'] 293.75
20 5.875 ['23', '33', '3'] 293.75
21 5.875 ['23', '33', '3'] 293.75
22 5.875 ['23', '33', '3'] 293.75
23 5.875 ['23', '33', '3'] 293.75
24 5.875 ['23', '33', '3'] 293.75
25 5.875 ['23', '33', '3'] 293.75
26 5.875 ['23', '33', '3'] 293.75
27 5.875 ['23', '33', '3'] 293.75
28 5.875 ['23', '33', '3'] 293.75
29 5.875 ['23', '33', '3'] 293.75
30 5.875 ['23', '33', '3'] 293.75
31 5.875 ['23', '33', '3'] 293.75
32 5.875 ['23', '33', '3'] 293.75
33 5.875 ['23', '33', '3'] 293.75
34 5.875 ['23', '33', '3'] 293.75
35 5.875 ['23', '33', '3'] 293.75
36 5.875 ['23', '33', '3'] 293.75
37 5.875 ['23', '33', '3'] 293.75
38 5.875 ['23', '33', '3'] 293.75
39 5.875 ['23', '33', '3'] 293.75
40 5.875 ['23', '33', '3'] 293.75
41 5.875 ['23', '33', '3'] 293.75
42 5.875 ['23', '33', '3'] 293.75
43 5.875 ['23', '33', '3'] 293.75
44 5.875 ['23', '33', '3'] 293.75
45 5.875 ['23', '33', '3'] 293.75
46 5.875 ['23', '33', '3'] 293.75
47 5.875 ['23', '33', '3'] 293.75
48 5.875 ['23', '33', '3'] 293.75
49 5.875 ['23', '33', '3'] 293.75
50 5.875 ['23', '33', '3'] 293.75
51 5.875 ['23', '33', '3'] 293.75
52 5.875 ['23', '33', '3'] 293.75
53 5.875 ['23', '33', '3'] 293.75
54 5.875 ['23', '33', '3'] 293.75
55 5.875 ['23', '33', '3'] 293.75
56 5.875 ['23', '33', '3'] 293.75
57 5.875 ['23', '33', '3'] 293.75
58 5.875 ['23', '33', '3'] 293.75
59 5.875 ['23', '33', '3'] 293.75
60 5.875 ['23', '33', '3'] 293.75
61 5.875 ['23', '33', '3'] 293.75
62 5.875 ['23', '33', '3'] 293.75
63 5.875 ['23', '33', '3'] 293.75
64 5.875 ['23', '33', '3'] 293.75
65 5.875 ['23', '33', '3'] 293.75
66 5.875 ['23', '33', '3'] 293.75
67 5.875 ['23', '33', '3'] 293.75
68 5.875 ['23', '33', '3'] 293.75
69 5.875 ['23', '33', '3'] 293.75
70 5.875 ['23', '33', '3'] 293.75
71 5.875 ['23', '33', '3'] 293.75
72 5.875 ['23', '33', '3'] 293.75
73 5.875 ['23', '33', '3'] 293.75
74 5.875 ['23', '33', '3'] 293.75
75 5.875 ['23', '33', '3'] 293.75
76 5.875 ['23', '33', '3'] 293.75
77 5.875 ['23', '33', '3'] 293.75
78 5.875 ['23', '33', '3'] 293.75
79 5.875 ['23', '33', '3'] 293.75
80 5.875 ['23', '33', '3'] 293.75
81 5.875 ['23', '33', '3'] 293.75
82 5.875 ['23', '33', '3'] 293.75
83 5.875 ['23', '33', '3'] 293.75
84 5.875 ['23', '33', '3'] 293.75
85 5.875 ['23', '33', '3'] 293.75
86 5.875 ['23', '33', '3'] 293.75
87 5.875 ['23', '33', '3'] 293.75
88 5.875 ['23', '33', '3'] 293.75
89 5.875 ['23', '33', '3'] 293.75
90 5.875 ['23', '33', '3'] 293.75
91 5.875 ['23', '33', '3'] 293.75
92 5.875 ['23', '33', '3'] 293.75
93 5.875 ['23', '33', '3'] 293.75
94 5.875 ['23', '33', '3'] 293.75
95 5.875 ['23', '33', '3'] 293.75
96 5.875 ['23', '33', '3'] 293.75
97 5.875 ['23', '33', '3'] 293.75
98 5.875 ['23', '33', '3'] 293.75
99 5.875 ['23', '33', '3'] 293.75
100 5.875 ['23', '33', '3'] 293.75
101 5.875 ['23', '33', '3'] 293.75
102 5.875 ['23', '33', '3'] 293.75
103 5.875 ['23', '33', '3'] 293.75
104 5.875 ['23', '33', '3'] 293.75
105 5.875 ['23', '33', '3'] 293.75
106 5.875 ['23', '33', '3'] 293.75
107 5.875 ['23', '33', '3'] 293.75
108 5.875 ['23', '33', '3'] 293.75
109 5.875 ['23', '33', '3'] 293.75
110 5.875 ['23', '33', '3'] 293.75
111 5.875 ['23', '33', '3'] 293.75
112 5.875 ['23', '33', '3'] 293.75
113 5.875 ['23', '33', '3'] 293.75
114 5.875 ['23', '33', '3'] 293.75
115 5.875 ['23', '33', '3'] 293.75
116 5.875 ['23', '33', '3'] 293.75
117 5.875 ['23', '33', '3'] 293.75
118 5.875 ['23', '33', '3'] 293.75
119 5.875 ['23', '33', '3'] 293.75
120 5.875 ['23', '33', '3'] 293.75
121 5.875 ['23', '33', '3'] 293.75
122 5.875 ['23', '33', '3'] 293.75
123 5.875 ['23', '33', '3'] 293.75
124 5.875 ['23', '33', '3'] 293.75
125 5.875 ['23', '33', '3'] 293.75
126 5.875 ['23', '33', '3'] 293.75
127 5.875 ['23', '33', '3'] 293.75
128 5.875 ['23', '33', '3'] 293.75
129 5.875 ['23', '33', '3'] 293.75
130 5.875 ['23', '33', '3'] 293.75
131 5.875 ['23', '33', '3'] 293.75
132 5.875 ['23', '33', '3'] 293.75
133 5.875 ['23', '33', '3'] 293.75
134 5.875 ['23', '33', '3'] 293.75
135 5.875 ['23', '33', '3'] 293.75
136 5.875 ['23', '33', '3'] 293.75
137 5.875 ['23', '33', '3'] 293.75
138 5.875 ['23', '33', '3'] 293.75
139 5.875 ['23', '33', '3'] 293.75
140 5.875 ['23', '33', '3'] 293.75
141 5.875 ['23', '33', '3'] 293.75
142 5.875 ['23', '33', '3'] 293.75
143 5.875 ['23', '33', '3'] 293.75
144 5.875 ['23', '33', '3'] 293.75
145 5.875 ['23', '33', '3'] 293.75
146 5.875 ['23', '33', '3'] 293.75
147 5.875 ['23', '33', '3'] 293.75
148 5.875 ['23', '33', '3'] 293.75
149 5.875 ['23', '33', '3'] 293.75
150 5.875 ['23', '33', '3'] 293.75
151 5.875 ['23', '33', '3'] 293.75
152 5.875 ['23', '33', '3'] 293.75
153 5.875 ['23', '33', '3'] 293.75
154 5.875 ['23', '33', '3'] 293.75
155 5.875 ['23', '33', '3'] 293.75
156 5.875 ['23', '33', '3'] 293.75
157 5.875 ['23', '33', '3'] 293.75
158 5.875 ['23', '33', '3'] 293.75
159 5.875 ['23', '33', '3'] 293.75
160 5.875 ['23', '33', '3'] 293.75
161 5.875 ['23', '33', '3'] 293.75
162 5.875 ['23', '33', '3'] 293.75
163 5.875 ['23', '33', '3'] 293.75
164 5.875 ['23', '33', '3'] 293.75
165 5.875 ['23', '33', '3'] 293.75
166 5.875 ['23', '33', '3'] 293.75
167 5.875 ['23', '33', '3'] 293.75
168 5.875 ['23', '33', '3'] 293.75
169 5.875 ['23', '33', '3'] 293.75
170 5.875 ['23', '33', '3'] 293.75
171 5.875 ['23', '33', '3'] 293.75
172 5.875 ['23', '33', '3'] 293.75
173 5.875 ['23', '33', '3'] 293.75
174 5.875 ['23', '33', '3'] 293.75
175 5.875 ['23', '33', '3'] 293.75
176 5.875 ['23', '33', '3'] 293.75
177 5.875 ['23', '33', '3'] 293.75
178 5.875 ['23', '33', '3'] 293.75
179 5.875 ['23', '33', '3'] 293.75
180 5.875 ['23', '33', '3'] 293.75
181 5.875 ['23', '33', '3'] 293.75
182 5.875 ['23', '33', '3'] 293.75
183 5.875 ['23', '33', '3'] 293.75
184 5.875 ['23', '33', '3'] 293.75
185 5.875 ['23', '33', '3'] 293.75
186 5.875 ['23', '33', '3'] 293.75
187 5.875 ['23', '33', '3'] 293.75
188 5.875 ['23', '33', '3'] 293.75
189 5.875 ['23', '33', '3'] 293.75
190 5.875 ['23', '33', '3'] 293.75
191 5.875 ['23', '33', '3'] 293.75
192 5.875 ['23', '33', '3'] 293.75
193 5.875 ['23', '33', '3'] 293.75
194 5.875 ['23', '33', '3'] 293.75
195 5.875 ['23', '33', '3'] 293.75
196 5.875 ['23', '33', '3'] 293.75
197 5.875 ['23', '33', '3'] 293.75
198 5.875 ['23', '33', '3'] 293.75
199 5.875 ['23', '33', '3'] 293.75
