0 8.38888888888889 ['34', '35', '22'] 437.9999999999999
1 8.38888888888889 ['34', '35', '22'] 432.75000000000006
2 8.25 ['11', '34', '27'] 428.3888888888893
3 8.25 ['11', '34', '27'] 422.361111111111
4 8.25 ['11', '34', '27'] 417.8055555555559
5 8.222222222222221 ['11', '27', '5'] 414.7222222222218
6 8.222222222222221 ['11', '27', '5'] 413.02777777777766
7 8.222222222222221 ['11', '27', '5'] 412.41666666666663
8 8.222222222222221 ['11', '27', '5'] 412.3333333333333
9 8.222222222222221 ['11', '27', '5'] 411.9444444444445
10 8.222222222222221 ['11', '27', '5'] 411.2500000000002
11 8.222222222222221 ['11', '27', '5'] 411.11111111111137
12 8.222222222222221 ['11', '27', '5'] 411.11111111111137
13 8.222222222222221 ['11', '27', '5'] 411.11111111111137
14 8.222222222222221 ['11', '27', '5'] 411.11111111111137
15 8.222222222222221 ['11', '27', '5'] 411.11111111111137
16 8.222222222222221 ['11', '27', '5'] 411.11111111111137
17 8.222222222222221 ['11', '27', '5'] 411.11111111111137
18 8.222222222222221 ['11', '27', '5'] 411.11111111111137
19 8.222222222222221 ['11', '27', '5'] 411.11111111111137
20 8.222222222222221 ['11', '27', '5'] 411.11111111111137
21 8.222222222222221 ['11', '27', '5'] 411.11111111111137
22 8.222222222222221 ['11', '27', '5'] 411.11111111111137
23 8.222222222222221 ['11', '27', '5'] 411.11111111111137
24 8.222222222222221 ['11', '27', '5'] 411.11111111111137
25 8.222222222222221 ['11', '27', '5'] 411.11111111111137
26 8.222222222222221 ['11', '27', '5'] 411.11111111111137
27 8.222222222222221 ['11', '27', '5'] 411.11111111111137
28 8.222222222222221 ['11', '27', '5'] 411.11111111111137
29 8.222222222222221 ['11', '27', '5'] 411.11111111111137
30 8.222222222222221 ['11', '27', '5'] 411.11111111111137
31 8.222222222222221 ['11', '27', '5'] 411.11111111111137
32 8.222222222222221 ['11', '27', '5'] 411.11111111111137
33 8.222222222222221 ['11', '27', '5'] 411.11111111111137
34 8.222222222222221 ['11', '27', '5'] 411.11111111111137
35 8.222222222222221 ['11', '27', '5'] 411.11111111111137
36 8.222222222222221 ['11', '27', '5'] 411.11111111111137
37 8.222222222222221 ['11', '27', '5'] 411.11111111111137
38 8.222222222222221 ['11', '27', '5'] 411.11111111111137
39 8.222222222222221 ['11', '27', '5'] 411.11111111111137
40 8.222222222222221 ['11', '27', '5'] 411.11111111111137
41 8.222222222222221 ['11', '27', '5'] 411.11111111111137
42 8.222222222222221 ['11', '27', '5'] 411.11111111111137
43 8.222222222222221 ['11', '27', '5'] 411.11111111111137
44 8.222222222222221 ['11', '27', '5'] 411.11111111111137
45 8.222222222222221 ['11', '27', '5'] 411.11111111111137
46 8.222222222222221 ['11', '27', '5'] 411.11111111111137
47 8.222222222222221 ['11', '27', '5'] 411.11111111111137
48 8.222222222222221 ['11', '27', '5'] 411.11111111111137
49 8.222222222222221 ['11', '27', '5'] 411.11111111111137
50 8.222222222222221 ['11', '27', '5'] 411.11111111111137
51 8.222222222222221 ['11', '27', '5'] 411.11111111111137
52 8.222222222222221 ['11', '27', '5'] 411.11111111111137
53 8.222222222222221 ['11', '27', '5'] 411.11111111111137
54 8.222222222222221 ['11', '27', '5'] 411.11111111111137
55 8.222222222222221 ['11', '27', '5'] 411.11111111111137
56 8.222222222222221 ['11', '27', '5'] 411.11111111111137
57 8.222222222222221 ['11', '27', '5'] 411.11111111111137
58 8.222222222222221 ['11', '27', '5'] 411.11111111111137
59 8.222222222222221 ['11', '27', '5'] 411.11111111111137
60 8.222222222222221 ['11', '27', '5'] 411.11111111111137
61 8.222222222222221 ['11', '27', '5'] 411.11111111111137
62 8.222222222222221 ['11', '27', '5'] 411.11111111111137
63 8.222222222222221 ['11', '27', '5'] 411.11111111111137
64 8.222222222222221 ['11', '27', '5'] 411.11111111111137
65 8.222222222222221 ['11', '27', '5'] 411.11111111111137
66 8.222222222222221 ['11', '27', '5'] 411.11111111111137
67 8.222222222222221 ['11', '27', '5'] 411.11111111111137
68 8.222222222222221 ['11', '27', '5'] 411.11111111111137
69 8.222222222222221 ['11', '27', '5'] 411.11111111111137
70 8.222222222222221 ['11', '27', '5'] 411.11111111111137
71 8.222222222222221 ['11', '27', '5'] 411.11111111111137
72 8.222222222222221 ['11', '27', '5'] 411.11111111111137
73 8.222222222222221 ['11', '27', '5'] 411.11111111111137
74 8.222222222222221 ['11', '27', '5'] 411.11111111111137
75 8.222222222222221 ['11', '27', '5'] 411.11111111111137
76 8.222222222222221 ['11', '27', '5'] 411.11111111111137
77 8.222222222222221 ['11', '27', '5'] 411.11111111111137
78 8.222222222222221 ['11', '27', '5'] 411.11111111111137
79 8.222222222222221 ['11', '27', '5'] 411.11111111111137
80 8.222222222222221 ['11', '27', '5'] 411.11111111111137
81 8.222222222222221 ['11', '27', '5'] 411.11111111111137
82 8.222222222222221 ['11', '27', '5'] 411.11111111111137
83 8.222222222222221 ['11', '27', '5'] 411.11111111111137
84 8.222222222222221 ['11', '27', '5'] 411.11111111111137
85 8.222222222222221 ['11', '27', '5'] 411.11111111111137
86 8.222222222222221 ['11', '27', '5'] 411.11111111111137
87 8.222222222222221 ['11', '27', '5'] 411.11111111111137
88 8.222222222222221 ['11', '27', '5'] 411.11111111111137
89 8.222222222222221 ['11', '27', '5'] 411.11111111111137
90 8.222222222222221 ['11', '27', '5'] 411.11111111111137
91 8.222222222222221 ['11', '27', '5'] 411.11111111111137
92 8.222222222222221 ['11', '27', '5'] 411.11111111111137
93 8.222222222222221 ['11', '27', '5'] 411.11111111111137
94 8.222222222222221 ['11', '27', '5'] 411.11111111111137
95 8.222222222222221 ['11', '27', '5'] 411.11111111111137
96 8.222222222222221 ['11', '27', '5'] 411.11111111111137
97 8.222222222222221 ['11', '27', '5'] 411.11111111111137
98 8.222222222222221 ['11', '27', '5'] 411.11111111111137
99 8.222222222222221 ['11', '27', '5'] 411.11111111111137
100 8.222222222222221 ['11', '27', '5'] 411.11111111111137
101 8.222222222222221 ['11', '27', '5'] 411.11111111111137
102 8.222222222222221 ['11', '27', '5'] 411.11111111111137
103 8.222222222222221 ['11', '27', '5'] 411.11111111111137
104 8.222222222222221 ['11', '27', '5'] 411.11111111111137
105 8.222222222222221 ['11', '27', '5'] 411.11111111111137
106 8.222222222222221 ['11', '27', '5'] 411.11111111111137
107 8.222222222222221 ['11', '27', '5'] 411.11111111111137
108 8.222222222222221 ['11', '27', '5'] 411.11111111111137
109 8.222222222222221 ['11', '27', '5'] 411.11111111111137
110 8.222222222222221 ['11', '27', '5'] 411.11111111111137
111 8.222222222222221 ['11', '27', '5'] 411.11111111111137
112 8.222222222222221 ['11', '27', '5'] 411.11111111111137
113 8.222222222222221 ['11', '27', '5'] 411.11111111111137
114 8.222222222222221 ['11', '27', '5'] 411.11111111111137
115 8.222222222222221 ['11', '27', '5'] 411.11111111111137
116 8.222222222222221 ['11', '27', '5'] 411.11111111111137
117 8.222222222222221 ['11', '27', '5'] 411.11111111111137
118 8.222222222222221 ['11', '27', '5'] 411.11111111111137
119 8.222222222222221 ['11', '27', '5'] 411.11111111111137
120 8.222222222222221 ['11', '27', '5'] 411.11111111111137
121 8.222222222222221 ['11', '27', '5'] 411.11111111111137
122 8.222222222222221 ['11', '27', '5'] 411.11111111111137
123 8.222222222222221 ['11', '27', '5'] 411.11111111111137
124 8.222222222222221 ['11', '27', '5'] 411.11111111111137
125 8.222222222222221 ['11', '27', '5'] 411.11111111111137
126 8.222222222222221 ['11', '27', '5'] 411.11111111111137
127 8.222222222222221 ['11', '27', '5'] 411.11111111111137
128 8.222222222222221 ['11', '27', '5'] 411.11111111111137
129 8.222222222222221 ['11', '27', '5'] 411.11111111111137
130 8.222222222222221 ['11', '27', '5'] 411.11111111111137
131 8.222222222222221 ['11', '27', '5'] 411.11111111111137
132 8.222222222222221 ['11', '27', '5'] 411.11111111111137
133 8.222222222222221 ['11', '27', '5'] 411.11111111111137
134 8.222222222222221 ['11', '27', '5'] 411.11111111111137
135 8.222222222222221 ['11', '27', '5'] 411.11111111111137
136 8.222222222222221 ['11', '27', '5'] 411.11111111111137
137 8.222222222222221 ['11', '27', '5'] 411.11111111111137
138 8.222222222222221 ['11', '27', '5'] 411.11111111111137
139 8.222222222222221 ['11', '27', '5'] 411.11111111111137
140 8.222222222222221 ['11', '27', '5'] 411.11111111111137
141 8.222222222222221 ['11', '27', '5'] 411.11111111111137
142 8.222222222222221 ['11', '27', '5'] 411.11111111111137
143 8.222222222222221 ['11', '27', '5'] 411.11111111111137
144 8.222222222222221 ['11', '27', '5'] 411.11111111111137
145 8.222222222222221 ['11', '27', '5'] 411.11111111111137
146 8.222222222222221 ['11', '27', '5'] 411.11111111111137
147 8.222222222222221 ['11', '27', '5'] 411.11111111111137
148 8.222222222222221 ['11', '27', '5'] 411.11111111111137
149 8.222222222222221 ['11', '27', '5'] 411.11111111111137
150 8.222222222222221 ['11', '27', '5'] 411.11111111111137
151 8.222222222222221 ['11', '27', '5'] 411.11111111111137
152 8.222222222222221 ['11', '27', '5'] 411.11111111111137
153 8.222222222222221 ['11', '27', '5'] 411.11111111111137
154 8.222222222222221 ['11', '27', '5'] 411.11111111111137
155 8.222222222222221 ['11', '27', '5'] 411.11111111111137
156 8.222222222222221 ['11', '27', '5'] 411.11111111111137
157 8.222222222222221 ['11', '27', '5'] 411.11111111111137
158 8.222222222222221 ['11', '27', '5'] 411.11111111111137
159 8.222222222222221 ['11', '27', '5'] 411.11111111111137
160 8.222222222222221 ['11', '27', '5'] 411.11111111111137
161 8.222222222222221 ['11', '27', '5'] 411.11111111111137
162 8.222222222222221 ['11', '27', '5'] 411.11111111111137
163 8.222222222222221 ['11', '27', '5'] 411.11111111111137
164 8.222222222222221 ['11', '27', '5'] 411.11111111111137
165 8.222222222222221 ['11', '27', '5'] 411.11111111111137
166 8.222222222222221 ['11', '27', '5'] 411.11111111111137
167 8.222222222222221 ['11', '27', '5'] 411.11111111111137
168 8.222222222222221 ['11', '27', '5'] 411.11111111111137
169 8.222222222222221 ['11', '27', '5'] 411.11111111111137
170 8.222222222222221 ['11', '27', '5'] 411.11111111111137
171 8.222222222222221 ['11', '27', '5'] 411.11111111111137
172 8.222222222222221 ['11', '27', '5'] 411.11111111111137
173 8.222222222222221 ['11', '27', '5'] 411.11111111111137
174 8.222222222222221 ['11', '27', '5'] 411.11111111111137
175 8.222222222222221 ['11', '27', '5'] 411.11111111111137
176 8.222222222222221 ['11', '27', '5'] 411.11111111111137
177 8.222222222222221 ['11', '27', '5'] 411.11111111111137
178 8.222222222222221 ['11', '27', '5'] 411.11111111111137
179 8.222222222222221 ['11', '27', '5'] 411.11111111111137
180 8.222222222222221 ['11', '27', '5'] 411.11111111111137
181 8.222222222222221 ['11', '27', '5'] 411.11111111111137
182 8.222222222222221 ['11', '27', '5'] 411.11111111111137
183 8.222222222222221 ['11', '27', '5'] 411.11111111111137
184 8.222222222222221 ['11', '27', '5'] 411.11111111111137
185 8.222222222222221 ['11', '27', '5'] 411.11111111111137
186 8.222222222222221 ['11', '27', '5'] 411.11111111111137
187 8.222222222222221 ['11', '27', '5'] 411.11111111111137
188 8.222222222222221 ['11', '27', '5'] 411.11111111111137
189 8.222222222222221 ['11', '27', '5'] 411.11111111111137
190 8.222222222222221 ['11', '27', '5'] 411.11111111111137
191 8.222222222222221 ['11', '27', '5'] 411.11111111111137
192 8.222222222222221 ['11', '27', '5'] 411.11111111111137
193 8.222222222222221 ['11', '27', '5'] 411.11111111111137
194 8.222222222222221 ['11', '27', '5'] 411.11111111111137
195 8.222222222222221 ['11', '27', '5'] 411.11111111111137
196 8.222222222222221 ['11', '27', '5'] 411.11111111111137
197 8.222222222222221 ['11', '27', '5'] 411.11111111111137
198 8.222222222222221 ['11', '27', '5'] 411.11111111111137
199 8.222222222222221 ['11', '27', '5'] 411.11111111111137
