0 14.481481481481481 ['85', '87', '150', '139', '48', '108', '100', '128', '19', '142', '140', '149', '27', '113', '104'] 747.4222222222221
1 14.348148148148148 ['149', '103', '150', '19', '122', '128', '101', '129', '52', '87', '33', '104', '119', '148', '108'] 741.1555555555557
2 14.348148148148148 ['149', '103', '150', '19', '122', '128', '101', '129', '52', '87', '33', '104', '119', '148', '108'] 736.5037037037034
3 14.051851851851852 ['88', '145', '79', '149', '116', '129', '136', '135', '148', '105', '17', '86', '44', '140', '150'] 730.777777777778
4 14.051851851851852 ['88', '145', '79', '149', '116', '129', '136', '135', '148', '105', '17', '86', '44', '140', '150'] 724.62962962963
5 14.051851851851852 ['88', '145', '79', '149', '116', '129', '136', '135', '148', '105', '17', '86', '44', '140', '150'] 719.474074074074
6 14.051851851851852 ['88', '145', '79', '149', '116', '129', '136', '135', '148', '105', '17', '86', '44', '140', '150'] 714.2444444444442
7 13.911111111111111 ['87', '150', '149', '86', '140', '48', '148', '88', '100', '145', '105', '79', '124', '135', '116'] 708.5555555555552
8 13.851851851851851 ['136', '142', '150', '83', '128', '149', '135', '116', '119', '145', '124', '15', '129', '148', '140'] 703.6740740740743
9 13.785185185185185 ['129', '150', '105', '33', '149', '148', '122', '136', '20', '128', '145', '130', '88', '97', '142'] 699.1037037037038
10 13.77037037037037 ['135', '150', '148', '145', '116', '86', '79', '48', '100', '149', '124', '88', '136', '105', '128'] 695.059259259259
11 13.65925925925926 ['136', '135', '145', '149', '150', '105', '124', '148', '146', '79', '85', '142', '33', '122', '128'] 691.6444444444447
12 13.614814814814816 ['145', '116', '122', '129', '142', '149', '148', '150', '146', '140', '79', '97', '136', '124', '128'] 688.7259259259258
13 13.614814814814816 ['145', '116', '122', '129', '142', '149', '148', '150', '146', '140', '79', '97', '136', '124', '128'] 685.9481481481487
14 13.555555555555555 ['136', '146', '122', '150', '129', '142', '128', '140', '149', '148', '145', '116', '135', '124', '79'] 683.933333333333
15 13.540740740740741 ['149', '124', '136', '148', '135', '122', '150', '146', '79', '128', '145', '119', '142', '129', '140'] 682.3185185185184
16 13.540740740740741 ['149', '124', '136', '148', '135', '122', '150', '146', '79', '128', '145', '119', '142', '129', '140'] 681.1481481481474
17 13.540740740740741 ['149', '124', '136', '148', '135', '122', '150', '146', '79', '128', '145', '119', '142', '129', '140'] 679.9407407407414
18 13.540740740740741 ['149', '124', '136', '148', '135', '122', '150', '146', '79', '128', '145', '119', '142', '129', '140'] 678.8074074074077
19 13.540740740740741 ['149', '124', '136', '148', '135', '122', '150', '146', '79', '128', '145', '119', '142', '129', '140'] 678.1925925925924
20 13.540740740740741 ['149', '124', '136', '148', '135', '122', '150', '146', '79', '128', '145', '119', '142', '129', '140'] 677.7555555555551
21 13.540740740740741 ['149', '124', '136', '148', '135', '122', '150', '146', '79', '128', '145', '119', '142', '129', '140'] 677.7333333333329
22 13.540740740740741 ['149', '124', '136', '148', '135', '122', '150', '146', '79', '128', '145', '119', '142', '129', '140'] 677.7037037037032
23 13.540740740740741 ['149', '124', '136', '148', '135', '122', '150', '146', '79', '128', '145', '119', '142', '129', '140'] 677.5999999999996
24 13.540740740740741 ['149', '124', '136', '148', '135', '122', '150', '146', '79', '128', '145', '119', '142', '129', '140'] 677.4518518518515
25 13.540740740740741 ['149', '124', '136', '148', '135', '122', '150', '146', '79', '128', '145', '119', '142', '129', '140'] 677.155555555555
26 13.540740740740741 ['149', '124', '136', '148', '135', '122', '150', '146', '79', '128', '145', '119', '142', '129', '140'] 677.0370370370364
27 13.540740740740741 ['149', '124', '136', '148', '135', '122', '150', '146', '79', '128', '145', '119', '142', '129', '140'] 677.0370370370364
28 13.540740740740741 ['149', '124', '136', '148', '135', '122', '150', '146', '79', '128', '145', '119', '142', '129', '140'] 677.0370370370364
29 13.540740740740741 ['149', '124', '136', '148', '135', '122', '150', '146', '79', '128', '145', '119', '142', '129', '140'] 677.0370370370364
30 13.540740740740741 ['149', '124', '136', '148', '135', '122', '150', '146', '79', '128', '145', '119', '142', '129', '140'] 677.0370370370364
31 13.540740740740741 ['149', '124', '136', '148', '135', '122', '150', '146', '79', '128', '145', '119', '142', '129', '140'] 677.0370370370364
32 13.540740740740741 ['149', '124', '136', '148', '135', '122', '150', '146', '79', '128', '145', '119', '142', '129', '140'] 677.0370370370364
33 13.540740740740741 ['149', '124', '136', '148', '135', '122', '150', '146', '79', '128', '145', '119', '142', '129', '140'] 677.0370370370364
34 13.540740740740741 ['149', '124', '136', '148', '135', '122', '150', '146', '79', '128', '145', '119', '142', '129', '140'] 677.0370370370364
35 13.540740740740741 ['149', '124', '136', '148', '135', '122', '150', '146', '79', '128', '145', '119', '142', '129', '140'] 677.0370370370364
36 13.540740740740741 ['149', '124', '136', '148', '135', '122', '150', '146', '79', '128', '145', '119', '142', '129', '140'] 677.0370370370364
37 13.540740740740741 ['149', '124', '136', '148', '135', '122', '150', '146', '79', '128', '145', '119', '142', '129', '140'] 677.0370370370364
38 13.540740740740741 ['149', '124', '136', '148', '135', '122', '150', '146', '79', '128', '145', '119', '142', '129', '140'] 677.0370370370364
39 13.540740740740741 ['149', '124', '136', '148', '135', '122', '150', '146', '79', '128', '145', '119', '142', '129', '140'] 677.0370370370364
40 13.540740740740741 ['149', '124', '136', '148', '135', '122', '150', '146', '79', '128', '145', '119', '142', '129', '140'] 677.0370370370364
41 13.540740740740741 ['149', '124', '136', '148', '135', '122', '150', '146', '79', '128', '145', '119', '142', '129', '140'] 677.0370370370364
42 13.540740740740741 ['149', '124', '136', '148', '135', '122', '150', '146', '79', '128', '145', '119', '142', '129', '140'] 677.0370370370364
43 13.540740740740741 ['149', '124', '136', '148', '135', '122', '150', '146', '79', '128', '145', '119', '142', '129', '140'] 677.0370370370364
44 13.540740740740741 ['149', '124', '136', '148', '135', '122', '150', '146', '79', '128', '145', '119', '142', '129', '140'] 677.0370370370364
45 13.540740740740741 ['149', '124', '136', '148', '135', '122', '150', '146', '79', '128', '145', '119', '142', '129', '140'] 677.0370370370364
46 13.540740740740741 ['149', '124', '136', '148', '135', '122', '150', '146', '79', '128', '145', '119', '142', '129', '140'] 677.0370370370364
47 13.540740740740741 ['149', '124', '136', '148', '135', '122', '150', '146', '79', '128', '145', '119', '142', '129', '140'] 677.0370370370364
48 13.540740740740741 ['149', '124', '136', '148', '135', '122', '150', '146', '79', '128', '145', '119', '142', '129', '140'] 677.0370370370364
49 13.540740740740741 ['149', '124', '136', '148', '135', '122', '150', '146', '79', '128', '145', '119', '142', '129', '140'] 677.0370370370364
50 13.540740740740741 ['149', '124', '136', '148', '135', '122', '150', '146', '79', '128', '145', '119', '142', '129', '140'] 677.0370370370364
51 13.540740740740741 ['149', '124', '136', '148', '135', '122', '150', '146', '79', '128', '145', '119', '142', '129', '140'] 677.0370370370364
52 13.540740740740741 ['149', '124', '136', '148', '135', '122', '150', '146', '79', '128', '145', '119', '142', '129', '140'] 677.0370370370364
53 13.540740740740741 ['149', '124', '136', '148', '135', '122', '150', '146', '79', '128', '145', '119', '142', '129', '140'] 677.0370370370364
54 13.540740740740741 ['149', '124', '136', '148', '135', '122', '150', '146', '79', '128', '145', '119', '142', '129', '140'] 677.0370370370364
55 13.540740740740741 ['149', '124', '136', '148', '135', '122', '150', '146', '79', '128', '145', '119', '142', '129', '140'] 677.0370370370364
56 13.540740740740741 ['149', '124', '136', '148', '135', '122', '150', '146', '79', '128', '145', '119', '142', '129', '140'] 677.0370370370364
57 13.540740740740741 ['149', '124', '136', '148', '135', '122', '150', '146', '79', '128', '145', '119', '142', '129', '140'] 677.0370370370364
58 13.540740740740741 ['149', '124', '136', '148', '135', '122', '150', '146', '79', '128', '145', '119', '142', '129', '140'] 677.0370370370364
59 13.540740740740741 ['149', '124', '136', '148', '135', '122', '150', '146', '79', '128', '145', '119', '142', '129', '140'] 677.0370370370364
60 13.540740740740741 ['149', '124', '136', '148', '135', '122', '150', '146', '79', '128', '145', '119', '142', '129', '140'] 677.0370370370364
61 13.540740740740741 ['149', '124', '136', '148', '135', '122', '150', '146', '79', '128', '145', '119', '142', '129', '140'] 677.0370370370364
62 13.540740740740741 ['149', '124', '136', '148', '135', '122', '150', '146', '79', '128', '145', '119', '142', '129', '140'] 677.0370370370364
63 13.540740740740741 ['149', '124', '136', '148', '135', '122', '150', '146', '79', '128', '145', '119', '142', '129', '140'] 677.0370370370364
64 13.540740740740741 ['149', '124', '136', '148', '135', '122', '150', '146', '79', '128', '145', '119', '142', '129', '140'] 677.0370370370364
65 13.540740740740741 ['149', '124', '136', '148', '135', '122', '150', '146', '79', '128', '145', '119', '142', '129', '140'] 677.0370370370364
66 13.540740740740741 ['149', '124', '136', '148', '135', '122', '150', '146', '79', '128', '145', '119', '142', '129', '140'] 677.0370370370364
67 13.540740740740741 ['149', '124', '136', '148', '135', '122', '150', '146', '79', '128', '145', '119', '142', '129', '140'] 677.0370370370364
68 13.540740740740741 ['149', '124', '136', '148', '135', '122', '150', '146', '79', '128', '145', '119', '142', '129', '140'] 677.0370370370364
69 13.540740740740741 ['149', '124', '136', '148', '135', '122', '150', '146', '79', '128', '145', '119', '142', '129', '140'] 677.0370370370364
70 13.540740740740741 ['149', '124', '136', '148', '135', '122', '150', '146', '79', '128', '145', '119', '142', '129', '140'] 677.0370370370364
71 13.540740740740741 ['149', '124', '136', '148', '135', '122', '150', '146', '79', '128', '145', '119', '142', '129', '140'] 677.0370370370364
72 13.540740740740741 ['149', '124', '136', '148', '135', '122', '150', '146', '79', '128', '145', '119', '142', '129', '140'] 677.0370370370364
73 13.540740740740741 ['149', '124', '136', '148', '135', '122', '150', '146', '79', '128', '145', '119', '142', '129', '140'] 677.0370370370364
74 13.540740740740741 ['149', '124', '136', '148', '135', '122', '150', '146', '79', '128', '145', '119', '142', '129', '140'] 677.0370370370364
75 13.540740740740741 ['149', '124', '136', '148', '135', '122', '150', '146', '79', '128', '145', '119', '142', '129', '140'] 677.0370370370364
76 13.540740740740741 ['149', '124', '136', '148', '135', '122', '150', '146', '79', '128', '145', '119', '142', '129', '140'] 677.0370370370364
77 13.540740740740741 ['149', '124', '136', '148', '135', '122', '150', '146', '79', '128', '145', '119', '142', '129', '140'] 677.0370370370364
78 13.540740740740741 ['149', '124', '136', '148', '135', '122', '150', '146', '79', '128', '145', '119', '142', '129', '140'] 677.0370370370364
79 13.540740740740741 ['149', '124', '136', '148', '135', '122', '150', '146', '79', '128', '145', '119', '142', '129', '140'] 677.0370370370364
80 13.540740740740741 ['149', '124', '136', '148', '135', '122', '150', '146', '79', '128', '145', '119', '142', '129', '140'] 677.0370370370364
81 13.540740740740741 ['149', '124', '136', '148', '135', '122', '150', '146', '79', '128', '145', '119', '142', '129', '140'] 677.0370370370364
82 13.540740740740741 ['149', '124', '136', '148', '135', '122', '150', '146', '79', '128', '145', '119', '142', '129', '140'] 677.0370370370364
83 13.540740740740741 ['149', '124', '136', '148', '135', '122', '150', '146', '79', '128', '145', '119', '142', '129', '140'] 677.0370370370364
84 13.540740740740741 ['149', '124', '136', '148', '135', '122', '150', '146', '79', '128', '145', '119', '142', '129', '140'] 677.0370370370364
85 13.540740740740741 ['149', '124', '136', '148', '135', '122', '150', '146', '79', '128', '145', '119', '142', '129', '140'] 677.0370370370364
86 13.540740740740741 ['149', '124', '136', '148', '135', '122', '150', '146', '79', '128', '145', '119', '142', '129', '140'] 677.0370370370364
87 13.540740740740741 ['149', '124', '136', '148', '135', '122', '150', '146', '79', '128', '145', '119', '142', '129', '140'] 677.0370370370364
88 13.540740740740741 ['149', '124', '136', '148', '135', '122', '150', '146', '79', '128', '145', '119', '142', '129', '140'] 677.0370370370364
89 13.540740740740741 ['149', '124', '136', '148', '135', '122', '150', '146', '79', '128', '145', '119', '142', '129', '140'] 677.0370370370364
90 13.540740740740741 ['149', '124', '136', '148', '135', '122', '150', '146', '79', '128', '145', '119', '142', '129', '140'] 677.0370370370364
91 13.540740740740741 ['149', '124', '136', '148', '135', '122', '150', '146', '79', '128', '145', '119', '142', '129', '140'] 677.0370370370364
92 13.540740740740741 ['149', '124', '136', '148', '135', '122', '150', '146', '79', '128', '145', '119', '142', '129', '140'] 677.0370370370364
93 13.540740740740741 ['149', '124', '136', '148', '135', '122', '150', '146', '79', '128', '145', '119', '142', '129', '140'] 677.0370370370364
94 13.540740740740741 ['149', '124', '136', '148', '135', '122', '150', '146', '79', '128', '145', '119', '142', '129', '140'] 677.0370370370364
95 13.540740740740741 ['149', '124', '136', '148', '135', '122', '150', '146', '79', '128', '145', '119', '142', '129', '140'] 677.0370370370364
96 13.540740740740741 ['149', '124', '136', '148', '135', '122', '150', '146', '79', '128', '145', '119', '142', '129', '140'] 677.0370370370364
97 13.540740740740741 ['149', '124', '136', '148', '135', '122', '150', '146', '79', '128', '145', '119', '142', '129', '140'] 677.0370370370364
98 13.540740740740741 ['149', '124', '136', '148', '135', '122', '150', '146', '79', '128', '145', '119', '142', '129', '140'] 677.0370370370364
99 13.540740740740741 ['149', '124', '136', '148', '135', '122', '150', '146', '79', '128', '145', '119', '142', '129', '140'] 677.0370370370364
100 13.540740740740741 ['149', '124', '136', '148', '135', '122', '150', '146', '79', '128', '145', '119', '142', '129', '140'] 677.0370370370364
101 13.540740740740741 ['149', '124', '136', '148', '135', '122', '150', '146', '79', '128', '145', '119', '142', '129', '140'] 677.0370370370364
102 13.540740740740741 ['149', '124', '136', '148', '135', '122', '150', '146', '79', '128', '145', '119', '142', '129', '140'] 677.0370370370364
103 13.540740740740741 ['149', '124', '136', '148', '135', '122', '150', '146', '79', '128', '145', '119', '142', '129', '140'] 677.0370370370364
104 13.540740740740741 ['149', '124', '136', '148', '135', '122', '150', '146', '79', '128', '145', '119', '142', '129', '140'] 677.0370370370364
105 13.540740740740741 ['149', '124', '136', '148', '135', '122', '150', '146', '79', '128', '145', '119', '142', '129', '140'] 677.0370370370364
106 13.540740740740741 ['149', '124', '136', '148', '135', '122', '150', '146', '79', '128', '145', '119', '142', '129', '140'] 677.0370370370364
107 13.540740740740741 ['149', '124', '136', '148', '135', '122', '150', '146', '79', '128', '145', '119', '142', '129', '140'] 677.0370370370364
108 13.540740740740741 ['149', '124', '136', '148', '135', '122', '150', '146', '79', '128', '145', '119', '142', '129', '140'] 677.0370370370364
109 13.540740740740741 ['149', '124', '136', '148', '135', '122', '150', '146', '79', '128', '145', '119', '142', '129', '140'] 677.0370370370364
110 13.540740740740741 ['149', '124', '136', '148', '135', '122', '150', '146', '79', '128', '145', '119', '142', '129', '140'] 677.0370370370364
111 13.540740740740741 ['149', '124', '136', '148', '135', '122', '150', '146', '79', '128', '145', '119', '142', '129', '140'] 677.0370370370364
112 13.540740740740741 ['149', '124', '136', '148', '135', '122', '150', '146', '79', '128', '145', '119', '142', '129', '140'] 677.0370370370364
113 13.540740740740741 ['149', '124', '136', '148', '135', '122', '150', '146', '79', '128', '145', '119', '142', '129', '140'] 677.0370370370364
114 13.540740740740741 ['149', '124', '136', '148', '135', '122', '150', '146', '79', '128', '145', '119', '142', '129', '140'] 677.0370370370364
115 13.540740740740741 ['149', '124', '136', '148', '135', '122', '150', '146', '79', '128', '145', '119', '142', '129', '140'] 677.0370370370364
116 13.540740740740741 ['149', '124', '136', '148', '135', '122', '150', '146', '79', '128', '145', '119', '142', '129', '140'] 677.0370370370364
117 13.540740740740741 ['149', '124', '136', '148', '135', '122', '150', '146', '79', '128', '145', '119', '142', '129', '140'] 677.0370370370364
118 13.540740740740741 ['149', '124', '136', '148', '135', '122', '150', '146', '79', '128', '145', '119', '142', '129', '140'] 677.0370370370364
119 13.540740740740741 ['149', '124', '136', '148', '135', '122', '150', '146', '79', '128', '145', '119', '142', '129', '140'] 677.0370370370364
120 13.540740740740741 ['149', '124', '136', '148', '135', '122', '150', '146', '79', '128', '145', '119', '142', '129', '140'] 677.0370370370364
121 13.540740740740741 ['149', '124', '136', '148', '135', '122', '150', '146', '79', '128', '145', '119', '142', '129', '140'] 677.0370370370364
122 13.540740740740741 ['149', '124', '136', '148', '135', '122', '150', '146', '79', '128', '145', '119', '142', '129', '140'] 677.0370370370364
123 13.540740740740741 ['149', '124', '136', '148', '135', '122', '150', '146', '79', '128', '145', '119', '142', '129', '140'] 677.0370370370364
124 13.540740740740741 ['149', '124', '136', '148', '135', '122', '150', '146', '79', '128', '145', '119', '142', '129', '140'] 677.0370370370364
125 13.540740740740741 ['149', '124', '136', '148', '135', '122', '150', '146', '79', '128', '145', '119', '142', '129', '140'] 677.0370370370364
126 13.540740740740741 ['149', '124', '136', '148', '135', '122', '150', '146', '79', '128', '145', '119', '142', '129', '140'] 677.0370370370364
127 13.540740740740741 ['149', '124', '136', '148', '135', '122', '150', '146', '79', '128', '145', '119', '142', '129', '140'] 677.0370370370364
128 13.540740740740741 ['149', '124', '136', '148', '135', '122', '150', '146', '79', '128', '145', '119', '142', '129', '140'] 677.0370370370364
129 13.540740740740741 ['149', '124', '136', '148', '135', '122', '150', '146', '79', '128', '145', '119', '142', '129', '140'] 677.0370370370364
130 13.540740740740741 ['149', '124', '136', '148', '135', '122', '150', '146', '79', '128', '145', '119', '142', '129', '140'] 677.0370370370364
131 13.540740740740741 ['149', '124', '136', '148', '135', '122', '150', '146', '79', '128', '145', '119', '142', '129', '140'] 677.0370370370364
132 13.540740740740741 ['149', '124', '136', '148', '135', '122', '150', '146', '79', '128', '145', '119', '142', '129', '140'] 677.0370370370364
133 13.540740740740741 ['149', '124', '136', '148', '135', '122', '150', '146', '79', '128', '145', '119', '142', '129', '140'] 677.0370370370364
134 13.540740740740741 ['149', '124', '136', '148', '135', '122', '150', '146', '79', '128', '145', '119', '142', '129', '140'] 677.0370370370364
135 13.540740740740741 ['149', '124', '136', '148', '135', '122', '150', '146', '79', '128', '145', '119', '142', '129', '140'] 677.0370370370364
136 13.540740740740741 ['149', '124', '136', '148', '135', '122', '150', '146', '79', '128', '145', '119', '142', '129', '140'] 677.0370370370364
137 13.540740740740741 ['149', '124', '136', '148', '135', '122', '150', '146', '79', '128', '145', '119', '142', '129', '140'] 677.0370370370364
138 13.540740740740741 ['149', '124', '136', '148', '135', '122', '150', '146', '79', '128', '145', '119', '142', '129', '140'] 677.0370370370364
139 13.540740740740741 ['149', '124', '136', '148', '135', '122', '150', '146', '79', '128', '145', '119', '142', '129', '140'] 677.0370370370364
140 13.540740740740741 ['149', '124', '136', '148', '135', '122', '150', '146', '79', '128', '145', '119', '142', '129', '140'] 677.0370370370364
141 13.540740740740741 ['149', '124', '136', '148', '135', '122', '150', '146', '79', '128', '145', '119', '142', '129', '140'] 677.0370370370364
142 13.540740740740741 ['149', '124', '136', '148', '135', '122', '150', '146', '79', '128', '145', '119', '142', '129', '140'] 677.0370370370364
143 13.540740740740741 ['149', '124', '136', '148', '135', '122', '150', '146', '79', '128', '145', '119', '142', '129', '140'] 677.0370370370364
144 13.540740740740741 ['149', '124', '136', '148', '135', '122', '150', '146', '79', '128', '145', '119', '142', '129', '140'] 677.0370370370364
145 13.540740740740741 ['149', '124', '136', '148', '135', '122', '150', '146', '79', '128', '145', '119', '142', '129', '140'] 677.0370370370364
146 13.540740740740741 ['149', '124', '136', '148', '135', '122', '150', '146', '79', '128', '145', '119', '142', '129', '140'] 677.0370370370364
147 13.540740740740741 ['149', '124', '136', '148', '135', '122', '150', '146', '79', '128', '145', '119', '142', '129', '140'] 677.0370370370364
148 13.540740740740741 ['149', '124', '136', '148', '135', '122', '150', '146', '79', '128', '145', '119', '142', '129', '140'] 677.0370370370364
149 13.540740740740741 ['149', '124', '136', '148', '135', '122', '150', '146', '79', '128', '145', '119', '142', '129', '140'] 677.0370370370364
150 13.540740740740741 ['149', '124', '136', '148', '135', '122', '150', '146', '79', '128', '145', '119', '142', '129', '140'] 677.0370370370364
151 13.540740740740741 ['149', '124', '136', '148', '135', '122', '150', '146', '79', '128', '145', '119', '142', '129', '140'] 677.0370370370364
152 13.540740740740741 ['149', '124', '136', '148', '135', '122', '150', '146', '79', '128', '145', '119', '142', '129', '140'] 677.0370370370364
153 13.540740740740741 ['149', '124', '136', '148', '135', '122', '150', '146', '79', '128', '145', '119', '142', '129', '140'] 677.0370370370364
154 13.540740740740741 ['149', '124', '136', '148', '135', '122', '150', '146', '79', '128', '145', '119', '142', '129', '140'] 677.0370370370364
155 13.540740740740741 ['149', '124', '136', '148', '135', '122', '150', '146', '79', '128', '145', '119', '142', '129', '140'] 677.0370370370364
156 13.540740740740741 ['149', '124', '136', '148', '135', '122', '150', '146', '79', '128', '145', '119', '142', '129', '140'] 677.0370370370364
157 13.540740740740741 ['149', '124', '136', '148', '135', '122', '150', '146', '79', '128', '145', '119', '142', '129', '140'] 677.0370370370364
158 13.540740740740741 ['149', '124', '136', '148', '135', '122', '150', '146', '79', '128', '145', '119', '142', '129', '140'] 677.0370370370364
159 13.540740740740741 ['149', '124', '136', '148', '135', '122', '150', '146', '79', '128', '145', '119', '142', '129', '140'] 677.0370370370364
160 13.540740740740741 ['149', '124', '136', '148', '135', '122', '150', '146', '79', '128', '145', '119', '142', '129', '140'] 677.0370370370364
161 13.540740740740741 ['149', '124', '136', '148', '135', '122', '150', '146', '79', '128', '145', '119', '142', '129', '140'] 677.0370370370364
162 13.540740740740741 ['149', '124', '136', '148', '135', '122', '150', '146', '79', '128', '145', '119', '142', '129', '140'] 677.0370370370364
163 13.540740740740741 ['149', '124', '136', '148', '135', '122', '150', '146', '79', '128', '145', '119', '142', '129', '140'] 677.0370370370364
164 13.540740740740741 ['149', '124', '136', '148', '135', '122', '150', '146', '79', '128', '145', '119', '142', '129', '140'] 677.0370370370364
165 13.540740740740741 ['149', '124', '136', '148', '135', '122', '150', '146', '79', '128', '145', '119', '142', '129', '140'] 677.0370370370364
166 13.540740740740741 ['149', '124', '136', '148', '135', '122', '150', '146', '79', '128', '145', '119', '142', '129', '140'] 677.0370370370364
167 13.540740740740741 ['149', '124', '136', '148', '135', '122', '150', '146', '79', '128', '145', '119', '142', '129', '140'] 677.0370370370364
168 13.540740740740741 ['149', '124', '136', '148', '135', '122', '150', '146', '79', '128', '145', '119', '142', '129', '140'] 677.0370370370364
169 13.540740740740741 ['149', '124', '136', '148', '135', '122', '150', '146', '79', '128', '145', '119', '142', '129', '140'] 677.0370370370364
170 13.540740740740741 ['149', '124', '136', '148', '135', '122', '150', '146', '79', '128', '145', '119', '142', '129', '140'] 677.0370370370364
171 13.540740740740741 ['149', '124', '136', '148', '135', '122', '150', '146', '79', '128', '145', '119', '142', '129', '140'] 677.0370370370364
172 13.540740740740741 ['149', '124', '136', '148', '135', '122', '150', '146', '79', '128', '145', '119', '142', '129', '140'] 677.0370370370364
173 13.540740740740741 ['149', '124', '136', '148', '135', '122', '150', '146', '79', '128', '145', '119', '142', '129', '140'] 677.0370370370364
174 13.540740740740741 ['149', '124', '136', '148', '135', '122', '150', '146', '79', '128', '145', '119', '142', '129', '140'] 677.0370370370364
175 13.540740740740741 ['149', '124', '136', '148', '135', '122', '150', '146', '79', '128', '145', '119', '142', '129', '140'] 677.0370370370364
176 13.540740740740741 ['149', '124', '136', '148', '135', '122', '150', '146', '79', '128', '145', '119', '142', '129', '140'] 677.0370370370364
177 13.540740740740741 ['149', '124', '136', '148', '135', '122', '150', '146', '79', '128', '145', '119', '142', '129', '140'] 677.0370370370364
178 13.540740740740741 ['149', '124', '136', '148', '135', '122', '150', '146', '79', '128', '145', '119', '142', '129', '140'] 677.0370370370364
179 13.540740740740741 ['149', '124', '136', '148', '135', '122', '150', '146', '79', '128', '145', '119', '142', '129', '140'] 677.0370370370364
180 13.540740740740741 ['149', '124', '136', '148', '135', '122', '150', '146', '79', '128', '145', '119', '142', '129', '140'] 677.0370370370364
181 13.540740740740741 ['149', '124', '136', '148', '135', '122', '150', '146', '79', '128', '145', '119', '142', '129', '140'] 677.0370370370364
182 13.540740740740741 ['149', '124', '136', '148', '135', '122', '150', '146', '79', '128', '145', '119', '142', '129', '140'] 677.0370370370364
183 13.540740740740741 ['149', '124', '136', '148', '135', '122', '150', '146', '79', '128', '145', '119', '142', '129', '140'] 677.0370370370364
184 13.540740740740741 ['149', '124', '136', '148', '135', '122', '150', '146', '79', '128', '145', '119', '142', '129', '140'] 677.0370370370364
185 13.540740740740741 ['149', '124', '136', '148', '135', '122', '150', '146', '79', '128', '145', '119', '142', '129', '140'] 677.0370370370364
186 13.540740740740741 ['149', '124', '136', '148', '135', '122', '150', '146', '79', '128', '145', '119', '142', '129', '140'] 677.0370370370364
187 13.540740740740741 ['149', '124', '136', '148', '135', '122', '150', '146', '79', '128', '145', '119', '142', '129', '140'] 677.0370370370364
188 13.540740740740741 ['149', '124', '136', '148', '135', '122', '150', '146', '79', '128', '145', '119', '142', '129', '140'] 677.0370370370364
189 13.540740740740741 ['149', '124', '136', '148', '135', '122', '150', '146', '79', '128', '145', '119', '142', '129', '140'] 677.0370370370364
190 13.540740740740741 ['149', '124', '136', '148', '135', '122', '150', '146', '79', '128', '145', '119', '142', '129', '140'] 677.0370370370364
191 13.540740740740741 ['149', '124', '136', '148', '135', '122', '150', '146', '79', '128', '145', '119', '142', '129', '140'] 677.0370370370364
192 13.540740740740741 ['149', '124', '136', '148', '135', '122', '150', '146', '79', '128', '145', '119', '142', '129', '140'] 677.0370370370364
193 13.540740740740741 ['149', '124', '136', '148', '135', '122', '150', '146', '79', '128', '145', '119', '142', '129', '140'] 677.0370370370364
194 13.540740740740741 ['149', '124', '136', '148', '135', '122', '150', '146', '79', '128', '145', '119', '142', '129', '140'] 677.0370370370364
195 13.540740740740741 ['149', '124', '136', '148', '135', '122', '150', '146', '79', '128', '145', '119', '142', '129', '140'] 677.0370370370364
196 13.540740740740741 ['149', '124', '136', '148', '135', '122', '150', '146', '79', '128', '145', '119', '142', '129', '140'] 677.0370370370364
197 13.540740740740741 ['149', '124', '136', '148', '135', '122', '150', '146', '79', '128', '145', '119', '142', '129', '140'] 677.0370370370364
198 13.540740740740741 ['149', '124', '136', '148', '135', '122', '150', '146', '79', '128', '145', '119', '142', '129', '140'] 677.0370370370364
199 13.540740740740741 ['149', '124', '136', '148', '135', '122', '150', '146', '79', '128', '145', '119', '142', '129', '140'] 677.0370370370364
