0 18.21276595744681 ['48', '12', '43', '19', '21'] 1010.04255319149
1 18.21276595744681 ['48', '12', '43', '19', '21'] 986.9787234042553
2 17.95744680851064 ['8', '22', '4', '19', '30'] 959.1489361702124
3 17.617021276595743 ['19', '23', '43', '1', '6'] 938.4680851063825
4 17.617021276595743 ['19', '23', '43', '1', '6'] 922.2978723404257
5 17.02127659574468 ['19', '12', '22', '30', '23'] 901.2765957446808
6 16.76595744680851 ['19', '12', '43', '30', '6'] 885.191489361702
7 16.76595744680851 ['19', '12', '43', '30', '6'] 872.510638297872
8 16.76595744680851 ['19', '12', '43', '30', '6'] 857.2765957446809
9 16.76595744680851 ['19', '12', '43', '30', '6'] 847.4042553191488
10 16.76595744680851 ['19', '12', '43', '30', '6'] 841.2765957446811
11 16.680851063829788 ['30', '12', '23', '43', '6'] 838.2978723404261
12 16.680851063829788 ['30', '12', '23', '43', '6'] 837.9574468085113
13 16.680851063829788 ['30', '12', '23', '43', '6'] 837.7872340425539
14 16.680851063829788 ['30', '12', '23', '43', '6'] 837.1063829787241
15 16.680851063829788 ['30', '12', '23', '43', '6'] 835.914893617022
16 16.680851063829788 ['30', '12', '23', '43', '6'] 834.1276595744678
17 16.680851063829788 ['30', '12', '23', '43', '6'] 834.042553191489
18 16.680851063829788 ['30', '12', '23', '43', '6'] 834.042553191489
19 16.680851063829788 ['30', '12', '23', '43', '6'] 834.042553191489
20 16.680851063829788 ['30', '12', '23', '43', '6'] 834.042553191489
21 16.680851063829788 ['30', '12', '23', '43', '6'] 834.042553191489
22 16.680851063829788 ['30', '12', '23', '43', '6'] 834.042553191489
23 16.680851063829788 ['30', '12', '23', '43', '6'] 834.042553191489
24 16.680851063829788 ['30', '12', '23', '43', '6'] 834.042553191489
25 16.680851063829788 ['30', '12', '23', '43', '6'] 834.042553191489
26 16.680851063829788 ['30', '12', '23', '43', '6'] 834.042553191489
27 16.680851063829788 ['30', '12', '23', '43', '6'] 834.042553191489
28 16.680851063829788 ['30', '12', '23', '43', '6'] 834.042553191489
29 16.680851063829788 ['30', '12', '23', '43', '6'] 834.042553191489
30 16.680851063829788 ['30', '12', '23', '43', '6'] 834.042553191489
31 16.680851063829788 ['30', '12', '23', '43', '6'] 834.042553191489
32 16.680851063829788 ['30', '12', '23', '43', '6'] 834.042553191489
33 16.680851063829788 ['30', '12', '23', '43', '6'] 834.042553191489
34 16.680851063829788 ['30', '12', '23', '43', '6'] 834.042553191489
35 16.680851063829788 ['30', '12', '23', '43', '6'] 834.042553191489
36 16.680851063829788 ['30', '12', '23', '43', '6'] 834.042553191489
37 16.680851063829788 ['30', '12', '23', '43', '6'] 834.042553191489
38 16.680851063829788 ['30', '12', '23', '43', '6'] 834.042553191489
39 16.680851063829788 ['30', '12', '23', '43', '6'] 834.042553191489
40 16.680851063829788 ['30', '12', '23', '43', '6'] 834.042553191489
41 16.680851063829788 ['30', '12', '23', '43', '6'] 834.042553191489
42 16.680851063829788 ['30', '12', '23', '43', '6'] 834.042553191489
43 16.680851063829788 ['30', '12', '23', '43', '6'] 834.042553191489
44 16.680851063829788 ['30', '12', '23', '43', '6'] 834.042553191489
45 16.680851063829788 ['30', '12', '23', '43', '6'] 834.042553191489
46 16.680851063829788 ['30', '12', '23', '43', '6'] 834.042553191489
47 16.680851063829788 ['30', '12', '23', '43', '6'] 834.042553191489
48 16.680851063829788 ['30', '12', '23', '43', '6'] 834.042553191489
49 16.680851063829788 ['30', '12', '23', '43', '6'] 834.042553191489
50 16.680851063829788 ['30', '12', '23', '43', '6'] 834.042553191489
51 16.680851063829788 ['30', '12', '23', '43', '6'] 834.042553191489
52 16.680851063829788 ['30', '12', '23', '43', '6'] 834.042553191489
53 16.680851063829788 ['30', '12', '23', '43', '6'] 834.042553191489
54 16.680851063829788 ['30', '12', '23', '43', '6'] 834.042553191489
55 16.680851063829788 ['30', '12', '23', '43', '6'] 834.042553191489
56 16.680851063829788 ['30', '12', '23', '43', '6'] 834.042553191489
57 16.680851063829788 ['30', '12', '23', '43', '6'] 834.042553191489
58 16.680851063829788 ['30', '12', '23', '43', '6'] 834.042553191489
59 16.680851063829788 ['30', '12', '23', '43', '6'] 834.042553191489
60 16.680851063829788 ['30', '12', '23', '43', '6'] 834.042553191489
61 16.680851063829788 ['30', '12', '23', '43', '6'] 834.042553191489
62 16.680851063829788 ['30', '12', '23', '43', '6'] 834.042553191489
63 16.680851063829788 ['30', '12', '23', '43', '6'] 834.042553191489
64 16.680851063829788 ['30', '12', '23', '43', '6'] 834.042553191489
65 16.680851063829788 ['30', '12', '23', '43', '6'] 834.042553191489
66 16.680851063829788 ['30', '12', '23', '43', '6'] 834.042553191489
67 16.680851063829788 ['30', '12', '23', '43', '6'] 834.042553191489
68 16.680851063829788 ['30', '12', '23', '43', '6'] 834.042553191489
69 16.680851063829788 ['30', '12', '23', '43', '6'] 834.042553191489
70 16.680851063829788 ['30', '12', '23', '43', '6'] 834.042553191489
71 16.680851063829788 ['30', '12', '23', '43', '6'] 834.042553191489
72 16.680851063829788 ['30', '12', '23', '43', '6'] 834.042553191489
73 16.680851063829788 ['30', '12', '23', '43', '6'] 834.042553191489
74 16.680851063829788 ['30', '12', '23', '43', '6'] 834.042553191489
75 16.680851063829788 ['30', '12', '23', '43', '6'] 834.042553191489
76 16.680851063829788 ['30', '12', '23', '43', '6'] 834.042553191489
77 16.680851063829788 ['30', '12', '23', '43', '6'] 834.042553191489
78 16.680851063829788 ['30', '12', '23', '43', '6'] 834.042553191489
79 16.680851063829788 ['30', '12', '23', '43', '6'] 834.042553191489
80 16.680851063829788 ['30', '12', '23', '43', '6'] 834.042553191489
81 16.680851063829788 ['30', '12', '23', '43', '6'] 834.042553191489
82 16.680851063829788 ['30', '12', '23', '43', '6'] 834.042553191489
83 16.680851063829788 ['30', '12', '23', '43', '6'] 834.042553191489
84 16.680851063829788 ['30', '12', '23', '43', '6'] 834.042553191489
85 16.680851063829788 ['30', '12', '23', '43', '6'] 834.042553191489
86 16.680851063829788 ['30', '12', '23', '43', '6'] 834.042553191489
87 16.680851063829788 ['30', '12', '23', '43', '6'] 834.042553191489
88 16.680851063829788 ['30', '12', '23', '43', '6'] 834.042553191489
89 16.680851063829788 ['30', '12', '23', '43', '6'] 834.042553191489
90 16.680851063829788 ['30', '12', '23', '43', '6'] 834.042553191489
91 16.680851063829788 ['30', '12', '23', '43', '6'] 834.042553191489
92 16.680851063829788 ['30', '12', '23', '43', '6'] 834.042553191489
93 16.680851063829788 ['30', '12', '23', '43', '6'] 834.042553191489
94 16.680851063829788 ['30', '12', '23', '43', '6'] 834.042553191489
95 16.680851063829788 ['30', '12', '23', '43', '6'] 834.042553191489
96 16.680851063829788 ['30', '12', '23', '43', '6'] 834.042553191489
97 16.680851063829788 ['30', '12', '23', '43', '6'] 834.042553191489
98 16.680851063829788 ['30', '12', '23', '43', '6'] 834.042553191489
99 16.680851063829788 ['30', '12', '23', '43', '6'] 834.042553191489
100 16.680851063829788 ['30', '12', '23', '43', '6'] 834.042553191489
101 16.680851063829788 ['30', '12', '23', '43', '6'] 834.042553191489
102 16.680851063829788 ['30', '12', '23', '43', '6'] 834.042553191489
103 16.680851063829788 ['30', '12', '23', '43', '6'] 834.042553191489
104 16.680851063829788 ['30', '12', '23', '43', '6'] 834.042553191489
105 16.680851063829788 ['30', '12', '23', '43', '6'] 834.042553191489
106 16.680851063829788 ['30', '12', '23', '43', '6'] 834.042553191489
107 16.680851063829788 ['30', '12', '23', '43', '6'] 834.042553191489
108 16.680851063829788 ['30', '12', '23', '43', '6'] 834.042553191489
109 16.680851063829788 ['30', '12', '23', '43', '6'] 834.042553191489
110 16.680851063829788 ['30', '12', '23', '43', '6'] 834.042553191489
111 16.680851063829788 ['30', '12', '23', '43', '6'] 834.042553191489
112 16.680851063829788 ['30', '12', '23', '43', '6'] 834.042553191489
113 16.680851063829788 ['30', '12', '23', '43', '6'] 834.042553191489
114 16.680851063829788 ['30', '12', '23', '43', '6'] 834.042553191489
115 16.680851063829788 ['30', '12', '23', '43', '6'] 834.042553191489
116 16.680851063829788 ['30', '12', '23', '43', '6'] 834.042553191489
117 16.680851063829788 ['30', '12', '23', '43', '6'] 834.042553191489
118 16.680851063829788 ['30', '12', '23', '43', '6'] 834.042553191489
119 16.680851063829788 ['30', '12', '23', '43', '6'] 834.042553191489
120 16.680851063829788 ['30', '12', '23', '43', '6'] 834.042553191489
121 16.680851063829788 ['30', '12', '23', '43', '6'] 834.042553191489
122 16.680851063829788 ['30', '12', '23', '43', '6'] 834.042553191489
123 16.680851063829788 ['30', '12', '23', '43', '6'] 834.042553191489
124 16.680851063829788 ['30', '12', '23', '43', '6'] 834.042553191489
125 16.680851063829788 ['30', '12', '23', '43', '6'] 834.042553191489
126 16.680851063829788 ['30', '12', '23', '43', '6'] 834.042553191489
127 16.680851063829788 ['30', '12', '23', '43', '6'] 834.042553191489
128 16.680851063829788 ['30', '12', '23', '43', '6'] 834.042553191489
129 16.680851063829788 ['30', '12', '23', '43', '6'] 834.042553191489
130 16.680851063829788 ['30', '12', '23', '43', '6'] 834.042553191489
131 16.680851063829788 ['30', '12', '23', '43', '6'] 834.042553191489
132 16.680851063829788 ['30', '12', '23', '43', '6'] 834.042553191489
133 16.680851063829788 ['30', '12', '23', '43', '6'] 834.042553191489
134 16.680851063829788 ['30', '12', '23', '43', '6'] 834.042553191489
135 16.680851063829788 ['30', '12', '23', '43', '6'] 834.042553191489
136 16.680851063829788 ['30', '12', '23', '43', '6'] 834.042553191489
137 16.680851063829788 ['30', '12', '23', '43', '6'] 834.042553191489
138 16.680851063829788 ['30', '12', '23', '43', '6'] 834.042553191489
139 16.680851063829788 ['30', '12', '23', '43', '6'] 834.042553191489
140 16.680851063829788 ['30', '12', '23', '43', '6'] 834.042553191489
141 16.680851063829788 ['30', '12', '23', '43', '6'] 834.042553191489
142 16.680851063829788 ['30', '12', '23', '43', '6'] 834.042553191489
143 16.680851063829788 ['30', '12', '23', '43', '6'] 834.042553191489
144 16.680851063829788 ['30', '12', '23', '43', '6'] 834.042553191489
145 16.680851063829788 ['30', '12', '23', '43', '6'] 834.042553191489
146 16.680851063829788 ['30', '12', '23', '43', '6'] 834.042553191489
147 16.680851063829788 ['30', '12', '23', '43', '6'] 834.042553191489
148 16.680851063829788 ['30', '12', '23', '43', '6'] 834.042553191489
149 16.680851063829788 ['30', '12', '23', '43', '6'] 834.042553191489
150 16.680851063829788 ['30', '12', '23', '43', '6'] 834.042553191489
151 16.680851063829788 ['30', '12', '23', '43', '6'] 834.042553191489
152 16.680851063829788 ['30', '12', '23', '43', '6'] 834.042553191489
153 16.680851063829788 ['30', '12', '23', '43', '6'] 834.042553191489
154 16.680851063829788 ['30', '12', '23', '43', '6'] 834.042553191489
155 16.680851063829788 ['30', '12', '23', '43', '6'] 834.042553191489
156 16.680851063829788 ['30', '12', '23', '43', '6'] 834.042553191489
157 16.680851063829788 ['30', '12', '23', '43', '6'] 834.042553191489
158 16.680851063829788 ['30', '12', '23', '43', '6'] 834.042553191489
159 16.680851063829788 ['30', '12', '23', '43', '6'] 834.042553191489
160 16.680851063829788 ['30', '12', '23', '43', '6'] 834.042553191489
161 16.680851063829788 ['30', '12', '23', '43', '6'] 834.042553191489
162 16.680851063829788 ['30', '12', '23', '43', '6'] 834.042553191489
163 16.680851063829788 ['30', '12', '23', '43', '6'] 834.042553191489
164 16.680851063829788 ['30', '12', '23', '43', '6'] 834.042553191489
165 16.680851063829788 ['30', '12', '23', '43', '6'] 834.042553191489
166 16.680851063829788 ['30', '12', '23', '43', '6'] 834.042553191489
167 16.680851063829788 ['30', '12', '23', '43', '6'] 834.042553191489
168 16.680851063829788 ['30', '12', '23', '43', '6'] 834.042553191489
169 16.680851063829788 ['30', '12', '23', '43', '6'] 834.042553191489
170 16.680851063829788 ['30', '12', '23', '43', '6'] 834.042553191489
171 16.680851063829788 ['30', '12', '23', '43', '6'] 834.042553191489
172 16.680851063829788 ['30', '12', '23', '43', '6'] 834.042553191489
173 16.680851063829788 ['30', '12', '23', '43', '6'] 834.042553191489
174 16.680851063829788 ['30', '12', '23', '43', '6'] 834.042553191489
175 16.680851063829788 ['30', '12', '23', '43', '6'] 834.042553191489
176 16.680851063829788 ['30', '12', '23', '43', '6'] 834.042553191489
177 16.680851063829788 ['30', '12', '23', '43', '6'] 834.042553191489
178 16.680851063829788 ['30', '12', '23', '43', '6'] 834.042553191489
179 16.680851063829788 ['30', '12', '23', '43', '6'] 834.042553191489
180 16.680851063829788 ['30', '12', '23', '43', '6'] 834.042553191489
181 16.680851063829788 ['30', '12', '23', '43', '6'] 834.042553191489
182 16.680851063829788 ['30', '12', '23', '43', '6'] 834.042553191489
183 16.680851063829788 ['30', '12', '23', '43', '6'] 834.042553191489
184 16.680851063829788 ['30', '12', '23', '43', '6'] 834.042553191489
185 16.680851063829788 ['30', '12', '23', '43', '6'] 834.042553191489
186 16.680851063829788 ['30', '12', '23', '43', '6'] 834.042553191489
187 16.680851063829788 ['30', '12', '23', '43', '6'] 834.042553191489
188 16.680851063829788 ['30', '12', '23', '43', '6'] 834.042553191489
189 16.680851063829788 ['30', '12', '23', '43', '6'] 834.042553191489
190 16.680851063829788 ['30', '12', '23', '43', '6'] 834.042553191489
191 16.680851063829788 ['30', '12', '23', '43', '6'] 834.042553191489
192 16.680851063829788 ['30', '12', '23', '43', '6'] 834.042553191489
193 16.680851063829788 ['30', '12', '23', '43', '6'] 834.042553191489
194 16.680851063829788 ['30', '12', '23', '43', '6'] 834.042553191489
195 16.680851063829788 ['30', '12', '23', '43', '6'] 834.042553191489
196 16.680851063829788 ['30', '12', '23', '43', '6'] 834.042553191489
197 16.680851063829788 ['30', '12', '23', '43', '6'] 834.042553191489
198 16.680851063829788 ['30', '12', '23', '43', '6'] 834.042553191489
199 16.680851063829788 ['30', '12', '23', '43', '6'] 834.042553191489
