0 5.225802469135801 ['150', '83', '143', '40', '94', '148', '139', '110', '99', '2', '65', '49', '68', '125', '88'] 265.21172839506175
1 5.148148148148149 ['146', '42', '34', '135', '97', '143', '126', '150', '137', '110', '118', '124', '107', '102', '133'] 263.6182716049383
2 5.121975308641976 ['98', '146', '131', '101', '121', '34', '118', '60', '142', '137', '79', '135', '143', '2', '19'] 262.3960493827161
3 5.121975308641976 ['98', '146', '131', '101', '121', '34', '118', '60', '142', '137', '79', '135', '143', '2', '19'] 261.23962962962963
4 5.121975308641976 ['98', '146', '131', '101', '121', '34', '118', '60', '142', '137', '79', '135', '143', '2', '19'] 260.38493827160505
5 5.121975308641976 ['98', '146', '131', '101', '121', '34', '118', '60', '142', '137', '79', '135', '143', '2', '19'] 259.6166666666666
6 5.121975308641976 ['98', '146', '131', '101', '121', '34', '118', '60', '142', '137', '79', '135', '143', '2', '19'] 258.71691358024697
7 5.112962962962964 ['110', '143', '60', '118', '146', '25', '34', '149', '139', '88', '42', '150', '135', '137', '126'] 257.7802469135803
8 5.076790123456793 ['143', '79', '131', '121', '135', '60', '118', '142', '124', '101', '148', '103', '19', '77', '98'] 256.81617283950624
9 5.076790123456793 ['143', '79', '131', '121', '135', '60', '118', '142', '124', '101', '148', '103', '19', '77', '98'] 256.3637037037038
10 5.0183950617283966 ['60', '124', '135', '25', '143', '118', '101', '149', '117', '150', '79', '19', '88', '126', '110'] 255.42802469135808
11 5.0183950617283966 ['60', '124', '135', '25', '143', '118', '101', '149', '117', '150', '79', '19', '88', '126', '110'] 254.68148148148157
12 5.0183950617283966 ['60', '124', '135', '25', '143', '118', '101', '149', '117', '150', '79', '19', '88', '126', '110'] 253.92691358024692
13 5.0162962962962965 ['19', '135', '118', '143', '60', '79', '101', '148', '142', '126', '124', '77', '121', '139', '131'] 252.9281481481482
14 5.003456790123456 ['126', '79', '118', '19', '88', '149', '110', '124', '150', '101', '60', '135', '143', '148', '117'] 252.3512345679013
15 4.968271604938273 ['135', '110', '88', '130', '118', '126', '60', '149', '143', '146', '122', '124', '150', '101', '121'] 251.5614814814816
16 4.95530864197531 ['143', '79', '148', '19', '101', '142', '88', '118', '126', '60', '135', '149', '146', '124', '121'] 250.7886419753088
17 4.95530864197531 ['143', '79', '148', '19', '101', '142', '88', '118', '126', '60', '135', '149', '146', '124', '121'] 249.94308641975314
18 4.945185185185187 ['122', '118', '60', '126', '101', '143', '135', '88', '79', '19', '142', '148', '124', '91', '121'] 249.18160493827162
19 4.9417283950617295 ['88', '143', '60', '118', '101', '124', '135', '79', '121', '19', '126', '149', '148', '142', '91'] 248.59148148148162
20 4.9417283950617295 ['88', '143', '60', '118', '101', '124', '135', '79', '121', '19', '126', '149', '148', '142', '91'] 248.2224691358027
21 4.9417283950617295 ['88', '143', '60', '118', '101', '124', '135', '79', '121', '19', '126', '149', '148', '142', '91'] 247.98160493827172
22 4.932222222222224 ['135', '143', '101', '118', '126', '122', '60', '79', '124', '121', '19', '142', '149', '88', '148'] 247.71407407407415
23 4.932222222222224 ['135', '143', '101', '118', '126', '122', '60', '79', '124', '121', '19', '142', '149', '88', '148'] 247.38654320987652
24 4.932222222222224 ['135', '143', '101', '118', '126', '122', '60', '79', '124', '121', '19', '142', '149', '88', '148'] 247.15024691358025
25 4.930000000000002 ['101', '118', '148', '60', '121', '143', '88', '142', '19', '126', '135', '79', '124', '149', '137'] 246.87172839506155
26 4.930000000000002 ['101', '118', '148', '60', '121', '143', '88', '142', '19', '126', '135', '79', '124', '149', '137'] 246.59839506172875
27 4.930000000000002 ['101', '118', '148', '60', '121', '143', '88', '142', '19', '126', '135', '79', '124', '149', '137'] 246.58000000000038
28 4.930000000000002 ['101', '118', '148', '60', '121', '143', '88', '142', '19', '126', '135', '79', '124', '149', '137'] 246.5488888888893
29 4.930000000000002 ['101', '118', '148', '60', '121', '143', '88', '142', '19', '126', '135', '79', '124', '149', '137'] 246.50000000000026
30 4.930000000000002 ['101', '118', '148', '60', '121', '143', '88', '142', '19', '126', '135', '79', '124', '149', '137'] 246.50000000000026
31 4.930000000000002 ['101', '118', '148', '60', '121', '143', '88', '142', '19', '126', '135', '79', '124', '149', '137'] 246.50000000000026
32 4.930000000000002 ['101', '118', '148', '60', '121', '143', '88', '142', '19', '126', '135', '79', '124', '149', '137'] 246.50000000000026
33 4.930000000000002 ['101', '118', '148', '60', '121', '143', '88', '142', '19', '126', '135', '79', '124', '149', '137'] 246.50000000000026
34 4.930000000000002 ['101', '118', '148', '60', '121', '143', '88', '142', '19', '126', '135', '79', '124', '149', '137'] 246.50000000000026
35 4.930000000000002 ['101', '118', '148', '60', '121', '143', '88', '142', '19', '126', '135', '79', '124', '149', '137'] 246.50000000000026
36 4.930000000000002 ['101', '118', '148', '60', '121', '143', '88', '142', '19', '126', '135', '79', '124', '149', '137'] 246.50000000000026
37 4.930000000000002 ['101', '118', '148', '60', '121', '143', '88', '142', '19', '126', '135', '79', '124', '149', '137'] 246.50000000000026
38 4.930000000000002 ['101', '118', '148', '60', '121', '143', '88', '142', '19', '126', '135', '79', '124', '149', '137'] 246.50000000000026
39 4.930000000000002 ['101', '118', '148', '60', '121', '143', '88', '142', '19', '126', '135', '79', '124', '149', '137'] 246.50000000000026
40 4.930000000000002 ['101', '118', '148', '60', '121', '143', '88', '142', '19', '126', '135', '79', '124', '149', '137'] 246.50000000000026
41 4.930000000000002 ['101', '118', '148', '60', '121', '143', '88', '142', '19', '126', '135', '79', '124', '149', '137'] 246.50000000000026
42 4.930000000000002 ['101', '118', '148', '60', '121', '143', '88', '142', '19', '126', '135', '79', '124', '149', '137'] 246.50000000000026
43 4.930000000000002 ['101', '118', '148', '60', '121', '143', '88', '142', '19', '126', '135', '79', '124', '149', '137'] 246.50000000000026
44 4.930000000000002 ['101', '118', '148', '60', '121', '143', '88', '142', '19', '126', '135', '79', '124', '149', '137'] 246.50000000000026
45 4.930000000000002 ['101', '118', '148', '60', '121', '143', '88', '142', '19', '126', '135', '79', '124', '149', '137'] 246.50000000000026
46 4.930000000000002 ['101', '118', '148', '60', '121', '143', '88', '142', '19', '126', '135', '79', '124', '149', '137'] 246.50000000000026
47 4.930000000000002 ['101', '118', '148', '60', '121', '143', '88', '142', '19', '126', '135', '79', '124', '149', '137'] 246.50000000000026
48 4.930000000000002 ['101', '118', '148', '60', '121', '143', '88', '142', '19', '126', '135', '79', '124', '149', '137'] 246.50000000000026
49 4.930000000000002 ['101', '118', '148', '60', '121', '143', '88', '142', '19', '126', '135', '79', '124', '149', '137'] 246.50000000000026
50 4.930000000000002 ['101', '118', '148', '60', '121', '143', '88', '142', '19', '126', '135', '79', '124', '149', '137'] 246.50000000000026
51 4.930000000000002 ['101', '118', '148', '60', '121', '143', '88', '142', '19', '126', '135', '79', '124', '149', '137'] 246.50000000000026
52 4.930000000000002 ['101', '118', '148', '60', '121', '143', '88', '142', '19', '126', '135', '79', '124', '149', '137'] 246.50000000000026
53 4.930000000000002 ['101', '118', '148', '60', '121', '143', '88', '142', '19', '126', '135', '79', '124', '149', '137'] 246.50000000000026
54 4.930000000000002 ['101', '118', '148', '60', '121', '143', '88', '142', '19', '126', '135', '79', '124', '149', '137'] 246.50000000000026
55 4.930000000000002 ['101', '118', '148', '60', '121', '143', '88', '142', '19', '126', '135', '79', '124', '149', '137'] 246.50000000000026
56 4.930000000000002 ['101', '118', '148', '60', '121', '143', '88', '142', '19', '126', '135', '79', '124', '149', '137'] 246.50000000000026
57 4.930000000000002 ['101', '118', '148', '60', '121', '143', '88', '142', '19', '126', '135', '79', '124', '149', '137'] 246.50000000000026
58 4.930000000000002 ['101', '118', '148', '60', '121', '143', '88', '142', '19', '126', '135', '79', '124', '149', '137'] 246.50000000000026
59 4.930000000000002 ['101', '118', '148', '60', '121', '143', '88', '142', '19', '126', '135', '79', '124', '149', '137'] 246.50000000000026
60 4.930000000000002 ['101', '118', '148', '60', '121', '143', '88', '142', '19', '126', '135', '79', '124', '149', '137'] 246.50000000000026
61 4.930000000000002 ['101', '118', '148', '60', '121', '143', '88', '142', '19', '126', '135', '79', '124', '149', '137'] 246.50000000000026
62 4.930000000000002 ['101', '118', '148', '60', '121', '143', '88', '142', '19', '126', '135', '79', '124', '149', '137'] 246.50000000000026
63 4.930000000000002 ['101', '118', '148', '60', '121', '143', '88', '142', '19', '126', '135', '79', '124', '149', '137'] 246.50000000000026
64 4.930000000000002 ['101', '118', '148', '60', '121', '143', '88', '142', '19', '126', '135', '79', '124', '149', '137'] 246.50000000000026
65 4.930000000000002 ['101', '118', '148', '60', '121', '143', '88', '142', '19', '126', '135', '79', '124', '149', '137'] 246.50000000000026
66 4.930000000000002 ['101', '118', '148', '60', '121', '143', '88', '142', '19', '126', '135', '79', '124', '149', '137'] 246.50000000000026
67 4.930000000000002 ['101', '118', '148', '60', '121', '143', '88', '142', '19', '126', '135', '79', '124', '149', '137'] 246.50000000000026
68 4.930000000000002 ['101', '118', '148', '60', '121', '143', '88', '142', '19', '126', '135', '79', '124', '149', '137'] 246.50000000000026
69 4.930000000000002 ['101', '118', '148', '60', '121', '143', '88', '142', '19', '126', '135', '79', '124', '149', '137'] 246.50000000000026
70 4.930000000000002 ['101', '118', '148', '60', '121', '143', '88', '142', '19', '126', '135', '79', '124', '149', '137'] 246.50000000000026
71 4.930000000000002 ['101', '118', '148', '60', '121', '143', '88', '142', '19', '126', '135', '79', '124', '149', '137'] 246.50000000000026
72 4.930000000000002 ['101', '118', '148', '60', '121', '143', '88', '142', '19', '126', '135', '79', '124', '149', '137'] 246.50000000000026
73 4.930000000000002 ['101', '118', '148', '60', '121', '143', '88', '142', '19', '126', '135', '79', '124', '149', '137'] 246.50000000000026
74 4.930000000000002 ['101', '118', '148', '60', '121', '143', '88', '142', '19', '126', '135', '79', '124', '149', '137'] 246.50000000000026
75 4.930000000000002 ['101', '118', '148', '60', '121', '143', '88', '142', '19', '126', '135', '79', '124', '149', '137'] 246.50000000000026
76 4.930000000000002 ['101', '118', '148', '60', '121', '143', '88', '142', '19', '126', '135', '79', '124', '149', '137'] 246.50000000000026
77 4.930000000000002 ['101', '118', '148', '60', '121', '143', '88', '142', '19', '126', '135', '79', '124', '149', '137'] 246.50000000000026
78 4.930000000000002 ['101', '118', '148', '60', '121', '143', '88', '142', '19', '126', '135', '79', '124', '149', '137'] 246.50000000000026
79 4.930000000000002 ['101', '118', '148', '60', '121', '143', '88', '142', '19', '126', '135', '79', '124', '149', '137'] 246.50000000000026
80 4.930000000000002 ['101', '118', '148', '60', '121', '143', '88', '142', '19', '126', '135', '79', '124', '149', '137'] 246.50000000000026
81 4.930000000000002 ['101', '118', '148', '60', '121', '143', '88', '142', '19', '126', '135', '79', '124', '149', '137'] 246.50000000000026
82 4.930000000000002 ['101', '118', '148', '60', '121', '143', '88', '142', '19', '126', '135', '79', '124', '149', '137'] 246.50000000000026
83 4.930000000000002 ['101', '118', '148', '60', '121', '143', '88', '142', '19', '126', '135', '79', '124', '149', '137'] 246.50000000000026
84 4.930000000000002 ['101', '118', '148', '60', '121', '143', '88', '142', '19', '126', '135', '79', '124', '149', '137'] 246.50000000000026
85 4.930000000000002 ['101', '118', '148', '60', '121', '143', '88', '142', '19', '126', '135', '79', '124', '149', '137'] 246.50000000000026
86 4.930000000000002 ['101', '118', '148', '60', '121', '143', '88', '142', '19', '126', '135', '79', '124', '149', '137'] 246.50000000000026
87 4.930000000000002 ['101', '118', '148', '60', '121', '143', '88', '142', '19', '126', '135', '79', '124', '149', '137'] 246.50000000000026
88 4.930000000000002 ['101', '118', '148', '60', '121', '143', '88', '142', '19', '126', '135', '79', '124', '149', '137'] 246.50000000000026
89 4.930000000000002 ['101', '118', '148', '60', '121', '143', '88', '142', '19', '126', '135', '79', '124', '149', '137'] 246.50000000000026
90 4.930000000000002 ['101', '118', '148', '60', '121', '143', '88', '142', '19', '126', '135', '79', '124', '149', '137'] 246.50000000000026
91 4.930000000000002 ['101', '118', '148', '60', '121', '143', '88', '142', '19', '126', '135', '79', '124', '149', '137'] 246.50000000000026
92 4.930000000000002 ['101', '118', '148', '60', '121', '143', '88', '142', '19', '126', '135', '79', '124', '149', '137'] 246.50000000000026
93 4.930000000000002 ['101', '118', '148', '60', '121', '143', '88', '142', '19', '126', '135', '79', '124', '149', '137'] 246.50000000000026
94 4.930000000000002 ['101', '118', '148', '60', '121', '143', '88', '142', '19', '126', '135', '79', '124', '149', '137'] 246.50000000000026
95 4.930000000000002 ['101', '118', '148', '60', '121', '143', '88', '142', '19', '126', '135', '79', '124', '149', '137'] 246.50000000000026
96 4.930000000000002 ['101', '118', '148', '60', '121', '143', '88', '142', '19', '126', '135', '79', '124', '149', '137'] 246.50000000000026
97 4.930000000000002 ['101', '118', '148', '60', '121', '143', '88', '142', '19', '126', '135', '79', '124', '149', '137'] 246.50000000000026
98 4.930000000000002 ['101', '118', '148', '60', '121', '143', '88', '142', '19', '126', '135', '79', '124', '149', '137'] 246.50000000000026
99 4.930000000000002 ['101', '118', '148', '60', '121', '143', '88', '142', '19', '126', '135', '79', '124', '149', '137'] 246.50000000000026
100 4.930000000000002 ['101', '118', '148', '60', '121', '143', '88', '142', '19', '126', '135', '79', '124', '149', '137'] 246.50000000000026
101 4.930000000000002 ['101', '118', '148', '60', '121', '143', '88', '142', '19', '126', '135', '79', '124', '149', '137'] 246.50000000000026
102 4.930000000000002 ['101', '118', '148', '60', '121', '143', '88', '142', '19', '126', '135', '79', '124', '149', '137'] 246.50000000000026
103 4.930000000000002 ['101', '118', '148', '60', '121', '143', '88', '142', '19', '126', '135', '79', '124', '149', '137'] 246.50000000000026
104 4.930000000000002 ['101', '118', '148', '60', '121', '143', '88', '142', '19', '126', '135', '79', '124', '149', '137'] 246.50000000000026
105 4.930000000000002 ['101', '118', '148', '60', '121', '143', '88', '142', '19', '126', '135', '79', '124', '149', '137'] 246.50000000000026
106 4.923827160493828 ['118', '124', '79', '121', '137', '135', '149', '60', '126', '19', '143', '101', '148', '142', '128'] 246.49382716049408
107 4.923827160493828 ['118', '124', '79', '121', '137', '135', '149', '60', '126', '19', '143', '101', '148', '142', '128'] 246.48148148148175
108 4.923827160493828 ['118', '124', '79', '121', '137', '135', '149', '60', '126', '19', '143', '101', '148', '142', '128'] 246.46296296296322
109 4.923827160493828 ['118', '124', '79', '121', '137', '135', '149', '60', '126', '19', '143', '101', '148', '142', '128'] 246.43827160493854
110 4.923827160493828 ['118', '124', '79', '121', '137', '135', '149', '60', '126', '19', '143', '101', '148', '142', '128'] 246.3888888888891
111 4.923827160493828 ['118', '124', '79', '121', '137', '135', '149', '60', '126', '19', '143', '101', '148', '142', '128'] 246.2777777777779
112 4.923827160493828 ['118', '124', '79', '121', '137', '135', '149', '60', '126', '19', '143', '101', '148', '142', '128'] 246.19135802469143
113 4.923827160493828 ['118', '124', '79', '121', '137', '135', '149', '60', '126', '19', '143', '101', '148', '142', '128'] 246.19135802469143
114 4.923827160493828 ['118', '124', '79', '121', '137', '135', '149', '60', '126', '19', '143', '101', '148', '142', '128'] 246.19135802469143
115 4.923827160493828 ['118', '124', '79', '121', '137', '135', '149', '60', '126', '19', '143', '101', '148', '142', '128'] 246.19135802469143
116 4.923827160493828 ['118', '124', '79', '121', '137', '135', '149', '60', '126', '19', '143', '101', '148', '142', '128'] 246.19135802469143
117 4.923827160493828 ['118', '124', '79', '121', '137', '135', '149', '60', '126', '19', '143', '101', '148', '142', '128'] 246.19135802469143
118 4.923827160493828 ['118', '124', '79', '121', '137', '135', '149', '60', '126', '19', '143', '101', '148', '142', '128'] 246.19135802469143
119 4.923827160493828 ['118', '124', '79', '121', '137', '135', '149', '60', '126', '19', '143', '101', '148', '142', '128'] 246.19135802469143
120 4.923827160493828 ['118', '124', '79', '121', '137', '135', '149', '60', '126', '19', '143', '101', '148', '142', '128'] 246.19135802469143
121 4.923827160493828 ['118', '124', '79', '121', '137', '135', '149', '60', '126', '19', '143', '101', '148', '142', '128'] 246.19135802469143
122 4.923827160493828 ['118', '124', '79', '121', '137', '135', '149', '60', '126', '19', '143', '101', '148', '142', '128'] 246.19135802469143
123 4.923827160493828 ['118', '124', '79', '121', '137', '135', '149', '60', '126', '19', '143', '101', '148', '142', '128'] 246.19135802469143
124 4.923827160493828 ['118', '124', '79', '121', '137', '135', '149', '60', '126', '19', '143', '101', '148', '142', '128'] 246.19135802469143
125 4.923827160493828 ['118', '124', '79', '121', '137', '135', '149', '60', '126', '19', '143', '101', '148', '142', '128'] 246.19135802469143
126 4.923827160493828 ['118', '124', '79', '121', '137', '135', '149', '60', '126', '19', '143', '101', '148', '142', '128'] 246.19135802469143
127 4.923827160493828 ['118', '124', '79', '121', '137', '135', '149', '60', '126', '19', '143', '101', '148', '142', '128'] 246.19135802469143
128 4.923827160493828 ['118', '124', '79', '121', '137', '135', '149', '60', '126', '19', '143', '101', '148', '142', '128'] 246.19135802469143
129 4.923827160493828 ['118', '124', '79', '121', '137', '135', '149', '60', '126', '19', '143', '101', '148', '142', '128'] 246.19135802469143
130 4.923827160493828 ['118', '124', '79', '121', '137', '135', '149', '60', '126', '19', '143', '101', '148', '142', '128'] 246.19135802469143
131 4.923827160493828 ['118', '124', '79', '121', '137', '135', '149', '60', '126', '19', '143', '101', '148', '142', '128'] 246.19135802469143
132 4.923827160493828 ['118', '124', '79', '121', '137', '135', '149', '60', '126', '19', '143', '101', '148', '142', '128'] 246.19135802469143
133 4.923827160493828 ['118', '124', '79', '121', '137', '135', '149', '60', '126', '19', '143', '101', '148', '142', '128'] 246.19135802469143
134 4.923827160493828 ['118', '124', '79', '121', '137', '135', '149', '60', '126', '19', '143', '101', '148', '142', '128'] 246.19135802469143
135 4.923827160493828 ['118', '124', '79', '121', '137', '135', '149', '60', '126', '19', '143', '101', '148', '142', '128'] 246.19135802469143
136 4.923827160493828 ['118', '124', '79', '121', '137', '135', '149', '60', '126', '19', '143', '101', '148', '142', '128'] 246.19135802469143
137 4.923827160493828 ['118', '124', '79', '121', '137', '135', '149', '60', '126', '19', '143', '101', '148', '142', '128'] 246.19135802469143
138 4.923827160493828 ['118', '124', '79', '121', '137', '135', '149', '60', '126', '19', '143', '101', '148', '142', '128'] 246.19135802469143
139 4.923827160493828 ['118', '124', '79', '121', '137', '135', '149', '60', '126', '19', '143', '101', '148', '142', '128'] 246.19135802469143
140 4.923827160493828 ['118', '124', '79', '121', '137', '135', '149', '60', '126', '19', '143', '101', '148', '142', '128'] 246.19135802469143
141 4.923827160493828 ['118', '124', '79', '121', '137', '135', '149', '60', '126', '19', '143', '101', '148', '142', '128'] 246.19135802469143
142 4.923827160493828 ['118', '124', '79', '121', '137', '135', '149', '60', '126', '19', '143', '101', '148', '142', '128'] 246.19135802469143
143 4.923827160493828 ['118', '124', '79', '121', '137', '135', '149', '60', '126', '19', '143', '101', '148', '142', '128'] 246.19135802469143
144 4.923827160493828 ['118', '124', '79', '121', '137', '135', '149', '60', '126', '19', '143', '101', '148', '142', '128'] 246.19135802469143
145 4.923827160493828 ['118', '124', '79', '121', '137', '135', '149', '60', '126', '19', '143', '101', '148', '142', '128'] 246.19135802469143
146 4.923827160493828 ['118', '124', '79', '121', '137', '135', '149', '60', '126', '19', '143', '101', '148', '142', '128'] 246.19135802469143
147 4.923827160493828 ['118', '124', '79', '121', '137', '135', '149', '60', '126', '19', '143', '101', '148', '142', '128'] 246.19135802469143
148 4.923827160493828 ['118', '124', '79', '121', '137', '135', '149', '60', '126', '19', '143', '101', '148', '142', '128'] 246.19135802469143
149 4.923827160493828 ['118', '124', '79', '121', '137', '135', '149', '60', '126', '19', '143', '101', '148', '142', '128'] 246.19135802469143
150 4.923827160493828 ['118', '124', '79', '121', '137', '135', '149', '60', '126', '19', '143', '101', '148', '142', '128'] 246.19135802469143
151 4.923827160493828 ['118', '124', '79', '121', '137', '135', '149', '60', '126', '19', '143', '101', '148', '142', '128'] 246.19135802469143
152 4.923827160493828 ['118', '124', '79', '121', '137', '135', '149', '60', '126', '19', '143', '101', '148', '142', '128'] 246.19135802469143
153 4.923827160493828 ['118', '124', '79', '121', '137', '135', '149', '60', '126', '19', '143', '101', '148', '142', '128'] 246.19135802469143
154 4.923827160493828 ['118', '124', '79', '121', '137', '135', '149', '60', '126', '19', '143', '101', '148', '142', '128'] 246.19135802469143
155 4.923827160493828 ['118', '124', '79', '121', '137', '135', '149', '60', '126', '19', '143', '101', '148', '142', '128'] 246.19135802469143
156 4.923827160493828 ['118', '124', '79', '121', '137', '135', '149', '60', '126', '19', '143', '101', '148', '142', '128'] 246.19135802469143
157 4.923827160493828 ['118', '124', '79', '121', '137', '135', '149', '60', '126', '19', '143', '101', '148', '142', '128'] 246.19135802469143
158 4.923827160493828 ['118', '124', '79', '121', '137', '135', '149', '60', '126', '19', '143', '101', '148', '142', '128'] 246.19135802469143
159 4.923827160493828 ['118', '124', '79', '121', '137', '135', '149', '60', '126', '19', '143', '101', '148', '142', '128'] 246.19135802469143
160 4.923827160493828 ['118', '124', '79', '121', '137', '135', '149', '60', '126', '19', '143', '101', '148', '142', '128'] 246.19135802469143
161 4.923827160493828 ['118', '124', '79', '121', '137', '135', '149', '60', '126', '19', '143', '101', '148', '142', '128'] 246.19135802469143
162 4.923827160493828 ['118', '124', '79', '121', '137', '135', '149', '60', '126', '19', '143', '101', '148', '142', '128'] 246.19135802469143
163 4.923827160493828 ['118', '124', '79', '121', '137', '135', '149', '60', '126', '19', '143', '101', '148', '142', '128'] 246.19135802469143
164 4.923827160493828 ['118', '124', '79', '121', '137', '135', '149', '60', '126', '19', '143', '101', '148', '142', '128'] 246.19135802469143
165 4.923827160493828 ['118', '124', '79', '121', '137', '135', '149', '60', '126', '19', '143', '101', '148', '142', '128'] 246.19135802469143
166 4.923827160493828 ['118', '124', '79', '121', '137', '135', '149', '60', '126', '19', '143', '101', '148', '142', '128'] 246.19135802469143
167 4.923827160493828 ['118', '124', '79', '121', '137', '135', '149', '60', '126', '19', '143', '101', '148', '142', '128'] 246.19135802469143
168 4.923827160493828 ['118', '124', '79', '121', '137', '135', '149', '60', '126', '19', '143', '101', '148', '142', '128'] 246.19135802469143
169 4.923827160493828 ['118', '124', '79', '121', '137', '135', '149', '60', '126', '19', '143', '101', '148', '142', '128'] 246.19135802469143
170 4.923827160493828 ['118', '124', '79', '121', '137', '135', '149', '60', '126', '19', '143', '101', '148', '142', '128'] 246.19135802469143
171 4.923827160493828 ['118', '124', '79', '121', '137', '135', '149', '60', '126', '19', '143', '101', '148', '142', '128'] 246.19135802469143
172 4.923827160493828 ['118', '124', '79', '121', '137', '135', '149', '60', '126', '19', '143', '101', '148', '142', '128'] 246.19135802469143
173 4.923827160493828 ['118', '124', '79', '121', '137', '135', '149', '60', '126', '19', '143', '101', '148', '142', '128'] 246.19135802469143
174 4.923827160493828 ['118', '124', '79', '121', '137', '135', '149', '60', '126', '19', '143', '101', '148', '142', '128'] 246.19135802469143
175 4.923827160493828 ['118', '124', '79', '121', '137', '135', '149', '60', '126', '19', '143', '101', '148', '142', '128'] 246.19135802469143
176 4.923827160493828 ['118', '124', '79', '121', '137', '135', '149', '60', '126', '19', '143', '101', '148', '142', '128'] 246.19135802469143
177 4.923827160493828 ['118', '124', '79', '121', '137', '135', '149', '60', '126', '19', '143', '101', '148', '142', '128'] 246.19135802469143
178 4.923827160493828 ['118', '124', '79', '121', '137', '135', '149', '60', '126', '19', '143', '101', '148', '142', '128'] 246.19135802469143
179 4.923827160493828 ['118', '124', '79', '121', '137', '135', '149', '60', '126', '19', '143', '101', '148', '142', '128'] 246.19135802469143
180 4.923827160493828 ['118', '124', '79', '121', '137', '135', '149', '60', '126', '19', '143', '101', '148', '142', '128'] 246.19135802469143
181 4.923827160493828 ['118', '124', '79', '121', '137', '135', '149', '60', '126', '19', '143', '101', '148', '142', '128'] 246.19135802469143
182 4.923827160493828 ['118', '124', '79', '121', '137', '135', '149', '60', '126', '19', '143', '101', '148', '142', '128'] 246.19135802469143
183 4.923827160493828 ['118', '124', '79', '121', '137', '135', '149', '60', '126', '19', '143', '101', '148', '142', '128'] 246.19135802469143
184 4.923827160493828 ['118', '124', '79', '121', '137', '135', '149', '60', '126', '19', '143', '101', '148', '142', '128'] 246.19135802469143
185 4.923827160493828 ['118', '124', '79', '121', '137', '135', '149', '60', '126', '19', '143', '101', '148', '142', '128'] 246.19135802469143
186 4.923827160493828 ['118', '124', '79', '121', '137', '135', '149', '60', '126', '19', '143', '101', '148', '142', '128'] 246.19135802469143
187 4.923827160493828 ['118', '124', '79', '121', '137', '135', '149', '60', '126', '19', '143', '101', '148', '142', '128'] 246.19135802469143
188 4.923827160493828 ['118', '124', '79', '121', '137', '135', '149', '60', '126', '19', '143', '101', '148', '142', '128'] 246.19135802469143
189 4.923827160493828 ['118', '124', '79', '121', '137', '135', '149', '60', '126', '19', '143', '101', '148', '142', '128'] 246.19135802469143
190 4.923827160493828 ['118', '124', '79', '121', '137', '135', '149', '60', '126', '19', '143', '101', '148', '142', '128'] 246.19135802469143
191 4.923827160493828 ['118', '124', '79', '121', '137', '135', '149', '60', '126', '19', '143', '101', '148', '142', '128'] 246.19135802469143
192 4.923827160493828 ['118', '124', '79', '121', '137', '135', '149', '60', '126', '19', '143', '101', '148', '142', '128'] 246.19135802469143
193 4.923827160493828 ['118', '124', '79', '121', '137', '135', '149', '60', '126', '19', '143', '101', '148', '142', '128'] 246.19135802469143
194 4.923827160493828 ['118', '124', '79', '121', '137', '135', '149', '60', '126', '19', '143', '101', '148', '142', '128'] 246.19135802469143
195 4.923827160493828 ['118', '124', '79', '121', '137', '135', '149', '60', '126', '19', '143', '101', '148', '142', '128'] 246.19135802469143
196 4.923827160493828 ['118', '124', '79', '121', '137', '135', '149', '60', '126', '19', '143', '101', '148', '142', '128'] 246.19135802469143
197 4.923827160493828 ['118', '124', '79', '121', '137', '135', '149', '60', '126', '19', '143', '101', '148', '142', '128'] 246.19135802469143
198 4.923827160493828 ['118', '124', '79', '121', '137', '135', '149', '60', '126', '19', '143', '101', '148', '142', '128'] 246.19135802469143
199 4.923827160493828 ['118', '124', '79', '121', '137', '135', '149', '60', '126', '19', '143', '101', '148', '142', '128'] 246.19135802469143
