0 4.9411764705882355 ['35', '13', '32'] 276.70588235294116
1 4.823529411764706 ['13', '8', '35'] 265.64705882352933
2 4.705882352941177 ['16', '9', '37'] 255.88235294117644
3 4.470588235294118 ['37', '17', '35'] 247.0588235294118
4 4.352941176470588 ['16', '35', '37'] 239.05882352941168
5 4.352941176470588 ['16', '35', '37'] 228.11764705882374
6 4.352941176470588 ['16', '35', '37'] 221.52941176470594
7 4.352941176470588 ['16', '35', '37'] 218.35294117647052
8 4.352941176470588 ['16', '35', '37'] 217.6470588235293
9 4.352941176470588 ['16', '35', '37'] 217.6470588235293
10 4.352941176470588 ['16', '35', '37'] 217.6470588235293
11 4.352941176470588 ['16', '35', '37'] 217.6470588235293
12 4.352941176470588 ['16', '35', '37'] 217.6470588235293
13 4.352941176470588 ['16', '35', '37'] 217.6470588235293
14 4.352941176470588 ['16', '35', '37'] 217.6470588235293
15 4.352941176470588 ['16', '35', '37'] 217.6470588235293
16 4.352941176470588 ['16', '35', '37'] 217.6470588235293
17 4.352941176470588 ['16', '35', '37'] 217.6470588235293
18 4.352941176470588 ['16', '35', '37'] 217.6470588235293
19 4.352941176470588 ['16', '35', '37'] 217.6470588235293
20 4.352941176470588 ['16', '35', '37'] 217.6470588235293
21 4.352941176470588 ['16', '35', '37'] 217.6470588235293
22 4.352941176470588 ['16', '35', '37'] 217.6470588235293
23 4.352941176470588 ['16', '35', '37'] 217.6470588235293
24 4.352941176470588 ['16', '35', '37'] 217.6470588235293
25 4.352941176470588 ['16', '35', '37'] 217.6470588235293
26 4.352941176470588 ['16', '35', '37'] 217.6470588235293
27 4.352941176470588 ['16', '35', '37'] 217.6470588235293
28 4.352941176470588 ['16', '35', '37'] 217.6470588235293
29 4.352941176470588 ['16', '35', '37'] 217.6470588235293
30 4.352941176470588 ['16', '35', '37'] 217.6470588235293
31 4.352941176470588 ['16', '35', '37'] 217.6470588235293
32 4.352941176470588 ['16', '35', '37'] 217.6470588235293
33 4.352941176470588 ['16', '35', '37'] 217.6470588235293
34 4.352941176470588 ['16', '35', '37'] 217.6470588235293
35 4.352941176470588 ['16', '35', '37'] 217.6470588235293
36 4.352941176470588 ['16', '35', '37'] 217.6470588235293
37 4.352941176470588 ['16', '35', '37'] 217.6470588235293
38 4.352941176470588 ['16', '35', '37'] 217.6470588235293
39 4.352941176470588 ['16', '35', '37'] 217.6470588235293
40 4.352941176470588 ['16', '35', '37'] 217.6470588235293
41 4.352941176470588 ['16', '35', '37'] 217.6470588235293
42 4.352941176470588 ['16', '35', '37'] 217.6470588235293
43 4.352941176470588 ['16', '35', '37'] 217.6470588235293
44 4.352941176470588 ['16', '35', '37'] 217.6470588235293
45 4.352941176470588 ['16', '35', '37'] 217.6470588235293
46 4.352941176470588 ['16', '35', '37'] 217.6470588235293
47 4.352941176470588 ['16', '35', '37'] 217.6470588235293
48 4.352941176470588 ['16', '35', '37'] 217.6470588235293
49 4.352941176470588 ['16', '35', '37'] 217.6470588235293
50 4.352941176470588 ['16', '35', '37'] 217.6470588235293
51 4.352941176470588 ['16', '35', '37'] 217.6470588235293
52 4.352941176470588 ['16', '35', '37'] 217.6470588235293
53 4.352941176470588 ['16', '35', '37'] 217.6470588235293
54 4.352941176470588 ['16', '35', '37'] 217.6470588235293
55 4.352941176470588 ['16', '35', '37'] 217.6470588235293
56 4.352941176470588 ['16', '35', '37'] 217.6470588235293
57 4.352941176470588 ['16', '35', '37'] 217.6470588235293
58 4.352941176470588 ['16', '35', '37'] 217.6470588235293
59 4.352941176470588 ['16', '35', '37'] 217.6470588235293
60 4.352941176470588 ['16', '35', '37'] 217.6470588235293
61 4.352941176470588 ['16', '35', '37'] 217.6470588235293
62 4.352941176470588 ['16', '35', '37'] 217.6470588235293
63 4.352941176470588 ['16', '35', '37'] 217.6470588235293
64 4.352941176470588 ['16', '35', '37'] 217.6470588235293
65 4.352941176470588 ['16', '35', '37'] 217.6470588235293
66 4.352941176470588 ['16', '35', '37'] 217.6470588235293
67 4.352941176470588 ['16', '35', '37'] 217.6470588235293
68 4.352941176470588 ['16', '35', '37'] 217.6470588235293
69 4.352941176470588 ['16', '35', '37'] 217.6470588235293
70 4.352941176470588 ['16', '35', '37'] 217.6470588235293
71 4.352941176470588 ['16', '35', '37'] 217.6470588235293
72 4.352941176470588 ['16', '35', '37'] 217.6470588235293
73 4.352941176470588 ['16', '35', '37'] 217.6470588235293
74 4.352941176470588 ['16', '35', '37'] 217.6470588235293
75 4.352941176470588 ['16', '35', '37'] 217.6470588235293
76 4.352941176470588 ['16', '35', '37'] 217.6470588235293
77 4.352941176470588 ['16', '35', '37'] 217.6470588235293
78 4.352941176470588 ['16', '35', '37'] 217.6470588235293
79 4.352941176470588 ['16', '35', '37'] 217.6470588235293
80 4.352941176470588 ['16', '35', '37'] 217.6470588235293
81 4.352941176470588 ['16', '35', '37'] 217.6470588235293
82 4.352941176470588 ['16', '35', '37'] 217.6470588235293
83 4.352941176470588 ['16', '35', '37'] 217.6470588235293
84 4.352941176470588 ['16', '35', '37'] 217.6470588235293
85 4.352941176470588 ['16', '35', '37'] 217.6470588235293
86 4.352941176470588 ['16', '35', '37'] 217.6470588235293
87 4.352941176470588 ['16', '35', '37'] 217.6470588235293
88 4.352941176470588 ['16', '35', '37'] 217.6470588235293
89 4.352941176470588 ['16', '35', '37'] 217.6470588235293
90 4.352941176470588 ['16', '35', '37'] 217.6470588235293
91 4.352941176470588 ['16', '35', '37'] 217.6470588235293
92 4.352941176470588 ['16', '35', '37'] 217.6470588235293
93 4.352941176470588 ['16', '35', '37'] 217.6470588235293
94 4.352941176470588 ['16', '35', '37'] 217.6470588235293
95 4.352941176470588 ['16', '35', '37'] 217.6470588235293
96 4.352941176470588 ['16', '35', '37'] 217.6470588235293
97 4.352941176470588 ['16', '35', '37'] 217.6470588235293
98 4.352941176470588 ['16', '35', '37'] 217.6470588235293
99 4.352941176470588 ['16', '35', '37'] 217.6470588235293
100 4.352941176470588 ['16', '35', '37'] 217.6470588235293
101 4.352941176470588 ['16', '35', '37'] 217.6470588235293
102 4.352941176470588 ['16', '35', '37'] 217.6470588235293
103 4.352941176470588 ['16', '35', '37'] 217.6470588235293
104 4.352941176470588 ['16', '35', '37'] 217.6470588235293
105 4.352941176470588 ['16', '35', '37'] 217.6470588235293
106 4.352941176470588 ['16', '35', '37'] 217.6470588235293
107 4.352941176470588 ['16', '35', '37'] 217.6470588235293
108 4.352941176470588 ['16', '35', '37'] 217.6470588235293
109 4.352941176470588 ['16', '35', '37'] 217.6470588235293
110 4.352941176470588 ['16', '35', '37'] 217.6470588235293
111 4.352941176470588 ['16', '35', '37'] 217.6470588235293
112 4.352941176470588 ['16', '35', '37'] 217.6470588235293
113 4.352941176470588 ['16', '35', '37'] 217.6470588235293
114 4.352941176470588 ['16', '35', '37'] 217.6470588235293
115 4.352941176470588 ['16', '35', '37'] 217.6470588235293
116 4.352941176470588 ['16', '35', '37'] 217.6470588235293
117 4.352941176470588 ['16', '35', '37'] 217.6470588235293
118 4.352941176470588 ['16', '35', '37'] 217.6470588235293
119 4.352941176470588 ['16', '35', '37'] 217.6470588235293
120 4.352941176470588 ['16', '35', '37'] 217.6470588235293
121 4.352941176470588 ['16', '35', '37'] 217.6470588235293
122 4.352941176470588 ['16', '35', '37'] 217.6470588235293
123 4.352941176470588 ['16', '35', '37'] 217.6470588235293
124 4.352941176470588 ['16', '35', '37'] 217.6470588235293
125 4.352941176470588 ['16', '35', '37'] 217.6470588235293
126 4.352941176470588 ['16', '35', '37'] 217.6470588235293
127 4.352941176470588 ['16', '35', '37'] 217.6470588235293
128 4.352941176470588 ['16', '35', '37'] 217.6470588235293
129 4.352941176470588 ['16', '35', '37'] 217.6470588235293
130 4.352941176470588 ['16', '35', '37'] 217.6470588235293
131 4.352941176470588 ['16', '35', '37'] 217.6470588235293
132 4.352941176470588 ['16', '35', '37'] 217.6470588235293
133 4.352941176470588 ['16', '35', '37'] 217.6470588235293
134 4.352941176470588 ['16', '35', '37'] 217.6470588235293
135 4.352941176470588 ['16', '35', '37'] 217.6470588235293
136 4.352941176470588 ['16', '35', '37'] 217.6470588235293
137 4.352941176470588 ['16', '35', '37'] 217.6470588235293
138 4.352941176470588 ['16', '35', '37'] 217.6470588235293
139 4.352941176470588 ['16', '35', '37'] 217.6470588235293
140 4.352941176470588 ['16', '35', '37'] 217.6470588235293
141 4.352941176470588 ['16', '35', '37'] 217.6470588235293
142 4.352941176470588 ['16', '35', '37'] 217.6470588235293
143 4.352941176470588 ['16', '35', '37'] 217.6470588235293
144 4.352941176470588 ['16', '35', '37'] 217.6470588235293
145 4.352941176470588 ['16', '35', '37'] 217.6470588235293
146 4.352941176470588 ['16', '35', '37'] 217.6470588235293
147 4.352941176470588 ['16', '35', '37'] 217.6470588235293
148 4.352941176470588 ['16', '35', '37'] 217.6470588235293
149 4.352941176470588 ['16', '35', '37'] 217.6470588235293
150 4.352941176470588 ['16', '35', '37'] 217.6470588235293
151 4.352941176470588 ['16', '35', '37'] 217.6470588235293
152 4.352941176470588 ['16', '35', '37'] 217.6470588235293
153 4.352941176470588 ['16', '35', '37'] 217.6470588235293
154 4.352941176470588 ['16', '35', '37'] 217.6470588235293
155 4.352941176470588 ['16', '35', '37'] 217.6470588235293
156 4.352941176470588 ['16', '35', '37'] 217.6470588235293
157 4.352941176470588 ['16', '35', '37'] 217.6470588235293
158 4.352941176470588 ['16', '35', '37'] 217.6470588235293
159 4.352941176470588 ['16', '35', '37'] 217.6470588235293
160 4.352941176470588 ['16', '35', '37'] 217.6470588235293
161 4.352941176470588 ['16', '35', '37'] 217.6470588235293
162 4.352941176470588 ['16', '35', '37'] 217.6470588235293
163 4.352941176470588 ['16', '35', '37'] 217.6470588235293
164 4.352941176470588 ['16', '35', '37'] 217.6470588235293
165 4.352941176470588 ['16', '35', '37'] 217.6470588235293
166 4.352941176470588 ['16', '35', '37'] 217.6470588235293
167 4.352941176470588 ['16', '35', '37'] 217.6470588235293
168 4.352941176470588 ['16', '35', '37'] 217.6470588235293
169 4.352941176470588 ['16', '35', '37'] 217.6470588235293
170 4.352941176470588 ['16', '35', '37'] 217.6470588235293
171 4.352941176470588 ['16', '35', '37'] 217.6470588235293
172 4.352941176470588 ['16', '35', '37'] 217.6470588235293
173 4.352941176470588 ['16', '35', '37'] 217.6470588235293
174 4.352941176470588 ['16', '35', '37'] 217.6470588235293
175 4.352941176470588 ['16', '35', '37'] 217.6470588235293
176 4.352941176470588 ['16', '35', '37'] 217.6470588235293
177 4.352941176470588 ['16', '35', '37'] 217.6470588235293
178 4.352941176470588 ['16', '35', '37'] 217.6470588235293
179 4.352941176470588 ['16', '35', '37'] 217.6470588235293
180 4.352941176470588 ['16', '35', '37'] 217.6470588235293
181 4.352941176470588 ['16', '35', '37'] 217.6470588235293
182 4.352941176470588 ['16', '35', '37'] 217.6470588235293
183 4.352941176470588 ['16', '35', '37'] 217.6470588235293
184 4.352941176470588 ['16', '35', '37'] 217.6470588235293
185 4.352941176470588 ['16', '35', '37'] 217.6470588235293
186 4.352941176470588 ['16', '35', '37'] 217.6470588235293
187 4.352941176470588 ['16', '35', '37'] 217.6470588235293
188 4.352941176470588 ['16', '35', '37'] 217.6470588235293
189 4.352941176470588 ['16', '35', '37'] 217.6470588235293
190 4.352941176470588 ['16', '35', '37'] 217.6470588235293
191 4.352941176470588 ['16', '35', '37'] 217.6470588235293
192 4.352941176470588 ['16', '35', '37'] 217.6470588235293
193 4.352941176470588 ['16', '35', '37'] 217.6470588235293
194 4.352941176470588 ['16', '35', '37'] 217.6470588235293
195 4.352941176470588 ['16', '35', '37'] 217.6470588235293
196 4.352941176470588 ['16', '35', '37'] 217.6470588235293
197 4.352941176470588 ['16', '35', '37'] 217.6470588235293
198 4.352941176470588 ['16', '35', '37'] 217.6470588235293
199 4.352941176470588 ['16', '35', '37'] 217.6470588235293
