0 409.84090909090907 ['29', '22', '40', '24'] 22345.15909090909
1 396.47727272727275 ['24', '29', '1', '6'] 21609.93181818182
2 379.1363636363636 ['1', '24', '29', '22'] 20924.38636363637
3 378.1363636363636 ['5', '29', '15', '1'] 20254.181818181813
4 365.1363636363636 ['1', '24', '5', '29'] 19592.522727272724
5 365.1363636363636 ['1', '24', '5', '29'] 19114.204545454555
6 363.5681818181818 ['46', '1', '24', '5'] 18827.75000000001
7 363.5681818181818 ['46', '1', '24', '5'] 18594.568181818187
8 363.5681818181818 ['46', '1', '24', '5'] 18386.81818181817
9 363.5681818181818 ['46', '1', '24', '5'] 18216.045454545463
10 363.5681818181818 ['46', '1', '24', '5'] 18179.977272727272
11 363.5681818181818 ['46', '1', '24', '5'] 18178.40909090909
12 363.5681818181818 ['46', '1', '24', '5'] 18178.40909090909
13 363.5681818181818 ['46', '1', '24', '5'] 18178.40909090909
14 363.5681818181818 ['46', '1', '24', '5'] 18178.40909090909
15 363.5681818181818 ['46', '1', '24', '5'] 18178.40909090909
16 363.5681818181818 ['46', '1', '24', '5'] 18178.40909090909
17 363.5681818181818 ['46', '1', '24', '5'] 18178.40909090909
18 363.5681818181818 ['46', '1', '24', '5'] 18178.40909090909
19 363.5681818181818 ['46', '1', '24', '5'] 18178.40909090909
20 363.5681818181818 ['46', '1', '24', '5'] 18178.40909090909
21 363.5681818181818 ['46', '1', '24', '5'] 18178.40909090909
22 363.5681818181818 ['46', '1', '24', '5'] 18178.40909090909
23 363.5681818181818 ['46', '1', '24', '5'] 18178.40909090909
24 363.5681818181818 ['46', '1', '24', '5'] 18178.40909090909
25 363.5681818181818 ['46', '1', '24', '5'] 18178.40909090909
26 363.5681818181818 ['46', '1', '24', '5'] 18178.40909090909
27 363.5681818181818 ['46', '1', '24', '5'] 18178.40909090909
28 363.5681818181818 ['46', '1', '24', '5'] 18178.40909090909
29 363.5681818181818 ['46', '1', '24', '5'] 18178.40909090909
30 363.5681818181818 ['46', '1', '24', '5'] 18178.40909090909
31 363.5681818181818 ['46', '1', '24', '5'] 18178.40909090909
32 363.5681818181818 ['46', '1', '24', '5'] 18178.40909090909
33 363.5681818181818 ['46', '1', '24', '5'] 18178.40909090909
34 363.5681818181818 ['46', '1', '24', '5'] 18178.40909090909
35 363.5681818181818 ['46', '1', '24', '5'] 18178.40909090909
36 363.5681818181818 ['46', '1', '24', '5'] 18178.40909090909
37 363.5681818181818 ['46', '1', '24', '5'] 18178.40909090909
38 363.5681818181818 ['46', '1', '24', '5'] 18178.40909090909
39 363.5681818181818 ['46', '1', '24', '5'] 18178.40909090909
40 363.5681818181818 ['46', '1', '24', '5'] 18178.40909090909
41 363.5681818181818 ['46', '1', '24', '5'] 18178.40909090909
42 363.5681818181818 ['46', '1', '24', '5'] 18178.40909090909
43 363.5681818181818 ['46', '1', '24', '5'] 18178.40909090909
44 363.5681818181818 ['46', '1', '24', '5'] 18178.40909090909
45 363.5681818181818 ['46', '1', '24', '5'] 18178.40909090909
46 363.5681818181818 ['46', '1', '24', '5'] 18178.40909090909
47 363.5681818181818 ['46', '1', '24', '5'] 18178.40909090909
48 363.5681818181818 ['46', '1', '24', '5'] 18178.40909090909
49 363.5681818181818 ['46', '1', '24', '5'] 18178.40909090909
50 363.5681818181818 ['46', '1', '24', '5'] 18178.40909090909
51 363.5681818181818 ['46', '1', '24', '5'] 18178.40909090909
52 363.5681818181818 ['46', '1', '24', '5'] 18178.40909090909
53 363.5681818181818 ['46', '1', '24', '5'] 18178.40909090909
54 363.5681818181818 ['46', '1', '24', '5'] 18178.40909090909
55 363.5681818181818 ['46', '1', '24', '5'] 18178.40909090909
56 363.5681818181818 ['46', '1', '24', '5'] 18178.40909090909
57 363.5681818181818 ['46', '1', '24', '5'] 18178.40909090909
58 363.5681818181818 ['46', '1', '24', '5'] 18178.40909090909
59 363.5681818181818 ['46', '1', '24', '5'] 18178.40909090909
60 363.5681818181818 ['46', '1', '24', '5'] 18178.40909090909
61 363.5681818181818 ['46', '1', '24', '5'] 18178.40909090909
62 363.5681818181818 ['46', '1', '24', '5'] 18178.40909090909
63 363.5681818181818 ['46', '1', '24', '5'] 18178.40909090909
64 363.5681818181818 ['46', '1', '24', '5'] 18178.40909090909
65 363.5681818181818 ['46', '1', '24', '5'] 18178.40909090909
66 363.5681818181818 ['46', '1', '24', '5'] 18178.40909090909
67 363.5681818181818 ['46', '1', '24', '5'] 18178.40909090909
68 363.5681818181818 ['46', '1', '24', '5'] 18178.40909090909
69 363.5681818181818 ['46', '1', '24', '5'] 18178.40909090909
70 363.5681818181818 ['46', '1', '24', '5'] 18178.40909090909
71 363.5681818181818 ['46', '1', '24', '5'] 18178.40909090909
72 363.5681818181818 ['46', '1', '24', '5'] 18178.40909090909
73 363.5681818181818 ['46', '1', '24', '5'] 18178.40909090909
74 363.5681818181818 ['46', '1', '24', '5'] 18178.40909090909
75 363.5681818181818 ['46', '1', '24', '5'] 18178.40909090909
76 363.5681818181818 ['46', '1', '24', '5'] 18178.40909090909
77 363.5681818181818 ['46', '1', '24', '5'] 18178.40909090909
78 363.5681818181818 ['46', '1', '24', '5'] 18178.40909090909
79 363.5681818181818 ['46', '1', '24', '5'] 18178.40909090909
80 363.5681818181818 ['46', '1', '24', '5'] 18178.40909090909
81 363.5681818181818 ['46', '1', '24', '5'] 18178.40909090909
82 363.5681818181818 ['46', '1', '24', '5'] 18178.40909090909
83 363.5681818181818 ['46', '1', '24', '5'] 18178.40909090909
84 363.5681818181818 ['46', '1', '24', '5'] 18178.40909090909
85 363.5681818181818 ['46', '1', '24', '5'] 18178.40909090909
86 363.5681818181818 ['46', '1', '24', '5'] 18178.40909090909
87 363.5681818181818 ['46', '1', '24', '5'] 18178.40909090909
88 363.5681818181818 ['46', '1', '24', '5'] 18178.40909090909
89 363.5681818181818 ['46', '1', '24', '5'] 18178.40909090909
90 363.5681818181818 ['46', '1', '24', '5'] 18178.40909090909
91 363.5681818181818 ['46', '1', '24', '5'] 18178.40909090909
92 363.5681818181818 ['46', '1', '24', '5'] 18178.40909090909
93 363.5681818181818 ['46', '1', '24', '5'] 18178.40909090909
94 363.5681818181818 ['46', '1', '24', '5'] 18178.40909090909
95 363.5681818181818 ['46', '1', '24', '5'] 18178.40909090909
96 363.5681818181818 ['46', '1', '24', '5'] 18178.40909090909
97 363.5681818181818 ['46', '1', '24', '5'] 18178.40909090909
98 363.5681818181818 ['46', '1', '24', '5'] 18178.40909090909
99 363.5681818181818 ['46', '1', '24', '5'] 18178.40909090909
100 363.5681818181818 ['46', '1', '24', '5'] 18178.40909090909
101 363.5681818181818 ['46', '1', '24', '5'] 18178.40909090909
102 363.5681818181818 ['46', '1', '24', '5'] 18178.40909090909
103 363.5681818181818 ['46', '1', '24', '5'] 18178.40909090909
104 363.5681818181818 ['46', '1', '24', '5'] 18178.40909090909
105 363.5681818181818 ['46', '1', '24', '5'] 18178.40909090909
106 363.5681818181818 ['46', '1', '24', '5'] 18178.40909090909
107 363.5681818181818 ['46', '1', '24', '5'] 18178.40909090909
108 363.5681818181818 ['46', '1', '24', '5'] 18178.40909090909
109 363.5681818181818 ['46', '1', '24', '5'] 18178.40909090909
110 363.5681818181818 ['46', '1', '24', '5'] 18178.40909090909
111 363.5681818181818 ['46', '1', '24', '5'] 18178.40909090909
112 363.5681818181818 ['46', '1', '24', '5'] 18178.40909090909
113 363.5681818181818 ['46', '1', '24', '5'] 18178.40909090909
114 363.5681818181818 ['46', '1', '24', '5'] 18178.40909090909
115 363.5681818181818 ['46', '1', '24', '5'] 18178.40909090909
116 363.5681818181818 ['46', '1', '24', '5'] 18178.40909090909
117 363.5681818181818 ['46', '1', '24', '5'] 18178.40909090909
118 363.5681818181818 ['46', '1', '24', '5'] 18178.40909090909
119 363.5681818181818 ['46', '1', '24', '5'] 18178.40909090909
120 363.5681818181818 ['46', '1', '24', '5'] 18178.40909090909
121 363.5681818181818 ['46', '1', '24', '5'] 18178.40909090909
122 363.5681818181818 ['46', '1', '24', '5'] 18178.40909090909
123 363.5681818181818 ['46', '1', '24', '5'] 18178.40909090909
124 363.5681818181818 ['46', '1', '24', '5'] 18178.40909090909
125 363.5681818181818 ['46', '1', '24', '5'] 18178.40909090909
126 363.5681818181818 ['46', '1', '24', '5'] 18178.40909090909
127 363.5681818181818 ['46', '1', '24', '5'] 18178.40909090909
128 363.5681818181818 ['46', '1', '24', '5'] 18178.40909090909
129 363.5681818181818 ['46', '1', '24', '5'] 18178.40909090909
130 363.5681818181818 ['46', '1', '24', '5'] 18178.40909090909
131 363.5681818181818 ['46', '1', '24', '5'] 18178.40909090909
132 363.5681818181818 ['46', '1', '24', '5'] 18178.40909090909
133 363.5681818181818 ['46', '1', '24', '5'] 18178.40909090909
134 363.5681818181818 ['46', '1', '24', '5'] 18178.40909090909
135 363.5681818181818 ['46', '1', '24', '5'] 18178.40909090909
136 363.5681818181818 ['46', '1', '24', '5'] 18178.40909090909
137 363.5681818181818 ['46', '1', '24', '5'] 18178.40909090909
138 363.5681818181818 ['46', '1', '24', '5'] 18178.40909090909
139 363.5681818181818 ['46', '1', '24', '5'] 18178.40909090909
140 363.5681818181818 ['46', '1', '24', '5'] 18178.40909090909
141 363.5681818181818 ['46', '1', '24', '5'] 18178.40909090909
142 363.5681818181818 ['46', '1', '24', '5'] 18178.40909090909
143 363.5681818181818 ['46', '1', '24', '5'] 18178.40909090909
144 363.5681818181818 ['46', '1', '24', '5'] 18178.40909090909
145 363.5681818181818 ['46', '1', '24', '5'] 18178.40909090909
146 363.5681818181818 ['46', '1', '24', '5'] 18178.40909090909
147 363.5681818181818 ['46', '1', '24', '5'] 18178.40909090909
148 363.5681818181818 ['46', '1', '24', '5'] 18178.40909090909
149 363.5681818181818 ['46', '1', '24', '5'] 18178.40909090909
150 363.5681818181818 ['46', '1', '24', '5'] 18178.40909090909
151 363.5681818181818 ['46', '1', '24', '5'] 18178.40909090909
152 363.5681818181818 ['46', '1', '24', '5'] 18178.40909090909
153 363.5681818181818 ['46', '1', '24', '5'] 18178.40909090909
154 363.5681818181818 ['46', '1', '24', '5'] 18178.40909090909
155 363.5681818181818 ['46', '1', '24', '5'] 18178.40909090909
156 363.5681818181818 ['46', '1', '24', '5'] 18178.40909090909
157 363.5681818181818 ['46', '1', '24', '5'] 18178.40909090909
158 363.5681818181818 ['46', '1', '24', '5'] 18178.40909090909
159 363.5681818181818 ['46', '1', '24', '5'] 18178.40909090909
160 363.5681818181818 ['46', '1', '24', '5'] 18178.40909090909
161 363.5681818181818 ['46', '1', '24', '5'] 18178.40909090909
162 363.5681818181818 ['46', '1', '24', '5'] 18178.40909090909
163 363.5681818181818 ['46', '1', '24', '5'] 18178.40909090909
164 363.5681818181818 ['46', '1', '24', '5'] 18178.40909090909
165 363.5681818181818 ['46', '1', '24', '5'] 18178.40909090909
166 363.5681818181818 ['46', '1', '24', '5'] 18178.40909090909
167 363.5681818181818 ['46', '1', '24', '5'] 18178.40909090909
168 363.5681818181818 ['46', '1', '24', '5'] 18178.40909090909
169 363.5681818181818 ['46', '1', '24', '5'] 18178.40909090909
170 363.5681818181818 ['46', '1', '24', '5'] 18178.40909090909
171 363.5681818181818 ['46', '1', '24', '5'] 18178.40909090909
172 363.5681818181818 ['46', '1', '24', '5'] 18178.40909090909
173 363.5681818181818 ['46', '1', '24', '5'] 18178.40909090909
174 363.5681818181818 ['46', '1', '24', '5'] 18178.40909090909
175 363.5681818181818 ['46', '1', '24', '5'] 18178.40909090909
176 363.5681818181818 ['46', '1', '24', '5'] 18178.40909090909
177 363.5681818181818 ['46', '1', '24', '5'] 18178.40909090909
178 363.5681818181818 ['46', '1', '24', '5'] 18178.40909090909
179 363.5681818181818 ['46', '1', '24', '5'] 18178.40909090909
180 363.5681818181818 ['46', '1', '24', '5'] 18178.40909090909
181 363.5681818181818 ['46', '1', '24', '5'] 18178.40909090909
182 363.5681818181818 ['46', '1', '24', '5'] 18178.40909090909
183 363.5681818181818 ['46', '1', '24', '5'] 18178.40909090909
184 363.5681818181818 ['46', '1', '24', '5'] 18178.40909090909
185 363.5681818181818 ['46', '1', '24', '5'] 18178.40909090909
186 363.5681818181818 ['46', '1', '24', '5'] 18178.40909090909
187 363.5681818181818 ['46', '1', '24', '5'] 18178.40909090909
188 363.5681818181818 ['46', '1', '24', '5'] 18178.40909090909
189 363.5681818181818 ['46', '1', '24', '5'] 18178.40909090909
190 363.5681818181818 ['46', '1', '24', '5'] 18178.40909090909
191 363.5681818181818 ['46', '1', '24', '5'] 18178.40909090909
192 363.5681818181818 ['46', '1', '24', '5'] 18178.40909090909
193 363.5681818181818 ['46', '1', '24', '5'] 18178.40909090909
194 363.5681818181818 ['46', '1', '24', '5'] 18178.40909090909
195 363.5681818181818 ['46', '1', '24', '5'] 18178.40909090909
196 363.5681818181818 ['46', '1', '24', '5'] 18178.40909090909
197 363.5681818181818 ['46', '1', '24', '5'] 18178.40909090909
198 363.5681818181818 ['46', '1', '24', '5'] 18178.40909090909
199 363.5681818181818 ['46', '1', '24', '5'] 18178.40909090909
