0 5.552222222222225 ['8', '122', '50', '100', '103', '140', '27', '25', '149', '20', '69', '74', '119', '68', '78'] 280.2747736625516
1 5.509999999999999 ['43', '61', '18', '120', '11', '146', '59', '111', '97', '123', '83', '73', '96', '121', '104'] 279.0395061728396
2 5.478024691358028 ['61', '125', '139', '89', '10', '11', '138', '97', '133', '123', '114', '136', '73', '124', '85'] 277.7681481481482
3 5.447777777777779 ['85', '73', '125', '123', '124', '97', '139', '144', '138', '11', '133', '111', '10', '89', '61'] 276.604938271605
4 5.4169135802469155 ['97', '125', '119', '123', '135', '18', '85', '138', '133', '103', '96', '1', '112', '11', '132'] 275.6839506172841
5 5.4169135802469155 ['97', '125', '119', '123', '135', '18', '85', '138', '133', '103', '96', '1', '112', '11', '132'] 274.9525925925926
6 5.4169135802469155 ['97', '125', '119', '123', '135', '18', '85', '138', '133', '103', '96', '1', '112', '11', '132'] 273.8017283950618
7 5.400370370370371 ['112', '96', '97', '133', '123', '125', '11', '103', '85', '88', '18', '132', '50', '138', '135'] 272.838888888889
8 5.374074074074072 ['143', '103', '73', '137', '133', '83', '131', '135', '61', '140', '136', '125', '132', '134', '144'] 272.0138271604939
9 5.342222222222225 ['125', '132', '112', '109', '85', '137', '111', '11', '97', '139', '149', '147', '133', '140', '129'] 271.1329629629631
10 5.3288888888888915 ['140', '137', '133', '85', '149', '111', '125', '97', '109', '11', '139', '124', '132', '142', '73'] 270.323950617284
11 5.325061728395063 ['124', '143', '112', '150', '103', '11', '125', '111', '109', '129', '132', '96', '123', '149', '142'] 269.5286419753087
12 5.325061728395063 ['124', '143', '112', '150', '103', '11', '125', '111', '109', '129', '132', '96', '123', '149', '142'] 268.66716049382717
13 5.325061728395063 ['124', '143', '112', '150', '103', '11', '125', '111', '109', '129', '132', '96', '123', '149', '142'] 267.9954320987656
14 5.315061728395063 ['132', '111', '140', '125', '85', '133', '124', '11', '135', '142', '139', '143', '73', '109', '147'] 267.30716049382727
15 5.306419753086424 ['124', '140', '111', '112', '132', '125', '147', '133', '149', '96', '10', '139', '143', '142', '136'] 266.7364197530865
16 5.294938271604942 ['132', '147', '133', '111', '140', '11', '112', '125', '143', '149', '124', '123', '85', '142', '109'] 266.3420987654322
17 5.257283950617288 ['132', '142', '125', '123', '147', '112', '111', '124', '133', '140', '11', '149', '96', '85', '109'] 265.7325925925927
18 5.257283950617288 ['132', '142', '125', '123', '147', '112', '111', '124', '133', '140', '11', '149', '96', '85', '109'] 265.24432098765453
19 5.257283950617288 ['132', '142', '125', '123', '147', '112', '111', '124', '133', '140', '11', '149', '96', '85', '109'] 264.86358024691384
20 5.257283950617288 ['132', '142', '125', '123', '147', '112', '111', '124', '133', '140', '11', '149', '96', '85', '109'] 264.3039506172841
21 5.257283950617288 ['132', '142', '125', '123', '147', '112', '111', '124', '133', '140', '11', '149', '96', '85', '109'] 263.9180246913581
22 5.257283950617288 ['132', '142', '125', '123', '147', '112', '111', '124', '133', '140', '11', '149', '96', '85', '109'] 263.56160493827184
23 5.248024691358028 ['140', '112', '85', '11', '123', '132', '125', '96', '133', '111', '124', '138', '142', '149', '147'] 263.2635802469138
24 5.248024691358028 ['140', '112', '85', '11', '123', '132', '125', '96', '133', '111', '124', '138', '142', '149', '147'] 262.97679012345696
25 5.248024691358028 ['140', '112', '85', '11', '123', '132', '125', '96', '133', '111', '124', '138', '142', '149', '147'] 262.8343209876544
26 5.248024691358028 ['140', '112', '85', '11', '123', '132', '125', '96', '133', '111', '124', '138', '142', '149', '147'] 262.79308641975314
27 5.248024691358028 ['140', '112', '85', '11', '123', '132', '125', '96', '133', '111', '124', '138', '142', '149', '147'] 262.730987654321
28 5.248024691358028 ['140', '112', '85', '11', '123', '132', '125', '96', '133', '111', '124', '138', '142', '149', '147'] 262.5712345679014
29 5.248024691358028 ['140', '112', '85', '11', '123', '132', '125', '96', '133', '111', '124', '138', '142', '149', '147'] 262.42592592592626
30 5.248024691358028 ['140', '112', '85', '11', '123', '132', '125', '96', '133', '111', '124', '138', '142', '149', '147'] 262.4012345679016
31 5.248024691358028 ['140', '112', '85', '11', '123', '132', '125', '96', '133', '111', '124', '138', '142', '149', '147'] 262.4012345679016
32 5.248024691358028 ['140', '112', '85', '11', '123', '132', '125', '96', '133', '111', '124', '138', '142', '149', '147'] 262.4012345679016
33 5.248024691358028 ['140', '112', '85', '11', '123', '132', '125', '96', '133', '111', '124', '138', '142', '149', '147'] 262.4012345679016
34 5.248024691358028 ['140', '112', '85', '11', '123', '132', '125', '96', '133', '111', '124', '138', '142', '149', '147'] 262.4012345679016
35 5.248024691358028 ['140', '112', '85', '11', '123', '132', '125', '96', '133', '111', '124', '138', '142', '149', '147'] 262.4012345679016
36 5.248024691358028 ['140', '112', '85', '11', '123', '132', '125', '96', '133', '111', '124', '138', '142', '149', '147'] 262.4012345679016
37 5.248024691358028 ['140', '112', '85', '11', '123', '132', '125', '96', '133', '111', '124', '138', '142', '149', '147'] 262.4012345679016
38 5.248024691358028 ['140', '112', '85', '11', '123', '132', '125', '96', '133', '111', '124', '138', '142', '149', '147'] 262.4012345679016
39 5.248024691358028 ['140', '112', '85', '11', '123', '132', '125', '96', '133', '111', '124', '138', '142', '149', '147'] 262.4012345679016
40 5.248024691358028 ['140', '112', '85', '11', '123', '132', '125', '96', '133', '111', '124', '138', '142', '149', '147'] 262.4012345679016
41 5.248024691358028 ['140', '112', '85', '11', '123', '132', '125', '96', '133', '111', '124', '138', '142', '149', '147'] 262.4012345679016
42 5.248024691358028 ['140', '112', '85', '11', '123', '132', '125', '96', '133', '111', '124', '138', '142', '149', '147'] 262.4012345679016
43 5.248024691358028 ['140', '112', '85', '11', '123', '132', '125', '96', '133', '111', '124', '138', '142', '149', '147'] 262.4012345679016
44 5.248024691358028 ['140', '112', '85', '11', '123', '132', '125', '96', '133', '111', '124', '138', '142', '149', '147'] 262.4012345679016
45 5.248024691358028 ['140', '112', '85', '11', '123', '132', '125', '96', '133', '111', '124', '138', '142', '149', '147'] 262.4012345679016
46 5.248024691358028 ['140', '112', '85', '11', '123', '132', '125', '96', '133', '111', '124', '138', '142', '149', '147'] 262.4012345679016
47 5.248024691358028 ['140', '112', '85', '11', '123', '132', '125', '96', '133', '111', '124', '138', '142', '149', '147'] 262.4012345679016
48 5.248024691358028 ['140', '112', '85', '11', '123', '132', '125', '96', '133', '111', '124', '138', '142', '149', '147'] 262.4012345679016
49 5.248024691358028 ['140', '112', '85', '11', '123', '132', '125', '96', '133', '111', '124', '138', '142', '149', '147'] 262.4012345679016
50 5.248024691358028 ['140', '112', '85', '11', '123', '132', '125', '96', '133', '111', '124', '138', '142', '149', '147'] 262.4012345679016
51 5.248024691358028 ['140', '112', '85', '11', '123', '132', '125', '96', '133', '111', '124', '138', '142', '149', '147'] 262.4012345679016
52 5.248024691358028 ['140', '112', '85', '11', '123', '132', '125', '96', '133', '111', '124', '138', '142', '149', '147'] 262.4012345679016
53 5.248024691358028 ['140', '112', '85', '11', '123', '132', '125', '96', '133', '111', '124', '138', '142', '149', '147'] 262.4012345679016
54 5.248024691358028 ['140', '112', '85', '11', '123', '132', '125', '96', '133', '111', '124', '138', '142', '149', '147'] 262.4012345679016
55 5.248024691358028 ['140', '112', '85', '11', '123', '132', '125', '96', '133', '111', '124', '138', '142', '149', '147'] 262.4012345679016
56 5.248024691358028 ['140', '112', '85', '11', '123', '132', '125', '96', '133', '111', '124', '138', '142', '149', '147'] 262.4012345679016
57 5.248024691358028 ['140', '112', '85', '11', '123', '132', '125', '96', '133', '111', '124', '138', '142', '149', '147'] 262.4012345679016
58 5.248024691358028 ['140', '112', '85', '11', '123', '132', '125', '96', '133', '111', '124', '138', '142', '149', '147'] 262.4012345679016
59 5.248024691358028 ['140', '112', '85', '11', '123', '132', '125', '96', '133', '111', '124', '138', '142', '149', '147'] 262.4012345679016
60 5.248024691358028 ['140', '112', '85', '11', '123', '132', '125', '96', '133', '111', '124', '138', '142', '149', '147'] 262.4012345679016
61 5.248024691358028 ['140', '112', '85', '11', '123', '132', '125', '96', '133', '111', '124', '138', '142', '149', '147'] 262.4012345679016
62 5.248024691358028 ['140', '112', '85', '11', '123', '132', '125', '96', '133', '111', '124', '138', '142', '149', '147'] 262.4012345679016
63 5.248024691358028 ['140', '112', '85', '11', '123', '132', '125', '96', '133', '111', '124', '138', '142', '149', '147'] 262.4012345679016
64 5.248024691358028 ['140', '112', '85', '11', '123', '132', '125', '96', '133', '111', '124', '138', '142', '149', '147'] 262.4012345679016
65 5.248024691358028 ['140', '112', '85', '11', '123', '132', '125', '96', '133', '111', '124', '138', '142', '149', '147'] 262.4012345679016
66 5.248024691358028 ['140', '112', '85', '11', '123', '132', '125', '96', '133', '111', '124', '138', '142', '149', '147'] 262.4012345679016
67 5.248024691358028 ['140', '112', '85', '11', '123', '132', '125', '96', '133', '111', '124', '138', '142', '149', '147'] 262.4012345679016
68 5.248024691358028 ['140', '112', '85', '11', '123', '132', '125', '96', '133', '111', '124', '138', '142', '149', '147'] 262.4012345679016
69 5.248024691358028 ['140', '112', '85', '11', '123', '132', '125', '96', '133', '111', '124', '138', '142', '149', '147'] 262.4012345679016
70 5.248024691358028 ['140', '112', '85', '11', '123', '132', '125', '96', '133', '111', '124', '138', '142', '149', '147'] 262.4012345679016
71 5.248024691358028 ['140', '112', '85', '11', '123', '132', '125', '96', '133', '111', '124', '138', '142', '149', '147'] 262.4012345679016
72 5.248024691358028 ['140', '112', '85', '11', '123', '132', '125', '96', '133', '111', '124', '138', '142', '149', '147'] 262.4012345679016
73 5.248024691358028 ['140', '112', '85', '11', '123', '132', '125', '96', '133', '111', '124', '138', '142', '149', '147'] 262.4012345679016
74 5.248024691358028 ['140', '112', '85', '11', '123', '132', '125', '96', '133', '111', '124', '138', '142', '149', '147'] 262.4012345679016
75 5.248024691358028 ['140', '112', '85', '11', '123', '132', '125', '96', '133', '111', '124', '138', '142', '149', '147'] 262.4012345679016
76 5.248024691358028 ['140', '112', '85', '11', '123', '132', '125', '96', '133', '111', '124', '138', '142', '149', '147'] 262.4012345679016
77 5.248024691358028 ['140', '112', '85', '11', '123', '132', '125', '96', '133', '111', '124', '138', '142', '149', '147'] 262.4012345679016
78 5.248024691358028 ['140', '112', '85', '11', '123', '132', '125', '96', '133', '111', '124', '138', '142', '149', '147'] 262.4012345679016
79 5.248024691358028 ['140', '112', '85', '11', '123', '132', '125', '96', '133', '111', '124', '138', '142', '149', '147'] 262.4012345679016
80 5.248024691358028 ['140', '112', '85', '11', '123', '132', '125', '96', '133', '111', '124', '138', '142', '149', '147'] 262.4012345679016
81 5.248024691358028 ['140', '112', '85', '11', '123', '132', '125', '96', '133', '111', '124', '138', '142', '149', '147'] 262.4012345679016
82 5.248024691358028 ['140', '112', '85', '11', '123', '132', '125', '96', '133', '111', '124', '138', '142', '149', '147'] 262.4012345679016
83 5.248024691358028 ['140', '112', '85', '11', '123', '132', '125', '96', '133', '111', '124', '138', '142', '149', '147'] 262.4012345679016
84 5.248024691358028 ['140', '112', '85', '11', '123', '132', '125', '96', '133', '111', '124', '138', '142', '149', '147'] 262.4012345679016
85 5.248024691358028 ['140', '112', '85', '11', '123', '132', '125', '96', '133', '111', '124', '138', '142', '149', '147'] 262.4012345679016
86 5.248024691358028 ['140', '112', '85', '11', '123', '132', '125', '96', '133', '111', '124', '138', '142', '149', '147'] 262.4012345679016
87 5.248024691358028 ['140', '112', '85', '11', '123', '132', '125', '96', '133', '111', '124', '138', '142', '149', '147'] 262.4012345679016
88 5.248024691358028 ['140', '112', '85', '11', '123', '132', '125', '96', '133', '111', '124', '138', '142', '149', '147'] 262.4012345679016
89 5.248024691358028 ['140', '112', '85', '11', '123', '132', '125', '96', '133', '111', '124', '138', '142', '149', '147'] 262.4012345679016
90 5.248024691358028 ['140', '112', '85', '11', '123', '132', '125', '96', '133', '111', '124', '138', '142', '149', '147'] 262.4012345679016
91 5.248024691358028 ['140', '112', '85', '11', '123', '132', '125', '96', '133', '111', '124', '138', '142', '149', '147'] 262.4012345679016
92 5.248024691358028 ['140', '112', '85', '11', '123', '132', '125', '96', '133', '111', '124', '138', '142', '149', '147'] 262.4012345679016
93 5.248024691358028 ['140', '112', '85', '11', '123', '132', '125', '96', '133', '111', '124', '138', '142', '149', '147'] 262.4012345679016
94 5.248024691358028 ['140', '112', '85', '11', '123', '132', '125', '96', '133', '111', '124', '138', '142', '149', '147'] 262.4012345679016
95 5.248024691358028 ['140', '112', '85', '11', '123', '132', '125', '96', '133', '111', '124', '138', '142', '149', '147'] 262.4012345679016
96 5.248024691358028 ['140', '112', '85', '11', '123', '132', '125', '96', '133', '111', '124', '138', '142', '149', '147'] 262.4012345679016
97 5.248024691358028 ['140', '112', '85', '11', '123', '132', '125', '96', '133', '111', '124', '138', '142', '149', '147'] 262.4012345679016
98 5.248024691358028 ['140', '112', '85', '11', '123', '132', '125', '96', '133', '111', '124', '138', '142', '149', '147'] 262.4012345679016
99 5.248024691358028 ['140', '112', '85', '11', '123', '132', '125', '96', '133', '111', '124', '138', '142', '149', '147'] 262.4012345679016
100 5.248024691358028 ['140', '112', '85', '11', '123', '132', '125', '96', '133', '111', '124', '138', '142', '149', '147'] 262.4012345679016
101 5.248024691358028 ['140', '112', '85', '11', '123', '132', '125', '96', '133', '111', '124', '138', '142', '149', '147'] 262.4012345679016
102 5.248024691358028 ['140', '112', '85', '11', '123', '132', '125', '96', '133', '111', '124', '138', '142', '149', '147'] 262.4012345679016
103 5.248024691358028 ['140', '112', '85', '11', '123', '132', '125', '96', '133', '111', '124', '138', '142', '149', '147'] 262.4012345679016
104 5.248024691358028 ['140', '112', '85', '11', '123', '132', '125', '96', '133', '111', '124', '138', '142', '149', '147'] 262.4012345679016
105 5.248024691358028 ['140', '112', '85', '11', '123', '132', '125', '96', '133', '111', '124', '138', '142', '149', '147'] 262.4012345679016
106 5.248024691358028 ['140', '112', '85', '11', '123', '132', '125', '96', '133', '111', '124', '138', '142', '149', '147'] 262.4012345679016
107 5.248024691358028 ['140', '112', '85', '11', '123', '132', '125', '96', '133', '111', '124', '138', '142', '149', '147'] 262.4012345679016
108 5.248024691358028 ['140', '112', '85', '11', '123', '132', '125', '96', '133', '111', '124', '138', '142', '149', '147'] 262.4012345679016
109 5.248024691358028 ['140', '112', '85', '11', '123', '132', '125', '96', '133', '111', '124', '138', '142', '149', '147'] 262.4012345679016
110 5.248024691358028 ['140', '112', '85', '11', '123', '132', '125', '96', '133', '111', '124', '138', '142', '149', '147'] 262.4012345679016
111 5.248024691358028 ['140', '112', '85', '11', '123', '132', '125', '96', '133', '111', '124', '138', '142', '149', '147'] 262.4012345679016
112 5.248024691358028 ['140', '112', '85', '11', '123', '132', '125', '96', '133', '111', '124', '138', '142', '149', '147'] 262.4012345679016
113 5.248024691358028 ['140', '112', '85', '11', '123', '132', '125', '96', '133', '111', '124', '138', '142', '149', '147'] 262.4012345679016
114 5.248024691358028 ['140', '112', '85', '11', '123', '132', '125', '96', '133', '111', '124', '138', '142', '149', '147'] 262.4012345679016
115 5.248024691358028 ['140', '112', '85', '11', '123', '132', '125', '96', '133', '111', '124', '138', '142', '149', '147'] 262.4012345679016
116 5.248024691358028 ['140', '112', '85', '11', '123', '132', '125', '96', '133', '111', '124', '138', '142', '149', '147'] 262.4012345679016
117 5.248024691358028 ['140', '112', '85', '11', '123', '132', '125', '96', '133', '111', '124', '138', '142', '149', '147'] 262.4012345679016
118 5.248024691358028 ['140', '112', '85', '11', '123', '132', '125', '96', '133', '111', '124', '138', '142', '149', '147'] 262.4012345679016
119 5.248024691358028 ['140', '112', '85', '11', '123', '132', '125', '96', '133', '111', '124', '138', '142', '149', '147'] 262.4012345679016
120 5.248024691358028 ['140', '112', '85', '11', '123', '132', '125', '96', '133', '111', '124', '138', '142', '149', '147'] 262.4012345679016
121 5.248024691358028 ['140', '112', '85', '11', '123', '132', '125', '96', '133', '111', '124', '138', '142', '149', '147'] 262.4012345679016
122 5.248024691358028 ['140', '112', '85', '11', '123', '132', '125', '96', '133', '111', '124', '138', '142', '149', '147'] 262.4012345679016
123 5.248024691358028 ['140', '112', '85', '11', '123', '132', '125', '96', '133', '111', '124', '138', '142', '149', '147'] 262.4012345679016
124 5.248024691358028 ['140', '112', '85', '11', '123', '132', '125', '96', '133', '111', '124', '138', '142', '149', '147'] 262.4012345679016
125 5.248024691358028 ['140', '112', '85', '11', '123', '132', '125', '96', '133', '111', '124', '138', '142', '149', '147'] 262.4012345679016
126 5.248024691358028 ['140', '112', '85', '11', '123', '132', '125', '96', '133', '111', '124', '138', '142', '149', '147'] 262.4012345679016
127 5.248024691358028 ['140', '112', '85', '11', '123', '132', '125', '96', '133', '111', '124', '138', '142', '149', '147'] 262.4012345679016
128 5.248024691358028 ['140', '112', '85', '11', '123', '132', '125', '96', '133', '111', '124', '138', '142', '149', '147'] 262.4012345679016
129 5.248024691358028 ['140', '112', '85', '11', '123', '132', '125', '96', '133', '111', '124', '138', '142', '149', '147'] 262.4012345679016
130 5.248024691358028 ['140', '112', '85', '11', '123', '132', '125', '96', '133', '111', '124', '138', '142', '149', '147'] 262.4012345679016
131 5.248024691358028 ['140', '112', '85', '11', '123', '132', '125', '96', '133', '111', '124', '138', '142', '149', '147'] 262.4012345679016
132 5.248024691358028 ['140', '112', '85', '11', '123', '132', '125', '96', '133', '111', '124', '138', '142', '149', '147'] 262.4012345679016
133 5.248024691358028 ['140', '112', '85', '11', '123', '132', '125', '96', '133', '111', '124', '138', '142', '149', '147'] 262.4012345679016
134 5.248024691358028 ['140', '112', '85', '11', '123', '132', '125', '96', '133', '111', '124', '138', '142', '149', '147'] 262.4012345679016
135 5.248024691358028 ['140', '112', '85', '11', '123', '132', '125', '96', '133', '111', '124', '138', '142', '149', '147'] 262.4012345679016
136 5.248024691358028 ['140', '112', '85', '11', '123', '132', '125', '96', '133', '111', '124', '138', '142', '149', '147'] 262.4012345679016
137 5.248024691358028 ['140', '112', '85', '11', '123', '132', '125', '96', '133', '111', '124', '138', '142', '149', '147'] 262.4012345679016
138 5.248024691358028 ['140', '112', '85', '11', '123', '132', '125', '96', '133', '111', '124', '138', '142', '149', '147'] 262.4012345679016
139 5.248024691358028 ['140', '112', '85', '11', '123', '132', '125', '96', '133', '111', '124', '138', '142', '149', '147'] 262.4012345679016
140 5.248024691358028 ['140', '112', '85', '11', '123', '132', '125', '96', '133', '111', '124', '138', '142', '149', '147'] 262.4012345679016
141 5.248024691358028 ['140', '112', '85', '11', '123', '132', '125', '96', '133', '111', '124', '138', '142', '149', '147'] 262.4012345679016
142 5.248024691358028 ['140', '112', '85', '11', '123', '132', '125', '96', '133', '111', '124', '138', '142', '149', '147'] 262.4012345679016
143 5.248024691358028 ['140', '112', '85', '11', '123', '132', '125', '96', '133', '111', '124', '138', '142', '149', '147'] 262.4012345679016
144 5.248024691358028 ['140', '112', '85', '11', '123', '132', '125', '96', '133', '111', '124', '138', '142', '149', '147'] 262.4012345679016
145 5.248024691358028 ['140', '112', '85', '11', '123', '132', '125', '96', '133', '111', '124', '138', '142', '149', '147'] 262.4012345679016
146 5.248024691358028 ['140', '112', '85', '11', '123', '132', '125', '96', '133', '111', '124', '138', '142', '149', '147'] 262.4012345679016
147 5.248024691358028 ['140', '112', '85', '11', '123', '132', '125', '96', '133', '111', '124', '138', '142', '149', '147'] 262.4012345679016
148 5.248024691358028 ['140', '112', '85', '11', '123', '132', '125', '96', '133', '111', '124', '138', '142', '149', '147'] 262.4012345679016
149 5.248024691358028 ['140', '112', '85', '11', '123', '132', '125', '96', '133', '111', '124', '138', '142', '149', '147'] 262.4012345679016
150 5.248024691358028 ['140', '112', '85', '11', '123', '132', '125', '96', '133', '111', '124', '138', '142', '149', '147'] 262.4012345679016
151 5.248024691358028 ['140', '112', '85', '11', '123', '132', '125', '96', '133', '111', '124', '138', '142', '149', '147'] 262.4012345679016
152 5.248024691358028 ['140', '112', '85', '11', '123', '132', '125', '96', '133', '111', '124', '138', '142', '149', '147'] 262.4012345679016
153 5.248024691358028 ['140', '112', '85', '11', '123', '132', '125', '96', '133', '111', '124', '138', '142', '149', '147'] 262.4012345679016
154 5.248024691358028 ['140', '112', '85', '11', '123', '132', '125', '96', '133', '111', '124', '138', '142', '149', '147'] 262.4012345679016
155 5.248024691358028 ['140', '112', '85', '11', '123', '132', '125', '96', '133', '111', '124', '138', '142', '149', '147'] 262.4012345679016
156 5.248024691358028 ['140', '112', '85', '11', '123', '132', '125', '96', '133', '111', '124', '138', '142', '149', '147'] 262.4012345679016
157 5.248024691358028 ['140', '112', '85', '11', '123', '132', '125', '96', '133', '111', '124', '138', '142', '149', '147'] 262.4012345679016
158 5.248024691358028 ['140', '112', '85', '11', '123', '132', '125', '96', '133', '111', '124', '138', '142', '149', '147'] 262.4012345679016
159 5.248024691358028 ['140', '112', '85', '11', '123', '132', '125', '96', '133', '111', '124', '138', '142', '149', '147'] 262.4012345679016
160 5.248024691358028 ['140', '112', '85', '11', '123', '132', '125', '96', '133', '111', '124', '138', '142', '149', '147'] 262.4012345679016
161 5.248024691358028 ['140', '112', '85', '11', '123', '132', '125', '96', '133', '111', '124', '138', '142', '149', '147'] 262.4012345679016
162 5.248024691358028 ['140', '112', '85', '11', '123', '132', '125', '96', '133', '111', '124', '138', '142', '149', '147'] 262.4012345679016
163 5.248024691358028 ['140', '112', '85', '11', '123', '132', '125', '96', '133', '111', '124', '138', '142', '149', '147'] 262.4012345679016
164 5.248024691358028 ['140', '112', '85', '11', '123', '132', '125', '96', '133', '111', '124', '138', '142', '149', '147'] 262.4012345679016
165 5.248024691358028 ['140', '112', '85', '11', '123', '132', '125', '96', '133', '111', '124', '138', '142', '149', '147'] 262.4012345679016
166 5.248024691358028 ['140', '112', '85', '11', '123', '132', '125', '96', '133', '111', '124', '138', '142', '149', '147'] 262.4012345679016
167 5.248024691358028 ['140', '112', '85', '11', '123', '132', '125', '96', '133', '111', '124', '138', '142', '149', '147'] 262.4012345679016
168 5.248024691358028 ['140', '112', '85', '11', '123', '132', '125', '96', '133', '111', '124', '138', '142', '149', '147'] 262.4012345679016
169 5.248024691358028 ['140', '112', '85', '11', '123', '132', '125', '96', '133', '111', '124', '138', '142', '149', '147'] 262.4012345679016
170 5.248024691358028 ['140', '112', '85', '11', '123', '132', '125', '96', '133', '111', '124', '138', '142', '149', '147'] 262.4012345679016
171 5.248024691358028 ['140', '112', '85', '11', '123', '132', '125', '96', '133', '111', '124', '138', '142', '149', '147'] 262.4012345679016
172 5.248024691358028 ['140', '112', '85', '11', '123', '132', '125', '96', '133', '111', '124', '138', '142', '149', '147'] 262.4012345679016
173 5.248024691358028 ['140', '112', '85', '11', '123', '132', '125', '96', '133', '111', '124', '138', '142', '149', '147'] 262.4012345679016
174 5.248024691358028 ['140', '112', '85', '11', '123', '132', '125', '96', '133', '111', '124', '138', '142', '149', '147'] 262.4012345679016
175 5.248024691358028 ['140', '112', '85', '11', '123', '132', '125', '96', '133', '111', '124', '138', '142', '149', '147'] 262.4012345679016
176 5.248024691358028 ['140', '112', '85', '11', '123', '132', '125', '96', '133', '111', '124', '138', '142', '149', '147'] 262.4012345679016
177 5.248024691358028 ['140', '112', '85', '11', '123', '132', '125', '96', '133', '111', '124', '138', '142', '149', '147'] 262.4012345679016
178 5.248024691358028 ['140', '112', '85', '11', '123', '132', '125', '96', '133', '111', '124', '138', '142', '149', '147'] 262.4012345679016
179 5.248024691358028 ['140', '112', '85', '11', '123', '132', '125', '96', '133', '111', '124', '138', '142', '149', '147'] 262.4012345679016
180 5.248024691358028 ['140', '112', '85', '11', '123', '132', '125', '96', '133', '111', '124', '138', '142', '149', '147'] 262.4012345679016
181 5.248024691358028 ['140', '112', '85', '11', '123', '132', '125', '96', '133', '111', '124', '138', '142', '149', '147'] 262.4012345679016
182 5.248024691358028 ['140', '112', '85', '11', '123', '132', '125', '96', '133', '111', '124', '138', '142', '149', '147'] 262.4012345679016
183 5.248024691358028 ['140', '112', '85', '11', '123', '132', '125', '96', '133', '111', '124', '138', '142', '149', '147'] 262.4012345679016
184 5.248024691358028 ['140', '112', '85', '11', '123', '132', '125', '96', '133', '111', '124', '138', '142', '149', '147'] 262.4012345679016
185 5.248024691358028 ['140', '112', '85', '11', '123', '132', '125', '96', '133', '111', '124', '138', '142', '149', '147'] 262.4012345679016
186 5.248024691358028 ['140', '112', '85', '11', '123', '132', '125', '96', '133', '111', '124', '138', '142', '149', '147'] 262.4012345679016
187 5.248024691358028 ['140', '112', '85', '11', '123', '132', '125', '96', '133', '111', '124', '138', '142', '149', '147'] 262.4012345679016
188 5.248024691358028 ['140', '112', '85', '11', '123', '132', '125', '96', '133', '111', '124', '138', '142', '149', '147'] 262.4012345679016
189 5.248024691358028 ['140', '112', '85', '11', '123', '132', '125', '96', '133', '111', '124', '138', '142', '149', '147'] 262.4012345679016
190 5.248024691358028 ['140', '112', '85', '11', '123', '132', '125', '96', '133', '111', '124', '138', '142', '149', '147'] 262.4012345679016
191 5.248024691358028 ['140', '112', '85', '11', '123', '132', '125', '96', '133', '111', '124', '138', '142', '149', '147'] 262.4012345679016
192 5.248024691358028 ['140', '112', '85', '11', '123', '132', '125', '96', '133', '111', '124', '138', '142', '149', '147'] 262.4012345679016
193 5.248024691358028 ['140', '112', '85', '11', '123', '132', '125', '96', '133', '111', '124', '138', '142', '149', '147'] 262.4012345679016
194 5.248024691358028 ['140', '112', '85', '11', '123', '132', '125', '96', '133', '111', '124', '138', '142', '149', '147'] 262.4012345679016
195 5.248024691358028 ['140', '112', '85', '11', '123', '132', '125', '96', '133', '111', '124', '138', '142', '149', '147'] 262.4012345679016
196 5.248024691358028 ['140', '112', '85', '11', '123', '132', '125', '96', '133', '111', '124', '138', '142', '149', '147'] 262.4012345679016
197 5.248024691358028 ['140', '112', '85', '11', '123', '132', '125', '96', '133', '111', '124', '138', '142', '149', '147'] 262.4012345679016
198 5.248024691358028 ['140', '112', '85', '11', '123', '132', '125', '96', '133', '111', '124', '138', '142', '149', '147'] 262.4012345679016
199 5.248024691358028 ['140', '112', '85', '11', '123', '132', '125', '96', '133', '111', '124', '138', '142', '149', '147'] 262.4012345679016
