0 14.355555555555556 ['128', '71', '131', '112', '121', '145', '87', '138', '120', '82', '141', '75', '17', '92', '129'] 745.3185185185184
1 14.355555555555556 ['128', '71', '131', '112', '121', '145', '87', '138', '120', '82', '141', '75', '17', '92', '129'] 738.0888888888891
2 14.355555555555556 ['128', '71', '131', '112', '121', '145', '87', '138', '120', '82', '141', '75', '17', '92', '129'] 732.1407407407405
3 14.281481481481482 ['92', '145', '28', '131', '71', '134', '149', '138', '141', '73', '128', '137', '88', '27', '17'] 726.0814814814812
4 14.155555555555555 ['128', '135', '95', '150', '149', '19', '131', '17', '75', '120', '141', '129', '142', '145', '39'] 720.6888888888884
5 13.881481481481481 ['145', '75', '128', '138', '120', '129', '148', '141', '131', '134', '150', '47', '149', '103', '88'] 715.3629629629627
6 13.881481481481481 ['145', '75', '128', '138', '120', '129', '148', '141', '131', '134', '150', '47', '149', '103', '88'] 709.9629629629629
7 13.881481481481481 ['145', '75', '128', '138', '120', '129', '148', '141', '131', '134', '150', '47', '149', '103', '88'] 705.5777777777782
8 13.814814814814815 ['75', '145', '129', '120', '134', '141', '128', '88', '137', '116', '103', '135', '149', '79', '150'] 701.1259259259251
9 13.681481481481482 ['79', '141', '149', '128', '134', '120', '105', '146', '135', '145', '138', '150', '137', '129', '106'] 697.2666666666669
10 13.681481481481482 ['79', '141', '149', '128', '134', '120', '105', '146', '135', '145', '138', '150', '137', '129', '106'] 692.6592592592594
11 13.674074074074074 ['137', '148', '138', '128', '145', '146', '98', '79', '135', '149', '106', '141', '99', '94', '120'] 689.4
12 13.562962962962963 ['137', '88', '128', '148', '129', '145', '138', '135', '79', '149', '150', '103', '146', '120', '141'] 686.9481481481479
13 13.540740740740741 ['99', '149', '120', '145', '129', '135', '137', '141', '138', '128', '150', '119', '146', '79', '148'] 684.9851851851855
14 13.540740740740741 ['99', '149', '120', '145', '129', '135', '137', '141', '138', '128', '150', '119', '146', '79', '148'] 682.7777777777776
15 13.503703703703703 ['138', '150', '135', '148', '79', '141', '146', '145', '88', '137', '149', '129', '128', '106', '120'] 680.4222222222218
16 13.503703703703703 ['138', '150', '135', '148', '79', '141', '146', '145', '88', '137', '149', '129', '128', '106', '120'] 678.6074074074079
17 13.503703703703703 ['138', '150', '135', '148', '79', '141', '146', '145', '88', '137', '149', '129', '128', '106', '120'] 677.3703703703701
18 13.496296296296297 ['146', '141', '135', '150', '149', '138', '79', '145', '128', '148', '137', '129', '119', '88', '120'] 676.5407407407401
19 13.481481481481481 ['129', '150', '120', '138', '148', '141', '135', '137', '128', '149', '146', '145', '79', '119', '147'] 675.7629629629629
20 13.481481481481481 ['129', '150', '120', '138', '148', '141', '135', '137', '128', '149', '146', '145', '79', '119', '147'] 675.1259259259253
21 13.481481481481481 ['129', '150', '120', '138', '148', '141', '135', '137', '128', '149', '146', '145', '79', '119', '147'] 674.9629629629623
22 13.481481481481481 ['129', '150', '120', '138', '148', '141', '135', '137', '128', '149', '146', '145', '79', '119', '147'] 674.8000000000003
23 13.481481481481481 ['129', '150', '120', '138', '148', '141', '135', '137', '128', '149', '146', '145', '79', '119', '147'] 674.696296296297
24 13.481481481481481 ['129', '150', '120', '138', '148', '141', '135', '137', '128', '149', '146', '145', '79', '119', '147'] 674.6222222222228
25 13.481481481481481 ['129', '150', '120', '138', '148', '141', '135', '137', '128', '149', '146', '145', '79', '119', '147'] 674.4370370370375
26 13.481481481481481 ['129', '150', '120', '138', '148', '141', '135', '137', '128', '149', '146', '145', '79', '119', '147'] 674.0740740740742
27 13.481481481481481 ['129', '150', '120', '138', '148', '141', '135', '137', '128', '149', '146', '145', '79', '119', '147'] 674.0740740740742
28 13.481481481481481 ['129', '150', '120', '138', '148', '141', '135', '137', '128', '149', '146', '145', '79', '119', '147'] 674.0740740740742
29 13.481481481481481 ['129', '150', '120', '138', '148', '141', '135', '137', '128', '149', '146', '145', '79', '119', '147'] 674.0740740740742
30 13.481481481481481 ['129', '150', '120', '138', '148', '141', '135', '137', '128', '149', '146', '145', '79', '119', '147'] 674.0740740740742
31 13.481481481481481 ['129', '150', '120', '138', '148', '141', '135', '137', '128', '149', '146', '145', '79', '119', '147'] 674.0740740740742
32 13.481481481481481 ['129', '150', '120', '138', '148', '141', '135', '137', '128', '149', '146', '145', '79', '119', '147'] 674.0740740740742
33 13.481481481481481 ['129', '150', '120', '138', '148', '141', '135', '137', '128', '149', '146', '145', '79', '119', '147'] 674.0740740740742
34 13.481481481481481 ['129', '150', '120', '138', '148', '141', '135', '137', '128', '149', '146', '145', '79', '119', '147'] 674.0740740740742
35 13.481481481481481 ['129', '150', '120', '138', '148', '141', '135', '137', '128', '149', '146', '145', '79', '119', '147'] 674.0740740740742
36 13.481481481481481 ['129', '150', '120', '138', '148', '141', '135', '137', '128', '149', '146', '145', '79', '119', '147'] 674.0740740740742
37 13.481481481481481 ['129', '150', '120', '138', '148', '141', '135', '137', '128', '149', '146', '145', '79', '119', '147'] 674.0740740740742
38 13.481481481481481 ['129', '150', '120', '138', '148', '141', '135', '137', '128', '149', '146', '145', '79', '119', '147'] 674.0740740740742
39 13.481481481481481 ['129', '150', '120', '138', '148', '141', '135', '137', '128', '149', '146', '145', '79', '119', '147'] 674.0740740740742
40 13.481481481481481 ['129', '150', '120', '138', '148', '141', '135', '137', '128', '149', '146', '145', '79', '119', '147'] 674.0740740740742
41 13.481481481481481 ['129', '150', '120', '138', '148', '141', '135', '137', '128', '149', '146', '145', '79', '119', '147'] 674.0740740740742
42 13.481481481481481 ['129', '150', '120', '138', '148', '141', '135', '137', '128', '149', '146', '145', '79', '119', '147'] 674.0740740740742
43 13.481481481481481 ['129', '150', '120', '138', '148', '141', '135', '137', '128', '149', '146', '145', '79', '119', '147'] 674.0740740740742
44 13.481481481481481 ['129', '150', '120', '138', '148', '141', '135', '137', '128', '149', '146', '145', '79', '119', '147'] 674.0740740740742
45 13.481481481481481 ['129', '150', '120', '138', '148', '141', '135', '137', '128', '149', '146', '145', '79', '119', '147'] 674.0740740740742
46 13.481481481481481 ['129', '150', '120', '138', '148', '141', '135', '137', '128', '149', '146', '145', '79', '119', '147'] 674.0740740740742
47 13.481481481481481 ['129', '150', '120', '138', '148', '141', '135', '137', '128', '149', '146', '145', '79', '119', '147'] 674.0740740740742
48 13.481481481481481 ['129', '150', '120', '138', '148', '141', '135', '137', '128', '149', '146', '145', '79', '119', '147'] 674.0740740740742
49 13.481481481481481 ['129', '150', '120', '138', '148', '141', '135', '137', '128', '149', '146', '145', '79', '119', '147'] 674.0740740740742
50 13.481481481481481 ['129', '150', '120', '138', '148', '141', '135', '137', '128', '149', '146', '145', '79', '119', '147'] 674.0740740740742
51 13.481481481481481 ['129', '150', '120', '138', '148', '141', '135', '137', '128', '149', '146', '145', '79', '119', '147'] 674.0740740740742
52 13.481481481481481 ['129', '150', '120', '138', '148', '141', '135', '137', '128', '149', '146', '145', '79', '119', '147'] 674.0740740740742
53 13.481481481481481 ['129', '150', '120', '138', '148', '141', '135', '137', '128', '149', '146', '145', '79', '119', '147'] 674.0740740740742
54 13.481481481481481 ['129', '150', '120', '138', '148', '141', '135', '137', '128', '149', '146', '145', '79', '119', '147'] 674.0740740740742
55 13.481481481481481 ['129', '150', '120', '138', '148', '141', '135', '137', '128', '149', '146', '145', '79', '119', '147'] 674.0740740740742
56 13.481481481481481 ['129', '150', '120', '138', '148', '141', '135', '137', '128', '149', '146', '145', '79', '119', '147'] 674.0740740740742
57 13.481481481481481 ['129', '150', '120', '138', '148', '141', '135', '137', '128', '149', '146', '145', '79', '119', '147'] 674.0740740740742
58 13.481481481481481 ['129', '150', '120', '138', '148', '141', '135', '137', '128', '149', '146', '145', '79', '119', '147'] 674.0740740740742
59 13.481481481481481 ['129', '150', '120', '138', '148', '141', '135', '137', '128', '149', '146', '145', '79', '119', '147'] 674.0740740740742
60 13.481481481481481 ['129', '150', '120', '138', '148', '141', '135', '137', '128', '149', '146', '145', '79', '119', '147'] 674.0740740740742
61 13.481481481481481 ['129', '150', '120', '138', '148', '141', '135', '137', '128', '149', '146', '145', '79', '119', '147'] 674.0740740740742
62 13.481481481481481 ['129', '150', '120', '138', '148', '141', '135', '137', '128', '149', '146', '145', '79', '119', '147'] 674.0740740740742
63 13.481481481481481 ['129', '150', '120', '138', '148', '141', '135', '137', '128', '149', '146', '145', '79', '119', '147'] 674.0740740740742
64 13.481481481481481 ['129', '150', '120', '138', '148', '141', '135', '137', '128', '149', '146', '145', '79', '119', '147'] 674.0740740740742
65 13.481481481481481 ['129', '150', '120', '138', '148', '141', '135', '137', '128', '149', '146', '145', '79', '119', '147'] 674.0740740740742
66 13.481481481481481 ['129', '150', '120', '138', '148', '141', '135', '137', '128', '149', '146', '145', '79', '119', '147'] 674.0740740740742
67 13.481481481481481 ['129', '150', '120', '138', '148', '141', '135', '137', '128', '149', '146', '145', '79', '119', '147'] 674.0740740740742
68 13.481481481481481 ['129', '150', '120', '138', '148', '141', '135', '137', '128', '149', '146', '145', '79', '119', '147'] 674.0740740740742
69 13.481481481481481 ['129', '150', '120', '138', '148', '141', '135', '137', '128', '149', '146', '145', '79', '119', '147'] 674.0740740740742
70 13.481481481481481 ['129', '150', '120', '138', '148', '141', '135', '137', '128', '149', '146', '145', '79', '119', '147'] 674.0740740740742
71 13.481481481481481 ['129', '150', '120', '138', '148', '141', '135', '137', '128', '149', '146', '145', '79', '119', '147'] 674.0740740740742
72 13.481481481481481 ['129', '150', '120', '138', '148', '141', '135', '137', '128', '149', '146', '145', '79', '119', '147'] 674.0740740740742
73 13.481481481481481 ['129', '150', '120', '138', '148', '141', '135', '137', '128', '149', '146', '145', '79', '119', '147'] 674.0740740740742
74 13.481481481481481 ['129', '150', '120', '138', '148', '141', '135', '137', '128', '149', '146', '145', '79', '119', '147'] 674.0740740740742
75 13.481481481481481 ['129', '150', '120', '138', '148', '141', '135', '137', '128', '149', '146', '145', '79', '119', '147'] 674.0740740740742
76 13.481481481481481 ['129', '150', '120', '138', '148', '141', '135', '137', '128', '149', '146', '145', '79', '119', '147'] 674.0740740740742
77 13.481481481481481 ['129', '150', '120', '138', '148', '141', '135', '137', '128', '149', '146', '145', '79', '119', '147'] 674.0740740740742
78 13.481481481481481 ['129', '150', '120', '138', '148', '141', '135', '137', '128', '149', '146', '145', '79', '119', '147'] 674.0740740740742
79 13.481481481481481 ['129', '150', '120', '138', '148', '141', '135', '137', '128', '149', '146', '145', '79', '119', '147'] 674.0740740740742
80 13.481481481481481 ['129', '150', '120', '138', '148', '141', '135', '137', '128', '149', '146', '145', '79', '119', '147'] 674.0740740740742
81 13.481481481481481 ['129', '150', '120', '138', '148', '141', '135', '137', '128', '149', '146', '145', '79', '119', '147'] 674.0740740740742
82 13.481481481481481 ['129', '150', '120', '138', '148', '141', '135', '137', '128', '149', '146', '145', '79', '119', '147'] 674.0740740740742
83 13.481481481481481 ['129', '150', '120', '138', '148', '141', '135', '137', '128', '149', '146', '145', '79', '119', '147'] 674.0740740740742
84 13.481481481481481 ['129', '150', '120', '138', '148', '141', '135', '137', '128', '149', '146', '145', '79', '119', '147'] 674.0740740740742
85 13.481481481481481 ['129', '150', '120', '138', '148', '141', '135', '137', '128', '149', '146', '145', '79', '119', '147'] 674.0740740740742
86 13.481481481481481 ['129', '150', '120', '138', '148', '141', '135', '137', '128', '149', '146', '145', '79', '119', '147'] 674.0740740740742
87 13.481481481481481 ['129', '150', '120', '138', '148', '141', '135', '137', '128', '149', '146', '145', '79', '119', '147'] 674.0740740740742
88 13.481481481481481 ['129', '150', '120', '138', '148', '141', '135', '137', '128', '149', '146', '145', '79', '119', '147'] 674.0740740740742
89 13.481481481481481 ['129', '150', '120', '138', '148', '141', '135', '137', '128', '149', '146', '145', '79', '119', '147'] 674.0740740740742
90 13.481481481481481 ['129', '150', '120', '138', '148', '141', '135', '137', '128', '149', '146', '145', '79', '119', '147'] 674.0740740740742
91 13.481481481481481 ['129', '150', '120', '138', '148', '141', '135', '137', '128', '149', '146', '145', '79', '119', '147'] 674.0740740740742
92 13.481481481481481 ['129', '150', '120', '138', '148', '141', '135', '137', '128', '149', '146', '145', '79', '119', '147'] 674.0740740740742
93 13.481481481481481 ['129', '150', '120', '138', '148', '141', '135', '137', '128', '149', '146', '145', '79', '119', '147'] 674.0740740740742
94 13.481481481481481 ['129', '150', '120', '138', '148', '141', '135', '137', '128', '149', '146', '145', '79', '119', '147'] 674.0740740740742
95 13.481481481481481 ['129', '150', '120', '138', '148', '141', '135', '137', '128', '149', '146', '145', '79', '119', '147'] 674.0740740740742
96 13.481481481481481 ['129', '150', '120', '138', '148', '141', '135', '137', '128', '149', '146', '145', '79', '119', '147'] 674.0740740740742
97 13.481481481481481 ['129', '150', '120', '138', '148', '141', '135', '137', '128', '149', '146', '145', '79', '119', '147'] 674.0740740740742
98 13.481481481481481 ['129', '150', '120', '138', '148', '141', '135', '137', '128', '149', '146', '145', '79', '119', '147'] 674.0740740740742
99 13.481481481481481 ['129', '150', '120', '138', '148', '141', '135', '137', '128', '149', '146', '145', '79', '119', '147'] 674.0740740740742
100 13.481481481481481 ['129', '150', '120', '138', '148', '141', '135', '137', '128', '149', '146', '145', '79', '119', '147'] 674.0740740740742
101 13.481481481481481 ['129', '150', '120', '138', '148', '141', '135', '137', '128', '149', '146', '145', '79', '119', '147'] 674.0740740740742
102 13.481481481481481 ['129', '150', '120', '138', '148', '141', '135', '137', '128', '149', '146', '145', '79', '119', '147'] 674.0740740740742
103 13.481481481481481 ['129', '150', '120', '138', '148', '141', '135', '137', '128', '149', '146', '145', '79', '119', '147'] 674.0740740740742
104 13.481481481481481 ['129', '150', '120', '138', '148', '141', '135', '137', '128', '149', '146', '145', '79', '119', '147'] 674.0740740740742
105 13.481481481481481 ['129', '150', '120', '138', '148', '141', '135', '137', '128', '149', '146', '145', '79', '119', '147'] 674.0740740740742
106 13.481481481481481 ['129', '150', '120', '138', '148', '141', '135', '137', '128', '149', '146', '145', '79', '119', '147'] 674.0740740740742
107 13.481481481481481 ['129', '150', '120', '138', '148', '141', '135', '137', '128', '149', '146', '145', '79', '119', '147'] 674.0740740740742
108 13.481481481481481 ['129', '150', '120', '138', '148', '141', '135', '137', '128', '149', '146', '145', '79', '119', '147'] 674.0740740740742
109 13.481481481481481 ['129', '150', '120', '138', '148', '141', '135', '137', '128', '149', '146', '145', '79', '119', '147'] 674.0740740740742
110 13.481481481481481 ['129', '150', '120', '138', '148', '141', '135', '137', '128', '149', '146', '145', '79', '119', '147'] 674.0740740740742
111 13.481481481481481 ['129', '150', '120', '138', '148', '141', '135', '137', '128', '149', '146', '145', '79', '119', '147'] 674.0740740740742
112 13.481481481481481 ['129', '150', '120', '138', '148', '141', '135', '137', '128', '149', '146', '145', '79', '119', '147'] 674.0740740740742
113 13.481481481481481 ['129', '150', '120', '138', '148', '141', '135', '137', '128', '149', '146', '145', '79', '119', '147'] 674.0740740740742
114 13.481481481481481 ['129', '150', '120', '138', '148', '141', '135', '137', '128', '149', '146', '145', '79', '119', '147'] 674.0740740740742
115 13.481481481481481 ['129', '150', '120', '138', '148', '141', '135', '137', '128', '149', '146', '145', '79', '119', '147'] 674.0740740740742
116 13.481481481481481 ['129', '150', '120', '138', '148', '141', '135', '137', '128', '149', '146', '145', '79', '119', '147'] 674.0740740740742
117 13.481481481481481 ['129', '150', '120', '138', '148', '141', '135', '137', '128', '149', '146', '145', '79', '119', '147'] 674.0740740740742
118 13.481481481481481 ['129', '150', '120', '138', '148', '141', '135', '137', '128', '149', '146', '145', '79', '119', '147'] 674.0740740740742
119 13.481481481481481 ['129', '150', '120', '138', '148', '141', '135', '137', '128', '149', '146', '145', '79', '119', '147'] 674.0740740740742
120 13.481481481481481 ['129', '150', '120', '138', '148', '141', '135', '137', '128', '149', '146', '145', '79', '119', '147'] 674.0740740740742
121 13.481481481481481 ['129', '150', '120', '138', '148', '141', '135', '137', '128', '149', '146', '145', '79', '119', '147'] 674.0740740740742
122 13.481481481481481 ['129', '150', '120', '138', '148', '141', '135', '137', '128', '149', '146', '145', '79', '119', '147'] 674.0740740740742
123 13.481481481481481 ['129', '150', '120', '138', '148', '141', '135', '137', '128', '149', '146', '145', '79', '119', '147'] 674.0740740740742
124 13.481481481481481 ['129', '150', '120', '138', '148', '141', '135', '137', '128', '149', '146', '145', '79', '119', '147'] 674.0740740740742
125 13.481481481481481 ['129', '150', '120', '138', '148', '141', '135', '137', '128', '149', '146', '145', '79', '119', '147'] 674.0740740740742
126 13.481481481481481 ['129', '150', '120', '138', '148', '141', '135', '137', '128', '149', '146', '145', '79', '119', '147'] 674.0740740740742
127 13.481481481481481 ['129', '150', '120', '138', '148', '141', '135', '137', '128', '149', '146', '145', '79', '119', '147'] 674.0740740740742
128 13.481481481481481 ['129', '150', '120', '138', '148', '141', '135', '137', '128', '149', '146', '145', '79', '119', '147'] 674.0740740740742
129 13.481481481481481 ['129', '150', '120', '138', '148', '141', '135', '137', '128', '149', '146', '145', '79', '119', '147'] 674.0740740740742
130 13.481481481481481 ['129', '150', '120', '138', '148', '141', '135', '137', '128', '149', '146', '145', '79', '119', '147'] 674.0740740740742
131 13.481481481481481 ['129', '150', '120', '138', '148', '141', '135', '137', '128', '149', '146', '145', '79', '119', '147'] 674.0740740740742
132 13.481481481481481 ['129', '150', '120', '138', '148', '141', '135', '137', '128', '149', '146', '145', '79', '119', '147'] 674.0740740740742
133 13.481481481481481 ['129', '150', '120', '138', '148', '141', '135', '137', '128', '149', '146', '145', '79', '119', '147'] 674.0740740740742
134 13.481481481481481 ['129', '150', '120', '138', '148', '141', '135', '137', '128', '149', '146', '145', '79', '119', '147'] 674.0740740740742
135 13.481481481481481 ['129', '150', '120', '138', '148', '141', '135', '137', '128', '149', '146', '145', '79', '119', '147'] 674.0740740740742
136 13.481481481481481 ['129', '150', '120', '138', '148', '141', '135', '137', '128', '149', '146', '145', '79', '119', '147'] 674.0740740740742
137 13.481481481481481 ['129', '150', '120', '138', '148', '141', '135', '137', '128', '149', '146', '145', '79', '119', '147'] 674.0740740740742
138 13.481481481481481 ['129', '150', '120', '138', '148', '141', '135', '137', '128', '149', '146', '145', '79', '119', '147'] 674.0740740740742
139 13.481481481481481 ['129', '150', '120', '138', '148', '141', '135', '137', '128', '149', '146', '145', '79', '119', '147'] 674.0740740740742
140 13.481481481481481 ['129', '150', '120', '138', '148', '141', '135', '137', '128', '149', '146', '145', '79', '119', '147'] 674.0740740740742
141 13.481481481481481 ['129', '150', '120', '138', '148', '141', '135', '137', '128', '149', '146', '145', '79', '119', '147'] 674.0740740740742
142 13.481481481481481 ['129', '150', '120', '138', '148', '141', '135', '137', '128', '149', '146', '145', '79', '119', '147'] 674.0740740740742
143 13.481481481481481 ['129', '150', '120', '138', '148', '141', '135', '137', '128', '149', '146', '145', '79', '119', '147'] 674.0740740740742
144 13.481481481481481 ['129', '150', '120', '138', '148', '141', '135', '137', '128', '149', '146', '145', '79', '119', '147'] 674.0740740740742
145 13.481481481481481 ['129', '150', '120', '138', '148', '141', '135', '137', '128', '149', '146', '145', '79', '119', '147'] 674.0740740740742
146 13.481481481481481 ['129', '150', '120', '138', '148', '141', '135', '137', '128', '149', '146', '145', '79', '119', '147'] 674.0740740740742
147 13.481481481481481 ['129', '150', '120', '138', '148', '141', '135', '137', '128', '149', '146', '145', '79', '119', '147'] 674.0740740740742
148 13.481481481481481 ['129', '150', '120', '138', '148', '141', '135', '137', '128', '149', '146', '145', '79', '119', '147'] 674.0740740740742
149 13.481481481481481 ['129', '150', '120', '138', '148', '141', '135', '137', '128', '149', '146', '145', '79', '119', '147'] 674.0740740740742
150 13.481481481481481 ['129', '150', '120', '138', '148', '141', '135', '137', '128', '149', '146', '145', '79', '119', '147'] 674.0740740740742
151 13.481481481481481 ['129', '150', '120', '138', '148', '141', '135', '137', '128', '149', '146', '145', '79', '119', '147'] 674.0740740740742
152 13.481481481481481 ['129', '150', '120', '138', '148', '141', '135', '137', '128', '149', '146', '145', '79', '119', '147'] 674.0740740740742
153 13.481481481481481 ['129', '150', '120', '138', '148', '141', '135', '137', '128', '149', '146', '145', '79', '119', '147'] 674.0740740740742
154 13.481481481481481 ['129', '150', '120', '138', '148', '141', '135', '137', '128', '149', '146', '145', '79', '119', '147'] 674.0740740740742
155 13.481481481481481 ['129', '150', '120', '138', '148', '141', '135', '137', '128', '149', '146', '145', '79', '119', '147'] 674.0740740740742
156 13.481481481481481 ['129', '150', '120', '138', '148', '141', '135', '137', '128', '149', '146', '145', '79', '119', '147'] 674.0740740740742
157 13.481481481481481 ['129', '150', '120', '138', '148', '141', '135', '137', '128', '149', '146', '145', '79', '119', '147'] 674.0740740740742
158 13.481481481481481 ['129', '150', '120', '138', '148', '141', '135', '137', '128', '149', '146', '145', '79', '119', '147'] 674.0740740740742
159 13.481481481481481 ['129', '150', '120', '138', '148', '141', '135', '137', '128', '149', '146', '145', '79', '119', '147'] 674.0740740740742
160 13.481481481481481 ['129', '150', '120', '138', '148', '141', '135', '137', '128', '149', '146', '145', '79', '119', '147'] 674.0740740740742
161 13.481481481481481 ['129', '150', '120', '138', '148', '141', '135', '137', '128', '149', '146', '145', '79', '119', '147'] 674.0740740740742
162 13.481481481481481 ['129', '150', '120', '138', '148', '141', '135', '137', '128', '149', '146', '145', '79', '119', '147'] 674.0740740740742
163 13.481481481481481 ['129', '150', '120', '138', '148', '141', '135', '137', '128', '149', '146', '145', '79', '119', '147'] 674.0740740740742
164 13.481481481481481 ['129', '150', '120', '138', '148', '141', '135', '137', '128', '149', '146', '145', '79', '119', '147'] 674.0740740740742
165 13.481481481481481 ['129', '150', '120', '138', '148', '141', '135', '137', '128', '149', '146', '145', '79', '119', '147'] 674.0740740740742
166 13.481481481481481 ['129', '150', '120', '138', '148', '141', '135', '137', '128', '149', '146', '145', '79', '119', '147'] 674.0740740740742
167 13.481481481481481 ['129', '150', '120', '138', '148', '141', '135', '137', '128', '149', '146', '145', '79', '119', '147'] 674.0740740740742
168 13.481481481481481 ['129', '150', '120', '138', '148', '141', '135', '137', '128', '149', '146', '145', '79', '119', '147'] 674.0740740740742
169 13.481481481481481 ['129', '150', '120', '138', '148', '141', '135', '137', '128', '149', '146', '145', '79', '119', '147'] 674.0740740740742
170 13.481481481481481 ['129', '150', '120', '138', '148', '141', '135', '137', '128', '149', '146', '145', '79', '119', '147'] 674.0740740740742
171 13.481481481481481 ['129', '150', '120', '138', '148', '141', '135', '137', '128', '149', '146', '145', '79', '119', '147'] 674.0740740740742
172 13.481481481481481 ['129', '150', '120', '138', '148', '141', '135', '137', '128', '149', '146', '145', '79', '119', '147'] 674.0740740740742
173 13.481481481481481 ['129', '150', '120', '138', '148', '141', '135', '137', '128', '149', '146', '145', '79', '119', '147'] 674.0740740740742
174 13.481481481481481 ['129', '150', '120', '138', '148', '141', '135', '137', '128', '149', '146', '145', '79', '119', '147'] 674.0740740740742
175 13.481481481481481 ['129', '150', '120', '138', '148', '141', '135', '137', '128', '149', '146', '145', '79', '119', '147'] 674.0740740740742
176 13.481481481481481 ['129', '150', '120', '138', '148', '141', '135', '137', '128', '149', '146', '145', '79', '119', '147'] 674.0740740740742
177 13.481481481481481 ['129', '150', '120', '138', '148', '141', '135', '137', '128', '149', '146', '145', '79', '119', '147'] 674.0740740740742
178 13.481481481481481 ['129', '150', '120', '138', '148', '141', '135', '137', '128', '149', '146', '145', '79', '119', '147'] 674.0740740740742
179 13.481481481481481 ['129', '150', '120', '138', '148', '141', '135', '137', '128', '149', '146', '145', '79', '119', '147'] 674.0740740740742
180 13.481481481481481 ['129', '150', '120', '138', '148', '141', '135', '137', '128', '149', '146', '145', '79', '119', '147'] 674.0740740740742
181 13.481481481481481 ['129', '150', '120', '138', '148', '141', '135', '137', '128', '149', '146', '145', '79', '119', '147'] 674.0740740740742
182 13.481481481481481 ['129', '150', '120', '138', '148', '141', '135', '137', '128', '149', '146', '145', '79', '119', '147'] 674.0740740740742
183 13.481481481481481 ['129', '150', '120', '138', '148', '141', '135', '137', '128', '149', '146', '145', '79', '119', '147'] 674.0740740740742
184 13.481481481481481 ['129', '150', '120', '138', '148', '141', '135', '137', '128', '149', '146', '145', '79', '119', '147'] 674.0740740740742
185 13.481481481481481 ['129', '150', '120', '138', '148', '141', '135', '137', '128', '149', '146', '145', '79', '119', '147'] 674.0740740740742
186 13.481481481481481 ['129', '150', '120', '138', '148', '141', '135', '137', '128', '149', '146', '145', '79', '119', '147'] 674.0740740740742
187 13.481481481481481 ['129', '150', '120', '138', '148', '141', '135', '137', '128', '149', '146', '145', '79', '119', '147'] 674.0740740740742
188 13.481481481481481 ['129', '150', '120', '138', '148', '141', '135', '137', '128', '149', '146', '145', '79', '119', '147'] 674.0740740740742
189 13.481481481481481 ['129', '150', '120', '138', '148', '141', '135', '137', '128', '149', '146', '145', '79', '119', '147'] 674.0740740740742
190 13.481481481481481 ['129', '150', '120', '138', '148', '141', '135', '137', '128', '149', '146', '145', '79', '119', '147'] 674.0740740740742
191 13.481481481481481 ['129', '150', '120', '138', '148', '141', '135', '137', '128', '149', '146', '145', '79', '119', '147'] 674.0740740740742
192 13.481481481481481 ['129', '150', '120', '138', '148', '141', '135', '137', '128', '149', '146', '145', '79', '119', '147'] 674.0740740740742
193 13.481481481481481 ['129', '150', '120', '138', '148', '141', '135', '137', '128', '149', '146', '145', '79', '119', '147'] 674.0740740740742
194 13.481481481481481 ['129', '150', '120', '138', '148', '141', '135', '137', '128', '149', '146', '145', '79', '119', '147'] 674.0740740740742
195 13.481481481481481 ['129', '150', '120', '138', '148', '141', '135', '137', '128', '149', '146', '145', '79', '119', '147'] 674.0740740740742
196 13.481481481481481 ['129', '150', '120', '138', '148', '141', '135', '137', '128', '149', '146', '145', '79', '119', '147'] 674.0740740740742
197 13.481481481481481 ['129', '150', '120', '138', '148', '141', '135', '137', '128', '149', '146', '145', '79', '119', '147'] 674.0740740740742
198 13.481481481481481 ['129', '150', '120', '138', '148', '141', '135', '137', '128', '149', '146', '145', '79', '119', '147'] 674.0740740740742
199 13.481481481481481 ['129', '150', '120', '138', '148', '141', '135', '137', '128', '149', '146', '145', '79', '119', '147'] 674.0740740740742
