0 35.59649122807018 ['5', '48', '18', '41', '32', '17'] 1870.298245614035
1 35.49122807017544 ['33', '45', '5', '52', '14', '19'] 1843.7894736842106
2 35.1578947368421 ['38', '48', '59', '45', '17', '6'] 1820.3157894736842
3 35.08771929824562 ['6', '60', '17', '45', '59', '52'] 1798.140350877193
4 34.73684210526316 ['17', '33', '52', '6', '38', '59'] 1780.5263157894738
5 34.50877192982456 ['14', '29', '17', '5', '33', '35'] 1761.140350877193
6 33.98245614035088 ['48', '38', '17', '35', '52', '14'] 1744.6315789473672
7 33.98245614035088 ['48', '38', '17', '35', '52', '14'] 1733.5789473684215
8 33.98245614035088 ['48', '38', '17', '35', '52', '14'] 1723.0000000000005
9 33.87719298245614 ['17', '59', '52', '35', '14', '6'] 1715.0175438596489
10 33.87719298245614 ['17', '59', '52', '35', '14', '6'] 1708.3508771929824
11 33.78947368421053 ['52', '17', '14', '59', '35', '5'] 1702.0526315789473
12 33.771929824561404 ['17', '14', '52', '48', '59', '35'] 1696.5789473684201
13 33.771929824561404 ['17', '14', '52', '48', '59', '35'] 1692.5438596491235
14 33.771929824561404 ['17', '14', '52', '48', '59', '35'] 1689.8771929824572
15 33.771929824561404 ['17', '14', '52', '48', '59', '35'] 1688.719298245614
16 33.771929824561404 ['17', '14', '52', '48', '59', '35'] 1688.5964912280688
17 33.771929824561404 ['17', '14', '52', '48', '59', '35'] 1688.5964912280688
18 33.771929824561404 ['17', '14', '52', '48', '59', '35'] 1688.5964912280688
19 33.771929824561404 ['17', '14', '52', '48', '59', '35'] 1688.5964912280688
20 33.771929824561404 ['17', '14', '52', '48', '59', '35'] 1688.5964912280688
21 33.771929824561404 ['17', '14', '52', '48', '59', '35'] 1688.5964912280688
22 33.771929824561404 ['17', '14', '52', '48', '59', '35'] 1688.5964912280688
23 33.771929824561404 ['17', '14', '52', '48', '59', '35'] 1688.5964912280688
24 33.771929824561404 ['17', '14', '52', '48', '59', '35'] 1688.5964912280688
25 33.771929824561404 ['17', '14', '52', '48', '59', '35'] 1688.5964912280688
26 33.771929824561404 ['17', '14', '52', '48', '59', '35'] 1688.5964912280688
27 33.771929824561404 ['17', '14', '52', '48', '59', '35'] 1688.5964912280688
28 33.771929824561404 ['17', '14', '52', '48', '59', '35'] 1688.5964912280688
29 33.771929824561404 ['17', '14', '52', '48', '59', '35'] 1688.5964912280688
30 33.771929824561404 ['17', '14', '52', '48', '59', '35'] 1688.5964912280688
31 33.771929824561404 ['17', '14', '52', '48', '59', '35'] 1688.5964912280688
32 33.771929824561404 ['17', '14', '52', '48', '59', '35'] 1688.5964912280688
33 33.771929824561404 ['17', '14', '52', '48', '59', '35'] 1688.5964912280688
34 33.771929824561404 ['17', '14', '52', '48', '59', '35'] 1688.5964912280688
35 33.771929824561404 ['17', '14', '52', '48', '59', '35'] 1688.5964912280688
36 33.771929824561404 ['17', '14', '52', '48', '59', '35'] 1688.5964912280688
37 33.771929824561404 ['17', '14', '52', '48', '59', '35'] 1688.5964912280688
38 33.771929824561404 ['17', '14', '52', '48', '59', '35'] 1688.5964912280688
39 33.771929824561404 ['17', '14', '52', '48', '59', '35'] 1688.5964912280688
40 33.771929824561404 ['17', '14', '52', '48', '59', '35'] 1688.5964912280688
41 33.771929824561404 ['17', '14', '52', '48', '59', '35'] 1688.5964912280688
42 33.771929824561404 ['17', '14', '52', '48', '59', '35'] 1688.5964912280688
43 33.771929824561404 ['17', '14', '52', '48', '59', '35'] 1688.5964912280688
44 33.771929824561404 ['17', '14', '52', '48', '59', '35'] 1688.5964912280688
45 33.771929824561404 ['17', '14', '52', '48', '59', '35'] 1688.5964912280688
46 33.771929824561404 ['17', '14', '52', '48', '59', '35'] 1688.5964912280688
47 33.771929824561404 ['17', '14', '52', '48', '59', '35'] 1688.5964912280688
48 33.771929824561404 ['17', '14', '52', '48', '59', '35'] 1688.5964912280688
49 33.771929824561404 ['17', '14', '52', '48', '59', '35'] 1688.5964912280688
50 33.771929824561404 ['17', '14', '52', '48', '59', '35'] 1688.5964912280688
51 33.771929824561404 ['17', '14', '52', '48', '59', '35'] 1688.5964912280688
52 33.771929824561404 ['17', '14', '52', '48', '59', '35'] 1688.5964912280688
53 33.771929824561404 ['17', '14', '52', '48', '59', '35'] 1688.5964912280688
54 33.771929824561404 ['17', '14', '52', '48', '59', '35'] 1688.5964912280688
55 33.771929824561404 ['17', '14', '52', '48', '59', '35'] 1688.5964912280688
56 33.771929824561404 ['17', '14', '52', '48', '59', '35'] 1688.5964912280688
57 33.771929824561404 ['17', '14', '52', '48', '59', '35'] 1688.5964912280688
58 33.771929824561404 ['17', '14', '52', '48', '59', '35'] 1688.5964912280688
59 33.771929824561404 ['17', '14', '52', '48', '59', '35'] 1688.5964912280688
60 33.771929824561404 ['17', '14', '52', '48', '59', '35'] 1688.5964912280688
61 33.771929824561404 ['17', '14', '52', '48', '59', '35'] 1688.5964912280688
62 33.771929824561404 ['17', '14', '52', '48', '59', '35'] 1688.5964912280688
63 33.771929824561404 ['17', '14', '52', '48', '59', '35'] 1688.5964912280688
64 33.771929824561404 ['17', '14', '52', '48', '59', '35'] 1688.5964912280688
65 33.771929824561404 ['17', '14', '52', '48', '59', '35'] 1688.5964912280688
66 33.771929824561404 ['17', '14', '52', '48', '59', '35'] 1688.5964912280688
67 33.771929824561404 ['17', '14', '52', '48', '59', '35'] 1688.5964912280688
68 33.771929824561404 ['17', '14', '52', '48', '59', '35'] 1688.5964912280688
69 33.771929824561404 ['17', '14', '52', '48', '59', '35'] 1688.5964912280688
70 33.771929824561404 ['17', '14', '52', '48', '59', '35'] 1688.5964912280688
71 33.771929824561404 ['17', '14', '52', '48', '59', '35'] 1688.5964912280688
72 33.771929824561404 ['17', '14', '52', '48', '59', '35'] 1688.5964912280688
73 33.771929824561404 ['17', '14', '52', '48', '59', '35'] 1688.5964912280688
74 33.771929824561404 ['17', '14', '52', '48', '59', '35'] 1688.5964912280688
75 33.771929824561404 ['17', '14', '52', '48', '59', '35'] 1688.5964912280688
76 33.771929824561404 ['17', '14', '52', '48', '59', '35'] 1688.5964912280688
77 33.771929824561404 ['17', '14', '52', '48', '59', '35'] 1688.5964912280688
78 33.771929824561404 ['17', '14', '52', '48', '59', '35'] 1688.5964912280688
79 33.771929824561404 ['17', '14', '52', '48', '59', '35'] 1688.5964912280688
80 33.771929824561404 ['17', '14', '52', '48', '59', '35'] 1688.5964912280688
81 33.771929824561404 ['17', '14', '52', '48', '59', '35'] 1688.5964912280688
82 33.771929824561404 ['17', '14', '52', '48', '59', '35'] 1688.5964912280688
83 33.771929824561404 ['17', '14', '52', '48', '59', '35'] 1688.5964912280688
84 33.771929824561404 ['17', '14', '52', '48', '59', '35'] 1688.5964912280688
85 33.771929824561404 ['17', '14', '52', '48', '59', '35'] 1688.5964912280688
86 33.771929824561404 ['17', '14', '52', '48', '59', '35'] 1688.5964912280688
87 33.771929824561404 ['17', '14', '52', '48', '59', '35'] 1688.5964912280688
88 33.771929824561404 ['17', '14', '52', '48', '59', '35'] 1688.5964912280688
89 33.771929824561404 ['17', '14', '52', '48', '59', '35'] 1688.5964912280688
90 33.771929824561404 ['17', '14', '52', '48', '59', '35'] 1688.5964912280688
91 33.771929824561404 ['17', '14', '52', '48', '59', '35'] 1688.5964912280688
92 33.771929824561404 ['17', '14', '52', '48', '59', '35'] 1688.5964912280688
93 33.771929824561404 ['17', '14', '52', '48', '59', '35'] 1688.5964912280688
94 33.771929824561404 ['17', '14', '52', '48', '59', '35'] 1688.5964912280688
95 33.771929824561404 ['17', '14', '52', '48', '59', '35'] 1688.5964912280688
96 33.771929824561404 ['17', '14', '52', '48', '59', '35'] 1688.5964912280688
97 33.771929824561404 ['17', '14', '52', '48', '59', '35'] 1688.5964912280688
98 33.771929824561404 ['17', '14', '52', '48', '59', '35'] 1688.5964912280688
99 33.771929824561404 ['17', '14', '52', '48', '59', '35'] 1688.5964912280688
100 33.771929824561404 ['17', '14', '52', '48', '59', '35'] 1688.5964912280688
101 33.771929824561404 ['17', '14', '52', '48', '59', '35'] 1688.5964912280688
102 33.771929824561404 ['17', '14', '52', '48', '59', '35'] 1688.5964912280688
103 33.771929824561404 ['17', '14', '52', '48', '59', '35'] 1688.5964912280688
104 33.771929824561404 ['17', '14', '52', '48', '59', '35'] 1688.5964912280688
105 33.771929824561404 ['17', '14', '52', '48', '59', '35'] 1688.5964912280688
106 33.771929824561404 ['17', '14', '52', '48', '59', '35'] 1688.5964912280688
107 33.771929824561404 ['17', '14', '52', '48', '59', '35'] 1688.5964912280688
108 33.771929824561404 ['17', '14', '52', '48', '59', '35'] 1688.5964912280688
109 33.771929824561404 ['17', '14', '52', '48', '59', '35'] 1688.5964912280688
110 33.771929824561404 ['17', '14', '52', '48', '59', '35'] 1688.5964912280688
111 33.771929824561404 ['17', '14', '52', '48', '59', '35'] 1688.5964912280688
112 33.771929824561404 ['17', '14', '52', '48', '59', '35'] 1688.5964912280688
113 33.771929824561404 ['17', '14', '52', '48', '59', '35'] 1688.5964912280688
114 33.771929824561404 ['17', '14', '52', '48', '59', '35'] 1688.5964912280688
115 33.771929824561404 ['17', '14', '52', '48', '59', '35'] 1688.5964912280688
116 33.771929824561404 ['17', '14', '52', '48', '59', '35'] 1688.5964912280688
117 33.771929824561404 ['17', '14', '52', '48', '59', '35'] 1688.5964912280688
118 33.771929824561404 ['17', '14', '52', '48', '59', '35'] 1688.5964912280688
119 33.771929824561404 ['17', '14', '52', '48', '59', '35'] 1688.5964912280688
120 33.771929824561404 ['17', '14', '52', '48', '59', '35'] 1688.5964912280688
121 33.771929824561404 ['17', '14', '52', '48', '59', '35'] 1688.5964912280688
122 33.771929824561404 ['17', '14', '52', '48', '59', '35'] 1688.5964912280688
123 33.771929824561404 ['17', '14', '52', '48', '59', '35'] 1688.5964912280688
124 33.771929824561404 ['17', '14', '52', '48', '59', '35'] 1688.5964912280688
125 33.771929824561404 ['17', '14', '52', '48', '59', '35'] 1688.5964912280688
126 33.771929824561404 ['17', '14', '52', '48', '59', '35'] 1688.5964912280688
127 33.771929824561404 ['17', '14', '52', '48', '59', '35'] 1688.5964912280688
128 33.771929824561404 ['17', '14', '52', '48', '59', '35'] 1688.5964912280688
129 33.771929824561404 ['17', '14', '52', '48', '59', '35'] 1688.5964912280688
130 33.771929824561404 ['17', '14', '52', '48', '59', '35'] 1688.5964912280688
131 33.771929824561404 ['17', '14', '52', '48', '59', '35'] 1688.5964912280688
132 33.771929824561404 ['17', '14', '52', '48', '59', '35'] 1688.5964912280688
133 33.771929824561404 ['17', '14', '52', '48', '59', '35'] 1688.5964912280688
134 33.771929824561404 ['17', '14', '52', '48', '59', '35'] 1688.5964912280688
135 33.771929824561404 ['17', '14', '52', '48', '59', '35'] 1688.5964912280688
136 33.771929824561404 ['17', '14', '52', '48', '59', '35'] 1688.5964912280688
137 33.771929824561404 ['17', '14', '52', '48', '59', '35'] 1688.5964912280688
138 33.771929824561404 ['17', '14', '52', '48', '59', '35'] 1688.5964912280688
139 33.771929824561404 ['17', '14', '52', '48', '59', '35'] 1688.5964912280688
140 33.771929824561404 ['17', '14', '52', '48', '59', '35'] 1688.5964912280688
141 33.771929824561404 ['17', '14', '52', '48', '59', '35'] 1688.5964912280688
142 33.771929824561404 ['17', '14', '52', '48', '59', '35'] 1688.5964912280688
143 33.771929824561404 ['17', '14', '52', '48', '59', '35'] 1688.5964912280688
144 33.771929824561404 ['17', '14', '52', '48', '59', '35'] 1688.5964912280688
145 33.771929824561404 ['17', '14', '52', '48', '59', '35'] 1688.5964912280688
146 33.771929824561404 ['17', '14', '52', '48', '59', '35'] 1688.5964912280688
147 33.771929824561404 ['17', '14', '52', '48', '59', '35'] 1688.5964912280688
148 33.771929824561404 ['17', '14', '52', '48', '59', '35'] 1688.5964912280688
149 33.771929824561404 ['17', '14', '52', '48', '59', '35'] 1688.5964912280688
150 33.771929824561404 ['17', '14', '52', '48', '59', '35'] 1688.5964912280688
151 33.771929824561404 ['17', '14', '52', '48', '59', '35'] 1688.5964912280688
152 33.771929824561404 ['17', '14', '52', '48', '59', '35'] 1688.5964912280688
153 33.771929824561404 ['17', '14', '52', '48', '59', '35'] 1688.5964912280688
154 33.771929824561404 ['17', '14', '52', '48', '59', '35'] 1688.5964912280688
155 33.771929824561404 ['17', '14', '52', '48', '59', '35'] 1688.5964912280688
156 33.771929824561404 ['17', '14', '52', '48', '59', '35'] 1688.5964912280688
157 33.771929824561404 ['17', '14', '52', '48', '59', '35'] 1688.5964912280688
158 33.771929824561404 ['17', '14', '52', '48', '59', '35'] 1688.5964912280688
159 33.771929824561404 ['17', '14', '52', '48', '59', '35'] 1688.5964912280688
160 33.771929824561404 ['17', '14', '52', '48', '59', '35'] 1688.5964912280688
161 33.771929824561404 ['17', '14', '52', '48', '59', '35'] 1688.5964912280688
162 33.771929824561404 ['17', '14', '52', '48', '59', '35'] 1688.5964912280688
163 33.771929824561404 ['17', '14', '52', '48', '59', '35'] 1688.5964912280688
164 33.771929824561404 ['17', '14', '52', '48', '59', '35'] 1688.5964912280688
165 33.771929824561404 ['17', '14', '52', '48', '59', '35'] 1688.5964912280688
166 33.771929824561404 ['17', '14', '52', '48', '59', '35'] 1688.5964912280688
167 33.771929824561404 ['17', '14', '52', '48', '59', '35'] 1688.5964912280688
168 33.771929824561404 ['17', '14', '52', '48', '59', '35'] 1688.5964912280688
169 33.771929824561404 ['17', '14', '52', '48', '59', '35'] 1688.5964912280688
170 33.771929824561404 ['17', '14', '52', '48', '59', '35'] 1688.5964912280688
171 33.771929824561404 ['17', '14', '52', '48', '59', '35'] 1688.5964912280688
172 33.771929824561404 ['17', '14', '52', '48', '59', '35'] 1688.5964912280688
173 33.771929824561404 ['17', '14', '52', '48', '59', '35'] 1688.5964912280688
174 33.771929824561404 ['17', '14', '52', '48', '59', '35'] 1688.5964912280688
175 33.771929824561404 ['17', '14', '52', '48', '59', '35'] 1688.5964912280688
176 33.771929824561404 ['17', '14', '52', '48', '59', '35'] 1688.5964912280688
177 33.771929824561404 ['17', '14', '52', '48', '59', '35'] 1688.5964912280688
178 33.771929824561404 ['17', '14', '52', '48', '59', '35'] 1688.5964912280688
179 33.771929824561404 ['17', '14', '52', '48', '59', '35'] 1688.5964912280688
180 33.771929824561404 ['17', '14', '52', '48', '59', '35'] 1688.5964912280688
181 33.771929824561404 ['17', '14', '52', '48', '59', '35'] 1688.5964912280688
182 33.771929824561404 ['17', '14', '52', '48', '59', '35'] 1688.5964912280688
183 33.771929824561404 ['17', '14', '52', '48', '59', '35'] 1688.5964912280688
184 33.771929824561404 ['17', '14', '52', '48', '59', '35'] 1688.5964912280688
185 33.771929824561404 ['17', '14', '52', '48', '59', '35'] 1688.5964912280688
186 33.771929824561404 ['17', '14', '52', '48', '59', '35'] 1688.5964912280688
187 33.771929824561404 ['17', '14', '52', '48', '59', '35'] 1688.5964912280688
188 33.771929824561404 ['17', '14', '52', '48', '59', '35'] 1688.5964912280688
189 33.771929824561404 ['17', '14', '52', '48', '59', '35'] 1688.5964912280688
190 33.771929824561404 ['17', '14', '52', '48', '59', '35'] 1688.5964912280688
191 33.771929824561404 ['17', '14', '52', '48', '59', '35'] 1688.5964912280688
192 33.771929824561404 ['17', '14', '52', '48', '59', '35'] 1688.5964912280688
193 33.771929824561404 ['17', '14', '52', '48', '59', '35'] 1688.5964912280688
194 33.771929824561404 ['17', '14', '52', '48', '59', '35'] 1688.5964912280688
195 33.771929824561404 ['17', '14', '52', '48', '59', '35'] 1688.5964912280688
196 33.771929824561404 ['17', '14', '52', '48', '59', '35'] 1688.5964912280688
197 33.771929824561404 ['17', '14', '52', '48', '59', '35'] 1688.5964912280688
198 33.49122807017544 ['52', '14', '59', '35', '48', '8'] 1688.3157894736828
199 33.49122807017544 ['52', '14', '59', '35', '48', '8'] 1688.3157894736828
