0 14.585185185185185 ['105', '77', '40', '143', '98', '119', '46', '114', '71', '21', '144', '110', '107', '126', '5'] 743.9703703703707
1 14.585185185185185 ['105', '77', '40', '143', '98', '119', '46', '114', '71', '21', '144', '110', '107', '126', '5'] 737.7333333333335
2 14.407407407407407 ['80', '105', '142', '11', '125', '61', '26', '128', '109', '130', '53', '10', '145', '146', '141'] 733.118518518519
3 14.08148148148148 ['139', '123', '108', '134', '18', '90', '149', '113', '136', '116', '147', '83', '5', '80', '111'] 728.0148148148149
4 14.08148148148148 ['139', '123', '108', '134', '18', '90', '149', '113', '136', '116', '147', '83', '5', '80', '111'] 723.088888888889
5 13.911111111111111 ['5', '90', '147', '114', '71', '149', '83', '144', '143', '108', '139', '93', '111', '116', '134'] 717.3259259259263
6 13.911111111111111 ['5', '90', '147', '114', '71', '149', '83', '144', '143', '108', '139', '93', '111', '116', '134'] 711.2740740740743
7 13.88888888888889 ['111', '137', '132', '136', '116', '128', '123', '147', '134', '140', '148', '90', '112', '142', '149'] 707.0518518518516
8 13.822222222222223 ['79', '147', '113', '139', '114', '138', '143', '123', '148', '101', '77', '130', '134', '93', '149'] 702.8592592592593
9 13.718518518518518 ['147', '148', '134', '130', '119', '83', '139', '142', '136', '123', '111', '140', '143', '132', '137'] 698.6592592592598
10 13.696296296296296 ['134', '123', '140', '147', '148', '132', '144', '105', '137', '136', '111', '139', '143', '114', '142'] 694.3333333333328
11 13.696296296296296 ['134', '123', '140', '147', '148', '132', '144', '105', '137', '136', '111', '139', '143', '114', '142'] 691.3703703703706
12 13.637037037037038 ['147', '150', '116', '134', '149', '114', '143', '144', '108', '136', '128', '138', '148', '113', '132'] 688.7703703703702
13 13.637037037037038 ['147', '150', '116', '134', '149', '114', '143', '144', '108', '136', '128', '138', '148', '113', '132'] 687.0222222222224
14 13.614814814814816 ['136', '147', '114', '149', '148', '144', '139', '120', '113', '130', '134', '142', '145', '108', '111'] 684.977777777778
15 13.6 ['143', '140', '134', '147', '136', '148', '112', '138', '144', '113', '142', '130', '149', '128', '111'] 683.3555555555555
16 13.562962962962963 ['132', '113', '128', '139', '148', '147', '144', '136', '134', '142', '143', '149', '138', '114', '79'] 681.9555555555553
17 13.481481481481481 ['142', '108', '136', '140', '147', '148', '139', '149', '112', '143', '126', '145', '116', '144', '128'] 680.3703703703704
18 13.437037037037037 ['140', '136', '147', '149', '142', '145', '139', '143', '144', '148', '128', '112', '108', '126', '132'] 679.0444444444452
19 13.437037037037037 ['140', '136', '147', '149', '142', '145', '139', '143', '144', '148', '128', '112', '108', '126', '132'] 677.6
20 13.437037037037037 ['140', '136', '147', '149', '142', '145', '139', '143', '144', '148', '128', '112', '108', '126', '132'] 676.2740740740742
21 13.437037037037037 ['140', '136', '147', '149', '142', '145', '139', '143', '144', '148', '128', '112', '108', '126', '132'] 675.185185185185
22 13.437037037037037 ['140', '136', '147', '149', '142', '145', '139', '143', '144', '148', '128', '112', '108', '126', '132'] 674.3555555555549
23 13.42962962962963 ['138', '126', '112', '142', '139', '136', '149', '143', '108', '147', '148', '115', '145', '144', '132'] 673.4592592592594
24 13.42962962962963 ['138', '126', '112', '142', '139', '136', '149', '143', '108', '147', '148', '115', '145', '144', '132'] 672.6888888888896
25 13.42962962962963 ['138', '126', '112', '142', '139', '136', '149', '143', '108', '147', '148', '115', '145', '144', '132'] 672.1777777777784
26 13.422222222222222 ['149', '112', '108', '139', '145', '144', '142', '147', '143', '140', '138', '148', '126', '132', '115'] 671.8518518518522
27 13.414814814814815 ['139', '148', '143', '149', '142', '138', '112', '115', '108', '144', '147', '145', '132', '126', '128'] 671.5185185185186
28 13.414814814814815 ['139', '148', '143', '149', '142', '138', '112', '115', '108', '144', '147', '145', '132', '126', '128'] 671.3333333333333
29 13.414814814814815 ['139', '148', '143', '149', '142', '138', '112', '115', '108', '144', '147', '145', '132', '126', '128'] 671.2296296296296
30 13.414814814814815 ['139', '148', '143', '149', '142', '138', '112', '115', '108', '144', '147', '145', '132', '126', '128'] 671.0740740740739
31 13.414814814814815 ['139', '148', '143', '149', '142', '138', '112', '115', '108', '144', '147', '145', '132', '126', '128'] 671.0148148148146
32 13.414814814814815 ['139', '148', '143', '149', '142', '138', '112', '115', '108', '144', '147', '145', '132', '126', '128'] 670.8888888888886
33 13.414814814814815 ['139', '148', '143', '149', '142', '138', '112', '115', '108', '144', '147', '145', '132', '126', '128'] 670.7407407407403
34 13.414814814814815 ['139', '148', '143', '149', '142', '138', '112', '115', '108', '144', '147', '145', '132', '126', '128'] 670.7407407407403
35 13.414814814814815 ['139', '148', '143', '149', '142', '138', '112', '115', '108', '144', '147', '145', '132', '126', '128'] 670.7407407407403
36 13.414814814814815 ['139', '148', '143', '149', '142', '138', '112', '115', '108', '144', '147', '145', '132', '126', '128'] 670.7407407407403
37 13.414814814814815 ['139', '148', '143', '149', '142', '138', '112', '115', '108', '144', '147', '145', '132', '126', '128'] 670.7407407407403
38 13.414814814814815 ['139', '148', '143', '149', '142', '138', '112', '115', '108', '144', '147', '145', '132', '126', '128'] 670.7407407407403
39 13.414814814814815 ['139', '148', '143', '149', '142', '138', '112', '115', '108', '144', '147', '145', '132', '126', '128'] 670.7407407407403
40 13.414814814814815 ['139', '148', '143', '149', '142', '138', '112', '115', '108', '144', '147', '145', '132', '126', '128'] 670.7407407407403
41 13.414814814814815 ['139', '148', '143', '149', '142', '138', '112', '115', '108', '144', '147', '145', '132', '126', '128'] 670.7407407407403
42 13.414814814814815 ['139', '148', '143', '149', '142', '138', '112', '115', '108', '144', '147', '145', '132', '126', '128'] 670.7407407407403
43 13.414814814814815 ['139', '148', '143', '149', '142', '138', '112', '115', '108', '144', '147', '145', '132', '126', '128'] 670.7407407407403
44 13.414814814814815 ['139', '148', '143', '149', '142', '138', '112', '115', '108', '144', '147', '145', '132', '126', '128'] 670.7407407407403
45 13.414814814814815 ['139', '148', '143', '149', '142', '138', '112', '115', '108', '144', '147', '145', '132', '126', '128'] 670.7407407407403
46 13.414814814814815 ['139', '148', '143', '149', '142', '138', '112', '115', '108', '144', '147', '145', '132', '126', '128'] 670.7407407407403
47 13.414814814814815 ['139', '148', '143', '149', '142', '138', '112', '115', '108', '144', '147', '145', '132', '126', '128'] 670.7407407407403
48 13.414814814814815 ['139', '148', '143', '149', '142', '138', '112', '115', '108', '144', '147', '145', '132', '126', '128'] 670.7407407407403
49 13.414814814814815 ['139', '148', '143', '149', '142', '138', '112', '115', '108', '144', '147', '145', '132', '126', '128'] 670.7407407407403
50 13.414814814814815 ['139', '148', '143', '149', '142', '138', '112', '115', '108', '144', '147', '145', '132', '126', '128'] 670.7407407407403
51 13.414814814814815 ['139', '148', '143', '149', '142', '138', '112', '115', '108', '144', '147', '145', '132', '126', '128'] 670.7407407407403
52 13.414814814814815 ['139', '148', '143', '149', '142', '138', '112', '115', '108', '144', '147', '145', '132', '126', '128'] 670.7407407407403
53 13.414814814814815 ['139', '148', '143', '149', '142', '138', '112', '115', '108', '144', '147', '145', '132', '126', '128'] 670.7407407407403
54 13.414814814814815 ['139', '148', '143', '149', '142', '138', '112', '115', '108', '144', '147', '145', '132', '126', '128'] 670.7407407407403
55 13.414814814814815 ['139', '148', '143', '149', '142', '138', '112', '115', '108', '144', '147', '145', '132', '126', '128'] 670.7407407407403
56 13.414814814814815 ['139', '148', '143', '149', '142', '138', '112', '115', '108', '144', '147', '145', '132', '126', '128'] 670.7407407407403
57 13.414814814814815 ['139', '148', '143', '149', '142', '138', '112', '115', '108', '144', '147', '145', '132', '126', '128'] 670.7407407407403
58 13.414814814814815 ['139', '148', '143', '149', '142', '138', '112', '115', '108', '144', '147', '145', '132', '126', '128'] 670.7407407407403
59 13.414814814814815 ['139', '148', '143', '149', '142', '138', '112', '115', '108', '144', '147', '145', '132', '126', '128'] 670.7407407407403
60 13.414814814814815 ['139', '148', '143', '149', '142', '138', '112', '115', '108', '144', '147', '145', '132', '126', '128'] 670.7407407407403
61 13.414814814814815 ['139', '148', '143', '149', '142', '138', '112', '115', '108', '144', '147', '145', '132', '126', '128'] 670.7407407407403
62 13.414814814814815 ['139', '148', '143', '149', '142', '138', '112', '115', '108', '144', '147', '145', '132', '126', '128'] 670.7407407407403
63 13.414814814814815 ['139', '148', '143', '149', '142', '138', '112', '115', '108', '144', '147', '145', '132', '126', '128'] 670.7407407407403
64 13.414814814814815 ['139', '148', '143', '149', '142', '138', '112', '115', '108', '144', '147', '145', '132', '126', '128'] 670.7407407407403
65 13.414814814814815 ['139', '148', '143', '149', '142', '138', '112', '115', '108', '144', '147', '145', '132', '126', '128'] 670.7407407407403
66 13.414814814814815 ['139', '148', '143', '149', '142', '138', '112', '115', '108', '144', '147', '145', '132', '126', '128'] 670.7407407407403
67 13.414814814814815 ['139', '148', '143', '149', '142', '138', '112', '115', '108', '144', '147', '145', '132', '126', '128'] 670.7407407407403
68 13.414814814814815 ['139', '148', '143', '149', '142', '138', '112', '115', '108', '144', '147', '145', '132', '126', '128'] 670.7407407407403
69 13.414814814814815 ['139', '148', '143', '149', '142', '138', '112', '115', '108', '144', '147', '145', '132', '126', '128'] 670.7407407407403
70 13.414814814814815 ['139', '148', '143', '149', '142', '138', '112', '115', '108', '144', '147', '145', '132', '126', '128'] 670.7407407407403
71 13.414814814814815 ['139', '148', '143', '149', '142', '138', '112', '115', '108', '144', '147', '145', '132', '126', '128'] 670.7407407407403
72 13.414814814814815 ['139', '148', '143', '149', '142', '138', '112', '115', '108', '144', '147', '145', '132', '126', '128'] 670.7407407407403
73 13.414814814814815 ['139', '148', '143', '149', '142', '138', '112', '115', '108', '144', '147', '145', '132', '126', '128'] 670.7407407407403
74 13.414814814814815 ['139', '148', '143', '149', '142', '138', '112', '115', '108', '144', '147', '145', '132', '126', '128'] 670.7407407407403
75 13.414814814814815 ['139', '148', '143', '149', '142', '138', '112', '115', '108', '144', '147', '145', '132', '126', '128'] 670.7407407407403
76 13.414814814814815 ['139', '148', '143', '149', '142', '138', '112', '115', '108', '144', '147', '145', '132', '126', '128'] 670.7407407407403
77 13.414814814814815 ['139', '148', '143', '149', '142', '138', '112', '115', '108', '144', '147', '145', '132', '126', '128'] 670.7407407407403
78 13.414814814814815 ['139', '148', '143', '149', '142', '138', '112', '115', '108', '144', '147', '145', '132', '126', '128'] 670.7407407407403
79 13.414814814814815 ['139', '148', '143', '149', '142', '138', '112', '115', '108', '144', '147', '145', '132', '126', '128'] 670.7407407407403
80 13.414814814814815 ['139', '148', '143', '149', '142', '138', '112', '115', '108', '144', '147', '145', '132', '126', '128'] 670.7407407407403
81 13.414814814814815 ['139', '148', '143', '149', '142', '138', '112', '115', '108', '144', '147', '145', '132', '126', '128'] 670.7407407407403
82 13.414814814814815 ['139', '148', '143', '149', '142', '138', '112', '115', '108', '144', '147', '145', '132', '126', '128'] 670.7407407407403
83 13.414814814814815 ['139', '148', '143', '149', '142', '138', '112', '115', '108', '144', '147', '145', '132', '126', '128'] 670.7407407407403
84 13.414814814814815 ['139', '148', '143', '149', '142', '138', '112', '115', '108', '144', '147', '145', '132', '126', '128'] 670.7407407407403
85 13.414814814814815 ['139', '148', '143', '149', '142', '138', '112', '115', '108', '144', '147', '145', '132', '126', '128'] 670.7407407407403
86 13.414814814814815 ['139', '148', '143', '149', '142', '138', '112', '115', '108', '144', '147', '145', '132', '126', '128'] 670.7407407407403
87 13.414814814814815 ['139', '148', '143', '149', '142', '138', '112', '115', '108', '144', '147', '145', '132', '126', '128'] 670.7407407407403
88 13.414814814814815 ['139', '148', '143', '149', '142', '138', '112', '115', '108', '144', '147', '145', '132', '126', '128'] 670.7407407407403
89 13.414814814814815 ['139', '148', '143', '149', '142', '138', '112', '115', '108', '144', '147', '145', '132', '126', '128'] 670.7407407407403
90 13.414814814814815 ['139', '148', '143', '149', '142', '138', '112', '115', '108', '144', '147', '145', '132', '126', '128'] 670.7407407407403
91 13.414814814814815 ['139', '148', '143', '149', '142', '138', '112', '115', '108', '144', '147', '145', '132', '126', '128'] 670.7407407407403
92 13.414814814814815 ['139', '148', '143', '149', '142', '138', '112', '115', '108', '144', '147', '145', '132', '126', '128'] 670.7407407407403
93 13.414814814814815 ['139', '148', '143', '149', '142', '138', '112', '115', '108', '144', '147', '145', '132', '126', '128'] 670.7407407407403
94 13.414814814814815 ['139', '148', '143', '149', '142', '138', '112', '115', '108', '144', '147', '145', '132', '126', '128'] 670.7407407407403
95 13.414814814814815 ['139', '148', '143', '149', '142', '138', '112', '115', '108', '144', '147', '145', '132', '126', '128'] 670.7407407407403
96 13.414814814814815 ['139', '148', '143', '149', '142', '138', '112', '115', '108', '144', '147', '145', '132', '126', '128'] 670.7407407407403
97 13.414814814814815 ['139', '148', '143', '149', '142', '138', '112', '115', '108', '144', '147', '145', '132', '126', '128'] 670.7407407407403
98 13.414814814814815 ['139', '148', '143', '149', '142', '138', '112', '115', '108', '144', '147', '145', '132', '126', '128'] 670.7407407407403
99 13.414814814814815 ['139', '148', '143', '149', '142', '138', '112', '115', '108', '144', '147', '145', '132', '126', '128'] 670.7407407407403
100 13.414814814814815 ['139', '148', '143', '149', '142', '138', '112', '115', '108', '144', '147', '145', '132', '126', '128'] 670.7407407407403
101 13.414814814814815 ['139', '148', '143', '149', '142', '138', '112', '115', '108', '144', '147', '145', '132', '126', '128'] 670.7407407407403
102 13.414814814814815 ['139', '148', '143', '149', '142', '138', '112', '115', '108', '144', '147', '145', '132', '126', '128'] 670.7407407407403
103 13.414814814814815 ['139', '148', '143', '149', '142', '138', '112', '115', '108', '144', '147', '145', '132', '126', '128'] 670.7407407407403
104 13.414814814814815 ['139', '148', '143', '149', '142', '138', '112', '115', '108', '144', '147', '145', '132', '126', '128'] 670.7407407407403
105 13.414814814814815 ['139', '148', '143', '149', '142', '138', '112', '115', '108', '144', '147', '145', '132', '126', '128'] 670.7407407407403
106 13.414814814814815 ['139', '148', '143', '149', '142', '138', '112', '115', '108', '144', '147', '145', '132', '126', '128'] 670.7407407407403
107 13.414814814814815 ['139', '148', '143', '149', '142', '138', '112', '115', '108', '144', '147', '145', '132', '126', '128'] 670.7407407407403
108 13.414814814814815 ['139', '148', '143', '149', '142', '138', '112', '115', '108', '144', '147', '145', '132', '126', '128'] 670.7407407407403
109 13.414814814814815 ['139', '148', '143', '149', '142', '138', '112', '115', '108', '144', '147', '145', '132', '126', '128'] 670.7407407407403
110 13.414814814814815 ['139', '148', '143', '149', '142', '138', '112', '115', '108', '144', '147', '145', '132', '126', '128'] 670.7407407407403
111 13.414814814814815 ['139', '148', '143', '149', '142', '138', '112', '115', '108', '144', '147', '145', '132', '126', '128'] 670.7407407407403
112 13.414814814814815 ['139', '148', '143', '149', '142', '138', '112', '115', '108', '144', '147', '145', '132', '126', '128'] 670.7407407407403
113 13.414814814814815 ['139', '148', '143', '149', '142', '138', '112', '115', '108', '144', '147', '145', '132', '126', '128'] 670.7407407407403
114 13.414814814814815 ['139', '148', '143', '149', '142', '138', '112', '115', '108', '144', '147', '145', '132', '126', '128'] 670.7407407407403
115 13.414814814814815 ['139', '148', '143', '149', '142', '138', '112', '115', '108', '144', '147', '145', '132', '126', '128'] 670.7407407407403
116 13.414814814814815 ['139', '148', '143', '149', '142', '138', '112', '115', '108', '144', '147', '145', '132', '126', '128'] 670.7407407407403
117 13.414814814814815 ['139', '148', '143', '149', '142', '138', '112', '115', '108', '144', '147', '145', '132', '126', '128'] 670.7407407407403
118 13.414814814814815 ['139', '148', '143', '149', '142', '138', '112', '115', '108', '144', '147', '145', '132', '126', '128'] 670.7407407407403
119 13.414814814814815 ['139', '148', '143', '149', '142', '138', '112', '115', '108', '144', '147', '145', '132', '126', '128'] 670.7407407407403
120 13.414814814814815 ['139', '148', '143', '149', '142', '138', '112', '115', '108', '144', '147', '145', '132', '126', '128'] 670.7407407407403
121 13.414814814814815 ['139', '148', '143', '149', '142', '138', '112', '115', '108', '144', '147', '145', '132', '126', '128'] 670.7407407407403
122 13.414814814814815 ['139', '148', '143', '149', '142', '138', '112', '115', '108', '144', '147', '145', '132', '126', '128'] 670.7407407407403
123 13.414814814814815 ['139', '148', '143', '149', '142', '138', '112', '115', '108', '144', '147', '145', '132', '126', '128'] 670.7407407407403
124 13.414814814814815 ['139', '148', '143', '149', '142', '138', '112', '115', '108', '144', '147', '145', '132', '126', '128'] 670.7407407407403
125 13.414814814814815 ['139', '148', '143', '149', '142', '138', '112', '115', '108', '144', '147', '145', '132', '126', '128'] 670.7407407407403
126 13.414814814814815 ['139', '148', '143', '149', '142', '138', '112', '115', '108', '144', '147', '145', '132', '126', '128'] 670.7407407407403
127 13.414814814814815 ['139', '148', '143', '149', '142', '138', '112', '115', '108', '144', '147', '145', '132', '126', '128'] 670.7407407407403
128 13.414814814814815 ['139', '148', '143', '149', '142', '138', '112', '115', '108', '144', '147', '145', '132', '126', '128'] 670.7407407407403
129 13.414814814814815 ['139', '148', '143', '149', '142', '138', '112', '115', '108', '144', '147', '145', '132', '126', '128'] 670.7407407407403
130 13.414814814814815 ['139', '148', '143', '149', '142', '138', '112', '115', '108', '144', '147', '145', '132', '126', '128'] 670.7407407407403
131 13.414814814814815 ['139', '148', '143', '149', '142', '138', '112', '115', '108', '144', '147', '145', '132', '126', '128'] 670.7407407407403
132 13.414814814814815 ['139', '148', '143', '149', '142', '138', '112', '115', '108', '144', '147', '145', '132', '126', '128'] 670.7407407407403
133 13.414814814814815 ['139', '148', '143', '149', '142', '138', '112', '115', '108', '144', '147', '145', '132', '126', '128'] 670.7407407407403
134 13.414814814814815 ['139', '148', '143', '149', '142', '138', '112', '115', '108', '144', '147', '145', '132', '126', '128'] 670.7407407407403
135 13.414814814814815 ['139', '148', '143', '149', '142', '138', '112', '115', '108', '144', '147', '145', '132', '126', '128'] 670.7407407407403
136 13.414814814814815 ['139', '148', '143', '149', '142', '138', '112', '115', '108', '144', '147', '145', '132', '126', '128'] 670.7407407407403
137 13.414814814814815 ['139', '148', '143', '149', '142', '138', '112', '115', '108', '144', '147', '145', '132', '126', '128'] 670.7407407407403
138 13.414814814814815 ['139', '148', '143', '149', '142', '138', '112', '115', '108', '144', '147', '145', '132', '126', '128'] 670.7407407407403
139 13.414814814814815 ['139', '148', '143', '149', '142', '138', '112', '115', '108', '144', '147', '145', '132', '126', '128'] 670.7407407407403
140 13.414814814814815 ['139', '148', '143', '149', '142', '138', '112', '115', '108', '144', '147', '145', '132', '126', '128'] 670.7407407407403
141 13.414814814814815 ['139', '148', '143', '149', '142', '138', '112', '115', '108', '144', '147', '145', '132', '126', '128'] 670.7407407407403
142 13.414814814814815 ['139', '148', '143', '149', '142', '138', '112', '115', '108', '144', '147', '145', '132', '126', '128'] 670.7407407407403
143 13.414814814814815 ['139', '148', '143', '149', '142', '138', '112', '115', '108', '144', '147', '145', '132', '126', '128'] 670.7407407407403
144 13.414814814814815 ['139', '148', '143', '149', '142', '138', '112', '115', '108', '144', '147', '145', '132', '126', '128'] 670.7407407407403
145 13.414814814814815 ['139', '148', '143', '149', '142', '138', '112', '115', '108', '144', '147', '145', '132', '126', '128'] 670.7407407407403
146 13.414814814814815 ['139', '148', '143', '149', '142', '138', '112', '115', '108', '144', '147', '145', '132', '126', '128'] 670.7407407407403
147 13.414814814814815 ['139', '148', '143', '149', '142', '138', '112', '115', '108', '144', '147', '145', '132', '126', '128'] 670.7407407407403
148 13.414814814814815 ['139', '148', '143', '149', '142', '138', '112', '115', '108', '144', '147', '145', '132', '126', '128'] 670.7407407407403
149 13.414814814814815 ['139', '148', '143', '149', '142', '138', '112', '115', '108', '144', '147', '145', '132', '126', '128'] 670.7407407407403
150 13.414814814814815 ['139', '148', '143', '149', '142', '138', '112', '115', '108', '144', '147', '145', '132', '126', '128'] 670.7407407407403
151 13.414814814814815 ['139', '148', '143', '149', '142', '138', '112', '115', '108', '144', '147', '145', '132', '126', '128'] 670.7407407407403
152 13.414814814814815 ['139', '148', '143', '149', '142', '138', '112', '115', '108', '144', '147', '145', '132', '126', '128'] 670.7407407407403
153 13.414814814814815 ['139', '148', '143', '149', '142', '138', '112', '115', '108', '144', '147', '145', '132', '126', '128'] 670.7407407407403
154 13.414814814814815 ['139', '148', '143', '149', '142', '138', '112', '115', '108', '144', '147', '145', '132', '126', '128'] 670.7407407407403
155 13.414814814814815 ['139', '148', '143', '149', '142', '138', '112', '115', '108', '144', '147', '145', '132', '126', '128'] 670.7407407407403
156 13.414814814814815 ['139', '148', '143', '149', '142', '138', '112', '115', '108', '144', '147', '145', '132', '126', '128'] 670.7407407407403
157 13.414814814814815 ['139', '148', '143', '149', '142', '138', '112', '115', '108', '144', '147', '145', '132', '126', '128'] 670.7407407407403
158 13.414814814814815 ['139', '148', '143', '149', '142', '138', '112', '115', '108', '144', '147', '145', '132', '126', '128'] 670.7407407407403
159 13.414814814814815 ['139', '148', '143', '149', '142', '138', '112', '115', '108', '144', '147', '145', '132', '126', '128'] 670.7407407407403
160 13.414814814814815 ['139', '148', '143', '149', '142', '138', '112', '115', '108', '144', '147', '145', '132', '126', '128'] 670.7407407407403
161 13.414814814814815 ['139', '148', '143', '149', '142', '138', '112', '115', '108', '144', '147', '145', '132', '126', '128'] 670.7407407407403
162 13.414814814814815 ['139', '148', '143', '149', '142', '138', '112', '115', '108', '144', '147', '145', '132', '126', '128'] 670.7407407407403
163 13.414814814814815 ['139', '148', '143', '149', '142', '138', '112', '115', '108', '144', '147', '145', '132', '126', '128'] 670.7407407407403
164 13.414814814814815 ['139', '148', '143', '149', '142', '138', '112', '115', '108', '144', '147', '145', '132', '126', '128'] 670.7407407407403
165 13.414814814814815 ['139', '148', '143', '149', '142', '138', '112', '115', '108', '144', '147', '145', '132', '126', '128'] 670.7407407407403
166 13.414814814814815 ['139', '148', '143', '149', '142', '138', '112', '115', '108', '144', '147', '145', '132', '126', '128'] 670.7407407407403
167 13.414814814814815 ['139', '148', '143', '149', '142', '138', '112', '115', '108', '144', '147', '145', '132', '126', '128'] 670.7407407407403
168 13.414814814814815 ['139', '148', '143', '149', '142', '138', '112', '115', '108', '144', '147', '145', '132', '126', '128'] 670.7407407407403
169 13.414814814814815 ['139', '148', '143', '149', '142', '138', '112', '115', '108', '144', '147', '145', '132', '126', '128'] 670.7407407407403
170 13.414814814814815 ['139', '148', '143', '149', '142', '138', '112', '115', '108', '144', '147', '145', '132', '126', '128'] 670.7407407407403
171 13.414814814814815 ['139', '148', '143', '149', '142', '138', '112', '115', '108', '144', '147', '145', '132', '126', '128'] 670.7407407407403
172 13.414814814814815 ['139', '148', '143', '149', '142', '138', '112', '115', '108', '144', '147', '145', '132', '126', '128'] 670.7407407407403
173 13.414814814814815 ['139', '148', '143', '149', '142', '138', '112', '115', '108', '144', '147', '145', '132', '126', '128'] 670.7407407407403
174 13.414814814814815 ['139', '148', '143', '149', '142', '138', '112', '115', '108', '144', '147', '145', '132', '126', '128'] 670.7407407407403
175 13.414814814814815 ['139', '148', '143', '149', '142', '138', '112', '115', '108', '144', '147', '145', '132', '126', '128'] 670.7407407407403
176 13.414814814814815 ['139', '148', '143', '149', '142', '138', '112', '115', '108', '144', '147', '145', '132', '126', '128'] 670.7407407407403
177 13.414814814814815 ['139', '148', '143', '149', '142', '138', '112', '115', '108', '144', '147', '145', '132', '126', '128'] 670.7407407407403
178 13.414814814814815 ['139', '148', '143', '149', '142', '138', '112', '115', '108', '144', '147', '145', '132', '126', '128'] 670.7407407407403
179 13.414814814814815 ['139', '148', '143', '149', '142', '138', '112', '115', '108', '144', '147', '145', '132', '126', '128'] 670.7407407407403
180 13.414814814814815 ['139', '148', '143', '149', '142', '138', '112', '115', '108', '144', '147', '145', '132', '126', '128'] 670.7407407407403
181 13.414814814814815 ['139', '148', '143', '149', '142', '138', '112', '115', '108', '144', '147', '145', '132', '126', '128'] 670.7407407407403
182 13.414814814814815 ['139', '148', '143', '149', '142', '138', '112', '115', '108', '144', '147', '145', '132', '126', '128'] 670.7407407407403
183 13.414814814814815 ['139', '148', '143', '149', '142', '138', '112', '115', '108', '144', '147', '145', '132', '126', '128'] 670.7407407407403
184 13.414814814814815 ['139', '148', '143', '149', '142', '138', '112', '115', '108', '144', '147', '145', '132', '126', '128'] 670.7407407407403
185 13.414814814814815 ['139', '148', '143', '149', '142', '138', '112', '115', '108', '144', '147', '145', '132', '126', '128'] 670.7407407407403
186 13.414814814814815 ['139', '148', '143', '149', '142', '138', '112', '115', '108', '144', '147', '145', '132', '126', '128'] 670.7407407407403
187 13.414814814814815 ['139', '148', '143', '149', '142', '138', '112', '115', '108', '144', '147', '145', '132', '126', '128'] 670.7407407407403
188 13.414814814814815 ['139', '148', '143', '149', '142', '138', '112', '115', '108', '144', '147', '145', '132', '126', '128'] 670.7407407407403
189 13.414814814814815 ['139', '148', '143', '149', '142', '138', '112', '115', '108', '144', '147', '145', '132', '126', '128'] 670.7407407407403
190 13.414814814814815 ['139', '148', '143', '149', '142', '138', '112', '115', '108', '144', '147', '145', '132', '126', '128'] 670.7407407407403
191 13.414814814814815 ['139', '148', '143', '149', '142', '138', '112', '115', '108', '144', '147', '145', '132', '126', '128'] 670.7407407407403
192 13.414814814814815 ['139', '148', '143', '149', '142', '138', '112', '115', '108', '144', '147', '145', '132', '126', '128'] 670.7407407407403
193 13.414814814814815 ['139', '148', '143', '149', '142', '138', '112', '115', '108', '144', '147', '145', '132', '126', '128'] 670.7407407407403
194 13.414814814814815 ['139', '148', '143', '149', '142', '138', '112', '115', '108', '144', '147', '145', '132', '126', '128'] 670.7407407407403
195 13.414814814814815 ['139', '148', '143', '149', '142', '138', '112', '115', '108', '144', '147', '145', '132', '126', '128'] 670.7407407407403
196 13.414814814814815 ['139', '148', '143', '149', '142', '138', '112', '115', '108', '144', '147', '145', '132', '126', '128'] 670.7407407407403
197 13.414814814814815 ['139', '148', '143', '149', '142', '138', '112', '115', '108', '144', '147', '145', '132', '126', '128'] 670.7407407407403
198 13.414814814814815 ['139', '148', '143', '149', '142', '138', '112', '115', '108', '144', '147', '145', '132', '126', '128'] 670.7407407407403
199 13.414814814814815 ['139', '148', '143', '149', '142', '138', '112', '115', '108', '144', '147', '145', '132', '126', '128'] 670.7407407407403
