0 14.666666666666666 ['15', '55', '42', '7', '56', '53'] 881.481481481481
1 14.592592592592593 ['56', '52', '7', '41', '42', '55'] 853.0370370370371
2 14.592592592592593 ['56', '52', '7', '41', '42', '55'] 823.9259259259261
3 14.592592592592593 ['56', '52', '7', '41', '42', '55'] 792.5925925925923
4 14.222222222222221 ['53', '42', '20', '7', '38', '55'] 766.2962962962963
5 13.777777777777779 ['55', '53', '42', '38', '7', '6'] 746.9629629629632
6 13.777777777777779 ['55', '53', '42', '38', '7', '6'] 728.0000000000005
7 13.777777777777779 ['55', '53', '42', '38', '7', '6'] 713.851851851852
8 13.555555555555555 ['29', '53', '55', '6', '42', '7'] 699.8518518518516
9 13.555555555555555 ['29', '53', '55', '6', '42', '7'] 691.2592592592596
10 13.555555555555555 ['29', '53', '55', '6', '42', '7'] 686.5185185185182
11 13.555555555555555 ['29', '53', '55', '6', '42', '7'] 681.7777777777779
12 13.555555555555555 ['29', '53', '55', '6', '42', '7'] 678.3703703703703
13 13.555555555555555 ['29', '53', '55', '6', '42', '7'] 677.7777777777773
14 13.555555555555555 ['29', '53', '55', '6', '42', '7'] 677.7777777777773
15 13.555555555555555 ['29', '53', '55', '6', '42', '7'] 677.7777777777773
16 13.555555555555555 ['29', '53', '55', '6', '42', '7'] 677.7777777777773
17 13.555555555555555 ['29', '53', '55', '6', '42', '7'] 677.7777777777773
18 13.555555555555555 ['29', '53', '55', '6', '42', '7'] 677.7777777777773
19 13.555555555555555 ['29', '53', '55', '6', '42', '7'] 677.7777777777773
20 13.555555555555555 ['29', '53', '55', '6', '42', '7'] 677.7777777777773
21 13.555555555555555 ['29', '53', '55', '6', '42', '7'] 677.7777777777773
22 13.555555555555555 ['29', '53', '55', '6', '42', '7'] 677.7777777777773
23 13.555555555555555 ['29', '53', '55', '6', '42', '7'] 677.7777777777773
24 13.555555555555555 ['29', '53', '55', '6', '42', '7'] 677.7777777777773
25 13.555555555555555 ['29', '53', '55', '6', '42', '7'] 677.7777777777773
26 13.555555555555555 ['29', '53', '55', '6', '42', '7'] 677.7777777777773
27 13.555555555555555 ['29', '53', '55', '6', '42', '7'] 677.7777777777773
28 13.555555555555555 ['29', '53', '55', '6', '42', '7'] 677.7777777777773
29 13.555555555555555 ['29', '53', '55', '6', '42', '7'] 677.7777777777773
30 13.555555555555555 ['29', '53', '55', '6', '42', '7'] 677.7777777777773
31 13.555555555555555 ['29', '53', '55', '6', '42', '7'] 677.7777777777773
32 13.555555555555555 ['29', '53', '55', '6', '42', '7'] 677.7777777777773
33 13.555555555555555 ['29', '53', '55', '6', '42', '7'] 677.7777777777773
34 13.555555555555555 ['29', '53', '55', '6', '42', '7'] 677.7777777777773
35 13.555555555555555 ['29', '53', '55', '6', '42', '7'] 677.7777777777773
36 13.555555555555555 ['29', '53', '55', '6', '42', '7'] 677.7777777777773
37 13.555555555555555 ['29', '53', '55', '6', '42', '7'] 677.7777777777773
38 13.555555555555555 ['29', '53', '55', '6', '42', '7'] 677.7777777777773
39 13.555555555555555 ['29', '53', '55', '6', '42', '7'] 677.7777777777773
40 13.555555555555555 ['29', '53', '55', '6', '42', '7'] 677.7777777777773
41 13.555555555555555 ['29', '53', '55', '6', '42', '7'] 677.7777777777773
42 13.555555555555555 ['29', '53', '55', '6', '42', '7'] 677.7777777777773
43 13.555555555555555 ['29', '53', '55', '6', '42', '7'] 677.7777777777773
44 13.555555555555555 ['29', '53', '55', '6', '42', '7'] 677.7777777777773
45 13.555555555555555 ['29', '53', '55', '6', '42', '7'] 677.7777777777773
46 13.555555555555555 ['29', '53', '55', '6', '42', '7'] 677.7777777777773
47 13.555555555555555 ['29', '53', '55', '6', '42', '7'] 677.7777777777773
48 13.555555555555555 ['29', '53', '55', '6', '42', '7'] 677.7777777777773
49 13.555555555555555 ['29', '53', '55', '6', '42', '7'] 677.7777777777773
50 13.555555555555555 ['29', '53', '55', '6', '42', '7'] 677.7777777777773
51 13.555555555555555 ['29', '53', '55', '6', '42', '7'] 677.7777777777773
52 13.555555555555555 ['29', '53', '55', '6', '42', '7'] 677.7777777777773
53 13.555555555555555 ['29', '53', '55', '6', '42', '7'] 677.7777777777773
54 13.555555555555555 ['29', '53', '55', '6', '42', '7'] 677.7777777777773
55 13.555555555555555 ['29', '53', '55', '6', '42', '7'] 677.7777777777773
56 13.555555555555555 ['29', '53', '55', '6', '42', '7'] 677.7777777777773
57 13.555555555555555 ['29', '53', '55', '6', '42', '7'] 677.7777777777773
58 13.555555555555555 ['29', '53', '55', '6', '42', '7'] 677.7777777777773
59 13.555555555555555 ['29', '53', '55', '6', '42', '7'] 677.7777777777773
60 13.555555555555555 ['29', '53', '55', '6', '42', '7'] 677.7777777777773
61 13.555555555555555 ['29', '53', '55', '6', '42', '7'] 677.7777777777773
62 13.555555555555555 ['29', '53', '55', '6', '42', '7'] 677.7777777777773
63 13.555555555555555 ['29', '53', '55', '6', '42', '7'] 677.7777777777773
64 13.555555555555555 ['29', '53', '55', '6', '42', '7'] 677.7777777777773
65 13.555555555555555 ['29', '53', '55', '6', '42', '7'] 677.7777777777773
66 13.555555555555555 ['29', '53', '55', '6', '42', '7'] 677.7777777777773
67 13.555555555555555 ['29', '53', '55', '6', '42', '7'] 677.7777777777773
68 13.555555555555555 ['29', '53', '55', '6', '42', '7'] 677.7777777777773
69 13.555555555555555 ['29', '53', '55', '6', '42', '7'] 677.7777777777773
70 13.555555555555555 ['29', '53', '55', '6', '42', '7'] 677.7777777777773
71 13.555555555555555 ['29', '53', '55', '6', '42', '7'] 677.7777777777773
72 13.555555555555555 ['29', '53', '55', '6', '42', '7'] 677.7777777777773
73 13.555555555555555 ['29', '53', '55', '6', '42', '7'] 677.7777777777773
74 13.555555555555555 ['29', '53', '55', '6', '42', '7'] 677.7777777777773
75 13.555555555555555 ['29', '53', '55', '6', '42', '7'] 677.7777777777773
76 13.555555555555555 ['29', '53', '55', '6', '42', '7'] 677.7777777777773
77 13.555555555555555 ['29', '53', '55', '6', '42', '7'] 677.7777777777773
78 13.555555555555555 ['29', '53', '55', '6', '42', '7'] 677.7777777777773
79 13.555555555555555 ['29', '53', '55', '6', '42', '7'] 677.7777777777773
80 13.555555555555555 ['29', '53', '55', '6', '42', '7'] 677.7777777777773
81 13.555555555555555 ['29', '53', '55', '6', '42', '7'] 677.7777777777773
82 13.555555555555555 ['29', '53', '55', '6', '42', '7'] 677.7777777777773
83 13.555555555555555 ['29', '53', '55', '6', '42', '7'] 677.7777777777773
84 13.555555555555555 ['29', '53', '55', '6', '42', '7'] 677.7777777777773
85 13.555555555555555 ['29', '53', '55', '6', '42', '7'] 677.7777777777773
86 13.555555555555555 ['29', '53', '55', '6', '42', '7'] 677.7777777777773
87 13.555555555555555 ['29', '53', '55', '6', '42', '7'] 677.7777777777773
88 13.555555555555555 ['29', '53', '55', '6', '42', '7'] 677.7777777777773
89 13.555555555555555 ['29', '53', '55', '6', '42', '7'] 677.7777777777773
90 13.555555555555555 ['29', '53', '55', '6', '42', '7'] 677.7777777777773
91 13.555555555555555 ['29', '53', '55', '6', '42', '7'] 677.7777777777773
92 13.555555555555555 ['29', '53', '55', '6', '42', '7'] 677.7777777777773
93 13.555555555555555 ['29', '53', '55', '6', '42', '7'] 677.7777777777773
94 13.555555555555555 ['29', '53', '55', '6', '42', '7'] 677.7777777777773
95 13.555555555555555 ['29', '53', '55', '6', '42', '7'] 677.7777777777773
96 13.555555555555555 ['29', '53', '55', '6', '42', '7'] 677.7777777777773
97 13.555555555555555 ['29', '53', '55', '6', '42', '7'] 677.7777777777773
98 13.555555555555555 ['29', '53', '55', '6', '42', '7'] 677.7777777777773
99 13.555555555555555 ['29', '53', '55', '6', '42', '7'] 677.7777777777773
100 13.555555555555555 ['29', '53', '55', '6', '42', '7'] 677.7777777777773
101 13.555555555555555 ['29', '53', '55', '6', '42', '7'] 677.7777777777773
102 13.555555555555555 ['29', '53', '55', '6', '42', '7'] 677.7777777777773
103 13.555555555555555 ['29', '53', '55', '6', '42', '7'] 677.7777777777773
104 13.555555555555555 ['29', '53', '55', '6', '42', '7'] 677.7777777777773
105 13.555555555555555 ['29', '53', '55', '6', '42', '7'] 677.7777777777773
106 13.555555555555555 ['29', '53', '55', '6', '42', '7'] 677.7777777777773
107 13.555555555555555 ['29', '53', '55', '6', '42', '7'] 677.7777777777773
108 13.555555555555555 ['29', '53', '55', '6', '42', '7'] 677.7777777777773
109 13.555555555555555 ['29', '53', '55', '6', '42', '7'] 677.7777777777773
110 13.555555555555555 ['29', '53', '55', '6', '42', '7'] 677.7777777777773
111 13.555555555555555 ['29', '53', '55', '6', '42', '7'] 677.7777777777773
112 13.555555555555555 ['29', '53', '55', '6', '42', '7'] 677.7777777777773
113 13.555555555555555 ['29', '53', '55', '6', '42', '7'] 677.7777777777773
114 13.555555555555555 ['29', '53', '55', '6', '42', '7'] 677.7777777777773
115 13.555555555555555 ['29', '53', '55', '6', '42', '7'] 677.7777777777773
116 13.555555555555555 ['29', '53', '55', '6', '42', '7'] 677.7777777777773
117 13.555555555555555 ['29', '53', '55', '6', '42', '7'] 677.7777777777773
118 13.555555555555555 ['29', '53', '55', '6', '42', '7'] 677.7777777777773
119 13.555555555555555 ['29', '53', '55', '6', '42', '7'] 677.7777777777773
120 13.555555555555555 ['29', '53', '55', '6', '42', '7'] 677.7777777777773
121 13.555555555555555 ['29', '53', '55', '6', '42', '7'] 677.7777777777773
122 13.555555555555555 ['29', '53', '55', '6', '42', '7'] 677.7777777777773
123 13.555555555555555 ['29', '53', '55', '6', '42', '7'] 677.7777777777773
124 13.555555555555555 ['29', '53', '55', '6', '42', '7'] 677.7777777777773
125 13.555555555555555 ['29', '53', '55', '6', '42', '7'] 677.7777777777773
126 13.555555555555555 ['29', '53', '55', '6', '42', '7'] 677.7777777777773
127 13.555555555555555 ['29', '53', '55', '6', '42', '7'] 677.7777777777773
128 13.555555555555555 ['29', '53', '55', '6', '42', '7'] 677.7777777777773
129 13.555555555555555 ['29', '53', '55', '6', '42', '7'] 677.7777777777773
130 13.555555555555555 ['29', '53', '55', '6', '42', '7'] 677.7777777777773
131 13.555555555555555 ['29', '53', '55', '6', '42', '7'] 677.7777777777773
132 13.555555555555555 ['29', '53', '55', '6', '42', '7'] 677.7777777777773
133 13.555555555555555 ['29', '53', '55', '6', '42', '7'] 677.7777777777773
134 13.555555555555555 ['29', '53', '55', '6', '42', '7'] 677.7777777777773
135 13.555555555555555 ['29', '53', '55', '6', '42', '7'] 677.7777777777773
136 13.555555555555555 ['29', '53', '55', '6', '42', '7'] 677.7777777777773
137 13.555555555555555 ['29', '53', '55', '6', '42', '7'] 677.7777777777773
138 13.555555555555555 ['29', '53', '55', '6', '42', '7'] 677.7777777777773
139 13.555555555555555 ['29', '53', '55', '6', '42', '7'] 677.7777777777773
140 13.555555555555555 ['29', '53', '55', '6', '42', '7'] 677.7777777777773
141 13.555555555555555 ['29', '53', '55', '6', '42', '7'] 677.7777777777773
142 13.555555555555555 ['29', '53', '55', '6', '42', '7'] 677.7777777777773
143 13.555555555555555 ['29', '53', '55', '6', '42', '7'] 677.7777777777773
144 13.555555555555555 ['29', '53', '55', '6', '42', '7'] 677.7777777777773
145 13.555555555555555 ['29', '53', '55', '6', '42', '7'] 677.7777777777773
146 13.555555555555555 ['29', '53', '55', '6', '42', '7'] 677.7777777777773
147 13.555555555555555 ['29', '53', '55', '6', '42', '7'] 677.7777777777773
148 13.555555555555555 ['29', '53', '55', '6', '42', '7'] 677.7777777777773
149 13.555555555555555 ['29', '53', '55', '6', '42', '7'] 677.7777777777773
150 13.555555555555555 ['29', '53', '55', '6', '42', '7'] 677.7777777777773
151 13.555555555555555 ['29', '53', '55', '6', '42', '7'] 677.7777777777773
152 13.555555555555555 ['29', '53', '55', '6', '42', '7'] 677.7777777777773
153 13.555555555555555 ['29', '53', '55', '6', '42', '7'] 677.7777777777773
154 13.555555555555555 ['29', '53', '55', '6', '42', '7'] 677.7777777777773
155 13.555555555555555 ['29', '53', '55', '6', '42', '7'] 677.7777777777773
156 13.555555555555555 ['29', '53', '55', '6', '42', '7'] 677.7777777777773
157 13.555555555555555 ['29', '53', '55', '6', '42', '7'] 677.7777777777773
158 13.555555555555555 ['29', '53', '55', '6', '42', '7'] 677.7777777777773
159 13.555555555555555 ['29', '53', '55', '6', '42', '7'] 677.7777777777773
160 13.555555555555555 ['29', '53', '55', '6', '42', '7'] 677.7777777777773
161 13.555555555555555 ['29', '53', '55', '6', '42', '7'] 677.7777777777773
162 13.555555555555555 ['29', '53', '55', '6', '42', '7'] 677.7777777777773
163 13.555555555555555 ['29', '53', '55', '6', '42', '7'] 677.7777777777773
164 13.555555555555555 ['29', '53', '55', '6', '42', '7'] 677.7777777777773
165 13.555555555555555 ['29', '53', '55', '6', '42', '7'] 677.7777777777773
166 13.555555555555555 ['29', '53', '55', '6', '42', '7'] 677.7777777777773
167 13.555555555555555 ['29', '53', '55', '6', '42', '7'] 677.7777777777773
168 13.555555555555555 ['29', '53', '55', '6', '42', '7'] 677.7777777777773
169 13.555555555555555 ['29', '53', '55', '6', '42', '7'] 677.7777777777773
170 13.555555555555555 ['29', '53', '55', '6', '42', '7'] 677.7777777777773
171 13.555555555555555 ['29', '53', '55', '6', '42', '7'] 677.7777777777773
172 13.555555555555555 ['29', '53', '55', '6', '42', '7'] 677.7777777777773
173 13.555555555555555 ['29', '53', '55', '6', '42', '7'] 677.7777777777773
174 13.555555555555555 ['29', '53', '55', '6', '42', '7'] 677.7777777777773
175 13.555555555555555 ['29', '53', '55', '6', '42', '7'] 677.7777777777773
176 13.555555555555555 ['29', '53', '55', '6', '42', '7'] 677.7777777777773
177 13.555555555555555 ['29', '53', '55', '6', '42', '7'] 677.7777777777773
178 13.555555555555555 ['29', '53', '55', '6', '42', '7'] 677.7777777777773
179 13.555555555555555 ['29', '53', '55', '6', '42', '7'] 677.7777777777773
180 13.555555555555555 ['29', '53', '55', '6', '42', '7'] 677.7777777777773
181 13.555555555555555 ['29', '53', '55', '6', '42', '7'] 677.7777777777773
182 13.555555555555555 ['29', '53', '55', '6', '42', '7'] 677.7777777777773
183 13.555555555555555 ['29', '53', '55', '6', '42', '7'] 677.7777777777773
184 13.555555555555555 ['29', '53', '55', '6', '42', '7'] 677.7777777777773
185 13.555555555555555 ['29', '53', '55', '6', '42', '7'] 677.7777777777773
186 13.555555555555555 ['29', '53', '55', '6', '42', '7'] 677.7777777777773
187 13.555555555555555 ['29', '53', '55', '6', '42', '7'] 677.7777777777773
188 13.555555555555555 ['29', '53', '55', '6', '42', '7'] 677.7777777777773
189 13.555555555555555 ['29', '53', '55', '6', '42', '7'] 677.7777777777773
190 13.555555555555555 ['29', '53', '55', '6', '42', '7'] 677.7777777777773
191 13.555555555555555 ['29', '53', '55', '6', '42', '7'] 677.7777777777773
192 13.555555555555555 ['29', '53', '55', '6', '42', '7'] 677.7777777777773
193 13.555555555555555 ['29', '53', '55', '6', '42', '7'] 677.7777777777773
194 13.555555555555555 ['29', '53', '55', '6', '42', '7'] 677.7777777777773
195 13.555555555555555 ['29', '53', '55', '6', '42', '7'] 677.7777777777773
196 13.555555555555555 ['29', '53', '55', '6', '42', '7'] 677.7777777777773
197 13.555555555555555 ['29', '53', '55', '6', '42', '7'] 677.7777777777773
198 13.555555555555555 ['29', '53', '55', '6', '42', '7'] 677.7777777777773
199 13.555555555555555 ['29', '53', '55', '6', '42', '7'] 677.7777777777773
