0 1.1851851851851851 ['22', '2'] 75.99999999999997
1 1.1851851851851851 ['22', '2'] 69.92592592592591
2 1.1851851851851851 ['22', '2'] 65.33333333333336
3 1.1851851851851851 ['22', '2'] 61.777777777777786
4 1.1851851851851851 ['22', '2'] 59.259259259259196
5 1.1851851851851851 ['22', '2'] 59.259259259259196
6 1.1851851851851851 ['22', '2'] 59.259259259259196
7 1.1851851851851851 ['22', '2'] 59.259259259259196
8 1.1851851851851851 ['22', '2'] 59.259259259259196
9 1.1851851851851851 ['22', '2'] 59.259259259259196
10 1.1851851851851851 ['22', '2'] 59.259259259259196
11 1.1851851851851851 ['22', '2'] 59.259259259259196
12 1.1851851851851851 ['22', '2'] 59.259259259259196
13 1.1851851851851851 ['22', '2'] 59.259259259259196
14 1.1851851851851851 ['22', '2'] 59.259259259259196
15 1.1851851851851851 ['22', '2'] 59.259259259259196
16 1.1851851851851851 ['22', '2'] 59.259259259259196
17 1.1851851851851851 ['22', '2'] 59.259259259259196
18 1.1851851851851851 ['22', '2'] 59.259259259259196
19 1.1851851851851851 ['22', '2'] 59.259259259259196
20 1.1851851851851851 ['22', '2'] 59.259259259259196
21 1.1851851851851851 ['22', '2'] 59.259259259259196
22 1.1851851851851851 ['22', '2'] 59.259259259259196
23 1.1851851851851851 ['22', '2'] 59.259259259259196
24 1.1851851851851851 ['22', '2'] 59.259259259259196
25 1.1851851851851851 ['22', '2'] 59.259259259259196
26 1.1851851851851851 ['22', '2'] 59.259259259259196
27 1.1851851851851851 ['22', '2'] 59.259259259259196
28 1.1851851851851851 ['22', '2'] 59.259259259259196
29 1.1851851851851851 ['22', '2'] 59.259259259259196
30 1.1851851851851851 ['22', '2'] 59.259259259259196
31 1.1851851851851851 ['22', '2'] 59.259259259259196
32 1.1851851851851851 ['22', '2'] 59.259259259259196
33 1.1851851851851851 ['22', '2'] 59.259259259259196
34 1.1851851851851851 ['22', '2'] 59.259259259259196
35 1.1851851851851851 ['22', '2'] 59.259259259259196
36 1.1851851851851851 ['22', '2'] 59.259259259259196
37 1.1851851851851851 ['22', '2'] 59.259259259259196
38 1.1851851851851851 ['22', '2'] 59.259259259259196
39 1.1851851851851851 ['22', '2'] 59.259259259259196
40 1.1851851851851851 ['22', '2'] 59.259259259259196
41 1.1851851851851851 ['22', '2'] 59.259259259259196
42 1.1851851851851851 ['22', '2'] 59.259259259259196
43 1.1851851851851851 ['22', '2'] 59.259259259259196
44 1.1851851851851851 ['22', '2'] 59.259259259259196
45 1.1851851851851851 ['22', '2'] 59.259259259259196
46 1.1851851851851851 ['22', '2'] 59.259259259259196
47 1.1851851851851851 ['22', '2'] 59.259259259259196
48 1.1851851851851851 ['22', '2'] 59.259259259259196
49 1.1851851851851851 ['22', '2'] 59.259259259259196
50 1.1851851851851851 ['22', '2'] 59.259259259259196
51 1.1851851851851851 ['22', '2'] 59.259259259259196
52 1.1851851851851851 ['22', '2'] 59.259259259259196
53 1.1851851851851851 ['22', '2'] 59.259259259259196
54 1.1851851851851851 ['22', '2'] 59.259259259259196
55 1.1851851851851851 ['22', '2'] 59.259259259259196
56 1.1851851851851851 ['22', '2'] 59.259259259259196
57 1.1851851851851851 ['22', '2'] 59.259259259259196
58 1.1851851851851851 ['22', '2'] 59.259259259259196
59 1.1851851851851851 ['22', '2'] 59.259259259259196
60 1.1851851851851851 ['22', '2'] 59.259259259259196
61 1.1851851851851851 ['22', '2'] 59.259259259259196
62 1.1851851851851851 ['22', '2'] 59.259259259259196
63 1.1851851851851851 ['22', '2'] 59.259259259259196
64 1.1851851851851851 ['22', '2'] 59.259259259259196
65 1.1851851851851851 ['22', '2'] 59.259259259259196
66 1.1851851851851851 ['22', '2'] 59.259259259259196
67 1.1851851851851851 ['22', '2'] 59.259259259259196
68 1.1851851851851851 ['22', '2'] 59.259259259259196
69 1.1851851851851851 ['22', '2'] 59.259259259259196
70 1.1851851851851851 ['22', '2'] 59.259259259259196
71 1.1851851851851851 ['22', '2'] 59.259259259259196
72 1.1851851851851851 ['22', '2'] 59.259259259259196
73 1.1851851851851851 ['22', '2'] 59.259259259259196
74 1.1851851851851851 ['22', '2'] 59.259259259259196
75 1.1851851851851851 ['22', '2'] 59.259259259259196
76 1.1851851851851851 ['22', '2'] 59.259259259259196
77 1.1851851851851851 ['22', '2'] 59.259259259259196
78 1.1851851851851851 ['22', '2'] 59.259259259259196
79 1.1851851851851851 ['22', '2'] 59.259259259259196
80 1.1851851851851851 ['22', '2'] 59.259259259259196
81 1.1851851851851851 ['22', '2'] 59.259259259259196
82 1.1851851851851851 ['22', '2'] 59.259259259259196
83 1.1851851851851851 ['22', '2'] 59.259259259259196
84 1.1851851851851851 ['22', '2'] 59.259259259259196
85 1.1851851851851851 ['22', '2'] 59.259259259259196
86 1.1851851851851851 ['22', '2'] 59.259259259259196
87 1.1851851851851851 ['22', '2'] 59.259259259259196
88 1.1851851851851851 ['22', '2'] 59.259259259259196
89 1.1851851851851851 ['22', '2'] 59.259259259259196
90 1.1851851851851851 ['22', '2'] 59.259259259259196
91 1.1851851851851851 ['22', '2'] 59.259259259259196
92 1.1851851851851851 ['22', '2'] 59.259259259259196
93 1.1851851851851851 ['22', '2'] 59.259259259259196
94 1.1851851851851851 ['22', '2'] 59.259259259259196
95 1.1851851851851851 ['22', '2'] 59.259259259259196
96 1.1851851851851851 ['22', '2'] 59.259259259259196
97 1.1851851851851851 ['22', '2'] 59.259259259259196
98 1.1851851851851851 ['22', '2'] 59.259259259259196
99 1.1851851851851851 ['22', '2'] 59.259259259259196
100 1.1851851851851851 ['22', '2'] 59.259259259259196
101 1.1851851851851851 ['22', '2'] 59.259259259259196
102 1.1851851851851851 ['22', '2'] 59.259259259259196
103 1.1851851851851851 ['22', '2'] 59.259259259259196
104 1.1851851851851851 ['22', '2'] 59.259259259259196
105 1.1851851851851851 ['22', '2'] 59.259259259259196
106 1.1851851851851851 ['22', '2'] 59.259259259259196
107 1.1851851851851851 ['22', '2'] 59.259259259259196
108 1.1851851851851851 ['22', '2'] 59.259259259259196
109 1.1851851851851851 ['22', '2'] 59.259259259259196
110 1.1851851851851851 ['22', '2'] 59.259259259259196
111 1.1851851851851851 ['22', '2'] 59.259259259259196
112 1.1851851851851851 ['22', '2'] 59.259259259259196
113 1.1851851851851851 ['22', '2'] 59.259259259259196
114 1.1851851851851851 ['22', '2'] 59.259259259259196
115 1.1851851851851851 ['22', '2'] 59.259259259259196
116 1.1851851851851851 ['22', '2'] 59.259259259259196
117 1.1851851851851851 ['22', '2'] 59.259259259259196
118 1.1851851851851851 ['22', '2'] 59.259259259259196
119 1.1851851851851851 ['22', '2'] 59.259259259259196
120 1.1851851851851851 ['22', '2'] 59.259259259259196
121 1.1851851851851851 ['22', '2'] 59.259259259259196
122 1.1851851851851851 ['22', '2'] 59.259259259259196
123 1.1851851851851851 ['22', '2'] 59.259259259259196
124 1.1851851851851851 ['22', '2'] 59.259259259259196
125 1.1851851851851851 ['22', '2'] 59.259259259259196
126 1.1851851851851851 ['22', '2'] 59.259259259259196
127 1.1851851851851851 ['22', '2'] 59.259259259259196
128 1.1851851851851851 ['22', '2'] 59.259259259259196
129 1.1851851851851851 ['22', '2'] 59.259259259259196
130 1.1851851851851851 ['22', '2'] 59.259259259259196
131 1.1851851851851851 ['22', '2'] 59.259259259259196
132 1.1851851851851851 ['22', '2'] 59.259259259259196
133 1.1851851851851851 ['22', '2'] 59.259259259259196
134 1.1851851851851851 ['22', '2'] 59.259259259259196
135 1.1851851851851851 ['22', '2'] 59.259259259259196
136 1.1851851851851851 ['22', '2'] 59.259259259259196
137 1.1851851851851851 ['22', '2'] 59.259259259259196
138 1.1851851851851851 ['22', '2'] 59.259259259259196
139 1.1851851851851851 ['22', '2'] 59.259259259259196
140 1.1851851851851851 ['22', '2'] 59.259259259259196
141 1.1851851851851851 ['22', '2'] 59.259259259259196
142 1.1851851851851851 ['22', '2'] 59.259259259259196
143 1.1851851851851851 ['22', '2'] 59.259259259259196
144 1.1851851851851851 ['22', '2'] 59.259259259259196
145 1.1851851851851851 ['22', '2'] 59.259259259259196
146 1.1851851851851851 ['22', '2'] 59.259259259259196
147 1.1851851851851851 ['22', '2'] 59.259259259259196
148 1.1851851851851851 ['22', '2'] 59.259259259259196
149 1.1851851851851851 ['22', '2'] 59.259259259259196
150 1.1851851851851851 ['22', '2'] 59.259259259259196
151 1.1851851851851851 ['22', '2'] 59.259259259259196
152 1.1851851851851851 ['22', '2'] 59.259259259259196
153 1.1851851851851851 ['22', '2'] 59.259259259259196
154 1.1851851851851851 ['22', '2'] 59.259259259259196
155 1.1851851851851851 ['22', '2'] 59.259259259259196
156 1.1851851851851851 ['22', '2'] 59.259259259259196
157 1.1851851851851851 ['22', '2'] 59.259259259259196
158 1.1851851851851851 ['22', '2'] 59.259259259259196
159 1.1851851851851851 ['22', '2'] 59.259259259259196
160 1.1851851851851851 ['22', '2'] 59.259259259259196
161 1.1851851851851851 ['22', '2'] 59.259259259259196
162 1.1851851851851851 ['22', '2'] 59.259259259259196
163 1.1851851851851851 ['22', '2'] 59.259259259259196
164 1.1851851851851851 ['22', '2'] 59.259259259259196
165 1.1851851851851851 ['22', '2'] 59.259259259259196
166 1.1851851851851851 ['22', '2'] 59.259259259259196
167 1.1851851851851851 ['22', '2'] 59.259259259259196
168 1.1851851851851851 ['22', '2'] 59.259259259259196
169 1.1851851851851851 ['22', '2'] 59.259259259259196
170 1.1851851851851851 ['22', '2'] 59.259259259259196
171 1.1851851851851851 ['22', '2'] 59.259259259259196
172 1.1851851851851851 ['22', '2'] 59.259259259259196
173 1.1851851851851851 ['22', '2'] 59.259259259259196
174 1.1851851851851851 ['22', '2'] 59.259259259259196
175 1.1851851851851851 ['22', '2'] 59.259259259259196
176 1.1851851851851851 ['22', '2'] 59.259259259259196
177 1.1851851851851851 ['22', '2'] 59.259259259259196
178 1.1851851851851851 ['22', '2'] 59.259259259259196
179 1.1851851851851851 ['22', '2'] 59.259259259259196
180 1.1851851851851851 ['22', '2'] 59.259259259259196
181 1.1851851851851851 ['22', '2'] 59.259259259259196
182 1.1851851851851851 ['22', '2'] 59.259259259259196
183 1.1851851851851851 ['22', '2'] 59.259259259259196
184 1.1851851851851851 ['22', '2'] 59.259259259259196
185 1.1851851851851851 ['22', '2'] 59.259259259259196
186 1.1851851851851851 ['22', '2'] 59.259259259259196
187 1.1851851851851851 ['22', '2'] 59.259259259259196
188 1.1851851851851851 ['22', '2'] 59.259259259259196
189 1.1851851851851851 ['22', '2'] 59.259259259259196
190 1.1851851851851851 ['22', '2'] 59.259259259259196
191 1.1851851851851851 ['22', '2'] 59.259259259259196
192 1.1851851851851851 ['22', '2'] 59.259259259259196
193 1.1851851851851851 ['22', '2'] 59.259259259259196
194 1.1851851851851851 ['22', '2'] 59.259259259259196
195 1.1851851851851851 ['22', '2'] 59.259259259259196
196 1.1851851851851851 ['22', '2'] 59.259259259259196
197 1.1851851851851851 ['22', '2'] 59.259259259259196
198 1.1851851851851851 ['22', '2'] 59.259259259259196
199 1.1851851851851851 ['22', '2'] 59.259259259259196
