0 24.772727272727273 ['13', '28', '1', '5'] 1306.6363636363635
1 24.34090909090909 ['1', '24', '40', '48'] 1281.590909090909
2 24.045454545454547 ['5', '22', '27', '1'] 1259.2727272727273
3 23.90909090909091 ['1', '5', '24', '48'] 1239.0909090909095
4 23.90909090909091 ['1', '5', '24', '48'] 1223.9318181818176
5 23.90909090909091 ['1', '5', '24', '48'] 1215.1363636363635
6 23.863636363636363 ['5', '1', '22', '24'] 1207.2727272727268
7 23.772727272727273 ['1', '22', '24', '48'] 1201.272727272728
8 23.727272727272727 ['1', '48', '22', '5'] 1195.6590909090903
9 23.727272727272727 ['1', '48', '22', '5'] 1190.9545454545448
10 23.727272727272727 ['1', '48', '22', '5'] 1188.2727272727266
11 23.727272727272727 ['1', '48', '22', '5'] 1186.4090909090914
12 23.727272727272727 ['1', '48', '22', '5'] 1186.363636363637
13 23.727272727272727 ['1', '48', '22', '5'] 1186.363636363637
14 23.727272727272727 ['1', '48', '22', '5'] 1186.363636363637
15 23.727272727272727 ['1', '48', '22', '5'] 1186.363636363637
16 23.727272727272727 ['1', '48', '22', '5'] 1186.363636363637
17 23.727272727272727 ['1', '48', '22', '5'] 1186.363636363637
18 23.727272727272727 ['1', '48', '22', '5'] 1186.363636363637
19 23.727272727272727 ['1', '48', '22', '5'] 1186.363636363637
20 23.727272727272727 ['1', '48', '22', '5'] 1186.363636363637
21 23.727272727272727 ['1', '48', '22', '5'] 1186.363636363637
22 23.727272727272727 ['1', '48', '22', '5'] 1186.363636363637
23 23.727272727272727 ['1', '48', '22', '5'] 1186.363636363637
24 23.727272727272727 ['1', '48', '22', '5'] 1186.363636363637
25 23.727272727272727 ['1', '48', '22', '5'] 1186.363636363637
26 23.727272727272727 ['1', '48', '22', '5'] 1186.363636363637
27 23.727272727272727 ['1', '48', '22', '5'] 1186.363636363637
28 23.727272727272727 ['1', '48', '22', '5'] 1186.363636363637
29 23.727272727272727 ['1', '48', '22', '5'] 1186.363636363637
30 23.727272727272727 ['1', '48', '22', '5'] 1186.363636363637
31 23.727272727272727 ['1', '48', '22', '5'] 1186.363636363637
32 23.727272727272727 ['1', '48', '22', '5'] 1186.363636363637
33 23.727272727272727 ['1', '48', '22', '5'] 1186.363636363637
34 23.727272727272727 ['1', '48', '22', '5'] 1186.363636363637
35 23.727272727272727 ['1', '48', '22', '5'] 1186.363636363637
36 23.727272727272727 ['1', '48', '22', '5'] 1186.363636363637
37 23.727272727272727 ['1', '48', '22', '5'] 1186.363636363637
38 23.727272727272727 ['1', '48', '22', '5'] 1186.363636363637
39 23.727272727272727 ['1', '48', '22', '5'] 1186.363636363637
40 23.727272727272727 ['1', '48', '22', '5'] 1186.363636363637
41 23.727272727272727 ['1', '48', '22', '5'] 1186.363636363637
42 23.727272727272727 ['1', '48', '22', '5'] 1186.363636363637
43 23.727272727272727 ['1', '48', '22', '5'] 1186.363636363637
44 23.727272727272727 ['1', '48', '22', '5'] 1186.363636363637
45 23.727272727272727 ['1', '48', '22', '5'] 1186.363636363637
46 23.727272727272727 ['1', '48', '22', '5'] 1186.363636363637
47 23.727272727272727 ['1', '48', '22', '5'] 1186.363636363637
48 23.727272727272727 ['1', '48', '22', '5'] 1186.363636363637
49 23.727272727272727 ['1', '48', '22', '5'] 1186.363636363637
50 23.727272727272727 ['1', '48', '22', '5'] 1186.363636363637
51 23.727272727272727 ['1', '48', '22', '5'] 1186.363636363637
52 23.727272727272727 ['1', '48', '22', '5'] 1186.363636363637
53 23.727272727272727 ['1', '48', '22', '5'] 1186.363636363637
54 23.727272727272727 ['1', '48', '22', '5'] 1186.363636363637
55 23.727272727272727 ['1', '48', '22', '5'] 1186.363636363637
56 23.727272727272727 ['1', '48', '22', '5'] 1186.363636363637
57 23.727272727272727 ['1', '48', '22', '5'] 1186.363636363637
58 23.727272727272727 ['1', '48', '22', '5'] 1186.363636363637
59 23.727272727272727 ['1', '48', '22', '5'] 1186.363636363637
60 23.727272727272727 ['1', '48', '22', '5'] 1186.363636363637
61 23.727272727272727 ['1', '48', '22', '5'] 1186.363636363637
62 23.727272727272727 ['1', '48', '22', '5'] 1186.363636363637
63 23.727272727272727 ['1', '48', '22', '5'] 1186.363636363637
64 23.727272727272727 ['1', '48', '22', '5'] 1186.363636363637
65 23.727272727272727 ['1', '48', '22', '5'] 1186.363636363637
66 23.727272727272727 ['1', '48', '22', '5'] 1186.363636363637
67 23.727272727272727 ['1', '48', '22', '5'] 1186.363636363637
68 23.727272727272727 ['1', '48', '22', '5'] 1186.363636363637
69 23.727272727272727 ['1', '48', '22', '5'] 1186.363636363637
70 23.727272727272727 ['1', '48', '22', '5'] 1186.363636363637
71 23.727272727272727 ['1', '48', '22', '5'] 1186.363636363637
72 23.727272727272727 ['1', '48', '22', '5'] 1186.363636363637
73 23.727272727272727 ['1', '48', '22', '5'] 1186.363636363637
74 23.727272727272727 ['1', '48', '22', '5'] 1186.363636363637
75 23.727272727272727 ['1', '48', '22', '5'] 1186.363636363637
76 23.727272727272727 ['1', '48', '22', '5'] 1186.363636363637
77 23.727272727272727 ['1', '48', '22', '5'] 1186.363636363637
78 23.727272727272727 ['1', '48', '22', '5'] 1186.363636363637
79 23.727272727272727 ['1', '48', '22', '5'] 1186.363636363637
80 23.727272727272727 ['1', '48', '22', '5'] 1186.363636363637
81 23.727272727272727 ['1', '48', '22', '5'] 1186.363636363637
82 23.727272727272727 ['1', '48', '22', '5'] 1186.363636363637
83 23.727272727272727 ['1', '48', '22', '5'] 1186.363636363637
84 23.727272727272727 ['1', '48', '22', '5'] 1186.363636363637
85 23.727272727272727 ['1', '48', '22', '5'] 1186.363636363637
86 23.727272727272727 ['1', '48', '22', '5'] 1186.363636363637
87 23.727272727272727 ['1', '48', '22', '5'] 1186.363636363637
88 23.727272727272727 ['1', '48', '22', '5'] 1186.363636363637
89 23.727272727272727 ['1', '48', '22', '5'] 1186.363636363637
90 23.727272727272727 ['1', '48', '22', '5'] 1186.363636363637
91 23.727272727272727 ['1', '48', '22', '5'] 1186.363636363637
92 23.727272727272727 ['1', '48', '22', '5'] 1186.363636363637
93 23.727272727272727 ['1', '48', '22', '5'] 1186.363636363637
94 23.727272727272727 ['1', '48', '22', '5'] 1186.363636363637
95 23.727272727272727 ['1', '48', '22', '5'] 1186.363636363637
96 23.727272727272727 ['1', '48', '22', '5'] 1186.363636363637
97 23.727272727272727 ['1', '48', '22', '5'] 1186.363636363637
98 23.727272727272727 ['1', '48', '22', '5'] 1186.363636363637
99 23.727272727272727 ['1', '48', '22', '5'] 1186.363636363637
100 23.727272727272727 ['1', '48', '22', '5'] 1186.363636363637
101 23.727272727272727 ['1', '48', '22', '5'] 1186.363636363637
102 23.727272727272727 ['1', '48', '22', '5'] 1186.363636363637
103 23.727272727272727 ['1', '48', '22', '5'] 1186.363636363637
104 23.727272727272727 ['1', '48', '22', '5'] 1186.363636363637
105 23.727272727272727 ['1', '48', '22', '5'] 1186.363636363637
106 23.727272727272727 ['1', '48', '22', '5'] 1186.363636363637
107 23.727272727272727 ['1', '48', '22', '5'] 1186.363636363637
108 23.727272727272727 ['1', '48', '22', '5'] 1186.363636363637
109 23.727272727272727 ['1', '48', '22', '5'] 1186.363636363637
110 23.727272727272727 ['1', '48', '22', '5'] 1186.363636363637
111 23.727272727272727 ['1', '48', '22', '5'] 1186.363636363637
112 23.727272727272727 ['1', '48', '22', '5'] 1186.363636363637
113 23.727272727272727 ['1', '48', '22', '5'] 1186.363636363637
114 23.727272727272727 ['1', '48', '22', '5'] 1186.363636363637
115 23.727272727272727 ['1', '48', '22', '5'] 1186.363636363637
116 23.727272727272727 ['1', '48', '22', '5'] 1186.363636363637
117 23.727272727272727 ['1', '48', '22', '5'] 1186.363636363637
118 23.727272727272727 ['1', '48', '22', '5'] 1186.363636363637
119 23.727272727272727 ['1', '48', '22', '5'] 1186.363636363637
120 23.727272727272727 ['1', '48', '22', '5'] 1186.363636363637
121 23.727272727272727 ['1', '48', '22', '5'] 1186.363636363637
122 23.727272727272727 ['1', '48', '22', '5'] 1186.363636363637
123 23.727272727272727 ['1', '48', '22', '5'] 1186.363636363637
124 23.727272727272727 ['1', '48', '22', '5'] 1186.363636363637
125 23.727272727272727 ['1', '48', '22', '5'] 1186.363636363637
126 23.727272727272727 ['1', '48', '22', '5'] 1186.363636363637
127 23.727272727272727 ['1', '48', '22', '5'] 1186.363636363637
128 23.727272727272727 ['1', '48', '22', '5'] 1186.363636363637
129 23.727272727272727 ['1', '48', '22', '5'] 1186.363636363637
130 23.727272727272727 ['1', '48', '22', '5'] 1186.363636363637
131 23.727272727272727 ['1', '48', '22', '5'] 1186.363636363637
132 23.727272727272727 ['1', '48', '22', '5'] 1186.363636363637
133 23.727272727272727 ['1', '48', '22', '5'] 1186.363636363637
134 23.727272727272727 ['1', '48', '22', '5'] 1186.363636363637
135 23.727272727272727 ['1', '48', '22', '5'] 1186.363636363637
136 23.727272727272727 ['1', '48', '22', '5'] 1186.363636363637
137 23.727272727272727 ['1', '48', '22', '5'] 1186.363636363637
138 23.727272727272727 ['1', '48', '22', '5'] 1186.363636363637
139 23.727272727272727 ['1', '48', '22', '5'] 1186.363636363637
140 23.727272727272727 ['1', '48', '22', '5'] 1186.363636363637
141 23.727272727272727 ['1', '48', '22', '5'] 1186.363636363637
142 23.727272727272727 ['1', '48', '22', '5'] 1186.363636363637
143 23.727272727272727 ['1', '48', '22', '5'] 1186.363636363637
144 23.727272727272727 ['1', '48', '22', '5'] 1186.363636363637
145 23.727272727272727 ['1', '48', '22', '5'] 1186.363636363637
146 23.727272727272727 ['1', '48', '22', '5'] 1186.363636363637
147 23.727272727272727 ['1', '48', '22', '5'] 1186.363636363637
148 23.727272727272727 ['1', '48', '22', '5'] 1186.363636363637
149 23.727272727272727 ['1', '48', '22', '5'] 1186.363636363637
150 23.727272727272727 ['1', '48', '22', '5'] 1186.363636363637
151 23.727272727272727 ['1', '48', '22', '5'] 1186.363636363637
152 23.727272727272727 ['1', '48', '22', '5'] 1186.363636363637
153 23.727272727272727 ['1', '48', '22', '5'] 1186.363636363637
154 23.727272727272727 ['1', '48', '22', '5'] 1186.363636363637
155 23.727272727272727 ['1', '48', '22', '5'] 1186.363636363637
156 23.727272727272727 ['1', '48', '22', '5'] 1186.363636363637
157 23.727272727272727 ['1', '48', '22', '5'] 1186.363636363637
158 23.727272727272727 ['1', '48', '22', '5'] 1186.363636363637
159 23.727272727272727 ['1', '48', '22', '5'] 1186.363636363637
160 23.727272727272727 ['1', '48', '22', '5'] 1186.363636363637
161 23.727272727272727 ['1', '48', '22', '5'] 1186.363636363637
162 23.727272727272727 ['1', '48', '22', '5'] 1186.363636363637
163 23.727272727272727 ['1', '48', '22', '5'] 1186.363636363637
164 23.727272727272727 ['1', '48', '22', '5'] 1186.363636363637
165 23.727272727272727 ['1', '48', '22', '5'] 1186.363636363637
166 23.727272727272727 ['1', '48', '22', '5'] 1186.363636363637
167 23.727272727272727 ['1', '48', '22', '5'] 1186.363636363637
168 23.727272727272727 ['1', '48', '22', '5'] 1186.363636363637
169 23.727272727272727 ['1', '48', '22', '5'] 1186.363636363637
170 23.727272727272727 ['1', '48', '22', '5'] 1186.363636363637
171 23.727272727272727 ['1', '48', '22', '5'] 1186.363636363637
172 23.727272727272727 ['1', '48', '22', '5'] 1186.363636363637
173 23.727272727272727 ['1', '48', '22', '5'] 1186.363636363637
174 23.727272727272727 ['1', '48', '22', '5'] 1186.363636363637
175 23.727272727272727 ['1', '48', '22', '5'] 1186.363636363637
176 23.727272727272727 ['1', '48', '22', '5'] 1186.363636363637
177 23.727272727272727 ['1', '48', '22', '5'] 1186.363636363637
178 23.727272727272727 ['1', '48', '22', '5'] 1186.363636363637
179 23.727272727272727 ['1', '48', '22', '5'] 1186.363636363637
180 23.727272727272727 ['1', '48', '22', '5'] 1186.363636363637
181 23.727272727272727 ['1', '48', '22', '5'] 1186.363636363637
182 23.727272727272727 ['1', '48', '22', '5'] 1186.363636363637
183 23.727272727272727 ['1', '48', '22', '5'] 1186.363636363637
184 23.727272727272727 ['1', '48', '22', '5'] 1186.363636363637
185 23.727272727272727 ['1', '48', '22', '5'] 1186.363636363637
186 23.727272727272727 ['1', '48', '22', '5'] 1186.363636363637
187 23.727272727272727 ['1', '48', '22', '5'] 1186.363636363637
188 23.727272727272727 ['1', '48', '22', '5'] 1186.363636363637
189 23.727272727272727 ['1', '48', '22', '5'] 1186.363636363637
190 23.727272727272727 ['1', '48', '22', '5'] 1186.363636363637
191 23.727272727272727 ['1', '48', '22', '5'] 1186.363636363637
192 23.727272727272727 ['1', '48', '22', '5'] 1186.363636363637
193 23.727272727272727 ['1', '48', '22', '5'] 1186.363636363637
194 23.727272727272727 ['1', '48', '22', '5'] 1186.363636363637
195 23.727272727272727 ['1', '48', '22', '5'] 1186.363636363637
196 23.727272727272727 ['1', '48', '22', '5'] 1186.363636363637
197 23.727272727272727 ['1', '48', '22', '5'] 1186.363636363637
198 23.727272727272727 ['1', '48', '22', '5'] 1186.363636363637
199 23.727272727272727 ['1', '48', '22', '5'] 1186.363636363637
