0 32.361702127659576 ['12', '21', '43', '42', '23'] 1733.2340425531916
1 32.361702127659576 ['12', '21', '43', '42', '23'] 1702.4680851063827
2 32.319148936170215 ['19', '23', '50', '12', '5'] 1676.319148936171
3 31.95744680851064 ['23', '20', '12', '42', '43'] 1655.3829787234047
4 31.382978723404257 ['30', '12', '19', '6', '47'] 1628.8723404255318
5 31.382978723404257 ['30', '12', '19', '6', '47'] 1613.0425531914889
6 31.382978723404257 ['30', '12', '19', '6', '47'] 1599.3829787234047
7 31.382978723404257 ['30', '12', '19', '6', '47'] 1588.8510638297887
8 31.382978723404257 ['30', '12', '19', '6', '47'] 1583.7234042553177
9 31.23404255319149 ['12', '6', '19', '30', '23'] 1578.6170212765958
10 31.23404255319149 ['12', '6', '19', '30', '23'] 1573.1702127659591
11 31.127659574468087 ['12', '19', '23', '45', '30'] 1567.5744680851046
12 31.127659574468087 ['12', '19', '23', '45', '30'] 1563.3617021276589
13 31.127659574468087 ['12', '19', '23', '45', '30'] 1560.574468085107
14 31.127659574468087 ['12', '19', '23', '45', '30'] 1559.4255319148947
15 31.127659574468087 ['12', '19', '23', '45', '30'] 1557.4468085106398
16 31.127659574468087 ['12', '19', '23', '45', '30'] 1556.3829787234033
17 31.127659574468087 ['12', '19', '23', '45', '30'] 1556.3829787234033
18 31.127659574468087 ['12', '19', '23', '45', '30'] 1556.3829787234033
19 31.127659574468087 ['12', '19', '23', '45', '30'] 1556.3829787234033
20 31.127659574468087 ['12', '19', '23', '45', '30'] 1556.3829787234033
21 31.127659574468087 ['12', '19', '23', '45', '30'] 1556.3829787234033
22 31.127659574468087 ['12', '19', '23', '45', '30'] 1556.3829787234033
23 31.127659574468087 ['12', '19', '23', '45', '30'] 1556.3829787234033
24 31.127659574468087 ['12', '19', '23', '45', '30'] 1556.3829787234033
25 31.127659574468087 ['12', '19', '23', '45', '30'] 1556.3829787234033
26 31.127659574468087 ['12', '19', '23', '45', '30'] 1556.3829787234033
27 31.127659574468087 ['12', '19', '23', '45', '30'] 1556.3829787234033
28 31.127659574468087 ['12', '19', '23', '45', '30'] 1556.3829787234033
29 31.127659574468087 ['12', '19', '23', '45', '30'] 1556.3829787234033
30 31.127659574468087 ['12', '19', '23', '45', '30'] 1556.3829787234033
31 31.127659574468087 ['12', '19', '23', '45', '30'] 1556.3829787234033
32 31.127659574468087 ['12', '19', '23', '45', '30'] 1556.3829787234033
33 31.127659574468087 ['12', '19', '23', '45', '30'] 1556.3829787234033
34 31.127659574468087 ['12', '19', '23', '45', '30'] 1556.3829787234033
35 31.127659574468087 ['12', '19', '23', '45', '30'] 1556.3829787234033
36 31.127659574468087 ['12', '19', '23', '45', '30'] 1556.3829787234033
37 31.127659574468087 ['12', '19', '23', '45', '30'] 1556.3829787234033
38 31.127659574468087 ['12', '19', '23', '45', '30'] 1556.3829787234033
39 31.127659574468087 ['12', '19', '23', '45', '30'] 1556.3829787234033
40 31.127659574468087 ['12', '19', '23', '45', '30'] 1556.3829787234033
41 31.127659574468087 ['12', '19', '23', '45', '30'] 1556.3829787234033
42 31.127659574468087 ['12', '19', '23', '45', '30'] 1556.3829787234033
43 31.127659574468087 ['12', '19', '23', '45', '30'] 1556.3829787234033
44 31.127659574468087 ['12', '19', '23', '45', '30'] 1556.3829787234033
45 31.127659574468087 ['12', '19', '23', '45', '30'] 1556.3829787234033
46 31.127659574468087 ['12', '19', '23', '45', '30'] 1556.3829787234033
47 31.127659574468087 ['12', '19', '23', '45', '30'] 1556.3829787234033
48 31.127659574468087 ['12', '19', '23', '45', '30'] 1556.3829787234033
49 31.127659574468087 ['12', '19', '23', '45', '30'] 1556.3829787234033
50 31.127659574468087 ['12', '19', '23', '45', '30'] 1556.3829787234033
51 31.127659574468087 ['12', '19', '23', '45', '30'] 1556.3829787234033
52 31.127659574468087 ['12', '19', '23', '45', '30'] 1556.3829787234033
53 31.127659574468087 ['12', '19', '23', '45', '30'] 1556.3829787234033
54 31.127659574468087 ['12', '19', '23', '45', '30'] 1556.3829787234033
55 31.127659574468087 ['12', '19', '23', '45', '30'] 1556.3829787234033
56 31.127659574468087 ['12', '19', '23', '45', '30'] 1556.3829787234033
57 31.127659574468087 ['12', '19', '23', '45', '30'] 1556.3829787234033
58 31.127659574468087 ['12', '19', '23', '45', '30'] 1556.3829787234033
59 31.127659574468087 ['12', '19', '23', '45', '30'] 1556.3829787234033
60 31.127659574468087 ['12', '19', '23', '45', '30'] 1556.3829787234033
61 31.127659574468087 ['12', '19', '23', '45', '30'] 1556.3829787234033
62 31.127659574468087 ['12', '19', '23', '45', '30'] 1556.3829787234033
63 31.127659574468087 ['12', '19', '23', '45', '30'] 1556.3829787234033
64 31.127659574468087 ['12', '19', '23', '45', '30'] 1556.3829787234033
65 31.127659574468087 ['12', '19', '23', '45', '30'] 1556.3829787234033
66 31.127659574468087 ['12', '19', '23', '45', '30'] 1556.3829787234033
67 31.127659574468087 ['12', '19', '23', '45', '30'] 1556.3829787234033
68 31.127659574468087 ['12', '19', '23', '45', '30'] 1556.3829787234033
69 31.127659574468087 ['12', '19', '23', '45', '30'] 1556.3829787234033
70 31.127659574468087 ['12', '19', '23', '45', '30'] 1556.3829787234033
71 31.127659574468087 ['12', '19', '23', '45', '30'] 1556.3829787234033
72 31.127659574468087 ['12', '19', '23', '45', '30'] 1556.3829787234033
73 31.127659574468087 ['12', '19', '23', '45', '30'] 1556.3829787234033
74 31.127659574468087 ['12', '19', '23', '45', '30'] 1556.3829787234033
75 31.127659574468087 ['12', '19', '23', '45', '30'] 1556.3829787234033
76 31.127659574468087 ['12', '19', '23', '45', '30'] 1556.3829787234033
77 31.127659574468087 ['12', '19', '23', '45', '30'] 1556.3829787234033
78 31.127659574468087 ['12', '19', '23', '45', '30'] 1556.3829787234033
79 31.127659574468087 ['12', '19', '23', '45', '30'] 1556.3829787234033
80 31.127659574468087 ['12', '19', '23', '45', '30'] 1556.3829787234033
81 31.127659574468087 ['12', '19', '23', '45', '30'] 1556.3829787234033
82 31.127659574468087 ['12', '19', '23', '45', '30'] 1556.3829787234033
83 31.127659574468087 ['12', '19', '23', '45', '30'] 1556.3829787234033
84 31.127659574468087 ['12', '19', '23', '45', '30'] 1556.3829787234033
85 31.127659574468087 ['12', '19', '23', '45', '30'] 1556.3829787234033
86 31.127659574468087 ['12', '19', '23', '45', '30'] 1556.3829787234033
87 31.127659574468087 ['12', '19', '23', '45', '30'] 1556.3829787234033
88 31.127659574468087 ['12', '19', '23', '45', '30'] 1556.3829787234033
89 31.127659574468087 ['12', '19', '23', '45', '30'] 1556.3829787234033
90 31.127659574468087 ['12', '19', '23', '45', '30'] 1556.3829787234033
91 31.127659574468087 ['12', '19', '23', '45', '30'] 1556.3829787234033
92 31.127659574468087 ['12', '19', '23', '45', '30'] 1556.3829787234033
93 31.127659574468087 ['12', '19', '23', '45', '30'] 1556.3829787234033
94 31.127659574468087 ['12', '19', '23', '45', '30'] 1556.3829787234033
95 31.127659574468087 ['12', '19', '23', '45', '30'] 1556.3829787234033
96 31.127659574468087 ['12', '19', '23', '45', '30'] 1556.3829787234033
97 31.127659574468087 ['12', '19', '23', '45', '30'] 1556.3829787234033
98 31.127659574468087 ['12', '19', '23', '45', '30'] 1556.3829787234033
99 31.127659574468087 ['12', '19', '23', '45', '30'] 1556.3829787234033
100 31.127659574468087 ['12', '19', '23', '45', '30'] 1556.3829787234033
101 31.127659574468087 ['12', '19', '23', '45', '30'] 1556.3829787234033
102 31.127659574468087 ['12', '19', '23', '45', '30'] 1556.3829787234033
103 31.127659574468087 ['12', '19', '23', '45', '30'] 1556.3829787234033
104 31.127659574468087 ['12', '19', '23', '45', '30'] 1556.3829787234033
105 31.127659574468087 ['12', '19', '23', '45', '30'] 1556.3829787234033
106 31.127659574468087 ['12', '19', '23', '45', '30'] 1556.3829787234033
107 31.127659574468087 ['12', '19', '23', '45', '30'] 1556.3829787234033
108 31.127659574468087 ['12', '19', '23', '45', '30'] 1556.3829787234033
109 31.127659574468087 ['12', '19', '23', '45', '30'] 1556.3829787234033
110 31.127659574468087 ['12', '19', '23', '45', '30'] 1556.3829787234033
111 31.127659574468087 ['12', '19', '23', '45', '30'] 1556.3829787234033
112 31.127659574468087 ['12', '19', '23', '45', '30'] 1556.3829787234033
113 31.127659574468087 ['12', '19', '23', '45', '30'] 1556.3829787234033
114 31.127659574468087 ['12', '19', '23', '45', '30'] 1556.3829787234033
115 31.127659574468087 ['12', '19', '23', '45', '30'] 1556.3829787234033
116 31.127659574468087 ['12', '19', '23', '45', '30'] 1556.3829787234033
117 31.127659574468087 ['12', '19', '23', '45', '30'] 1556.3829787234033
118 31.127659574468087 ['12', '19', '23', '45', '30'] 1556.3829787234033
119 31.127659574468087 ['12', '19', '23', '45', '30'] 1556.3829787234033
120 31.127659574468087 ['12', '19', '23', '45', '30'] 1556.3829787234033
121 31.127659574468087 ['12', '19', '23', '45', '30'] 1556.3829787234033
122 31.127659574468087 ['12', '19', '23', '45', '30'] 1556.3829787234033
123 31.127659574468087 ['12', '19', '23', '45', '30'] 1556.3829787234033
124 31.127659574468087 ['12', '19', '23', '45', '30'] 1556.3829787234033
125 31.127659574468087 ['12', '19', '23', '45', '30'] 1556.3829787234033
126 31.127659574468087 ['12', '19', '23', '45', '30'] 1556.3829787234033
127 31.127659574468087 ['12', '19', '23', '45', '30'] 1556.3829787234033
128 31.127659574468087 ['12', '19', '23', '45', '30'] 1556.3829787234033
129 31.127659574468087 ['12', '19', '23', '45', '30'] 1556.3829787234033
130 31.127659574468087 ['12', '19', '23', '45', '30'] 1556.3829787234033
131 31.127659574468087 ['12', '19', '23', '45', '30'] 1556.3829787234033
132 31.127659574468087 ['12', '19', '23', '45', '30'] 1556.3829787234033
133 31.127659574468087 ['12', '19', '23', '45', '30'] 1556.3829787234033
134 31.127659574468087 ['12', '19', '23', '45', '30'] 1556.3829787234033
135 31.127659574468087 ['12', '19', '23', '45', '30'] 1556.3829787234033
136 31.127659574468087 ['12', '19', '23', '45', '30'] 1556.3829787234033
137 31.127659574468087 ['12', '19', '23', '45', '30'] 1556.3829787234033
138 31.127659574468087 ['12', '19', '23', '45', '30'] 1556.3829787234033
139 31.127659574468087 ['12', '19', '23', '45', '30'] 1556.3829787234033
140 31.127659574468087 ['12', '19', '23', '45', '30'] 1556.3829787234033
141 31.127659574468087 ['12', '19', '23', '45', '30'] 1556.3829787234033
142 31.127659574468087 ['12', '19', '23', '45', '30'] 1556.3829787234033
143 31.127659574468087 ['12', '19', '23', '45', '30'] 1556.3829787234033
144 31.127659574468087 ['12', '19', '23', '45', '30'] 1556.3829787234033
145 31.127659574468087 ['12', '19', '23', '45', '30'] 1556.3829787234033
146 31.127659574468087 ['12', '19', '23', '45', '30'] 1556.3829787234033
147 31.127659574468087 ['12', '19', '23', '45', '30'] 1556.3829787234033
148 31.127659574468087 ['12', '19', '23', '45', '30'] 1556.3829787234033
149 31.127659574468087 ['12', '19', '23', '45', '30'] 1556.3829787234033
150 31.127659574468087 ['12', '19', '23', '45', '30'] 1556.3829787234033
151 31.127659574468087 ['12', '19', '23', '45', '30'] 1556.3829787234033
152 31.127659574468087 ['12', '19', '23', '45', '30'] 1556.3829787234033
153 31.127659574468087 ['12', '19', '23', '45', '30'] 1556.3829787234033
154 31.127659574468087 ['12', '19', '23', '45', '30'] 1556.3829787234033
155 31.127659574468087 ['12', '19', '23', '45', '30'] 1556.3829787234033
156 31.127659574468087 ['12', '19', '23', '45', '30'] 1556.3829787234033
157 31.127659574468087 ['12', '19', '23', '45', '30'] 1556.3829787234033
158 31.127659574468087 ['12', '19', '23', '45', '30'] 1556.3829787234033
159 31.127659574468087 ['12', '19', '23', '45', '30'] 1556.3829787234033
160 31.127659574468087 ['12', '19', '23', '45', '30'] 1556.3829787234033
161 31.127659574468087 ['12', '19', '23', '45', '30'] 1556.3829787234033
162 31.127659574468087 ['12', '19', '23', '45', '30'] 1556.3829787234033
163 31.127659574468087 ['12', '19', '23', '45', '30'] 1556.3829787234033
164 31.127659574468087 ['12', '19', '23', '45', '30'] 1556.3829787234033
165 31.127659574468087 ['12', '19', '23', '45', '30'] 1556.3829787234033
166 31.127659574468087 ['12', '19', '23', '45', '30'] 1556.3829787234033
167 31.127659574468087 ['12', '19', '23', '45', '30'] 1556.3829787234033
168 31.127659574468087 ['12', '19', '23', '45', '30'] 1556.3829787234033
169 31.127659574468087 ['12', '19', '23', '45', '30'] 1556.3829787234033
170 31.127659574468087 ['12', '19', '23', '45', '30'] 1556.3829787234033
171 31.127659574468087 ['12', '19', '23', '45', '30'] 1556.3829787234033
172 31.127659574468087 ['12', '19', '23', '45', '30'] 1556.3829787234033
173 31.127659574468087 ['12', '19', '23', '45', '30'] 1556.3829787234033
174 31.127659574468087 ['12', '19', '23', '45', '30'] 1556.3829787234033
175 31.127659574468087 ['12', '19', '23', '45', '30'] 1556.3829787234033
176 31.127659574468087 ['12', '19', '23', '45', '30'] 1556.3829787234033
177 31.127659574468087 ['12', '19', '23', '45', '30'] 1556.3829787234033
178 31.127659574468087 ['12', '19', '23', '45', '30'] 1556.3829787234033
179 31.127659574468087 ['12', '19', '23', '45', '30'] 1556.3829787234033
180 31.127659574468087 ['12', '19', '23', '45', '30'] 1556.3829787234033
181 31.127659574468087 ['12', '19', '23', '45', '30'] 1556.3829787234033
182 31.127659574468087 ['12', '19', '23', '45', '30'] 1556.3829787234033
183 31.127659574468087 ['12', '19', '23', '45', '30'] 1556.3829787234033
184 31.127659574468087 ['12', '19', '23', '45', '30'] 1556.3829787234033
185 31.127659574468087 ['12', '19', '23', '45', '30'] 1556.3829787234033
186 31.127659574468087 ['12', '19', '23', '45', '30'] 1556.3829787234033
187 31.127659574468087 ['12', '19', '23', '45', '30'] 1556.3829787234033
188 31.127659574468087 ['12', '19', '23', '45', '30'] 1556.3829787234033
189 31.127659574468087 ['12', '19', '23', '45', '30'] 1556.3829787234033
190 31.127659574468087 ['12', '19', '23', '45', '30'] 1556.3829787234033
191 31.127659574468087 ['12', '19', '23', '45', '30'] 1556.3829787234033
192 31.127659574468087 ['12', '19', '23', '45', '30'] 1556.3829787234033
193 31.127659574468087 ['12', '19', '23', '45', '30'] 1556.3829787234033
194 31.127659574468087 ['12', '19', '23', '45', '30'] 1556.3829787234033
195 31.127659574468087 ['12', '19', '23', '45', '30'] 1556.3829787234033
196 31.127659574468087 ['12', '19', '23', '45', '30'] 1556.3829787234033
197 31.127659574468087 ['12', '19', '23', '45', '30'] 1556.3829787234033
198 31.127659574468087 ['12', '19', '23', '45', '30'] 1556.3829787234033
199 31.127659574468087 ['12', '19', '23', '45', '30'] 1556.3829787234033
