0 5.253456790123459 ['23', '128', '134', '94', '146', '84', '77', '30', '122', '129', '2', '34', '135', '124', '136'] 265.9734567901236
1 5.248641975308644 ['128', '77', '26', '2', '142', '136', '30', '134', '135', '130', '8', '3', '10', '146', '122'] 264.9318518518519
2 5.197530864197533 ['108', '146', '107', '39', '141', '147', '33', '131', '124', '86', '121', '89', '137', '80', '128'] 263.97074074074084
3 5.1623456790123505 ['45', '22', '99', '137', '131', '150', '134', '142', '128', '91', '108', '44', '117', '149', '138'] 263.06790123456796
4 5.1623456790123505 ['45', '22', '99', '137', '131', '150', '134', '142', '128', '91', '108', '44', '117', '149', '138'] 262.3275308641977
5 5.1623456790123505 ['45', '22', '99', '137', '131', '150', '134', '142', '128', '91', '108', '44', '117', '149', '138'] 261.37308641975324
6 5.125555555555556 ['124', '146', '128', '135', '3', '80', '121', '141', '137', '149', '90', '2', '104', '64', '148'] 260.137901234568
7 5.104567901234572 ['128', '135', '3', '86', '148', '129', '138', '14', '122', '141', '117', '134', '149', '120', '142'] 259.06975308641984
8 5.093456790123457 ['90', '121', '149', '135', '137', '124', '141', '3', '148', '143', '146', '64', '2', '80', '128'] 258.04481481481497
9 5.09135802469136 ['120', '146', '122', '128', '3', '135', '143', '139', '149', '124', '148', '2', '91', '90', '121'] 257.1349382716051
10 5.055679012345679 ['149', '142', '135', '3', '134', '128', '90', '92', '120', '148', '143', '146', '117', '14', '138'] 256.0639506172841
11 5.055679012345679 ['149', '142', '135', '3', '134', '128', '90', '92', '120', '148', '143', '146', '117', '14', '138'] 255.24444444444453
12 5.042716049382719 ['90', '135', '3', '128', '134', '146', '148', '138', '121', '117', '10', '124', '142', '145', '14'] 254.5856790123458
13 5.042716049382719 ['90', '135', '3', '128', '134', '146', '148', '138', '121', '117', '10', '124', '142', '145', '14'] 253.8046913580248
14 5.035432098765434 ['135', '90', '122', '149', '142', '141', '146', '128', '124', '148', '3', '143', '80', '91', '121'] 253.19086419753097
15 5.019259259259261 ['128', '148', '142', '121', '3', '90', '146', '124', '137', '91', '143', '138', '135', '145', '149'] 252.53567901234578
16 5.014938271604941 ['121', '128', '146', '148', '135', '134', '138', '3', '142', '129', '90', '117', '149', '80', '145'] 252.0212345679014
17 4.987901234567902 ['121', '135', '142', '138', '128', '3', '134', '141', '146', '124', '45', '145', '117', '143', '148'] 251.43160493827156
18 4.983456790123459 ['121', '145', '128', '149', '143', '134', '135', '142', '146', '148', '124', '3', '138', '90', '117'] 250.95283950617292
19 4.980493827160496 ['138', '124', '121', '148', '145', '146', '143', '149', '142', '128', '135', '134', '3', '141', '14'] 250.56209876543227
20 4.968765432098766 ['3', '146', '124', '148', '121', '128', '149', '134', '143', '142', '145', '135', '141', '90', '138'] 249.90382716049388
21 4.968765432098766 ['3', '146', '124', '148', '121', '128', '149', '134', '143', '142', '145', '135', '141', '90', '138'] 249.31246913580244
22 4.951234567901236 ['124', '128', '121', '146', '143', '145', '141', '135', '3', '138', '134', '142', '149', '23', '148'] 248.6823456790124
23 4.951234567901236 ['124', '128', '121', '146', '143', '145', '141', '135', '3', '138', '134', '142', '149', '23', '148'] 248.25679012345674
24 4.951234567901236 ['124', '128', '121', '146', '143', '145', '141', '135', '3', '138', '134', '142', '149', '23', '148'] 248.099012345679
25 4.951234567901236 ['124', '128', '121', '146', '143', '145', '141', '135', '3', '138', '134', '142', '149', '23', '148'] 247.79481481481474
26 4.951234567901236 ['124', '128', '121', '146', '143', '145', '141', '135', '3', '138', '134', '142', '149', '23', '148'] 247.56172839506155
27 4.951234567901236 ['124', '128', '121', '146', '143', '145', '141', '135', '3', '138', '134', '142', '149', '23', '148'] 247.56172839506155
28 4.951234567901236 ['124', '128', '121', '146', '143', '145', '141', '135', '3', '138', '134', '142', '149', '23', '148'] 247.56172839506155
29 4.951234567901236 ['124', '128', '121', '146', '143', '145', '141', '135', '3', '138', '134', '142', '149', '23', '148'] 247.56172839506155
30 4.951234567901236 ['124', '128', '121', '146', '143', '145', '141', '135', '3', '138', '134', '142', '149', '23', '148'] 247.56172839506155
31 4.951234567901236 ['124', '128', '121', '146', '143', '145', '141', '135', '3', '138', '134', '142', '149', '23', '148'] 247.56172839506155
32 4.951234567901236 ['124', '128', '121', '146', '143', '145', '141', '135', '3', '138', '134', '142', '149', '23', '148'] 247.56172839506155
33 4.951234567901236 ['124', '128', '121', '146', '143', '145', '141', '135', '3', '138', '134', '142', '149', '23', '148'] 247.56172839506155
34 4.951234567901236 ['124', '128', '121', '146', '143', '145', '141', '135', '3', '138', '134', '142', '149', '23', '148'] 247.56172839506155
35 4.951234567901236 ['124', '128', '121', '146', '143', '145', '141', '135', '3', '138', '134', '142', '149', '23', '148'] 247.56172839506155
36 4.951234567901236 ['124', '128', '121', '146', '143', '145', '141', '135', '3', '138', '134', '142', '149', '23', '148'] 247.56172839506155
37 4.951234567901236 ['124', '128', '121', '146', '143', '145', '141', '135', '3', '138', '134', '142', '149', '23', '148'] 247.56172839506155
38 4.951234567901236 ['124', '128', '121', '146', '143', '145', '141', '135', '3', '138', '134', '142', '149', '23', '148'] 247.56172839506155
39 4.951234567901236 ['124', '128', '121', '146', '143', '145', '141', '135', '3', '138', '134', '142', '149', '23', '148'] 247.56172839506155
40 4.951234567901236 ['124', '128', '121', '146', '143', '145', '141', '135', '3', '138', '134', '142', '149', '23', '148'] 247.56172839506155
41 4.951234567901236 ['124', '128', '121', '146', '143', '145', '141', '135', '3', '138', '134', '142', '149', '23', '148'] 247.56172839506155
42 4.951234567901236 ['124', '128', '121', '146', '143', '145', '141', '135', '3', '138', '134', '142', '149', '23', '148'] 247.56172839506155
43 4.951234567901236 ['124', '128', '121', '146', '143', '145', '141', '135', '3', '138', '134', '142', '149', '23', '148'] 247.56172839506155
44 4.951234567901236 ['124', '128', '121', '146', '143', '145', '141', '135', '3', '138', '134', '142', '149', '23', '148'] 247.56172839506155
45 4.951234567901236 ['124', '128', '121', '146', '143', '145', '141', '135', '3', '138', '134', '142', '149', '23', '148'] 247.56172839506155
46 4.951234567901236 ['124', '128', '121', '146', '143', '145', '141', '135', '3', '138', '134', '142', '149', '23', '148'] 247.56172839506155
47 4.951234567901236 ['124', '128', '121', '146', '143', '145', '141', '135', '3', '138', '134', '142', '149', '23', '148'] 247.56172839506155
48 4.951234567901236 ['124', '128', '121', '146', '143', '145', '141', '135', '3', '138', '134', '142', '149', '23', '148'] 247.56172839506155
49 4.951234567901236 ['124', '128', '121', '146', '143', '145', '141', '135', '3', '138', '134', '142', '149', '23', '148'] 247.56172839506155
50 4.951234567901236 ['124', '128', '121', '146', '143', '145', '141', '135', '3', '138', '134', '142', '149', '23', '148'] 247.56172839506155
51 4.951234567901236 ['124', '128', '121', '146', '143', '145', '141', '135', '3', '138', '134', '142', '149', '23', '148'] 247.56172839506155
52 4.951234567901236 ['124', '128', '121', '146', '143', '145', '141', '135', '3', '138', '134', '142', '149', '23', '148'] 247.56172839506155
53 4.951234567901236 ['124', '128', '121', '146', '143', '145', '141', '135', '3', '138', '134', '142', '149', '23', '148'] 247.56172839506155
54 4.951234567901236 ['124', '128', '121', '146', '143', '145', '141', '135', '3', '138', '134', '142', '149', '23', '148'] 247.56172839506155
55 4.951234567901236 ['124', '128', '121', '146', '143', '145', '141', '135', '3', '138', '134', '142', '149', '23', '148'] 247.56172839506155
56 4.951234567901236 ['124', '128', '121', '146', '143', '145', '141', '135', '3', '138', '134', '142', '149', '23', '148'] 247.56172839506155
57 4.951234567901236 ['124', '128', '121', '146', '143', '145', '141', '135', '3', '138', '134', '142', '149', '23', '148'] 247.56172839506155
58 4.951234567901236 ['124', '128', '121', '146', '143', '145', '141', '135', '3', '138', '134', '142', '149', '23', '148'] 247.56172839506155
59 4.951234567901236 ['124', '128', '121', '146', '143', '145', '141', '135', '3', '138', '134', '142', '149', '23', '148'] 247.56172839506155
60 4.951234567901236 ['124', '128', '121', '146', '143', '145', '141', '135', '3', '138', '134', '142', '149', '23', '148'] 247.56172839506155
61 4.951234567901236 ['124', '128', '121', '146', '143', '145', '141', '135', '3', '138', '134', '142', '149', '23', '148'] 247.56172839506155
62 4.951234567901236 ['124', '128', '121', '146', '143', '145', '141', '135', '3', '138', '134', '142', '149', '23', '148'] 247.56172839506155
63 4.951234567901236 ['124', '128', '121', '146', '143', '145', '141', '135', '3', '138', '134', '142', '149', '23', '148'] 247.56172839506155
64 4.951234567901236 ['124', '128', '121', '146', '143', '145', '141', '135', '3', '138', '134', '142', '149', '23', '148'] 247.56172839506155
65 4.951234567901236 ['124', '128', '121', '146', '143', '145', '141', '135', '3', '138', '134', '142', '149', '23', '148'] 247.56172839506155
66 4.951234567901236 ['124', '128', '121', '146', '143', '145', '141', '135', '3', '138', '134', '142', '149', '23', '148'] 247.56172839506155
67 4.951234567901236 ['124', '128', '121', '146', '143', '145', '141', '135', '3', '138', '134', '142', '149', '23', '148'] 247.56172839506155
68 4.951234567901236 ['124', '128', '121', '146', '143', '145', '141', '135', '3', '138', '134', '142', '149', '23', '148'] 247.56172839506155
69 4.951234567901236 ['124', '128', '121', '146', '143', '145', '141', '135', '3', '138', '134', '142', '149', '23', '148'] 247.56172839506155
70 4.951234567901236 ['124', '128', '121', '146', '143', '145', '141', '135', '3', '138', '134', '142', '149', '23', '148'] 247.56172839506155
71 4.951234567901236 ['124', '128', '121', '146', '143', '145', '141', '135', '3', '138', '134', '142', '149', '23', '148'] 247.56172839506155
72 4.951234567901236 ['124', '128', '121', '146', '143', '145', '141', '135', '3', '138', '134', '142', '149', '23', '148'] 247.56172839506155
73 4.951234567901236 ['124', '128', '121', '146', '143', '145', '141', '135', '3', '138', '134', '142', '149', '23', '148'] 247.56172839506155
74 4.951234567901236 ['124', '128', '121', '146', '143', '145', '141', '135', '3', '138', '134', '142', '149', '23', '148'] 247.56172839506155
75 4.951234567901236 ['124', '128', '121', '146', '143', '145', '141', '135', '3', '138', '134', '142', '149', '23', '148'] 247.56172839506155
76 4.951234567901236 ['124', '128', '121', '146', '143', '145', '141', '135', '3', '138', '134', '142', '149', '23', '148'] 247.56172839506155
77 4.951234567901236 ['124', '128', '121', '146', '143', '145', '141', '135', '3', '138', '134', '142', '149', '23', '148'] 247.56172839506155
78 4.951234567901236 ['124', '128', '121', '146', '143', '145', '141', '135', '3', '138', '134', '142', '149', '23', '148'] 247.56172839506155
79 4.951234567901236 ['124', '128', '121', '146', '143', '145', '141', '135', '3', '138', '134', '142', '149', '23', '148'] 247.56172839506155
80 4.951234567901236 ['124', '128', '121', '146', '143', '145', '141', '135', '3', '138', '134', '142', '149', '23', '148'] 247.56172839506155
81 4.951234567901236 ['124', '128', '121', '146', '143', '145', '141', '135', '3', '138', '134', '142', '149', '23', '148'] 247.56172839506155
82 4.951234567901236 ['124', '128', '121', '146', '143', '145', '141', '135', '3', '138', '134', '142', '149', '23', '148'] 247.56172839506155
83 4.951234567901236 ['124', '128', '121', '146', '143', '145', '141', '135', '3', '138', '134', '142', '149', '23', '148'] 247.56172839506155
84 4.951234567901236 ['124', '128', '121', '146', '143', '145', '141', '135', '3', '138', '134', '142', '149', '23', '148'] 247.56172839506155
85 4.951234567901236 ['124', '128', '121', '146', '143', '145', '141', '135', '3', '138', '134', '142', '149', '23', '148'] 247.56172839506155
86 4.951234567901236 ['124', '128', '121', '146', '143', '145', '141', '135', '3', '138', '134', '142', '149', '23', '148'] 247.56172839506155
87 4.951234567901236 ['124', '128', '121', '146', '143', '145', '141', '135', '3', '138', '134', '142', '149', '23', '148'] 247.56172839506155
88 4.951234567901236 ['124', '128', '121', '146', '143', '145', '141', '135', '3', '138', '134', '142', '149', '23', '148'] 247.56172839506155
89 4.951234567901236 ['124', '128', '121', '146', '143', '145', '141', '135', '3', '138', '134', '142', '149', '23', '148'] 247.56172839506155
90 4.951234567901236 ['124', '128', '121', '146', '143', '145', '141', '135', '3', '138', '134', '142', '149', '23', '148'] 247.56172839506155
91 4.951234567901236 ['124', '128', '121', '146', '143', '145', '141', '135', '3', '138', '134', '142', '149', '23', '148'] 247.56172839506155
92 4.951234567901236 ['124', '128', '121', '146', '143', '145', '141', '135', '3', '138', '134', '142', '149', '23', '148'] 247.56172839506155
93 4.951234567901236 ['124', '128', '121', '146', '143', '145', '141', '135', '3', '138', '134', '142', '149', '23', '148'] 247.56172839506155
94 4.951234567901236 ['124', '128', '121', '146', '143', '145', '141', '135', '3', '138', '134', '142', '149', '23', '148'] 247.56172839506155
95 4.951234567901236 ['124', '128', '121', '146', '143', '145', '141', '135', '3', '138', '134', '142', '149', '23', '148'] 247.56172839506155
96 4.951234567901236 ['124', '128', '121', '146', '143', '145', '141', '135', '3', '138', '134', '142', '149', '23', '148'] 247.56172839506155
97 4.951234567901236 ['124', '128', '121', '146', '143', '145', '141', '135', '3', '138', '134', '142', '149', '23', '148'] 247.56172839506155
98 4.951234567901236 ['124', '128', '121', '146', '143', '145', '141', '135', '3', '138', '134', '142', '149', '23', '148'] 247.56172839506155
99 4.951234567901236 ['124', '128', '121', '146', '143', '145', '141', '135', '3', '138', '134', '142', '149', '23', '148'] 247.56172839506155
100 4.951234567901236 ['124', '128', '121', '146', '143', '145', '141', '135', '3', '138', '134', '142', '149', '23', '148'] 247.56172839506155
101 4.951234567901236 ['124', '128', '121', '146', '143', '145', '141', '135', '3', '138', '134', '142', '149', '23', '148'] 247.56172839506155
102 4.951234567901236 ['124', '128', '121', '146', '143', '145', '141', '135', '3', '138', '134', '142', '149', '23', '148'] 247.56172839506155
103 4.951234567901236 ['124', '128', '121', '146', '143', '145', '141', '135', '3', '138', '134', '142', '149', '23', '148'] 247.56172839506155
104 4.951234567901236 ['124', '128', '121', '146', '143', '145', '141', '135', '3', '138', '134', '142', '149', '23', '148'] 247.56172839506155
105 4.951234567901236 ['124', '128', '121', '146', '143', '145', '141', '135', '3', '138', '134', '142', '149', '23', '148'] 247.56172839506155
106 4.951234567901236 ['124', '128', '121', '146', '143', '145', '141', '135', '3', '138', '134', '142', '149', '23', '148'] 247.56172839506155
107 4.951234567901236 ['124', '128', '121', '146', '143', '145', '141', '135', '3', '138', '134', '142', '149', '23', '148'] 247.56172839506155
108 4.951234567901236 ['124', '128', '121', '146', '143', '145', '141', '135', '3', '138', '134', '142', '149', '23', '148'] 247.56172839506155
109 4.951234567901236 ['124', '128', '121', '146', '143', '145', '141', '135', '3', '138', '134', '142', '149', '23', '148'] 247.56172839506155
110 4.951234567901236 ['124', '128', '121', '146', '143', '145', '141', '135', '3', '138', '134', '142', '149', '23', '148'] 247.56172839506155
111 4.951234567901236 ['124', '128', '121', '146', '143', '145', '141', '135', '3', '138', '134', '142', '149', '23', '148'] 247.56172839506155
112 4.951234567901236 ['124', '128', '121', '146', '143', '145', '141', '135', '3', '138', '134', '142', '149', '23', '148'] 247.56172839506155
113 4.951234567901236 ['124', '128', '121', '146', '143', '145', '141', '135', '3', '138', '134', '142', '149', '23', '148'] 247.56172839506155
114 4.951234567901236 ['124', '128', '121', '146', '143', '145', '141', '135', '3', '138', '134', '142', '149', '23', '148'] 247.56172839506155
115 4.951234567901236 ['124', '128', '121', '146', '143', '145', '141', '135', '3', '138', '134', '142', '149', '23', '148'] 247.56172839506155
116 4.951234567901236 ['124', '128', '121', '146', '143', '145', '141', '135', '3', '138', '134', '142', '149', '23', '148'] 247.56172839506155
117 4.951234567901236 ['124', '128', '121', '146', '143', '145', '141', '135', '3', '138', '134', '142', '149', '23', '148'] 247.56172839506155
118 4.951234567901236 ['124', '128', '121', '146', '143', '145', '141', '135', '3', '138', '134', '142', '149', '23', '148'] 247.56172839506155
119 4.951234567901236 ['124', '128', '121', '146', '143', '145', '141', '135', '3', '138', '134', '142', '149', '23', '148'] 247.56172839506155
120 4.951234567901236 ['124', '128', '121', '146', '143', '145', '141', '135', '3', '138', '134', '142', '149', '23', '148'] 247.56172839506155
121 4.951234567901236 ['124', '128', '121', '146', '143', '145', '141', '135', '3', '138', '134', '142', '149', '23', '148'] 247.56172839506155
122 4.951234567901236 ['124', '128', '121', '146', '143', '145', '141', '135', '3', '138', '134', '142', '149', '23', '148'] 247.56172839506155
123 4.951234567901236 ['124', '128', '121', '146', '143', '145', '141', '135', '3', '138', '134', '142', '149', '23', '148'] 247.56172839506155
124 4.951234567901236 ['124', '128', '121', '146', '143', '145', '141', '135', '3', '138', '134', '142', '149', '23', '148'] 247.56172839506155
125 4.951234567901236 ['124', '128', '121', '146', '143', '145', '141', '135', '3', '138', '134', '142', '149', '23', '148'] 247.56172839506155
126 4.951234567901236 ['124', '128', '121', '146', '143', '145', '141', '135', '3', '138', '134', '142', '149', '23', '148'] 247.56172839506155
127 4.951234567901236 ['124', '128', '121', '146', '143', '145', '141', '135', '3', '138', '134', '142', '149', '23', '148'] 247.56172839506155
128 4.951234567901236 ['124', '128', '121', '146', '143', '145', '141', '135', '3', '138', '134', '142', '149', '23', '148'] 247.56172839506155
129 4.951234567901236 ['124', '128', '121', '146', '143', '145', '141', '135', '3', '138', '134', '142', '149', '23', '148'] 247.56172839506155
130 4.951234567901236 ['124', '128', '121', '146', '143', '145', '141', '135', '3', '138', '134', '142', '149', '23', '148'] 247.56172839506155
131 4.951234567901236 ['124', '128', '121', '146', '143', '145', '141', '135', '3', '138', '134', '142', '149', '23', '148'] 247.56172839506155
132 4.951234567901236 ['124', '128', '121', '146', '143', '145', '141', '135', '3', '138', '134', '142', '149', '23', '148'] 247.56172839506155
133 4.951234567901236 ['124', '128', '121', '146', '143', '145', '141', '135', '3', '138', '134', '142', '149', '23', '148'] 247.56172839506155
134 4.951234567901236 ['124', '128', '121', '146', '143', '145', '141', '135', '3', '138', '134', '142', '149', '23', '148'] 247.56172839506155
135 4.951234567901236 ['124', '128', '121', '146', '143', '145', '141', '135', '3', '138', '134', '142', '149', '23', '148'] 247.56172839506155
136 4.951234567901236 ['124', '128', '121', '146', '143', '145', '141', '135', '3', '138', '134', '142', '149', '23', '148'] 247.56172839506155
137 4.951234567901236 ['124', '128', '121', '146', '143', '145', '141', '135', '3', '138', '134', '142', '149', '23', '148'] 247.56172839506155
138 4.951234567901236 ['124', '128', '121', '146', '143', '145', '141', '135', '3', '138', '134', '142', '149', '23', '148'] 247.56172839506155
139 4.951234567901236 ['124', '128', '121', '146', '143', '145', '141', '135', '3', '138', '134', '142', '149', '23', '148'] 247.56172839506155
140 4.951234567901236 ['124', '128', '121', '146', '143', '145', '141', '135', '3', '138', '134', '142', '149', '23', '148'] 247.56172839506155
141 4.951234567901236 ['124', '128', '121', '146', '143', '145', '141', '135', '3', '138', '134', '142', '149', '23', '148'] 247.56172839506155
142 4.951234567901236 ['124', '128', '121', '146', '143', '145', '141', '135', '3', '138', '134', '142', '149', '23', '148'] 247.56172839506155
143 4.951234567901236 ['124', '128', '121', '146', '143', '145', '141', '135', '3', '138', '134', '142', '149', '23', '148'] 247.56172839506155
144 4.951234567901236 ['124', '128', '121', '146', '143', '145', '141', '135', '3', '138', '134', '142', '149', '23', '148'] 247.56172839506155
145 4.951234567901236 ['124', '128', '121', '146', '143', '145', '141', '135', '3', '138', '134', '142', '149', '23', '148'] 247.56172839506155
146 4.951234567901236 ['124', '128', '121', '146', '143', '145', '141', '135', '3', '138', '134', '142', '149', '23', '148'] 247.56172839506155
147 4.951234567901236 ['124', '128', '121', '146', '143', '145', '141', '135', '3', '138', '134', '142', '149', '23', '148'] 247.56172839506155
148 4.951234567901236 ['124', '128', '121', '146', '143', '145', '141', '135', '3', '138', '134', '142', '149', '23', '148'] 247.56172839506155
149 4.951234567901236 ['124', '128', '121', '146', '143', '145', '141', '135', '3', '138', '134', '142', '149', '23', '148'] 247.56172839506155
150 4.951234567901236 ['124', '128', '121', '146', '143', '145', '141', '135', '3', '138', '134', '142', '149', '23', '148'] 247.56172839506155
151 4.951234567901236 ['124', '128', '121', '146', '143', '145', '141', '135', '3', '138', '134', '142', '149', '23', '148'] 247.56172839506155
152 4.951234567901236 ['124', '128', '121', '146', '143', '145', '141', '135', '3', '138', '134', '142', '149', '23', '148'] 247.56172839506155
153 4.951234567901236 ['124', '128', '121', '146', '143', '145', '141', '135', '3', '138', '134', '142', '149', '23', '148'] 247.56172839506155
154 4.951234567901236 ['124', '128', '121', '146', '143', '145', '141', '135', '3', '138', '134', '142', '149', '23', '148'] 247.56172839506155
155 4.951234567901236 ['124', '128', '121', '146', '143', '145', '141', '135', '3', '138', '134', '142', '149', '23', '148'] 247.56172839506155
156 4.951234567901236 ['124', '128', '121', '146', '143', '145', '141', '135', '3', '138', '134', '142', '149', '23', '148'] 247.56172839506155
157 4.951234567901236 ['124', '128', '121', '146', '143', '145', '141', '135', '3', '138', '134', '142', '149', '23', '148'] 247.56172839506155
158 4.951234567901236 ['124', '128', '121', '146', '143', '145', '141', '135', '3', '138', '134', '142', '149', '23', '148'] 247.56172839506155
159 4.951234567901236 ['124', '128', '121', '146', '143', '145', '141', '135', '3', '138', '134', '142', '149', '23', '148'] 247.56172839506155
160 4.951234567901236 ['124', '128', '121', '146', '143', '145', '141', '135', '3', '138', '134', '142', '149', '23', '148'] 247.56172839506155
161 4.951234567901236 ['124', '128', '121', '146', '143', '145', '141', '135', '3', '138', '134', '142', '149', '23', '148'] 247.56172839506155
162 4.951234567901236 ['124', '128', '121', '146', '143', '145', '141', '135', '3', '138', '134', '142', '149', '23', '148'] 247.56172839506155
163 4.951234567901236 ['124', '128', '121', '146', '143', '145', '141', '135', '3', '138', '134', '142', '149', '23', '148'] 247.56172839506155
164 4.951234567901236 ['124', '128', '121', '146', '143', '145', '141', '135', '3', '138', '134', '142', '149', '23', '148'] 247.56172839506155
165 4.951234567901236 ['124', '128', '121', '146', '143', '145', '141', '135', '3', '138', '134', '142', '149', '23', '148'] 247.56172839506155
166 4.951234567901236 ['124', '128', '121', '146', '143', '145', '141', '135', '3', '138', '134', '142', '149', '23', '148'] 247.56172839506155
167 4.951234567901236 ['124', '128', '121', '146', '143', '145', '141', '135', '3', '138', '134', '142', '149', '23', '148'] 247.56172839506155
168 4.951234567901236 ['124', '128', '121', '146', '143', '145', '141', '135', '3', '138', '134', '142', '149', '23', '148'] 247.56172839506155
169 4.951234567901236 ['124', '128', '121', '146', '143', '145', '141', '135', '3', '138', '134', '142', '149', '23', '148'] 247.56172839506155
170 4.951234567901236 ['124', '128', '121', '146', '143', '145', '141', '135', '3', '138', '134', '142', '149', '23', '148'] 247.56172839506155
171 4.951234567901236 ['124', '128', '121', '146', '143', '145', '141', '135', '3', '138', '134', '142', '149', '23', '148'] 247.56172839506155
172 4.951234567901236 ['124', '128', '121', '146', '143', '145', '141', '135', '3', '138', '134', '142', '149', '23', '148'] 247.56172839506155
173 4.951234567901236 ['124', '128', '121', '146', '143', '145', '141', '135', '3', '138', '134', '142', '149', '23', '148'] 247.56172839506155
174 4.951234567901236 ['124', '128', '121', '146', '143', '145', '141', '135', '3', '138', '134', '142', '149', '23', '148'] 247.56172839506155
175 4.951234567901236 ['124', '128', '121', '146', '143', '145', '141', '135', '3', '138', '134', '142', '149', '23', '148'] 247.56172839506155
176 4.951234567901236 ['124', '128', '121', '146', '143', '145', '141', '135', '3', '138', '134', '142', '149', '23', '148'] 247.56172839506155
177 4.951234567901236 ['124', '128', '121', '146', '143', '145', '141', '135', '3', '138', '134', '142', '149', '23', '148'] 247.56172839506155
178 4.951234567901236 ['124', '128', '121', '146', '143', '145', '141', '135', '3', '138', '134', '142', '149', '23', '148'] 247.56172839506155
179 4.951234567901236 ['124', '128', '121', '146', '143', '145', '141', '135', '3', '138', '134', '142', '149', '23', '148'] 247.56172839506155
180 4.951234567901236 ['124', '128', '121', '146', '143', '145', '141', '135', '3', '138', '134', '142', '149', '23', '148'] 247.56172839506155
181 4.951234567901236 ['124', '128', '121', '146', '143', '145', '141', '135', '3', '138', '134', '142', '149', '23', '148'] 247.56172839506155
182 4.951234567901236 ['124', '128', '121', '146', '143', '145', '141', '135', '3', '138', '134', '142', '149', '23', '148'] 247.56172839506155
183 4.951234567901236 ['124', '128', '121', '146', '143', '145', '141', '135', '3', '138', '134', '142', '149', '23', '148'] 247.56172839506155
184 4.951234567901236 ['124', '128', '121', '146', '143', '145', '141', '135', '3', '138', '134', '142', '149', '23', '148'] 247.56172839506155
185 4.951234567901236 ['124', '128', '121', '146', '143', '145', '141', '135', '3', '138', '134', '142', '149', '23', '148'] 247.56172839506155
186 4.951234567901236 ['124', '128', '121', '146', '143', '145', '141', '135', '3', '138', '134', '142', '149', '23', '148'] 247.56172839506155
187 4.951234567901236 ['124', '128', '121', '146', '143', '145', '141', '135', '3', '138', '134', '142', '149', '23', '148'] 247.56172839506155
188 4.951234567901236 ['124', '128', '121', '146', '143', '145', '141', '135', '3', '138', '134', '142', '149', '23', '148'] 247.56172839506155
189 4.951234567901236 ['124', '128', '121', '146', '143', '145', '141', '135', '3', '138', '134', '142', '149', '23', '148'] 247.56172839506155
190 4.951234567901236 ['124', '128', '121', '146', '143', '145', '141', '135', '3', '138', '134', '142', '149', '23', '148'] 247.56172839506155
191 4.951234567901236 ['124', '128', '121', '146', '143', '145', '141', '135', '3', '138', '134', '142', '149', '23', '148'] 247.56172839506155
192 4.951234567901236 ['124', '128', '121', '146', '143', '145', '141', '135', '3', '138', '134', '142', '149', '23', '148'] 247.56172839506155
193 4.951234567901236 ['124', '128', '121', '146', '143', '145', '141', '135', '3', '138', '134', '142', '149', '23', '148'] 247.56172839506155
194 4.951234567901236 ['124', '128', '121', '146', '143', '145', '141', '135', '3', '138', '134', '142', '149', '23', '148'] 247.56172839506155
195 4.951234567901236 ['124', '128', '121', '146', '143', '145', '141', '135', '3', '138', '134', '142', '149', '23', '148'] 247.56172839506155
196 4.951234567901236 ['124', '128', '121', '146', '143', '145', '141', '135', '3', '138', '134', '142', '149', '23', '148'] 247.56172839506155
197 4.951234567901236 ['124', '128', '121', '146', '143', '145', '141', '135', '3', '138', '134', '142', '149', '23', '148'] 247.56172839506155
198 4.951234567901236 ['124', '128', '121', '146', '143', '145', '141', '135', '3', '138', '134', '142', '149', '23', '148'] 247.56172839506155
199 4.951234567901236 ['124', '128', '121', '146', '143', '145', '141', '135', '3', '138', '134', '142', '149', '23', '148'] 247.56172839506155
