0 7.181818181818182 ['40', '42', '27', '24'] 414.8181818181819
1 7.0 ['42', '27', '28', '40'] 386.7272727272726
2 6.636363636363637 ['32', '22', '35', '27'] 366.2727272727275
3 6.545454545454546 ['42', '36', '1', '48'] 353.54545454545456
4 6.2727272727272725 ['27', '28', '32', '48'] 344.1818181818179
5 6.2727272727272725 ['27', '28', '32', '48'] 335.818181818182
6 6.2727272727272725 ['27', '28', '32', '48'] 329.27272727272725
7 6.090909090909091 ['48', '27', '1', '42'] 320.4545454545453
8 6.090909090909091 ['48', '27', '1', '42'] 313.36363636363654
9 6.090909090909091 ['48', '27', '1', '42'] 310.54545454545456
10 6.090909090909091 ['48', '27', '1', '42'] 308.09090909090907
11 6.090909090909091 ['48', '27', '1', '42'] 304.54545454545445
12 6.090909090909091 ['48', '27', '1', '42'] 304.54545454545445
13 6.090909090909091 ['48', '27', '1', '42'] 304.54545454545445
14 6.090909090909091 ['48', '27', '1', '42'] 304.54545454545445
15 6.090909090909091 ['48', '27', '1', '42'] 304.54545454545445
16 6.090909090909091 ['48', '27', '1', '42'] 304.54545454545445
17 6.090909090909091 ['48', '27', '1', '42'] 304.54545454545445
18 6.090909090909091 ['48', '27', '1', '42'] 304.54545454545445
19 6.090909090909091 ['48', '27', '1', '42'] 304.54545454545445
20 6.090909090909091 ['48', '27', '1', '42'] 304.54545454545445
21 6.090909090909091 ['48', '27', '1', '42'] 304.54545454545445
22 6.090909090909091 ['48', '27', '1', '42'] 304.54545454545445
23 6.090909090909091 ['48', '27', '1', '42'] 304.54545454545445
24 6.090909090909091 ['48', '27', '1', '42'] 304.54545454545445
25 6.090909090909091 ['48', '27', '1', '42'] 304.54545454545445
26 6.090909090909091 ['48', '27', '1', '42'] 304.54545454545445
27 6.090909090909091 ['48', '27', '1', '42'] 304.54545454545445
28 6.090909090909091 ['48', '27', '1', '42'] 304.54545454545445
29 6.090909090909091 ['48', '27', '1', '42'] 304.54545454545445
30 6.090909090909091 ['48', '27', '1', '42'] 304.54545454545445
31 6.090909090909091 ['48', '27', '1', '42'] 304.54545454545445
32 6.090909090909091 ['48', '27', '1', '42'] 304.54545454545445
33 6.090909090909091 ['48', '27', '1', '42'] 304.54545454545445
34 6.090909090909091 ['48', '27', '1', '42'] 304.54545454545445
35 6.090909090909091 ['48', '27', '1', '42'] 304.54545454545445
36 6.090909090909091 ['48', '27', '1', '42'] 304.54545454545445
37 6.090909090909091 ['48', '27', '1', '42'] 304.54545454545445
38 6.090909090909091 ['48', '27', '1', '42'] 304.54545454545445
39 6.090909090909091 ['48', '27', '1', '42'] 304.54545454545445
40 6.090909090909091 ['48', '27', '1', '42'] 304.54545454545445
41 6.090909090909091 ['48', '27', '1', '42'] 304.54545454545445
42 6.090909090909091 ['48', '27', '1', '42'] 304.54545454545445
43 6.090909090909091 ['48', '27', '1', '42'] 304.54545454545445
44 6.090909090909091 ['48', '27', '1', '42'] 304.54545454545445
45 6.090909090909091 ['48', '27', '1', '42'] 304.54545454545445
46 6.090909090909091 ['48', '27', '1', '42'] 304.54545454545445
47 6.090909090909091 ['48', '27', '1', '42'] 304.54545454545445
48 6.090909090909091 ['48', '27', '1', '42'] 304.54545454545445
49 6.090909090909091 ['48', '27', '1', '42'] 304.54545454545445
50 6.090909090909091 ['48', '27', '1', '42'] 304.54545454545445
51 6.090909090909091 ['48', '27', '1', '42'] 304.54545454545445
52 6.090909090909091 ['48', '27', '1', '42'] 304.54545454545445
53 6.090909090909091 ['48', '27', '1', '42'] 304.54545454545445
54 6.090909090909091 ['48', '27', '1', '42'] 304.54545454545445
55 6.090909090909091 ['48', '27', '1', '42'] 304.54545454545445
56 6.090909090909091 ['48', '27', '1', '42'] 304.54545454545445
57 6.090909090909091 ['48', '27', '1', '42'] 304.54545454545445
58 6.090909090909091 ['48', '27', '1', '42'] 304.54545454545445
59 6.090909090909091 ['48', '27', '1', '42'] 304.54545454545445
60 6.090909090909091 ['48', '27', '1', '42'] 304.54545454545445
61 6.090909090909091 ['48', '27', '1', '42'] 304.54545454545445
62 6.090909090909091 ['48', '27', '1', '42'] 304.54545454545445
63 6.090909090909091 ['48', '27', '1', '42'] 304.54545454545445
64 6.090909090909091 ['48', '27', '1', '42'] 304.54545454545445
65 6.090909090909091 ['48', '27', '1', '42'] 304.54545454545445
66 6.090909090909091 ['48', '27', '1', '42'] 304.54545454545445
67 6.090909090909091 ['48', '27', '1', '42'] 304.54545454545445
68 6.090909090909091 ['48', '27', '1', '42'] 304.54545454545445
69 6.090909090909091 ['48', '27', '1', '42'] 304.54545454545445
70 6.090909090909091 ['48', '27', '1', '42'] 304.54545454545445
71 6.090909090909091 ['48', '27', '1', '42'] 304.54545454545445
72 6.090909090909091 ['48', '27', '1', '42'] 304.54545454545445
73 6.090909090909091 ['48', '27', '1', '42'] 304.54545454545445
74 6.090909090909091 ['48', '27', '1', '42'] 304.54545454545445
75 6.090909090909091 ['48', '27', '1', '42'] 304.54545454545445
76 6.090909090909091 ['48', '27', '1', '42'] 304.54545454545445
77 6.090909090909091 ['48', '27', '1', '42'] 304.54545454545445
78 6.090909090909091 ['48', '27', '1', '42'] 304.54545454545445
79 6.090909090909091 ['48', '27', '1', '42'] 304.54545454545445
80 6.090909090909091 ['48', '27', '1', '42'] 304.54545454545445
81 6.090909090909091 ['48', '27', '1', '42'] 304.54545454545445
82 6.090909090909091 ['48', '27', '1', '42'] 304.54545454545445
83 6.090909090909091 ['48', '27', '1', '42'] 304.54545454545445
84 6.090909090909091 ['48', '27', '1', '42'] 304.54545454545445
85 6.090909090909091 ['48', '27', '1', '42'] 304.54545454545445
86 6.090909090909091 ['48', '27', '1', '42'] 304.54545454545445
87 6.090909090909091 ['48', '27', '1', '42'] 304.54545454545445
88 6.090909090909091 ['48', '27', '1', '42'] 304.54545454545445
89 6.090909090909091 ['48', '27', '1', '42'] 304.54545454545445
90 6.090909090909091 ['48', '27', '1', '42'] 304.54545454545445
91 6.090909090909091 ['48', '27', '1', '42'] 304.54545454545445
92 6.090909090909091 ['48', '27', '1', '42'] 304.54545454545445
93 6.090909090909091 ['48', '27', '1', '42'] 304.54545454545445
94 6.090909090909091 ['48', '27', '1', '42'] 304.54545454545445
95 6.090909090909091 ['48', '27', '1', '42'] 304.54545454545445
96 6.090909090909091 ['48', '27', '1', '42'] 304.54545454545445
97 6.090909090909091 ['48', '27', '1', '42'] 304.54545454545445
98 6.090909090909091 ['48', '27', '1', '42'] 304.54545454545445
99 6.090909090909091 ['48', '27', '1', '42'] 304.54545454545445
100 6.090909090909091 ['48', '27', '1', '42'] 304.54545454545445
101 6.090909090909091 ['48', '27', '1', '42'] 304.54545454545445
102 6.090909090909091 ['48', '27', '1', '42'] 304.54545454545445
103 6.090909090909091 ['48', '27', '1', '42'] 304.54545454545445
104 6.090909090909091 ['48', '27', '1', '42'] 304.54545454545445
105 6.090909090909091 ['48', '27', '1', '42'] 304.54545454545445
106 6.090909090909091 ['48', '27', '1', '42'] 304.54545454545445
107 6.090909090909091 ['48', '27', '1', '42'] 304.54545454545445
108 6.090909090909091 ['48', '27', '1', '42'] 304.54545454545445
109 6.090909090909091 ['48', '27', '1', '42'] 304.54545454545445
110 6.090909090909091 ['48', '27', '1', '42'] 304.54545454545445
111 6.090909090909091 ['48', '27', '1', '42'] 304.54545454545445
112 6.090909090909091 ['48', '27', '1', '42'] 304.54545454545445
113 6.090909090909091 ['48', '27', '1', '42'] 304.54545454545445
114 6.090909090909091 ['48', '27', '1', '42'] 304.54545454545445
115 6.090909090909091 ['48', '27', '1', '42'] 304.54545454545445
116 6.090909090909091 ['48', '27', '1', '42'] 304.54545454545445
117 6.090909090909091 ['48', '27', '1', '42'] 304.54545454545445
118 6.090909090909091 ['48', '27', '1', '42'] 304.54545454545445
119 6.090909090909091 ['48', '27', '1', '42'] 304.54545454545445
120 6.090909090909091 ['48', '27', '1', '42'] 304.54545454545445
121 6.090909090909091 ['48', '27', '1', '42'] 304.54545454545445
122 6.090909090909091 ['48', '27', '1', '42'] 304.54545454545445
123 6.090909090909091 ['48', '27', '1', '42'] 304.54545454545445
124 6.090909090909091 ['48', '27', '1', '42'] 304.54545454545445
125 6.090909090909091 ['48', '27', '1', '42'] 304.54545454545445
126 6.090909090909091 ['48', '27', '1', '42'] 304.54545454545445
127 6.090909090909091 ['48', '27', '1', '42'] 304.54545454545445
128 6.090909090909091 ['48', '27', '1', '42'] 304.54545454545445
129 6.090909090909091 ['48', '27', '1', '42'] 304.54545454545445
130 6.090909090909091 ['48', '27', '1', '42'] 304.54545454545445
131 6.090909090909091 ['48', '27', '1', '42'] 304.54545454545445
132 6.090909090909091 ['48', '27', '1', '42'] 304.54545454545445
133 6.090909090909091 ['48', '27', '1', '42'] 304.54545454545445
134 6.090909090909091 ['48', '27', '1', '42'] 304.54545454545445
135 6.090909090909091 ['48', '27', '1', '42'] 304.54545454545445
136 6.090909090909091 ['48', '27', '1', '42'] 304.54545454545445
137 6.090909090909091 ['48', '27', '1', '42'] 304.54545454545445
138 6.090909090909091 ['48', '27', '1', '42'] 304.54545454545445
139 6.090909090909091 ['48', '27', '1', '42'] 304.54545454545445
140 6.090909090909091 ['48', '27', '1', '42'] 304.54545454545445
141 6.090909090909091 ['48', '27', '1', '42'] 304.54545454545445
142 6.090909090909091 ['48', '27', '1', '42'] 304.54545454545445
143 6.090909090909091 ['48', '27', '1', '42'] 304.54545454545445
144 6.090909090909091 ['48', '27', '1', '42'] 304.54545454545445
145 6.090909090909091 ['48', '27', '1', '42'] 304.54545454545445
146 6.090909090909091 ['48', '27', '1', '42'] 304.54545454545445
147 6.090909090909091 ['48', '27', '1', '42'] 304.54545454545445
148 6.090909090909091 ['48', '27', '1', '42'] 304.54545454545445
149 6.090909090909091 ['48', '27', '1', '42'] 304.54545454545445
150 6.090909090909091 ['48', '27', '1', '42'] 304.54545454545445
151 6.090909090909091 ['48', '27', '1', '42'] 304.54545454545445
152 6.090909090909091 ['48', '27', '1', '42'] 304.54545454545445
153 6.090909090909091 ['48', '27', '1', '42'] 304.54545454545445
154 6.090909090909091 ['48', '27', '1', '42'] 304.54545454545445
155 6.090909090909091 ['48', '27', '1', '42'] 304.54545454545445
156 6.090909090909091 ['48', '27', '1', '42'] 304.54545454545445
157 6.090909090909091 ['48', '27', '1', '42'] 304.54545454545445
158 6.090909090909091 ['48', '27', '1', '42'] 304.54545454545445
159 6.090909090909091 ['48', '27', '1', '42'] 304.54545454545445
160 6.090909090909091 ['48', '27', '1', '42'] 304.54545454545445
161 6.090909090909091 ['48', '27', '1', '42'] 304.54545454545445
162 6.090909090909091 ['48', '27', '1', '42'] 304.54545454545445
163 6.090909090909091 ['48', '27', '1', '42'] 304.54545454545445
164 6.090909090909091 ['48', '27', '1', '42'] 304.54545454545445
165 6.090909090909091 ['48', '27', '1', '42'] 304.54545454545445
166 6.090909090909091 ['48', '27', '1', '42'] 304.54545454545445
167 6.090909090909091 ['48', '27', '1', '42'] 304.54545454545445
168 6.090909090909091 ['48', '27', '1', '42'] 304.54545454545445
169 6.090909090909091 ['48', '27', '1', '42'] 304.54545454545445
170 6.090909090909091 ['48', '27', '1', '42'] 304.54545454545445
171 6.090909090909091 ['48', '27', '1', '42'] 304.54545454545445
172 6.090909090909091 ['48', '27', '1', '42'] 304.54545454545445
173 6.090909090909091 ['48', '27', '1', '42'] 304.54545454545445
174 6.090909090909091 ['48', '27', '1', '42'] 304.54545454545445
175 6.090909090909091 ['48', '27', '1', '42'] 304.54545454545445
176 6.090909090909091 ['48', '27', '1', '42'] 304.54545454545445
177 6.090909090909091 ['48', '27', '1', '42'] 304.54545454545445
178 6.090909090909091 ['48', '27', '1', '42'] 304.54545454545445
179 6.090909090909091 ['48', '27', '1', '42'] 304.54545454545445
180 6.090909090909091 ['48', '27', '1', '42'] 304.54545454545445
181 6.090909090909091 ['48', '27', '1', '42'] 304.54545454545445
182 6.090909090909091 ['48', '27', '1', '42'] 304.54545454545445
183 6.090909090909091 ['48', '27', '1', '42'] 304.54545454545445
184 6.090909090909091 ['48', '27', '1', '42'] 304.54545454545445
185 6.090909090909091 ['48', '27', '1', '42'] 304.54545454545445
186 6.090909090909091 ['48', '27', '1', '42'] 304.54545454545445
187 6.090909090909091 ['48', '27', '1', '42'] 304.54545454545445
188 6.090909090909091 ['48', '27', '1', '42'] 304.54545454545445
189 6.090909090909091 ['48', '27', '1', '42'] 304.54545454545445
190 6.090909090909091 ['48', '27', '1', '42'] 304.54545454545445
191 6.090909090909091 ['48', '27', '1', '42'] 304.54545454545445
192 6.090909090909091 ['48', '27', '1', '42'] 304.54545454545445
193 6.090909090909091 ['48', '27', '1', '42'] 304.54545454545445
194 6.090909090909091 ['48', '27', '1', '42'] 304.54545454545445
195 6.090909090909091 ['48', '27', '1', '42'] 304.54545454545445
196 6.090909090909091 ['48', '27', '1', '42'] 304.54545454545445
197 6.090909090909091 ['48', '27', '1', '42'] 304.54545454545445
198 6.090909090909091 ['48', '27', '1', '42'] 304.54545454545445
199 6.090909090909091 ['48', '27', '1', '42'] 304.54545454545445
