0 15.333333333333334 ['42', '136', '99', '142', '130', '86', '67', '149', '114', '34', '135', '70', '133', '129', '128'] 791.0296296296297
1 15.333333333333334 ['42', '136', '99', '142', '130', '86', '67', '149', '114', '34', '135', '70', '133', '129', '128'] 783.8
2 15.022222222222222 ['113', '58', '16', '134', '138', '83', '103', '82', '106', '101', '140', '149', '109', '78', '127'] 775.6814814814811
3 14.955555555555556 ['16', '139', '115', '134', '19', '127', '120', '49', '138', '113', '102', '103', '133', '149', '130'] 769.7111111111108
4 14.940740740740742 ['127', '149', '133', '130', '120', '19', '86', '139', '121', '68', '99', '103', '138', '136', '16'] 764.1481481481478
5 14.807407407407407 ['130', '133', '127', '149', '121', '103', '136', '86', '68', '134', '102', '115', '113', '146', '15'] 758.1555555555556
6 14.74074074074074 ['19', '127', '120', '136', '133', '139', '149', '132', '121', '114', '130', '138', '108', '16', '129'] 753.0444444444446
7 14.74074074074074 ['19', '127', '120', '136', '133', '139', '149', '132', '121', '114', '130', '138', '108', '16', '129'] 748.3703703703706
8 14.57037037037037 ['138', '121', '127', '103', '139', '137', '99', '146', '136', '120', '49', '133', '149', '102', '128'] 743.3037037037033
9 14.57037037037037 ['138', '121', '127', '103', '139', '137', '99', '146', '136', '120', '49', '133', '149', '102', '128'] 738.6666666666665
10 14.42962962962963 ['138', '132', '127', '149', '130', '139', '108', '133', '136', '102', '121', '99', '129', '120', '128'] 734.4888888888887
11 14.422222222222222 ['108', '128', '139', '136', '134', '149', '121', '120', '130', '133', '127', '129', '103', '132', '109'] 730.6666666666662
12 14.422222222222222 ['108', '128', '139', '136', '134', '149', '121', '120', '130', '133', '127', '129', '103', '132', '109'] 727.9777777777784
13 14.392592592592592 ['102', '133', '127', '121', '115', '128', '108', '138', '139', '136', '130', '134', '120', '132', '149'] 725.2666666666667
14 14.377777777777778 ['127', '102', '128', '121', '138', '139', '136', '133', '134', '99', '129', '119', '109', '149', '103'] 722.7185185185187
15 14.325925925925926 ['127', '102', '139', '136', '103', '120', '149', '133', '128', '121', '132', '130', '138', '129', '134'] 720.651851851852
16 14.325925925925926 ['127', '102', '139', '136', '103', '120', '149', '133', '128', '121', '132', '130', '138', '129', '134'] 718.9777777777774
17 14.266666666666667 ['136', '127', '121', '138', '108', '134', '128', '139', '133', '129', '149', '102', '146', '130', '103'] 717.4148148148142
18 14.266666666666667 ['136', '127', '121', '138', '108', '134', '128', '139', '133', '129', '149', '102', '146', '130', '103'] 716.1481481481485
19 14.237037037037037 ['102', '121', '133', '149', '103', '128', '139', '134', '136', '127', '138', '146', '130', '119', '129'] 715.0444444444452
20 14.237037037037037 ['102', '121', '133', '149', '103', '128', '139', '134', '136', '127', '138', '146', '130', '119', '129'] 714.1629629629632
21 14.237037037037037 ['102', '121', '133', '149', '103', '128', '139', '134', '136', '127', '138', '146', '130', '119', '129'] 713.348148148148
22 14.214814814814815 ['134', '128', '102', '103', '138', '130', '127', '149', '121', '136', '133', '139', '146', '129', '140'] 712.8518518518514
23 14.207407407407407 ['130', '128', '133', '102', '127', '149', '139', '103', '146', '136', '134', '138', '121', '140', '119'] 712.1777777777776
24 14.207407407407407 ['130', '128', '133', '102', '127', '149', '139', '103', '146', '136', '134', '138', '121', '140', '119'] 711.5925925925923
25 14.207407407407407 ['130', '128', '133', '102', '127', '149', '139', '103', '146', '136', '134', '138', '121', '140', '119'] 711.1629629629626
26 14.207407407407407 ['130', '128', '133', '102', '127', '149', '139', '103', '146', '136', '134', '138', '121', '140', '119'] 710.5111111111112
27 14.207407407407407 ['130', '128', '133', '102', '127', '149', '139', '103', '146', '136', '134', '138', '121', '140', '119'] 710.3703703703709
28 14.207407407407407 ['130', '128', '133', '102', '127', '149', '139', '103', '146', '136', '134', '138', '121', '140', '119'] 710.3703703703709
29 14.207407407407407 ['130', '128', '133', '102', '127', '149', '139', '103', '146', '136', '134', '138', '121', '140', '119'] 710.3703703703709
30 14.207407407407407 ['130', '128', '133', '102', '127', '149', '139', '103', '146', '136', '134', '138', '121', '140', '119'] 710.3703703703709
31 14.207407407407407 ['130', '128', '133', '102', '127', '149', '139', '103', '146', '136', '134', '138', '121', '140', '119'] 710.3703703703709
32 14.207407407407407 ['130', '128', '133', '102', '127', '149', '139', '103', '146', '136', '134', '138', '121', '140', '119'] 710.3703703703709
33 14.207407407407407 ['130', '128', '133', '102', '127', '149', '139', '103', '146', '136', '134', '138', '121', '140', '119'] 710.3703703703709
34 14.207407407407407 ['130', '128', '133', '102', '127', '149', '139', '103', '146', '136', '134', '138', '121', '140', '119'] 710.3703703703709
35 14.207407407407407 ['130', '128', '133', '102', '127', '149', '139', '103', '146', '136', '134', '138', '121', '140', '119'] 710.3703703703709
36 14.207407407407407 ['130', '128', '133', '102', '127', '149', '139', '103', '146', '136', '134', '138', '121', '140', '119'] 710.3703703703709
37 14.207407407407407 ['130', '128', '133', '102', '127', '149', '139', '103', '146', '136', '134', '138', '121', '140', '119'] 710.3703703703709
38 14.207407407407407 ['130', '128', '133', '102', '127', '149', '139', '103', '146', '136', '134', '138', '121', '140', '119'] 710.3703703703709
39 14.207407407407407 ['130', '128', '133', '102', '127', '149', '139', '103', '146', '136', '134', '138', '121', '140', '119'] 710.3703703703709
40 14.207407407407407 ['130', '128', '133', '102', '127', '149', '139', '103', '146', '136', '134', '138', '121', '140', '119'] 710.3703703703709
41 14.207407407407407 ['130', '128', '133', '102', '127', '149', '139', '103', '146', '136', '134', '138', '121', '140', '119'] 710.3703703703709
42 14.207407407407407 ['130', '128', '133', '102', '127', '149', '139', '103', '146', '136', '134', '138', '121', '140', '119'] 710.3703703703709
43 14.207407407407407 ['130', '128', '133', '102', '127', '149', '139', '103', '146', '136', '134', '138', '121', '140', '119'] 710.3703703703709
44 14.207407407407407 ['130', '128', '133', '102', '127', '149', '139', '103', '146', '136', '134', '138', '121', '140', '119'] 710.3703703703709
45 14.207407407407407 ['130', '128', '133', '102', '127', '149', '139', '103', '146', '136', '134', '138', '121', '140', '119'] 710.3703703703709
46 14.207407407407407 ['130', '128', '133', '102', '127', '149', '139', '103', '146', '136', '134', '138', '121', '140', '119'] 710.3703703703709
47 14.207407407407407 ['130', '128', '133', '102', '127', '149', '139', '103', '146', '136', '134', '138', '121', '140', '119'] 710.3703703703709
48 14.207407407407407 ['130', '128', '133', '102', '127', '149', '139', '103', '146', '136', '134', '138', '121', '140', '119'] 710.3703703703709
49 14.207407407407407 ['130', '128', '133', '102', '127', '149', '139', '103', '146', '136', '134', '138', '121', '140', '119'] 710.3703703703709
50 14.207407407407407 ['130', '128', '133', '102', '127', '149', '139', '103', '146', '136', '134', '138', '121', '140', '119'] 710.3703703703709
51 14.207407407407407 ['130', '128', '133', '102', '127', '149', '139', '103', '146', '136', '134', '138', '121', '140', '119'] 710.3703703703709
52 14.207407407407407 ['130', '128', '133', '102', '127', '149', '139', '103', '146', '136', '134', '138', '121', '140', '119'] 710.3703703703709
53 14.207407407407407 ['130', '128', '133', '102', '127', '149', '139', '103', '146', '136', '134', '138', '121', '140', '119'] 710.3703703703709
54 14.207407407407407 ['130', '128', '133', '102', '127', '149', '139', '103', '146', '136', '134', '138', '121', '140', '119'] 710.3703703703709
55 14.207407407407407 ['130', '128', '133', '102', '127', '149', '139', '103', '146', '136', '134', '138', '121', '140', '119'] 710.3703703703709
56 14.207407407407407 ['130', '128', '133', '102', '127', '149', '139', '103', '146', '136', '134', '138', '121', '140', '119'] 710.3703703703709
57 14.207407407407407 ['130', '128', '133', '102', '127', '149', '139', '103', '146', '136', '134', '138', '121', '140', '119'] 710.3703703703709
58 14.207407407407407 ['130', '128', '133', '102', '127', '149', '139', '103', '146', '136', '134', '138', '121', '140', '119'] 710.3703703703709
59 14.207407407407407 ['130', '128', '133', '102', '127', '149', '139', '103', '146', '136', '134', '138', '121', '140', '119'] 710.3703703703709
60 14.207407407407407 ['130', '128', '133', '102', '127', '149', '139', '103', '146', '136', '134', '138', '121', '140', '119'] 710.3703703703709
61 14.207407407407407 ['130', '128', '133', '102', '127', '149', '139', '103', '146', '136', '134', '138', '121', '140', '119'] 710.3703703703709
62 14.207407407407407 ['130', '128', '133', '102', '127', '149', '139', '103', '146', '136', '134', '138', '121', '140', '119'] 710.3703703703709
63 14.207407407407407 ['130', '128', '133', '102', '127', '149', '139', '103', '146', '136', '134', '138', '121', '140', '119'] 710.3703703703709
64 14.207407407407407 ['130', '128', '133', '102', '127', '149', '139', '103', '146', '136', '134', '138', '121', '140', '119'] 710.3703703703709
65 14.207407407407407 ['130', '128', '133', '102', '127', '149', '139', '103', '146', '136', '134', '138', '121', '140', '119'] 710.3703703703709
66 14.207407407407407 ['130', '128', '133', '102', '127', '149', '139', '103', '146', '136', '134', '138', '121', '140', '119'] 710.3703703703709
67 14.207407407407407 ['130', '128', '133', '102', '127', '149', '139', '103', '146', '136', '134', '138', '121', '140', '119'] 710.3703703703709
68 14.207407407407407 ['130', '128', '133', '102', '127', '149', '139', '103', '146', '136', '134', '138', '121', '140', '119'] 710.3703703703709
69 14.207407407407407 ['130', '128', '133', '102', '127', '149', '139', '103', '146', '136', '134', '138', '121', '140', '119'] 710.3703703703709
70 14.207407407407407 ['130', '128', '133', '102', '127', '149', '139', '103', '146', '136', '134', '138', '121', '140', '119'] 710.3703703703709
71 14.207407407407407 ['130', '128', '133', '102', '127', '149', '139', '103', '146', '136', '134', '138', '121', '140', '119'] 710.3703703703709
72 14.207407407407407 ['130', '128', '133', '102', '127', '149', '139', '103', '146', '136', '134', '138', '121', '140', '119'] 710.3703703703709
73 14.207407407407407 ['130', '128', '133', '102', '127', '149', '139', '103', '146', '136', '134', '138', '121', '140', '119'] 710.3703703703709
74 14.207407407407407 ['130', '128', '133', '102', '127', '149', '139', '103', '146', '136', '134', '138', '121', '140', '119'] 710.3703703703709
75 14.207407407407407 ['130', '128', '133', '102', '127', '149', '139', '103', '146', '136', '134', '138', '121', '140', '119'] 710.3703703703709
76 14.207407407407407 ['130', '128', '133', '102', '127', '149', '139', '103', '146', '136', '134', '138', '121', '140', '119'] 710.3703703703709
77 14.207407407407407 ['130', '128', '133', '102', '127', '149', '139', '103', '146', '136', '134', '138', '121', '140', '119'] 710.3703703703709
78 14.207407407407407 ['130', '128', '133', '102', '127', '149', '139', '103', '146', '136', '134', '138', '121', '140', '119'] 710.3703703703709
79 14.207407407407407 ['130', '128', '133', '102', '127', '149', '139', '103', '146', '136', '134', '138', '121', '140', '119'] 710.3703703703709
80 14.207407407407407 ['130', '128', '133', '102', '127', '149', '139', '103', '146', '136', '134', '138', '121', '140', '119'] 710.3703703703709
81 14.207407407407407 ['130', '128', '133', '102', '127', '149', '139', '103', '146', '136', '134', '138', '121', '140', '119'] 710.3703703703709
82 14.207407407407407 ['130', '128', '133', '102', '127', '149', '139', '103', '146', '136', '134', '138', '121', '140', '119'] 710.3703703703709
83 14.207407407407407 ['130', '128', '133', '102', '127', '149', '139', '103', '146', '136', '134', '138', '121', '140', '119'] 710.3703703703709
84 14.207407407407407 ['130', '128', '133', '102', '127', '149', '139', '103', '146', '136', '134', '138', '121', '140', '119'] 710.3703703703709
85 14.207407407407407 ['130', '128', '133', '102', '127', '149', '139', '103', '146', '136', '134', '138', '121', '140', '119'] 710.3703703703709
86 14.207407407407407 ['130', '128', '133', '102', '127', '149', '139', '103', '146', '136', '134', '138', '121', '140', '119'] 710.3703703703709
87 14.207407407407407 ['130', '128', '133', '102', '127', '149', '139', '103', '146', '136', '134', '138', '121', '140', '119'] 710.3703703703709
88 14.207407407407407 ['130', '128', '133', '102', '127', '149', '139', '103', '146', '136', '134', '138', '121', '140', '119'] 710.3703703703709
89 14.207407407407407 ['130', '128', '133', '102', '127', '149', '139', '103', '146', '136', '134', '138', '121', '140', '119'] 710.3703703703709
90 14.207407407407407 ['130', '128', '133', '102', '127', '149', '139', '103', '146', '136', '134', '138', '121', '140', '119'] 710.3703703703709
91 14.207407407407407 ['130', '128', '133', '102', '127', '149', '139', '103', '146', '136', '134', '138', '121', '140', '119'] 710.3703703703709
92 14.207407407407407 ['130', '128', '133', '102', '127', '149', '139', '103', '146', '136', '134', '138', '121', '140', '119'] 710.3703703703709
93 14.207407407407407 ['130', '128', '133', '102', '127', '149', '139', '103', '146', '136', '134', '138', '121', '140', '119'] 710.3703703703709
94 14.207407407407407 ['130', '128', '133', '102', '127', '149', '139', '103', '146', '136', '134', '138', '121', '140', '119'] 710.3703703703709
95 14.207407407407407 ['130', '128', '133', '102', '127', '149', '139', '103', '146', '136', '134', '138', '121', '140', '119'] 710.3703703703709
96 14.207407407407407 ['130', '128', '133', '102', '127', '149', '139', '103', '146', '136', '134', '138', '121', '140', '119'] 710.3703703703709
97 14.207407407407407 ['130', '128', '133', '102', '127', '149', '139', '103', '146', '136', '134', '138', '121', '140', '119'] 710.3703703703709
98 14.207407407407407 ['130', '128', '133', '102', '127', '149', '139', '103', '146', '136', '134', '138', '121', '140', '119'] 710.3703703703709
99 14.207407407407407 ['130', '128', '133', '102', '127', '149', '139', '103', '146', '136', '134', '138', '121', '140', '119'] 710.3703703703709
100 14.207407407407407 ['130', '128', '133', '102', '127', '149', '139', '103', '146', '136', '134', '138', '121', '140', '119'] 710.3703703703709
101 14.207407407407407 ['130', '128', '133', '102', '127', '149', '139', '103', '146', '136', '134', '138', '121', '140', '119'] 710.3703703703709
102 14.207407407407407 ['130', '128', '133', '102', '127', '149', '139', '103', '146', '136', '134', '138', '121', '140', '119'] 710.3703703703709
103 14.207407407407407 ['130', '128', '133', '102', '127', '149', '139', '103', '146', '136', '134', '138', '121', '140', '119'] 710.3703703703709
104 14.207407407407407 ['130', '128', '133', '102', '127', '149', '139', '103', '146', '136', '134', '138', '121', '140', '119'] 710.3703703703709
105 14.207407407407407 ['130', '128', '133', '102', '127', '149', '139', '103', '146', '136', '134', '138', '121', '140', '119'] 710.3703703703709
106 14.207407407407407 ['130', '128', '133', '102', '127', '149', '139', '103', '146', '136', '134', '138', '121', '140', '119'] 710.3703703703709
107 14.207407407407407 ['130', '128', '133', '102', '127', '149', '139', '103', '146', '136', '134', '138', '121', '140', '119'] 710.3703703703709
108 14.207407407407407 ['130', '128', '133', '102', '127', '149', '139', '103', '146', '136', '134', '138', '121', '140', '119'] 710.3703703703709
109 14.207407407407407 ['130', '128', '133', '102', '127', '149', '139', '103', '146', '136', '134', '138', '121', '140', '119'] 710.3703703703709
110 14.207407407407407 ['130', '128', '133', '102', '127', '149', '139', '103', '146', '136', '134', '138', '121', '140', '119'] 710.3703703703709
111 14.207407407407407 ['130', '128', '133', '102', '127', '149', '139', '103', '146', '136', '134', '138', '121', '140', '119'] 710.3703703703709
112 14.207407407407407 ['130', '128', '133', '102', '127', '149', '139', '103', '146', '136', '134', '138', '121', '140', '119'] 710.3703703703709
113 14.207407407407407 ['130', '128', '133', '102', '127', '149', '139', '103', '146', '136', '134', '138', '121', '140', '119'] 710.3703703703709
114 14.207407407407407 ['130', '128', '133', '102', '127', '149', '139', '103', '146', '136', '134', '138', '121', '140', '119'] 710.3703703703709
115 14.207407407407407 ['130', '128', '133', '102', '127', '149', '139', '103', '146', '136', '134', '138', '121', '140', '119'] 710.3703703703709
116 14.207407407407407 ['130', '128', '133', '102', '127', '149', '139', '103', '146', '136', '134', '138', '121', '140', '119'] 710.3703703703709
117 14.207407407407407 ['130', '128', '133', '102', '127', '149', '139', '103', '146', '136', '134', '138', '121', '140', '119'] 710.3703703703709
118 14.207407407407407 ['130', '128', '133', '102', '127', '149', '139', '103', '146', '136', '134', '138', '121', '140', '119'] 710.3703703703709
119 14.207407407407407 ['130', '128', '133', '102', '127', '149', '139', '103', '146', '136', '134', '138', '121', '140', '119'] 710.3703703703709
120 14.207407407407407 ['130', '128', '133', '102', '127', '149', '139', '103', '146', '136', '134', '138', '121', '140', '119'] 710.3703703703709
121 14.207407407407407 ['130', '128', '133', '102', '127', '149', '139', '103', '146', '136', '134', '138', '121', '140', '119'] 710.3703703703709
122 14.207407407407407 ['130', '128', '133', '102', '127', '149', '139', '103', '146', '136', '134', '138', '121', '140', '119'] 710.3703703703709
123 14.207407407407407 ['130', '128', '133', '102', '127', '149', '139', '103', '146', '136', '134', '138', '121', '140', '119'] 710.3703703703709
124 14.207407407407407 ['130', '128', '133', '102', '127', '149', '139', '103', '146', '136', '134', '138', '121', '140', '119'] 710.3703703703709
125 14.207407407407407 ['130', '128', '133', '102', '127', '149', '139', '103', '146', '136', '134', '138', '121', '140', '119'] 710.3703703703709
126 14.207407407407407 ['130', '128', '133', '102', '127', '149', '139', '103', '146', '136', '134', '138', '121', '140', '119'] 710.3703703703709
127 14.207407407407407 ['130', '128', '133', '102', '127', '149', '139', '103', '146', '136', '134', '138', '121', '140', '119'] 710.3703703703709
128 14.207407407407407 ['130', '128', '133', '102', '127', '149', '139', '103', '146', '136', '134', '138', '121', '140', '119'] 710.3703703703709
129 14.207407407407407 ['130', '128', '133', '102', '127', '149', '139', '103', '146', '136', '134', '138', '121', '140', '119'] 710.3703703703709
130 14.207407407407407 ['130', '128', '133', '102', '127', '149', '139', '103', '146', '136', '134', '138', '121', '140', '119'] 710.3703703703709
131 14.207407407407407 ['130', '128', '133', '102', '127', '149', '139', '103', '146', '136', '134', '138', '121', '140', '119'] 710.3703703703709
132 14.207407407407407 ['130', '128', '133', '102', '127', '149', '139', '103', '146', '136', '134', '138', '121', '140', '119'] 710.3703703703709
133 14.207407407407407 ['130', '128', '133', '102', '127', '149', '139', '103', '146', '136', '134', '138', '121', '140', '119'] 710.3703703703709
134 14.207407407407407 ['130', '128', '133', '102', '127', '149', '139', '103', '146', '136', '134', '138', '121', '140', '119'] 710.3703703703709
135 14.207407407407407 ['130', '128', '133', '102', '127', '149', '139', '103', '146', '136', '134', '138', '121', '140', '119'] 710.3703703703709
136 14.207407407407407 ['130', '128', '133', '102', '127', '149', '139', '103', '146', '136', '134', '138', '121', '140', '119'] 710.3703703703709
137 14.207407407407407 ['130', '128', '133', '102', '127', '149', '139', '103', '146', '136', '134', '138', '121', '140', '119'] 710.3703703703709
138 14.207407407407407 ['130', '128', '133', '102', '127', '149', '139', '103', '146', '136', '134', '138', '121', '140', '119'] 710.3703703703709
139 14.207407407407407 ['130', '128', '133', '102', '127', '149', '139', '103', '146', '136', '134', '138', '121', '140', '119'] 710.3703703703709
140 14.207407407407407 ['130', '128', '133', '102', '127', '149', '139', '103', '146', '136', '134', '138', '121', '140', '119'] 710.3703703703709
141 14.207407407407407 ['130', '128', '133', '102', '127', '149', '139', '103', '146', '136', '134', '138', '121', '140', '119'] 710.3703703703709
142 14.207407407407407 ['130', '128', '133', '102', '127', '149', '139', '103', '146', '136', '134', '138', '121', '140', '119'] 710.3703703703709
143 14.207407407407407 ['130', '128', '133', '102', '127', '149', '139', '103', '146', '136', '134', '138', '121', '140', '119'] 710.3703703703709
144 14.207407407407407 ['130', '128', '133', '102', '127', '149', '139', '103', '146', '136', '134', '138', '121', '140', '119'] 710.3703703703709
145 14.207407407407407 ['130', '128', '133', '102', '127', '149', '139', '103', '146', '136', '134', '138', '121', '140', '119'] 710.3703703703709
146 14.207407407407407 ['130', '128', '133', '102', '127', '149', '139', '103', '146', '136', '134', '138', '121', '140', '119'] 710.3703703703709
147 14.207407407407407 ['130', '128', '133', '102', '127', '149', '139', '103', '146', '136', '134', '138', '121', '140', '119'] 710.3703703703709
148 14.207407407407407 ['130', '128', '133', '102', '127', '149', '139', '103', '146', '136', '134', '138', '121', '140', '119'] 710.3703703703709
149 14.207407407407407 ['130', '128', '133', '102', '127', '149', '139', '103', '146', '136', '134', '138', '121', '140', '119'] 710.3703703703709
150 14.207407407407407 ['130', '128', '133', '102', '127', '149', '139', '103', '146', '136', '134', '138', '121', '140', '119'] 710.3703703703709
151 14.207407407407407 ['130', '128', '133', '102', '127', '149', '139', '103', '146', '136', '134', '138', '121', '140', '119'] 710.3703703703709
152 14.207407407407407 ['130', '128', '133', '102', '127', '149', '139', '103', '146', '136', '134', '138', '121', '140', '119'] 710.3703703703709
153 14.207407407407407 ['130', '128', '133', '102', '127', '149', '139', '103', '146', '136', '134', '138', '121', '140', '119'] 710.3703703703709
154 14.207407407407407 ['130', '128', '133', '102', '127', '149', '139', '103', '146', '136', '134', '138', '121', '140', '119'] 710.3703703703709
155 14.207407407407407 ['130', '128', '133', '102', '127', '149', '139', '103', '146', '136', '134', '138', '121', '140', '119'] 710.3703703703709
156 14.207407407407407 ['130', '128', '133', '102', '127', '149', '139', '103', '146', '136', '134', '138', '121', '140', '119'] 710.3703703703709
157 14.207407407407407 ['130', '128', '133', '102', '127', '149', '139', '103', '146', '136', '134', '138', '121', '140', '119'] 710.3703703703709
158 14.207407407407407 ['130', '128', '133', '102', '127', '149', '139', '103', '146', '136', '134', '138', '121', '140', '119'] 710.3703703703709
159 14.207407407407407 ['130', '128', '133', '102', '127', '149', '139', '103', '146', '136', '134', '138', '121', '140', '119'] 710.3703703703709
160 14.207407407407407 ['130', '128', '133', '102', '127', '149', '139', '103', '146', '136', '134', '138', '121', '140', '119'] 710.3703703703709
161 14.207407407407407 ['130', '128', '133', '102', '127', '149', '139', '103', '146', '136', '134', '138', '121', '140', '119'] 710.3703703703709
162 14.207407407407407 ['130', '128', '133', '102', '127', '149', '139', '103', '146', '136', '134', '138', '121', '140', '119'] 710.3703703703709
163 14.207407407407407 ['130', '128', '133', '102', '127', '149', '139', '103', '146', '136', '134', '138', '121', '140', '119'] 710.3703703703709
164 14.207407407407407 ['130', '128', '133', '102', '127', '149', '139', '103', '146', '136', '134', '138', '121', '140', '119'] 710.3703703703709
165 14.207407407407407 ['130', '128', '133', '102', '127', '149', '139', '103', '146', '136', '134', '138', '121', '140', '119'] 710.3703703703709
166 14.207407407407407 ['130', '128', '133', '102', '127', '149', '139', '103', '146', '136', '134', '138', '121', '140', '119'] 710.3703703703709
167 14.207407407407407 ['130', '128', '133', '102', '127', '149', '139', '103', '146', '136', '134', '138', '121', '140', '119'] 710.3703703703709
168 14.207407407407407 ['130', '128', '133', '102', '127', '149', '139', '103', '146', '136', '134', '138', '121', '140', '119'] 710.3703703703709
169 14.207407407407407 ['130', '128', '133', '102', '127', '149', '139', '103', '146', '136', '134', '138', '121', '140', '119'] 710.3703703703709
170 14.207407407407407 ['130', '128', '133', '102', '127', '149', '139', '103', '146', '136', '134', '138', '121', '140', '119'] 710.3703703703709
171 14.207407407407407 ['130', '128', '133', '102', '127', '149', '139', '103', '146', '136', '134', '138', '121', '140', '119'] 710.3703703703709
172 14.207407407407407 ['130', '128', '133', '102', '127', '149', '139', '103', '146', '136', '134', '138', '121', '140', '119'] 710.3703703703709
173 14.207407407407407 ['130', '128', '133', '102', '127', '149', '139', '103', '146', '136', '134', '138', '121', '140', '119'] 710.3703703703709
174 14.207407407407407 ['130', '128', '133', '102', '127', '149', '139', '103', '146', '136', '134', '138', '121', '140', '119'] 710.3703703703709
175 14.207407407407407 ['130', '128', '133', '102', '127', '149', '139', '103', '146', '136', '134', '138', '121', '140', '119'] 710.3703703703709
176 14.207407407407407 ['130', '128', '133', '102', '127', '149', '139', '103', '146', '136', '134', '138', '121', '140', '119'] 710.3703703703709
177 14.207407407407407 ['130', '128', '133', '102', '127', '149', '139', '103', '146', '136', '134', '138', '121', '140', '119'] 710.3703703703709
178 14.207407407407407 ['130', '128', '133', '102', '127', '149', '139', '103', '146', '136', '134', '138', '121', '140', '119'] 710.3703703703709
179 14.207407407407407 ['130', '128', '133', '102', '127', '149', '139', '103', '146', '136', '134', '138', '121', '140', '119'] 710.3703703703709
180 14.207407407407407 ['130', '128', '133', '102', '127', '149', '139', '103', '146', '136', '134', '138', '121', '140', '119'] 710.3703703703709
181 14.207407407407407 ['130', '128', '133', '102', '127', '149', '139', '103', '146', '136', '134', '138', '121', '140', '119'] 710.3703703703709
182 14.207407407407407 ['130', '128', '133', '102', '127', '149', '139', '103', '146', '136', '134', '138', '121', '140', '119'] 710.3703703703709
183 14.207407407407407 ['130', '128', '133', '102', '127', '149', '139', '103', '146', '136', '134', '138', '121', '140', '119'] 710.3703703703709
184 14.207407407407407 ['130', '128', '133', '102', '127', '149', '139', '103', '146', '136', '134', '138', '121', '140', '119'] 710.3703703703709
185 14.207407407407407 ['130', '128', '133', '102', '127', '149', '139', '103', '146', '136', '134', '138', '121', '140', '119'] 710.3703703703709
186 14.207407407407407 ['130', '128', '133', '102', '127', '149', '139', '103', '146', '136', '134', '138', '121', '140', '119'] 710.3703703703709
187 14.207407407407407 ['130', '128', '133', '102', '127', '149', '139', '103', '146', '136', '134', '138', '121', '140', '119'] 710.3703703703709
188 14.207407407407407 ['130', '128', '133', '102', '127', '149', '139', '103', '146', '136', '134', '138', '121', '140', '119'] 710.3703703703709
189 14.207407407407407 ['130', '128', '133', '102', '127', '149', '139', '103', '146', '136', '134', '138', '121', '140', '119'] 710.3703703703709
190 14.207407407407407 ['130', '128', '133', '102', '127', '149', '139', '103', '146', '136', '134', '138', '121', '140', '119'] 710.3703703703709
191 14.207407407407407 ['130', '128', '133', '102', '127', '149', '139', '103', '146', '136', '134', '138', '121', '140', '119'] 710.3703703703709
192 14.207407407407407 ['130', '128', '133', '102', '127', '149', '139', '103', '146', '136', '134', '138', '121', '140', '119'] 710.3703703703709
193 14.207407407407407 ['130', '128', '133', '102', '127', '149', '139', '103', '146', '136', '134', '138', '121', '140', '119'] 710.3703703703709
194 14.207407407407407 ['130', '128', '133', '102', '127', '149', '139', '103', '146', '136', '134', '138', '121', '140', '119'] 710.3703703703709
195 14.207407407407407 ['130', '128', '133', '102', '127', '149', '139', '103', '146', '136', '134', '138', '121', '140', '119'] 710.3703703703709
196 14.207407407407407 ['130', '128', '133', '102', '127', '149', '139', '103', '146', '136', '134', '138', '121', '140', '119'] 710.3703703703709
197 14.207407407407407 ['130', '128', '133', '102', '127', '149', '139', '103', '146', '136', '134', '138', '121', '140', '119'] 710.3703703703709
198 14.207407407407407 ['130', '128', '133', '102', '127', '149', '139', '103', '146', '136', '134', '138', '121', '140', '119'] 710.3703703703709
199 14.207407407407407 ['130', '128', '133', '102', '127', '149', '139', '103', '146', '136', '134', '138', '121', '140', '119'] 710.3703703703709
