0 13.511111111111111 ['90', '81', '32', '93', '122', '11', '145', '92', '136', '30', '91', '80', '44', '119', '139'] 700.6370370370371
1 13.511111111111111 ['90', '81', '32', '93', '122', '11', '145', '92', '136', '30', '91', '80', '44', '119', '139'] 693.4814814814815
2 13.511111111111111 ['90', '81', '32', '93', '122', '11', '145', '92', '136', '30', '91', '80', '44', '119', '139'] 686.8296296296297
3 13.274074074074074 ['145', '68', '120', '149', '140', '141', '139', '90', '92', '11', '111', '62', '69', '28', '107'] 681.1925925925927
4 13.192592592592593 ['145', '62', '131', '28', '111', '139', '32', '117', '122', '129', '120', '144', '136', '90', '138'] 675.7703703703706
5 13.192592592592593 ['145', '62', '131', '28', '111', '139', '32', '117', '122', '129', '120', '144', '136', '90', '138'] 671.0222222222218
6 13.125925925925927 ['145', '140', '136', '139', '131', '44', '92', '90', '120', '23', '30', '122', '1', '144', '57'] 666.2222222222222
7 12.911111111111111 ['139', '136', '44', '131', '133', '144', '64', '102', '145', '129', '30', '119', '127', '121', '146'] 661.6222222222225
8 12.807407407407407 ['139', '122', '136', '113', '57', '120', '140', '91', '138', '145', '117', '133', '119', '81', '137'] 656.5111111111107
9 12.8 ['146', '131', '93', '139', '145', '120', '122', '23', '136', '141', '130', '89', '90', '140', '30'] 651.5555555555555
10 12.681481481481482 ['140', '120', '139', '145', '138', '23', '89', '133', '131', '130', '113', '141', '137', '107', '119'] 647.2740740740742
11 12.644444444444444 ['136', '145', '133', '139', '144', '92', '131', '122', '102', '119', '82', '146', '150', '140', '64'] 643.1851851851848
12 12.6 ['145', '146', '140', '93', '136', '139', '122', '141', '150', '119', '148', '131', '133', '120', '89'] 639.4148148148147
13 12.533333333333333 ['92', '137', '140', '139', '145', '131', '136', '146', '90', '91', '89', '120', '119', '129', '141'] 636.0814814814811
14 12.533333333333333 ['92', '137', '140', '139', '145', '131', '136', '146', '90', '91', '89', '120', '119', '129', '141'] 632.9407407407407
15 12.385185185185184 ['119', '120', '131', '137', '139', '140', '145', '136', '142', '144', '146', '141', '138', '122', '89'] 629.7111111111107
16 12.385185185185184 ['119', '120', '131', '137', '139', '140', '145', '136', '142', '144', '146', '141', '138', '122', '89'] 627.1185185185188
17 12.385185185185184 ['119', '120', '131', '137', '139', '140', '145', '136', '142', '144', '146', '141', '138', '122', '89'] 624.5851851851851
18 12.385185185185184 ['119', '120', '131', '137', '139', '140', '145', '136', '142', '144', '146', '141', '138', '122', '89'] 622.4962962962966
19 12.377777777777778 ['137', '120', '142', '146', '138', '136', '141', '144', '119', '140', '131', '139', '89', '122', '130'] 620.8962962962964
20 12.348148148148148 ['144', '140', '145', '139', '136', '141', '122', '146', '131', '137', '142', '82', '130', '89', '138'] 619.7037037037034
21 12.348148148148148 ['144', '140', '145', '139', '136', '141', '122', '146', '131', '137', '142', '82', '130', '89', '138'] 618.9925925925927
22 12.348148148148148 ['144', '140', '145', '139', '136', '141', '122', '146', '131', '137', '142', '82', '130', '89', '138'] 618.6888888888891
23 12.325925925925926 ['89', '140', '144', '136', '142', '137', '139', '146', '141', '131', '122', '138', '119', '129', '145'] 618.3333333333333
24 12.325925925925926 ['89', '140', '144', '136', '142', '137', '139', '146', '141', '131', '122', '138', '119', '129', '145'] 617.8518518518515
25 12.303703703703704 ['138', '136', '140', '141', '146', '129', '119', '137', '144', '122', '139', '131', '89', '142', '133'] 617.3555555555549
26 12.303703703703704 ['138', '136', '140', '141', '146', '129', '119', '137', '144', '122', '139', '131', '89', '142', '133'] 616.7925925925929
27 12.303703703703704 ['138', '136', '140', '141', '146', '129', '119', '137', '144', '122', '139', '131', '89', '142', '133'] 616.1999999999998
28 12.303703703703704 ['138', '136', '140', '141', '146', '129', '119', '137', '144', '122', '139', '131', '89', '142', '133'] 615.8814814814816
29 12.303703703703704 ['138', '136', '140', '141', '146', '129', '119', '137', '144', '122', '139', '131', '89', '142', '133'] 615.6000000000008
30 12.303703703703704 ['138', '136', '140', '141', '146', '129', '119', '137', '144', '122', '139', '131', '89', '142', '133'] 615.2888888888895
31 12.303703703703704 ['138', '136', '140', '141', '146', '129', '119', '137', '144', '122', '139', '131', '89', '142', '133'] 615.1851851851857
32 12.303703703703704 ['138', '136', '140', '141', '146', '129', '119', '137', '144', '122', '139', '131', '89', '142', '133'] 615.1851851851857
33 12.303703703703704 ['138', '136', '140', '141', '146', '129', '119', '137', '144', '122', '139', '131', '89', '142', '133'] 615.1851851851857
34 12.303703703703704 ['138', '136', '140', '141', '146', '129', '119', '137', '144', '122', '139', '131', '89', '142', '133'] 615.1851851851857
35 12.303703703703704 ['138', '136', '140', '141', '146', '129', '119', '137', '144', '122', '139', '131', '89', '142', '133'] 615.1851851851857
36 12.303703703703704 ['138', '136', '140', '141', '146', '129', '119', '137', '144', '122', '139', '131', '89', '142', '133'] 615.1851851851857
37 12.303703703703704 ['138', '136', '140', '141', '146', '129', '119', '137', '144', '122', '139', '131', '89', '142', '133'] 615.1851851851857
38 12.303703703703704 ['138', '136', '140', '141', '146', '129', '119', '137', '144', '122', '139', '131', '89', '142', '133'] 615.1851851851857
39 12.303703703703704 ['138', '136', '140', '141', '146', '129', '119', '137', '144', '122', '139', '131', '89', '142', '133'] 615.1851851851857
40 12.303703703703704 ['138', '136', '140', '141', '146', '129', '119', '137', '144', '122', '139', '131', '89', '142', '133'] 615.1851851851857
41 12.303703703703704 ['138', '136', '140', '141', '146', '129', '119', '137', '144', '122', '139', '131', '89', '142', '133'] 615.1851851851857
42 12.303703703703704 ['138', '136', '140', '141', '146', '129', '119', '137', '144', '122', '139', '131', '89', '142', '133'] 615.1851851851857
43 12.303703703703704 ['138', '136', '140', '141', '146', '129', '119', '137', '144', '122', '139', '131', '89', '142', '133'] 615.1851851851857
44 12.303703703703704 ['138', '136', '140', '141', '146', '129', '119', '137', '144', '122', '139', '131', '89', '142', '133'] 615.1851851851857
45 12.303703703703704 ['138', '136', '140', '141', '146', '129', '119', '137', '144', '122', '139', '131', '89', '142', '133'] 615.1851851851857
46 12.303703703703704 ['138', '136', '140', '141', '146', '129', '119', '137', '144', '122', '139', '131', '89', '142', '133'] 615.1851851851857
47 12.303703703703704 ['138', '136', '140', '141', '146', '129', '119', '137', '144', '122', '139', '131', '89', '142', '133'] 615.1851851851857
48 12.303703703703704 ['138', '136', '140', '141', '146', '129', '119', '137', '144', '122', '139', '131', '89', '142', '133'] 615.1851851851857
49 12.303703703703704 ['138', '136', '140', '141', '146', '129', '119', '137', '144', '122', '139', '131', '89', '142', '133'] 615.1851851851857
50 12.303703703703704 ['138', '136', '140', '141', '146', '129', '119', '137', '144', '122', '139', '131', '89', '142', '133'] 615.1851851851857
51 12.303703703703704 ['138', '136', '140', '141', '146', '129', '119', '137', '144', '122', '139', '131', '89', '142', '133'] 615.1851851851857
52 12.303703703703704 ['138', '136', '140', '141', '146', '129', '119', '137', '144', '122', '139', '131', '89', '142', '133'] 615.1851851851857
53 12.303703703703704 ['138', '136', '140', '141', '146', '129', '119', '137', '144', '122', '139', '131', '89', '142', '133'] 615.1851851851857
54 12.303703703703704 ['138', '136', '140', '141', '146', '129', '119', '137', '144', '122', '139', '131', '89', '142', '133'] 615.1851851851857
55 12.303703703703704 ['138', '136', '140', '141', '146', '129', '119', '137', '144', '122', '139', '131', '89', '142', '133'] 615.1851851851857
56 12.303703703703704 ['138', '136', '140', '141', '146', '129', '119', '137', '144', '122', '139', '131', '89', '142', '133'] 615.1851851851857
57 12.303703703703704 ['138', '136', '140', '141', '146', '129', '119', '137', '144', '122', '139', '131', '89', '142', '133'] 615.1851851851857
58 12.303703703703704 ['138', '136', '140', '141', '146', '129', '119', '137', '144', '122', '139', '131', '89', '142', '133'] 615.1851851851857
59 12.303703703703704 ['138', '136', '140', '141', '146', '129', '119', '137', '144', '122', '139', '131', '89', '142', '133'] 615.1851851851857
60 12.303703703703704 ['138', '136', '140', '141', '146', '129', '119', '137', '144', '122', '139', '131', '89', '142', '133'] 615.1851851851857
61 12.303703703703704 ['138', '136', '140', '141', '146', '129', '119', '137', '144', '122', '139', '131', '89', '142', '133'] 615.1851851851857
62 12.303703703703704 ['138', '136', '140', '141', '146', '129', '119', '137', '144', '122', '139', '131', '89', '142', '133'] 615.1851851851857
63 12.303703703703704 ['138', '136', '140', '141', '146', '129', '119', '137', '144', '122', '139', '131', '89', '142', '133'] 615.1851851851857
64 12.303703703703704 ['138', '136', '140', '141', '146', '129', '119', '137', '144', '122', '139', '131', '89', '142', '133'] 615.1851851851857
65 12.303703703703704 ['138', '136', '140', '141', '146', '129', '119', '137', '144', '122', '139', '131', '89', '142', '133'] 615.1851851851857
66 12.303703703703704 ['138', '136', '140', '141', '146', '129', '119', '137', '144', '122', '139', '131', '89', '142', '133'] 615.1851851851857
67 12.303703703703704 ['138', '136', '140', '141', '146', '129', '119', '137', '144', '122', '139', '131', '89', '142', '133'] 615.1851851851857
68 12.303703703703704 ['138', '136', '140', '141', '146', '129', '119', '137', '144', '122', '139', '131', '89', '142', '133'] 615.1851851851857
69 12.303703703703704 ['138', '136', '140', '141', '146', '129', '119', '137', '144', '122', '139', '131', '89', '142', '133'] 615.1851851851857
70 12.303703703703704 ['138', '136', '140', '141', '146', '129', '119', '137', '144', '122', '139', '131', '89', '142', '133'] 615.1851851851857
71 12.303703703703704 ['138', '136', '140', '141', '146', '129', '119', '137', '144', '122', '139', '131', '89', '142', '133'] 615.1851851851857
72 12.303703703703704 ['138', '136', '140', '141', '146', '129', '119', '137', '144', '122', '139', '131', '89', '142', '133'] 615.1851851851857
73 12.303703703703704 ['138', '136', '140', '141', '146', '129', '119', '137', '144', '122', '139', '131', '89', '142', '133'] 615.1851851851857
74 12.303703703703704 ['138', '136', '140', '141', '146', '129', '119', '137', '144', '122', '139', '131', '89', '142', '133'] 615.1851851851857
75 12.303703703703704 ['138', '136', '140', '141', '146', '129', '119', '137', '144', '122', '139', '131', '89', '142', '133'] 615.1851851851857
76 12.303703703703704 ['138', '136', '140', '141', '146', '129', '119', '137', '144', '122', '139', '131', '89', '142', '133'] 615.1851851851857
77 12.303703703703704 ['138', '136', '140', '141', '146', '129', '119', '137', '144', '122', '139', '131', '89', '142', '133'] 615.1851851851857
78 12.303703703703704 ['138', '136', '140', '141', '146', '129', '119', '137', '144', '122', '139', '131', '89', '142', '133'] 615.1851851851857
79 12.303703703703704 ['138', '136', '140', '141', '146', '129', '119', '137', '144', '122', '139', '131', '89', '142', '133'] 615.1851851851857
80 12.303703703703704 ['138', '136', '140', '141', '146', '129', '119', '137', '144', '122', '139', '131', '89', '142', '133'] 615.1851851851857
81 12.303703703703704 ['138', '136', '140', '141', '146', '129', '119', '137', '144', '122', '139', '131', '89', '142', '133'] 615.1851851851857
82 12.303703703703704 ['138', '136', '140', '141', '146', '129', '119', '137', '144', '122', '139', '131', '89', '142', '133'] 615.1851851851857
83 12.303703703703704 ['138', '136', '140', '141', '146', '129', '119', '137', '144', '122', '139', '131', '89', '142', '133'] 615.1851851851857
84 12.303703703703704 ['138', '136', '140', '141', '146', '129', '119', '137', '144', '122', '139', '131', '89', '142', '133'] 615.1851851851857
85 12.303703703703704 ['138', '136', '140', '141', '146', '129', '119', '137', '144', '122', '139', '131', '89', '142', '133'] 615.1851851851857
86 12.303703703703704 ['138', '136', '140', '141', '146', '129', '119', '137', '144', '122', '139', '131', '89', '142', '133'] 615.1851851851857
87 12.303703703703704 ['138', '136', '140', '141', '146', '129', '119', '137', '144', '122', '139', '131', '89', '142', '133'] 615.1851851851857
88 12.303703703703704 ['138', '136', '140', '141', '146', '129', '119', '137', '144', '122', '139', '131', '89', '142', '133'] 615.1851851851857
89 12.303703703703704 ['138', '136', '140', '141', '146', '129', '119', '137', '144', '122', '139', '131', '89', '142', '133'] 615.1851851851857
90 12.303703703703704 ['138', '136', '140', '141', '146', '129', '119', '137', '144', '122', '139', '131', '89', '142', '133'] 615.1851851851857
91 12.303703703703704 ['138', '136', '140', '141', '146', '129', '119', '137', '144', '122', '139', '131', '89', '142', '133'] 615.1851851851857
92 12.303703703703704 ['138', '136', '140', '141', '146', '129', '119', '137', '144', '122', '139', '131', '89', '142', '133'] 615.1851851851857
93 12.303703703703704 ['138', '136', '140', '141', '146', '129', '119', '137', '144', '122', '139', '131', '89', '142', '133'] 615.1851851851857
94 12.303703703703704 ['138', '136', '140', '141', '146', '129', '119', '137', '144', '122', '139', '131', '89', '142', '133'] 615.1851851851857
95 12.303703703703704 ['138', '136', '140', '141', '146', '129', '119', '137', '144', '122', '139', '131', '89', '142', '133'] 615.1851851851857
96 12.303703703703704 ['138', '136', '140', '141', '146', '129', '119', '137', '144', '122', '139', '131', '89', '142', '133'] 615.1851851851857
97 12.303703703703704 ['138', '136', '140', '141', '146', '129', '119', '137', '144', '122', '139', '131', '89', '142', '133'] 615.1851851851857
98 12.303703703703704 ['138', '136', '140', '141', '146', '129', '119', '137', '144', '122', '139', '131', '89', '142', '133'] 615.1851851851857
99 12.303703703703704 ['138', '136', '140', '141', '146', '129', '119', '137', '144', '122', '139', '131', '89', '142', '133'] 615.1851851851857
100 12.303703703703704 ['138', '136', '140', '141', '146', '129', '119', '137', '144', '122', '139', '131', '89', '142', '133'] 615.1851851851857
101 12.303703703703704 ['138', '136', '140', '141', '146', '129', '119', '137', '144', '122', '139', '131', '89', '142', '133'] 615.1851851851857
102 12.303703703703704 ['138', '136', '140', '141', '146', '129', '119', '137', '144', '122', '139', '131', '89', '142', '133'] 615.1851851851857
103 12.303703703703704 ['138', '136', '140', '141', '146', '129', '119', '137', '144', '122', '139', '131', '89', '142', '133'] 615.1851851851857
104 12.303703703703704 ['138', '136', '140', '141', '146', '129', '119', '137', '144', '122', '139', '131', '89', '142', '133'] 615.1851851851857
105 12.303703703703704 ['138', '136', '140', '141', '146', '129', '119', '137', '144', '122', '139', '131', '89', '142', '133'] 615.1851851851857
106 12.303703703703704 ['138', '136', '140', '141', '146', '129', '119', '137', '144', '122', '139', '131', '89', '142', '133'] 615.1851851851857
107 12.303703703703704 ['138', '136', '140', '141', '146', '129', '119', '137', '144', '122', '139', '131', '89', '142', '133'] 615.1851851851857
108 12.303703703703704 ['138', '136', '140', '141', '146', '129', '119', '137', '144', '122', '139', '131', '89', '142', '133'] 615.1851851851857
109 12.303703703703704 ['138', '136', '140', '141', '146', '129', '119', '137', '144', '122', '139', '131', '89', '142', '133'] 615.1851851851857
110 12.303703703703704 ['138', '136', '140', '141', '146', '129', '119', '137', '144', '122', '139', '131', '89', '142', '133'] 615.1851851851857
111 12.303703703703704 ['138', '136', '140', '141', '146', '129', '119', '137', '144', '122', '139', '131', '89', '142', '133'] 615.1851851851857
112 12.303703703703704 ['138', '136', '140', '141', '146', '129', '119', '137', '144', '122', '139', '131', '89', '142', '133'] 615.1851851851857
113 12.303703703703704 ['138', '136', '140', '141', '146', '129', '119', '137', '144', '122', '139', '131', '89', '142', '133'] 615.1851851851857
114 12.303703703703704 ['138', '136', '140', '141', '146', '129', '119', '137', '144', '122', '139', '131', '89', '142', '133'] 615.1851851851857
115 12.303703703703704 ['138', '136', '140', '141', '146', '129', '119', '137', '144', '122', '139', '131', '89', '142', '133'] 615.1851851851857
116 12.303703703703704 ['138', '136', '140', '141', '146', '129', '119', '137', '144', '122', '139', '131', '89', '142', '133'] 615.1851851851857
117 12.303703703703704 ['138', '136', '140', '141', '146', '129', '119', '137', '144', '122', '139', '131', '89', '142', '133'] 615.1851851851857
118 12.303703703703704 ['138', '136', '140', '141', '146', '129', '119', '137', '144', '122', '139', '131', '89', '142', '133'] 615.1851851851857
119 12.303703703703704 ['138', '136', '140', '141', '146', '129', '119', '137', '144', '122', '139', '131', '89', '142', '133'] 615.1851851851857
120 12.303703703703704 ['138', '136', '140', '141', '146', '129', '119', '137', '144', '122', '139', '131', '89', '142', '133'] 615.1851851851857
121 12.303703703703704 ['138', '136', '140', '141', '146', '129', '119', '137', '144', '122', '139', '131', '89', '142', '133'] 615.1851851851857
122 12.303703703703704 ['138', '136', '140', '141', '146', '129', '119', '137', '144', '122', '139', '131', '89', '142', '133'] 615.1851851851857
123 12.303703703703704 ['138', '136', '140', '141', '146', '129', '119', '137', '144', '122', '139', '131', '89', '142', '133'] 615.1851851851857
124 12.303703703703704 ['138', '136', '140', '141', '146', '129', '119', '137', '144', '122', '139', '131', '89', '142', '133'] 615.1851851851857
125 12.303703703703704 ['138', '136', '140', '141', '146', '129', '119', '137', '144', '122', '139', '131', '89', '142', '133'] 615.1851851851857
126 12.303703703703704 ['138', '136', '140', '141', '146', '129', '119', '137', '144', '122', '139', '131', '89', '142', '133'] 615.1851851851857
127 12.303703703703704 ['138', '136', '140', '141', '146', '129', '119', '137', '144', '122', '139', '131', '89', '142', '133'] 615.1851851851857
128 12.303703703703704 ['138', '136', '140', '141', '146', '129', '119', '137', '144', '122', '139', '131', '89', '142', '133'] 615.1851851851857
129 12.303703703703704 ['138', '136', '140', '141', '146', '129', '119', '137', '144', '122', '139', '131', '89', '142', '133'] 615.1851851851857
130 12.303703703703704 ['138', '136', '140', '141', '146', '129', '119', '137', '144', '122', '139', '131', '89', '142', '133'] 615.1851851851857
131 12.303703703703704 ['138', '136', '140', '141', '146', '129', '119', '137', '144', '122', '139', '131', '89', '142', '133'] 615.1851851851857
132 12.303703703703704 ['138', '136', '140', '141', '146', '129', '119', '137', '144', '122', '139', '131', '89', '142', '133'] 615.1851851851857
133 12.303703703703704 ['138', '136', '140', '141', '146', '129', '119', '137', '144', '122', '139', '131', '89', '142', '133'] 615.1851851851857
134 12.303703703703704 ['138', '136', '140', '141', '146', '129', '119', '137', '144', '122', '139', '131', '89', '142', '133'] 615.1851851851857
135 12.303703703703704 ['138', '136', '140', '141', '146', '129', '119', '137', '144', '122', '139', '131', '89', '142', '133'] 615.1851851851857
136 12.303703703703704 ['138', '136', '140', '141', '146', '129', '119', '137', '144', '122', '139', '131', '89', '142', '133'] 615.1851851851857
137 12.303703703703704 ['138', '136', '140', '141', '146', '129', '119', '137', '144', '122', '139', '131', '89', '142', '133'] 615.1851851851857
138 12.303703703703704 ['138', '136', '140', '141', '146', '129', '119', '137', '144', '122', '139', '131', '89', '142', '133'] 615.1851851851857
139 12.303703703703704 ['138', '136', '140', '141', '146', '129', '119', '137', '144', '122', '139', '131', '89', '142', '133'] 615.1851851851857
140 12.303703703703704 ['138', '136', '140', '141', '146', '129', '119', '137', '144', '122', '139', '131', '89', '142', '133'] 615.1851851851857
141 12.303703703703704 ['138', '136', '140', '141', '146', '129', '119', '137', '144', '122', '139', '131', '89', '142', '133'] 615.1851851851857
142 12.303703703703704 ['138', '136', '140', '141', '146', '129', '119', '137', '144', '122', '139', '131', '89', '142', '133'] 615.1851851851857
143 12.303703703703704 ['138', '136', '140', '141', '146', '129', '119', '137', '144', '122', '139', '131', '89', '142', '133'] 615.1851851851857
144 12.303703703703704 ['138', '136', '140', '141', '146', '129', '119', '137', '144', '122', '139', '131', '89', '142', '133'] 615.1851851851857
145 12.303703703703704 ['138', '136', '140', '141', '146', '129', '119', '137', '144', '122', '139', '131', '89', '142', '133'] 615.1851851851857
146 12.303703703703704 ['138', '136', '140', '141', '146', '129', '119', '137', '144', '122', '139', '131', '89', '142', '133'] 615.1851851851857
147 12.303703703703704 ['138', '136', '140', '141', '146', '129', '119', '137', '144', '122', '139', '131', '89', '142', '133'] 615.1851851851857
148 12.303703703703704 ['138', '136', '140', '141', '146', '129', '119', '137', '144', '122', '139', '131', '89', '142', '133'] 615.1851851851857
149 12.303703703703704 ['138', '136', '140', '141', '146', '129', '119', '137', '144', '122', '139', '131', '89', '142', '133'] 615.1851851851857
150 12.303703703703704 ['138', '136', '140', '141', '146', '129', '119', '137', '144', '122', '139', '131', '89', '142', '133'] 615.1851851851857
151 12.303703703703704 ['138', '136', '140', '141', '146', '129', '119', '137', '144', '122', '139', '131', '89', '142', '133'] 615.1851851851857
152 12.303703703703704 ['138', '136', '140', '141', '146', '129', '119', '137', '144', '122', '139', '131', '89', '142', '133'] 615.1851851851857
153 12.303703703703704 ['138', '136', '140', '141', '146', '129', '119', '137', '144', '122', '139', '131', '89', '142', '133'] 615.1851851851857
154 12.303703703703704 ['138', '136', '140', '141', '146', '129', '119', '137', '144', '122', '139', '131', '89', '142', '133'] 615.1851851851857
155 12.303703703703704 ['138', '136', '140', '141', '146', '129', '119', '137', '144', '122', '139', '131', '89', '142', '133'] 615.1851851851857
156 12.303703703703704 ['138', '136', '140', '141', '146', '129', '119', '137', '144', '122', '139', '131', '89', '142', '133'] 615.1851851851857
157 12.303703703703704 ['138', '136', '140', '141', '146', '129', '119', '137', '144', '122', '139', '131', '89', '142', '133'] 615.1851851851857
158 12.303703703703704 ['138', '136', '140', '141', '146', '129', '119', '137', '144', '122', '139', '131', '89', '142', '133'] 615.1851851851857
159 12.303703703703704 ['138', '136', '140', '141', '146', '129', '119', '137', '144', '122', '139', '131', '89', '142', '133'] 615.1851851851857
160 12.303703703703704 ['138', '136', '140', '141', '146', '129', '119', '137', '144', '122', '139', '131', '89', '142', '133'] 615.1851851851857
161 12.303703703703704 ['138', '136', '140', '141', '146', '129', '119', '137', '144', '122', '139', '131', '89', '142', '133'] 615.1851851851857
162 12.303703703703704 ['138', '136', '140', '141', '146', '129', '119', '137', '144', '122', '139', '131', '89', '142', '133'] 615.1851851851857
163 12.303703703703704 ['138', '136', '140', '141', '146', '129', '119', '137', '144', '122', '139', '131', '89', '142', '133'] 615.1851851851857
164 12.303703703703704 ['138', '136', '140', '141', '146', '129', '119', '137', '144', '122', '139', '131', '89', '142', '133'] 615.1851851851857
165 12.303703703703704 ['138', '136', '140', '141', '146', '129', '119', '137', '144', '122', '139', '131', '89', '142', '133'] 615.1851851851857
166 12.303703703703704 ['138', '136', '140', '141', '146', '129', '119', '137', '144', '122', '139', '131', '89', '142', '133'] 615.1851851851857
167 12.303703703703704 ['138', '136', '140', '141', '146', '129', '119', '137', '144', '122', '139', '131', '89', '142', '133'] 615.1851851851857
168 12.303703703703704 ['138', '136', '140', '141', '146', '129', '119', '137', '144', '122', '139', '131', '89', '142', '133'] 615.1851851851857
169 12.303703703703704 ['138', '136', '140', '141', '146', '129', '119', '137', '144', '122', '139', '131', '89', '142', '133'] 615.1851851851857
170 12.303703703703704 ['138', '136', '140', '141', '146', '129', '119', '137', '144', '122', '139', '131', '89', '142', '133'] 615.1851851851857
171 12.303703703703704 ['138', '136', '140', '141', '146', '129', '119', '137', '144', '122', '139', '131', '89', '142', '133'] 615.1851851851857
172 12.303703703703704 ['138', '136', '140', '141', '146', '129', '119', '137', '144', '122', '139', '131', '89', '142', '133'] 615.1851851851857
173 12.303703703703704 ['138', '136', '140', '141', '146', '129', '119', '137', '144', '122', '139', '131', '89', '142', '133'] 615.1851851851857
174 12.303703703703704 ['138', '136', '140', '141', '146', '129', '119', '137', '144', '122', '139', '131', '89', '142', '133'] 615.1851851851857
175 12.303703703703704 ['138', '136', '140', '141', '146', '129', '119', '137', '144', '122', '139', '131', '89', '142', '133'] 615.1851851851857
176 12.303703703703704 ['138', '136', '140', '141', '146', '129', '119', '137', '144', '122', '139', '131', '89', '142', '133'] 615.1851851851857
177 12.303703703703704 ['138', '136', '140', '141', '146', '129', '119', '137', '144', '122', '139', '131', '89', '142', '133'] 615.1851851851857
178 12.303703703703704 ['138', '136', '140', '141', '146', '129', '119', '137', '144', '122', '139', '131', '89', '142', '133'] 615.1851851851857
179 12.303703703703704 ['138', '136', '140', '141', '146', '129', '119', '137', '144', '122', '139', '131', '89', '142', '133'] 615.1851851851857
180 12.303703703703704 ['138', '136', '140', '141', '146', '129', '119', '137', '144', '122', '139', '131', '89', '142', '133'] 615.1851851851857
181 12.303703703703704 ['138', '136', '140', '141', '146', '129', '119', '137', '144', '122', '139', '131', '89', '142', '133'] 615.1851851851857
182 12.303703703703704 ['138', '136', '140', '141', '146', '129', '119', '137', '144', '122', '139', '131', '89', '142', '133'] 615.1851851851857
183 12.303703703703704 ['138', '136', '140', '141', '146', '129', '119', '137', '144', '122', '139', '131', '89', '142', '133'] 615.1851851851857
184 12.303703703703704 ['138', '136', '140', '141', '146', '129', '119', '137', '144', '122', '139', '131', '89', '142', '133'] 615.1851851851857
185 12.303703703703704 ['138', '136', '140', '141', '146', '129', '119', '137', '144', '122', '139', '131', '89', '142', '133'] 615.1851851851857
186 12.303703703703704 ['138', '136', '140', '141', '146', '129', '119', '137', '144', '122', '139', '131', '89', '142', '133'] 615.1851851851857
187 12.303703703703704 ['138', '136', '140', '141', '146', '129', '119', '137', '144', '122', '139', '131', '89', '142', '133'] 615.1851851851857
188 12.303703703703704 ['138', '136', '140', '141', '146', '129', '119', '137', '144', '122', '139', '131', '89', '142', '133'] 615.1851851851857
189 12.303703703703704 ['138', '136', '140', '141', '146', '129', '119', '137', '144', '122', '139', '131', '89', '142', '133'] 615.1851851851857
190 12.303703703703704 ['138', '136', '140', '141', '146', '129', '119', '137', '144', '122', '139', '131', '89', '142', '133'] 615.1851851851857
191 12.303703703703704 ['138', '136', '140', '141', '146', '129', '119', '137', '144', '122', '139', '131', '89', '142', '133'] 615.1851851851857
192 12.274074074074074 ['139', '144', '138', '133', '142', '141', '137', '146', '131', '136', '122', '140', '129', '119', '149'] 615.1555555555561
193 12.274074074074074 ['139', '144', '138', '133', '142', '141', '137', '146', '131', '136', '122', '140', '129', '119', '149'] 615.1555555555561
194 12.274074074074074 ['139', '144', '138', '133', '142', '141', '137', '146', '131', '136', '122', '140', '129', '119', '149'] 615.1259259259265
195 12.274074074074074 ['139', '144', '138', '133', '142', '141', '137', '146', '131', '136', '122', '140', '129', '119', '149'] 615.0666666666672
196 12.274074074074074 ['139', '144', '138', '133', '142', '141', '137', '146', '131', '136', '122', '140', '129', '119', '149'] 614.8592592592598
197 12.274074074074074 ['139', '144', '138', '133', '142', '141', '137', '146', '131', '136', '122', '140', '129', '119', '149'] 614.3555555555557
198 12.274074074074074 ['139', '144', '138', '133', '142', '141', '137', '146', '131', '136', '122', '140', '129', '119', '149'] 613.7037037037034
199 12.274074074074074 ['139', '144', '138', '133', '142', '141', '137', '146', '131', '136', '122', '140', '129', '119', '149'] 613.7037037037034
