0 13.36111111111111 ['38', '23', '21', '32'] 711.9722222222223
1 13.36111111111111 ['38', '23', '21', '32'] 696.9999999999998
2 13.305555555555555 ['21', '23', '8', '40'] 686.0555555555558
3 13.027777777777779 ['23', '21', '40', '19'] 674.8055555555549
4 13.027777777777779 ['23', '21', '40', '19'] 667.9722222222224
5 12.666666666666666 ['23', '32', '19', '21'] 662.8888888888886
6 12.63888888888889 ['23', '19', '28', '32'] 655.8888888888889
7 12.63888888888889 ['23', '19', '28', '32'] 651.4166666666662
8 12.63888888888889 ['23', '19', '28', '32'] 646.7500000000005
9 12.63888888888889 ['23', '19', '28', '32'] 640.9166666666667
10 12.61111111111111 ['19', '23', '28', '21'] 634.4444444444446
11 12.61111111111111 ['19', '23', '28', '21'] 632.6666666666666
12 12.61111111111111 ['19', '23', '28', '21'] 631.9722222222223
13 12.61111111111111 ['19', '23', '28', '21'] 631.2222222222227
14 12.61111111111111 ['19', '23', '28', '21'] 630.6111111111105
15 12.61111111111111 ['19', '23', '28', '21'] 630.5555555555549
16 12.61111111111111 ['19', '23', '28', '21'] 630.5555555555549
17 12.61111111111111 ['19', '23', '28', '21'] 630.5555555555549
18 12.61111111111111 ['19', '23', '28', '21'] 630.5555555555549
19 12.61111111111111 ['19', '23', '28', '21'] 630.5555555555549
20 12.61111111111111 ['19', '23', '28', '21'] 630.5555555555549
21 12.61111111111111 ['19', '23', '28', '21'] 630.5555555555549
22 12.61111111111111 ['19', '23', '28', '21'] 630.5555555555549
23 12.61111111111111 ['19', '23', '28', '21'] 630.5555555555549
24 12.61111111111111 ['19', '23', '28', '21'] 630.5555555555549
25 12.61111111111111 ['19', '23', '28', '21'] 630.5555555555549
26 12.61111111111111 ['19', '23', '28', '21'] 630.5555555555549
27 12.61111111111111 ['19', '23', '28', '21'] 630.5555555555549
28 12.61111111111111 ['19', '23', '28', '21'] 630.5555555555549
29 12.61111111111111 ['19', '23', '28', '21'] 630.5555555555549
30 12.61111111111111 ['19', '23', '28', '21'] 630.5555555555549
31 12.61111111111111 ['19', '23', '28', '21'] 630.5555555555549
32 12.61111111111111 ['19', '23', '28', '21'] 630.5555555555549
33 12.61111111111111 ['19', '23', '28', '21'] 630.5555555555549
34 12.61111111111111 ['19', '23', '28', '21'] 630.5555555555549
35 12.61111111111111 ['19', '23', '28', '21'] 630.5555555555549
36 12.61111111111111 ['19', '23', '28', '21'] 630.5555555555549
37 12.61111111111111 ['19', '23', '28', '21'] 630.5555555555549
38 12.61111111111111 ['19', '23', '28', '21'] 630.5555555555549
39 12.61111111111111 ['19', '23', '28', '21'] 630.5555555555549
40 12.61111111111111 ['19', '23', '28', '21'] 630.5555555555549
41 12.61111111111111 ['19', '23', '28', '21'] 630.5555555555549
42 12.61111111111111 ['19', '23', '28', '21'] 630.5555555555549
43 12.61111111111111 ['19', '23', '28', '21'] 630.5555555555549
44 12.61111111111111 ['19', '23', '28', '21'] 630.5555555555549
45 12.61111111111111 ['19', '23', '28', '21'] 630.5555555555549
46 12.61111111111111 ['19', '23', '28', '21'] 630.5555555555549
47 12.61111111111111 ['19', '23', '28', '21'] 630.5555555555549
48 12.61111111111111 ['19', '23', '28', '21'] 630.5555555555549
49 12.61111111111111 ['19', '23', '28', '21'] 630.5555555555549
50 12.61111111111111 ['19', '23', '28', '21'] 630.5555555555549
51 12.61111111111111 ['19', '23', '28', '21'] 630.5555555555549
52 12.61111111111111 ['19', '23', '28', '21'] 630.5555555555549
53 12.61111111111111 ['19', '23', '28', '21'] 630.5555555555549
54 12.61111111111111 ['19', '23', '28', '21'] 630.5555555555549
55 12.61111111111111 ['19', '23', '28', '21'] 630.5555555555549
56 12.61111111111111 ['19', '23', '28', '21'] 630.5555555555549
57 12.61111111111111 ['19', '23', '28', '21'] 630.5555555555549
58 12.61111111111111 ['19', '23', '28', '21'] 630.5555555555549
59 12.61111111111111 ['19', '23', '28', '21'] 630.5555555555549
60 12.61111111111111 ['19', '23', '28', '21'] 630.5555555555549
61 12.61111111111111 ['19', '23', '28', '21'] 630.5555555555549
62 12.61111111111111 ['19', '23', '28', '21'] 630.5555555555549
63 12.61111111111111 ['19', '23', '28', '21'] 630.5555555555549
64 12.61111111111111 ['19', '23', '28', '21'] 630.5555555555549
65 12.61111111111111 ['19', '23', '28', '21'] 630.5555555555549
66 12.61111111111111 ['19', '23', '28', '21'] 630.5555555555549
67 12.61111111111111 ['19', '23', '28', '21'] 630.5555555555549
68 12.61111111111111 ['19', '23', '28', '21'] 630.5555555555549
69 12.61111111111111 ['19', '23', '28', '21'] 630.5555555555549
70 12.61111111111111 ['19', '23', '28', '21'] 630.5555555555549
71 12.61111111111111 ['19', '23', '28', '21'] 630.5555555555549
72 12.61111111111111 ['19', '23', '28', '21'] 630.5555555555549
73 12.61111111111111 ['19', '23', '28', '21'] 630.5555555555549
74 12.61111111111111 ['19', '23', '28', '21'] 630.5555555555549
75 12.61111111111111 ['19', '23', '28', '21'] 630.5555555555549
76 12.61111111111111 ['19', '23', '28', '21'] 630.5555555555549
77 12.61111111111111 ['19', '23', '28', '21'] 630.5555555555549
78 12.61111111111111 ['19', '23', '28', '21'] 630.5555555555549
79 12.61111111111111 ['19', '23', '28', '21'] 630.5555555555549
80 12.61111111111111 ['19', '23', '28', '21'] 630.5555555555549
81 12.61111111111111 ['19', '23', '28', '21'] 630.5555555555549
82 12.61111111111111 ['19', '23', '28', '21'] 630.5555555555549
83 12.61111111111111 ['19', '23', '28', '21'] 630.5555555555549
84 12.61111111111111 ['19', '23', '28', '21'] 630.5555555555549
85 12.61111111111111 ['19', '23', '28', '21'] 630.5555555555549
86 12.61111111111111 ['19', '23', '28', '21'] 630.5555555555549
87 12.61111111111111 ['19', '23', '28', '21'] 630.5555555555549
88 12.61111111111111 ['19', '23', '28', '21'] 630.5555555555549
89 12.61111111111111 ['19', '23', '28', '21'] 630.5555555555549
90 12.61111111111111 ['19', '23', '28', '21'] 630.5555555555549
91 12.61111111111111 ['19', '23', '28', '21'] 630.5555555555549
92 12.61111111111111 ['19', '23', '28', '21'] 630.5555555555549
93 12.61111111111111 ['19', '23', '28', '21'] 630.5555555555549
94 12.61111111111111 ['19', '23', '28', '21'] 630.5555555555549
95 12.61111111111111 ['19', '23', '28', '21'] 630.5555555555549
96 12.61111111111111 ['19', '23', '28', '21'] 630.5555555555549
97 12.61111111111111 ['19', '23', '28', '21'] 630.5555555555549
98 12.61111111111111 ['19', '23', '28', '21'] 630.5555555555549
99 12.61111111111111 ['19', '23', '28', '21'] 630.5555555555549
100 12.61111111111111 ['19', '23', '28', '21'] 630.5555555555549
101 12.61111111111111 ['19', '23', '28', '21'] 630.5555555555549
102 12.61111111111111 ['19', '23', '28', '21'] 630.5555555555549
103 12.61111111111111 ['19', '23', '28', '21'] 630.5555555555549
104 12.61111111111111 ['19', '23', '28', '21'] 630.5555555555549
105 12.61111111111111 ['19', '23', '28', '21'] 630.5555555555549
106 12.61111111111111 ['19', '23', '28', '21'] 630.5555555555549
107 12.61111111111111 ['19', '23', '28', '21'] 630.5555555555549
108 12.61111111111111 ['19', '23', '28', '21'] 630.5555555555549
109 12.61111111111111 ['19', '23', '28', '21'] 630.5555555555549
110 12.61111111111111 ['19', '23', '28', '21'] 630.5555555555549
111 12.61111111111111 ['19', '23', '28', '21'] 630.5555555555549
112 12.61111111111111 ['19', '23', '28', '21'] 630.5555555555549
113 12.61111111111111 ['19', '23', '28', '21'] 630.5555555555549
114 12.61111111111111 ['19', '23', '28', '21'] 630.5555555555549
115 12.61111111111111 ['19', '23', '28', '21'] 630.5555555555549
116 12.61111111111111 ['19', '23', '28', '21'] 630.5555555555549
117 12.61111111111111 ['19', '23', '28', '21'] 630.5555555555549
118 12.61111111111111 ['19', '23', '28', '21'] 630.5555555555549
119 12.61111111111111 ['19', '23', '28', '21'] 630.5555555555549
120 12.61111111111111 ['19', '23', '28', '21'] 630.5555555555549
121 12.61111111111111 ['19', '23', '28', '21'] 630.5555555555549
122 12.61111111111111 ['19', '23', '28', '21'] 630.5555555555549
123 12.61111111111111 ['19', '23', '28', '21'] 630.5555555555549
124 12.61111111111111 ['19', '23', '28', '21'] 630.5555555555549
125 12.61111111111111 ['19', '23', '28', '21'] 630.5555555555549
126 12.61111111111111 ['19', '23', '28', '21'] 630.5555555555549
127 12.61111111111111 ['19', '23', '28', '21'] 630.5555555555549
128 12.61111111111111 ['19', '23', '28', '21'] 630.5555555555549
129 12.61111111111111 ['19', '23', '28', '21'] 630.5555555555549
130 12.61111111111111 ['19', '23', '28', '21'] 630.5555555555549
131 12.61111111111111 ['19', '23', '28', '21'] 630.5555555555549
132 12.61111111111111 ['19', '23', '28', '21'] 630.5555555555549
133 12.61111111111111 ['19', '23', '28', '21'] 630.5555555555549
134 12.61111111111111 ['19', '23', '28', '21'] 630.5555555555549
135 12.61111111111111 ['19', '23', '28', '21'] 630.5555555555549
136 12.61111111111111 ['19', '23', '28', '21'] 630.5555555555549
137 12.61111111111111 ['19', '23', '28', '21'] 630.5555555555549
138 12.61111111111111 ['19', '23', '28', '21'] 630.5555555555549
139 12.61111111111111 ['19', '23', '28', '21'] 630.5555555555549
140 12.61111111111111 ['19', '23', '28', '21'] 630.5555555555549
141 12.61111111111111 ['19', '23', '28', '21'] 630.5555555555549
142 12.61111111111111 ['19', '23', '28', '21'] 630.5555555555549
143 12.61111111111111 ['19', '23', '28', '21'] 630.5555555555549
144 12.61111111111111 ['19', '23', '28', '21'] 630.5555555555549
145 12.61111111111111 ['19', '23', '28', '21'] 630.5555555555549
146 12.61111111111111 ['19', '23', '28', '21'] 630.5555555555549
147 12.61111111111111 ['19', '23', '28', '21'] 630.5555555555549
148 12.61111111111111 ['19', '23', '28', '21'] 630.5555555555549
149 12.61111111111111 ['19', '23', '28', '21'] 630.5555555555549
150 12.61111111111111 ['19', '23', '28', '21'] 630.5555555555549
151 12.61111111111111 ['19', '23', '28', '21'] 630.5555555555549
152 12.61111111111111 ['19', '23', '28', '21'] 630.5555555555549
153 12.61111111111111 ['19', '23', '28', '21'] 630.5555555555549
154 12.61111111111111 ['19', '23', '28', '21'] 630.5555555555549
155 12.61111111111111 ['19', '23', '28', '21'] 630.5555555555549
156 12.61111111111111 ['19', '23', '28', '21'] 630.5555555555549
157 12.61111111111111 ['19', '23', '28', '21'] 630.5555555555549
158 12.61111111111111 ['19', '23', '28', '21'] 630.5555555555549
159 12.61111111111111 ['19', '23', '28', '21'] 630.5555555555549
160 12.61111111111111 ['19', '23', '28', '21'] 630.5555555555549
161 12.61111111111111 ['19', '23', '28', '21'] 630.5555555555549
162 12.61111111111111 ['19', '23', '28', '21'] 630.5555555555549
163 12.61111111111111 ['19', '23', '28', '21'] 630.5555555555549
164 12.61111111111111 ['19', '23', '28', '21'] 630.5555555555549
165 12.61111111111111 ['19', '23', '28', '21'] 630.5555555555549
166 12.61111111111111 ['19', '23', '28', '21'] 630.5555555555549
167 12.61111111111111 ['19', '23', '28', '21'] 630.5555555555549
168 12.61111111111111 ['19', '23', '28', '21'] 630.5555555555549
169 12.61111111111111 ['19', '23', '28', '21'] 630.5555555555549
170 12.61111111111111 ['19', '23', '28', '21'] 630.5555555555549
171 12.61111111111111 ['19', '23', '28', '21'] 630.5555555555549
172 12.61111111111111 ['19', '23', '28', '21'] 630.5555555555549
173 12.61111111111111 ['19', '23', '28', '21'] 630.5555555555549
174 12.61111111111111 ['19', '23', '28', '21'] 630.5555555555549
175 12.61111111111111 ['19', '23', '28', '21'] 630.5555555555549
176 12.61111111111111 ['19', '23', '28', '21'] 630.5555555555549
177 12.61111111111111 ['19', '23', '28', '21'] 630.5555555555549
178 12.61111111111111 ['19', '23', '28', '21'] 630.5555555555549
179 12.61111111111111 ['19', '23', '28', '21'] 630.5555555555549
180 12.61111111111111 ['19', '23', '28', '21'] 630.5555555555549
181 12.61111111111111 ['19', '23', '28', '21'] 630.5555555555549
182 12.61111111111111 ['19', '23', '28', '21'] 630.5555555555549
183 12.61111111111111 ['19', '23', '28', '21'] 630.5555555555549
184 12.61111111111111 ['19', '23', '28', '21'] 630.5555555555549
185 12.61111111111111 ['19', '23', '28', '21'] 630.5555555555549
186 12.61111111111111 ['19', '23', '28', '21'] 630.5555555555549
187 12.61111111111111 ['19', '23', '28', '21'] 630.5555555555549
188 12.61111111111111 ['19', '23', '28', '21'] 630.5555555555549
189 12.61111111111111 ['19', '23', '28', '21'] 630.5555555555549
190 12.61111111111111 ['19', '23', '28', '21'] 630.5555555555549
191 12.61111111111111 ['19', '23', '28', '21'] 630.5555555555549
192 12.61111111111111 ['19', '23', '28', '21'] 630.5555555555549
193 12.61111111111111 ['19', '23', '28', '21'] 630.5555555555549
194 12.61111111111111 ['19', '23', '28', '21'] 630.5555555555549
195 12.61111111111111 ['19', '23', '28', '21'] 630.5555555555549
196 12.61111111111111 ['19', '23', '28', '21'] 630.5555555555549
197 12.61111111111111 ['19', '23', '28', '21'] 630.5555555555549
198 12.61111111111111 ['19', '23', '28', '21'] 630.5555555555549
199 12.61111111111111 ['19', '23', '28', '21'] 630.5555555555549
