0 5.524567901234569 ['142', '133', '88', '32', '40', '81', '96', '143', '22', '74', '149', '146', '122', '107', '112'] 279.6530864197531
1 5.504074074074075 ['142', '111', '43', '112', '96', '146', '20', '89', '114', '107', '17', '28', '140', '133', '60'] 278.5911111111112
2 5.487160493827163 ['133', '81', '146', '78', '126', '98', '142', '61', '96', '92', '45', '63', '115', '58', '139'] 277.77641975308643
3 5.487160493827163 ['133', '81', '146', '78', '126', '98', '142', '61', '96', '92', '45', '63', '115', '58', '139'] 276.8766666666667
4 5.441851851851853 ['96', '142', '112', '146', '102', '98', '111', '94', '141', '109', '49', '150', '114', '145', '28'] 275.90938271604944
5 5.441851851851853 ['96', '142', '112', '146', '102', '98', '111', '94', '141', '109', '49', '150', '114', '145', '28'] 275.01481481481477
6 5.408271604938275 ['115', '78', '58', '142', '146', '45', '133', '81', '126', '98', '141', '127', '145', '139', '147'] 274.0922222222223
7 5.408271604938275 ['115', '78', '58', '142', '146', '45', '133', '81', '126', '98', '141', '127', '145', '139', '147'] 273.29308641975314
8 5.3987654320987675 ['150', '122', '32', '109', '25', '96', '65', '142', '146', '147', '143', '141', '107', '119', '112'] 272.56148148148145
9 5.377407407407411 ['142', '133', '96', '145', '111', '88', '94', '112', '72', '81', '150', '134', '109', '143', '138'] 271.73987654321
10 5.345555555555555 ['112', '94', '111', '126', '150', '146', '128', '142', '109', '114', '139', '63', '133', '96', '98'] 270.8251851851853
11 5.32777777777778 ['112', '142', '109', '96', '133', '146', '111', '139', '150', '141', '126', '143', '147', '94', '98'] 269.9054320987656
12 5.32777777777778 ['112', '142', '109', '96', '133', '146', '111', '139', '150', '141', '126', '143', '147', '94', '98'] 269.23432098765437
13 5.32777777777778 ['112', '142', '109', '96', '133', '146', '111', '139', '150', '141', '126', '143', '147', '94', '98'] 268.3562962962964
14 5.319135802469136 ['109', '111', '142', '143', '141', '112', '122', '96', '146', '133', '70', '150', '119', '98', '88'] 267.73444444444453
15 5.297530864197531 ['140', '128', '133', '94', '111', '139', '114', '98', '150', '146', '109', '142', '112', '126', '122'] 267.01728395061747
16 5.297530864197531 ['140', '128', '133', '94', '111', '139', '114', '98', '150', '146', '109', '142', '112', '126', '122'] 266.5345679012347
17 5.283580246913583 ['133', '150', '112', '94', '142', '126', '109', '146', '96', '139', '122', '143', '141', '98', '114'] 265.9185185185187
18 5.283580246913583 ['133', '150', '112', '94', '142', '126', '109', '146', '96', '139', '122', '143', '141', '98', '114'] 265.4006172839506
19 5.283580246913583 ['133', '150', '112', '94', '142', '126', '109', '146', '96', '139', '122', '143', '141', '98', '114'] 264.99185185185195
20 5.25987654320988 ['96', '111', '94', '146', '142', '150', '122', '126', '98', '147', '109', '112', '139', '132', '114'] 264.647777777778
21 5.255308641975312 ['94', '98', '142', '122', '111', '150', '96', '112', '109', '126', '146', '139', '147', '140', '132'] 264.3853086419755
22 5.255308641975312 ['94', '98', '142', '122', '111', '150', '96', '112', '109', '126', '146', '139', '147', '140', '132'] 264.1429629629631
23 5.255308641975312 ['94', '98', '142', '122', '111', '150', '96', '112', '109', '126', '146', '139', '147', '140', '132'] 263.9301234567901
24 5.255308641975312 ['94', '98', '142', '122', '111', '150', '96', '112', '109', '126', '146', '139', '147', '140', '132'] 263.76666666666677
25 5.249382716049387 ['112', '109', '139', '140', '98', '96', '122', '111', '150', '126', '142', '146', '132', '114', '147'] 263.51790123456817
26 5.249382716049387 ['112', '109', '139', '140', '98', '96', '122', '111', '150', '126', '142', '146', '132', '114', '147'] 263.39592592592624
27 5.230493827160497 ['94', '126', '146', '114', '109', '140', '150', '142', '112', '111', '98', '122', '139', '125', '132'] 263.1411111111114
28 5.230493827160497 ['94', '126', '146', '114', '109', '140', '150', '142', '112', '111', '98', '122', '139', '125', '132'] 262.71123456790144
29 5.230493827160497 ['94', '126', '146', '114', '109', '140', '150', '142', '112', '111', '98', '122', '139', '125', '132'] 262.3011111111113
30 5.225679012345681 ['126', '109', '140', '94', '111', '98', '122', '142', '139', '146', '132', '150', '112', '147', '125'] 261.80543209876566
31 5.225679012345681 ['126', '109', '140', '94', '111', '98', '122', '142', '139', '146', '132', '150', '112', '147', '125'] 261.5054320987657
32 5.225679012345681 ['126', '109', '140', '94', '111', '98', '122', '142', '139', '146', '132', '150', '112', '147', '125'] 261.4765432098768
33 5.225679012345681 ['126', '109', '140', '94', '111', '98', '122', '142', '139', '146', '132', '150', '112', '147', '125'] 261.4235802469138
34 5.225679012345681 ['126', '109', '140', '94', '111', '98', '122', '142', '139', '146', '132', '150', '112', '147', '125'] 261.34172839506203
35 5.225679012345681 ['126', '109', '140', '94', '111', '98', '122', '142', '139', '146', '132', '150', '112', '147', '125'] 261.2839506172843
36 5.225679012345681 ['126', '109', '140', '94', '111', '98', '122', '142', '139', '146', '132', '150', '112', '147', '125'] 261.2839506172843
37 5.225679012345681 ['126', '109', '140', '94', '111', '98', '122', '142', '139', '146', '132', '150', '112', '147', '125'] 261.2839506172843
38 5.225679012345681 ['126', '109', '140', '94', '111', '98', '122', '142', '139', '146', '132', '150', '112', '147', '125'] 261.2839506172843
39 5.225679012345681 ['126', '109', '140', '94', '111', '98', '122', '142', '139', '146', '132', '150', '112', '147', '125'] 261.2839506172843
40 5.225679012345681 ['126', '109', '140', '94', '111', '98', '122', '142', '139', '146', '132', '150', '112', '147', '125'] 261.2839506172843
41 5.225679012345681 ['126', '109', '140', '94', '111', '98', '122', '142', '139', '146', '132', '150', '112', '147', '125'] 261.2839506172843
42 5.225679012345681 ['126', '109', '140', '94', '111', '98', '122', '142', '139', '146', '132', '150', '112', '147', '125'] 261.2839506172843
43 5.225679012345681 ['126', '109', '140', '94', '111', '98', '122', '142', '139', '146', '132', '150', '112', '147', '125'] 261.2839506172843
44 5.225679012345681 ['126', '109', '140', '94', '111', '98', '122', '142', '139', '146', '132', '150', '112', '147', '125'] 261.2839506172843
45 5.225679012345681 ['126', '109', '140', '94', '111', '98', '122', '142', '139', '146', '132', '150', '112', '147', '125'] 261.2839506172843
46 5.225679012345681 ['126', '109', '140', '94', '111', '98', '122', '142', '139', '146', '132', '150', '112', '147', '125'] 261.2839506172843
47 5.225679012345681 ['126', '109', '140', '94', '111', '98', '122', '142', '139', '146', '132', '150', '112', '147', '125'] 261.2839506172843
48 5.225679012345681 ['126', '109', '140', '94', '111', '98', '122', '142', '139', '146', '132', '150', '112', '147', '125'] 261.2839506172843
49 5.225679012345681 ['126', '109', '140', '94', '111', '98', '122', '142', '139', '146', '132', '150', '112', '147', '125'] 261.2839506172843
50 5.225679012345681 ['126', '109', '140', '94', '111', '98', '122', '142', '139', '146', '132', '150', '112', '147', '125'] 261.2839506172843
51 5.225679012345681 ['126', '109', '140', '94', '111', '98', '122', '142', '139', '146', '132', '150', '112', '147', '125'] 261.2839506172843
52 5.225679012345681 ['126', '109', '140', '94', '111', '98', '122', '142', '139', '146', '132', '150', '112', '147', '125'] 261.2839506172843
53 5.225679012345681 ['126', '109', '140', '94', '111', '98', '122', '142', '139', '146', '132', '150', '112', '147', '125'] 261.2839506172843
54 5.225679012345681 ['126', '109', '140', '94', '111', '98', '122', '142', '139', '146', '132', '150', '112', '147', '125'] 261.2839506172843
55 5.225679012345681 ['126', '109', '140', '94', '111', '98', '122', '142', '139', '146', '132', '150', '112', '147', '125'] 261.2839506172843
56 5.225679012345681 ['126', '109', '140', '94', '111', '98', '122', '142', '139', '146', '132', '150', '112', '147', '125'] 261.2839506172843
57 5.225679012345681 ['126', '109', '140', '94', '111', '98', '122', '142', '139', '146', '132', '150', '112', '147', '125'] 261.2839506172843
58 5.225679012345681 ['126', '109', '140', '94', '111', '98', '122', '142', '139', '146', '132', '150', '112', '147', '125'] 261.2839506172843
59 5.225679012345681 ['126', '109', '140', '94', '111', '98', '122', '142', '139', '146', '132', '150', '112', '147', '125'] 261.2839506172843
60 5.225679012345681 ['126', '109', '140', '94', '111', '98', '122', '142', '139', '146', '132', '150', '112', '147', '125'] 261.2839506172843
61 5.225679012345681 ['126', '109', '140', '94', '111', '98', '122', '142', '139', '146', '132', '150', '112', '147', '125'] 261.2839506172843
62 5.225679012345681 ['126', '109', '140', '94', '111', '98', '122', '142', '139', '146', '132', '150', '112', '147', '125'] 261.2839506172843
63 5.225679012345681 ['126', '109', '140', '94', '111', '98', '122', '142', '139', '146', '132', '150', '112', '147', '125'] 261.2839506172843
64 5.225679012345681 ['126', '109', '140', '94', '111', '98', '122', '142', '139', '146', '132', '150', '112', '147', '125'] 261.2839506172843
65 5.225679012345681 ['126', '109', '140', '94', '111', '98', '122', '142', '139', '146', '132', '150', '112', '147', '125'] 261.2839506172843
66 5.225679012345681 ['126', '109', '140', '94', '111', '98', '122', '142', '139', '146', '132', '150', '112', '147', '125'] 261.2839506172843
67 5.225679012345681 ['126', '109', '140', '94', '111', '98', '122', '142', '139', '146', '132', '150', '112', '147', '125'] 261.2839506172843
68 5.225679012345681 ['126', '109', '140', '94', '111', '98', '122', '142', '139', '146', '132', '150', '112', '147', '125'] 261.2839506172843
69 5.225679012345681 ['126', '109', '140', '94', '111', '98', '122', '142', '139', '146', '132', '150', '112', '147', '125'] 261.2839506172843
70 5.225679012345681 ['126', '109', '140', '94', '111', '98', '122', '142', '139', '146', '132', '150', '112', '147', '125'] 261.2839506172843
71 5.225679012345681 ['126', '109', '140', '94', '111', '98', '122', '142', '139', '146', '132', '150', '112', '147', '125'] 261.2839506172843
72 5.225679012345681 ['126', '109', '140', '94', '111', '98', '122', '142', '139', '146', '132', '150', '112', '147', '125'] 261.2839506172843
73 5.225679012345681 ['126', '109', '140', '94', '111', '98', '122', '142', '139', '146', '132', '150', '112', '147', '125'] 261.2839506172843
74 5.225679012345681 ['126', '109', '140', '94', '111', '98', '122', '142', '139', '146', '132', '150', '112', '147', '125'] 261.2839506172843
75 5.225679012345681 ['126', '109', '140', '94', '111', '98', '122', '142', '139', '146', '132', '150', '112', '147', '125'] 261.2839506172843
76 5.225679012345681 ['126', '109', '140', '94', '111', '98', '122', '142', '139', '146', '132', '150', '112', '147', '125'] 261.2839506172843
77 5.225679012345681 ['126', '109', '140', '94', '111', '98', '122', '142', '139', '146', '132', '150', '112', '147', '125'] 261.2839506172843
78 5.225679012345681 ['126', '109', '140', '94', '111', '98', '122', '142', '139', '146', '132', '150', '112', '147', '125'] 261.2839506172843
79 5.225679012345681 ['126', '109', '140', '94', '111', '98', '122', '142', '139', '146', '132', '150', '112', '147', '125'] 261.2839506172843
80 5.225679012345681 ['126', '109', '140', '94', '111', '98', '122', '142', '139', '146', '132', '150', '112', '147', '125'] 261.2839506172843
81 5.225679012345681 ['126', '109', '140', '94', '111', '98', '122', '142', '139', '146', '132', '150', '112', '147', '125'] 261.2839506172843
82 5.225679012345681 ['126', '109', '140', '94', '111', '98', '122', '142', '139', '146', '132', '150', '112', '147', '125'] 261.2839506172843
83 5.225679012345681 ['126', '109', '140', '94', '111', '98', '122', '142', '139', '146', '132', '150', '112', '147', '125'] 261.2839506172843
84 5.225679012345681 ['126', '109', '140', '94', '111', '98', '122', '142', '139', '146', '132', '150', '112', '147', '125'] 261.2839506172843
85 5.225679012345681 ['126', '109', '140', '94', '111', '98', '122', '142', '139', '146', '132', '150', '112', '147', '125'] 261.2839506172843
86 5.225679012345681 ['126', '109', '140', '94', '111', '98', '122', '142', '139', '146', '132', '150', '112', '147', '125'] 261.2839506172843
87 5.225679012345681 ['126', '109', '140', '94', '111', '98', '122', '142', '139', '146', '132', '150', '112', '147', '125'] 261.2839506172843
88 5.225679012345681 ['126', '109', '140', '94', '111', '98', '122', '142', '139', '146', '132', '150', '112', '147', '125'] 261.2839506172843
89 5.225679012345681 ['126', '109', '140', '94', '111', '98', '122', '142', '139', '146', '132', '150', '112', '147', '125'] 261.2839506172843
90 5.225679012345681 ['126', '109', '140', '94', '111', '98', '122', '142', '139', '146', '132', '150', '112', '147', '125'] 261.2839506172843
91 5.225679012345681 ['126', '109', '140', '94', '111', '98', '122', '142', '139', '146', '132', '150', '112', '147', '125'] 261.2839506172843
92 5.225679012345681 ['126', '109', '140', '94', '111', '98', '122', '142', '139', '146', '132', '150', '112', '147', '125'] 261.2839506172843
93 5.225679012345681 ['126', '109', '140', '94', '111', '98', '122', '142', '139', '146', '132', '150', '112', '147', '125'] 261.2839506172843
94 5.225679012345681 ['126', '109', '140', '94', '111', '98', '122', '142', '139', '146', '132', '150', '112', '147', '125'] 261.2839506172843
95 5.225679012345681 ['126', '109', '140', '94', '111', '98', '122', '142', '139', '146', '132', '150', '112', '147', '125'] 261.2839506172843
96 5.225679012345681 ['126', '109', '140', '94', '111', '98', '122', '142', '139', '146', '132', '150', '112', '147', '125'] 261.2839506172843
97 5.225679012345681 ['126', '109', '140', '94', '111', '98', '122', '142', '139', '146', '132', '150', '112', '147', '125'] 261.2839506172843
98 5.225679012345681 ['126', '109', '140', '94', '111', '98', '122', '142', '139', '146', '132', '150', '112', '147', '125'] 261.2839506172843
99 5.225679012345681 ['126', '109', '140', '94', '111', '98', '122', '142', '139', '146', '132', '150', '112', '147', '125'] 261.2839506172843
100 5.225679012345681 ['126', '109', '140', '94', '111', '98', '122', '142', '139', '146', '132', '150', '112', '147', '125'] 261.2839506172843
101 5.225679012345681 ['126', '109', '140', '94', '111', '98', '122', '142', '139', '146', '132', '150', '112', '147', '125'] 261.2839506172843
102 5.225679012345681 ['126', '109', '140', '94', '111', '98', '122', '142', '139', '146', '132', '150', '112', '147', '125'] 261.2839506172843
103 5.225679012345681 ['126', '109', '140', '94', '111', '98', '122', '142', '139', '146', '132', '150', '112', '147', '125'] 261.2839506172843
104 5.225679012345681 ['126', '109', '140', '94', '111', '98', '122', '142', '139', '146', '132', '150', '112', '147', '125'] 261.2839506172843
105 5.225679012345681 ['126', '109', '140', '94', '111', '98', '122', '142', '139', '146', '132', '150', '112', '147', '125'] 261.2839506172843
106 5.225679012345681 ['126', '109', '140', '94', '111', '98', '122', '142', '139', '146', '132', '150', '112', '147', '125'] 261.2839506172843
107 5.225679012345681 ['126', '109', '140', '94', '111', '98', '122', '142', '139', '146', '132', '150', '112', '147', '125'] 261.2839506172843
108 5.225679012345681 ['126', '109', '140', '94', '111', '98', '122', '142', '139', '146', '132', '150', '112', '147', '125'] 261.2839506172843
109 5.225679012345681 ['126', '109', '140', '94', '111', '98', '122', '142', '139', '146', '132', '150', '112', '147', '125'] 261.2839506172843
110 5.225679012345681 ['126', '109', '140', '94', '111', '98', '122', '142', '139', '146', '132', '150', '112', '147', '125'] 261.2839506172843
111 5.225679012345681 ['126', '109', '140', '94', '111', '98', '122', '142', '139', '146', '132', '150', '112', '147', '125'] 261.2839506172843
112 5.225679012345681 ['126', '109', '140', '94', '111', '98', '122', '142', '139', '146', '132', '150', '112', '147', '125'] 261.2839506172843
113 5.225679012345681 ['126', '109', '140', '94', '111', '98', '122', '142', '139', '146', '132', '150', '112', '147', '125'] 261.2839506172843
114 5.225679012345681 ['126', '109', '140', '94', '111', '98', '122', '142', '139', '146', '132', '150', '112', '147', '125'] 261.2839506172843
115 5.225679012345681 ['126', '109', '140', '94', '111', '98', '122', '142', '139', '146', '132', '150', '112', '147', '125'] 261.2839506172843
116 5.225679012345681 ['126', '109', '140', '94', '111', '98', '122', '142', '139', '146', '132', '150', '112', '147', '125'] 261.2839506172843
117 5.225679012345681 ['126', '109', '140', '94', '111', '98', '122', '142', '139', '146', '132', '150', '112', '147', '125'] 261.2839506172843
118 5.225679012345681 ['126', '109', '140', '94', '111', '98', '122', '142', '139', '146', '132', '150', '112', '147', '125'] 261.2839506172843
119 5.225679012345681 ['126', '109', '140', '94', '111', '98', '122', '142', '139', '146', '132', '150', '112', '147', '125'] 261.2839506172843
120 5.225679012345681 ['126', '109', '140', '94', '111', '98', '122', '142', '139', '146', '132', '150', '112', '147', '125'] 261.2839506172843
121 5.225679012345681 ['126', '109', '140', '94', '111', '98', '122', '142', '139', '146', '132', '150', '112', '147', '125'] 261.2839506172843
122 5.225679012345681 ['126', '109', '140', '94', '111', '98', '122', '142', '139', '146', '132', '150', '112', '147', '125'] 261.2839506172843
123 5.225679012345681 ['126', '109', '140', '94', '111', '98', '122', '142', '139', '146', '132', '150', '112', '147', '125'] 261.2839506172843
124 5.225679012345681 ['126', '109', '140', '94', '111', '98', '122', '142', '139', '146', '132', '150', '112', '147', '125'] 261.2839506172843
125 5.225679012345681 ['126', '109', '140', '94', '111', '98', '122', '142', '139', '146', '132', '150', '112', '147', '125'] 261.2839506172843
126 5.225679012345681 ['126', '109', '140', '94', '111', '98', '122', '142', '139', '146', '132', '150', '112', '147', '125'] 261.2839506172843
127 5.225679012345681 ['126', '109', '140', '94', '111', '98', '122', '142', '139', '146', '132', '150', '112', '147', '125'] 261.2839506172843
128 5.225679012345681 ['126', '109', '140', '94', '111', '98', '122', '142', '139', '146', '132', '150', '112', '147', '125'] 261.2839506172843
129 5.225679012345681 ['126', '109', '140', '94', '111', '98', '122', '142', '139', '146', '132', '150', '112', '147', '125'] 261.2839506172843
130 5.225679012345681 ['126', '109', '140', '94', '111', '98', '122', '142', '139', '146', '132', '150', '112', '147', '125'] 261.2839506172843
131 5.225679012345681 ['126', '109', '140', '94', '111', '98', '122', '142', '139', '146', '132', '150', '112', '147', '125'] 261.2839506172843
132 5.225679012345681 ['126', '109', '140', '94', '111', '98', '122', '142', '139', '146', '132', '150', '112', '147', '125'] 261.2839506172843
133 5.225679012345681 ['126', '109', '140', '94', '111', '98', '122', '142', '139', '146', '132', '150', '112', '147', '125'] 261.2839506172843
134 5.225679012345681 ['126', '109', '140', '94', '111', '98', '122', '142', '139', '146', '132', '150', '112', '147', '125'] 261.2839506172843
135 5.225679012345681 ['126', '109', '140', '94', '111', '98', '122', '142', '139', '146', '132', '150', '112', '147', '125'] 261.2839506172843
136 5.225679012345681 ['126', '109', '140', '94', '111', '98', '122', '142', '139', '146', '132', '150', '112', '147', '125'] 261.2839506172843
137 5.225679012345681 ['126', '109', '140', '94', '111', '98', '122', '142', '139', '146', '132', '150', '112', '147', '125'] 261.2839506172843
138 5.225679012345681 ['126', '109', '140', '94', '111', '98', '122', '142', '139', '146', '132', '150', '112', '147', '125'] 261.2839506172843
139 5.225679012345681 ['126', '109', '140', '94', '111', '98', '122', '142', '139', '146', '132', '150', '112', '147', '125'] 261.2839506172843
140 5.225679012345681 ['126', '109', '140', '94', '111', '98', '122', '142', '139', '146', '132', '150', '112', '147', '125'] 261.2839506172843
141 5.225679012345681 ['126', '109', '140', '94', '111', '98', '122', '142', '139', '146', '132', '150', '112', '147', '125'] 261.2839506172843
142 5.225679012345681 ['126', '109', '140', '94', '111', '98', '122', '142', '139', '146', '132', '150', '112', '147', '125'] 261.2839506172843
143 5.225679012345681 ['126', '109', '140', '94', '111', '98', '122', '142', '139', '146', '132', '150', '112', '147', '125'] 261.2839506172843
144 5.225679012345681 ['126', '109', '140', '94', '111', '98', '122', '142', '139', '146', '132', '150', '112', '147', '125'] 261.2839506172843
145 5.225679012345681 ['126', '109', '140', '94', '111', '98', '122', '142', '139', '146', '132', '150', '112', '147', '125'] 261.2839506172843
146 5.225679012345681 ['126', '109', '140', '94', '111', '98', '122', '142', '139', '146', '132', '150', '112', '147', '125'] 261.2839506172843
147 5.225679012345681 ['126', '109', '140', '94', '111', '98', '122', '142', '139', '146', '132', '150', '112', '147', '125'] 261.2839506172843
148 5.225679012345681 ['126', '109', '140', '94', '111', '98', '122', '142', '139', '146', '132', '150', '112', '147', '125'] 261.2839506172843
149 5.225679012345681 ['126', '109', '140', '94', '111', '98', '122', '142', '139', '146', '132', '150', '112', '147', '125'] 261.2839506172843
150 5.225679012345681 ['126', '109', '140', '94', '111', '98', '122', '142', '139', '146', '132', '150', '112', '147', '125'] 261.2839506172843
151 5.225679012345681 ['126', '109', '140', '94', '111', '98', '122', '142', '139', '146', '132', '150', '112', '147', '125'] 261.2839506172843
152 5.225679012345681 ['126', '109', '140', '94', '111', '98', '122', '142', '139', '146', '132', '150', '112', '147', '125'] 261.2839506172843
153 5.225679012345681 ['126', '109', '140', '94', '111', '98', '122', '142', '139', '146', '132', '150', '112', '147', '125'] 261.2839506172843
154 5.225679012345681 ['126', '109', '140', '94', '111', '98', '122', '142', '139', '146', '132', '150', '112', '147', '125'] 261.2839506172843
155 5.225679012345681 ['126', '109', '140', '94', '111', '98', '122', '142', '139', '146', '132', '150', '112', '147', '125'] 261.2839506172843
156 5.225679012345681 ['126', '109', '140', '94', '111', '98', '122', '142', '139', '146', '132', '150', '112', '147', '125'] 261.2839506172843
157 5.225679012345681 ['126', '109', '140', '94', '111', '98', '122', '142', '139', '146', '132', '150', '112', '147', '125'] 261.2839506172843
158 5.225679012345681 ['126', '109', '140', '94', '111', '98', '122', '142', '139', '146', '132', '150', '112', '147', '125'] 261.2839506172843
159 5.225679012345681 ['126', '109', '140', '94', '111', '98', '122', '142', '139', '146', '132', '150', '112', '147', '125'] 261.2839506172843
160 5.225679012345681 ['126', '109', '140', '94', '111', '98', '122', '142', '139', '146', '132', '150', '112', '147', '125'] 261.2839506172843
161 5.225679012345681 ['126', '109', '140', '94', '111', '98', '122', '142', '139', '146', '132', '150', '112', '147', '125'] 261.2839506172843
162 5.225679012345681 ['126', '109', '140', '94', '111', '98', '122', '142', '139', '146', '132', '150', '112', '147', '125'] 261.2839506172843
163 5.225679012345681 ['126', '109', '140', '94', '111', '98', '122', '142', '139', '146', '132', '150', '112', '147', '125'] 261.2839506172843
164 5.225679012345681 ['126', '109', '140', '94', '111', '98', '122', '142', '139', '146', '132', '150', '112', '147', '125'] 261.2839506172843
165 5.225679012345681 ['126', '109', '140', '94', '111', '98', '122', '142', '139', '146', '132', '150', '112', '147', '125'] 261.2839506172843
166 5.225679012345681 ['126', '109', '140', '94', '111', '98', '122', '142', '139', '146', '132', '150', '112', '147', '125'] 261.2839506172843
167 5.225679012345681 ['126', '109', '140', '94', '111', '98', '122', '142', '139', '146', '132', '150', '112', '147', '125'] 261.2839506172843
168 5.225679012345681 ['126', '109', '140', '94', '111', '98', '122', '142', '139', '146', '132', '150', '112', '147', '125'] 261.2839506172843
169 5.225679012345681 ['126', '109', '140', '94', '111', '98', '122', '142', '139', '146', '132', '150', '112', '147', '125'] 261.2839506172843
170 5.225679012345681 ['126', '109', '140', '94', '111', '98', '122', '142', '139', '146', '132', '150', '112', '147', '125'] 261.2839506172843
171 5.225679012345681 ['126', '109', '140', '94', '111', '98', '122', '142', '139', '146', '132', '150', '112', '147', '125'] 261.2839506172843
172 5.225679012345681 ['126', '109', '140', '94', '111', '98', '122', '142', '139', '146', '132', '150', '112', '147', '125'] 261.2839506172843
173 5.225679012345681 ['126', '109', '140', '94', '111', '98', '122', '142', '139', '146', '132', '150', '112', '147', '125'] 261.2839506172843
174 5.225679012345681 ['126', '109', '140', '94', '111', '98', '122', '142', '139', '146', '132', '150', '112', '147', '125'] 261.2839506172843
175 5.225679012345681 ['126', '109', '140', '94', '111', '98', '122', '142', '139', '146', '132', '150', '112', '147', '125'] 261.2839506172843
176 5.225679012345681 ['126', '109', '140', '94', '111', '98', '122', '142', '139', '146', '132', '150', '112', '147', '125'] 261.2839506172843
177 5.225679012345681 ['126', '109', '140', '94', '111', '98', '122', '142', '139', '146', '132', '150', '112', '147', '125'] 261.2839506172843
178 5.225679012345681 ['126', '109', '140', '94', '111', '98', '122', '142', '139', '146', '132', '150', '112', '147', '125'] 261.2839506172843
179 5.225679012345681 ['126', '109', '140', '94', '111', '98', '122', '142', '139', '146', '132', '150', '112', '147', '125'] 261.2839506172843
180 5.225679012345681 ['126', '109', '140', '94', '111', '98', '122', '142', '139', '146', '132', '150', '112', '147', '125'] 261.2839506172843
181 5.225679012345681 ['126', '109', '140', '94', '111', '98', '122', '142', '139', '146', '132', '150', '112', '147', '125'] 261.2839506172843
182 5.225679012345681 ['126', '109', '140', '94', '111', '98', '122', '142', '139', '146', '132', '150', '112', '147', '125'] 261.2839506172843
183 5.225679012345681 ['126', '109', '140', '94', '111', '98', '122', '142', '139', '146', '132', '150', '112', '147', '125'] 261.2839506172843
184 5.225679012345681 ['126', '109', '140', '94', '111', '98', '122', '142', '139', '146', '132', '150', '112', '147', '125'] 261.2839506172843
185 5.225679012345681 ['126', '109', '140', '94', '111', '98', '122', '142', '139', '146', '132', '150', '112', '147', '125'] 261.2839506172843
186 5.225679012345681 ['126', '109', '140', '94', '111', '98', '122', '142', '139', '146', '132', '150', '112', '147', '125'] 261.2839506172843
187 5.225679012345681 ['126', '109', '140', '94', '111', '98', '122', '142', '139', '146', '132', '150', '112', '147', '125'] 261.2839506172843
188 5.225679012345681 ['126', '109', '140', '94', '111', '98', '122', '142', '139', '146', '132', '150', '112', '147', '125'] 261.2839506172843
189 5.225679012345681 ['126', '109', '140', '94', '111', '98', '122', '142', '139', '146', '132', '150', '112', '147', '125'] 261.2839506172843
190 5.225679012345681 ['126', '109', '140', '94', '111', '98', '122', '142', '139', '146', '132', '150', '112', '147', '125'] 261.2839506172843
191 5.225679012345681 ['126', '109', '140', '94', '111', '98', '122', '142', '139', '146', '132', '150', '112', '147', '125'] 261.2839506172843
192 5.225679012345681 ['126', '109', '140', '94', '111', '98', '122', '142', '139', '146', '132', '150', '112', '147', '125'] 261.2839506172843
193 5.225679012345681 ['126', '109', '140', '94', '111', '98', '122', '142', '139', '146', '132', '150', '112', '147', '125'] 261.2839506172843
194 5.225679012345681 ['126', '109', '140', '94', '111', '98', '122', '142', '139', '146', '132', '150', '112', '147', '125'] 261.2839506172843
195 5.225679012345681 ['126', '109', '140', '94', '111', '98', '122', '142', '139', '146', '132', '150', '112', '147', '125'] 261.2839506172843
196 5.225679012345681 ['126', '109', '140', '94', '111', '98', '122', '142', '139', '146', '132', '150', '112', '147', '125'] 261.2839506172843
197 5.225679012345681 ['126', '109', '140', '94', '111', '98', '122', '142', '139', '146', '132', '150', '112', '147', '125'] 261.2839506172843
198 5.225679012345681 ['126', '109', '140', '94', '111', '98', '122', '142', '139', '146', '132', '150', '112', '147', '125'] 261.2839506172843
199 5.225679012345681 ['126', '109', '140', '94', '111', '98', '122', '142', '139', '146', '132', '150', '112', '147', '125'] 261.2839506172843
