0 5.35740740740741 ['69', '98', '55', '109', '99', '89', '111', '142', '21', '18', '73', '127', '79', '67', '71'] 272.92419753086426
1 5.35740740740741 ['69', '98', '55', '109', '99', '89', '111', '142', '21', '18', '73', '127', '79', '67', '71'] 271.59358024691375
2 5.35740740740741 ['69', '98', '55', '109', '99', '89', '111', '142', '21', '18', '73', '127', '79', '67', '71'] 270.5685185185187
3 5.35740740740741 ['69', '98', '55', '109', '99', '89', '111', '142', '21', '18', '73', '127', '79', '67', '71'] 269.8616049382718
4 5.33777777777778 ['35', '85', '139', '63', '11', '107', '144', '73', '84', '130', '7', '123', '104', '141', '142'] 269.1609876543211
5 5.3154320987654335 ['143', '139', '133', '125', '101', '123', '63', '1', '136', '107', '147', '8', '28', '115', '85'] 268.5890123456791
6 5.3141975308642 ['127', '73', '55', '142', '18', '67', '111', '79', '69', '98', '93', '99', '139', '33', '136'] 268.0520987654322
7 5.234938271604941 ['139', '125', '143', '13', '141', '107', '85', '133', '136', '77', '144', '30', '132', '104', '124'] 267.402839506173
8 5.234938271604941 ['139', '125', '143', '13', '141', '107', '85', '133', '136', '77', '144', '30', '132', '104', '124'] 266.7106172839507
9 5.234938271604941 ['139', '125', '143', '13', '141', '107', '85', '133', '136', '77', '144', '30', '132', '104', '124'] 266.2065432098766
10 5.20703703703704 ['79', '85', '134', '144', '78', '143', '115', '107', '139', '55', '132', '141', '120', '71', '137'] 265.600864197531
11 5.20703703703704 ['79', '85', '134', '144', '78', '143', '115', '107', '139', '55', '132', '141', '120', '71', '137'] 264.8829629629631
12 5.20703703703704 ['79', '85', '134', '144', '78', '143', '115', '107', '139', '55', '132', '141', '120', '71', '137'] 264.23975308641985
13 5.20703703703704 ['79', '85', '134', '144', '78', '143', '115', '107', '139', '55', '132', '141', '120', '71', '137'] 263.5688888888891
14 5.150370370370373 ['139', '142', '107', '123', '85', '144', '134', '115', '55', '130', '147', '143', '74', '78', '137'] 262.8613580246915
15 5.150370370370373 ['139', '142', '107', '123', '85', '144', '134', '115', '55', '130', '147', '143', '74', '78', '137'] 262.16000000000014
16 5.150370370370373 ['139', '142', '107', '123', '85', '144', '134', '115', '55', '130', '147', '143', '74', '78', '137'] 261.38037037037054
17 5.1434567901234605 ['85', '137', '115', '78', '144', '107', '134', '143', '139', '79', '141', '74', '147', '142', '71'] 260.7806172839506
18 5.1434567901234605 ['85', '137', '115', '78', '144', '107', '134', '143', '139', '79', '141', '74', '147', '142', '71'] 260.08407407407424
19 5.1434567901234605 ['85', '137', '115', '78', '144', '107', '134', '143', '139', '79', '141', '74', '147', '142', '71'] 259.3813580246915
20 5.136543209876545 ['74', '144', '143', '141', '107', '134', '133', '85', '142', '123', '139', '88', '137', '147', '130'] 258.71827160493837
21 5.125555555555558 ['74', '147', '137', '115', '85', '141', '107', '143', '139', '144', '134', '67', '79', '136', '142'] 258.1766666666668
22 5.125555555555558 ['74', '147', '137', '115', '85', '141', '107', '143', '139', '144', '134', '67', '79', '136', '142'] 257.71691358024697
23 5.114074074074076 ['141', '144', '139', '134', '107', '74', '85', '142', '147', '79', '143', '71', '130', '137', '115'] 257.18012345679017
24 5.106913580246915 ['142', '107', '144', '147', '115', '137', '143', '141', '74', '139', '85', '134', '130', '104', '136'] 256.7411111111112
25 5.106913580246915 ['142', '107', '144', '147', '115', '137', '143', '141', '74', '139', '85', '134', '130', '104', '136'] 256.4223456790126
26 5.095555555555558 ['137', '74', '134', '130', '107', '143', '144', '141', '85', '139', '142', '67', '147', '55', '115'] 256.1102469135804
27 5.095555555555558 ['137', '74', '134', '130', '107', '143', '144', '141', '85', '139', '142', '67', '147', '55', '115'] 255.79555555555558
28 5.095555555555558 ['137', '74', '134', '130', '107', '143', '144', '141', '85', '139', '142', '67', '147', '55', '115'] 255.57407407407393
29 5.095555555555558 ['137', '74', '134', '130', '107', '143', '144', '141', '85', '139', '142', '67', '147', '55', '115'] 255.3359259259262
30 5.094320987654324 ['143', '137', '141', '144', '134', '130', '107', '142', '147', '74', '85', '139', '67', '115', '35'] 255.19259259259286
31 5.094320987654324 ['143', '137', '141', '144', '134', '130', '107', '142', '147', '74', '85', '139', '67', '115', '35'] 255.0103703703707
32 5.094320987654324 ['143', '137', '141', '144', '134', '130', '107', '142', '147', '74', '85', '139', '67', '115', '35'] 254.78950617283985
33 5.094320987654324 ['143', '137', '141', '144', '134', '130', '107', '142', '147', '74', '85', '139', '67', '115', '35'] 254.76049382716084
34 5.094320987654324 ['143', '137', '141', '144', '134', '130', '107', '142', '147', '74', '85', '139', '67', '115', '35'] 254.74567901234602
35 5.094320987654324 ['143', '137', '141', '144', '134', '130', '107', '142', '147', '74', '85', '139', '67', '115', '35'] 254.7172839506176
36 5.094320987654324 ['143', '137', '141', '144', '134', '130', '107', '142', '147', '74', '85', '139', '67', '115', '35'] 254.71604938271636
37 5.094320987654324 ['143', '137', '141', '144', '134', '130', '107', '142', '147', '74', '85', '139', '67', '115', '35'] 254.71604938271636
38 5.094320987654324 ['143', '137', '141', '144', '134', '130', '107', '142', '147', '74', '85', '139', '67', '115', '35'] 254.71604938271636
39 5.094320987654324 ['143', '137', '141', '144', '134', '130', '107', '142', '147', '74', '85', '139', '67', '115', '35'] 254.71604938271636
40 5.094320987654324 ['143', '137', '141', '144', '134', '130', '107', '142', '147', '74', '85', '139', '67', '115', '35'] 254.71604938271636
41 5.094320987654324 ['143', '137', '141', '144', '134', '130', '107', '142', '147', '74', '85', '139', '67', '115', '35'] 254.71604938271636
42 5.094320987654324 ['143', '137', '141', '144', '134', '130', '107', '142', '147', '74', '85', '139', '67', '115', '35'] 254.71604938271636
43 5.094320987654324 ['143', '137', '141', '144', '134', '130', '107', '142', '147', '74', '85', '139', '67', '115', '35'] 254.71604938271636
44 5.094320987654324 ['143', '137', '141', '144', '134', '130', '107', '142', '147', '74', '85', '139', '67', '115', '35'] 254.71604938271636
45 5.094320987654324 ['143', '137', '141', '144', '134', '130', '107', '142', '147', '74', '85', '139', '67', '115', '35'] 254.71604938271636
46 5.094320987654324 ['143', '137', '141', '144', '134', '130', '107', '142', '147', '74', '85', '139', '67', '115', '35'] 254.71604938271636
47 5.094320987654324 ['143', '137', '141', '144', '134', '130', '107', '142', '147', '74', '85', '139', '67', '115', '35'] 254.71604938271636
48 5.094320987654324 ['143', '137', '141', '144', '134', '130', '107', '142', '147', '74', '85', '139', '67', '115', '35'] 254.71604938271636
49 5.094320987654324 ['143', '137', '141', '144', '134', '130', '107', '142', '147', '74', '85', '139', '67', '115', '35'] 254.71604938271636
50 5.094320987654324 ['143', '137', '141', '144', '134', '130', '107', '142', '147', '74', '85', '139', '67', '115', '35'] 254.71604938271636
51 5.094320987654324 ['143', '137', '141', '144', '134', '130', '107', '142', '147', '74', '85', '139', '67', '115', '35'] 254.71604938271636
52 5.094320987654324 ['143', '137', '141', '144', '134', '130', '107', '142', '147', '74', '85', '139', '67', '115', '35'] 254.71604938271636
53 5.094320987654324 ['143', '137', '141', '144', '134', '130', '107', '142', '147', '74', '85', '139', '67', '115', '35'] 254.71604938271636
54 5.094320987654324 ['143', '137', '141', '144', '134', '130', '107', '142', '147', '74', '85', '139', '67', '115', '35'] 254.71604938271636
55 5.094320987654324 ['143', '137', '141', '144', '134', '130', '107', '142', '147', '74', '85', '139', '67', '115', '35'] 254.71604938271636
56 5.094320987654324 ['143', '137', '141', '144', '134', '130', '107', '142', '147', '74', '85', '139', '67', '115', '35'] 254.71604938271636
57 5.094320987654324 ['143', '137', '141', '144', '134', '130', '107', '142', '147', '74', '85', '139', '67', '115', '35'] 254.71604938271636
58 5.094320987654324 ['143', '137', '141', '144', '134', '130', '107', '142', '147', '74', '85', '139', '67', '115', '35'] 254.71604938271636
59 5.094320987654324 ['143', '137', '141', '144', '134', '130', '107', '142', '147', '74', '85', '139', '67', '115', '35'] 254.71604938271636
60 5.094320987654324 ['143', '137', '141', '144', '134', '130', '107', '142', '147', '74', '85', '139', '67', '115', '35'] 254.71604938271636
61 5.094320987654324 ['143', '137', '141', '144', '134', '130', '107', '142', '147', '74', '85', '139', '67', '115', '35'] 254.71604938271636
62 5.094320987654324 ['143', '137', '141', '144', '134', '130', '107', '142', '147', '74', '85', '139', '67', '115', '35'] 254.71604938271636
63 5.094320987654324 ['143', '137', '141', '144', '134', '130', '107', '142', '147', '74', '85', '139', '67', '115', '35'] 254.71604938271636
64 5.094320987654324 ['143', '137', '141', '144', '134', '130', '107', '142', '147', '74', '85', '139', '67', '115', '35'] 254.71604938271636
65 5.094320987654324 ['143', '137', '141', '144', '134', '130', '107', '142', '147', '74', '85', '139', '67', '115', '35'] 254.71604938271636
66 5.094320987654324 ['143', '137', '141', '144', '134', '130', '107', '142', '147', '74', '85', '139', '67', '115', '35'] 254.71604938271636
67 5.094320987654324 ['143', '137', '141', '144', '134', '130', '107', '142', '147', '74', '85', '139', '67', '115', '35'] 254.71604938271636
68 5.094320987654324 ['143', '137', '141', '144', '134', '130', '107', '142', '147', '74', '85', '139', '67', '115', '35'] 254.71604938271636
69 5.094320987654324 ['143', '137', '141', '144', '134', '130', '107', '142', '147', '74', '85', '139', '67', '115', '35'] 254.71604938271636
70 5.094320987654324 ['143', '137', '141', '144', '134', '130', '107', '142', '147', '74', '85', '139', '67', '115', '35'] 254.71604938271636
71 5.094320987654324 ['143', '137', '141', '144', '134', '130', '107', '142', '147', '74', '85', '139', '67', '115', '35'] 254.71604938271636
72 5.094320987654324 ['143', '137', '141', '144', '134', '130', '107', '142', '147', '74', '85', '139', '67', '115', '35'] 254.71604938271636
73 5.094320987654324 ['143', '137', '141', '144', '134', '130', '107', '142', '147', '74', '85', '139', '67', '115', '35'] 254.71604938271636
74 5.094320987654324 ['143', '137', '141', '144', '134', '130', '107', '142', '147', '74', '85', '139', '67', '115', '35'] 254.71604938271636
75 5.094320987654324 ['143', '137', '141', '144', '134', '130', '107', '142', '147', '74', '85', '139', '67', '115', '35'] 254.71604938271636
76 5.094320987654324 ['143', '137', '141', '144', '134', '130', '107', '142', '147', '74', '85', '139', '67', '115', '35'] 254.71604938271636
77 5.094320987654324 ['143', '137', '141', '144', '134', '130', '107', '142', '147', '74', '85', '139', '67', '115', '35'] 254.71604938271636
78 5.094320987654324 ['143', '137', '141', '144', '134', '130', '107', '142', '147', '74', '85', '139', '67', '115', '35'] 254.71604938271636
79 5.094320987654324 ['143', '137', '141', '144', '134', '130', '107', '142', '147', '74', '85', '139', '67', '115', '35'] 254.71604938271636
80 5.094320987654324 ['143', '137', '141', '144', '134', '130', '107', '142', '147', '74', '85', '139', '67', '115', '35'] 254.71604938271636
81 5.094320987654324 ['143', '137', '141', '144', '134', '130', '107', '142', '147', '74', '85', '139', '67', '115', '35'] 254.71604938271636
82 5.094320987654324 ['143', '137', '141', '144', '134', '130', '107', '142', '147', '74', '85', '139', '67', '115', '35'] 254.71604938271636
83 5.094320987654324 ['143', '137', '141', '144', '134', '130', '107', '142', '147', '74', '85', '139', '67', '115', '35'] 254.71604938271636
84 5.094320987654324 ['143', '137', '141', '144', '134', '130', '107', '142', '147', '74', '85', '139', '67', '115', '35'] 254.71604938271636
85 5.094320987654324 ['143', '137', '141', '144', '134', '130', '107', '142', '147', '74', '85', '139', '67', '115', '35'] 254.71604938271636
86 5.094320987654324 ['143', '137', '141', '144', '134', '130', '107', '142', '147', '74', '85', '139', '67', '115', '35'] 254.71604938271636
87 5.094320987654324 ['143', '137', '141', '144', '134', '130', '107', '142', '147', '74', '85', '139', '67', '115', '35'] 254.71604938271636
88 5.094320987654324 ['143', '137', '141', '144', '134', '130', '107', '142', '147', '74', '85', '139', '67', '115', '35'] 254.71604938271636
89 5.094320987654324 ['143', '137', '141', '144', '134', '130', '107', '142', '147', '74', '85', '139', '67', '115', '35'] 254.71604938271636
90 5.094320987654324 ['143', '137', '141', '144', '134', '130', '107', '142', '147', '74', '85', '139', '67', '115', '35'] 254.71604938271636
91 5.094320987654324 ['143', '137', '141', '144', '134', '130', '107', '142', '147', '74', '85', '139', '67', '115', '35'] 254.71604938271636
92 5.094320987654324 ['143', '137', '141', '144', '134', '130', '107', '142', '147', '74', '85', '139', '67', '115', '35'] 254.71604938271636
93 5.094320987654324 ['143', '137', '141', '144', '134', '130', '107', '142', '147', '74', '85', '139', '67', '115', '35'] 254.71604938271636
94 5.094320987654324 ['143', '137', '141', '144', '134', '130', '107', '142', '147', '74', '85', '139', '67', '115', '35'] 254.71604938271636
95 5.094320987654324 ['143', '137', '141', '144', '134', '130', '107', '142', '147', '74', '85', '139', '67', '115', '35'] 254.71604938271636
96 5.094320987654324 ['143', '137', '141', '144', '134', '130', '107', '142', '147', '74', '85', '139', '67', '115', '35'] 254.71604938271636
97 5.094320987654324 ['143', '137', '141', '144', '134', '130', '107', '142', '147', '74', '85', '139', '67', '115', '35'] 254.71604938271636
98 5.094320987654324 ['143', '137', '141', '144', '134', '130', '107', '142', '147', '74', '85', '139', '67', '115', '35'] 254.71604938271636
99 5.094320987654324 ['143', '137', '141', '144', '134', '130', '107', '142', '147', '74', '85', '139', '67', '115', '35'] 254.71604938271636
100 5.094320987654324 ['143', '137', '141', '144', '134', '130', '107', '142', '147', '74', '85', '139', '67', '115', '35'] 254.71604938271636
101 5.094320987654324 ['143', '137', '141', '144', '134', '130', '107', '142', '147', '74', '85', '139', '67', '115', '35'] 254.71604938271636
102 5.094320987654324 ['143', '137', '141', '144', '134', '130', '107', '142', '147', '74', '85', '139', '67', '115', '35'] 254.71604938271636
103 5.094320987654324 ['143', '137', '141', '144', '134', '130', '107', '142', '147', '74', '85', '139', '67', '115', '35'] 254.71604938271636
104 5.094320987654324 ['143', '137', '141', '144', '134', '130', '107', '142', '147', '74', '85', '139', '67', '115', '35'] 254.71604938271636
105 5.094320987654324 ['143', '137', '141', '144', '134', '130', '107', '142', '147', '74', '85', '139', '67', '115', '35'] 254.71604938271636
106 5.094320987654324 ['143', '137', '141', '144', '134', '130', '107', '142', '147', '74', '85', '139', '67', '115', '35'] 254.71604938271636
107 5.094320987654324 ['143', '137', '141', '144', '134', '130', '107', '142', '147', '74', '85', '139', '67', '115', '35'] 254.71604938271636
108 5.094320987654324 ['143', '137', '141', '144', '134', '130', '107', '142', '147', '74', '85', '139', '67', '115', '35'] 254.71604938271636
109 5.094320987654324 ['143', '137', '141', '144', '134', '130', '107', '142', '147', '74', '85', '139', '67', '115', '35'] 254.71604938271636
110 5.094320987654324 ['143', '137', '141', '144', '134', '130', '107', '142', '147', '74', '85', '139', '67', '115', '35'] 254.71604938271636
111 5.094320987654324 ['143', '137', '141', '144', '134', '130', '107', '142', '147', '74', '85', '139', '67', '115', '35'] 254.71604938271636
112 5.094320987654324 ['143', '137', '141', '144', '134', '130', '107', '142', '147', '74', '85', '139', '67', '115', '35'] 254.71604938271636
113 5.094320987654324 ['143', '137', '141', '144', '134', '130', '107', '142', '147', '74', '85', '139', '67', '115', '35'] 254.71604938271636
114 5.094320987654324 ['143', '137', '141', '144', '134', '130', '107', '142', '147', '74', '85', '139', '67', '115', '35'] 254.71604938271636
115 5.094320987654324 ['143', '137', '141', '144', '134', '130', '107', '142', '147', '74', '85', '139', '67', '115', '35'] 254.71604938271636
116 5.094320987654324 ['143', '137', '141', '144', '134', '130', '107', '142', '147', '74', '85', '139', '67', '115', '35'] 254.71604938271636
117 5.094320987654324 ['143', '137', '141', '144', '134', '130', '107', '142', '147', '74', '85', '139', '67', '115', '35'] 254.71604938271636
118 5.094320987654324 ['143', '137', '141', '144', '134', '130', '107', '142', '147', '74', '85', '139', '67', '115', '35'] 254.71604938271636
119 5.094320987654324 ['143', '137', '141', '144', '134', '130', '107', '142', '147', '74', '85', '139', '67', '115', '35'] 254.71604938271636
120 5.094320987654324 ['143', '137', '141', '144', '134', '130', '107', '142', '147', '74', '85', '139', '67', '115', '35'] 254.71604938271636
121 5.094320987654324 ['143', '137', '141', '144', '134', '130', '107', '142', '147', '74', '85', '139', '67', '115', '35'] 254.71604938271636
122 5.094320987654324 ['143', '137', '141', '144', '134', '130', '107', '142', '147', '74', '85', '139', '67', '115', '35'] 254.71604938271636
123 5.094320987654324 ['143', '137', '141', '144', '134', '130', '107', '142', '147', '74', '85', '139', '67', '115', '35'] 254.71604938271636
124 5.094320987654324 ['143', '137', '141', '144', '134', '130', '107', '142', '147', '74', '85', '139', '67', '115', '35'] 254.71604938271636
125 5.094320987654324 ['143', '137', '141', '144', '134', '130', '107', '142', '147', '74', '85', '139', '67', '115', '35'] 254.71604938271636
126 5.094320987654324 ['143', '137', '141', '144', '134', '130', '107', '142', '147', '74', '85', '139', '67', '115', '35'] 254.71604938271636
127 5.094320987654324 ['143', '137', '141', '144', '134', '130', '107', '142', '147', '74', '85', '139', '67', '115', '35'] 254.71604938271636
128 5.094320987654324 ['143', '137', '141', '144', '134', '130', '107', '142', '147', '74', '85', '139', '67', '115', '35'] 254.71604938271636
129 5.094320987654324 ['143', '137', '141', '144', '134', '130', '107', '142', '147', '74', '85', '139', '67', '115', '35'] 254.71604938271636
130 5.094320987654324 ['143', '137', '141', '144', '134', '130', '107', '142', '147', '74', '85', '139', '67', '115', '35'] 254.71604938271636
131 5.094320987654324 ['143', '137', '141', '144', '134', '130', '107', '142', '147', '74', '85', '139', '67', '115', '35'] 254.71604938271636
132 5.094320987654324 ['143', '137', '141', '144', '134', '130', '107', '142', '147', '74', '85', '139', '67', '115', '35'] 254.71604938271636
133 5.094320987654324 ['143', '137', '141', '144', '134', '130', '107', '142', '147', '74', '85', '139', '67', '115', '35'] 254.71604938271636
134 5.094320987654324 ['143', '137', '141', '144', '134', '130', '107', '142', '147', '74', '85', '139', '67', '115', '35'] 254.71604938271636
135 5.094320987654324 ['143', '137', '141', '144', '134', '130', '107', '142', '147', '74', '85', '139', '67', '115', '35'] 254.71604938271636
136 5.094320987654324 ['143', '137', '141', '144', '134', '130', '107', '142', '147', '74', '85', '139', '67', '115', '35'] 254.71604938271636
137 5.094320987654324 ['143', '137', '141', '144', '134', '130', '107', '142', '147', '74', '85', '139', '67', '115', '35'] 254.71604938271636
138 5.094320987654324 ['143', '137', '141', '144', '134', '130', '107', '142', '147', '74', '85', '139', '67', '115', '35'] 254.71604938271636
139 5.094320987654324 ['143', '137', '141', '144', '134', '130', '107', '142', '147', '74', '85', '139', '67', '115', '35'] 254.71604938271636
140 5.094320987654324 ['143', '137', '141', '144', '134', '130', '107', '142', '147', '74', '85', '139', '67', '115', '35'] 254.71604938271636
141 5.094320987654324 ['143', '137', '141', '144', '134', '130', '107', '142', '147', '74', '85', '139', '67', '115', '35'] 254.71604938271636
142 5.094320987654324 ['143', '137', '141', '144', '134', '130', '107', '142', '147', '74', '85', '139', '67', '115', '35'] 254.71604938271636
143 5.094320987654324 ['143', '137', '141', '144', '134', '130', '107', '142', '147', '74', '85', '139', '67', '115', '35'] 254.71604938271636
144 5.094320987654324 ['143', '137', '141', '144', '134', '130', '107', '142', '147', '74', '85', '139', '67', '115', '35'] 254.71604938271636
145 5.094320987654324 ['143', '137', '141', '144', '134', '130', '107', '142', '147', '74', '85', '139', '67', '115', '35'] 254.71604938271636
146 5.094320987654324 ['143', '137', '141', '144', '134', '130', '107', '142', '147', '74', '85', '139', '67', '115', '35'] 254.71604938271636
147 5.094320987654324 ['143', '137', '141', '144', '134', '130', '107', '142', '147', '74', '85', '139', '67', '115', '35'] 254.71604938271636
148 5.094320987654324 ['143', '137', '141', '144', '134', '130', '107', '142', '147', '74', '85', '139', '67', '115', '35'] 254.71604938271636
149 5.094320987654324 ['143', '137', '141', '144', '134', '130', '107', '142', '147', '74', '85', '139', '67', '115', '35'] 254.71604938271636
150 5.094320987654324 ['143', '137', '141', '144', '134', '130', '107', '142', '147', '74', '85', '139', '67', '115', '35'] 254.71604938271636
151 5.094320987654324 ['143', '137', '141', '144', '134', '130', '107', '142', '147', '74', '85', '139', '67', '115', '35'] 254.71604938271636
152 5.094320987654324 ['143', '137', '141', '144', '134', '130', '107', '142', '147', '74', '85', '139', '67', '115', '35'] 254.71604938271636
153 5.094320987654324 ['143', '137', '141', '144', '134', '130', '107', '142', '147', '74', '85', '139', '67', '115', '35'] 254.71604938271636
154 5.094320987654324 ['143', '137', '141', '144', '134', '130', '107', '142', '147', '74', '85', '139', '67', '115', '35'] 254.71604938271636
155 5.094320987654324 ['143', '137', '141', '144', '134', '130', '107', '142', '147', '74', '85', '139', '67', '115', '35'] 254.71604938271636
156 5.094320987654324 ['143', '137', '141', '144', '134', '130', '107', '142', '147', '74', '85', '139', '67', '115', '35'] 254.71604938271636
157 5.094320987654324 ['143', '137', '141', '144', '134', '130', '107', '142', '147', '74', '85', '139', '67', '115', '35'] 254.71604938271636
158 5.094320987654324 ['143', '137', '141', '144', '134', '130', '107', '142', '147', '74', '85', '139', '67', '115', '35'] 254.71604938271636
159 5.094320987654324 ['143', '137', '141', '144', '134', '130', '107', '142', '147', '74', '85', '139', '67', '115', '35'] 254.71604938271636
160 5.094320987654324 ['143', '137', '141', '144', '134', '130', '107', '142', '147', '74', '85', '139', '67', '115', '35'] 254.71604938271636
161 5.094320987654324 ['143', '137', '141', '144', '134', '130', '107', '142', '147', '74', '85', '139', '67', '115', '35'] 254.71604938271636
162 5.094320987654324 ['143', '137', '141', '144', '134', '130', '107', '142', '147', '74', '85', '139', '67', '115', '35'] 254.71604938271636
163 5.094320987654324 ['143', '137', '141', '144', '134', '130', '107', '142', '147', '74', '85', '139', '67', '115', '35'] 254.71604938271636
164 5.094320987654324 ['143', '137', '141', '144', '134', '130', '107', '142', '147', '74', '85', '139', '67', '115', '35'] 254.71604938271636
165 5.094320987654324 ['143', '137', '141', '144', '134', '130', '107', '142', '147', '74', '85', '139', '67', '115', '35'] 254.71604938271636
166 5.094320987654324 ['143', '137', '141', '144', '134', '130', '107', '142', '147', '74', '85', '139', '67', '115', '35'] 254.71604938271636
167 5.094320987654324 ['143', '137', '141', '144', '134', '130', '107', '142', '147', '74', '85', '139', '67', '115', '35'] 254.71604938271636
168 5.094320987654324 ['143', '137', '141', '144', '134', '130', '107', '142', '147', '74', '85', '139', '67', '115', '35'] 254.71604938271636
169 5.094320987654324 ['143', '137', '141', '144', '134', '130', '107', '142', '147', '74', '85', '139', '67', '115', '35'] 254.71604938271636
170 5.094320987654324 ['143', '137', '141', '144', '134', '130', '107', '142', '147', '74', '85', '139', '67', '115', '35'] 254.71604938271636
171 5.094320987654324 ['143', '137', '141', '144', '134', '130', '107', '142', '147', '74', '85', '139', '67', '115', '35'] 254.71604938271636
172 5.094320987654324 ['143', '137', '141', '144', '134', '130', '107', '142', '147', '74', '85', '139', '67', '115', '35'] 254.71604938271636
173 5.094320987654324 ['143', '137', '141', '144', '134', '130', '107', '142', '147', '74', '85', '139', '67', '115', '35'] 254.71604938271636
174 5.094320987654324 ['143', '137', '141', '144', '134', '130', '107', '142', '147', '74', '85', '139', '67', '115', '35'] 254.71604938271636
175 5.094320987654324 ['143', '137', '141', '144', '134', '130', '107', '142', '147', '74', '85', '139', '67', '115', '35'] 254.71604938271636
176 5.094320987654324 ['143', '137', '141', '144', '134', '130', '107', '142', '147', '74', '85', '139', '67', '115', '35'] 254.71604938271636
177 5.094320987654324 ['143', '137', '141', '144', '134', '130', '107', '142', '147', '74', '85', '139', '67', '115', '35'] 254.71604938271636
178 5.094320987654324 ['143', '137', '141', '144', '134', '130', '107', '142', '147', '74', '85', '139', '67', '115', '35'] 254.71604938271636
179 5.094320987654324 ['143', '137', '141', '144', '134', '130', '107', '142', '147', '74', '85', '139', '67', '115', '35'] 254.71604938271636
180 5.094320987654324 ['143', '137', '141', '144', '134', '130', '107', '142', '147', '74', '85', '139', '67', '115', '35'] 254.71604938271636
181 5.094320987654324 ['143', '137', '141', '144', '134', '130', '107', '142', '147', '74', '85', '139', '67', '115', '35'] 254.71604938271636
182 5.094320987654324 ['143', '137', '141', '144', '134', '130', '107', '142', '147', '74', '85', '139', '67', '115', '35'] 254.71604938271636
183 5.094320987654324 ['143', '137', '141', '144', '134', '130', '107', '142', '147', '74', '85', '139', '67', '115', '35'] 254.71604938271636
184 5.094320987654324 ['143', '137', '141', '144', '134', '130', '107', '142', '147', '74', '85', '139', '67', '115', '35'] 254.71604938271636
185 5.094320987654324 ['143', '137', '141', '144', '134', '130', '107', '142', '147', '74', '85', '139', '67', '115', '35'] 254.71604938271636
186 5.094320987654324 ['143', '137', '141', '144', '134', '130', '107', '142', '147', '74', '85', '139', '67', '115', '35'] 254.71604938271636
187 5.094320987654324 ['143', '137', '141', '144', '134', '130', '107', '142', '147', '74', '85', '139', '67', '115', '35'] 254.71604938271636
188 5.094320987654324 ['143', '137', '141', '144', '134', '130', '107', '142', '147', '74', '85', '139', '67', '115', '35'] 254.71604938271636
189 5.094320987654324 ['143', '137', '141', '144', '134', '130', '107', '142', '147', '74', '85', '139', '67', '115', '35'] 254.71604938271636
190 5.094320987654324 ['143', '137', '141', '144', '134', '130', '107', '142', '147', '74', '85', '139', '67', '115', '35'] 254.71604938271636
191 5.094320987654324 ['143', '137', '141', '144', '134', '130', '107', '142', '147', '74', '85', '139', '67', '115', '35'] 254.71604938271636
192 5.094320987654324 ['143', '137', '141', '144', '134', '130', '107', '142', '147', '74', '85', '139', '67', '115', '35'] 254.71604938271636
193 5.094320987654324 ['143', '137', '141', '144', '134', '130', '107', '142', '147', '74', '85', '139', '67', '115', '35'] 254.71604938271636
194 5.094320987654324 ['143', '137', '141', '144', '134', '130', '107', '142', '147', '74', '85', '139', '67', '115', '35'] 254.71604938271636
195 5.094320987654324 ['143', '137', '141', '144', '134', '130', '107', '142', '147', '74', '85', '139', '67', '115', '35'] 254.71604938271636
196 5.094320987654324 ['143', '137', '141', '144', '134', '130', '107', '142', '147', '74', '85', '139', '67', '115', '35'] 254.71604938271636
197 5.094320987654324 ['143', '137', '141', '144', '134', '130', '107', '142', '147', '74', '85', '139', '67', '115', '35'] 254.71604938271636
198 5.094320987654324 ['143', '137', '141', '144', '134', '130', '107', '142', '147', '74', '85', '139', '67', '115', '35'] 254.71604938271636
199 5.094320987654324 ['143', '137', '141', '144', '134', '130', '107', '142', '147', '74', '85', '139', '67', '115', '35'] 254.71604938271636
