0 20.0 ['43', '36', '55', '8', '57', '50'] 1106.0740740740741
1 19.40740740740741 ['9', '44', '33', '4', '53', '8'] 1064.296296296296
2 19.40740740740741 ['9', '44', '33', '4', '53', '8'] 1032.6666666666667
3 17.185185185185187 ['8', '38', '55', '46', '17', '53'] 1001.9999999999999
4 16.074074074074073 ['53', '8', '55', '27', '38', '46'] 964.8148148148147
5 16.074074074074073 ['53', '8', '55', '27', '38', '46'] 927.3333333333338
6 16.074074074074073 ['53', '8', '55', '27', '38', '46'] 895.7037037037035
7 15.925925925925926 ['46', '8', '55', '53', '38', '7'] 855.5555555555553
8 15.925925925925926 ['46', '8', '55', '53', '38', '7'] 826.962962962963
9 15.851851851851851 ['53', '27', '55', '8', '7', '38'] 805.2592592592586
10 15.851851851851851 ['53', '27', '55', '8', '7', '38'] 800.1481481481472
11 15.851851851851851 ['53', '27', '55', '8', '7', '38'] 796.4444444444445
12 15.777777777777779 ['8', '38', '55', '53', '4', '7'] 793.9259259259268
13 15.777777777777779 ['8', '38', '55', '53', '4', '7'] 792.5185185185184
14 15.777777777777779 ['8', '38', '55', '53', '4', '7'] 792.4444444444443
15 15.777777777777779 ['8', '38', '55', '53', '4', '7'] 792.2962962962962
16 15.777777777777779 ['8', '38', '55', '53', '4', '7'] 792.0740740740739
17 15.777777777777779 ['8', '38', '55', '53', '4', '7'] 791.7777777777776
18 15.777777777777779 ['8', '38', '55', '53', '4', '7'] 790.8888888888887
19 15.777777777777779 ['8', '38', '55', '53', '4', '7'] 789.1111111111117
20 15.777777777777779 ['8', '38', '55', '53', '4', '7'] 788.8888888888896
21 15.777777777777779 ['8', '38', '55', '53', '4', '7'] 788.8888888888896
22 15.777777777777779 ['8', '38', '55', '53', '4', '7'] 788.8888888888896
23 15.777777777777779 ['8', '38', '55', '53', '4', '7'] 788.8888888888896
24 15.777777777777779 ['8', '38', '55', '53', '4', '7'] 788.8888888888896
25 15.777777777777779 ['8', '38', '55', '53', '4', '7'] 788.8888888888896
26 15.777777777777779 ['8', '38', '55', '53', '4', '7'] 788.8888888888896
27 15.777777777777779 ['8', '38', '55', '53', '4', '7'] 788.8888888888896
28 15.777777777777779 ['8', '38', '55', '53', '4', '7'] 788.8888888888896
29 15.777777777777779 ['8', '38', '55', '53', '4', '7'] 788.8888888888896
30 15.777777777777779 ['8', '38', '55', '53', '4', '7'] 788.8888888888896
31 15.777777777777779 ['8', '38', '55', '53', '4', '7'] 788.8888888888896
32 15.777777777777779 ['8', '38', '55', '53', '4', '7'] 788.8888888888896
33 15.777777777777779 ['8', '38', '55', '53', '4', '7'] 788.8888888888896
34 15.777777777777779 ['8', '38', '55', '53', '4', '7'] 788.8888888888896
35 15.777777777777779 ['8', '38', '55', '53', '4', '7'] 788.8888888888896
36 15.777777777777779 ['8', '38', '55', '53', '4', '7'] 788.8888888888896
37 15.777777777777779 ['8', '38', '55', '53', '4', '7'] 788.8888888888896
38 15.777777777777779 ['8', '38', '55', '53', '4', '7'] 788.8888888888896
39 15.777777777777779 ['8', '38', '55', '53', '4', '7'] 788.8888888888896
40 15.777777777777779 ['8', '38', '55', '53', '4', '7'] 788.8888888888896
41 15.777777777777779 ['8', '38', '55', '53', '4', '7'] 788.8888888888896
42 15.777777777777779 ['8', '38', '55', '53', '4', '7'] 788.8888888888896
43 15.777777777777779 ['8', '38', '55', '53', '4', '7'] 788.8888888888896
44 15.777777777777779 ['8', '38', '55', '53', '4', '7'] 788.8888888888896
45 15.777777777777779 ['8', '38', '55', '53', '4', '7'] 788.8888888888896
46 15.777777777777779 ['8', '38', '55', '53', '4', '7'] 788.8888888888896
47 15.777777777777779 ['8', '38', '55', '53', '4', '7'] 788.8888888888896
48 15.777777777777779 ['8', '38', '55', '53', '4', '7'] 788.8888888888896
49 15.777777777777779 ['8', '38', '55', '53', '4', '7'] 788.8888888888896
50 15.777777777777779 ['8', '38', '55', '53', '4', '7'] 788.8888888888896
51 15.777777777777779 ['8', '38', '55', '53', '4', '7'] 788.8888888888896
52 15.777777777777779 ['8', '38', '55', '53', '4', '7'] 788.8888888888896
53 15.777777777777779 ['8', '38', '55', '53', '4', '7'] 788.8888888888896
54 15.777777777777779 ['8', '38', '55', '53', '4', '7'] 788.8888888888896
55 15.777777777777779 ['8', '38', '55', '53', '4', '7'] 788.8888888888896
56 15.777777777777779 ['8', '38', '55', '53', '4', '7'] 788.8888888888896
57 15.777777777777779 ['8', '38', '55', '53', '4', '7'] 788.8888888888896
58 15.777777777777779 ['8', '38', '55', '53', '4', '7'] 788.8888888888896
59 15.777777777777779 ['8', '38', '55', '53', '4', '7'] 788.8888888888896
60 15.777777777777779 ['8', '38', '55', '53', '4', '7'] 788.8888888888896
61 15.777777777777779 ['8', '38', '55', '53', '4', '7'] 788.8888888888896
62 15.777777777777779 ['8', '38', '55', '53', '4', '7'] 788.8888888888896
63 15.777777777777779 ['8', '38', '55', '53', '4', '7'] 788.8888888888896
64 15.777777777777779 ['8', '38', '55', '53', '4', '7'] 788.8888888888896
65 15.777777777777779 ['8', '38', '55', '53', '4', '7'] 788.8888888888896
66 15.777777777777779 ['8', '38', '55', '53', '4', '7'] 788.8888888888896
67 15.777777777777779 ['8', '38', '55', '53', '4', '7'] 788.8888888888896
68 15.777777777777779 ['8', '38', '55', '53', '4', '7'] 788.8888888888896
69 15.777777777777779 ['8', '38', '55', '53', '4', '7'] 788.8888888888896
70 15.777777777777779 ['8', '38', '55', '53', '4', '7'] 788.8888888888896
71 15.777777777777779 ['8', '38', '55', '53', '4', '7'] 788.8888888888896
72 15.777777777777779 ['8', '38', '55', '53', '4', '7'] 788.8888888888896
73 15.777777777777779 ['8', '38', '55', '53', '4', '7'] 788.8888888888896
74 15.777777777777779 ['8', '38', '55', '53', '4', '7'] 788.8888888888896
75 15.777777777777779 ['8', '38', '55', '53', '4', '7'] 788.8888888888896
76 15.777777777777779 ['8', '38', '55', '53', '4', '7'] 788.8888888888896
77 15.777777777777779 ['8', '38', '55', '53', '4', '7'] 788.8888888888896
78 15.777777777777779 ['8', '38', '55', '53', '4', '7'] 788.8888888888896
79 15.777777777777779 ['8', '38', '55', '53', '4', '7'] 788.8888888888896
80 15.777777777777779 ['8', '38', '55', '53', '4', '7'] 788.8888888888896
81 15.777777777777779 ['8', '38', '55', '53', '4', '7'] 788.8888888888896
82 15.777777777777779 ['8', '38', '55', '53', '4', '7'] 788.8888888888896
83 15.777777777777779 ['8', '38', '55', '53', '4', '7'] 788.8888888888896
84 15.777777777777779 ['8', '38', '55', '53', '4', '7'] 788.8888888888896
85 15.777777777777779 ['8', '38', '55', '53', '4', '7'] 788.8888888888896
86 15.777777777777779 ['8', '38', '55', '53', '4', '7'] 788.8888888888896
87 15.777777777777779 ['8', '38', '55', '53', '4', '7'] 788.8888888888896
88 15.777777777777779 ['8', '38', '55', '53', '4', '7'] 788.8888888888896
89 15.777777777777779 ['8', '38', '55', '53', '4', '7'] 788.8888888888896
90 15.777777777777779 ['8', '38', '55', '53', '4', '7'] 788.8888888888896
91 15.777777777777779 ['8', '38', '55', '53', '4', '7'] 788.8888888888896
92 15.777777777777779 ['8', '38', '55', '53', '4', '7'] 788.8888888888896
93 15.777777777777779 ['8', '38', '55', '53', '4', '7'] 788.8888888888896
94 15.777777777777779 ['8', '38', '55', '53', '4', '7'] 788.8888888888896
95 15.777777777777779 ['8', '38', '55', '53', '4', '7'] 788.8888888888896
96 15.777777777777779 ['8', '38', '55', '53', '4', '7'] 788.8888888888896
97 15.777777777777779 ['8', '38', '55', '53', '4', '7'] 788.8888888888896
98 15.777777777777779 ['8', '38', '55', '53', '4', '7'] 788.8888888888896
99 15.777777777777779 ['8', '38', '55', '53', '4', '7'] 788.8888888888896
100 15.777777777777779 ['8', '38', '55', '53', '4', '7'] 788.8888888888896
101 15.777777777777779 ['8', '38', '55', '53', '4', '7'] 788.8888888888896
102 15.777777777777779 ['8', '38', '55', '53', '4', '7'] 788.8888888888896
103 15.777777777777779 ['8', '38', '55', '53', '4', '7'] 788.8888888888896
104 15.777777777777779 ['8', '38', '55', '53', '4', '7'] 788.8888888888896
105 15.777777777777779 ['8', '38', '55', '53', '4', '7'] 788.8888888888896
106 15.777777777777779 ['8', '38', '55', '53', '4', '7'] 788.8888888888896
107 15.777777777777779 ['8', '38', '55', '53', '4', '7'] 788.8888888888896
108 15.777777777777779 ['8', '38', '55', '53', '4', '7'] 788.8888888888896
109 15.777777777777779 ['8', '38', '55', '53', '4', '7'] 788.8888888888896
110 15.777777777777779 ['8', '38', '55', '53', '4', '7'] 788.8888888888896
111 15.777777777777779 ['8', '38', '55', '53', '4', '7'] 788.8888888888896
112 15.777777777777779 ['8', '38', '55', '53', '4', '7'] 788.8888888888896
113 15.777777777777779 ['8', '38', '55', '53', '4', '7'] 788.8888888888896
114 15.777777777777779 ['8', '38', '55', '53', '4', '7'] 788.8888888888896
115 15.777777777777779 ['8', '38', '55', '53', '4', '7'] 788.8888888888896
116 15.777777777777779 ['8', '38', '55', '53', '4', '7'] 788.8888888888896
117 15.777777777777779 ['8', '38', '55', '53', '4', '7'] 788.8888888888896
118 15.777777777777779 ['8', '38', '55', '53', '4', '7'] 788.8888888888896
119 15.777777777777779 ['8', '38', '55', '53', '4', '7'] 788.8888888888896
120 15.777777777777779 ['8', '38', '55', '53', '4', '7'] 788.8888888888896
121 15.777777777777779 ['8', '38', '55', '53', '4', '7'] 788.8888888888896
122 15.777777777777779 ['8', '38', '55', '53', '4', '7'] 788.8888888888896
123 15.777777777777779 ['8', '38', '55', '53', '4', '7'] 788.8888888888896
124 15.777777777777779 ['8', '38', '55', '53', '4', '7'] 788.8888888888896
125 15.777777777777779 ['8', '38', '55', '53', '4', '7'] 788.8888888888896
126 15.777777777777779 ['8', '38', '55', '53', '4', '7'] 788.8888888888896
127 15.777777777777779 ['8', '38', '55', '53', '4', '7'] 788.8888888888896
128 15.777777777777779 ['8', '38', '55', '53', '4', '7'] 788.8888888888896
129 15.777777777777779 ['8', '38', '55', '53', '4', '7'] 788.8888888888896
130 15.777777777777779 ['8', '38', '55', '53', '4', '7'] 788.8888888888896
131 15.777777777777779 ['8', '38', '55', '53', '4', '7'] 788.8888888888896
132 15.777777777777779 ['8', '38', '55', '53', '4', '7'] 788.8888888888896
133 15.777777777777779 ['8', '38', '55', '53', '4', '7'] 788.8888888888896
134 15.777777777777779 ['8', '38', '55', '53', '4', '7'] 788.8888888888896
135 15.777777777777779 ['8', '38', '55', '53', '4', '7'] 788.8888888888896
136 15.777777777777779 ['8', '38', '55', '53', '4', '7'] 788.8888888888896
137 15.777777777777779 ['8', '38', '55', '53', '4', '7'] 788.8888888888896
138 15.777777777777779 ['8', '38', '55', '53', '4', '7'] 788.8888888888896
139 15.777777777777779 ['8', '38', '55', '53', '4', '7'] 788.8888888888896
140 15.777777777777779 ['8', '38', '55', '53', '4', '7'] 788.8888888888896
141 15.777777777777779 ['8', '38', '55', '53', '4', '7'] 788.8888888888896
142 15.777777777777779 ['8', '38', '55', '53', '4', '7'] 788.8888888888896
143 15.777777777777779 ['8', '38', '55', '53', '4', '7'] 788.8888888888896
144 15.777777777777779 ['8', '38', '55', '53', '4', '7'] 788.8888888888896
145 15.777777777777779 ['8', '38', '55', '53', '4', '7'] 788.8888888888896
146 15.777777777777779 ['8', '38', '55', '53', '4', '7'] 788.8888888888896
147 15.777777777777779 ['8', '38', '55', '53', '4', '7'] 788.8888888888896
148 15.777777777777779 ['8', '38', '55', '53', '4', '7'] 788.8888888888896
149 15.777777777777779 ['8', '38', '55', '53', '4', '7'] 788.8888888888896
150 15.777777777777779 ['8', '38', '55', '53', '4', '7'] 788.8888888888896
151 15.777777777777779 ['8', '38', '55', '53', '4', '7'] 788.8888888888896
152 15.777777777777779 ['8', '38', '55', '53', '4', '7'] 788.8888888888896
153 15.777777777777779 ['8', '38', '55', '53', '4', '7'] 788.8888888888896
154 15.777777777777779 ['8', '38', '55', '53', '4', '7'] 788.8888888888896
155 15.777777777777779 ['8', '38', '55', '53', '4', '7'] 788.8888888888896
156 15.777777777777779 ['8', '38', '55', '53', '4', '7'] 788.8888888888896
157 15.777777777777779 ['8', '38', '55', '53', '4', '7'] 788.8888888888896
158 15.777777777777779 ['8', '38', '55', '53', '4', '7'] 788.8888888888896
159 15.777777777777779 ['8', '38', '55', '53', '4', '7'] 788.8888888888896
160 15.777777777777779 ['8', '38', '55', '53', '4', '7'] 788.8888888888896
161 15.777777777777779 ['8', '38', '55', '53', '4', '7'] 788.8888888888896
162 15.777777777777779 ['8', '38', '55', '53', '4', '7'] 788.8888888888896
163 15.777777777777779 ['8', '38', '55', '53', '4', '7'] 788.8888888888896
164 15.777777777777779 ['8', '38', '55', '53', '4', '7'] 788.8888888888896
165 15.777777777777779 ['8', '38', '55', '53', '4', '7'] 788.8888888888896
166 15.777777777777779 ['8', '38', '55', '53', '4', '7'] 788.8888888888896
167 15.777777777777779 ['8', '38', '55', '53', '4', '7'] 788.8888888888896
168 15.777777777777779 ['8', '38', '55', '53', '4', '7'] 788.8888888888896
169 15.777777777777779 ['8', '38', '55', '53', '4', '7'] 788.8888888888896
170 15.777777777777779 ['8', '38', '55', '53', '4', '7'] 788.8888888888896
171 15.777777777777779 ['8', '38', '55', '53', '4', '7'] 788.8888888888896
172 15.777777777777779 ['8', '38', '55', '53', '4', '7'] 788.8888888888896
173 15.777777777777779 ['8', '38', '55', '53', '4', '7'] 788.8888888888896
174 15.777777777777779 ['8', '38', '55', '53', '4', '7'] 788.8888888888896
175 15.777777777777779 ['8', '38', '55', '53', '4', '7'] 788.8888888888896
176 15.777777777777779 ['8', '38', '55', '53', '4', '7'] 788.8888888888896
177 15.777777777777779 ['8', '38', '55', '53', '4', '7'] 788.8888888888896
178 15.777777777777779 ['8', '38', '55', '53', '4', '7'] 788.8888888888896
179 15.777777777777779 ['8', '38', '55', '53', '4', '7'] 788.8888888888896
180 15.777777777777779 ['8', '38', '55', '53', '4', '7'] 788.8888888888896
181 15.777777777777779 ['8', '38', '55', '53', '4', '7'] 788.8888888888896
182 15.777777777777779 ['8', '38', '55', '53', '4', '7'] 788.8888888888896
183 15.777777777777779 ['8', '38', '55', '53', '4', '7'] 788.8888888888896
184 15.777777777777779 ['8', '38', '55', '53', '4', '7'] 788.8888888888896
185 15.777777777777779 ['8', '38', '55', '53', '4', '7'] 788.8888888888896
186 15.777777777777779 ['8', '38', '55', '53', '4', '7'] 788.8888888888896
187 15.777777777777779 ['8', '38', '55', '53', '4', '7'] 788.8888888888896
188 15.777777777777779 ['8', '38', '55', '53', '4', '7'] 788.8888888888896
189 15.777777777777779 ['8', '38', '55', '53', '4', '7'] 788.8888888888896
190 15.777777777777779 ['8', '38', '55', '53', '4', '7'] 788.8888888888896
191 15.777777777777779 ['8', '38', '55', '53', '4', '7'] 788.8888888888896
192 15.777777777777779 ['8', '38', '55', '53', '4', '7'] 788.8888888888896
193 15.777777777777779 ['8', '38', '55', '53', '4', '7'] 788.8888888888896
194 15.777777777777779 ['8', '38', '55', '53', '4', '7'] 788.8888888888896
195 15.777777777777779 ['8', '38', '55', '53', '4', '7'] 788.8888888888896
196 15.777777777777779 ['8', '38', '55', '53', '4', '7'] 788.8888888888896
197 15.777777777777779 ['8', '38', '55', '53', '4', '7'] 788.8888888888896
198 15.777777777777779 ['8', '38', '55', '53', '4', '7'] 788.8888888888896
199 15.777777777777779 ['8', '38', '55', '53', '4', '7'] 788.8888888888896
