0 270.25531914893617 ['13', '23', '24', '20', '46'] 14069.127659574471
1 270.1276595744681 ['16', '2', '23', '8', '41'] 13926.425531914894
2 266.97872340425533 ['43', '25', '19', '8', '16'] 13751.553191489365
3 259.06382978723406 ['19', '41', '5', '16', '20'] 13575.127659574471
4 255.25531914893617 ['19', '20', '33', '45', '8'] 13369.31914893617
5 250.38297872340425 ['20', '19', '16', '46', '8'] 13165.021276595746
6 242.93617021276594 ['23', '8', '20', '16', '19'] 12929.212765957445
7 242.93617021276594 ['23', '8', '20', '16', '19'] 12728.08510638298
8 240.7659574468085 ['8', '20', '19', '23', '45'] 12581.361702127659
9 240.7659574468085 ['8', '20', '19', '23', '45'] 12453.680851063844
10 240.7659574468085 ['8', '20', '19', '23', '45'] 12317.574468085111
11 240.7659574468085 ['8', '20', '19', '23', '45'] 12123.97872340426
12 240.7659574468085 ['8', '20', '19', '23', '45'] 12077.36170212767
13 240.7659574468085 ['8', '20', '19', '23', '45'] 12038.297872340438
14 240.7659574468085 ['8', '20', '19', '23', '45'] 12038.297872340438
15 240.7659574468085 ['8', '20', '19', '23', '45'] 12038.297872340438
16 240.7659574468085 ['8', '20', '19', '23', '45'] 12038.297872340438
17 240.7659574468085 ['8', '20', '19', '23', '45'] 12038.297872340438
18 240.7659574468085 ['8', '20', '19', '23', '45'] 12038.297872340438
19 240.7659574468085 ['8', '20', '19', '23', '45'] 12038.297872340438
20 240.7659574468085 ['8', '20', '19', '23', '45'] 12038.297872340438
21 240.7659574468085 ['8', '20', '19', '23', '45'] 12038.297872340438
22 240.7659574468085 ['8', '20', '19', '23', '45'] 12038.297872340438
23 240.7659574468085 ['8', '20', '19', '23', '45'] 12038.297872340438
24 240.7659574468085 ['8', '20', '19', '23', '45'] 12038.297872340438
25 240.7659574468085 ['8', '20', '19', '23', '45'] 12038.297872340438
26 240.7659574468085 ['8', '20', '19', '23', '45'] 12038.297872340438
27 240.7659574468085 ['8', '20', '19', '23', '45'] 12038.297872340438
28 240.7659574468085 ['8', '20', '19', '23', '45'] 12038.297872340438
29 240.7659574468085 ['8', '20', '19', '23', '45'] 12038.297872340438
30 240.7659574468085 ['8', '20', '19', '23', '45'] 12038.297872340438
31 240.7659574468085 ['8', '20', '19', '23', '45'] 12038.297872340438
32 240.7659574468085 ['8', '20', '19', '23', '45'] 12038.297872340438
33 240.7659574468085 ['8', '20', '19', '23', '45'] 12038.297872340438
34 240.7659574468085 ['8', '20', '19', '23', '45'] 12038.297872340438
35 240.7659574468085 ['8', '20', '19', '23', '45'] 12038.297872340438
36 240.7659574468085 ['8', '20', '19', '23', '45'] 12038.297872340438
37 240.7659574468085 ['8', '20', '19', '23', '45'] 12038.297872340438
38 240.7659574468085 ['8', '20', '19', '23', '45'] 12038.297872340438
39 240.7659574468085 ['8', '20', '19', '23', '45'] 12038.297872340438
40 240.7659574468085 ['8', '20', '19', '23', '45'] 12038.297872340438
41 240.7659574468085 ['8', '20', '19', '23', '45'] 12038.297872340438
42 240.7659574468085 ['8', '20', '19', '23', '45'] 12038.297872340438
43 240.7659574468085 ['8', '20', '19', '23', '45'] 12038.297872340438
44 240.7659574468085 ['8', '20', '19', '23', '45'] 12038.297872340438
45 240.7659574468085 ['8', '20', '19', '23', '45'] 12038.297872340438
46 240.7659574468085 ['8', '20', '19', '23', '45'] 12038.297872340438
47 240.7659574468085 ['8', '20', '19', '23', '45'] 12038.297872340438
48 240.7659574468085 ['8', '20', '19', '23', '45'] 12038.297872340438
49 240.7659574468085 ['8', '20', '19', '23', '45'] 12038.297872340438
50 240.7659574468085 ['8', '20', '19', '23', '45'] 12038.297872340438
51 240.7659574468085 ['8', '20', '19', '23', '45'] 12038.297872340438
52 240.7659574468085 ['8', '20', '19', '23', '45'] 12038.297872340438
53 240.7659574468085 ['8', '20', '19', '23', '45'] 12038.297872340438
54 240.7659574468085 ['8', '20', '19', '23', '45'] 12038.297872340438
55 240.7659574468085 ['8', '20', '19', '23', '45'] 12038.297872340438
56 240.7659574468085 ['8', '20', '19', '23', '45'] 12038.297872340438
57 240.7659574468085 ['8', '20', '19', '23', '45'] 12038.297872340438
58 240.7659574468085 ['8', '20', '19', '23', '45'] 12038.297872340438
59 240.7659574468085 ['8', '20', '19', '23', '45'] 12038.297872340438
60 240.7659574468085 ['8', '20', '19', '23', '45'] 12038.297872340438
61 240.7659574468085 ['8', '20', '19', '23', '45'] 12038.297872340438
62 240.7659574468085 ['8', '20', '19', '23', '45'] 12038.297872340438
63 240.7659574468085 ['8', '20', '19', '23', '45'] 12038.297872340438
64 240.7659574468085 ['8', '20', '19', '23', '45'] 12038.297872340438
65 240.7659574468085 ['8', '20', '19', '23', '45'] 12038.297872340438
66 240.7659574468085 ['8', '20', '19', '23', '45'] 12038.297872340438
67 240.7659574468085 ['8', '20', '19', '23', '45'] 12038.297872340438
68 240.7659574468085 ['8', '20', '19', '23', '45'] 12038.297872340438
69 240.7659574468085 ['8', '20', '19', '23', '45'] 12038.297872340438
70 240.7659574468085 ['8', '20', '19', '23', '45'] 12038.297872340438
71 240.7659574468085 ['8', '20', '19', '23', '45'] 12038.297872340438
72 240.7659574468085 ['8', '20', '19', '23', '45'] 12038.297872340438
73 240.7659574468085 ['8', '20', '19', '23', '45'] 12038.297872340438
74 240.7659574468085 ['8', '20', '19', '23', '45'] 12038.297872340438
75 240.7659574468085 ['8', '20', '19', '23', '45'] 12038.297872340438
76 240.7659574468085 ['8', '20', '19', '23', '45'] 12038.297872340438
77 240.7659574468085 ['8', '20', '19', '23', '45'] 12038.297872340438
78 240.7659574468085 ['8', '20', '19', '23', '45'] 12038.297872340438
79 240.7659574468085 ['8', '20', '19', '23', '45'] 12038.297872340438
80 240.7659574468085 ['8', '20', '19', '23', '45'] 12038.297872340438
81 240.7659574468085 ['8', '20', '19', '23', '45'] 12038.297872340438
82 240.7659574468085 ['8', '20', '19', '23', '45'] 12038.297872340438
83 240.7659574468085 ['8', '20', '19', '23', '45'] 12038.297872340438
84 240.7659574468085 ['8', '20', '19', '23', '45'] 12038.297872340438
85 240.7659574468085 ['8', '20', '19', '23', '45'] 12038.297872340438
86 240.7659574468085 ['8', '20', '19', '23', '45'] 12038.297872340438
87 240.7659574468085 ['8', '20', '19', '23', '45'] 12038.297872340438
88 240.7659574468085 ['8', '20', '19', '23', '45'] 12038.297872340438
89 240.7659574468085 ['8', '20', '19', '23', '45'] 12038.297872340438
90 240.7659574468085 ['8', '20', '19', '23', '45'] 12038.297872340438
91 240.7659574468085 ['8', '20', '19', '23', '45'] 12038.297872340438
92 240.7659574468085 ['8', '20', '19', '23', '45'] 12038.297872340438
93 240.7659574468085 ['8', '20', '19', '23', '45'] 12038.297872340438
94 240.7659574468085 ['8', '20', '19', '23', '45'] 12038.297872340438
95 240.7659574468085 ['8', '20', '19', '23', '45'] 12038.297872340438
96 240.7659574468085 ['8', '20', '19', '23', '45'] 12038.297872340438
97 240.7659574468085 ['8', '20', '19', '23', '45'] 12038.297872340438
98 240.7659574468085 ['8', '20', '19', '23', '45'] 12038.297872340438
99 240.7659574468085 ['8', '20', '19', '23', '45'] 12038.297872340438
100 240.7659574468085 ['8', '20', '19', '23', '45'] 12038.297872340438
101 240.7659574468085 ['8', '20', '19', '23', '45'] 12038.297872340438
102 240.7659574468085 ['8', '20', '19', '23', '45'] 12038.297872340438
103 240.7659574468085 ['8', '20', '19', '23', '45'] 12038.297872340438
104 240.7659574468085 ['8', '20', '19', '23', '45'] 12038.297872340438
105 240.7659574468085 ['8', '20', '19', '23', '45'] 12038.297872340438
106 240.7659574468085 ['8', '20', '19', '23', '45'] 12038.297872340438
107 240.7659574468085 ['8', '20', '19', '23', '45'] 12038.297872340438
108 240.7659574468085 ['8', '20', '19', '23', '45'] 12038.297872340438
109 240.7659574468085 ['8', '20', '19', '23', '45'] 12038.297872340438
110 240.7659574468085 ['8', '20', '19', '23', '45'] 12038.297872340438
111 240.7659574468085 ['8', '20', '19', '23', '45'] 12038.297872340438
112 240.7659574468085 ['8', '20', '19', '23', '45'] 12038.297872340438
113 240.7659574468085 ['8', '20', '19', '23', '45'] 12038.297872340438
114 240.7659574468085 ['8', '20', '19', '23', '45'] 12038.297872340438
115 240.7659574468085 ['8', '20', '19', '23', '45'] 12038.297872340438
116 240.7659574468085 ['8', '20', '19', '23', '45'] 12038.297872340438
117 240.7659574468085 ['8', '20', '19', '23', '45'] 12038.297872340438
118 240.7659574468085 ['8', '20', '19', '23', '45'] 12038.297872340438
119 240.7659574468085 ['8', '20', '19', '23', '45'] 12038.297872340438
120 240.7659574468085 ['8', '20', '19', '23', '45'] 12038.297872340438
121 240.7659574468085 ['8', '20', '19', '23', '45'] 12038.297872340438
122 240.7659574468085 ['8', '20', '19', '23', '45'] 12038.297872340438
123 240.7659574468085 ['8', '20', '19', '23', '45'] 12038.297872340438
124 240.7659574468085 ['8', '20', '19', '23', '45'] 12038.297872340438
125 240.7659574468085 ['8', '20', '19', '23', '45'] 12038.297872340438
126 240.7659574468085 ['8', '20', '19', '23', '45'] 12038.297872340438
127 240.7659574468085 ['8', '20', '19', '23', '45'] 12038.297872340438
128 240.7659574468085 ['8', '20', '19', '23', '45'] 12038.297872340438
129 240.7659574468085 ['8', '20', '19', '23', '45'] 12038.297872340438
130 240.7659574468085 ['8', '20', '19', '23', '45'] 12038.297872340438
131 240.7659574468085 ['8', '20', '19', '23', '45'] 12038.297872340438
132 240.7659574468085 ['8', '20', '19', '23', '45'] 12038.297872340438
133 240.7659574468085 ['8', '20', '19', '23', '45'] 12038.297872340438
134 240.7659574468085 ['8', '20', '19', '23', '45'] 12038.297872340438
135 240.7659574468085 ['8', '20', '19', '23', '45'] 12038.297872340438
136 240.7659574468085 ['8', '20', '19', '23', '45'] 12038.297872340438
137 240.7659574468085 ['8', '20', '19', '23', '45'] 12038.297872340438
138 240.7659574468085 ['8', '20', '19', '23', '45'] 12038.297872340438
139 240.7659574468085 ['8', '20', '19', '23', '45'] 12038.297872340438
140 240.7659574468085 ['8', '20', '19', '23', '45'] 12038.297872340438
141 240.7659574468085 ['8', '20', '19', '23', '45'] 12038.297872340438
142 240.7659574468085 ['8', '20', '19', '23', '45'] 12038.297872340438
143 240.7659574468085 ['8', '20', '19', '23', '45'] 12038.297872340438
144 240.7659574468085 ['8', '20', '19', '23', '45'] 12038.297872340438
145 240.7659574468085 ['8', '20', '19', '23', '45'] 12038.297872340438
146 240.7659574468085 ['8', '20', '19', '23', '45'] 12038.297872340438
147 240.7659574468085 ['8', '20', '19', '23', '45'] 12038.297872340438
148 240.7659574468085 ['8', '20', '19', '23', '45'] 12038.297872340438
149 240.7659574468085 ['8', '20', '19', '23', '45'] 12038.297872340438
150 240.7659574468085 ['8', '20', '19', '23', '45'] 12038.297872340438
151 240.7659574468085 ['8', '20', '19', '23', '45'] 12038.297872340438
152 240.7659574468085 ['8', '20', '19', '23', '45'] 12038.297872340438
153 240.7659574468085 ['8', '20', '19', '23', '45'] 12038.297872340438
154 240.7659574468085 ['8', '20', '19', '23', '45'] 12038.297872340438
155 240.7659574468085 ['8', '20', '19', '23', '45'] 12038.297872340438
156 240.7659574468085 ['8', '20', '19', '23', '45'] 12038.297872340438
157 240.7659574468085 ['8', '20', '19', '23', '45'] 12038.297872340438
158 240.7659574468085 ['8', '20', '19', '23', '45'] 12038.297872340438
159 240.7659574468085 ['8', '20', '19', '23', '45'] 12038.297872340438
160 240.7659574468085 ['8', '20', '19', '23', '45'] 12038.297872340438
161 240.7659574468085 ['8', '20', '19', '23', '45'] 12038.297872340438
162 240.7659574468085 ['8', '20', '19', '23', '45'] 12038.297872340438
163 240.7659574468085 ['8', '20', '19', '23', '45'] 12038.297872340438
164 240.7659574468085 ['8', '20', '19', '23', '45'] 12038.297872340438
165 240.7659574468085 ['8', '20', '19', '23', '45'] 12038.297872340438
166 240.7659574468085 ['8', '20', '19', '23', '45'] 12038.297872340438
167 240.7659574468085 ['8', '20', '19', '23', '45'] 12038.297872340438
168 240.7659574468085 ['8', '20', '19', '23', '45'] 12038.297872340438
169 240.7659574468085 ['8', '20', '19', '23', '45'] 12038.297872340438
170 240.7659574468085 ['8', '20', '19', '23', '45'] 12038.297872340438
171 240.7659574468085 ['8', '20', '19', '23', '45'] 12038.297872340438
172 240.7659574468085 ['8', '20', '19', '23', '45'] 12038.297872340438
173 240.7659574468085 ['8', '20', '19', '23', '45'] 12038.297872340438
174 240.7659574468085 ['8', '20', '19', '23', '45'] 12038.297872340438
175 240.7659574468085 ['8', '20', '19', '23', '45'] 12038.297872340438
176 240.7659574468085 ['8', '20', '19', '23', '45'] 12038.297872340438
177 240.7659574468085 ['8', '20', '19', '23', '45'] 12038.297872340438
178 240.7659574468085 ['8', '20', '19', '23', '45'] 12038.297872340438
179 240.7659574468085 ['8', '20', '19', '23', '45'] 12038.297872340438
180 240.7659574468085 ['8', '20', '19', '23', '45'] 12038.297872340438
181 240.7659574468085 ['8', '20', '19', '23', '45'] 12038.297872340438
182 240.7659574468085 ['8', '20', '19', '23', '45'] 12038.297872340438
183 240.7659574468085 ['8', '20', '19', '23', '45'] 12038.297872340438
184 240.7659574468085 ['8', '20', '19', '23', '45'] 12038.297872340438
185 240.7659574468085 ['8', '20', '19', '23', '45'] 12038.297872340438
186 240.7659574468085 ['8', '20', '19', '23', '45'] 12038.297872340438
187 240.7659574468085 ['8', '20', '19', '23', '45'] 12038.297872340438
188 240.7659574468085 ['8', '20', '19', '23', '45'] 12038.297872340438
189 240.7659574468085 ['8', '20', '19', '23', '45'] 12038.297872340438
190 240.7659574468085 ['8', '20', '19', '23', '45'] 12038.297872340438
191 240.7659574468085 ['8', '20', '19', '23', '45'] 12038.297872340438
192 240.7659574468085 ['8', '20', '19', '23', '45'] 12038.297872340438
193 240.7659574468085 ['8', '20', '19', '23', '45'] 12038.297872340438
194 240.7659574468085 ['8', '20', '19', '23', '45'] 12038.297872340438
195 240.7659574468085 ['8', '20', '19', '23', '45'] 12038.297872340438
196 240.7659574468085 ['8', '20', '19', '23', '45'] 12038.297872340438
197 240.7659574468085 ['8', '20', '19', '23', '45'] 12038.297872340438
198 240.7659574468085 ['8', '20', '19', '23', '45'] 12038.297872340438
199 240.7659574468085 ['8', '20', '19', '23', '45'] 12038.297872340438
