0 18.72340425531915 ['49', '5', '44', '14', '35'] 1007.914893617022
1 17.27659574468085 ['28', '49', '6', '14', '40'] 975.9148936170216
2 17.27659574468085 ['28', '49', '6', '14', '40'] 947.5744680851059
3 17.19148936170213 ['14', '28', '6', '5', '49'] 917.9574468085107
4 16.595744680851062 ['49', '14', '6', '28', '37'] 893.5319148936168
5 16.595744680851062 ['49', '14', '6', '28', '37'] 871.6595744680849
6 16.595744680851062 ['49', '14', '6', '28', '37'] 857.1063829787238
7 16.425531914893618 ['6', '49', '28', '37', '44'] 847.2340425531909
8 16.25531914893617 ['49', '6', '28', '37', '52'] 836.5957446808507
9 16.25531914893617 ['49', '6', '28', '37', '52'] 829.9574468085113
10 16.25531914893617 ['49', '6', '28', '37', '52'] 827.2340425531922
11 16.25531914893617 ['49', '6', '28', '37', '52'] 824.851063829788
12 16.25531914893617 ['49', '6', '28', '37', '52'] 819.5744680851072
13 16.25531914893617 ['49', '6', '28', '37', '52'] 816.0000000000009
14 16.25531914893617 ['49', '6', '28', '37', '52'] 812.7659574468095
15 16.25531914893617 ['49', '6', '28', '37', '52'] 812.7659574468095
16 16.25531914893617 ['49', '6', '28', '37', '52'] 812.7659574468095
17 16.25531914893617 ['49', '6', '28', '37', '52'] 812.7659574468095
18 16.25531914893617 ['49', '6', '28', '37', '52'] 812.7659574468095
19 16.25531914893617 ['49', '6', '28', '37', '52'] 812.7659574468095
20 16.25531914893617 ['49', '6', '28', '37', '52'] 812.7659574468095
21 16.25531914893617 ['49', '6', '28', '37', '52'] 812.7659574468095
22 16.25531914893617 ['49', '6', '28', '37', '52'] 812.7659574468095
23 16.25531914893617 ['49', '6', '28', '37', '52'] 812.7659574468095
24 16.25531914893617 ['49', '6', '28', '37', '52'] 812.7659574468095
25 16.25531914893617 ['49', '6', '28', '37', '52'] 812.7659574468095
26 16.25531914893617 ['49', '6', '28', '37', '52'] 812.7659574468095
27 16.25531914893617 ['49', '6', '28', '37', '52'] 812.7659574468095
28 16.25531914893617 ['49', '6', '28', '37', '52'] 812.7659574468095
29 16.25531914893617 ['49', '6', '28', '37', '52'] 812.7659574468095
30 16.25531914893617 ['49', '6', '28', '37', '52'] 812.7659574468095
31 16.25531914893617 ['49', '6', '28', '37', '52'] 812.7659574468095
32 16.25531914893617 ['49', '6', '28', '37', '52'] 812.7659574468095
33 16.25531914893617 ['49', '6', '28', '37', '52'] 812.7659574468095
34 16.25531914893617 ['49', '6', '28', '37', '52'] 812.7659574468095
35 16.25531914893617 ['49', '6', '28', '37', '52'] 812.7659574468095
36 16.25531914893617 ['49', '6', '28', '37', '52'] 812.7659574468095
37 16.25531914893617 ['49', '6', '28', '37', '52'] 812.7659574468095
38 16.25531914893617 ['49', '6', '28', '37', '52'] 812.7659574468095
39 16.25531914893617 ['49', '6', '28', '37', '52'] 812.7659574468095
40 16.25531914893617 ['49', '6', '28', '37', '52'] 812.7659574468095
41 16.25531914893617 ['49', '6', '28', '37', '52'] 812.7659574468095
42 16.25531914893617 ['49', '6', '28', '37', '52'] 812.7659574468095
43 16.25531914893617 ['49', '6', '28', '37', '52'] 812.7659574468095
44 16.25531914893617 ['49', '6', '28', '37', '52'] 812.7659574468095
45 16.25531914893617 ['49', '6', '28', '37', '52'] 812.7659574468095
46 16.25531914893617 ['49', '6', '28', '37', '52'] 812.7659574468095
47 16.25531914893617 ['49', '6', '28', '37', '52'] 812.7659574468095
48 16.25531914893617 ['49', '6', '28', '37', '52'] 812.7659574468095
49 16.25531914893617 ['49', '6', '28', '37', '52'] 812.7659574468095
50 16.25531914893617 ['49', '6', '28', '37', '52'] 812.7659574468095
51 16.25531914893617 ['49', '6', '28', '37', '52'] 812.7659574468095
52 16.25531914893617 ['49', '6', '28', '37', '52'] 812.7659574468095
53 16.25531914893617 ['49', '6', '28', '37', '52'] 812.7659574468095
54 16.25531914893617 ['49', '6', '28', '37', '52'] 812.7659574468095
55 16.25531914893617 ['49', '6', '28', '37', '52'] 812.7659574468095
56 16.25531914893617 ['49', '6', '28', '37', '52'] 812.7659574468095
57 16.25531914893617 ['49', '6', '28', '37', '52'] 812.7659574468095
58 16.25531914893617 ['49', '6', '28', '37', '52'] 812.7659574468095
59 16.25531914893617 ['49', '6', '28', '37', '52'] 812.7659574468095
60 16.25531914893617 ['49', '6', '28', '37', '52'] 812.7659574468095
61 16.25531914893617 ['49', '6', '28', '37', '52'] 812.7659574468095
62 16.25531914893617 ['49', '6', '28', '37', '52'] 812.7659574468095
63 16.25531914893617 ['49', '6', '28', '37', '52'] 812.7659574468095
64 16.25531914893617 ['49', '6', '28', '37', '52'] 812.7659574468095
65 16.25531914893617 ['49', '6', '28', '37', '52'] 812.7659574468095
66 16.25531914893617 ['49', '6', '28', '37', '52'] 812.7659574468095
67 16.25531914893617 ['49', '6', '28', '37', '52'] 812.7659574468095
68 16.25531914893617 ['49', '6', '28', '37', '52'] 812.7659574468095
69 16.25531914893617 ['49', '6', '28', '37', '52'] 812.7659574468095
70 16.25531914893617 ['49', '6', '28', '37', '52'] 812.7659574468095
71 16.25531914893617 ['49', '6', '28', '37', '52'] 812.7659574468095
72 16.25531914893617 ['49', '6', '28', '37', '52'] 812.7659574468095
73 16.25531914893617 ['49', '6', '28', '37', '52'] 812.7659574468095
74 16.25531914893617 ['49', '6', '28', '37', '52'] 812.7659574468095
75 16.25531914893617 ['49', '6', '28', '37', '52'] 812.7659574468095
76 16.25531914893617 ['49', '6', '28', '37', '52'] 812.7659574468095
77 16.25531914893617 ['49', '6', '28', '37', '52'] 812.7659574468095
78 16.25531914893617 ['49', '6', '28', '37', '52'] 812.7659574468095
79 16.25531914893617 ['49', '6', '28', '37', '52'] 812.7659574468095
80 16.25531914893617 ['49', '6', '28', '37', '52'] 812.7659574468095
81 16.25531914893617 ['49', '6', '28', '37', '52'] 812.7659574468095
82 16.25531914893617 ['49', '6', '28', '37', '52'] 812.7659574468095
83 16.25531914893617 ['49', '6', '28', '37', '52'] 812.7659574468095
84 16.25531914893617 ['49', '6', '28', '37', '52'] 812.7659574468095
85 16.25531914893617 ['49', '6', '28', '37', '52'] 812.7659574468095
86 16.25531914893617 ['49', '6', '28', '37', '52'] 812.7659574468095
87 16.25531914893617 ['49', '6', '28', '37', '52'] 812.7659574468095
88 16.25531914893617 ['49', '6', '28', '37', '52'] 812.7659574468095
89 16.25531914893617 ['49', '6', '28', '37', '52'] 812.7659574468095
90 16.25531914893617 ['49', '6', '28', '37', '52'] 812.7659574468095
91 16.25531914893617 ['49', '6', '28', '37', '52'] 812.7659574468095
92 16.25531914893617 ['49', '6', '28', '37', '52'] 812.7659574468095
93 16.25531914893617 ['49', '6', '28', '37', '52'] 812.7659574468095
94 16.25531914893617 ['49', '6', '28', '37', '52'] 812.7659574468095
95 16.25531914893617 ['49', '6', '28', '37', '52'] 812.7659574468095
96 16.25531914893617 ['49', '6', '28', '37', '52'] 812.7659574468095
97 16.25531914893617 ['49', '6', '28', '37', '52'] 812.7659574468095
98 16.25531914893617 ['49', '6', '28', '37', '52'] 812.7659574468095
99 16.25531914893617 ['49', '6', '28', '37', '52'] 812.7659574468095
100 16.25531914893617 ['49', '6', '28', '37', '52'] 812.7659574468095
101 16.25531914893617 ['49', '6', '28', '37', '52'] 812.7659574468095
102 16.25531914893617 ['49', '6', '28', '37', '52'] 812.7659574468095
103 16.25531914893617 ['49', '6', '28', '37', '52'] 812.7659574468095
104 16.25531914893617 ['49', '6', '28', '37', '52'] 812.7659574468095
105 16.25531914893617 ['49', '6', '28', '37', '52'] 812.7659574468095
106 16.25531914893617 ['49', '6', '28', '37', '52'] 812.7659574468095
107 16.25531914893617 ['49', '6', '28', '37', '52'] 812.7659574468095
108 16.25531914893617 ['49', '6', '28', '37', '52'] 812.7659574468095
109 16.25531914893617 ['49', '6', '28', '37', '52'] 812.7659574468095
110 16.25531914893617 ['49', '6', '28', '37', '52'] 812.7659574468095
111 16.25531914893617 ['49', '6', '28', '37', '52'] 812.7659574468095
112 16.25531914893617 ['49', '6', '28', '37', '52'] 812.7659574468095
113 16.25531914893617 ['49', '6', '28', '37', '52'] 812.7659574468095
114 16.25531914893617 ['49', '6', '28', '37', '52'] 812.7659574468095
115 16.25531914893617 ['49', '6', '28', '37', '52'] 812.7659574468095
116 16.25531914893617 ['49', '6', '28', '37', '52'] 812.7659574468095
117 16.25531914893617 ['49', '6', '28', '37', '52'] 812.7659574468095
118 16.25531914893617 ['49', '6', '28', '37', '52'] 812.7659574468095
119 16.25531914893617 ['49', '6', '28', '37', '52'] 812.7659574468095
120 16.25531914893617 ['49', '6', '28', '37', '52'] 812.7659574468095
121 16.25531914893617 ['49', '6', '28', '37', '52'] 812.7659574468095
122 16.25531914893617 ['49', '6', '28', '37', '52'] 812.7659574468095
123 16.25531914893617 ['49', '6', '28', '37', '52'] 812.7659574468095
124 16.25531914893617 ['49', '6', '28', '37', '52'] 812.7659574468095
125 16.25531914893617 ['49', '6', '28', '37', '52'] 812.7659574468095
126 16.25531914893617 ['49', '6', '28', '37', '52'] 812.7659574468095
127 16.25531914893617 ['49', '6', '28', '37', '52'] 812.7659574468095
128 16.25531914893617 ['49', '6', '28', '37', '52'] 812.7659574468095
129 16.25531914893617 ['49', '6', '28', '37', '52'] 812.7659574468095
130 16.25531914893617 ['49', '6', '28', '37', '52'] 812.7659574468095
131 16.25531914893617 ['49', '6', '28', '37', '52'] 812.7659574468095
132 16.25531914893617 ['49', '6', '28', '37', '52'] 812.7659574468095
133 16.25531914893617 ['49', '6', '28', '37', '52'] 812.7659574468095
134 16.25531914893617 ['49', '6', '28', '37', '52'] 812.7659574468095
135 16.25531914893617 ['49', '6', '28', '37', '52'] 812.7659574468095
136 16.25531914893617 ['49', '6', '28', '37', '52'] 812.7659574468095
137 16.25531914893617 ['49', '6', '28', '37', '52'] 812.7659574468095
138 16.25531914893617 ['49', '6', '28', '37', '52'] 812.7659574468095
139 16.25531914893617 ['49', '6', '28', '37', '52'] 812.7659574468095
140 16.25531914893617 ['49', '6', '28', '37', '52'] 812.7659574468095
141 16.25531914893617 ['49', '6', '28', '37', '52'] 812.7659574468095
142 16.25531914893617 ['49', '6', '28', '37', '52'] 812.7659574468095
143 16.25531914893617 ['49', '6', '28', '37', '52'] 812.7659574468095
144 16.25531914893617 ['49', '6', '28', '37', '52'] 812.7659574468095
145 16.25531914893617 ['49', '6', '28', '37', '52'] 812.7659574468095
146 16.25531914893617 ['49', '6', '28', '37', '52'] 812.7659574468095
147 16.25531914893617 ['49', '6', '28', '37', '52'] 812.7659574468095
148 16.25531914893617 ['49', '6', '28', '37', '52'] 812.7659574468095
149 16.25531914893617 ['49', '6', '28', '37', '52'] 812.7659574468095
150 16.25531914893617 ['49', '6', '28', '37', '52'] 812.7659574468095
151 16.25531914893617 ['49', '6', '28', '37', '52'] 812.7659574468095
152 16.25531914893617 ['49', '6', '28', '37', '52'] 812.7659574468095
153 16.25531914893617 ['49', '6', '28', '37', '52'] 812.7659574468095
154 16.25531914893617 ['49', '6', '28', '37', '52'] 812.7659574468095
155 16.25531914893617 ['49', '6', '28', '37', '52'] 812.7659574468095
156 16.25531914893617 ['49', '6', '28', '37', '52'] 812.7659574468095
157 16.25531914893617 ['49', '6', '28', '37', '52'] 812.7659574468095
158 16.25531914893617 ['49', '6', '28', '37', '52'] 812.7659574468095
159 16.25531914893617 ['49', '6', '28', '37', '52'] 812.7659574468095
160 16.25531914893617 ['49', '6', '28', '37', '52'] 812.7659574468095
161 16.25531914893617 ['49', '6', '28', '37', '52'] 812.7659574468095
162 16.25531914893617 ['49', '6', '28', '37', '52'] 812.7659574468095
163 16.25531914893617 ['49', '6', '28', '37', '52'] 812.7659574468095
164 16.25531914893617 ['49', '6', '28', '37', '52'] 812.7659574468095
165 16.25531914893617 ['49', '6', '28', '37', '52'] 812.7659574468095
166 16.25531914893617 ['49', '6', '28', '37', '52'] 812.7659574468095
167 16.25531914893617 ['49', '6', '28', '37', '52'] 812.7659574468095
168 16.25531914893617 ['49', '6', '28', '37', '52'] 812.7659574468095
169 16.25531914893617 ['49', '6', '28', '37', '52'] 812.7659574468095
170 16.25531914893617 ['49', '6', '28', '37', '52'] 812.7659574468095
171 16.25531914893617 ['49', '6', '28', '37', '52'] 812.7659574468095
172 16.25531914893617 ['49', '6', '28', '37', '52'] 812.7659574468095
173 16.25531914893617 ['49', '6', '28', '37', '52'] 812.7659574468095
174 16.25531914893617 ['49', '6', '28', '37', '52'] 812.7659574468095
175 16.25531914893617 ['49', '6', '28', '37', '52'] 812.7659574468095
176 16.25531914893617 ['49', '6', '28', '37', '52'] 812.7659574468095
177 16.25531914893617 ['49', '6', '28', '37', '52'] 812.7659574468095
178 16.25531914893617 ['49', '6', '28', '37', '52'] 812.7659574468095
179 16.25531914893617 ['49', '6', '28', '37', '52'] 812.7659574468095
180 16.25531914893617 ['49', '6', '28', '37', '52'] 812.7659574468095
181 16.25531914893617 ['49', '6', '28', '37', '52'] 812.7659574468095
182 16.25531914893617 ['49', '6', '28', '37', '52'] 812.7659574468095
183 16.25531914893617 ['49', '6', '28', '37', '52'] 812.7659574468095
184 16.25531914893617 ['49', '6', '28', '37', '52'] 812.7659574468095
185 16.25531914893617 ['49', '6', '28', '37', '52'] 812.7659574468095
186 16.25531914893617 ['49', '6', '28', '37', '52'] 812.7659574468095
187 16.25531914893617 ['49', '6', '28', '37', '52'] 812.7659574468095
188 16.25531914893617 ['49', '6', '28', '37', '52'] 812.7659574468095
189 16.25531914893617 ['49', '6', '28', '37', '52'] 812.7659574468095
190 16.25531914893617 ['49', '6', '28', '37', '52'] 812.7659574468095
191 16.25531914893617 ['49', '6', '28', '37', '52'] 812.7659574468095
192 16.25531914893617 ['49', '6', '28', '37', '52'] 812.7659574468095
193 16.25531914893617 ['49', '6', '28', '37', '52'] 812.7659574468095
194 16.25531914893617 ['49', '6', '28', '37', '52'] 812.7659574468095
195 16.25531914893617 ['49', '6', '28', '37', '52'] 812.7659574468095
196 16.25531914893617 ['49', '6', '28', '37', '52'] 812.7659574468095
197 16.25531914893617 ['49', '6', '28', '37', '52'] 812.7659574468095
198 16.25531914893617 ['49', '6', '28', '37', '52'] 812.7659574468095
199 16.25531914893617 ['49', '6', '28', '37', '52'] 812.7659574468095
