0 143.5438596491228 ['58', '5', '17', '31', '41', '60'] 7570.070175438599
1 137.4561403508772 ['43', '56', '23', '5', '29', '36'] 7415.9473684210525
2 137.4561403508772 ['43', '56', '23', '5', '29', '36'] 7278.473684210527
3 137.4561403508772 ['43', '56', '23', '5', '29', '36'] 7165.122807017545
4 135.08771929824562 ['29', '56', '13', '60', '5', '41'] 7055.824561403509
5 135.08771929824562 ['29', '56', '13', '60', '5', '41'] 6971.508771929825
6 132.96491228070175 ['36', '5', '29', '62', '8', '43'] 6871.789473684208
7 132.96491228070175 ['36', '5', '29', '62', '8', '43'] 6801.9298245614045
8 132.7719298245614 ['56', '5', '29', '8', '60', '41'] 6751.894736842104
9 132.4561403508772 ['5', '41', '8', '60', '43', '29'] 6735.263157894744
10 132.4561403508772 ['5', '41', '8', '60', '43', '29'] 6706.526315789467
11 132.4561403508772 ['5', '41', '8', '60', '43', '29'] 6671.3157894736805
12 132.4561403508772 ['5', '41', '8', '60', '43', '29'] 6641.543859649121
13 132.4561403508772 ['5', '41', '8', '60', '43', '29'] 6625.7894736842145
14 132.4561403508772 ['5', '41', '8', '60', '43', '29'] 6622.807017543857
15 132.4561403508772 ['5', '41', '8', '60', '43', '29'] 6622.807017543857
16 132.4561403508772 ['5', '41', '8', '60', '43', '29'] 6622.807017543857
17 132.4561403508772 ['5', '41', '8', '60', '43', '29'] 6622.807017543857
18 132.4561403508772 ['5', '41', '8', '60', '43', '29'] 6622.807017543857
19 132.4561403508772 ['5', '41', '8', '60', '43', '29'] 6622.807017543857
20 132.4561403508772 ['5', '41', '8', '60', '43', '29'] 6622.807017543857
21 132.4561403508772 ['5', '41', '8', '60', '43', '29'] 6622.807017543857
22 132.4561403508772 ['5', '41', '8', '60', '43', '29'] 6622.807017543857
23 132.4561403508772 ['5', '41', '8', '60', '43', '29'] 6622.807017543857
24 132.4561403508772 ['5', '41', '8', '60', '43', '29'] 6622.807017543857
25 132.4561403508772 ['5', '41', '8', '60', '43', '29'] 6622.807017543857
26 132.4561403508772 ['5', '41', '8', '60', '43', '29'] 6622.807017543857
27 132.4561403508772 ['5', '41', '8', '60', '43', '29'] 6622.807017543857
28 132.4561403508772 ['5', '41', '8', '60', '43', '29'] 6622.807017543857
29 132.4561403508772 ['5', '41', '8', '60', '43', '29'] 6622.807017543857
30 132.4561403508772 ['5', '41', '8', '60', '43', '29'] 6622.807017543857
31 132.4561403508772 ['5', '41', '8', '60', '43', '29'] 6622.807017543857
32 132.4561403508772 ['5', '41', '8', '60', '43', '29'] 6622.807017543857
33 132.4561403508772 ['5', '41', '8', '60', '43', '29'] 6622.807017543857
34 132.4561403508772 ['5', '41', '8', '60', '43', '29'] 6622.807017543857
35 132.4561403508772 ['5', '41', '8', '60', '43', '29'] 6622.807017543857
36 132.4561403508772 ['5', '41', '8', '60', '43', '29'] 6622.807017543857
37 132.4561403508772 ['5', '41', '8', '60', '43', '29'] 6622.807017543857
38 132.4561403508772 ['5', '41', '8', '60', '43', '29'] 6622.807017543857
39 132.4561403508772 ['5', '41', '8', '60', '43', '29'] 6622.807017543857
40 132.4561403508772 ['5', '41', '8', '60', '43', '29'] 6622.807017543857
41 132.4561403508772 ['5', '41', '8', '60', '43', '29'] 6622.807017543857
42 132.4561403508772 ['5', '41', '8', '60', '43', '29'] 6622.807017543857
43 132.4561403508772 ['5', '41', '8', '60', '43', '29'] 6622.807017543857
44 132.4561403508772 ['5', '41', '8', '60', '43', '29'] 6622.807017543857
45 132.4561403508772 ['5', '41', '8', '60', '43', '29'] 6622.807017543857
46 132.4561403508772 ['5', '41', '8', '60', '43', '29'] 6622.807017543857
47 132.4561403508772 ['5', '41', '8', '60', '43', '29'] 6622.807017543857
48 132.4561403508772 ['5', '41', '8', '60', '43', '29'] 6622.807017543857
49 132.4561403508772 ['5', '41', '8', '60', '43', '29'] 6622.807017543857
50 132.4561403508772 ['5', '41', '8', '60', '43', '29'] 6622.807017543857
51 132.4561403508772 ['5', '41', '8', '60', '43', '29'] 6622.807017543857
52 132.4561403508772 ['5', '41', '8', '60', '43', '29'] 6622.807017543857
53 132.4561403508772 ['5', '41', '8', '60', '43', '29'] 6622.807017543857
54 132.4561403508772 ['5', '41', '8', '60', '43', '29'] 6622.807017543857
55 132.4561403508772 ['5', '41', '8', '60', '43', '29'] 6622.807017543857
56 132.4561403508772 ['5', '41', '8', '60', '43', '29'] 6622.807017543857
57 132.4561403508772 ['5', '41', '8', '60', '43', '29'] 6622.807017543857
58 132.4561403508772 ['5', '41', '8', '60', '43', '29'] 6622.807017543857
59 132.4561403508772 ['5', '41', '8', '60', '43', '29'] 6622.807017543857
60 132.4561403508772 ['5', '41', '8', '60', '43', '29'] 6622.807017543857
61 132.4561403508772 ['5', '41', '8', '60', '43', '29'] 6622.807017543857
62 132.4561403508772 ['5', '41', '8', '60', '43', '29'] 6622.807017543857
63 132.4561403508772 ['5', '41', '8', '60', '43', '29'] 6622.807017543857
64 132.4561403508772 ['5', '41', '8', '60', '43', '29'] 6622.807017543857
65 132.4561403508772 ['5', '41', '8', '60', '43', '29'] 6622.807017543857
66 132.4561403508772 ['5', '41', '8', '60', '43', '29'] 6622.807017543857
67 132.4561403508772 ['5', '41', '8', '60', '43', '29'] 6622.807017543857
68 132.4561403508772 ['5', '41', '8', '60', '43', '29'] 6622.807017543857
69 132.4561403508772 ['5', '41', '8', '60', '43', '29'] 6622.807017543857
70 132.4561403508772 ['5', '41', '8', '60', '43', '29'] 6622.807017543857
71 132.4561403508772 ['5', '41', '8', '60', '43', '29'] 6622.807017543857
72 132.4561403508772 ['5', '41', '8', '60', '43', '29'] 6622.807017543857
73 132.4561403508772 ['5', '41', '8', '60', '43', '29'] 6622.807017543857
74 132.4561403508772 ['5', '41', '8', '60', '43', '29'] 6622.807017543857
75 132.4561403508772 ['5', '41', '8', '60', '43', '29'] 6622.807017543857
76 132.4561403508772 ['5', '41', '8', '60', '43', '29'] 6622.807017543857
77 132.4561403508772 ['5', '41', '8', '60', '43', '29'] 6622.807017543857
78 132.4561403508772 ['5', '41', '8', '60', '43', '29'] 6622.807017543857
79 132.4561403508772 ['5', '41', '8', '60', '43', '29'] 6622.807017543857
80 132.4561403508772 ['5', '41', '8', '60', '43', '29'] 6622.807017543857
81 132.4561403508772 ['5', '41', '8', '60', '43', '29'] 6622.807017543857
82 132.4561403508772 ['5', '41', '8', '60', '43', '29'] 6622.807017543857
83 132.4561403508772 ['5', '41', '8', '60', '43', '29'] 6622.807017543857
84 132.4561403508772 ['5', '41', '8', '60', '43', '29'] 6622.807017543857
85 132.4561403508772 ['5', '41', '8', '60', '43', '29'] 6622.807017543857
86 132.4561403508772 ['5', '41', '8', '60', '43', '29'] 6622.807017543857
87 132.4561403508772 ['5', '41', '8', '60', '43', '29'] 6622.807017543857
88 132.4561403508772 ['5', '41', '8', '60', '43', '29'] 6622.807017543857
89 132.4561403508772 ['5', '41', '8', '60', '43', '29'] 6622.807017543857
90 132.4561403508772 ['5', '41', '8', '60', '43', '29'] 6622.807017543857
91 132.4561403508772 ['5', '41', '8', '60', '43', '29'] 6622.807017543857
92 132.4561403508772 ['5', '41', '8', '60', '43', '29'] 6622.807017543857
93 132.4561403508772 ['5', '41', '8', '60', '43', '29'] 6622.807017543857
94 132.4561403508772 ['5', '41', '8', '60', '43', '29'] 6622.807017543857
95 132.4561403508772 ['5', '41', '8', '60', '43', '29'] 6622.807017543857
96 132.4561403508772 ['5', '41', '8', '60', '43', '29'] 6622.807017543857
97 132.4561403508772 ['5', '41', '8', '60', '43', '29'] 6622.807017543857
98 132.4561403508772 ['5', '41', '8', '60', '43', '29'] 6622.807017543857
99 132.4561403508772 ['5', '41', '8', '60', '43', '29'] 6622.807017543857
100 132.4561403508772 ['5', '41', '8', '60', '43', '29'] 6622.807017543857
101 132.4561403508772 ['5', '41', '8', '60', '43', '29'] 6622.807017543857
102 132.4561403508772 ['5', '41', '8', '60', '43', '29'] 6622.807017543857
103 132.4561403508772 ['5', '41', '8', '60', '43', '29'] 6622.807017543857
104 132.4561403508772 ['5', '41', '8', '60', '43', '29'] 6622.807017543857
105 132.4561403508772 ['5', '41', '8', '60', '43', '29'] 6622.807017543857
106 132.4561403508772 ['5', '41', '8', '60', '43', '29'] 6622.807017543857
107 132.4561403508772 ['5', '41', '8', '60', '43', '29'] 6622.807017543857
108 132.4561403508772 ['5', '41', '8', '60', '43', '29'] 6622.807017543857
109 132.4561403508772 ['5', '41', '8', '60', '43', '29'] 6622.807017543857
110 132.4561403508772 ['5', '41', '8', '60', '43', '29'] 6622.807017543857
111 132.4561403508772 ['5', '41', '8', '60', '43', '29'] 6622.807017543857
112 132.4561403508772 ['5', '41', '8', '60', '43', '29'] 6622.807017543857
113 132.4561403508772 ['5', '41', '8', '60', '43', '29'] 6622.807017543857
114 132.4561403508772 ['5', '41', '8', '60', '43', '29'] 6622.807017543857
115 132.4561403508772 ['5', '41', '8', '60', '43', '29'] 6622.807017543857
116 132.4561403508772 ['5', '41', '8', '60', '43', '29'] 6622.807017543857
117 132.4561403508772 ['5', '41', '8', '60', '43', '29'] 6622.807017543857
118 132.4561403508772 ['5', '41', '8', '60', '43', '29'] 6622.807017543857
119 132.4561403508772 ['5', '41', '8', '60', '43', '29'] 6622.807017543857
120 132.4561403508772 ['5', '41', '8', '60', '43', '29'] 6622.807017543857
121 132.4561403508772 ['5', '41', '8', '60', '43', '29'] 6622.807017543857
122 132.4561403508772 ['5', '41', '8', '60', '43', '29'] 6622.807017543857
123 132.4561403508772 ['5', '41', '8', '60', '43', '29'] 6622.807017543857
124 132.4561403508772 ['5', '41', '8', '60', '43', '29'] 6622.807017543857
125 132.4561403508772 ['5', '41', '8', '60', '43', '29'] 6622.807017543857
126 132.4561403508772 ['5', '41', '8', '60', '43', '29'] 6622.807017543857
127 132.4561403508772 ['5', '41', '8', '60', '43', '29'] 6622.807017543857
128 132.4561403508772 ['5', '41', '8', '60', '43', '29'] 6622.807017543857
129 132.4561403508772 ['5', '41', '8', '60', '43', '29'] 6622.807017543857
130 132.4561403508772 ['5', '41', '8', '60', '43', '29'] 6622.807017543857
131 132.4561403508772 ['5', '41', '8', '60', '43', '29'] 6622.807017543857
132 132.4561403508772 ['5', '41', '8', '60', '43', '29'] 6622.807017543857
133 132.4561403508772 ['5', '41', '8', '60', '43', '29'] 6622.807017543857
134 132.4561403508772 ['5', '41', '8', '60', '43', '29'] 6622.807017543857
135 132.4561403508772 ['5', '41', '8', '60', '43', '29'] 6622.807017543857
136 132.4561403508772 ['5', '41', '8', '60', '43', '29'] 6622.807017543857
137 132.4561403508772 ['5', '41', '8', '60', '43', '29'] 6622.807017543857
138 132.4561403508772 ['5', '41', '8', '60', '43', '29'] 6622.807017543857
139 132.4561403508772 ['5', '41', '8', '60', '43', '29'] 6622.807017543857
140 132.4561403508772 ['5', '41', '8', '60', '43', '29'] 6622.807017543857
141 132.4561403508772 ['5', '41', '8', '60', '43', '29'] 6622.807017543857
142 132.4561403508772 ['5', '41', '8', '60', '43', '29'] 6622.807017543857
143 132.4561403508772 ['5', '41', '8', '60', '43', '29'] 6622.807017543857
144 132.4561403508772 ['5', '41', '8', '60', '43', '29'] 6622.807017543857
145 132.4561403508772 ['5', '41', '8', '60', '43', '29'] 6622.807017543857
146 132.4561403508772 ['5', '41', '8', '60', '43', '29'] 6622.807017543857
147 132.4561403508772 ['5', '41', '8', '60', '43', '29'] 6622.807017543857
148 132.4561403508772 ['5', '41', '8', '60', '43', '29'] 6622.807017543857
149 132.4561403508772 ['5', '41', '8', '60', '43', '29'] 6622.807017543857
150 132.4561403508772 ['5', '41', '8', '60', '43', '29'] 6622.807017543857
151 132.4561403508772 ['5', '41', '8', '60', '43', '29'] 6622.807017543857
152 132.4561403508772 ['5', '41', '8', '60', '43', '29'] 6622.807017543857
153 132.4561403508772 ['5', '41', '8', '60', '43', '29'] 6622.807017543857
154 132.4561403508772 ['5', '41', '8', '60', '43', '29'] 6622.807017543857
155 132.4561403508772 ['5', '41', '8', '60', '43', '29'] 6622.807017543857
156 132.4561403508772 ['5', '41', '8', '60', '43', '29'] 6622.807017543857
157 132.4561403508772 ['5', '41', '8', '60', '43', '29'] 6622.807017543857
158 132.4561403508772 ['5', '41', '8', '60', '43', '29'] 6622.807017543857
159 132.4561403508772 ['5', '41', '8', '60', '43', '29'] 6622.807017543857
160 132.4561403508772 ['5', '41', '8', '60', '43', '29'] 6622.807017543857
161 132.4561403508772 ['5', '41', '8', '60', '43', '29'] 6622.807017543857
162 132.4561403508772 ['5', '41', '8', '60', '43', '29'] 6622.807017543857
163 132.4561403508772 ['5', '41', '8', '60', '43', '29'] 6622.807017543857
164 132.4561403508772 ['5', '41', '8', '60', '43', '29'] 6622.807017543857
165 132.4561403508772 ['5', '41', '8', '60', '43', '29'] 6622.807017543857
166 132.4561403508772 ['5', '41', '8', '60', '43', '29'] 6622.807017543857
167 132.4561403508772 ['5', '41', '8', '60', '43', '29'] 6622.807017543857
168 132.4561403508772 ['5', '41', '8', '60', '43', '29'] 6622.807017543857
169 132.4561403508772 ['5', '41', '8', '60', '43', '29'] 6622.807017543857
170 132.4561403508772 ['5', '41', '8', '60', '43', '29'] 6622.807017543857
171 132.4561403508772 ['5', '41', '8', '60', '43', '29'] 6622.807017543857
172 132.4561403508772 ['5', '41', '8', '60', '43', '29'] 6622.807017543857
173 132.4561403508772 ['5', '41', '8', '60', '43', '29'] 6622.807017543857
174 132.4561403508772 ['5', '41', '8', '60', '43', '29'] 6622.807017543857
175 132.4561403508772 ['5', '41', '8', '60', '43', '29'] 6622.807017543857
176 132.4561403508772 ['5', '41', '8', '60', '43', '29'] 6622.807017543857
177 132.4561403508772 ['5', '41', '8', '60', '43', '29'] 6622.807017543857
178 132.4561403508772 ['5', '41', '8', '60', '43', '29'] 6622.807017543857
179 132.4561403508772 ['5', '41', '8', '60', '43', '29'] 6622.807017543857
180 132.4561403508772 ['5', '41', '8', '60', '43', '29'] 6622.807017543857
181 132.4561403508772 ['5', '41', '8', '60', '43', '29'] 6622.807017543857
182 132.4561403508772 ['5', '41', '8', '60', '43', '29'] 6622.807017543857
183 132.4561403508772 ['5', '41', '8', '60', '43', '29'] 6622.807017543857
184 132.4561403508772 ['5', '41', '8', '60', '43', '29'] 6622.807017543857
185 132.4561403508772 ['5', '41', '8', '60', '43', '29'] 6622.807017543857
186 132.4561403508772 ['5', '41', '8', '60', '43', '29'] 6622.807017543857
187 132.4561403508772 ['5', '41', '8', '60', '43', '29'] 6622.807017543857
188 132.4561403508772 ['5', '41', '8', '60', '43', '29'] 6622.807017543857
189 132.4561403508772 ['5', '41', '8', '60', '43', '29'] 6622.807017543857
190 132.4561403508772 ['5', '41', '8', '60', '43', '29'] 6622.807017543857
191 132.4561403508772 ['5', '41', '8', '60', '43', '29'] 6622.807017543857
192 132.4561403508772 ['5', '41', '8', '60', '43', '29'] 6622.807017543857
193 132.4561403508772 ['5', '41', '8', '60', '43', '29'] 6622.807017543857
194 132.4561403508772 ['5', '41', '8', '60', '43', '29'] 6622.807017543857
195 132.4561403508772 ['5', '41', '8', '60', '43', '29'] 6622.807017543857
196 132.4561403508772 ['5', '41', '8', '60', '43', '29'] 6622.807017543857
197 132.4561403508772 ['5', '41', '8', '60', '43', '29'] 6622.807017543857
198 132.4561403508772 ['5', '41', '8', '60', '43', '29'] 6622.807017543857
199 132.4561403508772 ['5', '41', '8', '60', '43', '29'] 6622.807017543857
