0 14.28888888888889 ['39', '13', '83', '103', '5', '112', '122', '143', '115', '137', '88', '132', '120', '136', '133'] 735.6888888888885
1 14.28888888888889 ['39', '13', '83', '103', '5', '112', '122', '143', '115', '137', '88', '132', '120', '136', '133'] 727.5333333333332
2 14.155555555555555 ['88', '97', '40', '141', '122', '15', '29', '109', '76', '39', '138', '143', '111', '137', '59'] 720.6148148148147
3 14.022222222222222 ['64', '136', '3', '119', '59', '139', '101', '129', '122', '126', '141', '135', '79', '133', '120'] 715.0814814814812
4 13.992592592592592 ['122', '141', '119', '59', '136', '133', '139', '126', '129', '3', '132', '101', '64', '137', '76'] 710.5555555555557
5 13.851851851851851 ['132', '122', '119', '141', '143', '136', '76', '90', '5', '111', '83', '139', '88', '149', '126'] 705.718518518519
6 13.725925925925926 ['111', '59', '39', '122', '141', '137', '139', '133', '143', '110', '88', '112', '132', '138', '136'] 701.4666666666664
7 13.725925925925926 ['111', '59', '39', '122', '141', '137', '139', '133', '143', '110', '88', '112', '132', '138', '136'] 696.8148148148151
8 13.696296296296296 ['133', '141', '139', '111', '101', '118', '119', '115', '122', '136', '76', '137', '116', '143', '147'] 693.0888888888885
9 13.644444444444444 ['143', '136', '116', '122', '141', '133', '59', '119', '112', '137', '140', '144', '88', '139', '82'] 689.2592592592592
10 13.62962962962963 ['136', '144', '143', '133', '141', '83', '140', '119', '14', '76', '111', '126', '120', '147', '139'] 686.4074074074076
11 13.474074074074075 ['111', '136', '139', '141', '76', '119', '143', '101', '116', '137', '147', '132', '133', '138', '149'] 683.1481481481483
12 13.451851851851853 ['139', '143', '137', '141', '147', '119', '136', '117', '116', '111', '122', '76', '132', '140', '144'] 679.829629629629
13 13.437037037037037 ['143', '122', '144', '136', '120', '139', '141', '119', '132', '137', '140', '135', '127', '88', '112'] 677.5185185185187
14 13.392592592592592 ['141', '139', '137', '140', '143', '122', '132', '136', '144', '119', '116', '127', '111', '120', '112'] 675.3555555555556
15 13.37037037037037 ['141', '120', '143', '136', '88', '140', '139', '132', '122', '119', '138', '149', '144', '137', '112'] 673.1777777777774
16 13.348148148148148 ['76', '140', '138', '144', '143', '141', '136', '119', '111', '139', '132', '137', '127', '126', '120'] 671.6592592592598
17 13.348148148148148 ['76', '140', '138', '144', '143', '141', '136', '119', '111', '139', '132', '137', '127', '126', '120'] 670.3925925925925
18 13.333333333333334 ['120', '143', '141', '76', '138', '119', '127', '112', '139', '136', '144', '111', '137', '147', '126'] 668.9111111111108
19 13.28888888888889 ['137', '141', '127', '111', '112', '144', '119', '138', '139', '76', '143', '136', '120', '147', '132'] 667.6740740740736
20 13.251851851851852 ['119', '139', '120', '136', '144', '112', '132', '141', '143', '137', '138', '149', '147', '126', '140'] 666.6074074074079
21 13.251851851851852 ['119', '139', '120', '136', '144', '112', '132', '141', '143', '137', '138', '149', '147', '126', '140'] 665.5777777777782
22 13.251851851851852 ['119', '139', '120', '136', '144', '112', '132', '141', '143', '137', '138', '149', '147', '126', '140'] 664.6740740740745
23 13.237037037037037 ['149', '147', '119', '132', '143', '137', '139', '111', '138', '120', '144', '141', '136', '112', '140'] 663.9629629629632
24 13.237037037037037 ['149', '147', '119', '132', '143', '137', '139', '111', '138', '120', '144', '141', '136', '112', '140'] 663.1407407407404
25 13.237037037037037 ['149', '147', '119', '132', '143', '137', '139', '111', '138', '120', '144', '141', '136', '112', '140'] 662.5333333333326
26 13.22962962962963 ['132', '138', '120', '143', '140', '147', '136', '139', '137', '141', '119', '144', '111', '149', '135'] 662.1777777777778
27 13.22962962962963 ['132', '138', '120', '143', '140', '147', '136', '139', '137', '141', '119', '144', '111', '149', '135'] 661.9259259259259
28 13.22962962962963 ['132', '138', '120', '143', '140', '147', '136', '139', '137', '141', '119', '144', '111', '149', '135'] 661.8370370370369
29 13.22962962962963 ['132', '138', '120', '143', '140', '147', '136', '139', '137', '141', '119', '144', '111', '149', '135'] 661.8222222222221
30 13.22962962962963 ['132', '138', '120', '143', '140', '147', '136', '139', '137', '141', '119', '144', '111', '149', '135'] 661.785185185185
31 13.22962962962963 ['132', '138', '120', '143', '140', '147', '136', '139', '137', '141', '119', '144', '111', '149', '135'] 661.6888888888889
32 13.22962962962963 ['132', '138', '120', '143', '140', '147', '136', '139', '137', '141', '119', '144', '111', '149', '135'] 661.511111111111
33 13.22962962962963 ['132', '138', '120', '143', '140', '147', '136', '139', '137', '141', '119', '144', '111', '149', '135'] 661.4814814814813
34 13.22962962962963 ['132', '138', '120', '143', '140', '147', '136', '139', '137', '141', '119', '144', '111', '149', '135'] 661.4814814814813
35 13.22962962962963 ['132', '138', '120', '143', '140', '147', '136', '139', '137', '141', '119', '144', '111', '149', '135'] 661.4814814814813
36 13.22962962962963 ['132', '138', '120', '143', '140', '147', '136', '139', '137', '141', '119', '144', '111', '149', '135'] 661.4814814814813
37 13.22962962962963 ['132', '138', '120', '143', '140', '147', '136', '139', '137', '141', '119', '144', '111', '149', '135'] 661.4814814814813
38 13.22962962962963 ['132', '138', '120', '143', '140', '147', '136', '139', '137', '141', '119', '144', '111', '149', '135'] 661.4814814814813
39 13.22962962962963 ['132', '138', '120', '143', '140', '147', '136', '139', '137', '141', '119', '144', '111', '149', '135'] 661.4814814814813
40 13.22962962962963 ['132', '138', '120', '143', '140', '147', '136', '139', '137', '141', '119', '144', '111', '149', '135'] 661.4814814814813
41 13.22962962962963 ['132', '138', '120', '143', '140', '147', '136', '139', '137', '141', '119', '144', '111', '149', '135'] 661.4814814814813
42 13.22962962962963 ['132', '138', '120', '143', '140', '147', '136', '139', '137', '141', '119', '144', '111', '149', '135'] 661.4814814814813
43 13.22962962962963 ['132', '138', '120', '143', '140', '147', '136', '139', '137', '141', '119', '144', '111', '149', '135'] 661.4814814814813
44 13.22962962962963 ['132', '138', '120', '143', '140', '147', '136', '139', '137', '141', '119', '144', '111', '149', '135'] 661.4814814814813
45 13.22962962962963 ['132', '138', '120', '143', '140', '147', '136', '139', '137', '141', '119', '144', '111', '149', '135'] 661.4814814814813
46 13.22962962962963 ['132', '138', '120', '143', '140', '147', '136', '139', '137', '141', '119', '144', '111', '149', '135'] 661.4814814814813
47 13.22962962962963 ['132', '138', '120', '143', '140', '147', '136', '139', '137', '141', '119', '144', '111', '149', '135'] 661.4814814814813
48 13.22962962962963 ['132', '138', '120', '143', '140', '147', '136', '139', '137', '141', '119', '144', '111', '149', '135'] 661.4814814814813
49 13.22962962962963 ['132', '138', '120', '143', '140', '147', '136', '139', '137', '141', '119', '144', '111', '149', '135'] 661.4814814814813
50 13.22962962962963 ['132', '138', '120', '143', '140', '147', '136', '139', '137', '141', '119', '144', '111', '149', '135'] 661.4814814814813
51 13.22962962962963 ['132', '138', '120', '143', '140', '147', '136', '139', '137', '141', '119', '144', '111', '149', '135'] 661.4814814814813
52 13.22962962962963 ['132', '138', '120', '143', '140', '147', '136', '139', '137', '141', '119', '144', '111', '149', '135'] 661.4814814814813
53 13.22962962962963 ['132', '138', '120', '143', '140', '147', '136', '139', '137', '141', '119', '144', '111', '149', '135'] 661.4814814814813
54 13.22962962962963 ['132', '138', '120', '143', '140', '147', '136', '139', '137', '141', '119', '144', '111', '149', '135'] 661.4814814814813
55 13.22962962962963 ['132', '138', '120', '143', '140', '147', '136', '139', '137', '141', '119', '144', '111', '149', '135'] 661.4814814814813
56 13.22962962962963 ['132', '138', '120', '143', '140', '147', '136', '139', '137', '141', '119', '144', '111', '149', '135'] 661.4814814814813
57 13.22962962962963 ['132', '138', '120', '143', '140', '147', '136', '139', '137', '141', '119', '144', '111', '149', '135'] 661.4814814814813
58 13.22962962962963 ['132', '138', '120', '143', '140', '147', '136', '139', '137', '141', '119', '144', '111', '149', '135'] 661.4814814814813
59 13.22962962962963 ['132', '138', '120', '143', '140', '147', '136', '139', '137', '141', '119', '144', '111', '149', '135'] 661.4814814814813
60 13.22962962962963 ['132', '138', '120', '143', '140', '147', '136', '139', '137', '141', '119', '144', '111', '149', '135'] 661.4814814814813
61 13.22962962962963 ['132', '138', '120', '143', '140', '147', '136', '139', '137', '141', '119', '144', '111', '149', '135'] 661.4814814814813
62 13.22962962962963 ['132', '138', '120', '143', '140', '147', '136', '139', '137', '141', '119', '144', '111', '149', '135'] 661.4814814814813
63 13.22962962962963 ['132', '138', '120', '143', '140', '147', '136', '139', '137', '141', '119', '144', '111', '149', '135'] 661.4814814814813
64 13.22962962962963 ['132', '138', '120', '143', '140', '147', '136', '139', '137', '141', '119', '144', '111', '149', '135'] 661.4814814814813
65 13.22962962962963 ['132', '138', '120', '143', '140', '147', '136', '139', '137', '141', '119', '144', '111', '149', '135'] 661.4814814814813
66 13.22962962962963 ['132', '138', '120', '143', '140', '147', '136', '139', '137', '141', '119', '144', '111', '149', '135'] 661.4814814814813
67 13.22962962962963 ['132', '138', '120', '143', '140', '147', '136', '139', '137', '141', '119', '144', '111', '149', '135'] 661.4814814814813
68 13.22962962962963 ['132', '138', '120', '143', '140', '147', '136', '139', '137', '141', '119', '144', '111', '149', '135'] 661.4814814814813
69 13.22962962962963 ['132', '138', '120', '143', '140', '147', '136', '139', '137', '141', '119', '144', '111', '149', '135'] 661.4814814814813
70 13.22962962962963 ['132', '138', '120', '143', '140', '147', '136', '139', '137', '141', '119', '144', '111', '149', '135'] 661.4814814814813
71 13.22962962962963 ['132', '138', '120', '143', '140', '147', '136', '139', '137', '141', '119', '144', '111', '149', '135'] 661.4814814814813
72 13.22962962962963 ['132', '138', '120', '143', '140', '147', '136', '139', '137', '141', '119', '144', '111', '149', '135'] 661.4814814814813
73 13.22962962962963 ['132', '138', '120', '143', '140', '147', '136', '139', '137', '141', '119', '144', '111', '149', '135'] 661.4814814814813
74 13.22962962962963 ['132', '138', '120', '143', '140', '147', '136', '139', '137', '141', '119', '144', '111', '149', '135'] 661.4814814814813
75 13.22962962962963 ['132', '138', '120', '143', '140', '147', '136', '139', '137', '141', '119', '144', '111', '149', '135'] 661.4814814814813
76 13.22962962962963 ['132', '138', '120', '143', '140', '147', '136', '139', '137', '141', '119', '144', '111', '149', '135'] 661.4814814814813
77 13.22962962962963 ['132', '138', '120', '143', '140', '147', '136', '139', '137', '141', '119', '144', '111', '149', '135'] 661.4814814814813
78 13.22962962962963 ['132', '138', '120', '143', '140', '147', '136', '139', '137', '141', '119', '144', '111', '149', '135'] 661.4814814814813
79 13.22962962962963 ['132', '138', '120', '143', '140', '147', '136', '139', '137', '141', '119', '144', '111', '149', '135'] 661.4814814814813
80 13.22962962962963 ['132', '138', '120', '143', '140', '147', '136', '139', '137', '141', '119', '144', '111', '149', '135'] 661.4814814814813
81 13.22962962962963 ['132', '138', '120', '143', '140', '147', '136', '139', '137', '141', '119', '144', '111', '149', '135'] 661.4814814814813
82 13.22962962962963 ['132', '138', '120', '143', '140', '147', '136', '139', '137', '141', '119', '144', '111', '149', '135'] 661.4814814814813
83 13.22962962962963 ['132', '138', '120', '143', '140', '147', '136', '139', '137', '141', '119', '144', '111', '149', '135'] 661.4814814814813
84 13.22962962962963 ['132', '138', '120', '143', '140', '147', '136', '139', '137', '141', '119', '144', '111', '149', '135'] 661.4814814814813
85 13.22962962962963 ['132', '138', '120', '143', '140', '147', '136', '139', '137', '141', '119', '144', '111', '149', '135'] 661.4814814814813
86 13.22962962962963 ['132', '138', '120', '143', '140', '147', '136', '139', '137', '141', '119', '144', '111', '149', '135'] 661.4814814814813
87 13.22962962962963 ['132', '138', '120', '143', '140', '147', '136', '139', '137', '141', '119', '144', '111', '149', '135'] 661.4814814814813
88 13.22962962962963 ['132', '138', '120', '143', '140', '147', '136', '139', '137', '141', '119', '144', '111', '149', '135'] 661.4814814814813
89 13.22962962962963 ['132', '138', '120', '143', '140', '147', '136', '139', '137', '141', '119', '144', '111', '149', '135'] 661.4814814814813
90 13.22962962962963 ['132', '138', '120', '143', '140', '147', '136', '139', '137', '141', '119', '144', '111', '149', '135'] 661.4814814814813
91 13.22962962962963 ['132', '138', '120', '143', '140', '147', '136', '139', '137', '141', '119', '144', '111', '149', '135'] 661.4814814814813
92 13.22962962962963 ['132', '138', '120', '143', '140', '147', '136', '139', '137', '141', '119', '144', '111', '149', '135'] 661.4814814814813
93 13.22962962962963 ['132', '138', '120', '143', '140', '147', '136', '139', '137', '141', '119', '144', '111', '149', '135'] 661.4814814814813
94 13.22962962962963 ['132', '138', '120', '143', '140', '147', '136', '139', '137', '141', '119', '144', '111', '149', '135'] 661.4814814814813
95 13.22962962962963 ['132', '138', '120', '143', '140', '147', '136', '139', '137', '141', '119', '144', '111', '149', '135'] 661.4814814814813
96 13.22962962962963 ['132', '138', '120', '143', '140', '147', '136', '139', '137', '141', '119', '144', '111', '149', '135'] 661.4814814814813
97 13.22962962962963 ['132', '138', '120', '143', '140', '147', '136', '139', '137', '141', '119', '144', '111', '149', '135'] 661.4814814814813
98 13.22962962962963 ['132', '138', '120', '143', '140', '147', '136', '139', '137', '141', '119', '144', '111', '149', '135'] 661.4814814814813
99 13.22962962962963 ['132', '138', '120', '143', '140', '147', '136', '139', '137', '141', '119', '144', '111', '149', '135'] 661.4814814814813
100 13.22962962962963 ['132', '138', '120', '143', '140', '147', '136', '139', '137', '141', '119', '144', '111', '149', '135'] 661.4814814814813
101 13.22962962962963 ['132', '138', '120', '143', '140', '147', '136', '139', '137', '141', '119', '144', '111', '149', '135'] 661.4814814814813
102 13.22962962962963 ['132', '138', '120', '143', '140', '147', '136', '139', '137', '141', '119', '144', '111', '149', '135'] 661.4814814814813
103 13.22962962962963 ['132', '138', '120', '143', '140', '147', '136', '139', '137', '141', '119', '144', '111', '149', '135'] 661.4814814814813
104 13.22962962962963 ['132', '138', '120', '143', '140', '147', '136', '139', '137', '141', '119', '144', '111', '149', '135'] 661.4814814814813
105 13.22962962962963 ['132', '138', '120', '143', '140', '147', '136', '139', '137', '141', '119', '144', '111', '149', '135'] 661.4814814814813
106 13.22962962962963 ['132', '138', '120', '143', '140', '147', '136', '139', '137', '141', '119', '144', '111', '149', '135'] 661.4814814814813
107 13.22962962962963 ['132', '138', '120', '143', '140', '147', '136', '139', '137', '141', '119', '144', '111', '149', '135'] 661.4814814814813
108 13.22962962962963 ['132', '138', '120', '143', '140', '147', '136', '139', '137', '141', '119', '144', '111', '149', '135'] 661.4814814814813
109 13.22962962962963 ['132', '138', '120', '143', '140', '147', '136', '139', '137', '141', '119', '144', '111', '149', '135'] 661.4814814814813
110 13.22962962962963 ['132', '138', '120', '143', '140', '147', '136', '139', '137', '141', '119', '144', '111', '149', '135'] 661.4814814814813
111 13.22962962962963 ['132', '138', '120', '143', '140', '147', '136', '139', '137', '141', '119', '144', '111', '149', '135'] 661.4814814814813
112 13.22962962962963 ['132', '138', '120', '143', '140', '147', '136', '139', '137', '141', '119', '144', '111', '149', '135'] 661.4814814814813
113 13.22962962962963 ['132', '138', '120', '143', '140', '147', '136', '139', '137', '141', '119', '144', '111', '149', '135'] 661.4814814814813
114 13.22962962962963 ['132', '138', '120', '143', '140', '147', '136', '139', '137', '141', '119', '144', '111', '149', '135'] 661.4814814814813
115 13.22962962962963 ['132', '138', '120', '143', '140', '147', '136', '139', '137', '141', '119', '144', '111', '149', '135'] 661.4814814814813
116 13.22962962962963 ['132', '138', '120', '143', '140', '147', '136', '139', '137', '141', '119', '144', '111', '149', '135'] 661.4814814814813
117 13.22962962962963 ['132', '138', '120', '143', '140', '147', '136', '139', '137', '141', '119', '144', '111', '149', '135'] 661.4814814814813
118 13.22962962962963 ['132', '138', '120', '143', '140', '147', '136', '139', '137', '141', '119', '144', '111', '149', '135'] 661.4814814814813
119 13.22962962962963 ['132', '138', '120', '143', '140', '147', '136', '139', '137', '141', '119', '144', '111', '149', '135'] 661.4814814814813
120 13.22962962962963 ['132', '138', '120', '143', '140', '147', '136', '139', '137', '141', '119', '144', '111', '149', '135'] 661.4814814814813
121 13.22962962962963 ['132', '138', '120', '143', '140', '147', '136', '139', '137', '141', '119', '144', '111', '149', '135'] 661.4814814814813
122 13.22962962962963 ['132', '138', '120', '143', '140', '147', '136', '139', '137', '141', '119', '144', '111', '149', '135'] 661.4814814814813
123 13.22962962962963 ['132', '138', '120', '143', '140', '147', '136', '139', '137', '141', '119', '144', '111', '149', '135'] 661.4814814814813
124 13.22962962962963 ['132', '138', '120', '143', '140', '147', '136', '139', '137', '141', '119', '144', '111', '149', '135'] 661.4814814814813
125 13.22962962962963 ['132', '138', '120', '143', '140', '147', '136', '139', '137', '141', '119', '144', '111', '149', '135'] 661.4814814814813
126 13.22962962962963 ['132', '138', '120', '143', '140', '147', '136', '139', '137', '141', '119', '144', '111', '149', '135'] 661.4814814814813
127 13.22962962962963 ['132', '138', '120', '143', '140', '147', '136', '139', '137', '141', '119', '144', '111', '149', '135'] 661.4814814814813
128 13.22962962962963 ['132', '138', '120', '143', '140', '147', '136', '139', '137', '141', '119', '144', '111', '149', '135'] 661.4814814814813
129 13.22962962962963 ['132', '138', '120', '143', '140', '147', '136', '139', '137', '141', '119', '144', '111', '149', '135'] 661.4814814814813
130 13.22962962962963 ['132', '138', '120', '143', '140', '147', '136', '139', '137', '141', '119', '144', '111', '149', '135'] 661.4814814814813
131 13.22962962962963 ['132', '138', '120', '143', '140', '147', '136', '139', '137', '141', '119', '144', '111', '149', '135'] 661.4814814814813
132 13.22962962962963 ['132', '138', '120', '143', '140', '147', '136', '139', '137', '141', '119', '144', '111', '149', '135'] 661.4814814814813
133 13.22962962962963 ['132', '138', '120', '143', '140', '147', '136', '139', '137', '141', '119', '144', '111', '149', '135'] 661.4814814814813
134 13.22962962962963 ['132', '138', '120', '143', '140', '147', '136', '139', '137', '141', '119', '144', '111', '149', '135'] 661.4814814814813
135 13.22962962962963 ['132', '138', '120', '143', '140', '147', '136', '139', '137', '141', '119', '144', '111', '149', '135'] 661.4814814814813
136 13.22962962962963 ['132', '138', '120', '143', '140', '147', '136', '139', '137', '141', '119', '144', '111', '149', '135'] 661.4814814814813
137 13.22962962962963 ['132', '138', '120', '143', '140', '147', '136', '139', '137', '141', '119', '144', '111', '149', '135'] 661.4814814814813
138 13.22962962962963 ['132', '138', '120', '143', '140', '147', '136', '139', '137', '141', '119', '144', '111', '149', '135'] 661.4814814814813
139 13.22962962962963 ['132', '138', '120', '143', '140', '147', '136', '139', '137', '141', '119', '144', '111', '149', '135'] 661.4814814814813
140 13.22962962962963 ['132', '138', '120', '143', '140', '147', '136', '139', '137', '141', '119', '144', '111', '149', '135'] 661.4814814814813
141 13.22962962962963 ['132', '138', '120', '143', '140', '147', '136', '139', '137', '141', '119', '144', '111', '149', '135'] 661.4814814814813
142 13.22962962962963 ['132', '138', '120', '143', '140', '147', '136', '139', '137', '141', '119', '144', '111', '149', '135'] 661.4814814814813
143 13.22962962962963 ['132', '138', '120', '143', '140', '147', '136', '139', '137', '141', '119', '144', '111', '149', '135'] 661.4814814814813
144 13.22962962962963 ['132', '138', '120', '143', '140', '147', '136', '139', '137', '141', '119', '144', '111', '149', '135'] 661.4814814814813
145 13.22962962962963 ['132', '138', '120', '143', '140', '147', '136', '139', '137', '141', '119', '144', '111', '149', '135'] 661.4814814814813
146 13.22962962962963 ['132', '138', '120', '143', '140', '147', '136', '139', '137', '141', '119', '144', '111', '149', '135'] 661.4814814814813
147 13.22962962962963 ['132', '138', '120', '143', '140', '147', '136', '139', '137', '141', '119', '144', '111', '149', '135'] 661.4814814814813
148 13.22962962962963 ['132', '138', '120', '143', '140', '147', '136', '139', '137', '141', '119', '144', '111', '149', '135'] 661.4814814814813
149 13.22962962962963 ['132', '138', '120', '143', '140', '147', '136', '139', '137', '141', '119', '144', '111', '149', '135'] 661.4814814814813
150 13.22962962962963 ['132', '138', '120', '143', '140', '147', '136', '139', '137', '141', '119', '144', '111', '149', '135'] 661.4814814814813
151 13.22962962962963 ['132', '138', '120', '143', '140', '147', '136', '139', '137', '141', '119', '144', '111', '149', '135'] 661.4814814814813
152 13.22962962962963 ['132', '138', '120', '143', '140', '147', '136', '139', '137', '141', '119', '144', '111', '149', '135'] 661.4814814814813
153 13.22962962962963 ['132', '138', '120', '143', '140', '147', '136', '139', '137', '141', '119', '144', '111', '149', '135'] 661.4814814814813
154 13.22962962962963 ['132', '138', '120', '143', '140', '147', '136', '139', '137', '141', '119', '144', '111', '149', '135'] 661.4814814814813
155 13.22962962962963 ['132', '138', '120', '143', '140', '147', '136', '139', '137', '141', '119', '144', '111', '149', '135'] 661.4814814814813
156 13.22962962962963 ['132', '138', '120', '143', '140', '147', '136', '139', '137', '141', '119', '144', '111', '149', '135'] 661.4814814814813
157 13.22962962962963 ['132', '138', '120', '143', '140', '147', '136', '139', '137', '141', '119', '144', '111', '149', '135'] 661.4814814814813
158 13.22962962962963 ['132', '138', '120', '143', '140', '147', '136', '139', '137', '141', '119', '144', '111', '149', '135'] 661.4814814814813
159 13.22962962962963 ['132', '138', '120', '143', '140', '147', '136', '139', '137', '141', '119', '144', '111', '149', '135'] 661.4814814814813
160 13.22962962962963 ['132', '138', '120', '143', '140', '147', '136', '139', '137', '141', '119', '144', '111', '149', '135'] 661.4814814814813
161 13.22962962962963 ['132', '138', '120', '143', '140', '147', '136', '139', '137', '141', '119', '144', '111', '149', '135'] 661.4814814814813
162 13.22962962962963 ['132', '138', '120', '143', '140', '147', '136', '139', '137', '141', '119', '144', '111', '149', '135'] 661.4814814814813
163 13.22962962962963 ['132', '138', '120', '143', '140', '147', '136', '139', '137', '141', '119', '144', '111', '149', '135'] 661.4814814814813
164 13.22962962962963 ['132', '138', '120', '143', '140', '147', '136', '139', '137', '141', '119', '144', '111', '149', '135'] 661.4814814814813
165 13.22962962962963 ['132', '138', '120', '143', '140', '147', '136', '139', '137', '141', '119', '144', '111', '149', '135'] 661.4814814814813
166 13.22962962962963 ['132', '138', '120', '143', '140', '147', '136', '139', '137', '141', '119', '144', '111', '149', '135'] 661.4814814814813
167 13.22962962962963 ['132', '138', '120', '143', '140', '147', '136', '139', '137', '141', '119', '144', '111', '149', '135'] 661.4814814814813
168 13.22962962962963 ['132', '138', '120', '143', '140', '147', '136', '139', '137', '141', '119', '144', '111', '149', '135'] 661.4814814814813
169 13.22962962962963 ['132', '138', '120', '143', '140', '147', '136', '139', '137', '141', '119', '144', '111', '149', '135'] 661.4814814814813
170 13.22962962962963 ['132', '138', '120', '143', '140', '147', '136', '139', '137', '141', '119', '144', '111', '149', '135'] 661.4814814814813
171 13.22962962962963 ['132', '138', '120', '143', '140', '147', '136', '139', '137', '141', '119', '144', '111', '149', '135'] 661.4814814814813
172 13.22962962962963 ['132', '138', '120', '143', '140', '147', '136', '139', '137', '141', '119', '144', '111', '149', '135'] 661.4814814814813
173 13.22962962962963 ['132', '138', '120', '143', '140', '147', '136', '139', '137', '141', '119', '144', '111', '149', '135'] 661.4814814814813
174 13.22962962962963 ['132', '138', '120', '143', '140', '147', '136', '139', '137', '141', '119', '144', '111', '149', '135'] 661.4814814814813
175 13.22962962962963 ['132', '138', '120', '143', '140', '147', '136', '139', '137', '141', '119', '144', '111', '149', '135'] 661.4814814814813
176 13.22962962962963 ['132', '138', '120', '143', '140', '147', '136', '139', '137', '141', '119', '144', '111', '149', '135'] 661.4814814814813
177 13.22962962962963 ['132', '138', '120', '143', '140', '147', '136', '139', '137', '141', '119', '144', '111', '149', '135'] 661.4814814814813
178 13.22962962962963 ['132', '138', '120', '143', '140', '147', '136', '139', '137', '141', '119', '144', '111', '149', '135'] 661.4814814814813
179 13.22962962962963 ['132', '138', '120', '143', '140', '147', '136', '139', '137', '141', '119', '144', '111', '149', '135'] 661.4814814814813
180 13.22962962962963 ['132', '138', '120', '143', '140', '147', '136', '139', '137', '141', '119', '144', '111', '149', '135'] 661.4814814814813
181 13.22962962962963 ['132', '138', '120', '143', '140', '147', '136', '139', '137', '141', '119', '144', '111', '149', '135'] 661.4814814814813
182 13.22962962962963 ['132', '138', '120', '143', '140', '147', '136', '139', '137', '141', '119', '144', '111', '149', '135'] 661.4814814814813
183 13.22962962962963 ['132', '138', '120', '143', '140', '147', '136', '139', '137', '141', '119', '144', '111', '149', '135'] 661.4814814814813
184 13.22962962962963 ['132', '138', '120', '143', '140', '147', '136', '139', '137', '141', '119', '144', '111', '149', '135'] 661.4814814814813
185 13.22962962962963 ['132', '138', '120', '143', '140', '147', '136', '139', '137', '141', '119', '144', '111', '149', '135'] 661.4814814814813
186 13.22962962962963 ['132', '138', '120', '143', '140', '147', '136', '139', '137', '141', '119', '144', '111', '149', '135'] 661.4814814814813
187 13.22962962962963 ['132', '138', '120', '143', '140', '147', '136', '139', '137', '141', '119', '144', '111', '149', '135'] 661.4814814814813
188 13.22962962962963 ['132', '138', '120', '143', '140', '147', '136', '139', '137', '141', '119', '144', '111', '149', '135'] 661.4814814814813
189 13.22962962962963 ['132', '138', '120', '143', '140', '147', '136', '139', '137', '141', '119', '144', '111', '149', '135'] 661.4814814814813
190 13.22962962962963 ['132', '138', '120', '143', '140', '147', '136', '139', '137', '141', '119', '144', '111', '149', '135'] 661.4814814814813
191 13.22962962962963 ['132', '138', '120', '143', '140', '147', '136', '139', '137', '141', '119', '144', '111', '149', '135'] 661.4814814814813
192 13.22962962962963 ['132', '138', '120', '143', '140', '147', '136', '139', '137', '141', '119', '144', '111', '149', '135'] 661.4814814814813
193 13.22962962962963 ['132', '138', '120', '143', '140', '147', '136', '139', '137', '141', '119', '144', '111', '149', '135'] 661.4814814814813
194 13.22962962962963 ['132', '138', '120', '143', '140', '147', '136', '139', '137', '141', '119', '144', '111', '149', '135'] 661.4814814814813
195 13.22962962962963 ['132', '138', '120', '143', '140', '147', '136', '139', '137', '141', '119', '144', '111', '149', '135'] 661.4814814814813
196 13.22962962962963 ['132', '138', '120', '143', '140', '147', '136', '139', '137', '141', '119', '144', '111', '149', '135'] 661.4814814814813
197 13.22962962962963 ['132', '138', '120', '143', '140', '147', '136', '139', '137', '141', '119', '144', '111', '149', '135'] 661.4814814814813
198 13.22962962962963 ['132', '138', '120', '143', '140', '147', '136', '139', '137', '141', '119', '144', '111', '149', '135'] 661.4814814814813
199 13.22962962962963 ['132', '138', '120', '143', '140', '147', '136', '139', '137', '141', '119', '144', '111', '149', '135'] 661.4814814814813
