0 15.705882352941176 ['18', '8', '4'] 851.1176470588235
1 15.294117647058824 ['15', '5', '8'] 828.5882352941178
2 15.294117647058824 ['15', '5', '8'] 809.5588235294115
3 15.0 ['3', '8', '26'] 789.205882352941
4 15.0 ['3', '8', '26'] 776.735294117647
5 15.0 ['3', '8', '26'] 760.0882352941176
6 14.823529411764707 ['8', '5', '26'] 753.0000000000001
7 14.823529411764707 ['8', '5', '26'] 750.8235294117651
8 14.823529411764707 ['8', '5', '26'] 747.8529411764699
9 14.823529411764707 ['8', '5', '26'] 744.5294117647056
10 14.823529411764707 ['8', '5', '26'] 741.1764705882358
11 14.823529411764707 ['8', '5', '26'] 741.1764705882358
12 14.823529411764707 ['8', '5', '26'] 741.1764705882358
13 14.823529411764707 ['8', '5', '26'] 741.1764705882358
14 14.823529411764707 ['8', '5', '26'] 741.1764705882358
15 14.823529411764707 ['8', '5', '26'] 741.1764705882358
16 14.823529411764707 ['8', '5', '26'] 741.1764705882358
17 14.823529411764707 ['8', '5', '26'] 741.1764705882358
18 14.823529411764707 ['8', '5', '26'] 741.1764705882358
19 14.823529411764707 ['8', '5', '26'] 741.1764705882358
20 14.823529411764707 ['8', '5', '26'] 741.1764705882358
21 14.823529411764707 ['8', '5', '26'] 741.1764705882358
22 14.823529411764707 ['8', '5', '26'] 741.1764705882358
23 14.823529411764707 ['8', '5', '26'] 741.1764705882358
24 14.823529411764707 ['8', '5', '26'] 741.1764705882358
25 14.823529411764707 ['8', '5', '26'] 741.1764705882358
26 14.823529411764707 ['8', '5', '26'] 741.1764705882358
27 14.823529411764707 ['8', '5', '26'] 741.1764705882358
28 14.823529411764707 ['8', '5', '26'] 741.1764705882358
29 14.823529411764707 ['8', '5', '26'] 741.1764705882358
30 14.823529411764707 ['8', '5', '26'] 741.1764705882358
31 14.823529411764707 ['8', '5', '26'] 741.1764705882358
32 14.823529411764707 ['8', '5', '26'] 741.1764705882358
33 14.823529411764707 ['8', '5', '26'] 741.1764705882358
34 14.823529411764707 ['8', '5', '26'] 741.1764705882358
35 14.823529411764707 ['8', '5', '26'] 741.1764705882358
36 14.823529411764707 ['8', '5', '26'] 741.1764705882358
37 14.823529411764707 ['8', '5', '26'] 741.1764705882358
38 14.823529411764707 ['8', '5', '26'] 741.1764705882358
39 14.823529411764707 ['8', '5', '26'] 741.1764705882358
40 14.823529411764707 ['8', '5', '26'] 741.1764705882358
41 14.823529411764707 ['8', '5', '26'] 741.1764705882358
42 14.823529411764707 ['8', '5', '26'] 741.1764705882358
43 14.823529411764707 ['8', '5', '26'] 741.1764705882358
44 14.823529411764707 ['8', '5', '26'] 741.1764705882358
45 14.823529411764707 ['8', '5', '26'] 741.1764705882358
46 14.823529411764707 ['8', '5', '26'] 741.1764705882358
47 14.823529411764707 ['8', '5', '26'] 741.1764705882358
48 14.823529411764707 ['8', '5', '26'] 741.1764705882358
49 14.823529411764707 ['8', '5', '26'] 741.1764705882358
50 14.823529411764707 ['8', '5', '26'] 741.1764705882358
51 14.823529411764707 ['8', '5', '26'] 741.1764705882358
52 14.823529411764707 ['8', '5', '26'] 741.1764705882358
53 14.823529411764707 ['8', '5', '26'] 741.1764705882358
54 14.823529411764707 ['8', '5', '26'] 741.1764705882358
55 14.823529411764707 ['8', '5', '26'] 741.1764705882358
56 14.823529411764707 ['8', '5', '26'] 741.1764705882358
57 14.823529411764707 ['8', '5', '26'] 741.1764705882358
58 14.823529411764707 ['8', '5', '26'] 741.1764705882358
59 14.823529411764707 ['8', '5', '26'] 741.1764705882358
60 14.823529411764707 ['8', '5', '26'] 741.1764705882358
61 14.823529411764707 ['8', '5', '26'] 741.1764705882358
62 14.823529411764707 ['8', '5', '26'] 741.1764705882358
63 14.823529411764707 ['8', '5', '26'] 741.1764705882358
64 14.823529411764707 ['8', '5', '26'] 741.1764705882358
65 14.823529411764707 ['8', '5', '26'] 741.1764705882358
66 14.823529411764707 ['8', '5', '26'] 741.1764705882358
67 14.823529411764707 ['8', '5', '26'] 741.1764705882358
68 14.823529411764707 ['8', '5', '26'] 741.1764705882358
69 14.823529411764707 ['8', '5', '26'] 741.1764705882358
70 14.823529411764707 ['8', '5', '26'] 741.1764705882358
71 14.823529411764707 ['8', '5', '26'] 741.1764705882358
72 14.823529411764707 ['8', '5', '26'] 741.1764705882358
73 14.823529411764707 ['8', '5', '26'] 741.1764705882358
74 14.823529411764707 ['8', '5', '26'] 741.1764705882358
75 14.823529411764707 ['8', '5', '26'] 741.1764705882358
76 14.823529411764707 ['8', '5', '26'] 741.1764705882358
77 14.823529411764707 ['8', '5', '26'] 741.1764705882358
78 14.823529411764707 ['8', '5', '26'] 741.1764705882358
79 14.823529411764707 ['8', '5', '26'] 741.1764705882358
80 14.823529411764707 ['8', '5', '26'] 741.1764705882358
81 14.823529411764707 ['8', '5', '26'] 741.1764705882358
82 14.823529411764707 ['8', '5', '26'] 741.1764705882358
83 14.823529411764707 ['8', '5', '26'] 741.1764705882358
84 14.823529411764707 ['8', '5', '26'] 741.1764705882358
85 14.823529411764707 ['8', '5', '26'] 741.1764705882358
86 14.823529411764707 ['8', '5', '26'] 741.1764705882358
87 14.823529411764707 ['8', '5', '26'] 741.1764705882358
88 14.823529411764707 ['8', '5', '26'] 741.1764705882358
89 14.823529411764707 ['8', '5', '26'] 741.1764705882358
90 14.823529411764707 ['8', '5', '26'] 741.1764705882358
91 14.823529411764707 ['8', '5', '26'] 741.1764705882358
92 14.823529411764707 ['8', '5', '26'] 741.1764705882358
93 14.823529411764707 ['8', '5', '26'] 741.1764705882358
94 14.823529411764707 ['8', '5', '26'] 741.1764705882358
95 14.823529411764707 ['8', '5', '26'] 741.1764705882358
96 14.823529411764707 ['8', '5', '26'] 741.1764705882358
97 14.823529411764707 ['8', '5', '26'] 741.1764705882358
98 14.823529411764707 ['8', '5', '26'] 741.1764705882358
99 14.823529411764707 ['8', '5', '26'] 741.1764705882358
100 14.823529411764707 ['8', '5', '26'] 741.1764705882358
101 14.823529411764707 ['8', '5', '26'] 741.1764705882358
102 14.823529411764707 ['8', '5', '26'] 741.1764705882358
103 14.823529411764707 ['8', '5', '26'] 741.1764705882358
104 14.823529411764707 ['8', '5', '26'] 741.1764705882358
105 14.823529411764707 ['8', '5', '26'] 741.1764705882358
106 14.764705882352942 ['5', '8', '23'] 741.117647058824
107 14.764705882352942 ['5', '8', '23'] 741.0000000000005
108 14.764705882352942 ['5', '8', '23'] 740.8235294117652
109 14.764705882352942 ['5', '8', '23'] 740.4117647058828
110 14.764705882352942 ['5', '8', '23'] 739.7647058823534
111 14.764705882352942 ['5', '8', '23'] 738.2352941176465
112 14.764705882352942 ['5', '8', '23'] 738.2352941176465
113 14.764705882352942 ['5', '8', '23'] 738.2352941176465
114 14.764705882352942 ['5', '8', '23'] 738.2352941176465
115 14.764705882352942 ['5', '8', '23'] 738.2352941176465
116 14.764705882352942 ['5', '8', '23'] 738.2352941176465
117 14.764705882352942 ['5', '8', '23'] 738.2352941176465
118 14.764705882352942 ['5', '8', '23'] 738.2352941176465
119 14.764705882352942 ['5', '8', '23'] 738.2352941176465
120 14.764705882352942 ['5', '8', '23'] 738.2352941176465
121 14.764705882352942 ['5', '8', '23'] 738.2352941176465
122 14.764705882352942 ['5', '8', '23'] 738.2352941176465
123 14.764705882352942 ['5', '8', '23'] 738.2352941176465
124 14.764705882352942 ['5', '8', '23'] 738.2352941176465
125 14.764705882352942 ['5', '8', '23'] 738.2352941176465
126 14.764705882352942 ['5', '8', '23'] 738.2352941176465
127 14.764705882352942 ['5', '8', '23'] 738.2352941176465
128 14.764705882352942 ['5', '8', '23'] 738.2352941176465
129 14.764705882352942 ['5', '8', '23'] 738.2352941176465
130 14.764705882352942 ['5', '8', '23'] 738.2352941176465
131 14.764705882352942 ['5', '8', '23'] 738.2352941176465
132 14.764705882352942 ['5', '8', '23'] 738.2352941176465
133 14.764705882352942 ['5', '8', '23'] 738.2352941176465
134 14.764705882352942 ['5', '8', '23'] 738.2352941176465
135 14.764705882352942 ['5', '8', '23'] 738.2352941176465
136 14.764705882352942 ['5', '8', '23'] 738.2352941176465
137 14.764705882352942 ['5', '8', '23'] 738.2352941176465
138 14.764705882352942 ['5', '8', '23'] 738.2352941176465
139 14.764705882352942 ['5', '8', '23'] 738.2352941176465
140 14.764705882352942 ['5', '8', '23'] 738.2352941176465
141 14.764705882352942 ['5', '8', '23'] 738.2352941176465
142 14.764705882352942 ['5', '8', '23'] 738.2352941176465
143 14.764705882352942 ['5', '8', '23'] 738.2352941176465
144 14.764705882352942 ['5', '8', '23'] 738.2352941176465
145 14.764705882352942 ['5', '8', '23'] 738.2352941176465
146 14.764705882352942 ['5', '8', '23'] 738.2352941176465
147 14.764705882352942 ['5', '8', '23'] 738.2352941176465
148 14.764705882352942 ['5', '8', '23'] 738.2352941176465
149 14.764705882352942 ['5', '8', '23'] 738.2352941176465
150 14.764705882352942 ['5', '8', '23'] 738.2352941176465
151 14.764705882352942 ['5', '8', '23'] 738.2352941176465
152 14.764705882352942 ['5', '8', '23'] 738.2352941176465
153 14.764705882352942 ['5', '8', '23'] 738.2352941176465
154 14.764705882352942 ['5', '8', '23'] 738.2352941176465
155 14.764705882352942 ['5', '8', '23'] 738.2352941176465
156 14.764705882352942 ['5', '8', '23'] 738.2352941176465
157 14.764705882352942 ['5', '8', '23'] 738.2352941176465
158 14.764705882352942 ['5', '8', '23'] 738.2352941176465
159 14.764705882352942 ['5', '8', '23'] 738.2352941176465
160 14.764705882352942 ['5', '8', '23'] 738.2352941176465
161 14.764705882352942 ['5', '8', '23'] 738.2352941176465
162 14.764705882352942 ['5', '8', '23'] 738.2352941176465
163 14.764705882352942 ['5', '8', '23'] 738.2352941176465
164 14.764705882352942 ['5', '8', '23'] 738.2352941176465
165 14.764705882352942 ['5', '8', '23'] 738.2352941176465
166 14.764705882352942 ['5', '8', '23'] 738.2352941176465
167 14.764705882352942 ['5', '8', '23'] 738.2352941176465
168 14.764705882352942 ['5', '8', '23'] 738.2352941176465
169 14.764705882352942 ['5', '8', '23'] 738.2352941176465
170 14.764705882352942 ['5', '8', '23'] 738.2352941176465
171 14.764705882352942 ['5', '8', '23'] 738.2352941176465
172 14.764705882352942 ['5', '8', '23'] 738.2352941176465
173 14.764705882352942 ['5', '8', '23'] 738.2352941176465
174 14.764705882352942 ['5', '8', '23'] 738.2352941176465
175 14.764705882352942 ['5', '8', '23'] 738.2352941176465
176 14.764705882352942 ['5', '8', '23'] 738.2352941176465
177 14.764705882352942 ['5', '8', '23'] 738.2352941176465
178 14.764705882352942 ['5', '8', '23'] 738.2352941176465
179 14.764705882352942 ['5', '8', '23'] 738.2352941176465
180 14.764705882352942 ['5', '8', '23'] 738.2352941176465
181 14.764705882352942 ['5', '8', '23'] 738.2352941176465
182 14.764705882352942 ['5', '8', '23'] 738.2352941176465
183 14.764705882352942 ['5', '8', '23'] 738.2352941176465
184 14.764705882352942 ['5', '8', '23'] 738.2352941176465
185 14.764705882352942 ['5', '8', '23'] 738.2352941176465
186 14.764705882352942 ['5', '8', '23'] 738.2352941176465
187 14.764705882352942 ['5', '8', '23'] 738.2352941176465
188 14.764705882352942 ['5', '8', '23'] 738.2352941176465
189 14.764705882352942 ['5', '8', '23'] 738.2352941176465
190 14.764705882352942 ['5', '8', '23'] 738.2352941176465
191 14.764705882352942 ['5', '8', '23'] 738.2352941176465
192 14.764705882352942 ['5', '8', '23'] 738.2352941176465
193 14.764705882352942 ['5', '8', '23'] 738.2352941176465
194 14.764705882352942 ['5', '8', '23'] 738.2352941176465
195 14.764705882352942 ['5', '8', '23'] 738.2352941176465
196 14.764705882352942 ['5', '8', '23'] 738.2352941176465
197 14.764705882352942 ['5', '8', '23'] 738.2352941176465
198 14.764705882352942 ['5', '8', '23'] 738.2352941176465
199 14.764705882352942 ['5', '8', '23'] 738.2352941176465
