0 264.27659574468083 ['20', '24', '19', '51', '29'] 13941.191489361701
1 262.02127659574467 ['19', '24', '20', '25', '17'] 13735.638297872338
2 252.4255319148936 ['20', '32', '13', '19', '23'] 13537.659574468085
3 252.4255319148936 ['20', '32', '13', '19', '23'] 13384.234042553193
4 252.4255319148936 ['20', '32', '13', '19', '23'] 13160.893617021276
5 252.40425531914894 ['19', '20', '23', '17', '39'] 12946.553191489358
6 247.08510638297872 ['20', '19', '32', '23', '3'] 12777.659574468084
7 247.08510638297872 ['20', '19', '32', '23', '3'] 12626.787234042553
8 247.08510638297872 ['20', '19', '32', '23', '3'] 12528.744680851065
9 247.08510638297872 ['20', '19', '32', '23', '3'] 12445.872340425523
10 247.08510638297872 ['20', '19', '32', '23', '3'] 12383.59574468084
11 247.08510638297872 ['20', '19', '32', '23', '3'] 12354.25531914895
12 247.08510638297872 ['20', '19', '32', '23', '3'] 12354.25531914895
13 247.08510638297872 ['20', '19', '32', '23', '3'] 12354.25531914895
14 247.08510638297872 ['20', '19', '32', '23', '3'] 12354.25531914895
15 247.08510638297872 ['20', '19', '32', '23', '3'] 12354.25531914895
16 247.08510638297872 ['20', '19', '32', '23', '3'] 12354.25531914895
17 247.08510638297872 ['20', '19', '32', '23', '3'] 12354.25531914895
18 247.08510638297872 ['20', '19', '32', '23', '3'] 12354.25531914895
19 247.08510638297872 ['20', '19', '32', '23', '3'] 12354.25531914895
20 247.08510638297872 ['20', '19', '32', '23', '3'] 12354.25531914895
21 247.08510638297872 ['20', '19', '32', '23', '3'] 12354.25531914895
22 247.08510638297872 ['20', '19', '32', '23', '3'] 12354.25531914895
23 247.08510638297872 ['20', '19', '32', '23', '3'] 12354.25531914895
24 247.08510638297872 ['20', '19', '32', '23', '3'] 12354.25531914895
25 247.08510638297872 ['20', '19', '32', '23', '3'] 12354.25531914895
26 247.08510638297872 ['20', '19', '32', '23', '3'] 12354.25531914895
27 247.08510638297872 ['20', '19', '32', '23', '3'] 12354.25531914895
28 247.08510638297872 ['20', '19', '32', '23', '3'] 12354.25531914895
29 247.08510638297872 ['20', '19', '32', '23', '3'] 12354.25531914895
30 247.08510638297872 ['20', '19', '32', '23', '3'] 12354.25531914895
31 247.08510638297872 ['20', '19', '32', '23', '3'] 12354.25531914895
32 247.08510638297872 ['20', '19', '32', '23', '3'] 12354.25531914895
33 247.08510638297872 ['20', '19', '32', '23', '3'] 12354.25531914895
34 247.08510638297872 ['20', '19', '32', '23', '3'] 12354.25531914895
35 247.08510638297872 ['20', '19', '32', '23', '3'] 12354.25531914895
36 247.08510638297872 ['20', '19', '32', '23', '3'] 12354.25531914895
37 247.08510638297872 ['20', '19', '32', '23', '3'] 12354.25531914895
38 247.08510638297872 ['20', '19', '32', '23', '3'] 12354.25531914895
39 247.08510638297872 ['20', '19', '32', '23', '3'] 12354.25531914895
40 247.08510638297872 ['20', '19', '32', '23', '3'] 12354.25531914895
41 247.08510638297872 ['20', '19', '32', '23', '3'] 12354.25531914895
42 247.08510638297872 ['20', '19', '32', '23', '3'] 12354.25531914895
43 247.08510638297872 ['20', '19', '32', '23', '3'] 12354.25531914895
44 247.08510638297872 ['20', '19', '32', '23', '3'] 12354.25531914895
45 247.08510638297872 ['20', '19', '32', '23', '3'] 12354.25531914895
46 247.08510638297872 ['20', '19', '32', '23', '3'] 12354.25531914895
47 247.08510638297872 ['20', '19', '32', '23', '3'] 12354.25531914895
48 247.08510638297872 ['20', '19', '32', '23', '3'] 12354.25531914895
49 247.08510638297872 ['20', '19', '32', '23', '3'] 12354.25531914895
50 247.08510638297872 ['20', '19', '32', '23', '3'] 12354.25531914895
51 247.08510638297872 ['20', '19', '32', '23', '3'] 12354.25531914895
52 247.08510638297872 ['20', '19', '32', '23', '3'] 12354.25531914895
53 247.08510638297872 ['20', '19', '32', '23', '3'] 12354.25531914895
54 247.08510638297872 ['20', '19', '32', '23', '3'] 12354.25531914895
55 247.08510638297872 ['20', '19', '32', '23', '3'] 12354.25531914895
56 247.08510638297872 ['20', '19', '32', '23', '3'] 12354.25531914895
57 247.08510638297872 ['20', '19', '32', '23', '3'] 12354.25531914895
58 247.08510638297872 ['20', '19', '32', '23', '3'] 12354.25531914895
59 247.08510638297872 ['20', '19', '32', '23', '3'] 12354.25531914895
60 247.08510638297872 ['20', '19', '32', '23', '3'] 12354.25531914895
61 247.08510638297872 ['20', '19', '32', '23', '3'] 12354.25531914895
62 247.08510638297872 ['20', '19', '32', '23', '3'] 12354.25531914895
63 247.08510638297872 ['20', '19', '32', '23', '3'] 12354.25531914895
64 247.08510638297872 ['20', '19', '32', '23', '3'] 12354.25531914895
65 247.08510638297872 ['20', '19', '32', '23', '3'] 12354.25531914895
66 247.08510638297872 ['20', '19', '32', '23', '3'] 12354.25531914895
67 247.08510638297872 ['20', '19', '32', '23', '3'] 12354.25531914895
68 247.08510638297872 ['20', '19', '32', '23', '3'] 12354.25531914895
69 247.08510638297872 ['20', '19', '32', '23', '3'] 12354.25531914895
70 247.08510638297872 ['20', '19', '32', '23', '3'] 12354.25531914895
71 247.08510638297872 ['20', '19', '32', '23', '3'] 12354.25531914895
72 247.08510638297872 ['20', '19', '32', '23', '3'] 12354.25531914895
73 247.08510638297872 ['20', '19', '32', '23', '3'] 12354.25531914895
74 247.08510638297872 ['20', '19', '32', '23', '3'] 12354.25531914895
75 247.08510638297872 ['20', '19', '32', '23', '3'] 12354.25531914895
76 247.08510638297872 ['20', '19', '32', '23', '3'] 12354.25531914895
77 247.08510638297872 ['20', '19', '32', '23', '3'] 12354.25531914895
78 247.08510638297872 ['20', '19', '32', '23', '3'] 12354.25531914895
79 247.08510638297872 ['20', '19', '32', '23', '3'] 12354.25531914895
80 247.08510638297872 ['20', '19', '32', '23', '3'] 12354.25531914895
81 247.08510638297872 ['20', '19', '32', '23', '3'] 12354.25531914895
82 247.08510638297872 ['20', '19', '32', '23', '3'] 12354.25531914895
83 247.08510638297872 ['20', '19', '32', '23', '3'] 12354.25531914895
84 247.08510638297872 ['20', '19', '32', '23', '3'] 12354.25531914895
85 247.08510638297872 ['20', '19', '32', '23', '3'] 12354.25531914895
86 247.08510638297872 ['20', '19', '32', '23', '3'] 12354.25531914895
87 247.08510638297872 ['20', '19', '32', '23', '3'] 12354.25531914895
88 247.08510638297872 ['20', '19', '32', '23', '3'] 12354.25531914895
89 247.08510638297872 ['20', '19', '32', '23', '3'] 12354.25531914895
90 247.08510638297872 ['20', '19', '32', '23', '3'] 12354.25531914895
91 247.08510638297872 ['20', '19', '32', '23', '3'] 12354.25531914895
92 247.08510638297872 ['20', '19', '32', '23', '3'] 12354.25531914895
93 247.08510638297872 ['20', '19', '32', '23', '3'] 12354.25531914895
94 247.08510638297872 ['20', '19', '32', '23', '3'] 12354.25531914895
95 247.08510638297872 ['20', '19', '32', '23', '3'] 12354.25531914895
96 247.08510638297872 ['20', '19', '32', '23', '3'] 12354.25531914895
97 247.08510638297872 ['20', '19', '32', '23', '3'] 12354.25531914895
98 247.08510638297872 ['20', '19', '32', '23', '3'] 12354.25531914895
99 247.08510638297872 ['20', '19', '32', '23', '3'] 12354.25531914895
100 247.08510638297872 ['20', '19', '32', '23', '3'] 12354.25531914895
101 247.08510638297872 ['20', '19', '32', '23', '3'] 12354.25531914895
102 247.08510638297872 ['20', '19', '32', '23', '3'] 12354.25531914895
103 247.08510638297872 ['20', '19', '32', '23', '3'] 12354.25531914895
104 247.08510638297872 ['20', '19', '32', '23', '3'] 12354.25531914895
105 247.08510638297872 ['20', '19', '32', '23', '3'] 12354.25531914895
106 247.08510638297872 ['20', '19', '32', '23', '3'] 12354.25531914895
107 247.08510638297872 ['20', '19', '32', '23', '3'] 12354.25531914895
108 247.08510638297872 ['20', '19', '32', '23', '3'] 12354.25531914895
109 247.08510638297872 ['20', '19', '32', '23', '3'] 12354.25531914895
110 247.08510638297872 ['20', '19', '32', '23', '3'] 12354.25531914895
111 247.08510638297872 ['20', '19', '32', '23', '3'] 12354.25531914895
112 247.08510638297872 ['20', '19', '32', '23', '3'] 12354.25531914895
113 247.08510638297872 ['20', '19', '32', '23', '3'] 12354.25531914895
114 247.08510638297872 ['20', '19', '32', '23', '3'] 12354.25531914895
115 247.08510638297872 ['20', '19', '32', '23', '3'] 12354.25531914895
116 247.08510638297872 ['20', '19', '32', '23', '3'] 12354.25531914895
117 247.08510638297872 ['20', '19', '32', '23', '3'] 12354.25531914895
118 247.08510638297872 ['20', '19', '32', '23', '3'] 12354.25531914895
119 247.08510638297872 ['20', '19', '32', '23', '3'] 12354.25531914895
120 247.08510638297872 ['20', '19', '32', '23', '3'] 12354.25531914895
121 247.08510638297872 ['20', '19', '32', '23', '3'] 12354.25531914895
122 247.08510638297872 ['20', '19', '32', '23', '3'] 12354.25531914895
123 247.08510638297872 ['20', '19', '32', '23', '3'] 12354.25531914895
124 247.08510638297872 ['20', '19', '32', '23', '3'] 12354.25531914895
125 247.08510638297872 ['20', '19', '32', '23', '3'] 12354.25531914895
126 247.08510638297872 ['20', '19', '32', '23', '3'] 12354.25531914895
127 247.08510638297872 ['20', '19', '32', '23', '3'] 12354.25531914895
128 247.08510638297872 ['20', '19', '32', '23', '3'] 12354.25531914895
129 247.08510638297872 ['20', '19', '32', '23', '3'] 12354.25531914895
130 247.08510638297872 ['20', '19', '32', '23', '3'] 12354.25531914895
131 247.08510638297872 ['20', '19', '32', '23', '3'] 12354.25531914895
132 247.08510638297872 ['20', '19', '32', '23', '3'] 12354.25531914895
133 247.08510638297872 ['20', '19', '32', '23', '3'] 12354.25531914895
134 247.08510638297872 ['20', '19', '32', '23', '3'] 12354.25531914895
135 247.08510638297872 ['20', '19', '32', '23', '3'] 12354.25531914895
136 247.08510638297872 ['20', '19', '32', '23', '3'] 12354.25531914895
137 247.08510638297872 ['20', '19', '32', '23', '3'] 12354.25531914895
138 247.08510638297872 ['20', '19', '32', '23', '3'] 12354.25531914895
139 247.08510638297872 ['20', '19', '32', '23', '3'] 12354.25531914895
140 247.08510638297872 ['20', '19', '32', '23', '3'] 12354.25531914895
141 247.08510638297872 ['20', '19', '32', '23', '3'] 12354.25531914895
142 247.08510638297872 ['20', '19', '32', '23', '3'] 12354.25531914895
143 247.08510638297872 ['20', '19', '32', '23', '3'] 12354.25531914895
144 247.08510638297872 ['20', '19', '32', '23', '3'] 12354.25531914895
145 247.08510638297872 ['20', '19', '32', '23', '3'] 12354.25531914895
146 247.08510638297872 ['20', '19', '32', '23', '3'] 12354.25531914895
147 247.08510638297872 ['20', '19', '32', '23', '3'] 12354.25531914895
148 247.08510638297872 ['20', '19', '32', '23', '3'] 12354.25531914895
149 247.08510638297872 ['20', '19', '32', '23', '3'] 12354.25531914895
150 247.08510638297872 ['20', '19', '32', '23', '3'] 12354.25531914895
151 247.08510638297872 ['20', '19', '32', '23', '3'] 12354.25531914895
152 247.08510638297872 ['20', '19', '32', '23', '3'] 12354.25531914895
153 247.08510638297872 ['20', '19', '32', '23', '3'] 12354.25531914895
154 247.08510638297872 ['20', '19', '32', '23', '3'] 12354.25531914895
155 247.08510638297872 ['20', '19', '32', '23', '3'] 12354.25531914895
156 247.08510638297872 ['20', '19', '32', '23', '3'] 12354.25531914895
157 247.08510638297872 ['20', '19', '32', '23', '3'] 12354.25531914895
158 247.08510638297872 ['20', '19', '32', '23', '3'] 12354.25531914895
159 247.08510638297872 ['20', '19', '32', '23', '3'] 12354.25531914895
160 247.08510638297872 ['20', '19', '32', '23', '3'] 12354.25531914895
161 247.08510638297872 ['20', '19', '32', '23', '3'] 12354.25531914895
162 247.08510638297872 ['20', '19', '32', '23', '3'] 12354.25531914895
163 247.08510638297872 ['20', '19', '32', '23', '3'] 12354.25531914895
164 247.08510638297872 ['20', '19', '32', '23', '3'] 12354.25531914895
165 247.08510638297872 ['20', '19', '32', '23', '3'] 12354.25531914895
166 247.08510638297872 ['20', '19', '32', '23', '3'] 12354.25531914895
167 247.08510638297872 ['20', '19', '32', '23', '3'] 12354.25531914895
168 247.08510638297872 ['20', '19', '32', '23', '3'] 12354.25531914895
169 247.08510638297872 ['20', '19', '32', '23', '3'] 12354.25531914895
170 247.08510638297872 ['20', '19', '32', '23', '3'] 12354.25531914895
171 247.08510638297872 ['20', '19', '32', '23', '3'] 12354.25531914895
172 247.08510638297872 ['20', '19', '32', '23', '3'] 12354.25531914895
173 247.08510638297872 ['20', '19', '32', '23', '3'] 12354.25531914895
174 247.08510638297872 ['20', '19', '32', '23', '3'] 12354.25531914895
175 247.08510638297872 ['20', '19', '32', '23', '3'] 12354.25531914895
176 247.08510638297872 ['20', '19', '32', '23', '3'] 12354.25531914895
177 247.08510638297872 ['20', '19', '32', '23', '3'] 12354.25531914895
178 247.08510638297872 ['20', '19', '32', '23', '3'] 12354.25531914895
179 247.08510638297872 ['20', '19', '32', '23', '3'] 12354.25531914895
180 247.08510638297872 ['20', '19', '32', '23', '3'] 12354.25531914895
181 247.08510638297872 ['20', '19', '32', '23', '3'] 12354.25531914895
182 247.08510638297872 ['20', '19', '32', '23', '3'] 12354.25531914895
183 247.08510638297872 ['20', '19', '32', '23', '3'] 12354.25531914895
184 247.08510638297872 ['20', '19', '32', '23', '3'] 12354.25531914895
185 247.08510638297872 ['20', '19', '32', '23', '3'] 12354.25531914895
186 247.08510638297872 ['20', '19', '32', '23', '3'] 12354.25531914895
187 247.08510638297872 ['20', '19', '32', '23', '3'] 12354.25531914895
188 247.08510638297872 ['20', '19', '32', '23', '3'] 12354.25531914895
189 247.08510638297872 ['20', '19', '32', '23', '3'] 12354.25531914895
190 247.08510638297872 ['20', '19', '32', '23', '3'] 12354.25531914895
191 247.08510638297872 ['20', '19', '32', '23', '3'] 12354.25531914895
192 247.08510638297872 ['20', '19', '32', '23', '3'] 12354.25531914895
193 247.08510638297872 ['20', '19', '32', '23', '3'] 12354.25531914895
194 247.08510638297872 ['20', '19', '32', '23', '3'] 12354.25531914895
195 247.08510638297872 ['20', '19', '32', '23', '3'] 12354.25531914895
196 247.08510638297872 ['20', '19', '32', '23', '3'] 12354.25531914895
197 247.08510638297872 ['20', '19', '32', '23', '3'] 12354.25531914895
198 247.08510638297872 ['20', '19', '32', '23', '3'] 12354.25531914895
199 247.08510638297872 ['20', '19', '32', '23', '3'] 12354.25531914895
