0 32.91228070175438 ['17', '59', '51', '6', '14', '57'] 1813.543859649122
1 32.91228070175438 ['17', '59', '51', '6', '14', '57'] 1755.7894736842104
2 30.666666666666668 ['33', '59', '25', '62', '20', '14'] 1709.19298245614
3 30.666666666666668 ['33', '59', '25', '62', '20', '14'] 1664.3508771929833
4 30.526315789473685 ['59', '25', '14', '33', '6', '20'] 1624.210526315789
5 29.894736842105264 ['14', '20', '59', '17', '6', '25'] 1586.1754385964905
6 29.68421052631579 ['25', '14', '59', '17', '6', '62'] 1554.9473684210527
7 29.68421052631579 ['25', '14', '59', '17', '6', '62'] 1532.8421052631581
8 29.68421052631579 ['25', '14', '59', '17', '6', '62'] 1514.0350877192973
9 29.68421052631579 ['25', '14', '59', '17', '6', '62'] 1502.2456140350876
10 29.68421052631579 ['25', '14', '59', '17', '6', '62'] 1490.8070175438602
11 29.68421052631579 ['25', '14', '59', '17', '6', '62'] 1484.8421052631584
12 29.68421052631579 ['25', '14', '59', '17', '6', '62'] 1484.210526315791
13 29.68421052631579 ['25', '14', '59', '17', '6', '62'] 1484.210526315791
14 29.68421052631579 ['25', '14', '59', '17', '6', '62'] 1484.210526315791
15 29.68421052631579 ['25', '14', '59', '17', '6', '62'] 1484.210526315791
16 29.68421052631579 ['25', '14', '59', '17', '6', '62'] 1484.210526315791
17 29.68421052631579 ['25', '14', '59', '17', '6', '62'] 1484.210526315791
18 29.68421052631579 ['25', '14', '59', '17', '6', '62'] 1484.210526315791
19 29.68421052631579 ['25', '14', '59', '17', '6', '62'] 1484.210526315791
20 29.68421052631579 ['25', '14', '59', '17', '6', '62'] 1484.210526315791
21 29.68421052631579 ['25', '14', '59', '17', '6', '62'] 1484.210526315791
22 29.68421052631579 ['25', '14', '59', '17', '6', '62'] 1484.210526315791
23 29.68421052631579 ['25', '14', '59', '17', '6', '62'] 1484.210526315791
24 29.68421052631579 ['25', '14', '59', '17', '6', '62'] 1484.210526315791
25 29.68421052631579 ['25', '14', '59', '17', '6', '62'] 1484.210526315791
26 29.68421052631579 ['25', '14', '59', '17', '6', '62'] 1484.210526315791
27 29.68421052631579 ['25', '14', '59', '17', '6', '62'] 1484.210526315791
28 29.68421052631579 ['25', '14', '59', '17', '6', '62'] 1484.210526315791
29 29.68421052631579 ['25', '14', '59', '17', '6', '62'] 1484.210526315791
30 29.68421052631579 ['25', '14', '59', '17', '6', '62'] 1484.210526315791
31 29.68421052631579 ['25', '14', '59', '17', '6', '62'] 1484.210526315791
32 29.68421052631579 ['25', '14', '59', '17', '6', '62'] 1484.210526315791
33 29.68421052631579 ['25', '14', '59', '17', '6', '62'] 1484.210526315791
34 29.68421052631579 ['25', '14', '59', '17', '6', '62'] 1484.210526315791
35 29.68421052631579 ['25', '14', '59', '17', '6', '62'] 1484.210526315791
36 29.68421052631579 ['25', '14', '59', '17', '6', '62'] 1484.210526315791
37 29.68421052631579 ['25', '14', '59', '17', '6', '62'] 1484.210526315791
38 29.68421052631579 ['25', '14', '59', '17', '6', '62'] 1484.210526315791
39 29.68421052631579 ['25', '14', '59', '17', '6', '62'] 1484.210526315791
40 29.68421052631579 ['25', '14', '59', '17', '6', '62'] 1484.210526315791
41 29.68421052631579 ['25', '14', '59', '17', '6', '62'] 1484.210526315791
42 29.68421052631579 ['25', '14', '59', '17', '6', '62'] 1484.210526315791
43 29.68421052631579 ['25', '14', '59', '17', '6', '62'] 1484.210526315791
44 29.68421052631579 ['25', '14', '59', '17', '6', '62'] 1484.210526315791
45 29.68421052631579 ['25', '14', '59', '17', '6', '62'] 1484.210526315791
46 29.68421052631579 ['25', '14', '59', '17', '6', '62'] 1484.210526315791
47 29.68421052631579 ['25', '14', '59', '17', '6', '62'] 1484.210526315791
48 29.68421052631579 ['25', '14', '59', '17', '6', '62'] 1484.210526315791
49 29.68421052631579 ['25', '14', '59', '17', '6', '62'] 1484.210526315791
50 29.68421052631579 ['25', '14', '59', '17', '6', '62'] 1484.210526315791
51 29.68421052631579 ['25', '14', '59', '17', '6', '62'] 1484.210526315791
52 29.68421052631579 ['25', '14', '59', '17', '6', '62'] 1484.210526315791
53 29.68421052631579 ['25', '14', '59', '17', '6', '62'] 1484.210526315791
54 29.68421052631579 ['25', '14', '59', '17', '6', '62'] 1484.210526315791
55 29.68421052631579 ['25', '14', '59', '17', '6', '62'] 1484.210526315791
56 29.68421052631579 ['25', '14', '59', '17', '6', '62'] 1484.210526315791
57 29.68421052631579 ['25', '14', '59', '17', '6', '62'] 1484.210526315791
58 29.68421052631579 ['25', '14', '59', '17', '6', '62'] 1484.210526315791
59 29.68421052631579 ['25', '14', '59', '17', '6', '62'] 1484.210526315791
60 29.68421052631579 ['25', '14', '59', '17', '6', '62'] 1484.210526315791
61 29.68421052631579 ['25', '14', '59', '17', '6', '62'] 1484.210526315791
62 29.68421052631579 ['25', '14', '59', '17', '6', '62'] 1484.210526315791
63 29.68421052631579 ['25', '14', '59', '17', '6', '62'] 1484.210526315791
64 29.68421052631579 ['25', '14', '59', '17', '6', '62'] 1484.210526315791
65 29.68421052631579 ['25', '14', '59', '17', '6', '62'] 1484.210526315791
66 29.68421052631579 ['25', '14', '59', '17', '6', '62'] 1484.210526315791
67 29.68421052631579 ['25', '14', '59', '17', '6', '62'] 1484.210526315791
68 29.68421052631579 ['25', '14', '59', '17', '6', '62'] 1484.210526315791
69 29.68421052631579 ['25', '14', '59', '17', '6', '62'] 1484.210526315791
70 29.68421052631579 ['25', '14', '59', '17', '6', '62'] 1484.210526315791
71 29.68421052631579 ['25', '14', '59', '17', '6', '62'] 1484.210526315791
72 29.68421052631579 ['25', '14', '59', '17', '6', '62'] 1484.210526315791
73 29.68421052631579 ['25', '14', '59', '17', '6', '62'] 1484.210526315791
74 29.68421052631579 ['25', '14', '59', '17', '6', '62'] 1484.210526315791
75 29.68421052631579 ['25', '14', '59', '17', '6', '62'] 1484.210526315791
76 29.68421052631579 ['25', '14', '59', '17', '6', '62'] 1484.210526315791
77 29.68421052631579 ['25', '14', '59', '17', '6', '62'] 1484.210526315791
78 29.68421052631579 ['25', '14', '59', '17', '6', '62'] 1484.210526315791
79 29.68421052631579 ['25', '14', '59', '17', '6', '62'] 1484.210526315791
80 29.68421052631579 ['25', '14', '59', '17', '6', '62'] 1484.210526315791
81 29.68421052631579 ['25', '14', '59', '17', '6', '62'] 1484.210526315791
82 29.68421052631579 ['25', '14', '59', '17', '6', '62'] 1484.210526315791
83 29.68421052631579 ['25', '14', '59', '17', '6', '62'] 1484.210526315791
84 29.68421052631579 ['25', '14', '59', '17', '6', '62'] 1484.210526315791
85 29.68421052631579 ['25', '14', '59', '17', '6', '62'] 1484.210526315791
86 29.68421052631579 ['25', '14', '59', '17', '6', '62'] 1484.210526315791
87 29.68421052631579 ['25', '14', '59', '17', '6', '62'] 1484.210526315791
88 29.68421052631579 ['25', '14', '59', '17', '6', '62'] 1484.210526315791
89 29.68421052631579 ['25', '14', '59', '17', '6', '62'] 1484.210526315791
90 29.68421052631579 ['25', '14', '59', '17', '6', '62'] 1484.210526315791
91 29.68421052631579 ['25', '14', '59', '17', '6', '62'] 1484.210526315791
92 29.68421052631579 ['25', '14', '59', '17', '6', '62'] 1484.210526315791
93 29.68421052631579 ['25', '14', '59', '17', '6', '62'] 1484.210526315791
94 29.68421052631579 ['25', '14', '59', '17', '6', '62'] 1484.210526315791
95 29.68421052631579 ['25', '14', '59', '17', '6', '62'] 1484.210526315791
96 29.68421052631579 ['25', '14', '59', '17', '6', '62'] 1484.210526315791
97 29.68421052631579 ['25', '14', '59', '17', '6', '62'] 1484.210526315791
98 29.68421052631579 ['25', '14', '59', '17', '6', '62'] 1484.210526315791
99 29.68421052631579 ['25', '14', '59', '17', '6', '62'] 1484.210526315791
100 29.68421052631579 ['25', '14', '59', '17', '6', '62'] 1484.210526315791
101 29.68421052631579 ['25', '14', '59', '17', '6', '62'] 1484.210526315791
102 29.68421052631579 ['25', '14', '59', '17', '6', '62'] 1484.210526315791
103 29.68421052631579 ['25', '14', '59', '17', '6', '62'] 1484.210526315791
104 29.68421052631579 ['25', '14', '59', '17', '6', '62'] 1484.210526315791
105 29.68421052631579 ['25', '14', '59', '17', '6', '62'] 1484.210526315791
106 29.68421052631579 ['25', '14', '59', '17', '6', '62'] 1484.210526315791
107 29.68421052631579 ['25', '14', '59', '17', '6', '62'] 1484.210526315791
108 29.68421052631579 ['25', '14', '59', '17', '6', '62'] 1484.210526315791
109 29.68421052631579 ['25', '14', '59', '17', '6', '62'] 1484.210526315791
110 29.68421052631579 ['25', '14', '59', '17', '6', '62'] 1484.210526315791
111 29.68421052631579 ['25', '14', '59', '17', '6', '62'] 1484.210526315791
112 29.68421052631579 ['25', '14', '59', '17', '6', '62'] 1484.210526315791
113 29.68421052631579 ['25', '14', '59', '17', '6', '62'] 1484.210526315791
114 29.68421052631579 ['25', '14', '59', '17', '6', '62'] 1484.210526315791
115 29.68421052631579 ['25', '14', '59', '17', '6', '62'] 1484.210526315791
116 29.68421052631579 ['25', '14', '59', '17', '6', '62'] 1484.210526315791
117 29.68421052631579 ['25', '14', '59', '17', '6', '62'] 1484.210526315791
118 29.68421052631579 ['25', '14', '59', '17', '6', '62'] 1484.210526315791
119 29.68421052631579 ['25', '14', '59', '17', '6', '62'] 1484.210526315791
120 29.68421052631579 ['25', '14', '59', '17', '6', '62'] 1484.210526315791
121 29.68421052631579 ['25', '14', '59', '17', '6', '62'] 1484.210526315791
122 29.68421052631579 ['25', '14', '59', '17', '6', '62'] 1484.210526315791
123 29.68421052631579 ['25', '14', '59', '17', '6', '62'] 1484.210526315791
124 29.68421052631579 ['25', '14', '59', '17', '6', '62'] 1484.210526315791
125 29.68421052631579 ['25', '14', '59', '17', '6', '62'] 1484.210526315791
126 29.68421052631579 ['25', '14', '59', '17', '6', '62'] 1484.210526315791
127 29.68421052631579 ['25', '14', '59', '17', '6', '62'] 1484.210526315791
128 29.68421052631579 ['25', '14', '59', '17', '6', '62'] 1484.210526315791
129 29.68421052631579 ['25', '14', '59', '17', '6', '62'] 1484.210526315791
130 29.68421052631579 ['25', '14', '59', '17', '6', '62'] 1484.210526315791
131 29.68421052631579 ['25', '14', '59', '17', '6', '62'] 1484.210526315791
132 29.68421052631579 ['25', '14', '59', '17', '6', '62'] 1484.210526315791
133 29.68421052631579 ['25', '14', '59', '17', '6', '62'] 1484.210526315791
134 29.68421052631579 ['25', '14', '59', '17', '6', '62'] 1484.210526315791
135 29.68421052631579 ['25', '14', '59', '17', '6', '62'] 1484.210526315791
136 29.68421052631579 ['25', '14', '59', '17', '6', '62'] 1484.210526315791
137 29.68421052631579 ['25', '14', '59', '17', '6', '62'] 1484.210526315791
138 29.68421052631579 ['25', '14', '59', '17', '6', '62'] 1484.210526315791
139 29.68421052631579 ['25', '14', '59', '17', '6', '62'] 1484.210526315791
140 29.68421052631579 ['25', '14', '59', '17', '6', '62'] 1484.210526315791
141 29.68421052631579 ['25', '14', '59', '17', '6', '62'] 1484.210526315791
142 29.68421052631579 ['25', '14', '59', '17', '6', '62'] 1484.210526315791
143 29.68421052631579 ['25', '14', '59', '17', '6', '62'] 1484.210526315791
144 29.68421052631579 ['25', '14', '59', '17', '6', '62'] 1484.210526315791
145 29.68421052631579 ['25', '14', '59', '17', '6', '62'] 1484.210526315791
146 29.68421052631579 ['25', '14', '59', '17', '6', '62'] 1484.210526315791
147 29.68421052631579 ['25', '14', '59', '17', '6', '62'] 1484.210526315791
148 29.68421052631579 ['25', '14', '59', '17', '6', '62'] 1484.210526315791
149 29.68421052631579 ['25', '14', '59', '17', '6', '62'] 1484.210526315791
150 29.68421052631579 ['25', '14', '59', '17', '6', '62'] 1484.210526315791
151 29.68421052631579 ['25', '14', '59', '17', '6', '62'] 1484.210526315791
152 29.68421052631579 ['25', '14', '59', '17', '6', '62'] 1484.210526315791
153 29.68421052631579 ['25', '14', '59', '17', '6', '62'] 1484.210526315791
154 29.68421052631579 ['25', '14', '59', '17', '6', '62'] 1484.210526315791
155 29.68421052631579 ['25', '14', '59', '17', '6', '62'] 1484.210526315791
156 29.68421052631579 ['25', '14', '59', '17', '6', '62'] 1484.210526315791
157 29.68421052631579 ['25', '14', '59', '17', '6', '62'] 1484.210526315791
158 29.68421052631579 ['25', '14', '59', '17', '6', '62'] 1484.210526315791
159 29.68421052631579 ['25', '14', '59', '17', '6', '62'] 1484.210526315791
160 29.68421052631579 ['25', '14', '59', '17', '6', '62'] 1484.210526315791
161 29.68421052631579 ['25', '14', '59', '17', '6', '62'] 1484.210526315791
162 29.68421052631579 ['25', '14', '59', '17', '6', '62'] 1484.210526315791
163 29.68421052631579 ['25', '14', '59', '17', '6', '62'] 1484.210526315791
164 29.68421052631579 ['25', '14', '59', '17', '6', '62'] 1484.210526315791
165 29.68421052631579 ['25', '14', '59', '17', '6', '62'] 1484.210526315791
166 29.68421052631579 ['25', '14', '59', '17', '6', '62'] 1484.210526315791
167 29.68421052631579 ['25', '14', '59', '17', '6', '62'] 1484.210526315791
168 29.68421052631579 ['25', '14', '59', '17', '6', '62'] 1484.210526315791
169 29.68421052631579 ['25', '14', '59', '17', '6', '62'] 1484.210526315791
170 29.68421052631579 ['25', '14', '59', '17', '6', '62'] 1484.210526315791
171 29.68421052631579 ['25', '14', '59', '17', '6', '62'] 1484.210526315791
172 29.68421052631579 ['25', '14', '59', '17', '6', '62'] 1484.210526315791
173 29.68421052631579 ['25', '14', '59', '17', '6', '62'] 1484.210526315791
174 29.68421052631579 ['25', '14', '59', '17', '6', '62'] 1484.210526315791
175 29.68421052631579 ['25', '14', '59', '17', '6', '62'] 1484.210526315791
176 29.68421052631579 ['25', '14', '59', '17', '6', '62'] 1484.210526315791
177 29.68421052631579 ['25', '14', '59', '17', '6', '62'] 1484.210526315791
178 29.68421052631579 ['25', '14', '59', '17', '6', '62'] 1484.210526315791
179 29.68421052631579 ['25', '14', '59', '17', '6', '62'] 1484.210526315791
180 29.68421052631579 ['25', '14', '59', '17', '6', '62'] 1484.210526315791
181 29.68421052631579 ['25', '14', '59', '17', '6', '62'] 1484.210526315791
182 29.68421052631579 ['25', '14', '59', '17', '6', '62'] 1484.210526315791
183 29.68421052631579 ['25', '14', '59', '17', '6', '62'] 1484.210526315791
184 29.68421052631579 ['25', '14', '59', '17', '6', '62'] 1484.210526315791
185 29.68421052631579 ['25', '14', '59', '17', '6', '62'] 1484.210526315791
186 29.68421052631579 ['25', '14', '59', '17', '6', '62'] 1484.210526315791
187 29.68421052631579 ['25', '14', '59', '17', '6', '62'] 1484.210526315791
188 29.68421052631579 ['25', '14', '59', '17', '6', '62'] 1484.210526315791
189 29.68421052631579 ['25', '14', '59', '17', '6', '62'] 1484.210526315791
190 29.68421052631579 ['25', '14', '59', '17', '6', '62'] 1484.210526315791
191 29.68421052631579 ['25', '14', '59', '17', '6', '62'] 1484.210526315791
192 29.68421052631579 ['25', '14', '59', '17', '6', '62'] 1484.210526315791
193 29.68421052631579 ['25', '14', '59', '17', '6', '62'] 1484.210526315791
194 29.68421052631579 ['25', '14', '59', '17', '6', '62'] 1484.210526315791
195 29.68421052631579 ['25', '14', '59', '17', '6', '62'] 1484.210526315791
196 29.68421052631579 ['25', '14', '59', '17', '6', '62'] 1484.210526315791
197 29.68421052631579 ['25', '14', '59', '17', '6', '62'] 1484.210526315791
198 29.68421052631579 ['25', '14', '59', '17', '6', '62'] 1484.210526315791
199 29.68421052631579 ['25', '14', '59', '17', '6', '62'] 1484.210526315791
