0 14.377777777777778 ['144', '131', '142', '52', '79', '90', '121', '36', '33', '88', '11', '135', '72', '100', '149'] 740.3703703703702
1 14.377777777777778 ['144', '131', '142', '52', '79', '90', '121', '36', '33', '88', '11', '135', '72', '100', '149'] 733.2
2 14.088888888888889 ['79', '135', '88', '149', '98', '144', '145', '142', '33', '136', '112', '75', '121', '128', '94'] 727.9185185185181
3 14.088888888888889 ['79', '135', '88', '149', '98', '144', '145', '142', '33', '136', '112', '75', '121', '128', '94'] 723.1555555555555
4 14.022222222222222 ['94', '128', '136', '138', '50', '145', '112', '95', '144', '117', '79', '149', '90', '142', '88'] 717.6518518518525
5 13.97037037037037 ['122', '134', '94', '141', '91', '136', '149', '147', '138', '135', '119', '26', '114', '75', '117'] 712.4592592592596
6 13.97037037037037 ['122', '134', '94', '141', '91', '136', '149', '147', '138', '135', '119', '26', '114', '75', '117'] 708.1703703703702
7 13.822222222222223 ['145', '143', '135', '33', '75', '136', '138', '141', '121', '134', '72', '148', '94', '106', '142'] 702.7185185185184
8 13.688888888888888 ['136', '75', '138', '130', '88', '117', '149', '143', '145', '119', '144', '128', '33', '79', '142'] 698.7333333333338
9 13.688888888888888 ['136', '75', '138', '130', '88', '117', '149', '143', '145', '119', '144', '128', '33', '79', '142'] 695.4888888888889
10 13.651851851851852 ['141', '149', '122', '130', '142', '135', '143', '138', '128', '148', '134', '79', '117', '90', '98'] 691.3037037037042
11 13.622222222222222 ['149', '135', '145', '148', '150', '88', '128', '79', '122', '143', '119', '33', '144', '142', '136'] 687.5407407407401
12 13.496296296296297 ['143', '134', '142', '114', '136', '135', '122', '148', '138', '145', '88', '128', '141', '149', '79'] 684.592592592593
13 13.496296296296297 ['143', '134', '142', '114', '136', '135', '122', '148', '138', '145', '88', '128', '141', '149', '79'] 681.3777777777776
14 13.444444444444445 ['138', '136', '135', '90', '128', '149', '141', '142', '122', '79', '148', '150', '143', '117', '88'] 679.1111111111119
15 13.407407407407407 ['114', '135', '128', '141', '149', '145', '138', '117', '79', '148', '143', '122', '136', '142', '33'] 676.451851851852
16 13.407407407407407 ['114', '135', '128', '141', '149', '145', '138', '117', '79', '148', '143', '122', '136', '142', '33'] 674.3777777777772
17 13.385185185185184 ['128', '148', '122', '88', '138', '141', '136', '149', '79', '135', '143', '150', '117', '142', '145'] 673.02962962963
18 13.385185185185184 ['128', '148', '122', '88', '138', '141', '136', '149', '79', '135', '143', '150', '117', '142', '145'] 671.792592592593
19 13.362962962962962 ['149', '138', '142', '128', '150', '136', '143', '145', '135', '141', '148', '114', '79', '122', '117'] 670.7481481481482
20 13.362962962962962 ['149', '138', '142', '128', '150', '136', '143', '145', '135', '141', '148', '114', '79', '122', '117'] 669.9407407407402
21 13.362962962962962 ['149', '138', '142', '128', '150', '136', '143', '145', '135', '141', '148', '114', '79', '122', '117'] 669.3259259259254
22 13.362962962962962 ['149', '138', '142', '128', '150', '136', '143', '145', '135', '141', '148', '114', '79', '122', '117'] 668.5925925925925
23 13.362962962962962 ['149', '138', '142', '128', '150', '136', '143', '145', '135', '141', '148', '114', '79', '122', '117'] 668.1481481481477
24 13.362962962962962 ['149', '138', '142', '128', '150', '136', '143', '145', '135', '141', '148', '114', '79', '122', '117'] 668.1481481481477
25 13.362962962962962 ['149', '138', '142', '128', '150', '136', '143', '145', '135', '141', '148', '114', '79', '122', '117'] 668.1481481481477
26 13.362962962962962 ['149', '138', '142', '128', '150', '136', '143', '145', '135', '141', '148', '114', '79', '122', '117'] 668.1481481481477
27 13.362962962962962 ['149', '138', '142', '128', '150', '136', '143', '145', '135', '141', '148', '114', '79', '122', '117'] 668.1481481481477
28 13.362962962962962 ['149', '138', '142', '128', '150', '136', '143', '145', '135', '141', '148', '114', '79', '122', '117'] 668.1481481481477
29 13.362962962962962 ['149', '138', '142', '128', '150', '136', '143', '145', '135', '141', '148', '114', '79', '122', '117'] 668.1481481481477
30 13.362962962962962 ['149', '138', '142', '128', '150', '136', '143', '145', '135', '141', '148', '114', '79', '122', '117'] 668.1481481481477
31 13.362962962962962 ['149', '138', '142', '128', '150', '136', '143', '145', '135', '141', '148', '114', '79', '122', '117'] 668.1481481481477
32 13.362962962962962 ['149', '138', '142', '128', '150', '136', '143', '145', '135', '141', '148', '114', '79', '122', '117'] 668.1481481481477
33 13.362962962962962 ['149', '138', '142', '128', '150', '136', '143', '145', '135', '141', '148', '114', '79', '122', '117'] 668.1481481481477
34 13.362962962962962 ['149', '138', '142', '128', '150', '136', '143', '145', '135', '141', '148', '114', '79', '122', '117'] 668.1481481481477
35 13.362962962962962 ['149', '138', '142', '128', '150', '136', '143', '145', '135', '141', '148', '114', '79', '122', '117'] 668.1481481481477
36 13.362962962962962 ['149', '138', '142', '128', '150', '136', '143', '145', '135', '141', '148', '114', '79', '122', '117'] 668.1481481481477
37 13.362962962962962 ['149', '138', '142', '128', '150', '136', '143', '145', '135', '141', '148', '114', '79', '122', '117'] 668.1481481481477
38 13.362962962962962 ['149', '138', '142', '128', '150', '136', '143', '145', '135', '141', '148', '114', '79', '122', '117'] 668.1481481481477
39 13.362962962962962 ['149', '138', '142', '128', '150', '136', '143', '145', '135', '141', '148', '114', '79', '122', '117'] 668.1481481481477
40 13.362962962962962 ['149', '138', '142', '128', '150', '136', '143', '145', '135', '141', '148', '114', '79', '122', '117'] 668.1481481481477
41 13.362962962962962 ['149', '138', '142', '128', '150', '136', '143', '145', '135', '141', '148', '114', '79', '122', '117'] 668.1481481481477
42 13.362962962962962 ['149', '138', '142', '128', '150', '136', '143', '145', '135', '141', '148', '114', '79', '122', '117'] 668.1481481481477
43 13.362962962962962 ['149', '138', '142', '128', '150', '136', '143', '145', '135', '141', '148', '114', '79', '122', '117'] 668.1481481481477
44 13.362962962962962 ['149', '138', '142', '128', '150', '136', '143', '145', '135', '141', '148', '114', '79', '122', '117'] 668.1481481481477
45 13.362962962962962 ['149', '138', '142', '128', '150', '136', '143', '145', '135', '141', '148', '114', '79', '122', '117'] 668.1481481481477
46 13.362962962962962 ['149', '138', '142', '128', '150', '136', '143', '145', '135', '141', '148', '114', '79', '122', '117'] 668.1481481481477
47 13.362962962962962 ['149', '138', '142', '128', '150', '136', '143', '145', '135', '141', '148', '114', '79', '122', '117'] 668.1481481481477
48 13.362962962962962 ['149', '138', '142', '128', '150', '136', '143', '145', '135', '141', '148', '114', '79', '122', '117'] 668.1481481481477
49 13.362962962962962 ['149', '138', '142', '128', '150', '136', '143', '145', '135', '141', '148', '114', '79', '122', '117'] 668.1481481481477
50 13.362962962962962 ['149', '138', '142', '128', '150', '136', '143', '145', '135', '141', '148', '114', '79', '122', '117'] 668.1481481481477
51 13.362962962962962 ['149', '138', '142', '128', '150', '136', '143', '145', '135', '141', '148', '114', '79', '122', '117'] 668.1481481481477
52 13.362962962962962 ['149', '138', '142', '128', '150', '136', '143', '145', '135', '141', '148', '114', '79', '122', '117'] 668.1481481481477
53 13.362962962962962 ['149', '138', '142', '128', '150', '136', '143', '145', '135', '141', '148', '114', '79', '122', '117'] 668.1481481481477
54 13.362962962962962 ['149', '138', '142', '128', '150', '136', '143', '145', '135', '141', '148', '114', '79', '122', '117'] 668.1481481481477
55 13.362962962962962 ['149', '138', '142', '128', '150', '136', '143', '145', '135', '141', '148', '114', '79', '122', '117'] 668.1481481481477
56 13.362962962962962 ['149', '138', '142', '128', '150', '136', '143', '145', '135', '141', '148', '114', '79', '122', '117'] 668.1481481481477
57 13.362962962962962 ['149', '138', '142', '128', '150', '136', '143', '145', '135', '141', '148', '114', '79', '122', '117'] 668.1481481481477
58 13.362962962962962 ['149', '138', '142', '128', '150', '136', '143', '145', '135', '141', '148', '114', '79', '122', '117'] 668.1481481481477
59 13.362962962962962 ['149', '138', '142', '128', '150', '136', '143', '145', '135', '141', '148', '114', '79', '122', '117'] 668.1481481481477
60 13.362962962962962 ['149', '138', '142', '128', '150', '136', '143', '145', '135', '141', '148', '114', '79', '122', '117'] 668.1481481481477
61 13.362962962962962 ['149', '138', '142', '128', '150', '136', '143', '145', '135', '141', '148', '114', '79', '122', '117'] 668.1481481481477
62 13.362962962962962 ['149', '138', '142', '128', '150', '136', '143', '145', '135', '141', '148', '114', '79', '122', '117'] 668.1481481481477
63 13.362962962962962 ['149', '138', '142', '128', '150', '136', '143', '145', '135', '141', '148', '114', '79', '122', '117'] 668.1481481481477
64 13.362962962962962 ['149', '138', '142', '128', '150', '136', '143', '145', '135', '141', '148', '114', '79', '122', '117'] 668.1481481481477
65 13.362962962962962 ['149', '138', '142', '128', '150', '136', '143', '145', '135', '141', '148', '114', '79', '122', '117'] 668.1481481481477
66 13.362962962962962 ['149', '138', '142', '128', '150', '136', '143', '145', '135', '141', '148', '114', '79', '122', '117'] 668.1481481481477
67 13.362962962962962 ['149', '138', '142', '128', '150', '136', '143', '145', '135', '141', '148', '114', '79', '122', '117'] 668.1481481481477
68 13.362962962962962 ['149', '138', '142', '128', '150', '136', '143', '145', '135', '141', '148', '114', '79', '122', '117'] 668.1481481481477
69 13.362962962962962 ['149', '138', '142', '128', '150', '136', '143', '145', '135', '141', '148', '114', '79', '122', '117'] 668.1481481481477
70 13.362962962962962 ['149', '138', '142', '128', '150', '136', '143', '145', '135', '141', '148', '114', '79', '122', '117'] 668.1481481481477
71 13.362962962962962 ['149', '138', '142', '128', '150', '136', '143', '145', '135', '141', '148', '114', '79', '122', '117'] 668.1481481481477
72 13.362962962962962 ['149', '138', '142', '128', '150', '136', '143', '145', '135', '141', '148', '114', '79', '122', '117'] 668.1481481481477
73 13.362962962962962 ['149', '138', '142', '128', '150', '136', '143', '145', '135', '141', '148', '114', '79', '122', '117'] 668.1481481481477
74 13.362962962962962 ['149', '138', '142', '128', '150', '136', '143', '145', '135', '141', '148', '114', '79', '122', '117'] 668.1481481481477
75 13.362962962962962 ['149', '138', '142', '128', '150', '136', '143', '145', '135', '141', '148', '114', '79', '122', '117'] 668.1481481481477
76 13.362962962962962 ['149', '138', '142', '128', '150', '136', '143', '145', '135', '141', '148', '114', '79', '122', '117'] 668.1481481481477
77 13.362962962962962 ['149', '138', '142', '128', '150', '136', '143', '145', '135', '141', '148', '114', '79', '122', '117'] 668.1481481481477
78 13.362962962962962 ['149', '138', '142', '128', '150', '136', '143', '145', '135', '141', '148', '114', '79', '122', '117'] 668.1481481481477
79 13.362962962962962 ['149', '138', '142', '128', '150', '136', '143', '145', '135', '141', '148', '114', '79', '122', '117'] 668.1481481481477
80 13.362962962962962 ['149', '138', '142', '128', '150', '136', '143', '145', '135', '141', '148', '114', '79', '122', '117'] 668.1481481481477
81 13.362962962962962 ['149', '138', '142', '128', '150', '136', '143', '145', '135', '141', '148', '114', '79', '122', '117'] 668.1481481481477
82 13.362962962962962 ['149', '138', '142', '128', '150', '136', '143', '145', '135', '141', '148', '114', '79', '122', '117'] 668.1481481481477
83 13.362962962962962 ['149', '138', '142', '128', '150', '136', '143', '145', '135', '141', '148', '114', '79', '122', '117'] 668.1481481481477
84 13.362962962962962 ['149', '138', '142', '128', '150', '136', '143', '145', '135', '141', '148', '114', '79', '122', '117'] 668.1481481481477
85 13.362962962962962 ['149', '138', '142', '128', '150', '136', '143', '145', '135', '141', '148', '114', '79', '122', '117'] 668.1481481481477
86 13.362962962962962 ['149', '138', '142', '128', '150', '136', '143', '145', '135', '141', '148', '114', '79', '122', '117'] 668.1481481481477
87 13.362962962962962 ['149', '138', '142', '128', '150', '136', '143', '145', '135', '141', '148', '114', '79', '122', '117'] 668.1481481481477
88 13.362962962962962 ['149', '138', '142', '128', '150', '136', '143', '145', '135', '141', '148', '114', '79', '122', '117'] 668.1481481481477
89 13.362962962962962 ['149', '138', '142', '128', '150', '136', '143', '145', '135', '141', '148', '114', '79', '122', '117'] 668.1481481481477
90 13.362962962962962 ['149', '138', '142', '128', '150', '136', '143', '145', '135', '141', '148', '114', '79', '122', '117'] 668.1481481481477
91 13.362962962962962 ['149', '138', '142', '128', '150', '136', '143', '145', '135', '141', '148', '114', '79', '122', '117'] 668.1481481481477
92 13.362962962962962 ['149', '138', '142', '128', '150', '136', '143', '145', '135', '141', '148', '114', '79', '122', '117'] 668.1481481481477
93 13.362962962962962 ['149', '138', '142', '128', '150', '136', '143', '145', '135', '141', '148', '114', '79', '122', '117'] 668.1481481481477
94 13.362962962962962 ['149', '138', '142', '128', '150', '136', '143', '145', '135', '141', '148', '114', '79', '122', '117'] 668.1481481481477
95 13.362962962962962 ['149', '138', '142', '128', '150', '136', '143', '145', '135', '141', '148', '114', '79', '122', '117'] 668.1481481481477
96 13.362962962962962 ['149', '138', '142', '128', '150', '136', '143', '145', '135', '141', '148', '114', '79', '122', '117'] 668.1481481481477
97 13.362962962962962 ['149', '138', '142', '128', '150', '136', '143', '145', '135', '141', '148', '114', '79', '122', '117'] 668.1481481481477
98 13.362962962962962 ['149', '138', '142', '128', '150', '136', '143', '145', '135', '141', '148', '114', '79', '122', '117'] 668.1481481481477
99 13.362962962962962 ['149', '138', '142', '128', '150', '136', '143', '145', '135', '141', '148', '114', '79', '122', '117'] 668.1481481481477
100 13.362962962962962 ['149', '138', '142', '128', '150', '136', '143', '145', '135', '141', '148', '114', '79', '122', '117'] 668.1481481481477
101 13.362962962962962 ['149', '138', '142', '128', '150', '136', '143', '145', '135', '141', '148', '114', '79', '122', '117'] 668.1481481481477
102 13.362962962962962 ['149', '138', '142', '128', '150', '136', '143', '145', '135', '141', '148', '114', '79', '122', '117'] 668.1481481481477
103 13.362962962962962 ['149', '138', '142', '128', '150', '136', '143', '145', '135', '141', '148', '114', '79', '122', '117'] 668.1481481481477
104 13.362962962962962 ['149', '138', '142', '128', '150', '136', '143', '145', '135', '141', '148', '114', '79', '122', '117'] 668.1481481481477
105 13.362962962962962 ['149', '138', '142', '128', '150', '136', '143', '145', '135', '141', '148', '114', '79', '122', '117'] 668.1481481481477
106 13.362962962962962 ['149', '138', '142', '128', '150', '136', '143', '145', '135', '141', '148', '114', '79', '122', '117'] 668.1481481481477
107 13.362962962962962 ['149', '138', '142', '128', '150', '136', '143', '145', '135', '141', '148', '114', '79', '122', '117'] 668.1481481481477
108 13.362962962962962 ['149', '138', '142', '128', '150', '136', '143', '145', '135', '141', '148', '114', '79', '122', '117'] 668.1481481481477
109 13.362962962962962 ['149', '138', '142', '128', '150', '136', '143', '145', '135', '141', '148', '114', '79', '122', '117'] 668.1481481481477
110 13.362962962962962 ['149', '138', '142', '128', '150', '136', '143', '145', '135', '141', '148', '114', '79', '122', '117'] 668.1481481481477
111 13.362962962962962 ['149', '138', '142', '128', '150', '136', '143', '145', '135', '141', '148', '114', '79', '122', '117'] 668.1481481481477
112 13.362962962962962 ['149', '138', '142', '128', '150', '136', '143', '145', '135', '141', '148', '114', '79', '122', '117'] 668.1481481481477
113 13.362962962962962 ['149', '138', '142', '128', '150', '136', '143', '145', '135', '141', '148', '114', '79', '122', '117'] 668.1481481481477
114 13.362962962962962 ['149', '138', '142', '128', '150', '136', '143', '145', '135', '141', '148', '114', '79', '122', '117'] 668.1481481481477
115 13.362962962962962 ['149', '138', '142', '128', '150', '136', '143', '145', '135', '141', '148', '114', '79', '122', '117'] 668.1481481481477
116 13.362962962962962 ['149', '138', '142', '128', '150', '136', '143', '145', '135', '141', '148', '114', '79', '122', '117'] 668.1481481481477
117 13.362962962962962 ['149', '138', '142', '128', '150', '136', '143', '145', '135', '141', '148', '114', '79', '122', '117'] 668.1481481481477
118 13.362962962962962 ['149', '138', '142', '128', '150', '136', '143', '145', '135', '141', '148', '114', '79', '122', '117'] 668.1481481481477
119 13.362962962962962 ['149', '138', '142', '128', '150', '136', '143', '145', '135', '141', '148', '114', '79', '122', '117'] 668.1481481481477
120 13.362962962962962 ['149', '138', '142', '128', '150', '136', '143', '145', '135', '141', '148', '114', '79', '122', '117'] 668.1481481481477
121 13.362962962962962 ['149', '138', '142', '128', '150', '136', '143', '145', '135', '141', '148', '114', '79', '122', '117'] 668.1481481481477
122 13.362962962962962 ['149', '138', '142', '128', '150', '136', '143', '145', '135', '141', '148', '114', '79', '122', '117'] 668.1481481481477
123 13.362962962962962 ['149', '138', '142', '128', '150', '136', '143', '145', '135', '141', '148', '114', '79', '122', '117'] 668.1481481481477
124 13.362962962962962 ['149', '138', '142', '128', '150', '136', '143', '145', '135', '141', '148', '114', '79', '122', '117'] 668.1481481481477
125 13.362962962962962 ['149', '138', '142', '128', '150', '136', '143', '145', '135', '141', '148', '114', '79', '122', '117'] 668.1481481481477
126 13.362962962962962 ['149', '138', '142', '128', '150', '136', '143', '145', '135', '141', '148', '114', '79', '122', '117'] 668.1481481481477
127 13.362962962962962 ['149', '138', '142', '128', '150', '136', '143', '145', '135', '141', '148', '114', '79', '122', '117'] 668.1481481481477
128 13.362962962962962 ['149', '138', '142', '128', '150', '136', '143', '145', '135', '141', '148', '114', '79', '122', '117'] 668.1481481481477
129 13.362962962962962 ['149', '138', '142', '128', '150', '136', '143', '145', '135', '141', '148', '114', '79', '122', '117'] 668.1481481481477
130 13.362962962962962 ['149', '138', '142', '128', '150', '136', '143', '145', '135', '141', '148', '114', '79', '122', '117'] 668.1481481481477
131 13.362962962962962 ['149', '138', '142', '128', '150', '136', '143', '145', '135', '141', '148', '114', '79', '122', '117'] 668.1481481481477
132 13.362962962962962 ['149', '138', '142', '128', '150', '136', '143', '145', '135', '141', '148', '114', '79', '122', '117'] 668.1481481481477
133 13.362962962962962 ['149', '138', '142', '128', '150', '136', '143', '145', '135', '141', '148', '114', '79', '122', '117'] 668.1481481481477
134 13.362962962962962 ['149', '138', '142', '128', '150', '136', '143', '145', '135', '141', '148', '114', '79', '122', '117'] 668.1481481481477
135 13.362962962962962 ['149', '138', '142', '128', '150', '136', '143', '145', '135', '141', '148', '114', '79', '122', '117'] 668.1481481481477
136 13.362962962962962 ['149', '138', '142', '128', '150', '136', '143', '145', '135', '141', '148', '114', '79', '122', '117'] 668.1481481481477
137 13.362962962962962 ['149', '138', '142', '128', '150', '136', '143', '145', '135', '141', '148', '114', '79', '122', '117'] 668.1481481481477
138 13.362962962962962 ['149', '138', '142', '128', '150', '136', '143', '145', '135', '141', '148', '114', '79', '122', '117'] 668.1481481481477
139 13.362962962962962 ['149', '138', '142', '128', '150', '136', '143', '145', '135', '141', '148', '114', '79', '122', '117'] 668.1481481481477
140 13.362962962962962 ['149', '138', '142', '128', '150', '136', '143', '145', '135', '141', '148', '114', '79', '122', '117'] 668.1481481481477
141 13.362962962962962 ['149', '138', '142', '128', '150', '136', '143', '145', '135', '141', '148', '114', '79', '122', '117'] 668.1481481481477
142 13.362962962962962 ['149', '138', '142', '128', '150', '136', '143', '145', '135', '141', '148', '114', '79', '122', '117'] 668.1481481481477
143 13.362962962962962 ['149', '138', '142', '128', '150', '136', '143', '145', '135', '141', '148', '114', '79', '122', '117'] 668.1481481481477
144 13.362962962962962 ['149', '138', '142', '128', '150', '136', '143', '145', '135', '141', '148', '114', '79', '122', '117'] 668.1481481481477
145 13.362962962962962 ['149', '138', '142', '128', '150', '136', '143', '145', '135', '141', '148', '114', '79', '122', '117'] 668.1481481481477
146 13.362962962962962 ['149', '138', '142', '128', '150', '136', '143', '145', '135', '141', '148', '114', '79', '122', '117'] 668.1481481481477
147 13.362962962962962 ['149', '138', '142', '128', '150', '136', '143', '145', '135', '141', '148', '114', '79', '122', '117'] 668.1481481481477
148 13.362962962962962 ['149', '138', '142', '128', '150', '136', '143', '145', '135', '141', '148', '114', '79', '122', '117'] 668.1481481481477
149 13.362962962962962 ['149', '138', '142', '128', '150', '136', '143', '145', '135', '141', '148', '114', '79', '122', '117'] 668.1481481481477
150 13.362962962962962 ['149', '138', '142', '128', '150', '136', '143', '145', '135', '141', '148', '114', '79', '122', '117'] 668.1481481481477
151 13.362962962962962 ['149', '138', '142', '128', '150', '136', '143', '145', '135', '141', '148', '114', '79', '122', '117'] 668.1481481481477
152 13.362962962962962 ['149', '138', '142', '128', '150', '136', '143', '145', '135', '141', '148', '114', '79', '122', '117'] 668.1481481481477
153 13.362962962962962 ['149', '138', '142', '128', '150', '136', '143', '145', '135', '141', '148', '114', '79', '122', '117'] 668.1481481481477
154 13.362962962962962 ['149', '138', '142', '128', '150', '136', '143', '145', '135', '141', '148', '114', '79', '122', '117'] 668.1481481481477
155 13.362962962962962 ['149', '138', '142', '128', '150', '136', '143', '145', '135', '141', '148', '114', '79', '122', '117'] 668.1481481481477
156 13.362962962962962 ['149', '138', '142', '128', '150', '136', '143', '145', '135', '141', '148', '114', '79', '122', '117'] 668.1481481481477
157 13.362962962962962 ['149', '138', '142', '128', '150', '136', '143', '145', '135', '141', '148', '114', '79', '122', '117'] 668.1481481481477
158 13.362962962962962 ['149', '138', '142', '128', '150', '136', '143', '145', '135', '141', '148', '114', '79', '122', '117'] 668.1481481481477
159 13.362962962962962 ['149', '138', '142', '128', '150', '136', '143', '145', '135', '141', '148', '114', '79', '122', '117'] 668.1481481481477
160 13.362962962962962 ['149', '138', '142', '128', '150', '136', '143', '145', '135', '141', '148', '114', '79', '122', '117'] 668.1481481481477
161 13.362962962962962 ['149', '138', '142', '128', '150', '136', '143', '145', '135', '141', '148', '114', '79', '122', '117'] 668.1481481481477
162 13.362962962962962 ['149', '138', '142', '128', '150', '136', '143', '145', '135', '141', '148', '114', '79', '122', '117'] 668.1481481481477
163 13.362962962962962 ['149', '138', '142', '128', '150', '136', '143', '145', '135', '141', '148', '114', '79', '122', '117'] 668.1481481481477
164 13.362962962962962 ['149', '138', '142', '128', '150', '136', '143', '145', '135', '141', '148', '114', '79', '122', '117'] 668.1481481481477
165 13.362962962962962 ['149', '138', '142', '128', '150', '136', '143', '145', '135', '141', '148', '114', '79', '122', '117'] 668.1481481481477
166 13.362962962962962 ['149', '138', '142', '128', '150', '136', '143', '145', '135', '141', '148', '114', '79', '122', '117'] 668.1481481481477
167 13.362962962962962 ['149', '138', '142', '128', '150', '136', '143', '145', '135', '141', '148', '114', '79', '122', '117'] 668.1481481481477
168 13.362962962962962 ['149', '138', '142', '128', '150', '136', '143', '145', '135', '141', '148', '114', '79', '122', '117'] 668.1481481481477
169 13.362962962962962 ['149', '138', '142', '128', '150', '136', '143', '145', '135', '141', '148', '114', '79', '122', '117'] 668.1481481481477
170 13.362962962962962 ['149', '138', '142', '128', '150', '136', '143', '145', '135', '141', '148', '114', '79', '122', '117'] 668.1481481481477
171 13.362962962962962 ['149', '138', '142', '128', '150', '136', '143', '145', '135', '141', '148', '114', '79', '122', '117'] 668.1481481481477
172 13.362962962962962 ['149', '138', '142', '128', '150', '136', '143', '145', '135', '141', '148', '114', '79', '122', '117'] 668.1481481481477
173 13.362962962962962 ['149', '138', '142', '128', '150', '136', '143', '145', '135', '141', '148', '114', '79', '122', '117'] 668.1481481481477
174 13.362962962962962 ['149', '138', '142', '128', '150', '136', '143', '145', '135', '141', '148', '114', '79', '122', '117'] 668.1481481481477
175 13.362962962962962 ['149', '138', '142', '128', '150', '136', '143', '145', '135', '141', '148', '114', '79', '122', '117'] 668.1481481481477
176 13.362962962962962 ['149', '138', '142', '128', '150', '136', '143', '145', '135', '141', '148', '114', '79', '122', '117'] 668.1481481481477
177 13.362962962962962 ['149', '138', '142', '128', '150', '136', '143', '145', '135', '141', '148', '114', '79', '122', '117'] 668.1481481481477
178 13.362962962962962 ['149', '138', '142', '128', '150', '136', '143', '145', '135', '141', '148', '114', '79', '122', '117'] 668.1481481481477
179 13.362962962962962 ['149', '138', '142', '128', '150', '136', '143', '145', '135', '141', '148', '114', '79', '122', '117'] 668.1481481481477
180 13.362962962962962 ['149', '138', '142', '128', '150', '136', '143', '145', '135', '141', '148', '114', '79', '122', '117'] 668.1481481481477
181 13.362962962962962 ['149', '138', '142', '128', '150', '136', '143', '145', '135', '141', '148', '114', '79', '122', '117'] 668.1481481481477
182 13.362962962962962 ['149', '138', '142', '128', '150', '136', '143', '145', '135', '141', '148', '114', '79', '122', '117'] 668.1481481481477
183 13.362962962962962 ['149', '138', '142', '128', '150', '136', '143', '145', '135', '141', '148', '114', '79', '122', '117'] 668.1481481481477
184 13.362962962962962 ['149', '138', '142', '128', '150', '136', '143', '145', '135', '141', '148', '114', '79', '122', '117'] 668.1481481481477
185 13.362962962962962 ['149', '138', '142', '128', '150', '136', '143', '145', '135', '141', '148', '114', '79', '122', '117'] 668.1481481481477
186 13.362962962962962 ['149', '138', '142', '128', '150', '136', '143', '145', '135', '141', '148', '114', '79', '122', '117'] 668.1481481481477
187 13.362962962962962 ['149', '138', '142', '128', '150', '136', '143', '145', '135', '141', '148', '114', '79', '122', '117'] 668.1481481481477
188 13.362962962962962 ['149', '138', '142', '128', '150', '136', '143', '145', '135', '141', '148', '114', '79', '122', '117'] 668.1481481481477
189 13.362962962962962 ['149', '138', '142', '128', '150', '136', '143', '145', '135', '141', '148', '114', '79', '122', '117'] 668.1481481481477
190 13.362962962962962 ['149', '138', '142', '128', '150', '136', '143', '145', '135', '141', '148', '114', '79', '122', '117'] 668.1481481481477
191 13.362962962962962 ['149', '138', '142', '128', '150', '136', '143', '145', '135', '141', '148', '114', '79', '122', '117'] 668.1481481481477
192 13.362962962962962 ['149', '138', '142', '128', '150', '136', '143', '145', '135', '141', '148', '114', '79', '122', '117'] 668.1481481481477
193 13.362962962962962 ['149', '138', '142', '128', '150', '136', '143', '145', '135', '141', '148', '114', '79', '122', '117'] 668.1481481481477
194 13.362962962962962 ['149', '138', '142', '128', '150', '136', '143', '145', '135', '141', '148', '114', '79', '122', '117'] 668.1481481481477
195 13.362962962962962 ['149', '138', '142', '128', '150', '136', '143', '145', '135', '141', '148', '114', '79', '122', '117'] 668.1481481481477
196 13.362962962962962 ['149', '138', '142', '128', '150', '136', '143', '145', '135', '141', '148', '114', '79', '122', '117'] 668.1481481481477
197 13.362962962962962 ['149', '138', '142', '128', '150', '136', '143', '145', '135', '141', '148', '114', '79', '122', '117'] 668.1481481481477
198 13.362962962962962 ['149', '138', '142', '128', '150', '136', '143', '145', '135', '141', '148', '114', '79', '122', '117'] 668.1481481481477
199 13.362962962962962 ['149', '138', '142', '128', '150', '136', '143', '145', '135', '141', '148', '114', '79', '122', '117'] 668.1481481481477
