0 13.518518518518519 ['24', '1', '52', '137', '122', '111', '136', '108', '140', '46', '49', '90', '131', '79', '144'] 694.3185185185188
1 13.466666666666667 ['46', '122', '145', '103', '49', '137', '24', '7', '129', '131', '144', '1', '88', '112', '136'] 688.0074074074076
2 13.377777777777778 ['137', '7', '49', '145', '112', '107', '103', '129', '143', '105', '144', '19', '128', '136', '131'] 682.0000000000002
3 13.044444444444444 ['129', '144', '99', '122', '137', '124', '136', '30', '149', '91', '145', '28', '112', '1', '133'] 675.8444444444447
4 13.044444444444444 ['129', '144', '99', '122', '137', '124', '136', '30', '149', '91', '145', '28', '112', '1', '133'] 670.5185185185182
5 12.985185185185186 ['139', '145', '121', '130', '38', '109', '103', '124', '123', '7', '136', '137', '131', '18', '133'] 665.7333333333333
6 12.955555555555556 ['129', '122', '96', '131', '7', '109', '144', '133', '149', '28', '142', '128', '138', '140', '139'] 660.3333333333336
7 12.77037037037037 ['123', '131', '139', '145', '129', '142', '148', '122', '119', '133', '124', '137', '103', '1', '109'] 654.6222222222227
8 12.696296296296296 ['129', '137', '139', '131', '122', '138', '123', '16', '124', '24', '119', '142', '103', '140', '136'] 649.1703703703699
9 12.57037037037037 ['139', '124', '129', '145', '144', '136', '137', '122', '133', '128', '130', '91', '142', '140', '131'] 643.8222222222221
10 12.57037037037037 ['139', '124', '129', '145', '144', '136', '137', '122', '133', '128', '130', '91', '142', '140', '131'] 639.4222222222226
11 12.533333333333333 ['137', '133', '130', '131', '128', '145', '129', '136', '103', '139', '124', '140', '148', '122', '119'] 635.6444444444443
12 12.533333333333333 ['137', '133', '130', '131', '128', '145', '129', '136', '103', '139', '124', '140', '148', '122', '119'] 632.5185185185186
13 12.42962962962963 ['140', '131', '122', '138', '129', '137', '139', '136', '144', '107', '148', '119', '145', '124', '130'] 629.5333333333327
14 12.377777777777778 ['139', '133', '145', '142', '131', '138', '122', '136', '137', '129', '140', '148', '119', '121', '123'] 626.8148148148149
15 12.37037037037037 ['129', '136', '119', '142', '122', '139', '145', '140', '138', '133', '137', '131', '121', '144', '148'] 624.6148148148147
16 12.355555555555556 ['140', '139', '131', '129', '145', '136', '133', '122', '137', '142', '144', '138', '123', '148', '124'] 622.585185185185
17 12.355555555555556 ['140', '139', '131', '129', '145', '136', '133', '122', '137', '142', '144', '138', '123', '148', '124'] 620.4814814814815
18 12.34074074074074 ['122', '139', '136', '140', '137', '131', '145', '133', '129', '144', '142', '149', '124', '148', '123'] 618.9407407407406
19 12.333333333333334 ['139', '144', '124', '136', '131', '138', '129', '122', '145', '148', '137', '142', '140', '149', '119'] 618.2814814814814
20 12.333333333333334 ['139', '144', '124', '136', '131', '138', '129', '122', '145', '148', '137', '142', '140', '149', '119'] 617.8444444444441
21 12.333333333333334 ['139', '144', '124', '136', '131', '138', '129', '122', '145', '148', '137', '142', '140', '149', '119'] 617.5777777777782
22 12.333333333333334 ['139', '144', '124', '136', '131', '138', '129', '122', '145', '148', '137', '142', '140', '149', '119'] 617.3629629629633
23 12.333333333333334 ['139', '144', '124', '136', '131', '138', '129', '122', '145', '148', '137', '142', '140', '149', '119'] 616.9555555555556
24 12.333333333333334 ['139', '144', '124', '136', '131', '138', '129', '122', '145', '148', '137', '142', '140', '149', '119'] 616.8000000000001
25 12.333333333333334 ['139', '144', '124', '136', '131', '138', '129', '122', '145', '148', '137', '142', '140', '149', '119'] 616.6666666666666
26 12.333333333333334 ['139', '144', '124', '136', '131', '138', '129', '122', '145', '148', '137', '142', '140', '149', '119'] 616.6666666666666
27 12.333333333333334 ['139', '144', '124', '136', '131', '138', '129', '122', '145', '148', '137', '142', '140', '149', '119'] 616.6666666666666
28 12.333333333333334 ['139', '144', '124', '136', '131', '138', '129', '122', '145', '148', '137', '142', '140', '149', '119'] 616.6666666666666
29 12.333333333333334 ['139', '144', '124', '136', '131', '138', '129', '122', '145', '148', '137', '142', '140', '149', '119'] 616.6666666666666
30 12.333333333333334 ['139', '144', '124', '136', '131', '138', '129', '122', '145', '148', '137', '142', '140', '149', '119'] 616.6666666666666
31 12.333333333333334 ['139', '144', '124', '136', '131', '138', '129', '122', '145', '148', '137', '142', '140', '149', '119'] 616.6666666666666
32 12.333333333333334 ['139', '144', '124', '136', '131', '138', '129', '122', '145', '148', '137', '142', '140', '149', '119'] 616.6666666666666
33 12.333333333333334 ['139', '144', '124', '136', '131', '138', '129', '122', '145', '148', '137', '142', '140', '149', '119'] 616.6666666666666
34 12.333333333333334 ['139', '144', '124', '136', '131', '138', '129', '122', '145', '148', '137', '142', '140', '149', '119'] 616.6666666666666
35 12.333333333333334 ['139', '144', '124', '136', '131', '138', '129', '122', '145', '148', '137', '142', '140', '149', '119'] 616.6666666666666
36 12.333333333333334 ['139', '144', '124', '136', '131', '138', '129', '122', '145', '148', '137', '142', '140', '149', '119'] 616.6666666666666
37 12.333333333333334 ['139', '144', '124', '136', '131', '138', '129', '122', '145', '148', '137', '142', '140', '149', '119'] 616.6666666666666
38 12.333333333333334 ['139', '144', '124', '136', '131', '138', '129', '122', '145', '148', '137', '142', '140', '149', '119'] 616.6666666666666
39 12.333333333333334 ['139', '144', '124', '136', '131', '138', '129', '122', '145', '148', '137', '142', '140', '149', '119'] 616.6666666666666
40 12.333333333333334 ['139', '144', '124', '136', '131', '138', '129', '122', '145', '148', '137', '142', '140', '149', '119'] 616.6666666666666
41 12.333333333333334 ['139', '144', '124', '136', '131', '138', '129', '122', '145', '148', '137', '142', '140', '149', '119'] 616.6666666666666
42 12.333333333333334 ['139', '144', '124', '136', '131', '138', '129', '122', '145', '148', '137', '142', '140', '149', '119'] 616.6666666666666
43 12.333333333333334 ['139', '144', '124', '136', '131', '138', '129', '122', '145', '148', '137', '142', '140', '149', '119'] 616.6666666666666
44 12.333333333333334 ['139', '144', '124', '136', '131', '138', '129', '122', '145', '148', '137', '142', '140', '149', '119'] 616.6666666666666
45 12.333333333333334 ['139', '144', '124', '136', '131', '138', '129', '122', '145', '148', '137', '142', '140', '149', '119'] 616.6666666666666
46 12.333333333333334 ['139', '144', '124', '136', '131', '138', '129', '122', '145', '148', '137', '142', '140', '149', '119'] 616.6666666666666
47 12.333333333333334 ['139', '144', '124', '136', '131', '138', '129', '122', '145', '148', '137', '142', '140', '149', '119'] 616.6666666666666
48 12.333333333333334 ['139', '144', '124', '136', '131', '138', '129', '122', '145', '148', '137', '142', '140', '149', '119'] 616.6666666666666
49 12.333333333333334 ['139', '144', '124', '136', '131', '138', '129', '122', '145', '148', '137', '142', '140', '149', '119'] 616.6666666666666
50 12.333333333333334 ['139', '144', '124', '136', '131', '138', '129', '122', '145', '148', '137', '142', '140', '149', '119'] 616.6666666666666
51 12.333333333333334 ['139', '144', '124', '136', '131', '138', '129', '122', '145', '148', '137', '142', '140', '149', '119'] 616.6666666666666
52 12.333333333333334 ['139', '144', '124', '136', '131', '138', '129', '122', '145', '148', '137', '142', '140', '149', '119'] 616.6666666666666
53 12.333333333333334 ['139', '144', '124', '136', '131', '138', '129', '122', '145', '148', '137', '142', '140', '149', '119'] 616.6666666666666
54 12.333333333333334 ['139', '144', '124', '136', '131', '138', '129', '122', '145', '148', '137', '142', '140', '149', '119'] 616.6666666666666
55 12.333333333333334 ['139', '144', '124', '136', '131', '138', '129', '122', '145', '148', '137', '142', '140', '149', '119'] 616.6666666666666
56 12.333333333333334 ['139', '144', '124', '136', '131', '138', '129', '122', '145', '148', '137', '142', '140', '149', '119'] 616.6666666666666
57 12.333333333333334 ['139', '144', '124', '136', '131', '138', '129', '122', '145', '148', '137', '142', '140', '149', '119'] 616.6666666666666
58 12.333333333333334 ['139', '144', '124', '136', '131', '138', '129', '122', '145', '148', '137', '142', '140', '149', '119'] 616.6666666666666
59 12.333333333333334 ['139', '144', '124', '136', '131', '138', '129', '122', '145', '148', '137', '142', '140', '149', '119'] 616.6666666666666
60 12.333333333333334 ['139', '144', '124', '136', '131', '138', '129', '122', '145', '148', '137', '142', '140', '149', '119'] 616.6666666666666
61 12.333333333333334 ['139', '144', '124', '136', '131', '138', '129', '122', '145', '148', '137', '142', '140', '149', '119'] 616.6666666666666
62 12.333333333333334 ['139', '144', '124', '136', '131', '138', '129', '122', '145', '148', '137', '142', '140', '149', '119'] 616.6666666666666
63 12.333333333333334 ['139', '144', '124', '136', '131', '138', '129', '122', '145', '148', '137', '142', '140', '149', '119'] 616.6666666666666
64 12.333333333333334 ['139', '144', '124', '136', '131', '138', '129', '122', '145', '148', '137', '142', '140', '149', '119'] 616.6666666666666
65 12.333333333333334 ['139', '144', '124', '136', '131', '138', '129', '122', '145', '148', '137', '142', '140', '149', '119'] 616.6666666666666
66 12.333333333333334 ['139', '144', '124', '136', '131', '138', '129', '122', '145', '148', '137', '142', '140', '149', '119'] 616.6666666666666
67 12.333333333333334 ['139', '144', '124', '136', '131', '138', '129', '122', '145', '148', '137', '142', '140', '149', '119'] 616.6666666666666
68 12.333333333333334 ['139', '144', '124', '136', '131', '138', '129', '122', '145', '148', '137', '142', '140', '149', '119'] 616.6666666666666
69 12.333333333333334 ['139', '144', '124', '136', '131', '138', '129', '122', '145', '148', '137', '142', '140', '149', '119'] 616.6666666666666
70 12.333333333333334 ['139', '144', '124', '136', '131', '138', '129', '122', '145', '148', '137', '142', '140', '149', '119'] 616.6666666666666
71 12.333333333333334 ['139', '144', '124', '136', '131', '138', '129', '122', '145', '148', '137', '142', '140', '149', '119'] 616.6666666666666
72 12.333333333333334 ['139', '144', '124', '136', '131', '138', '129', '122', '145', '148', '137', '142', '140', '149', '119'] 616.6666666666666
73 12.333333333333334 ['139', '144', '124', '136', '131', '138', '129', '122', '145', '148', '137', '142', '140', '149', '119'] 616.6666666666666
74 12.333333333333334 ['139', '144', '124', '136', '131', '138', '129', '122', '145', '148', '137', '142', '140', '149', '119'] 616.6666666666666
75 12.333333333333334 ['139', '144', '124', '136', '131', '138', '129', '122', '145', '148', '137', '142', '140', '149', '119'] 616.6666666666666
76 12.333333333333334 ['139', '144', '124', '136', '131', '138', '129', '122', '145', '148', '137', '142', '140', '149', '119'] 616.6666666666666
77 12.333333333333334 ['139', '144', '124', '136', '131', '138', '129', '122', '145', '148', '137', '142', '140', '149', '119'] 616.6666666666666
78 12.333333333333334 ['139', '144', '124', '136', '131', '138', '129', '122', '145', '148', '137', '142', '140', '149', '119'] 616.6666666666666
79 12.333333333333334 ['139', '144', '124', '136', '131', '138', '129', '122', '145', '148', '137', '142', '140', '149', '119'] 616.6666666666666
80 12.333333333333334 ['139', '144', '124', '136', '131', '138', '129', '122', '145', '148', '137', '142', '140', '149', '119'] 616.6666666666666
81 12.333333333333334 ['139', '144', '124', '136', '131', '138', '129', '122', '145', '148', '137', '142', '140', '149', '119'] 616.6666666666666
82 12.333333333333334 ['139', '144', '124', '136', '131', '138', '129', '122', '145', '148', '137', '142', '140', '149', '119'] 616.6666666666666
83 12.333333333333334 ['139', '144', '124', '136', '131', '138', '129', '122', '145', '148', '137', '142', '140', '149', '119'] 616.6666666666666
84 12.333333333333334 ['139', '144', '124', '136', '131', '138', '129', '122', '145', '148', '137', '142', '140', '149', '119'] 616.6666666666666
85 12.333333333333334 ['139', '144', '124', '136', '131', '138', '129', '122', '145', '148', '137', '142', '140', '149', '119'] 616.6666666666666
86 12.333333333333334 ['139', '144', '124', '136', '131', '138', '129', '122', '145', '148', '137', '142', '140', '149', '119'] 616.6666666666666
87 12.333333333333334 ['139', '144', '124', '136', '131', '138', '129', '122', '145', '148', '137', '142', '140', '149', '119'] 616.6666666666666
88 12.333333333333334 ['139', '144', '124', '136', '131', '138', '129', '122', '145', '148', '137', '142', '140', '149', '119'] 616.6666666666666
89 12.333333333333334 ['139', '144', '124', '136', '131', '138', '129', '122', '145', '148', '137', '142', '140', '149', '119'] 616.6666666666666
90 12.333333333333334 ['139', '144', '124', '136', '131', '138', '129', '122', '145', '148', '137', '142', '140', '149', '119'] 616.6666666666666
91 12.333333333333334 ['139', '144', '124', '136', '131', '138', '129', '122', '145', '148', '137', '142', '140', '149', '119'] 616.6666666666666
92 12.333333333333334 ['139', '144', '124', '136', '131', '138', '129', '122', '145', '148', '137', '142', '140', '149', '119'] 616.6666666666666
93 12.333333333333334 ['139', '144', '124', '136', '131', '138', '129', '122', '145', '148', '137', '142', '140', '149', '119'] 616.6666666666666
94 12.333333333333334 ['139', '144', '124', '136', '131', '138', '129', '122', '145', '148', '137', '142', '140', '149', '119'] 616.6666666666666
95 12.333333333333334 ['139', '144', '124', '136', '131', '138', '129', '122', '145', '148', '137', '142', '140', '149', '119'] 616.6666666666666
96 12.333333333333334 ['139', '144', '124', '136', '131', '138', '129', '122', '145', '148', '137', '142', '140', '149', '119'] 616.6666666666666
97 12.333333333333334 ['139', '144', '124', '136', '131', '138', '129', '122', '145', '148', '137', '142', '140', '149', '119'] 616.6666666666666
98 12.333333333333334 ['139', '144', '124', '136', '131', '138', '129', '122', '145', '148', '137', '142', '140', '149', '119'] 616.6666666666666
99 12.333333333333334 ['139', '144', '124', '136', '131', '138', '129', '122', '145', '148', '137', '142', '140', '149', '119'] 616.6666666666666
100 12.333333333333334 ['139', '144', '124', '136', '131', '138', '129', '122', '145', '148', '137', '142', '140', '149', '119'] 616.6666666666666
101 12.333333333333334 ['139', '144', '124', '136', '131', '138', '129', '122', '145', '148', '137', '142', '140', '149', '119'] 616.6666666666666
102 12.333333333333334 ['139', '144', '124', '136', '131', '138', '129', '122', '145', '148', '137', '142', '140', '149', '119'] 616.6666666666666
103 12.333333333333334 ['139', '144', '124', '136', '131', '138', '129', '122', '145', '148', '137', '142', '140', '149', '119'] 616.6666666666666
104 12.333333333333334 ['139', '144', '124', '136', '131', '138', '129', '122', '145', '148', '137', '142', '140', '149', '119'] 616.6666666666666
105 12.333333333333334 ['139', '144', '124', '136', '131', '138', '129', '122', '145', '148', '137', '142', '140', '149', '119'] 616.6666666666666
106 12.333333333333334 ['139', '144', '124', '136', '131', '138', '129', '122', '145', '148', '137', '142', '140', '149', '119'] 616.6666666666666
107 12.333333333333334 ['139', '144', '124', '136', '131', '138', '129', '122', '145', '148', '137', '142', '140', '149', '119'] 616.6666666666666
108 12.333333333333334 ['139', '144', '124', '136', '131', '138', '129', '122', '145', '148', '137', '142', '140', '149', '119'] 616.6666666666666
109 12.333333333333334 ['139', '144', '124', '136', '131', '138', '129', '122', '145', '148', '137', '142', '140', '149', '119'] 616.6666666666666
110 12.333333333333334 ['139', '144', '124', '136', '131', '138', '129', '122', '145', '148', '137', '142', '140', '149', '119'] 616.6666666666666
111 12.333333333333334 ['139', '144', '124', '136', '131', '138', '129', '122', '145', '148', '137', '142', '140', '149', '119'] 616.6666666666666
112 12.333333333333334 ['139', '144', '124', '136', '131', '138', '129', '122', '145', '148', '137', '142', '140', '149', '119'] 616.6666666666666
113 12.333333333333334 ['139', '144', '124', '136', '131', '138', '129', '122', '145', '148', '137', '142', '140', '149', '119'] 616.6666666666666
114 12.333333333333334 ['139', '144', '124', '136', '131', '138', '129', '122', '145', '148', '137', '142', '140', '149', '119'] 616.6666666666666
115 12.333333333333334 ['139', '144', '124', '136', '131', '138', '129', '122', '145', '148', '137', '142', '140', '149', '119'] 616.6666666666666
116 12.333333333333334 ['139', '144', '124', '136', '131', '138', '129', '122', '145', '148', '137', '142', '140', '149', '119'] 616.6666666666666
117 12.333333333333334 ['139', '144', '124', '136', '131', '138', '129', '122', '145', '148', '137', '142', '140', '149', '119'] 616.6666666666666
118 12.333333333333334 ['139', '144', '124', '136', '131', '138', '129', '122', '145', '148', '137', '142', '140', '149', '119'] 616.6666666666666
119 12.333333333333334 ['139', '144', '124', '136', '131', '138', '129', '122', '145', '148', '137', '142', '140', '149', '119'] 616.6666666666666
120 12.333333333333334 ['139', '144', '124', '136', '131', '138', '129', '122', '145', '148', '137', '142', '140', '149', '119'] 616.6666666666666
121 12.333333333333334 ['139', '144', '124', '136', '131', '138', '129', '122', '145', '148', '137', '142', '140', '149', '119'] 616.6666666666666
122 12.333333333333334 ['139', '144', '124', '136', '131', '138', '129', '122', '145', '148', '137', '142', '140', '149', '119'] 616.6666666666666
123 12.333333333333334 ['139', '144', '124', '136', '131', '138', '129', '122', '145', '148', '137', '142', '140', '149', '119'] 616.6666666666666
124 12.333333333333334 ['139', '144', '124', '136', '131', '138', '129', '122', '145', '148', '137', '142', '140', '149', '119'] 616.6666666666666
125 12.333333333333334 ['139', '144', '124', '136', '131', '138', '129', '122', '145', '148', '137', '142', '140', '149', '119'] 616.6666666666666
126 12.333333333333334 ['139', '144', '124', '136', '131', '138', '129', '122', '145', '148', '137', '142', '140', '149', '119'] 616.6666666666666
127 12.333333333333334 ['139', '144', '124', '136', '131', '138', '129', '122', '145', '148', '137', '142', '140', '149', '119'] 616.6666666666666
128 12.333333333333334 ['139', '144', '124', '136', '131', '138', '129', '122', '145', '148', '137', '142', '140', '149', '119'] 616.6666666666666
129 12.333333333333334 ['139', '144', '124', '136', '131', '138', '129', '122', '145', '148', '137', '142', '140', '149', '119'] 616.6666666666666
130 12.333333333333334 ['139', '144', '124', '136', '131', '138', '129', '122', '145', '148', '137', '142', '140', '149', '119'] 616.6666666666666
131 12.333333333333334 ['139', '144', '124', '136', '131', '138', '129', '122', '145', '148', '137', '142', '140', '149', '119'] 616.6666666666666
132 12.333333333333334 ['139', '144', '124', '136', '131', '138', '129', '122', '145', '148', '137', '142', '140', '149', '119'] 616.6666666666666
133 12.333333333333334 ['139', '144', '124', '136', '131', '138', '129', '122', '145', '148', '137', '142', '140', '149', '119'] 616.6666666666666
134 12.333333333333334 ['139', '144', '124', '136', '131', '138', '129', '122', '145', '148', '137', '142', '140', '149', '119'] 616.6666666666666
135 12.333333333333334 ['139', '144', '124', '136', '131', '138', '129', '122', '145', '148', '137', '142', '140', '149', '119'] 616.6666666666666
136 12.333333333333334 ['139', '144', '124', '136', '131', '138', '129', '122', '145', '148', '137', '142', '140', '149', '119'] 616.6666666666666
137 12.333333333333334 ['139', '144', '124', '136', '131', '138', '129', '122', '145', '148', '137', '142', '140', '149', '119'] 616.6666666666666
138 12.333333333333334 ['139', '144', '124', '136', '131', '138', '129', '122', '145', '148', '137', '142', '140', '149', '119'] 616.6666666666666
139 12.333333333333334 ['139', '144', '124', '136', '131', '138', '129', '122', '145', '148', '137', '142', '140', '149', '119'] 616.6666666666666
140 12.333333333333334 ['139', '144', '124', '136', '131', '138', '129', '122', '145', '148', '137', '142', '140', '149', '119'] 616.6666666666666
141 12.333333333333334 ['139', '144', '124', '136', '131', '138', '129', '122', '145', '148', '137', '142', '140', '149', '119'] 616.6666666666666
142 12.333333333333334 ['139', '144', '124', '136', '131', '138', '129', '122', '145', '148', '137', '142', '140', '149', '119'] 616.6666666666666
143 12.333333333333334 ['139', '144', '124', '136', '131', '138', '129', '122', '145', '148', '137', '142', '140', '149', '119'] 616.6666666666666
144 12.333333333333334 ['139', '144', '124', '136', '131', '138', '129', '122', '145', '148', '137', '142', '140', '149', '119'] 616.6666666666666
145 12.333333333333334 ['139', '144', '124', '136', '131', '138', '129', '122', '145', '148', '137', '142', '140', '149', '119'] 616.6666666666666
146 12.333333333333334 ['139', '144', '124', '136', '131', '138', '129', '122', '145', '148', '137', '142', '140', '149', '119'] 616.6666666666666
147 12.333333333333334 ['139', '144', '124', '136', '131', '138', '129', '122', '145', '148', '137', '142', '140', '149', '119'] 616.6666666666666
148 12.333333333333334 ['139', '144', '124', '136', '131', '138', '129', '122', '145', '148', '137', '142', '140', '149', '119'] 616.6666666666666
149 12.333333333333334 ['139', '144', '124', '136', '131', '138', '129', '122', '145', '148', '137', '142', '140', '149', '119'] 616.6666666666666
150 12.333333333333334 ['139', '144', '124', '136', '131', '138', '129', '122', '145', '148', '137', '142', '140', '149', '119'] 616.6666666666666
151 12.333333333333334 ['139', '144', '124', '136', '131', '138', '129', '122', '145', '148', '137', '142', '140', '149', '119'] 616.6666666666666
152 12.333333333333334 ['139', '144', '124', '136', '131', '138', '129', '122', '145', '148', '137', '142', '140', '149', '119'] 616.6666666666666
153 12.333333333333334 ['139', '144', '124', '136', '131', '138', '129', '122', '145', '148', '137', '142', '140', '149', '119'] 616.6666666666666
154 12.333333333333334 ['139', '144', '124', '136', '131', '138', '129', '122', '145', '148', '137', '142', '140', '149', '119'] 616.6666666666666
155 12.333333333333334 ['139', '144', '124', '136', '131', '138', '129', '122', '145', '148', '137', '142', '140', '149', '119'] 616.6666666666666
156 12.333333333333334 ['139', '144', '124', '136', '131', '138', '129', '122', '145', '148', '137', '142', '140', '149', '119'] 616.6666666666666
157 12.333333333333334 ['139', '144', '124', '136', '131', '138', '129', '122', '145', '148', '137', '142', '140', '149', '119'] 616.6666666666666
158 12.333333333333334 ['139', '144', '124', '136', '131', '138', '129', '122', '145', '148', '137', '142', '140', '149', '119'] 616.6666666666666
159 12.333333333333334 ['139', '144', '124', '136', '131', '138', '129', '122', '145', '148', '137', '142', '140', '149', '119'] 616.6666666666666
160 12.333333333333334 ['139', '144', '124', '136', '131', '138', '129', '122', '145', '148', '137', '142', '140', '149', '119'] 616.6666666666666
161 12.333333333333334 ['139', '144', '124', '136', '131', '138', '129', '122', '145', '148', '137', '142', '140', '149', '119'] 616.6666666666666
162 12.333333333333334 ['139', '144', '124', '136', '131', '138', '129', '122', '145', '148', '137', '142', '140', '149', '119'] 616.6666666666666
163 12.333333333333334 ['139', '144', '124', '136', '131', '138', '129', '122', '145', '148', '137', '142', '140', '149', '119'] 616.6666666666666
164 12.333333333333334 ['139', '144', '124', '136', '131', '138', '129', '122', '145', '148', '137', '142', '140', '149', '119'] 616.6666666666666
165 12.333333333333334 ['139', '144', '124', '136', '131', '138', '129', '122', '145', '148', '137', '142', '140', '149', '119'] 616.6666666666666
166 12.333333333333334 ['139', '144', '124', '136', '131', '138', '129', '122', '145', '148', '137', '142', '140', '149', '119'] 616.6666666666666
167 12.333333333333334 ['139', '144', '124', '136', '131', '138', '129', '122', '145', '148', '137', '142', '140', '149', '119'] 616.6666666666666
168 12.333333333333334 ['139', '144', '124', '136', '131', '138', '129', '122', '145', '148', '137', '142', '140', '149', '119'] 616.6666666666666
169 12.333333333333334 ['139', '144', '124', '136', '131', '138', '129', '122', '145', '148', '137', '142', '140', '149', '119'] 616.6666666666666
170 12.333333333333334 ['139', '144', '124', '136', '131', '138', '129', '122', '145', '148', '137', '142', '140', '149', '119'] 616.6666666666666
171 12.333333333333334 ['139', '144', '124', '136', '131', '138', '129', '122', '145', '148', '137', '142', '140', '149', '119'] 616.6666666666666
172 12.333333333333334 ['139', '144', '124', '136', '131', '138', '129', '122', '145', '148', '137', '142', '140', '149', '119'] 616.6666666666666
173 12.333333333333334 ['139', '144', '124', '136', '131', '138', '129', '122', '145', '148', '137', '142', '140', '149', '119'] 616.6666666666666
174 12.333333333333334 ['139', '144', '124', '136', '131', '138', '129', '122', '145', '148', '137', '142', '140', '149', '119'] 616.6666666666666
175 12.333333333333334 ['139', '144', '124', '136', '131', '138', '129', '122', '145', '148', '137', '142', '140', '149', '119'] 616.6666666666666
176 12.333333333333334 ['139', '144', '124', '136', '131', '138', '129', '122', '145', '148', '137', '142', '140', '149', '119'] 616.6666666666666
177 12.333333333333334 ['139', '144', '124', '136', '131', '138', '129', '122', '145', '148', '137', '142', '140', '149', '119'] 616.6666666666666
178 12.333333333333334 ['139', '144', '124', '136', '131', '138', '129', '122', '145', '148', '137', '142', '140', '149', '119'] 616.6666666666666
179 12.333333333333334 ['139', '144', '124', '136', '131', '138', '129', '122', '145', '148', '137', '142', '140', '149', '119'] 616.6666666666666
180 12.333333333333334 ['139', '144', '124', '136', '131', '138', '129', '122', '145', '148', '137', '142', '140', '149', '119'] 616.6666666666666
181 12.333333333333334 ['139', '144', '124', '136', '131', '138', '129', '122', '145', '148', '137', '142', '140', '149', '119'] 616.6666666666666
182 12.333333333333334 ['139', '144', '124', '136', '131', '138', '129', '122', '145', '148', '137', '142', '140', '149', '119'] 616.6666666666666
183 12.333333333333334 ['139', '144', '124', '136', '131', '138', '129', '122', '145', '148', '137', '142', '140', '149', '119'] 616.6666666666666
184 12.333333333333334 ['139', '144', '124', '136', '131', '138', '129', '122', '145', '148', '137', '142', '140', '149', '119'] 616.6666666666666
185 12.333333333333334 ['139', '144', '124', '136', '131', '138', '129', '122', '145', '148', '137', '142', '140', '149', '119'] 616.6666666666666
186 12.333333333333334 ['139', '144', '124', '136', '131', '138', '129', '122', '145', '148', '137', '142', '140', '149', '119'] 616.6666666666666
187 12.333333333333334 ['139', '144', '124', '136', '131', '138', '129', '122', '145', '148', '137', '142', '140', '149', '119'] 616.6666666666666
188 12.333333333333334 ['139', '144', '124', '136', '131', '138', '129', '122', '145', '148', '137', '142', '140', '149', '119'] 616.6666666666666
189 12.333333333333334 ['139', '144', '124', '136', '131', '138', '129', '122', '145', '148', '137', '142', '140', '149', '119'] 616.6666666666666
190 12.333333333333334 ['139', '144', '124', '136', '131', '138', '129', '122', '145', '148', '137', '142', '140', '149', '119'] 616.6666666666666
191 12.333333333333334 ['139', '144', '124', '136', '131', '138', '129', '122', '145', '148', '137', '142', '140', '149', '119'] 616.6666666666666
192 12.333333333333334 ['139', '144', '124', '136', '131', '138', '129', '122', '145', '148', '137', '142', '140', '149', '119'] 616.6666666666666
193 12.333333333333334 ['139', '144', '124', '136', '131', '138', '129', '122', '145', '148', '137', '142', '140', '149', '119'] 616.6666666666666
194 12.333333333333334 ['139', '144', '124', '136', '131', '138', '129', '122', '145', '148', '137', '142', '140', '149', '119'] 616.6666666666666
195 12.333333333333334 ['139', '144', '124', '136', '131', '138', '129', '122', '145', '148', '137', '142', '140', '149', '119'] 616.6666666666666
196 12.333333333333334 ['139', '144', '124', '136', '131', '138', '129', '122', '145', '148', '137', '142', '140', '149', '119'] 616.6666666666666
197 12.333333333333334 ['139', '144', '124', '136', '131', '138', '129', '122', '145', '148', '137', '142', '140', '149', '119'] 616.6666666666666
198 12.333333333333334 ['139', '144', '124', '136', '131', '138', '129', '122', '145', '148', '137', '142', '140', '149', '119'] 616.6666666666666
199 12.333333333333334 ['139', '144', '124', '136', '131', '138', '129', '122', '145', '148', '137', '142', '140', '149', '119'] 616.6666666666666
