0 1.2727272727272727 ['1', '17'] 92.36363636363635
1 1.2727272727272727 ['1', '17'] 78.54545454545452
2 1.2727272727272727 ['1', '17'] 72.54545454545452
3 1.2727272727272727 ['1', '17'] 65.27272727272728
4 1.2727272727272727 ['1', '17'] 63.63636363636366
5 1.2727272727272727 ['1', '17'] 63.63636363636366
6 1.2727272727272727 ['1', '17'] 63.63636363636366
7 1.2727272727272727 ['1', '17'] 63.63636363636366
8 1.2727272727272727 ['1', '17'] 63.63636363636366
9 1.2727272727272727 ['1', '17'] 63.63636363636366
10 1.2727272727272727 ['1', '17'] 63.63636363636366
11 1.2727272727272727 ['1', '17'] 63.63636363636366
12 1.2727272727272727 ['1', '17'] 63.63636363636366
13 1.2727272727272727 ['1', '17'] 63.63636363636366
14 1.2727272727272727 ['1', '17'] 63.63636363636366
15 1.2727272727272727 ['1', '17'] 63.63636363636366
16 1.2727272727272727 ['1', '17'] 63.63636363636366
17 1.2727272727272727 ['1', '17'] 63.63636363636366
18 1.2727272727272727 ['1', '17'] 63.63636363636366
19 1.2727272727272727 ['1', '17'] 63.63636363636366
20 1.2727272727272727 ['1', '17'] 63.63636363636366
21 1.2727272727272727 ['1', '17'] 63.63636363636366
22 1.2727272727272727 ['1', '17'] 63.63636363636366
23 1.2727272727272727 ['1', '17'] 63.63636363636366
24 1.2727272727272727 ['1', '17'] 63.63636363636366
25 1.2727272727272727 ['1', '17'] 63.63636363636366
26 1.2727272727272727 ['1', '17'] 63.63636363636366
27 1.2727272727272727 ['1', '17'] 63.63636363636366
28 1.2727272727272727 ['1', '17'] 63.63636363636366
29 1.2727272727272727 ['1', '17'] 63.63636363636366
30 1.2727272727272727 ['1', '17'] 63.63636363636366
31 1.2727272727272727 ['1', '17'] 63.63636363636366
32 1.2727272727272727 ['1', '17'] 63.63636363636366
33 1.2727272727272727 ['1', '17'] 63.63636363636366
34 1.2727272727272727 ['1', '17'] 63.63636363636366
35 1.2727272727272727 ['1', '17'] 63.63636363636366
36 1.2727272727272727 ['1', '17'] 63.63636363636366
37 1.2727272727272727 ['1', '17'] 63.63636363636366
38 1.2727272727272727 ['1', '17'] 63.63636363636366
39 1.2727272727272727 ['1', '17'] 63.63636363636366
40 1.2727272727272727 ['1', '17'] 63.63636363636366
41 1.2727272727272727 ['1', '17'] 63.63636363636366
42 1.2727272727272727 ['1', '17'] 63.63636363636366
43 1.2727272727272727 ['1', '17'] 63.63636363636366
44 1.2727272727272727 ['1', '17'] 63.63636363636366
45 1.2727272727272727 ['1', '17'] 63.63636363636366
46 1.2727272727272727 ['1', '17'] 63.63636363636366
47 1.2727272727272727 ['1', '17'] 63.63636363636366
48 1.2727272727272727 ['1', '17'] 63.63636363636366
49 1.2727272727272727 ['1', '17'] 63.63636363636366
50 1.2727272727272727 ['1', '17'] 63.63636363636366
51 1.2727272727272727 ['1', '17'] 63.63636363636366
52 1.2727272727272727 ['1', '17'] 63.63636363636366
53 1.2727272727272727 ['1', '17'] 63.63636363636366
54 1.2727272727272727 ['1', '17'] 63.63636363636366
55 1.2727272727272727 ['1', '17'] 63.63636363636366
56 1.2727272727272727 ['1', '17'] 63.63636363636366
57 1.2727272727272727 ['1', '17'] 63.63636363636366
58 1.2727272727272727 ['1', '17'] 63.63636363636366
59 1.2727272727272727 ['1', '17'] 63.63636363636366
60 1.2727272727272727 ['1', '17'] 63.63636363636366
61 1.2727272727272727 ['1', '17'] 63.63636363636366
62 1.2727272727272727 ['1', '17'] 63.63636363636366
63 1.2727272727272727 ['1', '17'] 63.63636363636366
64 1.2727272727272727 ['1', '17'] 63.63636363636366
65 1.2727272727272727 ['1', '17'] 63.63636363636366
66 1.2727272727272727 ['1', '17'] 63.63636363636366
67 1.2727272727272727 ['1', '17'] 63.63636363636366
68 1.2727272727272727 ['1', '17'] 63.63636363636366
69 1.2727272727272727 ['1', '17'] 63.63636363636366
70 1.2727272727272727 ['1', '17'] 63.63636363636366
71 1.2727272727272727 ['1', '17'] 63.63636363636366
72 1.2727272727272727 ['1', '17'] 63.63636363636366
73 1.2727272727272727 ['1', '17'] 63.63636363636366
74 1.2727272727272727 ['1', '17'] 63.63636363636366
75 1.2727272727272727 ['1', '17'] 63.63636363636366
76 1.2727272727272727 ['1', '17'] 63.63636363636366
77 1.2727272727272727 ['1', '17'] 63.63636363636366
78 1.2727272727272727 ['1', '17'] 63.63636363636366
79 1.2727272727272727 ['1', '17'] 63.63636363636366
80 1.2727272727272727 ['1', '17'] 63.63636363636366
81 1.2727272727272727 ['1', '17'] 63.63636363636366
82 1.2727272727272727 ['1', '17'] 63.63636363636366
83 1.2727272727272727 ['1', '17'] 63.63636363636366
84 1.2727272727272727 ['1', '17'] 63.63636363636366
85 1.2727272727272727 ['1', '17'] 63.63636363636366
86 1.2727272727272727 ['1', '17'] 63.63636363636366
87 1.2727272727272727 ['1', '17'] 63.63636363636366
88 1.2727272727272727 ['1', '17'] 63.63636363636366
89 1.2727272727272727 ['1', '17'] 63.63636363636366
90 1.2727272727272727 ['1', '17'] 63.63636363636366
91 1.2727272727272727 ['1', '17'] 63.63636363636366
92 1.2727272727272727 ['1', '17'] 63.63636363636366
93 1.2727272727272727 ['1', '17'] 63.63636363636366
94 1.2727272727272727 ['1', '17'] 63.63636363636366
95 1.2727272727272727 ['1', '17'] 63.63636363636366
96 1.2727272727272727 ['1', '17'] 63.63636363636366
97 1.2727272727272727 ['1', '17'] 63.63636363636366
98 1.2727272727272727 ['1', '17'] 63.63636363636366
99 1.2727272727272727 ['1', '17'] 63.63636363636366
100 1.2727272727272727 ['1', '17'] 63.63636363636366
101 1.2727272727272727 ['1', '17'] 63.63636363636366
102 1.2727272727272727 ['1', '17'] 63.63636363636366
103 1.2727272727272727 ['1', '17'] 63.63636363636366
104 1.2727272727272727 ['1', '17'] 63.63636363636366
105 1.2727272727272727 ['1', '17'] 63.63636363636366
106 1.2727272727272727 ['1', '17'] 63.63636363636366
107 1.2727272727272727 ['1', '17'] 63.63636363636366
108 1.2727272727272727 ['1', '17'] 63.63636363636366
109 1.2727272727272727 ['1', '17'] 63.63636363636366
110 1.2727272727272727 ['1', '17'] 63.63636363636366
111 1.2727272727272727 ['1', '17'] 63.63636363636366
112 1.2727272727272727 ['1', '17'] 63.63636363636366
113 1.2727272727272727 ['1', '17'] 63.63636363636366
114 1.2727272727272727 ['1', '17'] 63.63636363636366
115 1.2727272727272727 ['1', '17'] 63.63636363636366
116 1.2727272727272727 ['1', '17'] 63.63636363636366
117 1.2727272727272727 ['1', '17'] 63.63636363636366
118 1.2727272727272727 ['1', '17'] 63.63636363636366
119 1.2727272727272727 ['1', '17'] 63.63636363636366
120 1.2727272727272727 ['1', '17'] 63.63636363636366
121 1.2727272727272727 ['1', '17'] 63.63636363636366
122 1.2727272727272727 ['1', '17'] 63.63636363636366
123 1.2727272727272727 ['1', '17'] 63.63636363636366
124 1.2727272727272727 ['1', '17'] 63.63636363636366
125 1.2727272727272727 ['1', '17'] 63.63636363636366
126 1.2727272727272727 ['1', '17'] 63.63636363636366
127 1.2727272727272727 ['1', '17'] 63.63636363636366
128 1.2727272727272727 ['1', '17'] 63.63636363636366
129 1.2727272727272727 ['1', '17'] 63.63636363636366
130 1.2727272727272727 ['1', '17'] 63.63636363636366
131 1.2727272727272727 ['1', '17'] 63.63636363636366
132 1.2727272727272727 ['1', '17'] 63.63636363636366
133 1.2727272727272727 ['1', '17'] 63.63636363636366
134 1.2727272727272727 ['1', '17'] 63.63636363636366
135 1.2727272727272727 ['1', '17'] 63.63636363636366
136 1.2727272727272727 ['1', '17'] 63.63636363636366
137 1.2727272727272727 ['1', '17'] 63.63636363636366
138 1.2727272727272727 ['1', '17'] 63.63636363636366
139 1.2727272727272727 ['1', '17'] 63.63636363636366
140 1.2727272727272727 ['1', '17'] 63.63636363636366
141 1.2727272727272727 ['1', '17'] 63.63636363636366
142 1.2727272727272727 ['1', '17'] 63.63636363636366
143 1.2727272727272727 ['1', '17'] 63.63636363636366
144 1.2727272727272727 ['1', '17'] 63.63636363636366
145 1.2727272727272727 ['1', '17'] 63.63636363636366
146 1.2727272727272727 ['1', '17'] 63.63636363636366
147 1.2727272727272727 ['1', '17'] 63.63636363636366
148 1.2727272727272727 ['1', '17'] 63.63636363636366
149 1.2727272727272727 ['1', '17'] 63.63636363636366
150 1.2727272727272727 ['1', '17'] 63.63636363636366
151 1.2727272727272727 ['1', '17'] 63.63636363636366
152 1.2727272727272727 ['1', '17'] 63.63636363636366
153 1.2727272727272727 ['1', '17'] 63.63636363636366
154 1.2727272727272727 ['1', '17'] 63.63636363636366
155 1.2727272727272727 ['1', '17'] 63.63636363636366
156 1.2727272727272727 ['1', '17'] 63.63636363636366
157 1.2727272727272727 ['1', '17'] 63.63636363636366
158 1.2727272727272727 ['1', '17'] 63.63636363636366
159 1.2727272727272727 ['1', '17'] 63.63636363636366
160 1.2727272727272727 ['1', '17'] 63.63636363636366
161 1.2727272727272727 ['1', '17'] 63.63636363636366
162 1.2727272727272727 ['1', '17'] 63.63636363636366
163 1.2727272727272727 ['1', '17'] 63.63636363636366
164 1.2727272727272727 ['1', '17'] 63.63636363636366
165 1.2727272727272727 ['1', '17'] 63.63636363636366
166 1.2727272727272727 ['1', '17'] 63.63636363636366
167 1.2727272727272727 ['1', '17'] 63.63636363636366
168 1.2727272727272727 ['1', '17'] 63.63636363636366
169 1.2727272727272727 ['1', '17'] 63.63636363636366
170 1.2727272727272727 ['1', '17'] 63.63636363636366
171 1.2727272727272727 ['1', '17'] 63.63636363636366
172 1.2727272727272727 ['1', '17'] 63.63636363636366
173 1.2727272727272727 ['1', '17'] 63.63636363636366
174 1.2727272727272727 ['1', '17'] 63.63636363636366
175 1.2727272727272727 ['1', '17'] 63.63636363636366
176 1.2727272727272727 ['1', '17'] 63.63636363636366
177 1.2727272727272727 ['1', '17'] 63.63636363636366
178 1.2727272727272727 ['1', '17'] 63.63636363636366
179 1.2727272727272727 ['1', '17'] 63.63636363636366
180 1.2727272727272727 ['1', '17'] 63.63636363636366
181 1.2727272727272727 ['1', '17'] 63.63636363636366
182 1.2727272727272727 ['1', '17'] 63.63636363636366
183 1.2727272727272727 ['1', '17'] 63.63636363636366
184 1.2727272727272727 ['1', '17'] 63.63636363636366
185 1.2727272727272727 ['1', '17'] 63.63636363636366
186 1.2727272727272727 ['1', '17'] 63.63636363636366
187 1.2727272727272727 ['1', '17'] 63.63636363636366
188 1.2727272727272727 ['1', '17'] 63.63636363636366
189 1.2727272727272727 ['1', '17'] 63.63636363636366
190 1.2727272727272727 ['1', '17'] 63.63636363636366
191 1.2727272727272727 ['1', '17'] 63.63636363636366
192 1.2727272727272727 ['1', '17'] 63.63636363636366
193 1.2727272727272727 ['1', '17'] 63.63636363636366
194 1.2727272727272727 ['1', '17'] 63.63636363636366
195 1.2727272727272727 ['1', '17'] 63.63636363636366
196 1.2727272727272727 ['1', '17'] 63.63636363636366
197 1.2727272727272727 ['1', '17'] 63.63636363636366
198 1.2727272727272727 ['1', '17'] 63.63636363636366
199 1.2727272727272727 ['1', '17'] 63.63636363636366
