0 146.64285714285714 ['51', '19', '47', '35', '50', '43'] 7660.5535714285725
1 145.76785714285714 ['36', '28', '7', '45', '43', '9'] 7555.660714285715
2 144.94642857142858 ['5', '62', '43', '17', '11', '56'] 7471.392857142858
3 144.42857142857142 ['36', '9', '1', '43', '29', '8'] 7382.785714285715
4 142.69642857142858 ['36', '29', '43', '11', '56', '50'] 7327.428571428572
5 142.69642857142858 ['36', '29', '43', '11', '56', '50'] 7262.392857142855
6 139.48214285714286 ['43', '36', '51', '24', '29', '9'] 7212.660714285714
7 139.48214285714286 ['43', '36', '51', '24', '29', '9'] 7169.19642857143
8 138.92857142857142 ['36', '11', '43', '56', '24', '29'] 7126.625
9 138.92857142857142 ['36', '11', '43', '56', '24', '29'] 7080.410714285715
10 138.875 ['36', '43', '19', '51', '24', '9'] 7000.339285714288
11 138.875 ['36', '43', '19', '51', '24', '9'] 6969.535714285711
12 138.41071428571428 ['36', '43', '56', '24', '19', '9'] 6960.107142857143
13 138.41071428571428 ['36', '43', '56', '24', '19', '9'] 6951.339285714289
14 138.41071428571428 ['36', '43', '56', '24', '19', '9'] 6943.375000000002
15 138.41071428571428 ['36', '43', '56', '24', '19', '9'] 6935.107142857143
16 138.41071428571428 ['36', '43', '56', '24', '19', '9'] 6925.0892857142835
17 138.41071428571428 ['36', '43', '56', '24', '19', '9'] 6920.535714285721
18 138.41071428571428 ['36', '43', '56', '24', '19', '9'] 6920.535714285721
19 138.41071428571428 ['36', '43', '56', '24', '19', '9'] 6920.535714285721
20 138.41071428571428 ['36', '43', '56', '24', '19', '9'] 6920.535714285721
21 138.41071428571428 ['36', '43', '56', '24', '19', '9'] 6920.535714285721
22 138.41071428571428 ['36', '43', '56', '24', '19', '9'] 6920.535714285721
23 138.41071428571428 ['36', '43', '56', '24', '19', '9'] 6920.535714285721
24 138.41071428571428 ['36', '43', '56', '24', '19', '9'] 6920.535714285721
25 138.41071428571428 ['36', '43', '56', '24', '19', '9'] 6920.535714285721
26 138.41071428571428 ['36', '43', '56', '24', '19', '9'] 6920.535714285721
27 138.41071428571428 ['36', '43', '56', '24', '19', '9'] 6920.535714285721
28 138.41071428571428 ['36', '43', '56', '24', '19', '9'] 6920.535714285721
29 138.41071428571428 ['36', '43', '56', '24', '19', '9'] 6920.535714285721
30 138.41071428571428 ['36', '43', '56', '24', '19', '9'] 6920.535714285721
31 138.41071428571428 ['36', '43', '56', '24', '19', '9'] 6920.535714285721
32 138.41071428571428 ['36', '43', '56', '24', '19', '9'] 6920.535714285721
33 138.41071428571428 ['36', '43', '56', '24', '19', '9'] 6920.535714285721
34 138.41071428571428 ['36', '43', '56', '24', '19', '9'] 6920.535714285721
35 138.41071428571428 ['36', '43', '56', '24', '19', '9'] 6920.535714285721
36 138.41071428571428 ['36', '43', '56', '24', '19', '9'] 6920.535714285721
37 138.41071428571428 ['36', '43', '56', '24', '19', '9'] 6920.535714285721
38 138.41071428571428 ['36', '43', '56', '24', '19', '9'] 6920.535714285721
39 138.41071428571428 ['36', '43', '56', '24', '19', '9'] 6920.535714285721
40 138.41071428571428 ['36', '43', '56', '24', '19', '9'] 6920.535714285721
41 138.41071428571428 ['36', '43', '56', '24', '19', '9'] 6920.535714285721
42 138.41071428571428 ['36', '43', '56', '24', '19', '9'] 6920.535714285721
43 138.41071428571428 ['36', '43', '56', '24', '19', '9'] 6920.535714285721
44 138.41071428571428 ['36', '43', '56', '24', '19', '9'] 6920.535714285721
45 138.41071428571428 ['36', '43', '56', '24', '19', '9'] 6920.535714285721
46 138.41071428571428 ['36', '43', '56', '24', '19', '9'] 6920.535714285721
47 138.41071428571428 ['36', '43', '56', '24', '19', '9'] 6920.535714285721
48 138.41071428571428 ['36', '43', '56', '24', '19', '9'] 6920.535714285721
49 138.41071428571428 ['36', '43', '56', '24', '19', '9'] 6920.535714285721
50 138.41071428571428 ['36', '43', '56', '24', '19', '9'] 6920.535714285721
51 138.41071428571428 ['36', '43', '56', '24', '19', '9'] 6920.535714285721
52 138.41071428571428 ['36', '43', '56', '24', '19', '9'] 6920.535714285721
53 138.41071428571428 ['36', '43', '56', '24', '19', '9'] 6920.535714285721
54 138.41071428571428 ['36', '43', '56', '24', '19', '9'] 6920.535714285721
55 138.41071428571428 ['36', '43', '56', '24', '19', '9'] 6920.535714285721
56 138.41071428571428 ['36', '43', '56', '24', '19', '9'] 6920.535714285721
57 138.41071428571428 ['36', '43', '56', '24', '19', '9'] 6920.535714285721
58 138.41071428571428 ['36', '43', '56', '24', '19', '9'] 6920.535714285721
59 138.41071428571428 ['36', '43', '56', '24', '19', '9'] 6920.535714285721
60 138.41071428571428 ['36', '43', '56', '24', '19', '9'] 6920.535714285721
61 138.41071428571428 ['36', '43', '56', '24', '19', '9'] 6920.535714285721
62 138.41071428571428 ['36', '43', '56', '24', '19', '9'] 6920.535714285721
63 138.41071428571428 ['36', '43', '56', '24', '19', '9'] 6920.535714285721
64 138.41071428571428 ['36', '43', '56', '24', '19', '9'] 6920.535714285721
65 138.41071428571428 ['36', '43', '56', '24', '19', '9'] 6920.535714285721
66 138.41071428571428 ['36', '43', '56', '24', '19', '9'] 6920.535714285721
67 138.41071428571428 ['36', '43', '56', '24', '19', '9'] 6920.535714285721
68 138.41071428571428 ['36', '43', '56', '24', '19', '9'] 6920.535714285721
69 138.41071428571428 ['36', '43', '56', '24', '19', '9'] 6920.535714285721
70 138.41071428571428 ['36', '43', '56', '24', '19', '9'] 6920.535714285721
71 138.41071428571428 ['36', '43', '56', '24', '19', '9'] 6920.535714285721
72 138.41071428571428 ['36', '43', '56', '24', '19', '9'] 6920.535714285721
73 138.41071428571428 ['36', '43', '56', '24', '19', '9'] 6920.535714285721
74 138.41071428571428 ['36', '43', '56', '24', '19', '9'] 6920.535714285721
75 138.41071428571428 ['36', '43', '56', '24', '19', '9'] 6920.535714285721
76 138.41071428571428 ['36', '43', '56', '24', '19', '9'] 6920.535714285721
77 138.41071428571428 ['36', '43', '56', '24', '19', '9'] 6920.535714285721
78 138.41071428571428 ['36', '43', '56', '24', '19', '9'] 6920.535714285721
79 138.41071428571428 ['36', '43', '56', '24', '19', '9'] 6920.535714285721
80 138.41071428571428 ['36', '43', '56', '24', '19', '9'] 6920.535714285721
81 138.41071428571428 ['36', '43', '56', '24', '19', '9'] 6920.535714285721
82 138.41071428571428 ['36', '43', '56', '24', '19', '9'] 6920.535714285721
83 138.41071428571428 ['36', '43', '56', '24', '19', '9'] 6920.535714285721
84 138.41071428571428 ['36', '43', '56', '24', '19', '9'] 6920.535714285721
85 138.41071428571428 ['36', '43', '56', '24', '19', '9'] 6920.535714285721
86 138.41071428571428 ['36', '43', '56', '24', '19', '9'] 6920.535714285721
87 138.41071428571428 ['36', '43', '56', '24', '19', '9'] 6920.535714285721
88 138.41071428571428 ['36', '43', '56', '24', '19', '9'] 6920.535714285721
89 138.41071428571428 ['36', '43', '56', '24', '19', '9'] 6920.535714285721
90 138.41071428571428 ['36', '43', '56', '24', '19', '9'] 6920.535714285721
91 138.41071428571428 ['36', '43', '56', '24', '19', '9'] 6920.535714285721
92 138.41071428571428 ['36', '43', '56', '24', '19', '9'] 6920.535714285721
93 138.41071428571428 ['36', '43', '56', '24', '19', '9'] 6920.535714285721
94 138.41071428571428 ['36', '43', '56', '24', '19', '9'] 6920.535714285721
95 138.41071428571428 ['36', '43', '56', '24', '19', '9'] 6920.535714285721
96 138.41071428571428 ['36', '43', '56', '24', '19', '9'] 6920.535714285721
97 138.41071428571428 ['36', '43', '56', '24', '19', '9'] 6920.535714285721
98 138.41071428571428 ['36', '43', '56', '24', '19', '9'] 6920.535714285721
99 138.41071428571428 ['36', '43', '56', '24', '19', '9'] 6920.535714285721
100 138.41071428571428 ['36', '43', '56', '24', '19', '9'] 6920.535714285721
101 138.41071428571428 ['36', '43', '56', '24', '19', '9'] 6920.535714285721
102 138.41071428571428 ['36', '43', '56', '24', '19', '9'] 6920.535714285721
103 138.41071428571428 ['36', '43', '56', '24', '19', '9'] 6920.535714285721
104 138.41071428571428 ['36', '43', '56', '24', '19', '9'] 6920.535714285721
105 138.41071428571428 ['36', '43', '56', '24', '19', '9'] 6920.535714285721
106 138.41071428571428 ['36', '43', '56', '24', '19', '9'] 6920.535714285721
107 138.41071428571428 ['36', '43', '56', '24', '19', '9'] 6920.535714285721
108 138.41071428571428 ['36', '43', '56', '24', '19', '9'] 6920.535714285721
109 138.41071428571428 ['36', '43', '56', '24', '19', '9'] 6920.535714285721
110 138.41071428571428 ['36', '43', '56', '24', '19', '9'] 6920.535714285721
111 138.41071428571428 ['36', '43', '56', '24', '19', '9'] 6920.535714285721
112 138.41071428571428 ['36', '43', '56', '24', '19', '9'] 6920.535714285721
113 138.41071428571428 ['36', '43', '56', '24', '19', '9'] 6920.535714285721
114 138.41071428571428 ['36', '43', '56', '24', '19', '9'] 6920.535714285721
115 138.41071428571428 ['36', '43', '56', '24', '19', '9'] 6920.535714285721
116 138.41071428571428 ['36', '43', '56', '24', '19', '9'] 6920.535714285721
117 138.41071428571428 ['36', '43', '56', '24', '19', '9'] 6920.535714285721
118 138.41071428571428 ['36', '43', '56', '24', '19', '9'] 6920.535714285721
119 138.41071428571428 ['36', '43', '56', '24', '19', '9'] 6920.535714285721
120 138.41071428571428 ['36', '43', '56', '24', '19', '9'] 6920.535714285721
121 138.41071428571428 ['36', '43', '56', '24', '19', '9'] 6920.535714285721
122 138.41071428571428 ['36', '43', '56', '24', '19', '9'] 6920.535714285721
123 138.41071428571428 ['36', '43', '56', '24', '19', '9'] 6920.535714285721
124 138.41071428571428 ['36', '43', '56', '24', '19', '9'] 6920.535714285721
125 138.41071428571428 ['36', '43', '56', '24', '19', '9'] 6920.535714285721
126 138.41071428571428 ['36', '43', '56', '24', '19', '9'] 6920.535714285721
127 138.41071428571428 ['36', '43', '56', '24', '19', '9'] 6920.535714285721
128 138.41071428571428 ['36', '43', '56', '24', '19', '9'] 6920.535714285721
129 138.41071428571428 ['36', '43', '56', '24', '19', '9'] 6920.535714285721
130 138.41071428571428 ['36', '43', '56', '24', '19', '9'] 6920.535714285721
131 138.41071428571428 ['36', '43', '56', '24', '19', '9'] 6920.535714285721
132 138.41071428571428 ['36', '43', '56', '24', '19', '9'] 6920.535714285721
133 138.41071428571428 ['36', '43', '56', '24', '19', '9'] 6920.535714285721
134 138.41071428571428 ['36', '43', '56', '24', '19', '9'] 6920.535714285721
135 138.41071428571428 ['36', '43', '56', '24', '19', '9'] 6920.535714285721
136 138.41071428571428 ['36', '43', '56', '24', '19', '9'] 6920.535714285721
137 138.41071428571428 ['36', '43', '56', '24', '19', '9'] 6920.535714285721
138 138.41071428571428 ['36', '43', '56', '24', '19', '9'] 6920.535714285721
139 138.41071428571428 ['36', '43', '56', '24', '19', '9'] 6920.535714285721
140 138.41071428571428 ['36', '43', '56', '24', '19', '9'] 6920.535714285721
141 138.41071428571428 ['36', '43', '56', '24', '19', '9'] 6920.535714285721
142 138.41071428571428 ['36', '43', '56', '24', '19', '9'] 6920.535714285721
143 138.41071428571428 ['36', '43', '56', '24', '19', '9'] 6920.535714285721
144 138.41071428571428 ['36', '43', '56', '24', '19', '9'] 6920.535714285721
145 138.41071428571428 ['36', '43', '56', '24', '19', '9'] 6920.535714285721
146 138.41071428571428 ['36', '43', '56', '24', '19', '9'] 6920.535714285721
147 138.41071428571428 ['36', '43', '56', '24', '19', '9'] 6920.535714285721
148 138.41071428571428 ['36', '43', '56', '24', '19', '9'] 6920.535714285721
149 138.41071428571428 ['36', '43', '56', '24', '19', '9'] 6920.535714285721
150 138.41071428571428 ['36', '43', '56', '24', '19', '9'] 6920.535714285721
151 138.41071428571428 ['36', '43', '56', '24', '19', '9'] 6920.535714285721
152 138.41071428571428 ['36', '43', '56', '24', '19', '9'] 6920.535714285721
153 138.41071428571428 ['36', '43', '56', '24', '19', '9'] 6920.535714285721
154 138.41071428571428 ['36', '43', '56', '24', '19', '9'] 6920.535714285721
155 138.41071428571428 ['36', '43', '56', '24', '19', '9'] 6920.535714285721
156 138.41071428571428 ['36', '43', '56', '24', '19', '9'] 6920.535714285721
157 138.41071428571428 ['36', '43', '56', '24', '19', '9'] 6920.535714285721
158 138.41071428571428 ['36', '43', '56', '24', '19', '9'] 6920.535714285721
159 138.41071428571428 ['36', '43', '56', '24', '19', '9'] 6920.535714285721
160 138.41071428571428 ['36', '43', '56', '24', '19', '9'] 6920.535714285721
161 138.41071428571428 ['36', '43', '56', '24', '19', '9'] 6920.535714285721
162 138.41071428571428 ['36', '43', '56', '24', '19', '9'] 6920.535714285721
163 138.41071428571428 ['36', '43', '56', '24', '19', '9'] 6920.535714285721
164 138.41071428571428 ['36', '43', '56', '24', '19', '9'] 6920.535714285721
165 138.41071428571428 ['36', '43', '56', '24', '19', '9'] 6920.535714285721
166 138.41071428571428 ['36', '43', '56', '24', '19', '9'] 6920.535714285721
167 138.41071428571428 ['36', '43', '56', '24', '19', '9'] 6920.535714285721
168 138.41071428571428 ['36', '43', '56', '24', '19', '9'] 6920.535714285721
169 138.41071428571428 ['36', '43', '56', '24', '19', '9'] 6920.535714285721
170 138.41071428571428 ['36', '43', '56', '24', '19', '9'] 6920.535714285721
171 138.41071428571428 ['36', '43', '56', '24', '19', '9'] 6920.535714285721
172 138.41071428571428 ['36', '43', '56', '24', '19', '9'] 6920.535714285721
173 138.41071428571428 ['36', '43', '56', '24', '19', '9'] 6920.535714285721
174 138.41071428571428 ['36', '43', '56', '24', '19', '9'] 6920.535714285721
175 138.41071428571428 ['36', '43', '56', '24', '19', '9'] 6920.535714285721
176 138.41071428571428 ['36', '43', '56', '24', '19', '9'] 6920.535714285721
177 138.41071428571428 ['36', '43', '56', '24', '19', '9'] 6920.535714285721
178 138.41071428571428 ['36', '43', '56', '24', '19', '9'] 6920.535714285721
179 138.41071428571428 ['36', '43', '56', '24', '19', '9'] 6920.535714285721
180 138.41071428571428 ['36', '43', '56', '24', '19', '9'] 6920.535714285721
181 138.41071428571428 ['36', '43', '56', '24', '19', '9'] 6920.535714285721
182 138.41071428571428 ['36', '43', '56', '24', '19', '9'] 6920.535714285721
183 138.41071428571428 ['36', '43', '56', '24', '19', '9'] 6920.535714285721
184 138.41071428571428 ['36', '43', '56', '24', '19', '9'] 6920.535714285721
185 138.41071428571428 ['36', '43', '56', '24', '19', '9'] 6920.535714285721
186 138.41071428571428 ['36', '43', '56', '24', '19', '9'] 6920.535714285721
187 138.41071428571428 ['36', '43', '56', '24', '19', '9'] 6920.535714285721
188 138.41071428571428 ['36', '43', '56', '24', '19', '9'] 6920.535714285721
189 138.41071428571428 ['36', '43', '56', '24', '19', '9'] 6920.535714285721
190 138.41071428571428 ['36', '43', '56', '24', '19', '9'] 6920.535714285721
191 138.41071428571428 ['36', '43', '56', '24', '19', '9'] 6920.535714285721
192 138.41071428571428 ['36', '43', '56', '24', '19', '9'] 6920.535714285721
193 138.41071428571428 ['36', '43', '56', '24', '19', '9'] 6920.535714285721
194 138.41071428571428 ['36', '43', '56', '24', '19', '9'] 6920.535714285721
195 138.41071428571428 ['36', '43', '56', '24', '19', '9'] 6920.535714285721
196 138.41071428571428 ['36', '43', '56', '24', '19', '9'] 6920.535714285721
197 138.41071428571428 ['36', '43', '56', '24', '19', '9'] 6920.535714285721
198 138.41071428571428 ['36', '43', '56', '24', '19', '9'] 6920.535714285721
199 138.41071428571428 ['36', '43', '56', '24', '19', '9'] 6920.535714285721
