0 12.844444444444445 ['119', '120', '97', '34', '138', '102', '129', '134', '128', '123', '109', '147', '118', '86', '106'] 675.7555555555552
1 12.844444444444445 ['119', '120', '97', '34', '138', '102', '129', '134', '128', '123', '109', '147', '118', '86', '106'] 669.311111111111
2 12.674074074074074 ['120', '34', '119', '145', '142', '2', '98', '74', '97', '138', '134', '112', '139', '129', '87'] 663.0666666666666
3 12.6 ['34', '146', '119', '120', '109', '98', '144', '128', '135', '138', '145', '29', '142', '54', '113'] 655.8222222222224
4 12.6 ['34', '146', '119', '120', '109', '98', '144', '128', '135', '138', '145', '29', '142', '54', '113'] 649.0592592592593
5 12.296296296296296 ['134', '129', '139', '74', '120', '97', '112', '119', '146', '87', '125', '148', '138', '142', '145'] 643.4074074074076
6 12.296296296296296 ['134', '129', '139', '74', '120', '97', '112', '119', '146', '87', '125', '148', '138', '142', '145'] 637.3259259259261
7 12.296296296296296 ['134', '129', '139', '74', '120', '97', '112', '119', '146', '87', '125', '148', '138', '142', '145'] 632.0222222222225
8 12.281481481481482 ['138', '148', '146', '119', '74', '120', '129', '97', '87', '134', '125', '139', '106', '145', '142'] 627.2444444444445
9 12.22962962962963 ['142', '138', '139', '119', '145', '146', '148', '120', '150', '87', '134', '8', '129', '97', '135'] 622.3407407407408
10 12.118518518518519 ['134', '146', '119', '97', '120', '129', '125', '142', '145', '135', '123', '138', '139', '128', '116'] 617.0740740740741
11 12.088888888888889 ['138', '146', '134', '129', '98', '135', '120', '142', '97', '139', '126', '119', '123', '144', '145'] 612.5851851851855
12 12.044444444444444 ['119', '135', '134', '145', '139', '142', '138', '146', '128', '123', '116', '125', '129', '148', '120'] 609.1629629629626
13 12.014814814814814 ['142', '119', '134', '135', '129', '97', '146', '138', '145', '125', '139', '120', '128', '141', '144'] 606.6074074074078
14 12.014814814814814 ['142', '119', '134', '135', '129', '97', '146', '138', '145', '125', '139', '120', '128', '141', '144'] 604.5037037037035
15 11.97037037037037 ['142', '119', '129', '146', '128', '148', '135', '120', '134', '138', '125', '139', '97', '145', '144'] 602.6370370370367
16 11.955555555555556 ['129', '125', '146', '134', '148', '145', '119', '139', '123', '120', '138', '142', '97', '144', '135'] 601.0074074074076
17 11.948148148148148 ['135', '113', '142', '139', '145', '125', '129', '134', '146', '119', '120', '138', '123', '148', '144'] 600.0370370370374
18 11.948148148148148 ['135', '113', '142', '139', '145', '125', '129', '134', '146', '119', '120', '138', '123', '148', '144'] 598.7407407407404
19 11.940740740740742 ['145', '148', '120', '139', '125', '134', '129', '135', '119', '141', '146', '142', '138', '113', '144'] 597.9555555555553
20 11.940740740740742 ['145', '148', '120', '139', '125', '134', '129', '135', '119', '141', '146', '142', '138', '113', '144'] 597.5703703703704
21 11.940740740740742 ['145', '148', '120', '139', '125', '134', '129', '135', '119', '141', '146', '142', '138', '113', '144'] 597.3481481481481
22 11.940740740740742 ['145', '148', '120', '139', '125', '134', '129', '135', '119', '141', '146', '142', '138', '113', '144'] 597.2
23 11.940740740740742 ['145', '148', '120', '139', '125', '134', '129', '135', '119', '141', '146', '142', '138', '113', '144'] 597.037037037037
24 11.940740740740742 ['145', '148', '120', '139', '125', '134', '129', '135', '119', '141', '146', '142', '138', '113', '144'] 597.037037037037
25 11.940740740740742 ['145', '148', '120', '139', '125', '134', '129', '135', '119', '141', '146', '142', '138', '113', '144'] 597.037037037037
26 11.940740740740742 ['145', '148', '120', '139', '125', '134', '129', '135', '119', '141', '146', '142', '138', '113', '144'] 597.037037037037
27 11.940740740740742 ['145', '148', '120', '139', '125', '134', '129', '135', '119', '141', '146', '142', '138', '113', '144'] 597.037037037037
28 11.940740740740742 ['145', '148', '120', '139', '125', '134', '129', '135', '119', '141', '146', '142', '138', '113', '144'] 597.037037037037
29 11.940740740740742 ['145', '148', '120', '139', '125', '134', '129', '135', '119', '141', '146', '142', '138', '113', '144'] 597.037037037037
30 11.940740740740742 ['145', '148', '120', '139', '125', '134', '129', '135', '119', '141', '146', '142', '138', '113', '144'] 597.037037037037
31 11.940740740740742 ['145', '148', '120', '139', '125', '134', '129', '135', '119', '141', '146', '142', '138', '113', '144'] 597.037037037037
32 11.940740740740742 ['145', '148', '120', '139', '125', '134', '129', '135', '119', '141', '146', '142', '138', '113', '144'] 597.037037037037
33 11.940740740740742 ['145', '148', '120', '139', '125', '134', '129', '135', '119', '141', '146', '142', '138', '113', '144'] 597.037037037037
34 11.940740740740742 ['145', '148', '120', '139', '125', '134', '129', '135', '119', '141', '146', '142', '138', '113', '144'] 597.037037037037
35 11.940740740740742 ['145', '148', '120', '139', '125', '134', '129', '135', '119', '141', '146', '142', '138', '113', '144'] 597.037037037037
36 11.940740740740742 ['145', '148', '120', '139', '125', '134', '129', '135', '119', '141', '146', '142', '138', '113', '144'] 597.037037037037
37 11.940740740740742 ['145', '148', '120', '139', '125', '134', '129', '135', '119', '141', '146', '142', '138', '113', '144'] 597.037037037037
38 11.940740740740742 ['145', '148', '120', '139', '125', '134', '129', '135', '119', '141', '146', '142', '138', '113', '144'] 597.037037037037
39 11.940740740740742 ['145', '148', '120', '139', '125', '134', '129', '135', '119', '141', '146', '142', '138', '113', '144'] 597.037037037037
40 11.940740740740742 ['145', '148', '120', '139', '125', '134', '129', '135', '119', '141', '146', '142', '138', '113', '144'] 597.037037037037
41 11.940740740740742 ['145', '148', '120', '139', '125', '134', '129', '135', '119', '141', '146', '142', '138', '113', '144'] 597.037037037037
42 11.940740740740742 ['145', '148', '120', '139', '125', '134', '129', '135', '119', '141', '146', '142', '138', '113', '144'] 597.037037037037
43 11.940740740740742 ['145', '148', '120', '139', '125', '134', '129', '135', '119', '141', '146', '142', '138', '113', '144'] 597.037037037037
44 11.940740740740742 ['145', '148', '120', '139', '125', '134', '129', '135', '119', '141', '146', '142', '138', '113', '144'] 597.037037037037
45 11.940740740740742 ['145', '148', '120', '139', '125', '134', '129', '135', '119', '141', '146', '142', '138', '113', '144'] 597.037037037037
46 11.940740740740742 ['145', '148', '120', '139', '125', '134', '129', '135', '119', '141', '146', '142', '138', '113', '144'] 597.037037037037
47 11.940740740740742 ['145', '148', '120', '139', '125', '134', '129', '135', '119', '141', '146', '142', '138', '113', '144'] 597.037037037037
48 11.940740740740742 ['145', '148', '120', '139', '125', '134', '129', '135', '119', '141', '146', '142', '138', '113', '144'] 597.037037037037
49 11.940740740740742 ['145', '148', '120', '139', '125', '134', '129', '135', '119', '141', '146', '142', '138', '113', '144'] 597.037037037037
50 11.940740740740742 ['145', '148', '120', '139', '125', '134', '129', '135', '119', '141', '146', '142', '138', '113', '144'] 597.037037037037
51 11.940740740740742 ['145', '148', '120', '139', '125', '134', '129', '135', '119', '141', '146', '142', '138', '113', '144'] 597.037037037037
52 11.940740740740742 ['145', '148', '120', '139', '125', '134', '129', '135', '119', '141', '146', '142', '138', '113', '144'] 597.037037037037
53 11.940740740740742 ['145', '148', '120', '139', '125', '134', '129', '135', '119', '141', '146', '142', '138', '113', '144'] 597.037037037037
54 11.940740740740742 ['145', '148', '120', '139', '125', '134', '129', '135', '119', '141', '146', '142', '138', '113', '144'] 597.037037037037
55 11.940740740740742 ['145', '148', '120', '139', '125', '134', '129', '135', '119', '141', '146', '142', '138', '113', '144'] 597.037037037037
56 11.940740740740742 ['145', '148', '120', '139', '125', '134', '129', '135', '119', '141', '146', '142', '138', '113', '144'] 597.037037037037
57 11.940740740740742 ['145', '148', '120', '139', '125', '134', '129', '135', '119', '141', '146', '142', '138', '113', '144'] 597.037037037037
58 11.940740740740742 ['145', '148', '120', '139', '125', '134', '129', '135', '119', '141', '146', '142', '138', '113', '144'] 597.037037037037
59 11.940740740740742 ['145', '148', '120', '139', '125', '134', '129', '135', '119', '141', '146', '142', '138', '113', '144'] 597.037037037037
60 11.940740740740742 ['145', '148', '120', '139', '125', '134', '129', '135', '119', '141', '146', '142', '138', '113', '144'] 597.037037037037
61 11.940740740740742 ['145', '148', '120', '139', '125', '134', '129', '135', '119', '141', '146', '142', '138', '113', '144'] 597.037037037037
62 11.940740740740742 ['145', '148', '120', '139', '125', '134', '129', '135', '119', '141', '146', '142', '138', '113', '144'] 597.037037037037
63 11.940740740740742 ['145', '148', '120', '139', '125', '134', '129', '135', '119', '141', '146', '142', '138', '113', '144'] 597.037037037037
64 11.940740740740742 ['145', '148', '120', '139', '125', '134', '129', '135', '119', '141', '146', '142', '138', '113', '144'] 597.037037037037
65 11.940740740740742 ['145', '148', '120', '139', '125', '134', '129', '135', '119', '141', '146', '142', '138', '113', '144'] 597.037037037037
66 11.940740740740742 ['145', '148', '120', '139', '125', '134', '129', '135', '119', '141', '146', '142', '138', '113', '144'] 597.037037037037
67 11.940740740740742 ['145', '148', '120', '139', '125', '134', '129', '135', '119', '141', '146', '142', '138', '113', '144'] 597.037037037037
68 11.940740740740742 ['145', '148', '120', '139', '125', '134', '129', '135', '119', '141', '146', '142', '138', '113', '144'] 597.037037037037
69 11.940740740740742 ['145', '148', '120', '139', '125', '134', '129', '135', '119', '141', '146', '142', '138', '113', '144'] 597.037037037037
70 11.940740740740742 ['145', '148', '120', '139', '125', '134', '129', '135', '119', '141', '146', '142', '138', '113', '144'] 597.037037037037
71 11.940740740740742 ['145', '148', '120', '139', '125', '134', '129', '135', '119', '141', '146', '142', '138', '113', '144'] 597.037037037037
72 11.940740740740742 ['145', '148', '120', '139', '125', '134', '129', '135', '119', '141', '146', '142', '138', '113', '144'] 597.037037037037
73 11.940740740740742 ['145', '148', '120', '139', '125', '134', '129', '135', '119', '141', '146', '142', '138', '113', '144'] 597.037037037037
74 11.940740740740742 ['145', '148', '120', '139', '125', '134', '129', '135', '119', '141', '146', '142', '138', '113', '144'] 597.037037037037
75 11.940740740740742 ['145', '148', '120', '139', '125', '134', '129', '135', '119', '141', '146', '142', '138', '113', '144'] 597.037037037037
76 11.940740740740742 ['145', '148', '120', '139', '125', '134', '129', '135', '119', '141', '146', '142', '138', '113', '144'] 597.037037037037
77 11.940740740740742 ['145', '148', '120', '139', '125', '134', '129', '135', '119', '141', '146', '142', '138', '113', '144'] 597.037037037037
78 11.940740740740742 ['145', '148', '120', '139', '125', '134', '129', '135', '119', '141', '146', '142', '138', '113', '144'] 597.037037037037
79 11.940740740740742 ['145', '148', '120', '139', '125', '134', '129', '135', '119', '141', '146', '142', '138', '113', '144'] 597.037037037037
80 11.940740740740742 ['145', '148', '120', '139', '125', '134', '129', '135', '119', '141', '146', '142', '138', '113', '144'] 597.037037037037
81 11.940740740740742 ['145', '148', '120', '139', '125', '134', '129', '135', '119', '141', '146', '142', '138', '113', '144'] 597.037037037037
82 11.940740740740742 ['145', '148', '120', '139', '125', '134', '129', '135', '119', '141', '146', '142', '138', '113', '144'] 597.037037037037
83 11.940740740740742 ['145', '148', '120', '139', '125', '134', '129', '135', '119', '141', '146', '142', '138', '113', '144'] 597.037037037037
84 11.940740740740742 ['145', '148', '120', '139', '125', '134', '129', '135', '119', '141', '146', '142', '138', '113', '144'] 597.037037037037
85 11.940740740740742 ['145', '148', '120', '139', '125', '134', '129', '135', '119', '141', '146', '142', '138', '113', '144'] 597.037037037037
86 11.940740740740742 ['145', '148', '120', '139', '125', '134', '129', '135', '119', '141', '146', '142', '138', '113', '144'] 597.037037037037
87 11.940740740740742 ['145', '148', '120', '139', '125', '134', '129', '135', '119', '141', '146', '142', '138', '113', '144'] 597.037037037037
88 11.940740740740742 ['145', '148', '120', '139', '125', '134', '129', '135', '119', '141', '146', '142', '138', '113', '144'] 597.037037037037
89 11.940740740740742 ['145', '148', '120', '139', '125', '134', '129', '135', '119', '141', '146', '142', '138', '113', '144'] 597.037037037037
90 11.940740740740742 ['145', '148', '120', '139', '125', '134', '129', '135', '119', '141', '146', '142', '138', '113', '144'] 597.037037037037
91 11.940740740740742 ['145', '148', '120', '139', '125', '134', '129', '135', '119', '141', '146', '142', '138', '113', '144'] 597.037037037037
92 11.940740740740742 ['145', '148', '120', '139', '125', '134', '129', '135', '119', '141', '146', '142', '138', '113', '144'] 597.037037037037
93 11.940740740740742 ['145', '148', '120', '139', '125', '134', '129', '135', '119', '141', '146', '142', '138', '113', '144'] 597.037037037037
94 11.940740740740742 ['145', '148', '120', '139', '125', '134', '129', '135', '119', '141', '146', '142', '138', '113', '144'] 597.037037037037
95 11.940740740740742 ['145', '148', '120', '139', '125', '134', '129', '135', '119', '141', '146', '142', '138', '113', '144'] 597.037037037037
96 11.940740740740742 ['145', '148', '120', '139', '125', '134', '129', '135', '119', '141', '146', '142', '138', '113', '144'] 597.037037037037
97 11.940740740740742 ['145', '148', '120', '139', '125', '134', '129', '135', '119', '141', '146', '142', '138', '113', '144'] 597.037037037037
98 11.940740740740742 ['145', '148', '120', '139', '125', '134', '129', '135', '119', '141', '146', '142', '138', '113', '144'] 597.037037037037
99 11.940740740740742 ['145', '148', '120', '139', '125', '134', '129', '135', '119', '141', '146', '142', '138', '113', '144'] 597.037037037037
100 11.940740740740742 ['145', '148', '120', '139', '125', '134', '129', '135', '119', '141', '146', '142', '138', '113', '144'] 597.037037037037
101 11.940740740740742 ['145', '148', '120', '139', '125', '134', '129', '135', '119', '141', '146', '142', '138', '113', '144'] 597.037037037037
102 11.940740740740742 ['145', '148', '120', '139', '125', '134', '129', '135', '119', '141', '146', '142', '138', '113', '144'] 597.037037037037
103 11.940740740740742 ['145', '148', '120', '139', '125', '134', '129', '135', '119', '141', '146', '142', '138', '113', '144'] 597.037037037037
104 11.940740740740742 ['145', '148', '120', '139', '125', '134', '129', '135', '119', '141', '146', '142', '138', '113', '144'] 597.037037037037
105 11.940740740740742 ['145', '148', '120', '139', '125', '134', '129', '135', '119', '141', '146', '142', '138', '113', '144'] 597.037037037037
106 11.940740740740742 ['145', '148', '120', '139', '125', '134', '129', '135', '119', '141', '146', '142', '138', '113', '144'] 597.037037037037
107 11.940740740740742 ['145', '148', '120', '139', '125', '134', '129', '135', '119', '141', '146', '142', '138', '113', '144'] 597.037037037037
108 11.940740740740742 ['145', '148', '120', '139', '125', '134', '129', '135', '119', '141', '146', '142', '138', '113', '144'] 597.037037037037
109 11.940740740740742 ['145', '148', '120', '139', '125', '134', '129', '135', '119', '141', '146', '142', '138', '113', '144'] 597.037037037037
110 11.940740740740742 ['145', '148', '120', '139', '125', '134', '129', '135', '119', '141', '146', '142', '138', '113', '144'] 597.037037037037
111 11.940740740740742 ['145', '148', '120', '139', '125', '134', '129', '135', '119', '141', '146', '142', '138', '113', '144'] 597.037037037037
112 11.940740740740742 ['145', '148', '120', '139', '125', '134', '129', '135', '119', '141', '146', '142', '138', '113', '144'] 597.037037037037
113 11.940740740740742 ['145', '148', '120', '139', '125', '134', '129', '135', '119', '141', '146', '142', '138', '113', '144'] 597.037037037037
114 11.940740740740742 ['145', '148', '120', '139', '125', '134', '129', '135', '119', '141', '146', '142', '138', '113', '144'] 597.037037037037
115 11.940740740740742 ['145', '148', '120', '139', '125', '134', '129', '135', '119', '141', '146', '142', '138', '113', '144'] 597.037037037037
116 11.940740740740742 ['145', '148', '120', '139', '125', '134', '129', '135', '119', '141', '146', '142', '138', '113', '144'] 597.037037037037
117 11.940740740740742 ['145', '148', '120', '139', '125', '134', '129', '135', '119', '141', '146', '142', '138', '113', '144'] 597.037037037037
118 11.940740740740742 ['145', '148', '120', '139', '125', '134', '129', '135', '119', '141', '146', '142', '138', '113', '144'] 597.037037037037
119 11.940740740740742 ['145', '148', '120', '139', '125', '134', '129', '135', '119', '141', '146', '142', '138', '113', '144'] 597.037037037037
120 11.940740740740742 ['145', '148', '120', '139', '125', '134', '129', '135', '119', '141', '146', '142', '138', '113', '144'] 597.037037037037
121 11.940740740740742 ['145', '148', '120', '139', '125', '134', '129', '135', '119', '141', '146', '142', '138', '113', '144'] 597.037037037037
122 11.940740740740742 ['145', '148', '120', '139', '125', '134', '129', '135', '119', '141', '146', '142', '138', '113', '144'] 597.037037037037
123 11.940740740740742 ['145', '148', '120', '139', '125', '134', '129', '135', '119', '141', '146', '142', '138', '113', '144'] 597.037037037037
124 11.940740740740742 ['145', '148', '120', '139', '125', '134', '129', '135', '119', '141', '146', '142', '138', '113', '144'] 597.037037037037
125 11.940740740740742 ['145', '148', '120', '139', '125', '134', '129', '135', '119', '141', '146', '142', '138', '113', '144'] 597.037037037037
126 11.940740740740742 ['145', '148', '120', '139', '125', '134', '129', '135', '119', '141', '146', '142', '138', '113', '144'] 597.037037037037
127 11.940740740740742 ['145', '148', '120', '139', '125', '134', '129', '135', '119', '141', '146', '142', '138', '113', '144'] 597.037037037037
128 11.940740740740742 ['145', '148', '120', '139', '125', '134', '129', '135', '119', '141', '146', '142', '138', '113', '144'] 597.037037037037
129 11.940740740740742 ['145', '148', '120', '139', '125', '134', '129', '135', '119', '141', '146', '142', '138', '113', '144'] 597.037037037037
130 11.940740740740742 ['145', '148', '120', '139', '125', '134', '129', '135', '119', '141', '146', '142', '138', '113', '144'] 597.037037037037
131 11.940740740740742 ['145', '148', '120', '139', '125', '134', '129', '135', '119', '141', '146', '142', '138', '113', '144'] 597.037037037037
132 11.940740740740742 ['145', '148', '120', '139', '125', '134', '129', '135', '119', '141', '146', '142', '138', '113', '144'] 597.037037037037
133 11.940740740740742 ['145', '148', '120', '139', '125', '134', '129', '135', '119', '141', '146', '142', '138', '113', '144'] 597.037037037037
134 11.940740740740742 ['145', '148', '120', '139', '125', '134', '129', '135', '119', '141', '146', '142', '138', '113', '144'] 597.037037037037
135 11.940740740740742 ['145', '148', '120', '139', '125', '134', '129', '135', '119', '141', '146', '142', '138', '113', '144'] 597.037037037037
136 11.940740740740742 ['145', '148', '120', '139', '125', '134', '129', '135', '119', '141', '146', '142', '138', '113', '144'] 597.037037037037
137 11.940740740740742 ['145', '148', '120', '139', '125', '134', '129', '135', '119', '141', '146', '142', '138', '113', '144'] 597.037037037037
138 11.940740740740742 ['145', '148', '120', '139', '125', '134', '129', '135', '119', '141', '146', '142', '138', '113', '144'] 597.037037037037
139 11.940740740740742 ['145', '148', '120', '139', '125', '134', '129', '135', '119', '141', '146', '142', '138', '113', '144'] 597.037037037037
140 11.940740740740742 ['145', '148', '120', '139', '125', '134', '129', '135', '119', '141', '146', '142', '138', '113', '144'] 597.037037037037
141 11.940740740740742 ['145', '148', '120', '139', '125', '134', '129', '135', '119', '141', '146', '142', '138', '113', '144'] 597.037037037037
142 11.940740740740742 ['145', '148', '120', '139', '125', '134', '129', '135', '119', '141', '146', '142', '138', '113', '144'] 597.037037037037
143 11.940740740740742 ['145', '148', '120', '139', '125', '134', '129', '135', '119', '141', '146', '142', '138', '113', '144'] 597.037037037037
144 11.940740740740742 ['145', '148', '120', '139', '125', '134', '129', '135', '119', '141', '146', '142', '138', '113', '144'] 597.037037037037
145 11.940740740740742 ['145', '148', '120', '139', '125', '134', '129', '135', '119', '141', '146', '142', '138', '113', '144'] 597.037037037037
146 11.940740740740742 ['145', '148', '120', '139', '125', '134', '129', '135', '119', '141', '146', '142', '138', '113', '144'] 597.037037037037
147 11.940740740740742 ['145', '148', '120', '139', '125', '134', '129', '135', '119', '141', '146', '142', '138', '113', '144'] 597.037037037037
148 11.940740740740742 ['145', '148', '120', '139', '125', '134', '129', '135', '119', '141', '146', '142', '138', '113', '144'] 597.037037037037
149 11.940740740740742 ['145', '148', '120', '139', '125', '134', '129', '135', '119', '141', '146', '142', '138', '113', '144'] 597.037037037037
150 11.940740740740742 ['145', '148', '120', '139', '125', '134', '129', '135', '119', '141', '146', '142', '138', '113', '144'] 597.037037037037
151 11.940740740740742 ['145', '148', '120', '139', '125', '134', '129', '135', '119', '141', '146', '142', '138', '113', '144'] 597.037037037037
152 11.940740740740742 ['145', '148', '120', '139', '125', '134', '129', '135', '119', '141', '146', '142', '138', '113', '144'] 597.037037037037
153 11.940740740740742 ['145', '148', '120', '139', '125', '134', '129', '135', '119', '141', '146', '142', '138', '113', '144'] 597.037037037037
154 11.940740740740742 ['145', '148', '120', '139', '125', '134', '129', '135', '119', '141', '146', '142', '138', '113', '144'] 597.037037037037
155 11.940740740740742 ['145', '148', '120', '139', '125', '134', '129', '135', '119', '141', '146', '142', '138', '113', '144'] 597.037037037037
156 11.940740740740742 ['145', '148', '120', '139', '125', '134', '129', '135', '119', '141', '146', '142', '138', '113', '144'] 597.037037037037
157 11.940740740740742 ['145', '148', '120', '139', '125', '134', '129', '135', '119', '141', '146', '142', '138', '113', '144'] 597.037037037037
158 11.940740740740742 ['145', '148', '120', '139', '125', '134', '129', '135', '119', '141', '146', '142', '138', '113', '144'] 597.037037037037
159 11.940740740740742 ['145', '148', '120', '139', '125', '134', '129', '135', '119', '141', '146', '142', '138', '113', '144'] 597.037037037037
160 11.940740740740742 ['145', '148', '120', '139', '125', '134', '129', '135', '119', '141', '146', '142', '138', '113', '144'] 597.037037037037
161 11.940740740740742 ['145', '148', '120', '139', '125', '134', '129', '135', '119', '141', '146', '142', '138', '113', '144'] 597.037037037037
162 11.940740740740742 ['145', '148', '120', '139', '125', '134', '129', '135', '119', '141', '146', '142', '138', '113', '144'] 597.037037037037
163 11.940740740740742 ['145', '148', '120', '139', '125', '134', '129', '135', '119', '141', '146', '142', '138', '113', '144'] 597.037037037037
164 11.940740740740742 ['145', '148', '120', '139', '125', '134', '129', '135', '119', '141', '146', '142', '138', '113', '144'] 597.037037037037
165 11.940740740740742 ['145', '148', '120', '139', '125', '134', '129', '135', '119', '141', '146', '142', '138', '113', '144'] 597.037037037037
166 11.940740740740742 ['145', '148', '120', '139', '125', '134', '129', '135', '119', '141', '146', '142', '138', '113', '144'] 597.037037037037
167 11.940740740740742 ['145', '148', '120', '139', '125', '134', '129', '135', '119', '141', '146', '142', '138', '113', '144'] 597.037037037037
168 11.940740740740742 ['145', '148', '120', '139', '125', '134', '129', '135', '119', '141', '146', '142', '138', '113', '144'] 597.037037037037
169 11.940740740740742 ['145', '148', '120', '139', '125', '134', '129', '135', '119', '141', '146', '142', '138', '113', '144'] 597.037037037037
170 11.940740740740742 ['145', '148', '120', '139', '125', '134', '129', '135', '119', '141', '146', '142', '138', '113', '144'] 597.037037037037
171 11.940740740740742 ['145', '148', '120', '139', '125', '134', '129', '135', '119', '141', '146', '142', '138', '113', '144'] 597.037037037037
172 11.940740740740742 ['145', '148', '120', '139', '125', '134', '129', '135', '119', '141', '146', '142', '138', '113', '144'] 597.037037037037
173 11.940740740740742 ['145', '148', '120', '139', '125', '134', '129', '135', '119', '141', '146', '142', '138', '113', '144'] 597.037037037037
174 11.940740740740742 ['145', '148', '120', '139', '125', '134', '129', '135', '119', '141', '146', '142', '138', '113', '144'] 597.037037037037
175 11.940740740740742 ['145', '148', '120', '139', '125', '134', '129', '135', '119', '141', '146', '142', '138', '113', '144'] 597.037037037037
176 11.940740740740742 ['145', '148', '120', '139', '125', '134', '129', '135', '119', '141', '146', '142', '138', '113', '144'] 597.037037037037
177 11.940740740740742 ['145', '148', '120', '139', '125', '134', '129', '135', '119', '141', '146', '142', '138', '113', '144'] 597.037037037037
178 11.940740740740742 ['145', '148', '120', '139', '125', '134', '129', '135', '119', '141', '146', '142', '138', '113', '144'] 597.037037037037
179 11.940740740740742 ['145', '148', '120', '139', '125', '134', '129', '135', '119', '141', '146', '142', '138', '113', '144'] 597.037037037037
180 11.940740740740742 ['145', '148', '120', '139', '125', '134', '129', '135', '119', '141', '146', '142', '138', '113', '144'] 597.037037037037
181 11.940740740740742 ['145', '148', '120', '139', '125', '134', '129', '135', '119', '141', '146', '142', '138', '113', '144'] 597.037037037037
182 11.940740740740742 ['145', '148', '120', '139', '125', '134', '129', '135', '119', '141', '146', '142', '138', '113', '144'] 597.037037037037
183 11.940740740740742 ['145', '148', '120', '139', '125', '134', '129', '135', '119', '141', '146', '142', '138', '113', '144'] 597.037037037037
184 11.940740740740742 ['145', '148', '120', '139', '125', '134', '129', '135', '119', '141', '146', '142', '138', '113', '144'] 597.037037037037
185 11.940740740740742 ['145', '148', '120', '139', '125', '134', '129', '135', '119', '141', '146', '142', '138', '113', '144'] 597.037037037037
186 11.940740740740742 ['145', '148', '120', '139', '125', '134', '129', '135', '119', '141', '146', '142', '138', '113', '144'] 597.037037037037
187 11.940740740740742 ['145', '148', '120', '139', '125', '134', '129', '135', '119', '141', '146', '142', '138', '113', '144'] 597.037037037037
188 11.940740740740742 ['145', '148', '120', '139', '125', '134', '129', '135', '119', '141', '146', '142', '138', '113', '144'] 597.037037037037
189 11.940740740740742 ['145', '148', '120', '139', '125', '134', '129', '135', '119', '141', '146', '142', '138', '113', '144'] 597.037037037037
190 11.940740740740742 ['145', '148', '120', '139', '125', '134', '129', '135', '119', '141', '146', '142', '138', '113', '144'] 597.037037037037
191 11.940740740740742 ['145', '148', '120', '139', '125', '134', '129', '135', '119', '141', '146', '142', '138', '113', '144'] 597.037037037037
192 11.940740740740742 ['145', '148', '120', '139', '125', '134', '129', '135', '119', '141', '146', '142', '138', '113', '144'] 597.037037037037
193 11.940740740740742 ['145', '148', '120', '139', '125', '134', '129', '135', '119', '141', '146', '142', '138', '113', '144'] 597.037037037037
194 11.940740740740742 ['145', '148', '120', '139', '125', '134', '129', '135', '119', '141', '146', '142', '138', '113', '144'] 597.037037037037
195 11.940740740740742 ['145', '148', '120', '139', '125', '134', '129', '135', '119', '141', '146', '142', '138', '113', '144'] 597.037037037037
196 11.940740740740742 ['145', '148', '120', '139', '125', '134', '129', '135', '119', '141', '146', '142', '138', '113', '144'] 597.037037037037
197 11.940740740740742 ['145', '148', '120', '139', '125', '134', '129', '135', '119', '141', '146', '142', '138', '113', '144'] 597.037037037037
198 11.940740740740742 ['145', '148', '120', '139', '125', '134', '129', '135', '119', '141', '146', '142', '138', '113', '144'] 597.037037037037
199 11.940740740740742 ['145', '148', '120', '139', '125', '134', '129', '135', '119', '141', '146', '142', '138', '113', '144'] 597.037037037037
