0 22.29787234042553 ['44', '6', '49', '2', '40'] 1244.8510638297876
1 21.617021276595743 ['47', '37', '28', '6', '35'] 1196.9361702127665
2 20.851063829787233 ['28', '51', '6', '44', '38'] 1149.787234042553
3 20.25531914893617 ['30', '39', '37', '45', '6'] 1107.9999999999998
4 19.48936170212766 ['28', '37', '49', '6', '30'] 1074.2978723404253
5 19.48936170212766 ['28', '37', '49', '6', '30'] 1041.3617021276598
6 18.80851063829787 ['6', '28', '49', '52', '37'] 1011.3191489361708
7 18.80851063829787 ['6', '28', '49', '52', '37'] 996.8510638297878
8 18.80851063829787 ['6', '28', '49', '52', '37'] 983.4893617021276
9 18.80851063829787 ['6', '28', '49', '52', '37'] 972.2553191489351
10 18.80851063829787 ['6', '28', '49', '52', '37'] 964.6808510638296
11 18.80851063829787 ['6', '28', '49', '52', '37'] 955.9999999999993
12 18.638297872340427 ['6', '37', '28', '44', '52'] 943.9148936170213
13 18.638297872340427 ['6', '37', '28', '44', '52'] 940.0851063829792
14 18.638297872340427 ['6', '37', '28', '44', '52'] 940.0851063829792
15 18.638297872340427 ['6', '37', '28', '44', '52'] 939.7446808510643
16 18.638297872340427 ['6', '37', '28', '44', '52'] 938.3829787234048
17 18.638297872340427 ['6', '37', '28', '44', '52'] 936.3404255319155
18 18.638297872340427 ['6', '37', '28', '44', '52'] 931.9148936170219
19 18.638297872340427 ['6', '37', '28', '44', '52'] 931.9148936170219
20 18.638297872340427 ['6', '37', '28', '44', '52'] 931.9148936170219
21 18.638297872340427 ['6', '37', '28', '44', '52'] 931.9148936170219
22 18.638297872340427 ['6', '37', '28', '44', '52'] 931.9148936170219
23 18.638297872340427 ['6', '37', '28', '44', '52'] 931.9148936170219
24 18.638297872340427 ['6', '37', '28', '44', '52'] 931.9148936170219
25 18.638297872340427 ['6', '37', '28', '44', '52'] 931.9148936170219
26 18.638297872340427 ['6', '37', '28', '44', '52'] 931.9148936170219
27 18.638297872340427 ['6', '37', '28', '44', '52'] 931.9148936170219
28 18.638297872340427 ['6', '37', '28', '44', '52'] 931.9148936170219
29 18.638297872340427 ['6', '37', '28', '44', '52'] 931.9148936170219
30 18.638297872340427 ['6', '37', '28', '44', '52'] 931.9148936170219
31 18.638297872340427 ['6', '37', '28', '44', '52'] 931.9148936170219
32 18.638297872340427 ['6', '37', '28', '44', '52'] 931.9148936170219
33 18.638297872340427 ['6', '37', '28', '44', '52'] 931.9148936170219
34 18.638297872340427 ['6', '37', '28', '44', '52'] 931.9148936170219
35 18.638297872340427 ['6', '37', '28', '44', '52'] 931.9148936170219
36 18.638297872340427 ['6', '37', '28', '44', '52'] 931.9148936170219
37 18.638297872340427 ['6', '37', '28', '44', '52'] 931.9148936170219
38 18.638297872340427 ['6', '37', '28', '44', '52'] 931.9148936170219
39 18.638297872340427 ['6', '37', '28', '44', '52'] 931.9148936170219
40 18.638297872340427 ['6', '37', '28', '44', '52'] 931.9148936170219
41 18.638297872340427 ['6', '37', '28', '44', '52'] 931.9148936170219
42 18.638297872340427 ['6', '37', '28', '44', '52'] 931.9148936170219
43 18.638297872340427 ['6', '37', '28', '44', '52'] 931.9148936170219
44 18.638297872340427 ['6', '37', '28', '44', '52'] 931.9148936170219
45 18.638297872340427 ['6', '37', '28', '44', '52'] 931.9148936170219
46 18.638297872340427 ['6', '37', '28', '44', '52'] 931.9148936170219
47 18.638297872340427 ['6', '37', '28', '44', '52'] 931.9148936170219
48 18.638297872340427 ['6', '37', '28', '44', '52'] 931.9148936170219
49 18.638297872340427 ['6', '37', '28', '44', '52'] 931.9148936170219
50 18.638297872340427 ['6', '37', '28', '44', '52'] 931.9148936170219
51 18.638297872340427 ['6', '37', '28', '44', '52'] 931.9148936170219
52 18.638297872340427 ['6', '37', '28', '44', '52'] 931.9148936170219
53 18.638297872340427 ['6', '37', '28', '44', '52'] 931.9148936170219
54 18.638297872340427 ['6', '37', '28', '44', '52'] 931.9148936170219
55 18.638297872340427 ['6', '37', '28', '44', '52'] 931.9148936170219
56 18.638297872340427 ['6', '37', '28', '44', '52'] 931.9148936170219
57 18.638297872340427 ['6', '37', '28', '44', '52'] 931.9148936170219
58 18.638297872340427 ['6', '37', '28', '44', '52'] 931.9148936170219
59 18.638297872340427 ['6', '37', '28', '44', '52'] 931.9148936170219
60 18.638297872340427 ['6', '37', '28', '44', '52'] 931.9148936170219
61 18.638297872340427 ['6', '37', '28', '44', '52'] 931.9148936170219
62 18.638297872340427 ['6', '37', '28', '44', '52'] 931.9148936170219
63 18.638297872340427 ['6', '37', '28', '44', '52'] 931.9148936170219
64 18.638297872340427 ['6', '37', '28', '44', '52'] 931.9148936170219
65 18.638297872340427 ['6', '37', '28', '44', '52'] 931.9148936170219
66 18.638297872340427 ['6', '37', '28', '44', '52'] 931.9148936170219
67 18.638297872340427 ['6', '37', '28', '44', '52'] 931.9148936170219
68 18.638297872340427 ['6', '37', '28', '44', '52'] 931.9148936170219
69 18.638297872340427 ['6', '37', '28', '44', '52'] 931.9148936170219
70 18.638297872340427 ['6', '37', '28', '44', '52'] 931.9148936170219
71 18.638297872340427 ['6', '37', '28', '44', '52'] 931.9148936170219
72 18.638297872340427 ['6', '37', '28', '44', '52'] 931.9148936170219
73 18.638297872340427 ['6', '37', '28', '44', '52'] 931.9148936170219
74 18.638297872340427 ['6', '37', '28', '44', '52'] 931.9148936170219
75 18.638297872340427 ['6', '37', '28', '44', '52'] 931.9148936170219
76 18.638297872340427 ['6', '37', '28', '44', '52'] 931.9148936170219
77 18.638297872340427 ['6', '37', '28', '44', '52'] 931.9148936170219
78 18.638297872340427 ['6', '37', '28', '44', '52'] 931.9148936170219
79 18.638297872340427 ['6', '37', '28', '44', '52'] 931.9148936170219
80 18.638297872340427 ['6', '37', '28', '44', '52'] 931.9148936170219
81 18.638297872340427 ['6', '37', '28', '44', '52'] 931.9148936170219
82 18.638297872340427 ['6', '37', '28', '44', '52'] 931.9148936170219
83 18.638297872340427 ['6', '37', '28', '44', '52'] 931.9148936170219
84 18.638297872340427 ['6', '37', '28', '44', '52'] 931.9148936170219
85 18.638297872340427 ['6', '37', '28', '44', '52'] 931.9148936170219
86 18.638297872340427 ['6', '37', '28', '44', '52'] 931.9148936170219
87 18.638297872340427 ['6', '37', '28', '44', '52'] 931.9148936170219
88 18.638297872340427 ['6', '37', '28', '44', '52'] 931.9148936170219
89 18.638297872340427 ['6', '37', '28', '44', '52'] 931.9148936170219
90 18.638297872340427 ['6', '37', '28', '44', '52'] 931.9148936170219
91 18.638297872340427 ['6', '37', '28', '44', '52'] 931.9148936170219
92 18.638297872340427 ['6', '37', '28', '44', '52'] 931.9148936170219
93 18.638297872340427 ['6', '37', '28', '44', '52'] 931.9148936170219
94 18.638297872340427 ['6', '37', '28', '44', '52'] 931.9148936170219
95 18.638297872340427 ['6', '37', '28', '44', '52'] 931.9148936170219
96 18.638297872340427 ['6', '37', '28', '44', '52'] 931.9148936170219
97 18.638297872340427 ['6', '37', '28', '44', '52'] 931.9148936170219
98 18.638297872340427 ['6', '37', '28', '44', '52'] 931.9148936170219
99 18.638297872340427 ['6', '37', '28', '44', '52'] 931.9148936170219
100 18.638297872340427 ['6', '37', '28', '44', '52'] 931.9148936170219
101 18.638297872340427 ['6', '37', '28', '44', '52'] 931.9148936170219
102 18.638297872340427 ['6', '37', '28', '44', '52'] 931.9148936170219
103 18.638297872340427 ['6', '37', '28', '44', '52'] 931.9148936170219
104 18.638297872340427 ['6', '37', '28', '44', '52'] 931.9148936170219
105 18.638297872340427 ['6', '37', '28', '44', '52'] 931.9148936170219
106 18.638297872340427 ['6', '37', '28', '44', '52'] 931.9148936170219
107 18.638297872340427 ['6', '37', '28', '44', '52'] 931.9148936170219
108 18.638297872340427 ['6', '37', '28', '44', '52'] 931.9148936170219
109 18.638297872340427 ['6', '37', '28', '44', '52'] 931.9148936170219
110 18.638297872340427 ['6', '37', '28', '44', '52'] 931.9148936170219
111 18.638297872340427 ['6', '37', '28', '44', '52'] 931.9148936170219
112 18.638297872340427 ['6', '37', '28', '44', '52'] 931.9148936170219
113 18.638297872340427 ['6', '37', '28', '44', '52'] 931.9148936170219
114 18.638297872340427 ['6', '37', '28', '44', '52'] 931.9148936170219
115 18.638297872340427 ['6', '37', '28', '44', '52'] 931.9148936170219
116 18.638297872340427 ['6', '37', '28', '44', '52'] 931.9148936170219
117 18.638297872340427 ['6', '37', '28', '44', '52'] 931.9148936170219
118 18.638297872340427 ['6', '37', '28', '44', '52'] 931.9148936170219
119 18.638297872340427 ['6', '37', '28', '44', '52'] 931.9148936170219
120 18.638297872340427 ['6', '37', '28', '44', '52'] 931.9148936170219
121 18.638297872340427 ['6', '37', '28', '44', '52'] 931.9148936170219
122 18.638297872340427 ['6', '37', '28', '44', '52'] 931.9148936170219
123 18.638297872340427 ['6', '37', '28', '44', '52'] 931.9148936170219
124 18.638297872340427 ['6', '37', '28', '44', '52'] 931.9148936170219
125 18.638297872340427 ['6', '37', '28', '44', '52'] 931.9148936170219
126 18.638297872340427 ['6', '37', '28', '44', '52'] 931.9148936170219
127 18.638297872340427 ['6', '37', '28', '44', '52'] 931.9148936170219
128 18.638297872340427 ['6', '37', '28', '44', '52'] 931.9148936170219
129 18.638297872340427 ['6', '37', '28', '44', '52'] 931.9148936170219
130 18.638297872340427 ['6', '37', '28', '44', '52'] 931.9148936170219
131 18.638297872340427 ['6', '37', '28', '44', '52'] 931.9148936170219
132 18.638297872340427 ['6', '37', '28', '44', '52'] 931.9148936170219
133 18.638297872340427 ['6', '37', '28', '44', '52'] 931.9148936170219
134 18.638297872340427 ['6', '37', '28', '44', '52'] 931.9148936170219
135 18.638297872340427 ['6', '37', '28', '44', '52'] 931.9148936170219
136 18.638297872340427 ['6', '37', '28', '44', '52'] 931.9148936170219
137 18.638297872340427 ['6', '37', '28', '44', '52'] 931.9148936170219
138 18.638297872340427 ['6', '37', '28', '44', '52'] 931.9148936170219
139 18.638297872340427 ['6', '37', '28', '44', '52'] 931.9148936170219
140 18.638297872340427 ['6', '37', '28', '44', '52'] 931.9148936170219
141 18.638297872340427 ['6', '37', '28', '44', '52'] 931.9148936170219
142 18.638297872340427 ['6', '37', '28', '44', '52'] 931.9148936170219
143 18.638297872340427 ['6', '37', '28', '44', '52'] 931.9148936170219
144 18.638297872340427 ['6', '37', '28', '44', '52'] 931.9148936170219
145 18.638297872340427 ['6', '37', '28', '44', '52'] 931.9148936170219
146 18.638297872340427 ['6', '37', '28', '44', '52'] 931.9148936170219
147 18.638297872340427 ['6', '37', '28', '44', '52'] 931.9148936170219
148 18.638297872340427 ['6', '37', '28', '44', '52'] 931.9148936170219
149 18.638297872340427 ['6', '37', '28', '44', '52'] 931.9148936170219
150 18.638297872340427 ['6', '37', '28', '44', '52'] 931.9148936170219
151 18.638297872340427 ['6', '37', '28', '44', '52'] 931.9148936170219
152 18.638297872340427 ['6', '37', '28', '44', '52'] 931.9148936170219
153 18.638297872340427 ['6', '37', '28', '44', '52'] 931.9148936170219
154 18.638297872340427 ['6', '37', '28', '44', '52'] 931.9148936170219
155 18.638297872340427 ['6', '37', '28', '44', '52'] 931.9148936170219
156 18.638297872340427 ['6', '37', '28', '44', '52'] 931.9148936170219
157 18.638297872340427 ['6', '37', '28', '44', '52'] 931.9148936170219
158 18.638297872340427 ['6', '37', '28', '44', '52'] 931.9148936170219
159 18.638297872340427 ['6', '37', '28', '44', '52'] 931.9148936170219
160 18.638297872340427 ['6', '37', '28', '44', '52'] 931.9148936170219
161 18.638297872340427 ['6', '37', '28', '44', '52'] 931.9148936170219
162 18.638297872340427 ['6', '37', '28', '44', '52'] 931.9148936170219
163 18.638297872340427 ['6', '37', '28', '44', '52'] 931.9148936170219
164 18.638297872340427 ['6', '37', '28', '44', '52'] 931.9148936170219
165 18.638297872340427 ['6', '37', '28', '44', '52'] 931.9148936170219
166 18.638297872340427 ['6', '37', '28', '44', '52'] 931.9148936170219
167 18.638297872340427 ['6', '37', '28', '44', '52'] 931.9148936170219
168 18.638297872340427 ['6', '37', '28', '44', '52'] 931.9148936170219
169 18.638297872340427 ['6', '37', '28', '44', '52'] 931.9148936170219
170 18.638297872340427 ['6', '37', '28', '44', '52'] 931.9148936170219
171 18.638297872340427 ['6', '37', '28', '44', '52'] 931.9148936170219
172 18.638297872340427 ['6', '37', '28', '44', '52'] 931.9148936170219
173 18.638297872340427 ['6', '37', '28', '44', '52'] 931.9148936170219
174 18.638297872340427 ['6', '37', '28', '44', '52'] 931.9148936170219
175 18.638297872340427 ['6', '37', '28', '44', '52'] 931.9148936170219
176 18.638297872340427 ['6', '37', '28', '44', '52'] 931.9148936170219
177 18.638297872340427 ['6', '37', '28', '44', '52'] 931.9148936170219
178 18.638297872340427 ['6', '37', '28', '44', '52'] 931.9148936170219
179 18.638297872340427 ['6', '37', '28', '44', '52'] 931.9148936170219
180 18.638297872340427 ['6', '37', '28', '44', '52'] 931.9148936170219
181 18.638297872340427 ['6', '37', '28', '44', '52'] 931.9148936170219
182 18.638297872340427 ['6', '37', '28', '44', '52'] 931.9148936170219
183 18.638297872340427 ['6', '37', '28', '44', '52'] 931.9148936170219
184 18.638297872340427 ['6', '37', '28', '44', '52'] 931.9148936170219
185 18.638297872340427 ['6', '37', '28', '44', '52'] 931.9148936170219
186 18.638297872340427 ['6', '37', '28', '44', '52'] 931.9148936170219
187 18.638297872340427 ['6', '37', '28', '44', '52'] 931.9148936170219
188 18.638297872340427 ['6', '37', '28', '44', '52'] 931.9148936170219
189 18.638297872340427 ['6', '37', '28', '44', '52'] 931.9148936170219
190 18.638297872340427 ['6', '37', '28', '44', '52'] 931.9148936170219
191 18.638297872340427 ['6', '37', '28', '44', '52'] 931.9148936170219
192 18.638297872340427 ['6', '37', '28', '44', '52'] 931.9148936170219
193 18.638297872340427 ['6', '37', '28', '44', '52'] 931.9148936170219
194 18.638297872340427 ['6', '37', '28', '44', '52'] 931.9148936170219
195 18.638297872340427 ['6', '37', '28', '44', '52'] 931.9148936170219
196 18.638297872340427 ['6', '37', '28', '44', '52'] 931.9148936170219
197 18.638297872340427 ['6', '37', '28', '44', '52'] 931.9148936170219
198 18.638297872340427 ['6', '37', '28', '44', '52'] 931.9148936170219
199 18.638297872340427 ['6', '37', '28', '44', '52'] 931.9148936170219
