0 6.708333333333333 ['22', '21'] 350.8749999999999
1 6.708333333333333 ['22', '21'] 346.7916666666668
2 6.708333333333333 ['22', '21'] 343.7916666666667
3 6.708333333333333 ['22', '21'] 341.12500000000006
4 6.708333333333333 ['22', '21'] 338.5000000000001
5 6.708333333333333 ['22', '21'] 337.16666666666686
6 6.708333333333333 ['22', '21'] 335.4166666666666
7 6.708333333333333 ['22', '21'] 335.4166666666666
8 6.708333333333333 ['22', '21'] 335.4166666666666
9 6.708333333333333 ['22', '21'] 335.4166666666666
10 6.708333333333333 ['22', '21'] 335.4166666666666
11 6.708333333333333 ['22', '21'] 335.4166666666666
12 6.708333333333333 ['22', '21'] 335.4166666666666
13 6.708333333333333 ['22', '21'] 335.4166666666666
14 6.708333333333333 ['22', '21'] 335.4166666666666
15 6.708333333333333 ['22', '21'] 335.4166666666666
16 6.708333333333333 ['22', '21'] 335.4166666666666
17 6.708333333333333 ['22', '21'] 335.4166666666666
18 6.708333333333333 ['22', '21'] 335.4166666666666
19 6.708333333333333 ['22', '21'] 335.4166666666666
20 6.708333333333333 ['22', '21'] 335.4166666666666
21 6.708333333333333 ['22', '21'] 335.4166666666666
22 6.708333333333333 ['22', '21'] 335.4166666666666
23 6.708333333333333 ['22', '21'] 335.4166666666666
24 6.708333333333333 ['22', '21'] 335.4166666666666
25 6.708333333333333 ['22', '21'] 335.4166666666666
26 6.708333333333333 ['22', '21'] 335.4166666666666
27 6.708333333333333 ['22', '21'] 335.4166666666666
28 6.708333333333333 ['22', '21'] 335.4166666666666
29 6.708333333333333 ['22', '21'] 335.4166666666666
30 6.708333333333333 ['22', '21'] 335.4166666666666
31 6.708333333333333 ['22', '21'] 335.4166666666666
32 6.708333333333333 ['22', '21'] 335.4166666666666
33 6.708333333333333 ['22', '21'] 335.4166666666666
34 6.708333333333333 ['22', '21'] 335.4166666666666
35 6.708333333333333 ['22', '21'] 335.4166666666666
36 6.708333333333333 ['22', '21'] 335.4166666666666
37 6.708333333333333 ['22', '21'] 335.4166666666666
38 6.708333333333333 ['22', '21'] 335.4166666666666
39 6.708333333333333 ['22', '21'] 335.4166666666666
40 6.708333333333333 ['22', '21'] 335.4166666666666
41 6.708333333333333 ['22', '21'] 335.4166666666666
42 6.708333333333333 ['22', '21'] 335.4166666666666
43 6.708333333333333 ['22', '21'] 335.4166666666666
44 6.708333333333333 ['22', '21'] 335.4166666666666
45 6.708333333333333 ['22', '21'] 335.4166666666666
46 6.708333333333333 ['22', '21'] 335.4166666666666
47 6.708333333333333 ['22', '21'] 335.4166666666666
48 6.708333333333333 ['22', '21'] 335.4166666666666
49 6.708333333333333 ['22', '21'] 335.4166666666666
50 6.708333333333333 ['22', '21'] 335.4166666666666
51 6.708333333333333 ['22', '21'] 335.4166666666666
52 6.708333333333333 ['22', '21'] 335.4166666666666
53 6.708333333333333 ['22', '21'] 335.4166666666666
54 6.708333333333333 ['22', '21'] 335.4166666666666
55 6.708333333333333 ['22', '21'] 335.4166666666666
56 6.708333333333333 ['22', '21'] 335.4166666666666
57 6.708333333333333 ['22', '21'] 335.4166666666666
58 6.708333333333333 ['22', '21'] 335.4166666666666
59 6.708333333333333 ['22', '21'] 335.4166666666666
60 6.708333333333333 ['22', '21'] 335.4166666666666
61 6.708333333333333 ['22', '21'] 335.4166666666666
62 6.708333333333333 ['22', '21'] 335.4166666666666
63 6.708333333333333 ['22', '21'] 335.4166666666666
64 6.708333333333333 ['22', '21'] 335.4166666666666
65 6.708333333333333 ['22', '21'] 335.4166666666666
66 6.708333333333333 ['22', '21'] 335.4166666666666
67 6.708333333333333 ['22', '21'] 335.4166666666666
68 6.708333333333333 ['22', '21'] 335.4166666666666
69 6.708333333333333 ['22', '21'] 335.4166666666666
70 6.708333333333333 ['22', '21'] 335.4166666666666
71 6.708333333333333 ['22', '21'] 335.4166666666666
72 6.708333333333333 ['22', '21'] 335.4166666666666
73 6.708333333333333 ['22', '21'] 335.4166666666666
74 6.708333333333333 ['22', '21'] 335.4166666666666
75 6.708333333333333 ['22', '21'] 335.4166666666666
76 6.708333333333333 ['22', '21'] 335.4166666666666
77 6.708333333333333 ['22', '21'] 335.4166666666666
78 6.708333333333333 ['22', '21'] 335.4166666666666
79 6.708333333333333 ['22', '21'] 335.4166666666666
80 6.708333333333333 ['22', '21'] 335.4166666666666
81 6.708333333333333 ['22', '21'] 335.4166666666666
82 6.708333333333333 ['22', '21'] 335.4166666666666
83 6.708333333333333 ['22', '21'] 335.4166666666666
84 6.708333333333333 ['22', '21'] 335.4166666666666
85 6.708333333333333 ['22', '21'] 335.4166666666666
86 6.708333333333333 ['22', '21'] 335.4166666666666
87 6.708333333333333 ['22', '21'] 335.4166666666666
88 6.708333333333333 ['22', '21'] 335.4166666666666
89 6.708333333333333 ['22', '21'] 335.4166666666666
90 6.708333333333333 ['22', '21'] 335.4166666666666
91 6.708333333333333 ['22', '21'] 335.4166666666666
92 6.708333333333333 ['22', '21'] 335.4166666666666
93 6.708333333333333 ['22', '21'] 335.4166666666666
94 6.708333333333333 ['22', '21'] 335.4166666666666
95 6.708333333333333 ['22', '21'] 335.4166666666666
96 6.708333333333333 ['22', '21'] 335.4166666666666
97 6.708333333333333 ['22', '21'] 335.4166666666666
98 6.708333333333333 ['22', '21'] 335.4166666666666
99 6.708333333333333 ['22', '21'] 335.4166666666666
100 6.708333333333333 ['22', '21'] 335.4166666666666
101 6.708333333333333 ['22', '21'] 335.4166666666666
102 6.708333333333333 ['22', '21'] 335.4166666666666
103 6.708333333333333 ['22', '21'] 335.4166666666666
104 6.708333333333333 ['22', '21'] 335.4166666666666
105 6.708333333333333 ['22', '21'] 335.4166666666666
106 6.708333333333333 ['22', '21'] 335.4166666666666
107 6.708333333333333 ['22', '21'] 335.4166666666666
108 6.708333333333333 ['22', '21'] 335.4166666666666
109 6.708333333333333 ['22', '21'] 335.4166666666666
110 6.708333333333333 ['22', '21'] 335.4166666666666
111 6.708333333333333 ['22', '21'] 335.4166666666666
112 6.708333333333333 ['22', '21'] 335.4166666666666
113 6.708333333333333 ['22', '21'] 335.4166666666666
114 6.708333333333333 ['22', '21'] 335.4166666666666
115 6.708333333333333 ['22', '21'] 335.4166666666666
116 6.708333333333333 ['22', '21'] 335.4166666666666
117 6.708333333333333 ['22', '21'] 335.4166666666666
118 6.708333333333333 ['22', '21'] 335.4166666666666
119 6.708333333333333 ['22', '21'] 335.4166666666666
120 6.708333333333333 ['22', '21'] 335.4166666666666
121 6.708333333333333 ['22', '21'] 335.4166666666666
122 6.708333333333333 ['22', '21'] 335.4166666666666
123 6.708333333333333 ['22', '21'] 335.4166666666666
124 6.708333333333333 ['22', '21'] 335.4166666666666
125 6.708333333333333 ['22', '21'] 335.4166666666666
126 6.708333333333333 ['22', '21'] 335.4166666666666
127 6.708333333333333 ['22', '21'] 335.4166666666666
128 6.708333333333333 ['22', '21'] 335.4166666666666
129 6.708333333333333 ['22', '21'] 335.4166666666666
130 6.708333333333333 ['22', '21'] 335.4166666666666
131 6.708333333333333 ['22', '21'] 335.4166666666666
132 6.708333333333333 ['22', '21'] 335.4166666666666
133 6.708333333333333 ['22', '21'] 335.4166666666666
134 6.708333333333333 ['22', '21'] 335.4166666666666
135 6.708333333333333 ['22', '21'] 335.4166666666666
136 6.708333333333333 ['22', '21'] 335.4166666666666
137 6.708333333333333 ['22', '21'] 335.4166666666666
138 6.708333333333333 ['22', '21'] 335.4166666666666
139 6.708333333333333 ['22', '21'] 335.4166666666666
140 6.708333333333333 ['22', '21'] 335.4166666666666
141 6.708333333333333 ['22', '21'] 335.4166666666666
142 6.708333333333333 ['22', '21'] 335.4166666666666
143 6.708333333333333 ['22', '21'] 335.4166666666666
144 6.708333333333333 ['22', '21'] 335.4166666666666
145 6.708333333333333 ['22', '21'] 335.4166666666666
146 6.708333333333333 ['22', '21'] 335.4166666666666
147 6.708333333333333 ['22', '21'] 335.4166666666666
148 6.708333333333333 ['22', '21'] 335.4166666666666
149 6.708333333333333 ['22', '21'] 335.4166666666666
150 6.708333333333333 ['22', '21'] 335.4166666666666
151 6.708333333333333 ['22', '21'] 335.4166666666666
152 6.708333333333333 ['22', '21'] 335.4166666666666
153 6.708333333333333 ['22', '21'] 335.4166666666666
154 6.708333333333333 ['22', '21'] 335.4166666666666
155 6.708333333333333 ['22', '21'] 335.4166666666666
156 6.708333333333333 ['22', '21'] 335.4166666666666
157 6.708333333333333 ['22', '21'] 335.4166666666666
158 6.708333333333333 ['22', '21'] 335.4166666666666
159 6.708333333333333 ['22', '21'] 335.4166666666666
160 6.708333333333333 ['22', '21'] 335.4166666666666
161 6.708333333333333 ['22', '21'] 335.4166666666666
162 6.708333333333333 ['22', '21'] 335.4166666666666
163 6.708333333333333 ['22', '21'] 335.4166666666666
164 6.708333333333333 ['22', '21'] 335.4166666666666
165 6.708333333333333 ['22', '21'] 335.4166666666666
166 6.708333333333333 ['22', '21'] 335.4166666666666
167 6.708333333333333 ['22', '21'] 335.4166666666666
168 6.708333333333333 ['22', '21'] 335.4166666666666
169 6.708333333333333 ['22', '21'] 335.4166666666666
170 6.708333333333333 ['22', '21'] 335.4166666666666
171 6.708333333333333 ['22', '21'] 335.4166666666666
172 6.708333333333333 ['22', '21'] 335.4166666666666
173 6.708333333333333 ['22', '21'] 335.4166666666666
174 6.708333333333333 ['22', '21'] 335.4166666666666
175 6.708333333333333 ['22', '21'] 335.4166666666666
176 6.708333333333333 ['22', '21'] 335.4166666666666
177 6.708333333333333 ['22', '21'] 335.4166666666666
178 6.708333333333333 ['22', '21'] 335.4166666666666
179 6.708333333333333 ['22', '21'] 335.4166666666666
180 6.708333333333333 ['22', '21'] 335.4166666666666
181 6.708333333333333 ['22', '21'] 335.4166666666666
182 6.708333333333333 ['22', '21'] 335.4166666666666
183 6.708333333333333 ['22', '21'] 335.4166666666666
184 6.708333333333333 ['22', '21'] 335.4166666666666
185 6.708333333333333 ['22', '21'] 335.4166666666666
186 6.708333333333333 ['22', '21'] 335.4166666666666
187 6.708333333333333 ['22', '21'] 335.4166666666666
188 6.708333333333333 ['22', '21'] 335.4166666666666
189 6.708333333333333 ['22', '21'] 335.4166666666666
190 6.708333333333333 ['22', '21'] 335.4166666666666
191 6.708333333333333 ['22', '21'] 335.4166666666666
192 6.708333333333333 ['22', '21'] 335.4166666666666
193 6.708333333333333 ['22', '21'] 335.4166666666666
194 6.708333333333333 ['22', '21'] 335.4166666666666
195 6.708333333333333 ['22', '21'] 335.4166666666666
196 6.708333333333333 ['22', '21'] 335.4166666666666
197 6.708333333333333 ['22', '21'] 335.4166666666666
198 6.708333333333333 ['22', '21'] 335.4166666666666
199 6.708333333333333 ['22', '21'] 335.4166666666666
