0 5.330123456790128 ['118', '144', '87', '105', '145', '46', '94', '139', '110', '56', '98', '17', '86', '95', '103'] 272.66518518518535
1 5.330123456790128 ['118', '144', '87', '105', '145', '46', '94', '139', '110', '56', '98', '17', '86', '95', '103'] 271.8291358024693
2 5.330123456790128 ['118', '144', '87', '105', '145', '46', '94', '139', '110', '56', '98', '17', '86', '95', '103'] 270.7554320987654
3 5.3061728395061785 ['112', '136', '90', '129', '87', '132', '138', '145', '123', '39', '46', '144', '78', '27', '106'] 269.79604938271615
4 5.272345679012349 ['87', '90', '144', '136', '105', '42', '141', '95', '145', '138', '123', '112', '66', '139', '27'] 268.47777777777793
5 5.272345679012349 ['87', '90', '144', '136', '105', '42', '141', '95', '145', '138', '123', '112', '66', '139', '27'] 267.60629629629636
6 5.272345679012349 ['87', '90', '144', '136', '105', '42', '141', '95', '145', '138', '123', '112', '66', '139', '27'] 266.65074074074084
7 5.272345679012349 ['87', '90', '144', '136', '105', '42', '141', '95', '145', '138', '123', '112', '66', '139', '27'] 266.1127160493828
8 5.24703703703704 ['36', '150', '20', '146', '115', '77', '128', '145', '144', '106', '140', '143', '138', '73', '57'] 265.6161728395063
9 5.227407407407412 ['145', '139', '42', '103', '141', '98', '86', '105', '87', '95', '46', '31', '144', '123', '132'] 264.9972839506175
10 5.227407407407412 ['145', '139', '42', '103', '141', '98', '86', '105', '87', '95', '46', '31', '144', '123', '132'] 264.3693827160495
11 5.206419753086421 ['145', '95', '105', '87', '141', '139', '123', '42', '86', '144', '31', '129', '138', '103', '66'] 263.5180246913581
12 5.206419753086421 ['145', '95', '105', '87', '141', '139', '123', '42', '86', '144', '31', '129', '138', '103', '66'] 262.91987654320997
13 5.189753086419755 ['42', '129', '145', '87', '31', '144', '105', '138', '103', '139', '123', '141', '95', '66', '46'] 262.33086419753096
14 5.188888888888892 ['129', '141', '31', '145', '87', '144', '139', '66', '123', '103', '86', '42', '95', '105', '119'] 261.5886419753088
15 5.183333333333336 ['86', '66', '141', '95', '139', '123', '145', '87', '105', '103', '128', '46', '146', '119', '129'] 260.88209876543226
16 5.158641975308645 ['139', '87', '128', '145', '66', '146', '95', '123', '46', '103', '86', '105', '144', '115', '141'] 260.38987654321
17 5.158641975308645 ['139', '87', '128', '145', '66', '146', '95', '123', '46', '103', '86', '105', '144', '115', '141'] 259.7983950617285
18 5.154320987654324 ['103', '139', '87', '105', '144', '95', '145', '66', '123', '86', '141', '46', '146', '129', '128'] 259.3697530864201
19 5.154320987654324 ['103', '139', '87', '105', '144', '95', '145', '66', '123', '86', '141', '46', '146', '129', '128'] 259.09358024691375
20 5.145061728395065 ['42', '145', '66', '95', '139', '103', '123', '144', '46', '87', '105', '86', '119', '128', '146'] 258.7186419753088
21 5.145061728395065 ['42', '145', '66', '95', '139', '103', '123', '144', '46', '87', '105', '86', '119', '128', '146'] 258.4764197530865
22 5.127530864197535 ['144', '42', '139', '87', '119', '103', '95', '145', '46', '123', '105', '140', '66', '146', '128'] 258.3334567901234
23 5.127530864197535 ['144', '42', '139', '87', '119', '103', '95', '145', '46', '123', '105', '140', '66', '146', '128'] 258.1702469135803
24 5.127530864197535 ['144', '42', '139', '87', '119', '103', '95', '145', '46', '123', '105', '140', '66', '146', '128'] 257.87234567901254
25 5.127530864197535 ['144', '42', '139', '87', '119', '103', '95', '145', '46', '123', '105', '140', '66', '146', '128'] 257.6891358024695
26 5.127530864197535 ['144', '42', '139', '87', '119', '103', '95', '145', '46', '123', '105', '140', '66', '146', '128'] 257.4755555555559
27 5.127530864197535 ['144', '42', '139', '87', '119', '103', '95', '145', '46', '123', '105', '140', '66', '146', '128'] 257.20888888888913
28 5.122222222222227 ['105', '95', '103', '145', '139', '46', '146', '87', '128', '123', '119', '144', '42', '140', '129'] 256.9185185185187
29 5.120740740740747 ['129', '46', '103', '95', '87', '139', '145', '123', '144', '66', '105', '146', '128', '119', '140'] 256.6544444444445
30 5.120740740740747 ['129', '46', '103', '95', '87', '139', '145', '123', '144', '66', '105', '146', '128', '119', '140'] 256.3885185185186
31 5.120740740740747 ['129', '46', '103', '95', '87', '139', '145', '123', '144', '66', '105', '146', '128', '119', '140'] 256.18024691358033
32 5.120740740740747 ['129', '46', '103', '95', '87', '139', '145', '123', '144', '66', '105', '146', '128', '119', '140'] 256.09037037037086
33 5.120740740740747 ['129', '46', '103', '95', '87', '139', '145', '123', '144', '66', '105', '146', '128', '119', '140'] 256.06962962963
34 5.120740740740747 ['129', '46', '103', '95', '87', '139', '145', '123', '144', '66', '105', '146', '128', '119', '140'] 256.0370370370375
35 5.120740740740747 ['129', '46', '103', '95', '87', '139', '145', '123', '144', '66', '105', '146', '128', '119', '140'] 256.0370370370375
36 5.120740740740747 ['129', '46', '103', '95', '87', '139', '145', '123', '144', '66', '105', '146', '128', '119', '140'] 256.0370370370375
37 5.120740740740747 ['129', '46', '103', '95', '87', '139', '145', '123', '144', '66', '105', '146', '128', '119', '140'] 256.0370370370375
38 5.120740740740747 ['129', '46', '103', '95', '87', '139', '145', '123', '144', '66', '105', '146', '128', '119', '140'] 256.0370370370375
39 5.120740740740747 ['129', '46', '103', '95', '87', '139', '145', '123', '144', '66', '105', '146', '128', '119', '140'] 256.0370370370375
40 5.120740740740747 ['129', '46', '103', '95', '87', '139', '145', '123', '144', '66', '105', '146', '128', '119', '140'] 256.0370370370375
41 5.120740740740747 ['129', '46', '103', '95', '87', '139', '145', '123', '144', '66', '105', '146', '128', '119', '140'] 256.0370370370375
42 5.120740740740747 ['129', '46', '103', '95', '87', '139', '145', '123', '144', '66', '105', '146', '128', '119', '140'] 256.0370370370375
43 5.120740740740747 ['129', '46', '103', '95', '87', '139', '145', '123', '144', '66', '105', '146', '128', '119', '140'] 256.0370370370375
44 5.120740740740747 ['129', '46', '103', '95', '87', '139', '145', '123', '144', '66', '105', '146', '128', '119', '140'] 256.0370370370375
45 5.120740740740747 ['129', '46', '103', '95', '87', '139', '145', '123', '144', '66', '105', '146', '128', '119', '140'] 256.0370370370375
46 5.120740740740747 ['129', '46', '103', '95', '87', '139', '145', '123', '144', '66', '105', '146', '128', '119', '140'] 256.0370370370375
47 5.120740740740747 ['129', '46', '103', '95', '87', '139', '145', '123', '144', '66', '105', '146', '128', '119', '140'] 256.0370370370375
48 5.120740740740747 ['129', '46', '103', '95', '87', '139', '145', '123', '144', '66', '105', '146', '128', '119', '140'] 256.0370370370375
49 5.120740740740747 ['129', '46', '103', '95', '87', '139', '145', '123', '144', '66', '105', '146', '128', '119', '140'] 256.0370370370375
50 5.120740740740747 ['129', '46', '103', '95', '87', '139', '145', '123', '144', '66', '105', '146', '128', '119', '140'] 256.0370370370375
51 5.120740740740747 ['129', '46', '103', '95', '87', '139', '145', '123', '144', '66', '105', '146', '128', '119', '140'] 256.0370370370375
52 5.120740740740747 ['129', '46', '103', '95', '87', '139', '145', '123', '144', '66', '105', '146', '128', '119', '140'] 256.0370370370375
53 5.120740740740747 ['129', '46', '103', '95', '87', '139', '145', '123', '144', '66', '105', '146', '128', '119', '140'] 256.0370370370375
54 5.120740740740747 ['129', '46', '103', '95', '87', '139', '145', '123', '144', '66', '105', '146', '128', '119', '140'] 256.0370370370375
55 5.120740740740747 ['129', '46', '103', '95', '87', '139', '145', '123', '144', '66', '105', '146', '128', '119', '140'] 256.0370370370375
56 5.120740740740747 ['129', '46', '103', '95', '87', '139', '145', '123', '144', '66', '105', '146', '128', '119', '140'] 256.0370370370375
57 5.120740740740747 ['129', '46', '103', '95', '87', '139', '145', '123', '144', '66', '105', '146', '128', '119', '140'] 256.0370370370375
58 5.120740740740747 ['129', '46', '103', '95', '87', '139', '145', '123', '144', '66', '105', '146', '128', '119', '140'] 256.0370370370375
59 5.120740740740747 ['129', '46', '103', '95', '87', '139', '145', '123', '144', '66', '105', '146', '128', '119', '140'] 256.0370370370375
60 5.120740740740747 ['129', '46', '103', '95', '87', '139', '145', '123', '144', '66', '105', '146', '128', '119', '140'] 256.0370370370375
61 5.120740740740747 ['129', '46', '103', '95', '87', '139', '145', '123', '144', '66', '105', '146', '128', '119', '140'] 256.0370370370375
62 5.120740740740747 ['129', '46', '103', '95', '87', '139', '145', '123', '144', '66', '105', '146', '128', '119', '140'] 256.0370370370375
63 5.120740740740747 ['129', '46', '103', '95', '87', '139', '145', '123', '144', '66', '105', '146', '128', '119', '140'] 256.0370370370375
64 5.120740740740747 ['129', '46', '103', '95', '87', '139', '145', '123', '144', '66', '105', '146', '128', '119', '140'] 256.0370370370375
65 5.120740740740747 ['129', '46', '103', '95', '87', '139', '145', '123', '144', '66', '105', '146', '128', '119', '140'] 256.0370370370375
66 5.120740740740747 ['129', '46', '103', '95', '87', '139', '145', '123', '144', '66', '105', '146', '128', '119', '140'] 256.0370370370375
67 5.120740740740747 ['129', '46', '103', '95', '87', '139', '145', '123', '144', '66', '105', '146', '128', '119', '140'] 256.0370370370375
68 5.120740740740747 ['129', '46', '103', '95', '87', '139', '145', '123', '144', '66', '105', '146', '128', '119', '140'] 256.0370370370375
69 5.120740740740747 ['129', '46', '103', '95', '87', '139', '145', '123', '144', '66', '105', '146', '128', '119', '140'] 256.0370370370375
70 5.120740740740747 ['129', '46', '103', '95', '87', '139', '145', '123', '144', '66', '105', '146', '128', '119', '140'] 256.0370370370375
71 5.120740740740747 ['129', '46', '103', '95', '87', '139', '145', '123', '144', '66', '105', '146', '128', '119', '140'] 256.0370370370375
72 5.120740740740747 ['129', '46', '103', '95', '87', '139', '145', '123', '144', '66', '105', '146', '128', '119', '140'] 256.0370370370375
73 5.120740740740747 ['129', '46', '103', '95', '87', '139', '145', '123', '144', '66', '105', '146', '128', '119', '140'] 256.0370370370375
74 5.120740740740747 ['129', '46', '103', '95', '87', '139', '145', '123', '144', '66', '105', '146', '128', '119', '140'] 256.0370370370375
75 5.120740740740747 ['129', '46', '103', '95', '87', '139', '145', '123', '144', '66', '105', '146', '128', '119', '140'] 256.0370370370375
76 5.120740740740747 ['129', '46', '103', '95', '87', '139', '145', '123', '144', '66', '105', '146', '128', '119', '140'] 256.0370370370375
77 5.120740740740747 ['129', '46', '103', '95', '87', '139', '145', '123', '144', '66', '105', '146', '128', '119', '140'] 256.0370370370375
78 5.120740740740747 ['129', '46', '103', '95', '87', '139', '145', '123', '144', '66', '105', '146', '128', '119', '140'] 256.0370370370375
79 5.120740740740747 ['129', '46', '103', '95', '87', '139', '145', '123', '144', '66', '105', '146', '128', '119', '140'] 256.0370370370375
80 5.120740740740747 ['129', '46', '103', '95', '87', '139', '145', '123', '144', '66', '105', '146', '128', '119', '140'] 256.0370370370375
81 5.120740740740747 ['129', '46', '103', '95', '87', '139', '145', '123', '144', '66', '105', '146', '128', '119', '140'] 256.0370370370375
82 5.120740740740747 ['129', '46', '103', '95', '87', '139', '145', '123', '144', '66', '105', '146', '128', '119', '140'] 256.0370370370375
83 5.120740740740747 ['129', '46', '103', '95', '87', '139', '145', '123', '144', '66', '105', '146', '128', '119', '140'] 256.0370370370375
84 5.120740740740747 ['129', '46', '103', '95', '87', '139', '145', '123', '144', '66', '105', '146', '128', '119', '140'] 256.0370370370375
85 5.120740740740747 ['129', '46', '103', '95', '87', '139', '145', '123', '144', '66', '105', '146', '128', '119', '140'] 256.0370370370375
86 5.120740740740747 ['129', '46', '103', '95', '87', '139', '145', '123', '144', '66', '105', '146', '128', '119', '140'] 256.0370370370375
87 5.120740740740747 ['129', '46', '103', '95', '87', '139', '145', '123', '144', '66', '105', '146', '128', '119', '140'] 256.0370370370375
88 5.120740740740747 ['129', '46', '103', '95', '87', '139', '145', '123', '144', '66', '105', '146', '128', '119', '140'] 256.0370370370375
89 5.120740740740747 ['129', '46', '103', '95', '87', '139', '145', '123', '144', '66', '105', '146', '128', '119', '140'] 256.0370370370375
90 5.120740740740747 ['129', '46', '103', '95', '87', '139', '145', '123', '144', '66', '105', '146', '128', '119', '140'] 256.0370370370375
91 5.120740740740747 ['129', '46', '103', '95', '87', '139', '145', '123', '144', '66', '105', '146', '128', '119', '140'] 256.0370370370375
92 5.120740740740747 ['129', '46', '103', '95', '87', '139', '145', '123', '144', '66', '105', '146', '128', '119', '140'] 256.0370370370375
93 5.120740740740747 ['129', '46', '103', '95', '87', '139', '145', '123', '144', '66', '105', '146', '128', '119', '140'] 256.0370370370375
94 5.120740740740747 ['129', '46', '103', '95', '87', '139', '145', '123', '144', '66', '105', '146', '128', '119', '140'] 256.0370370370375
95 5.120740740740747 ['129', '46', '103', '95', '87', '139', '145', '123', '144', '66', '105', '146', '128', '119', '140'] 256.0370370370375
96 5.120740740740747 ['129', '46', '103', '95', '87', '139', '145', '123', '144', '66', '105', '146', '128', '119', '140'] 256.0370370370375
97 5.120740740740747 ['129', '46', '103', '95', '87', '139', '145', '123', '144', '66', '105', '146', '128', '119', '140'] 256.0370370370375
98 5.120740740740747 ['129', '46', '103', '95', '87', '139', '145', '123', '144', '66', '105', '146', '128', '119', '140'] 256.0370370370375
99 5.120740740740747 ['129', '46', '103', '95', '87', '139', '145', '123', '144', '66', '105', '146', '128', '119', '140'] 256.0370370370375
100 5.120740740740747 ['129', '46', '103', '95', '87', '139', '145', '123', '144', '66', '105', '146', '128', '119', '140'] 256.0370370370375
101 5.120740740740747 ['129', '46', '103', '95', '87', '139', '145', '123', '144', '66', '105', '146', '128', '119', '140'] 256.0370370370375
102 5.120740740740747 ['129', '46', '103', '95', '87', '139', '145', '123', '144', '66', '105', '146', '128', '119', '140'] 256.0370370370375
103 5.120740740740747 ['129', '46', '103', '95', '87', '139', '145', '123', '144', '66', '105', '146', '128', '119', '140'] 256.0370370370375
104 5.120740740740747 ['129', '46', '103', '95', '87', '139', '145', '123', '144', '66', '105', '146', '128', '119', '140'] 256.0370370370375
105 5.120740740740747 ['129', '46', '103', '95', '87', '139', '145', '123', '144', '66', '105', '146', '128', '119', '140'] 256.0370370370375
106 5.120740740740747 ['129', '46', '103', '95', '87', '139', '145', '123', '144', '66', '105', '146', '128', '119', '140'] 256.0370370370375
107 5.120740740740747 ['129', '46', '103', '95', '87', '139', '145', '123', '144', '66', '105', '146', '128', '119', '140'] 256.0370370370375
108 5.120740740740747 ['129', '46', '103', '95', '87', '139', '145', '123', '144', '66', '105', '146', '128', '119', '140'] 256.0370370370375
109 5.120740740740747 ['129', '46', '103', '95', '87', '139', '145', '123', '144', '66', '105', '146', '128', '119', '140'] 256.0370370370375
110 5.120740740740747 ['129', '46', '103', '95', '87', '139', '145', '123', '144', '66', '105', '146', '128', '119', '140'] 256.0370370370375
111 5.120740740740747 ['129', '46', '103', '95', '87', '139', '145', '123', '144', '66', '105', '146', '128', '119', '140'] 256.0370370370375
112 5.120740740740747 ['129', '46', '103', '95', '87', '139', '145', '123', '144', '66', '105', '146', '128', '119', '140'] 256.0370370370375
113 5.120740740740747 ['129', '46', '103', '95', '87', '139', '145', '123', '144', '66', '105', '146', '128', '119', '140'] 256.0370370370375
114 5.120740740740747 ['129', '46', '103', '95', '87', '139', '145', '123', '144', '66', '105', '146', '128', '119', '140'] 256.0370370370375
115 5.120740740740747 ['129', '46', '103', '95', '87', '139', '145', '123', '144', '66', '105', '146', '128', '119', '140'] 256.0370370370375
116 5.120740740740747 ['129', '46', '103', '95', '87', '139', '145', '123', '144', '66', '105', '146', '128', '119', '140'] 256.0370370370375
117 5.120740740740747 ['129', '46', '103', '95', '87', '139', '145', '123', '144', '66', '105', '146', '128', '119', '140'] 256.0370370370375
118 5.120740740740747 ['129', '46', '103', '95', '87', '139', '145', '123', '144', '66', '105', '146', '128', '119', '140'] 256.0370370370375
119 5.120740740740747 ['129', '46', '103', '95', '87', '139', '145', '123', '144', '66', '105', '146', '128', '119', '140'] 256.0370370370375
120 5.120740740740747 ['129', '46', '103', '95', '87', '139', '145', '123', '144', '66', '105', '146', '128', '119', '140'] 256.0370370370375
121 5.120740740740747 ['129', '46', '103', '95', '87', '139', '145', '123', '144', '66', '105', '146', '128', '119', '140'] 256.0370370370375
122 5.120740740740747 ['129', '46', '103', '95', '87', '139', '145', '123', '144', '66', '105', '146', '128', '119', '140'] 256.0370370370375
123 5.120740740740747 ['129', '46', '103', '95', '87', '139', '145', '123', '144', '66', '105', '146', '128', '119', '140'] 256.0370370370375
124 5.120740740740747 ['129', '46', '103', '95', '87', '139', '145', '123', '144', '66', '105', '146', '128', '119', '140'] 256.0370370370375
125 5.120740740740747 ['129', '46', '103', '95', '87', '139', '145', '123', '144', '66', '105', '146', '128', '119', '140'] 256.0370370370375
126 5.120740740740747 ['129', '46', '103', '95', '87', '139', '145', '123', '144', '66', '105', '146', '128', '119', '140'] 256.0370370370375
127 5.120740740740747 ['129', '46', '103', '95', '87', '139', '145', '123', '144', '66', '105', '146', '128', '119', '140'] 256.0370370370375
128 5.120740740740747 ['129', '46', '103', '95', '87', '139', '145', '123', '144', '66', '105', '146', '128', '119', '140'] 256.0370370370375
129 5.120740740740747 ['129', '46', '103', '95', '87', '139', '145', '123', '144', '66', '105', '146', '128', '119', '140'] 256.0370370370375
130 5.120740740740747 ['129', '46', '103', '95', '87', '139', '145', '123', '144', '66', '105', '146', '128', '119', '140'] 256.0370370370375
131 5.120740740740747 ['129', '46', '103', '95', '87', '139', '145', '123', '144', '66', '105', '146', '128', '119', '140'] 256.0370370370375
132 5.120740740740747 ['129', '46', '103', '95', '87', '139', '145', '123', '144', '66', '105', '146', '128', '119', '140'] 256.0370370370375
133 5.120740740740747 ['129', '46', '103', '95', '87', '139', '145', '123', '144', '66', '105', '146', '128', '119', '140'] 256.0370370370375
134 5.120740740740747 ['129', '46', '103', '95', '87', '139', '145', '123', '144', '66', '105', '146', '128', '119', '140'] 256.0370370370375
135 5.120740740740747 ['129', '46', '103', '95', '87', '139', '145', '123', '144', '66', '105', '146', '128', '119', '140'] 256.0370370370375
136 5.120740740740747 ['129', '46', '103', '95', '87', '139', '145', '123', '144', '66', '105', '146', '128', '119', '140'] 256.0370370370375
137 5.120740740740747 ['129', '46', '103', '95', '87', '139', '145', '123', '144', '66', '105', '146', '128', '119', '140'] 256.0370370370375
138 5.120740740740747 ['129', '46', '103', '95', '87', '139', '145', '123', '144', '66', '105', '146', '128', '119', '140'] 256.0370370370375
139 5.120740740740747 ['129', '46', '103', '95', '87', '139', '145', '123', '144', '66', '105', '146', '128', '119', '140'] 256.0370370370375
140 5.120740740740747 ['129', '46', '103', '95', '87', '139', '145', '123', '144', '66', '105', '146', '128', '119', '140'] 256.0370370370375
141 5.120740740740747 ['129', '46', '103', '95', '87', '139', '145', '123', '144', '66', '105', '146', '128', '119', '140'] 256.0370370370375
142 5.120740740740747 ['129', '46', '103', '95', '87', '139', '145', '123', '144', '66', '105', '146', '128', '119', '140'] 256.0370370370375
143 5.120740740740747 ['129', '46', '103', '95', '87', '139', '145', '123', '144', '66', '105', '146', '128', '119', '140'] 256.0370370370375
144 5.120740740740747 ['129', '46', '103', '95', '87', '139', '145', '123', '144', '66', '105', '146', '128', '119', '140'] 256.0370370370375
145 5.120740740740747 ['129', '46', '103', '95', '87', '139', '145', '123', '144', '66', '105', '146', '128', '119', '140'] 256.0370370370375
146 5.120740740740747 ['129', '46', '103', '95', '87', '139', '145', '123', '144', '66', '105', '146', '128', '119', '140'] 256.0370370370375
147 5.120740740740747 ['129', '46', '103', '95', '87', '139', '145', '123', '144', '66', '105', '146', '128', '119', '140'] 256.0370370370375
148 5.120740740740747 ['129', '46', '103', '95', '87', '139', '145', '123', '144', '66', '105', '146', '128', '119', '140'] 256.0370370370375
149 5.120740740740747 ['129', '46', '103', '95', '87', '139', '145', '123', '144', '66', '105', '146', '128', '119', '140'] 256.0370370370375
150 5.120740740740747 ['129', '46', '103', '95', '87', '139', '145', '123', '144', '66', '105', '146', '128', '119', '140'] 256.0370370370375
151 5.120740740740747 ['129', '46', '103', '95', '87', '139', '145', '123', '144', '66', '105', '146', '128', '119', '140'] 256.0370370370375
152 5.120740740740747 ['129', '46', '103', '95', '87', '139', '145', '123', '144', '66', '105', '146', '128', '119', '140'] 256.0370370370375
153 5.120740740740747 ['129', '46', '103', '95', '87', '139', '145', '123', '144', '66', '105', '146', '128', '119', '140'] 256.0370370370375
154 5.120740740740747 ['129', '46', '103', '95', '87', '139', '145', '123', '144', '66', '105', '146', '128', '119', '140'] 256.0370370370375
155 5.120740740740747 ['129', '46', '103', '95', '87', '139', '145', '123', '144', '66', '105', '146', '128', '119', '140'] 256.0370370370375
156 5.120740740740747 ['129', '46', '103', '95', '87', '139', '145', '123', '144', '66', '105', '146', '128', '119', '140'] 256.0370370370375
157 5.120740740740747 ['129', '46', '103', '95', '87', '139', '145', '123', '144', '66', '105', '146', '128', '119', '140'] 256.0370370370375
158 5.120740740740747 ['129', '46', '103', '95', '87', '139', '145', '123', '144', '66', '105', '146', '128', '119', '140'] 256.0370370370375
159 5.120740740740747 ['129', '46', '103', '95', '87', '139', '145', '123', '144', '66', '105', '146', '128', '119', '140'] 256.0370370370375
160 5.120740740740747 ['129', '46', '103', '95', '87', '139', '145', '123', '144', '66', '105', '146', '128', '119', '140'] 256.0370370370375
161 5.120740740740747 ['129', '46', '103', '95', '87', '139', '145', '123', '144', '66', '105', '146', '128', '119', '140'] 256.0370370370375
162 5.120740740740747 ['129', '46', '103', '95', '87', '139', '145', '123', '144', '66', '105', '146', '128', '119', '140'] 256.0370370370375
163 5.120740740740747 ['129', '46', '103', '95', '87', '139', '145', '123', '144', '66', '105', '146', '128', '119', '140'] 256.0370370370375
164 5.120740740740747 ['129', '46', '103', '95', '87', '139', '145', '123', '144', '66', '105', '146', '128', '119', '140'] 256.0370370370375
165 5.120740740740747 ['129', '46', '103', '95', '87', '139', '145', '123', '144', '66', '105', '146', '128', '119', '140'] 256.0370370370375
166 5.120740740740747 ['129', '46', '103', '95', '87', '139', '145', '123', '144', '66', '105', '146', '128', '119', '140'] 256.0370370370375
167 5.120740740740747 ['129', '46', '103', '95', '87', '139', '145', '123', '144', '66', '105', '146', '128', '119', '140'] 256.0370370370375
168 5.120740740740747 ['129', '46', '103', '95', '87', '139', '145', '123', '144', '66', '105', '146', '128', '119', '140'] 256.0370370370375
169 5.120740740740747 ['129', '46', '103', '95', '87', '139', '145', '123', '144', '66', '105', '146', '128', '119', '140'] 256.0370370370375
170 5.120740740740747 ['129', '46', '103', '95', '87', '139', '145', '123', '144', '66', '105', '146', '128', '119', '140'] 256.0370370370375
171 5.120740740740747 ['129', '46', '103', '95', '87', '139', '145', '123', '144', '66', '105', '146', '128', '119', '140'] 256.0370370370375
172 5.120740740740747 ['129', '46', '103', '95', '87', '139', '145', '123', '144', '66', '105', '146', '128', '119', '140'] 256.0370370370375
173 5.120740740740747 ['129', '46', '103', '95', '87', '139', '145', '123', '144', '66', '105', '146', '128', '119', '140'] 256.0370370370375
174 5.120740740740747 ['129', '46', '103', '95', '87', '139', '145', '123', '144', '66', '105', '146', '128', '119', '140'] 256.0370370370375
175 5.120740740740747 ['129', '46', '103', '95', '87', '139', '145', '123', '144', '66', '105', '146', '128', '119', '140'] 256.0370370370375
176 5.120740740740747 ['129', '46', '103', '95', '87', '139', '145', '123', '144', '66', '105', '146', '128', '119', '140'] 256.0370370370375
177 5.120740740740747 ['129', '46', '103', '95', '87', '139', '145', '123', '144', '66', '105', '146', '128', '119', '140'] 256.0370370370375
178 5.120740740740747 ['129', '46', '103', '95', '87', '139', '145', '123', '144', '66', '105', '146', '128', '119', '140'] 256.0370370370375
179 5.120740740740747 ['129', '46', '103', '95', '87', '139', '145', '123', '144', '66', '105', '146', '128', '119', '140'] 256.0370370370375
180 5.120740740740747 ['129', '46', '103', '95', '87', '139', '145', '123', '144', '66', '105', '146', '128', '119', '140'] 256.0370370370375
181 5.120740740740747 ['129', '46', '103', '95', '87', '139', '145', '123', '144', '66', '105', '146', '128', '119', '140'] 256.0370370370375
182 5.120740740740747 ['129', '46', '103', '95', '87', '139', '145', '123', '144', '66', '105', '146', '128', '119', '140'] 256.0370370370375
183 5.120740740740747 ['129', '46', '103', '95', '87', '139', '145', '123', '144', '66', '105', '146', '128', '119', '140'] 256.0370370370375
184 5.120740740740747 ['129', '46', '103', '95', '87', '139', '145', '123', '144', '66', '105', '146', '128', '119', '140'] 256.0370370370375
185 5.120740740740747 ['129', '46', '103', '95', '87', '139', '145', '123', '144', '66', '105', '146', '128', '119', '140'] 256.0370370370375
186 5.120740740740747 ['129', '46', '103', '95', '87', '139', '145', '123', '144', '66', '105', '146', '128', '119', '140'] 256.0370370370375
187 5.120740740740747 ['129', '46', '103', '95', '87', '139', '145', '123', '144', '66', '105', '146', '128', '119', '140'] 256.0370370370375
188 5.120740740740747 ['129', '46', '103', '95', '87', '139', '145', '123', '144', '66', '105', '146', '128', '119', '140'] 256.0370370370375
189 5.120740740740747 ['129', '46', '103', '95', '87', '139', '145', '123', '144', '66', '105', '146', '128', '119', '140'] 256.0370370370375
190 5.120740740740747 ['129', '46', '103', '95', '87', '139', '145', '123', '144', '66', '105', '146', '128', '119', '140'] 256.0370370370375
191 5.120740740740747 ['129', '46', '103', '95', '87', '139', '145', '123', '144', '66', '105', '146', '128', '119', '140'] 256.0370370370375
192 5.120740740740747 ['129', '46', '103', '95', '87', '139', '145', '123', '144', '66', '105', '146', '128', '119', '140'] 256.0370370370375
193 5.120740740740747 ['129', '46', '103', '95', '87', '139', '145', '123', '144', '66', '105', '146', '128', '119', '140'] 256.0370370370375
194 5.120740740740747 ['129', '46', '103', '95', '87', '139', '145', '123', '144', '66', '105', '146', '128', '119', '140'] 256.0370370370375
195 5.120740740740747 ['129', '46', '103', '95', '87', '139', '145', '123', '144', '66', '105', '146', '128', '119', '140'] 256.0370370370375
196 5.120740740740747 ['129', '46', '103', '95', '87', '139', '145', '123', '144', '66', '105', '146', '128', '119', '140'] 256.0370370370375
197 5.120740740740747 ['129', '46', '103', '95', '87', '139', '145', '123', '144', '66', '105', '146', '128', '119', '140'] 256.0370370370375
198 5.120740740740747 ['129', '46', '103', '95', '87', '139', '145', '123', '144', '66', '105', '146', '128', '119', '140'] 256.0370370370375
199 5.120740740740747 ['129', '46', '103', '95', '87', '139', '145', '123', '144', '66', '105', '146', '128', '119', '140'] 256.0370370370375
