0 21.106382978723403 ['44', '52', '15', '37', '51'] 1227.4042553191496
1 21.106382978723403 ['44', '52', '15', '37', '51'] 1181.7872340425533
2 21.106382978723403 ['44', '52', '15', '37', '51'] 1138.978723404255
3 20.51063829787234 ['52', '14', '44', '37', '15'] 1111.1489361702127
4 20.340425531914892 ['52', '14', '5', '37', '15'] 1078.468085106383
5 20.340425531914892 ['52', '14', '5', '37', '15'] 1051.4042553191493
6 19.574468085106382 ['52', '5', '14', '37', '28'] 1030.297872340426
7 19.574468085106382 ['52', '5', '14', '37', '28'] 1016.5106382978723
8 19.574468085106382 ['52', '5', '14', '37', '28'] 1006.2978723404257
9 19.574468085106382 ['52', '5', '14', '37', '28'] 989.7872340425537
10 19.574468085106382 ['52', '5', '14', '37', '28'] 980.2553191489361
11 19.574468085106382 ['52', '5', '14', '37', '28'] 978.7234042553181
12 19.574468085106382 ['52', '5', '14', '37', '28'] 978.7234042553181
13 19.574468085106382 ['52', '5', '14', '37', '28'] 978.7234042553181
14 19.574468085106382 ['52', '5', '14', '37', '28'] 978.7234042553181
15 19.574468085106382 ['52', '5', '14', '37', '28'] 978.7234042553181
16 19.574468085106382 ['52', '5', '14', '37', '28'] 978.7234042553181
17 19.574468085106382 ['52', '5', '14', '37', '28'] 978.7234042553181
18 19.574468085106382 ['52', '5', '14', '37', '28'] 978.7234042553181
19 19.574468085106382 ['52', '5', '14', '37', '28'] 978.7234042553181
20 19.574468085106382 ['52', '5', '14', '37', '28'] 978.7234042553181
21 19.574468085106382 ['52', '5', '14', '37', '28'] 978.7234042553181
22 19.574468085106382 ['52', '5', '14', '37', '28'] 978.7234042553181
23 19.574468085106382 ['52', '5', '14', '37', '28'] 978.7234042553181
24 19.574468085106382 ['52', '5', '14', '37', '28'] 978.7234042553181
25 19.574468085106382 ['52', '5', '14', '37', '28'] 978.7234042553181
26 19.574468085106382 ['52', '5', '14', '37', '28'] 978.7234042553181
27 19.574468085106382 ['52', '5', '14', '37', '28'] 978.7234042553181
28 19.574468085106382 ['52', '5', '14', '37', '28'] 978.7234042553181
29 19.574468085106382 ['52', '5', '14', '37', '28'] 978.7234042553181
30 19.574468085106382 ['52', '5', '14', '37', '28'] 978.7234042553181
31 19.574468085106382 ['52', '5', '14', '37', '28'] 978.7234042553181
32 19.574468085106382 ['52', '5', '14', '37', '28'] 978.7234042553181
33 19.574468085106382 ['52', '5', '14', '37', '28'] 978.7234042553181
34 19.574468085106382 ['52', '5', '14', '37', '28'] 978.7234042553181
35 19.574468085106382 ['52', '5', '14', '37', '28'] 978.7234042553181
36 19.574468085106382 ['52', '5', '14', '37', '28'] 978.7234042553181
37 19.574468085106382 ['52', '5', '14', '37', '28'] 978.7234042553181
38 19.574468085106382 ['52', '5', '14', '37', '28'] 978.7234042553181
39 19.574468085106382 ['52', '5', '14', '37', '28'] 978.7234042553181
40 19.574468085106382 ['52', '5', '14', '37', '28'] 978.7234042553181
41 19.574468085106382 ['52', '5', '14', '37', '28'] 978.7234042553181
42 19.574468085106382 ['52', '5', '14', '37', '28'] 978.7234042553181
43 19.574468085106382 ['52', '5', '14', '37', '28'] 978.7234042553181
44 19.574468085106382 ['52', '5', '14', '37', '28'] 978.7234042553181
45 19.574468085106382 ['52', '5', '14', '37', '28'] 978.7234042553181
46 19.574468085106382 ['52', '5', '14', '37', '28'] 978.7234042553181
47 19.574468085106382 ['52', '5', '14', '37', '28'] 978.7234042553181
48 19.574468085106382 ['52', '5', '14', '37', '28'] 978.7234042553181
49 19.574468085106382 ['52', '5', '14', '37', '28'] 978.7234042553181
50 19.574468085106382 ['52', '5', '14', '37', '28'] 978.7234042553181
51 19.574468085106382 ['52', '5', '14', '37', '28'] 978.7234042553181
52 19.574468085106382 ['52', '5', '14', '37', '28'] 978.7234042553181
53 19.574468085106382 ['52', '5', '14', '37', '28'] 978.7234042553181
54 19.574468085106382 ['52', '5', '14', '37', '28'] 978.7234042553181
55 19.574468085106382 ['52', '5', '14', '37', '28'] 978.7234042553181
56 19.574468085106382 ['52', '5', '14', '37', '28'] 978.7234042553181
57 19.574468085106382 ['52', '5', '14', '37', '28'] 978.7234042553181
58 19.574468085106382 ['52', '5', '14', '37', '28'] 978.7234042553181
59 19.574468085106382 ['52', '5', '14', '37', '28'] 978.7234042553181
60 19.574468085106382 ['52', '5', '14', '37', '28'] 978.7234042553181
61 19.574468085106382 ['52', '5', '14', '37', '28'] 978.7234042553181
62 19.574468085106382 ['52', '5', '14', '37', '28'] 978.7234042553181
63 19.574468085106382 ['52', '5', '14', '37', '28'] 978.7234042553181
64 19.574468085106382 ['52', '5', '14', '37', '28'] 978.7234042553181
65 19.574468085106382 ['52', '5', '14', '37', '28'] 978.7234042553181
66 19.574468085106382 ['52', '5', '14', '37', '28'] 978.7234042553181
67 19.574468085106382 ['52', '5', '14', '37', '28'] 978.7234042553181
68 19.574468085106382 ['52', '5', '14', '37', '28'] 978.7234042553181
69 19.574468085106382 ['52', '5', '14', '37', '28'] 978.7234042553181
70 19.574468085106382 ['52', '5', '14', '37', '28'] 978.7234042553181
71 19.574468085106382 ['52', '5', '14', '37', '28'] 978.7234042553181
72 19.574468085106382 ['52', '5', '14', '37', '28'] 978.7234042553181
73 19.574468085106382 ['52', '5', '14', '37', '28'] 978.7234042553181
74 19.574468085106382 ['52', '5', '14', '37', '28'] 978.7234042553181
75 19.574468085106382 ['52', '5', '14', '37', '28'] 978.7234042553181
76 19.574468085106382 ['52', '5', '14', '37', '28'] 978.7234042553181
77 19.574468085106382 ['52', '5', '14', '37', '28'] 978.7234042553181
78 19.574468085106382 ['52', '5', '14', '37', '28'] 978.7234042553181
79 19.574468085106382 ['52', '5', '14', '37', '28'] 978.7234042553181
80 19.574468085106382 ['52', '5', '14', '37', '28'] 978.7234042553181
81 19.574468085106382 ['52', '5', '14', '37', '28'] 978.7234042553181
82 19.574468085106382 ['52', '5', '14', '37', '28'] 978.7234042553181
83 19.574468085106382 ['52', '5', '14', '37', '28'] 978.7234042553181
84 19.574468085106382 ['52', '5', '14', '37', '28'] 978.7234042553181
85 19.574468085106382 ['52', '5', '14', '37', '28'] 978.7234042553181
86 19.574468085106382 ['52', '5', '14', '37', '28'] 978.7234042553181
87 19.574468085106382 ['52', '5', '14', '37', '28'] 978.7234042553181
88 19.574468085106382 ['52', '5', '14', '37', '28'] 978.7234042553181
89 19.574468085106382 ['52', '5', '14', '37', '28'] 978.7234042553181
90 19.574468085106382 ['52', '5', '14', '37', '28'] 978.7234042553181
91 19.574468085106382 ['52', '5', '14', '37', '28'] 978.7234042553181
92 19.574468085106382 ['52', '5', '14', '37', '28'] 978.7234042553181
93 19.574468085106382 ['52', '5', '14', '37', '28'] 978.7234042553181
94 19.574468085106382 ['52', '5', '14', '37', '28'] 978.7234042553181
95 19.574468085106382 ['52', '5', '14', '37', '28'] 978.7234042553181
96 19.574468085106382 ['52', '5', '14', '37', '28'] 978.7234042553181
97 19.574468085106382 ['52', '5', '14', '37', '28'] 978.7234042553181
98 19.574468085106382 ['52', '5', '14', '37', '28'] 978.7234042553181
99 19.574468085106382 ['52', '5', '14', '37', '28'] 978.7234042553181
100 19.574468085106382 ['52', '5', '14', '37', '28'] 978.7234042553181
101 19.574468085106382 ['52', '5', '14', '37', '28'] 978.7234042553181
102 19.574468085106382 ['52', '5', '14', '37', '28'] 978.7234042553181
103 19.574468085106382 ['52', '5', '14', '37', '28'] 978.7234042553181
104 19.574468085106382 ['52', '5', '14', '37', '28'] 978.7234042553181
105 19.574468085106382 ['52', '5', '14', '37', '28'] 978.7234042553181
106 19.574468085106382 ['52', '5', '14', '37', '28'] 978.7234042553181
107 19.574468085106382 ['52', '5', '14', '37', '28'] 978.7234042553181
108 19.574468085106382 ['52', '5', '14', '37', '28'] 978.7234042553181
109 19.574468085106382 ['52', '5', '14', '37', '28'] 978.7234042553181
110 19.574468085106382 ['52', '5', '14', '37', '28'] 978.7234042553181
111 19.574468085106382 ['52', '5', '14', '37', '28'] 978.7234042553181
112 19.574468085106382 ['52', '5', '14', '37', '28'] 978.7234042553181
113 19.574468085106382 ['52', '5', '14', '37', '28'] 978.7234042553181
114 19.574468085106382 ['52', '5', '14', '37', '28'] 978.7234042553181
115 19.574468085106382 ['52', '5', '14', '37', '28'] 978.7234042553181
116 19.574468085106382 ['52', '5', '14', '37', '28'] 978.7234042553181
117 19.574468085106382 ['52', '5', '14', '37', '28'] 978.7234042553181
118 19.574468085106382 ['52', '5', '14', '37', '28'] 978.7234042553181
119 19.574468085106382 ['52', '5', '14', '37', '28'] 978.7234042553181
120 19.574468085106382 ['52', '5', '14', '37', '28'] 978.7234042553181
121 19.574468085106382 ['52', '5', '14', '37', '28'] 978.7234042553181
122 19.574468085106382 ['52', '5', '14', '37', '28'] 978.7234042553181
123 19.574468085106382 ['52', '5', '14', '37', '28'] 978.7234042553181
124 19.574468085106382 ['52', '5', '14', '37', '28'] 978.7234042553181
125 19.574468085106382 ['52', '5', '14', '37', '28'] 978.7234042553181
126 19.574468085106382 ['52', '5', '14', '37', '28'] 978.7234042553181
127 19.574468085106382 ['52', '5', '14', '37', '28'] 978.7234042553181
128 19.574468085106382 ['52', '5', '14', '37', '28'] 978.7234042553181
129 19.574468085106382 ['52', '5', '14', '37', '28'] 978.7234042553181
130 19.574468085106382 ['52', '5', '14', '37', '28'] 978.7234042553181
131 19.574468085106382 ['52', '5', '14', '37', '28'] 978.7234042553181
132 19.574468085106382 ['52', '5', '14', '37', '28'] 978.7234042553181
133 19.574468085106382 ['52', '5', '14', '37', '28'] 978.7234042553181
134 19.574468085106382 ['52', '5', '14', '37', '28'] 978.7234042553181
135 19.574468085106382 ['52', '5', '14', '37', '28'] 978.7234042553181
136 19.574468085106382 ['52', '5', '14', '37', '28'] 978.7234042553181
137 19.574468085106382 ['52', '5', '14', '37', '28'] 978.7234042553181
138 19.574468085106382 ['52', '5', '14', '37', '28'] 978.7234042553181
139 19.574468085106382 ['52', '5', '14', '37', '28'] 978.7234042553181
140 19.574468085106382 ['52', '5', '14', '37', '28'] 978.7234042553181
141 19.574468085106382 ['52', '5', '14', '37', '28'] 978.7234042553181
142 19.574468085106382 ['52', '5', '14', '37', '28'] 978.7234042553181
143 19.574468085106382 ['52', '5', '14', '37', '28'] 978.7234042553181
144 19.574468085106382 ['52', '5', '14', '37', '28'] 978.7234042553181
145 19.574468085106382 ['52', '5', '14', '37', '28'] 978.7234042553181
146 19.574468085106382 ['52', '5', '14', '37', '28'] 978.7234042553181
147 19.574468085106382 ['52', '5', '14', '37', '28'] 978.7234042553181
148 19.574468085106382 ['52', '5', '14', '37', '28'] 978.7234042553181
149 19.574468085106382 ['52', '5', '14', '37', '28'] 978.7234042553181
150 19.574468085106382 ['52', '5', '14', '37', '28'] 978.7234042553181
151 19.574468085106382 ['52', '5', '14', '37', '28'] 978.7234042553181
152 19.574468085106382 ['52', '5', '14', '37', '28'] 978.7234042553181
153 19.574468085106382 ['52', '5', '14', '37', '28'] 978.7234042553181
154 19.574468085106382 ['52', '5', '14', '37', '28'] 978.7234042553181
155 19.574468085106382 ['52', '5', '14', '37', '28'] 978.7234042553181
156 19.574468085106382 ['52', '5', '14', '37', '28'] 978.7234042553181
157 19.574468085106382 ['52', '5', '14', '37', '28'] 978.7234042553181
158 19.574468085106382 ['52', '5', '14', '37', '28'] 978.7234042553181
159 19.574468085106382 ['52', '5', '14', '37', '28'] 978.7234042553181
160 19.574468085106382 ['52', '5', '14', '37', '28'] 978.7234042553181
161 19.574468085106382 ['52', '5', '14', '37', '28'] 978.7234042553181
162 19.574468085106382 ['52', '5', '14', '37', '28'] 978.7234042553181
163 19.574468085106382 ['52', '5', '14', '37', '28'] 978.7234042553181
164 19.574468085106382 ['52', '5', '14', '37', '28'] 978.7234042553181
165 19.574468085106382 ['52', '5', '14', '37', '28'] 978.7234042553181
166 19.574468085106382 ['52', '5', '14', '37', '28'] 978.7234042553181
167 19.574468085106382 ['52', '5', '14', '37', '28'] 978.7234042553181
168 19.574468085106382 ['52', '5', '14', '37', '28'] 978.7234042553181
169 19.574468085106382 ['52', '5', '14', '37', '28'] 978.7234042553181
170 19.574468085106382 ['52', '5', '14', '37', '28'] 978.7234042553181
171 19.574468085106382 ['52', '5', '14', '37', '28'] 978.7234042553181
172 19.574468085106382 ['52', '5', '14', '37', '28'] 978.7234042553181
173 19.574468085106382 ['52', '5', '14', '37', '28'] 978.7234042553181
174 19.574468085106382 ['52', '5', '14', '37', '28'] 978.7234042553181
175 19.574468085106382 ['52', '5', '14', '37', '28'] 978.7234042553181
176 19.574468085106382 ['52', '5', '14', '37', '28'] 978.7234042553181
177 19.574468085106382 ['52', '5', '14', '37', '28'] 978.7234042553181
178 19.574468085106382 ['52', '5', '14', '37', '28'] 978.7234042553181
179 19.574468085106382 ['52', '5', '14', '37', '28'] 978.7234042553181
180 19.574468085106382 ['52', '5', '14', '37', '28'] 978.7234042553181
181 19.574468085106382 ['52', '5', '14', '37', '28'] 978.7234042553181
182 19.574468085106382 ['52', '5', '14', '37', '28'] 978.7234042553181
183 19.574468085106382 ['52', '5', '14', '37', '28'] 978.7234042553181
184 19.574468085106382 ['52', '5', '14', '37', '28'] 978.7234042553181
185 19.574468085106382 ['52', '5', '14', '37', '28'] 978.7234042553181
186 19.574468085106382 ['52', '5', '14', '37', '28'] 978.7234042553181
187 19.574468085106382 ['52', '5', '14', '37', '28'] 978.7234042553181
188 19.574468085106382 ['52', '5', '14', '37', '28'] 978.7234042553181
189 19.574468085106382 ['52', '5', '14', '37', '28'] 978.7234042553181
190 19.574468085106382 ['52', '5', '14', '37', '28'] 978.7234042553181
191 19.574468085106382 ['52', '5', '14', '37', '28'] 978.7234042553181
192 19.574468085106382 ['52', '5', '14', '37', '28'] 978.7234042553181
193 19.574468085106382 ['52', '5', '14', '37', '28'] 978.7234042553181
194 19.574468085106382 ['52', '5', '14', '37', '28'] 978.7234042553181
195 19.574468085106382 ['52', '5', '14', '37', '28'] 978.7234042553181
196 19.574468085106382 ['52', '5', '14', '37', '28'] 978.7234042553181
197 19.574468085106382 ['52', '5', '14', '37', '28'] 978.7234042553181
198 19.574468085106382 ['52', '5', '14', '37', '28'] 978.7234042553181
199 19.574468085106382 ['52', '5', '14', '37', '28'] 978.7234042553181
