0 7.454545454545454 ['11', '33', '46', '42'] 421.0909090909092
1 7.454545454545454 ['11', '33', '46', '42'] 404.2727272727273
2 7.181818181818182 ['33', '4', '28', '32'] 390.9999999999999
3 7.0 ['28', '29', '42', '7'] 378.7272727272726
4 6.454545454545454 ['28', '33', '42', '7'] 369.5454545454547
5 6.454545454545454 ['28', '33', '42', '7'] 357.90909090909093
6 6.454545454545454 ['28', '33', '42', '7'] 345.63636363636374
7 6.2727272727272725 ['42', '7', '28', '1'] 332.9999999999999
8 6.2727272727272725 ['42', '7', '28', '1'] 322.72727272727303
9 6.2727272727272725 ['42', '7', '28', '1'] 320.6363636363637
10 6.2727272727272725 ['42', '7', '28', '1'] 317.8181818181818
11 6.2727272727272725 ['42', '7', '28', '1'] 315.2727272727275
12 6.2727272727272725 ['42', '7', '28', '1'] 313.6363636363635
13 6.2727272727272725 ['42', '7', '28', '1'] 313.6363636363635
14 6.2727272727272725 ['42', '7', '28', '1'] 313.6363636363635
15 6.2727272727272725 ['42', '7', '28', '1'] 313.6363636363635
16 6.2727272727272725 ['42', '7', '28', '1'] 313.6363636363635
17 6.2727272727272725 ['42', '7', '28', '1'] 313.6363636363635
18 6.2727272727272725 ['42', '7', '28', '1'] 313.6363636363635
19 6.2727272727272725 ['42', '7', '28', '1'] 313.6363636363635
20 6.2727272727272725 ['42', '7', '28', '1'] 313.6363636363635
21 6.2727272727272725 ['42', '7', '28', '1'] 313.6363636363635
22 6.2727272727272725 ['42', '7', '28', '1'] 313.6363636363635
23 6.2727272727272725 ['42', '7', '28', '1'] 313.6363636363635
24 6.2727272727272725 ['42', '7', '28', '1'] 313.6363636363635
25 6.2727272727272725 ['42', '7', '28', '1'] 313.6363636363635
26 6.2727272727272725 ['42', '7', '28', '1'] 313.6363636363635
27 6.2727272727272725 ['42', '7', '28', '1'] 313.6363636363635
28 6.2727272727272725 ['42', '7', '28', '1'] 313.6363636363635
29 6.2727272727272725 ['42', '7', '28', '1'] 313.6363636363635
30 6.2727272727272725 ['42', '7', '28', '1'] 313.6363636363635
31 6.2727272727272725 ['42', '7', '28', '1'] 313.6363636363635
32 6.2727272727272725 ['42', '7', '28', '1'] 313.6363636363635
33 6.2727272727272725 ['42', '7', '28', '1'] 313.6363636363635
34 6.2727272727272725 ['42', '7', '28', '1'] 313.6363636363635
35 6.2727272727272725 ['42', '7', '28', '1'] 313.6363636363635
36 6.2727272727272725 ['42', '7', '28', '1'] 313.6363636363635
37 6.2727272727272725 ['42', '7', '28', '1'] 313.6363636363635
38 6.2727272727272725 ['42', '7', '28', '1'] 313.6363636363635
39 6.2727272727272725 ['42', '7', '28', '1'] 313.6363636363635
40 6.2727272727272725 ['42', '7', '28', '1'] 313.6363636363635
41 6.2727272727272725 ['42', '7', '28', '1'] 313.6363636363635
42 6.2727272727272725 ['42', '7', '28', '1'] 313.6363636363635
43 6.2727272727272725 ['42', '7', '28', '1'] 313.6363636363635
44 6.2727272727272725 ['42', '7', '28', '1'] 313.6363636363635
45 6.2727272727272725 ['42', '7', '28', '1'] 313.6363636363635
46 6.2727272727272725 ['42', '7', '28', '1'] 313.6363636363635
47 6.2727272727272725 ['42', '7', '28', '1'] 313.6363636363635
48 6.2727272727272725 ['42', '7', '28', '1'] 313.6363636363635
49 6.2727272727272725 ['42', '7', '28', '1'] 313.6363636363635
50 6.2727272727272725 ['42', '7', '28', '1'] 313.6363636363635
51 6.2727272727272725 ['42', '7', '28', '1'] 313.6363636363635
52 6.2727272727272725 ['42', '7', '28', '1'] 313.6363636363635
53 6.2727272727272725 ['42', '7', '28', '1'] 313.6363636363635
54 6.2727272727272725 ['42', '7', '28', '1'] 313.6363636363635
55 6.2727272727272725 ['42', '7', '28', '1'] 313.6363636363635
56 6.2727272727272725 ['42', '7', '28', '1'] 313.6363636363635
57 6.2727272727272725 ['42', '7', '28', '1'] 313.6363636363635
58 6.2727272727272725 ['42', '7', '28', '1'] 313.6363636363635
59 6.2727272727272725 ['42', '7', '28', '1'] 313.6363636363635
60 6.2727272727272725 ['42', '7', '28', '1'] 313.6363636363635
61 6.2727272727272725 ['42', '7', '28', '1'] 313.6363636363635
62 6.2727272727272725 ['42', '7', '28', '1'] 313.6363636363635
63 6.2727272727272725 ['42', '7', '28', '1'] 313.6363636363635
64 6.2727272727272725 ['42', '7', '28', '1'] 313.6363636363635
65 6.2727272727272725 ['42', '7', '28', '1'] 313.6363636363635
66 6.2727272727272725 ['42', '7', '28', '1'] 313.6363636363635
67 6.2727272727272725 ['42', '7', '28', '1'] 313.6363636363635
68 6.2727272727272725 ['42', '7', '28', '1'] 313.6363636363635
69 6.2727272727272725 ['42', '7', '28', '1'] 313.6363636363635
70 6.2727272727272725 ['42', '7', '28', '1'] 313.6363636363635
71 6.2727272727272725 ['42', '7', '28', '1'] 313.6363636363635
72 6.2727272727272725 ['42', '7', '28', '1'] 313.6363636363635
73 6.2727272727272725 ['42', '7', '28', '1'] 313.6363636363635
74 6.2727272727272725 ['42', '7', '28', '1'] 313.6363636363635
75 6.2727272727272725 ['42', '7', '28', '1'] 313.6363636363635
76 6.2727272727272725 ['42', '7', '28', '1'] 313.6363636363635
77 6.2727272727272725 ['42', '7', '28', '1'] 313.6363636363635
78 6.2727272727272725 ['42', '7', '28', '1'] 313.6363636363635
79 6.2727272727272725 ['42', '7', '28', '1'] 313.6363636363635
80 6.2727272727272725 ['42', '7', '28', '1'] 313.6363636363635
81 6.2727272727272725 ['42', '7', '28', '1'] 313.6363636363635
82 6.2727272727272725 ['42', '7', '28', '1'] 313.6363636363635
83 6.2727272727272725 ['42', '7', '28', '1'] 313.6363636363635
84 6.2727272727272725 ['42', '7', '28', '1'] 313.6363636363635
85 6.2727272727272725 ['42', '7', '28', '1'] 313.6363636363635
86 6.2727272727272725 ['42', '7', '28', '1'] 313.6363636363635
87 6.2727272727272725 ['42', '7', '28', '1'] 313.6363636363635
88 6.2727272727272725 ['42', '7', '28', '1'] 313.6363636363635
89 6.2727272727272725 ['42', '7', '28', '1'] 313.6363636363635
90 6.2727272727272725 ['42', '7', '28', '1'] 313.6363636363635
91 6.2727272727272725 ['42', '7', '28', '1'] 313.6363636363635
92 6.2727272727272725 ['42', '7', '28', '1'] 313.6363636363635
93 6.2727272727272725 ['42', '7', '28', '1'] 313.6363636363635
94 6.2727272727272725 ['42', '7', '28', '1'] 313.6363636363635
95 6.2727272727272725 ['42', '7', '28', '1'] 313.6363636363635
96 6.2727272727272725 ['42', '7', '28', '1'] 313.6363636363635
97 6.2727272727272725 ['42', '7', '28', '1'] 313.6363636363635
98 6.2727272727272725 ['42', '7', '28', '1'] 313.6363636363635
99 6.2727272727272725 ['42', '7', '28', '1'] 313.6363636363635
100 6.2727272727272725 ['42', '7', '28', '1'] 313.6363636363635
101 6.2727272727272725 ['42', '7', '28', '1'] 313.6363636363635
102 6.2727272727272725 ['42', '7', '28', '1'] 313.6363636363635
103 6.2727272727272725 ['42', '7', '28', '1'] 313.6363636363635
104 6.2727272727272725 ['42', '7', '28', '1'] 313.6363636363635
105 6.2727272727272725 ['42', '7', '28', '1'] 313.6363636363635
106 6.2727272727272725 ['42', '7', '28', '1'] 313.6363636363635
107 6.2727272727272725 ['42', '7', '28', '1'] 313.6363636363635
108 6.2727272727272725 ['42', '7', '28', '1'] 313.6363636363635
109 6.2727272727272725 ['42', '7', '28', '1'] 313.6363636363635
110 6.2727272727272725 ['42', '7', '28', '1'] 313.6363636363635
111 6.2727272727272725 ['42', '7', '28', '1'] 313.6363636363635
112 6.2727272727272725 ['42', '7', '28', '1'] 313.6363636363635
113 6.2727272727272725 ['42', '7', '28', '1'] 313.6363636363635
114 6.2727272727272725 ['42', '7', '28', '1'] 313.6363636363635
115 6.2727272727272725 ['42', '7', '28', '1'] 313.6363636363635
116 6.2727272727272725 ['42', '7', '28', '1'] 313.6363636363635
117 6.2727272727272725 ['42', '7', '28', '1'] 313.6363636363635
118 6.2727272727272725 ['42', '7', '28', '1'] 313.6363636363635
119 6.2727272727272725 ['42', '7', '28', '1'] 313.6363636363635
120 6.2727272727272725 ['42', '7', '28', '1'] 313.6363636363635
121 6.2727272727272725 ['42', '7', '28', '1'] 313.6363636363635
122 6.2727272727272725 ['42', '7', '28', '1'] 313.6363636363635
123 6.2727272727272725 ['42', '7', '28', '1'] 313.6363636363635
124 6.2727272727272725 ['42', '7', '28', '1'] 313.6363636363635
125 6.2727272727272725 ['42', '7', '28', '1'] 313.6363636363635
126 6.2727272727272725 ['42', '7', '28', '1'] 313.6363636363635
127 6.2727272727272725 ['42', '7', '28', '1'] 313.6363636363635
128 6.2727272727272725 ['42', '7', '28', '1'] 313.6363636363635
129 6.2727272727272725 ['42', '7', '28', '1'] 313.6363636363635
130 6.2727272727272725 ['42', '7', '28', '1'] 313.6363636363635
131 6.2727272727272725 ['42', '7', '28', '1'] 313.6363636363635
132 6.2727272727272725 ['42', '7', '28', '1'] 313.6363636363635
133 6.2727272727272725 ['42', '7', '28', '1'] 313.6363636363635
134 6.2727272727272725 ['42', '7', '28', '1'] 313.6363636363635
135 6.2727272727272725 ['42', '7', '28', '1'] 313.6363636363635
136 6.2727272727272725 ['42', '7', '28', '1'] 313.6363636363635
137 6.2727272727272725 ['42', '7', '28', '1'] 313.6363636363635
138 6.2727272727272725 ['42', '7', '28', '1'] 313.6363636363635
139 6.2727272727272725 ['42', '7', '28', '1'] 313.6363636363635
140 6.2727272727272725 ['42', '7', '28', '1'] 313.6363636363635
141 6.2727272727272725 ['42', '7', '28', '1'] 313.6363636363635
142 6.2727272727272725 ['42', '7', '28', '1'] 313.6363636363635
143 6.2727272727272725 ['42', '7', '28', '1'] 313.6363636363635
144 6.2727272727272725 ['42', '7', '28', '1'] 313.6363636363635
145 6.2727272727272725 ['42', '7', '28', '1'] 313.6363636363635
146 6.2727272727272725 ['42', '7', '28', '1'] 313.6363636363635
147 6.2727272727272725 ['42', '7', '28', '1'] 313.6363636363635
148 6.2727272727272725 ['42', '7', '28', '1'] 313.6363636363635
149 6.2727272727272725 ['42', '7', '28', '1'] 313.6363636363635
150 6.2727272727272725 ['42', '7', '28', '1'] 313.6363636363635
151 6.2727272727272725 ['42', '7', '28', '1'] 313.6363636363635
152 6.2727272727272725 ['42', '7', '28', '1'] 313.6363636363635
153 6.2727272727272725 ['42', '7', '28', '1'] 313.6363636363635
154 6.2727272727272725 ['42', '7', '28', '1'] 313.6363636363635
155 6.2727272727272725 ['42', '7', '28', '1'] 313.6363636363635
156 6.2727272727272725 ['42', '7', '28', '1'] 313.6363636363635
157 6.2727272727272725 ['42', '7', '28', '1'] 313.6363636363635
158 6.2727272727272725 ['42', '7', '28', '1'] 313.6363636363635
159 6.2727272727272725 ['42', '7', '28', '1'] 313.6363636363635
160 6.2727272727272725 ['42', '7', '28', '1'] 313.6363636363635
161 6.2727272727272725 ['42', '7', '28', '1'] 313.6363636363635
162 6.2727272727272725 ['42', '7', '28', '1'] 313.6363636363635
163 6.2727272727272725 ['42', '7', '28', '1'] 313.6363636363635
164 6.2727272727272725 ['42', '7', '28', '1'] 313.6363636363635
165 6.2727272727272725 ['42', '7', '28', '1'] 313.6363636363635
166 6.2727272727272725 ['42', '7', '28', '1'] 313.6363636363635
167 6.2727272727272725 ['42', '7', '28', '1'] 313.6363636363635
168 6.2727272727272725 ['42', '7', '28', '1'] 313.6363636363635
169 6.2727272727272725 ['42', '7', '28', '1'] 313.6363636363635
170 6.2727272727272725 ['42', '7', '28', '1'] 313.6363636363635
171 6.2727272727272725 ['42', '7', '28', '1'] 313.6363636363635
172 6.2727272727272725 ['42', '7', '28', '1'] 313.6363636363635
173 6.2727272727272725 ['42', '7', '28', '1'] 313.6363636363635
174 6.2727272727272725 ['42', '7', '28', '1'] 313.6363636363635
175 6.2727272727272725 ['42', '7', '28', '1'] 313.6363636363635
176 6.2727272727272725 ['42', '7', '28', '1'] 313.6363636363635
177 6.2727272727272725 ['42', '7', '28', '1'] 313.6363636363635
178 6.2727272727272725 ['42', '7', '28', '1'] 313.6363636363635
179 6.2727272727272725 ['42', '7', '28', '1'] 313.6363636363635
180 6.2727272727272725 ['42', '7', '28', '1'] 313.6363636363635
181 6.2727272727272725 ['42', '7', '28', '1'] 313.6363636363635
182 6.2727272727272725 ['42', '7', '28', '1'] 313.6363636363635
183 6.2727272727272725 ['42', '7', '28', '1'] 313.6363636363635
184 6.2727272727272725 ['42', '7', '28', '1'] 313.6363636363635
185 6.2727272727272725 ['42', '7', '28', '1'] 313.6363636363635
186 6.2727272727272725 ['42', '7', '28', '1'] 313.6363636363635
187 6.2727272727272725 ['42', '7', '28', '1'] 313.6363636363635
188 6.2727272727272725 ['42', '7', '28', '1'] 313.6363636363635
189 6.2727272727272725 ['42', '7', '28', '1'] 313.6363636363635
190 6.2727272727272725 ['42', '7', '28', '1'] 313.6363636363635
191 6.2727272727272725 ['42', '7', '28', '1'] 313.6363636363635
192 6.2727272727272725 ['42', '7', '28', '1'] 313.6363636363635
193 6.2727272727272725 ['42', '7', '28', '1'] 313.6363636363635
194 6.2727272727272725 ['42', '7', '28', '1'] 313.6363636363635
195 6.2727272727272725 ['42', '7', '28', '1'] 313.6363636363635
196 6.2727272727272725 ['42', '7', '28', '1'] 313.6363636363635
197 6.2727272727272725 ['42', '7', '28', '1'] 313.6363636363635
198 6.2727272727272725 ['42', '7', '28', '1'] 313.6363636363635
199 6.2727272727272725 ['42', '7', '28', '1'] 313.6363636363635
