0 5.395679012345679 ['36', '124', '112', '55', '146', '91', '139', '84', '143', '48', '109', '148', '94', '103', '81'] 273.1774074074075
1 5.395679012345679 ['36', '124', '112', '55', '146', '91', '139', '84', '143', '48', '109', '148', '94', '103', '81'] 272.4165432098765
2 5.362716049382715 ['22', '110', '53', '48', '85', '44', '118', '10', '146', '131', '140', '15', '55', '126', '6'] 271.3855555555556
3 5.344567901234566 ['146', '135', '39', '7', '28', '95', '58', '57', '132', '140', '91', '137', '150', '138', '3'] 270.47567901234555
4 5.344567901234566 ['146', '135', '39', '7', '28', '95', '58', '57', '132', '140', '91', '137', '150', '138', '3'] 269.7835802469136
5 5.341728395061728 ['143', '48', '80', '149', '7', '93', '111', '148', '4', '78', '139', '53', '116', '138', '8'] 269.1895061728396
6 5.314814814814812 ['139', '48', '148', '131', '10', '140', '50', '143', '142', '94', '22', '146', '76', '126', '96'] 268.57469135802484
7 5.30827160493827 ['139', '48', '148', '4', '149', '138', '56', '143', '112', '103', '44', '10', '58', '78', '150'] 267.7362962962963
8 5.256419753086418 ['142', '148', '139', '94', '146', '96', '112', '131', '58', '126', '7', '140', '143', '44', '4'] 266.8291358024691
9 5.256419753086418 ['142', '148', '139', '94', '146', '96', '112', '131', '58', '126', '7', '140', '143', '44', '4'] 266.16061728395056
10 5.173209876543206 ['44', '55', '148', '138', '114', '131', '112', '126', '150', '143', '10', '149', '139', '123', '19'] 265.4960493827161
11 5.173209876543206 ['44', '55', '148', '138', '114', '131', '112', '126', '150', '143', '10', '149', '139', '123', '19'] 264.81308641975306
12 5.173209876543206 ['44', '55', '148', '138', '114', '131', '112', '126', '150', '143', '10', '149', '139', '123', '19'] 264.2490123456789
13 5.173209876543206 ['44', '55', '148', '138', '114', '131', '112', '126', '150', '143', '10', '149', '139', '123', '19'] 263.53691358024685
14 5.173209876543206 ['44', '55', '148', '138', '114', '131', '112', '126', '150', '143', '10', '149', '139', '123', '19'] 262.7975308641975
15 5.173209876543206 ['44', '55', '148', '138', '114', '131', '112', '126', '150', '143', '10', '149', '139', '123', '19'] 262.3087654320988
16 5.161975308641976 ['139', '131', '148', '114', '111', '143', '58', '112', '146', '78', '80', '123', '96', '126', '91'] 261.60839506172834
17 5.161975308641976 ['139', '131', '148', '114', '111', '143', '58', '112', '146', '78', '80', '123', '96', '126', '91'] 260.923086419753
18 5.161975308641976 ['139', '131', '148', '114', '111', '143', '58', '112', '146', '78', '80', '123', '96', '126', '91'] 260.3724691358024
19 5.148888888888886 ['55', '142', '148', '131', '114', '126', '139', '138', '143', '112', '56', '85', '123', '84', '44'] 259.64506172839504
20 5.14753086419753 ['114', '148', '56', '10', '112', '44', '126', '139', '131', '143', '138', '150', '123', '120', '80'] 259.0303703703703
21 5.113827160493827 ['44', '148', '56', '150', '149', '139', '126', '10', '55', '112', '143', '131', '114', '123', '80'] 258.4746913580246
22 5.113827160493827 ['44', '148', '56', '150', '149', '139', '126', '10', '55', '112', '143', '131', '114', '123', '80'] 257.9037037037036
23 5.112222222222222 ['114', '123', '131', '112', '148', '139', '143', '80', '126', '10', '142', '150', '19', '56', '149'] 257.3504938271605
24 5.096172839506174 ['112', '126', '10', '114', '56', '123', '149', '148', '139', '131', '143', '58', '120', '150', '80'] 256.9223456790123
25 5.0953086419753095 ['126', '139', '114', '10', '123', '148', '112', '80', '56', '149', '143', '131', '150', '120', '55'] 256.37345679012344
26 5.0953086419753095 ['126', '139', '114', '10', '123', '148', '112', '80', '56', '149', '143', '131', '150', '120', '55'] 255.87604938271613
27 5.0953086419753095 ['126', '139', '114', '10', '123', '148', '112', '80', '56', '149', '143', '131', '150', '120', '55'] 255.48666666666662
28 5.0953086419753095 ['126', '139', '114', '10', '123', '148', '112', '80', '56', '149', '143', '131', '150', '120', '55'] 255.29024691358023
29 5.093086419753088 ['143', '56', '10', '150', '148', '131', '112', '123', '139', '114', '126', '80', '149', '19', '120'] 254.91012345679016
30 5.093086419753088 ['143', '56', '10', '150', '148', '131', '112', '123', '139', '114', '126', '80', '149', '19', '120'] 254.7609876543213
31 5.093086419753088 ['143', '56', '10', '150', '148', '131', '112', '123', '139', '114', '126', '80', '149', '19', '120'] 254.75654320987687
32 5.093086419753088 ['143', '56', '10', '150', '148', '131', '112', '123', '139', '114', '126', '80', '149', '19', '120'] 254.74543209876575
33 5.093086419753088 ['143', '56', '10', '150', '148', '131', '112', '123', '139', '114', '126', '80', '149', '19', '120'] 254.71654320987693
34 5.093086419753088 ['143', '56', '10', '150', '148', '131', '112', '123', '139', '114', '126', '80', '149', '19', '120'] 254.66320987654345
35 5.093086419753088 ['143', '56', '10', '150', '148', '131', '112', '123', '139', '114', '126', '80', '149', '19', '120'] 254.65432098765453
36 5.093086419753088 ['143', '56', '10', '150', '148', '131', '112', '123', '139', '114', '126', '80', '149', '19', '120'] 254.65432098765453
37 5.093086419753088 ['143', '56', '10', '150', '148', '131', '112', '123', '139', '114', '126', '80', '149', '19', '120'] 254.65432098765453
38 5.093086419753088 ['143', '56', '10', '150', '148', '131', '112', '123', '139', '114', '126', '80', '149', '19', '120'] 254.65432098765453
39 5.093086419753088 ['143', '56', '10', '150', '148', '131', '112', '123', '139', '114', '126', '80', '149', '19', '120'] 254.65432098765453
40 5.093086419753088 ['143', '56', '10', '150', '148', '131', '112', '123', '139', '114', '126', '80', '149', '19', '120'] 254.65432098765453
41 5.093086419753088 ['143', '56', '10', '150', '148', '131', '112', '123', '139', '114', '126', '80', '149', '19', '120'] 254.65432098765453
42 5.093086419753088 ['143', '56', '10', '150', '148', '131', '112', '123', '139', '114', '126', '80', '149', '19', '120'] 254.65432098765453
43 5.093086419753088 ['143', '56', '10', '150', '148', '131', '112', '123', '139', '114', '126', '80', '149', '19', '120'] 254.65432098765453
44 5.093086419753088 ['143', '56', '10', '150', '148', '131', '112', '123', '139', '114', '126', '80', '149', '19', '120'] 254.65432098765453
45 5.093086419753088 ['143', '56', '10', '150', '148', '131', '112', '123', '139', '114', '126', '80', '149', '19', '120'] 254.65432098765453
46 5.093086419753088 ['143', '56', '10', '150', '148', '131', '112', '123', '139', '114', '126', '80', '149', '19', '120'] 254.65432098765453
47 5.093086419753088 ['143', '56', '10', '150', '148', '131', '112', '123', '139', '114', '126', '80', '149', '19', '120'] 254.65432098765453
48 5.093086419753088 ['143', '56', '10', '150', '148', '131', '112', '123', '139', '114', '126', '80', '149', '19', '120'] 254.65432098765453
49 5.093086419753088 ['143', '56', '10', '150', '148', '131', '112', '123', '139', '114', '126', '80', '149', '19', '120'] 254.65432098765453
50 5.093086419753088 ['143', '56', '10', '150', '148', '131', '112', '123', '139', '114', '126', '80', '149', '19', '120'] 254.65432098765453
51 5.093086419753088 ['143', '56', '10', '150', '148', '131', '112', '123', '139', '114', '126', '80', '149', '19', '120'] 254.65432098765453
52 5.093086419753088 ['143', '56', '10', '150', '148', '131', '112', '123', '139', '114', '126', '80', '149', '19', '120'] 254.65432098765453
53 5.093086419753088 ['143', '56', '10', '150', '148', '131', '112', '123', '139', '114', '126', '80', '149', '19', '120'] 254.65432098765453
54 5.093086419753088 ['143', '56', '10', '150', '148', '131', '112', '123', '139', '114', '126', '80', '149', '19', '120'] 254.65432098765453
55 5.093086419753088 ['143', '56', '10', '150', '148', '131', '112', '123', '139', '114', '126', '80', '149', '19', '120'] 254.65432098765453
56 5.093086419753088 ['143', '56', '10', '150', '148', '131', '112', '123', '139', '114', '126', '80', '149', '19', '120'] 254.65432098765453
57 5.093086419753088 ['143', '56', '10', '150', '148', '131', '112', '123', '139', '114', '126', '80', '149', '19', '120'] 254.65432098765453
58 5.093086419753088 ['143', '56', '10', '150', '148', '131', '112', '123', '139', '114', '126', '80', '149', '19', '120'] 254.65432098765453
59 5.093086419753088 ['143', '56', '10', '150', '148', '131', '112', '123', '139', '114', '126', '80', '149', '19', '120'] 254.65432098765453
60 5.093086419753088 ['143', '56', '10', '150', '148', '131', '112', '123', '139', '114', '126', '80', '149', '19', '120'] 254.65432098765453
61 5.093086419753088 ['143', '56', '10', '150', '148', '131', '112', '123', '139', '114', '126', '80', '149', '19', '120'] 254.65432098765453
62 5.093086419753088 ['143', '56', '10', '150', '148', '131', '112', '123', '139', '114', '126', '80', '149', '19', '120'] 254.65432098765453
63 5.093086419753088 ['143', '56', '10', '150', '148', '131', '112', '123', '139', '114', '126', '80', '149', '19', '120'] 254.65432098765453
64 5.093086419753088 ['143', '56', '10', '150', '148', '131', '112', '123', '139', '114', '126', '80', '149', '19', '120'] 254.65432098765453
65 5.093086419753088 ['143', '56', '10', '150', '148', '131', '112', '123', '139', '114', '126', '80', '149', '19', '120'] 254.65432098765453
66 5.093086419753088 ['143', '56', '10', '150', '148', '131', '112', '123', '139', '114', '126', '80', '149', '19', '120'] 254.65432098765453
67 5.093086419753088 ['143', '56', '10', '150', '148', '131', '112', '123', '139', '114', '126', '80', '149', '19', '120'] 254.65432098765453
68 5.093086419753088 ['143', '56', '10', '150', '148', '131', '112', '123', '139', '114', '126', '80', '149', '19', '120'] 254.65432098765453
69 5.093086419753088 ['143', '56', '10', '150', '148', '131', '112', '123', '139', '114', '126', '80', '149', '19', '120'] 254.65432098765453
70 5.093086419753088 ['143', '56', '10', '150', '148', '131', '112', '123', '139', '114', '126', '80', '149', '19', '120'] 254.65432098765453
71 5.093086419753088 ['143', '56', '10', '150', '148', '131', '112', '123', '139', '114', '126', '80', '149', '19', '120'] 254.65432098765453
72 5.093086419753088 ['143', '56', '10', '150', '148', '131', '112', '123', '139', '114', '126', '80', '149', '19', '120'] 254.65432098765453
73 5.093086419753088 ['143', '56', '10', '150', '148', '131', '112', '123', '139', '114', '126', '80', '149', '19', '120'] 254.65432098765453
74 5.093086419753088 ['143', '56', '10', '150', '148', '131', '112', '123', '139', '114', '126', '80', '149', '19', '120'] 254.65432098765453
75 5.093086419753088 ['143', '56', '10', '150', '148', '131', '112', '123', '139', '114', '126', '80', '149', '19', '120'] 254.65432098765453
76 5.093086419753088 ['143', '56', '10', '150', '148', '131', '112', '123', '139', '114', '126', '80', '149', '19', '120'] 254.65432098765453
77 5.093086419753088 ['143', '56', '10', '150', '148', '131', '112', '123', '139', '114', '126', '80', '149', '19', '120'] 254.65432098765453
78 5.093086419753088 ['143', '56', '10', '150', '148', '131', '112', '123', '139', '114', '126', '80', '149', '19', '120'] 254.65432098765453
79 5.093086419753088 ['143', '56', '10', '150', '148', '131', '112', '123', '139', '114', '126', '80', '149', '19', '120'] 254.65432098765453
80 5.093086419753088 ['143', '56', '10', '150', '148', '131', '112', '123', '139', '114', '126', '80', '149', '19', '120'] 254.65432098765453
81 5.093086419753088 ['143', '56', '10', '150', '148', '131', '112', '123', '139', '114', '126', '80', '149', '19', '120'] 254.65432098765453
82 5.093086419753088 ['143', '56', '10', '150', '148', '131', '112', '123', '139', '114', '126', '80', '149', '19', '120'] 254.65432098765453
83 5.093086419753088 ['143', '56', '10', '150', '148', '131', '112', '123', '139', '114', '126', '80', '149', '19', '120'] 254.65432098765453
84 5.093086419753088 ['143', '56', '10', '150', '148', '131', '112', '123', '139', '114', '126', '80', '149', '19', '120'] 254.65432098765453
85 5.093086419753088 ['143', '56', '10', '150', '148', '131', '112', '123', '139', '114', '126', '80', '149', '19', '120'] 254.65432098765453
86 5.093086419753088 ['143', '56', '10', '150', '148', '131', '112', '123', '139', '114', '126', '80', '149', '19', '120'] 254.65432098765453
87 5.093086419753088 ['143', '56', '10', '150', '148', '131', '112', '123', '139', '114', '126', '80', '149', '19', '120'] 254.65432098765453
88 5.093086419753088 ['143', '56', '10', '150', '148', '131', '112', '123', '139', '114', '126', '80', '149', '19', '120'] 254.65432098765453
89 5.093086419753088 ['143', '56', '10', '150', '148', '131', '112', '123', '139', '114', '126', '80', '149', '19', '120'] 254.65432098765453
90 5.093086419753088 ['143', '56', '10', '150', '148', '131', '112', '123', '139', '114', '126', '80', '149', '19', '120'] 254.65432098765453
91 5.093086419753088 ['143', '56', '10', '150', '148', '131', '112', '123', '139', '114', '126', '80', '149', '19', '120'] 254.65432098765453
92 5.093086419753088 ['143', '56', '10', '150', '148', '131', '112', '123', '139', '114', '126', '80', '149', '19', '120'] 254.65432098765453
93 5.093086419753088 ['143', '56', '10', '150', '148', '131', '112', '123', '139', '114', '126', '80', '149', '19', '120'] 254.65432098765453
94 5.093086419753088 ['143', '56', '10', '150', '148', '131', '112', '123', '139', '114', '126', '80', '149', '19', '120'] 254.65432098765453
95 5.093086419753088 ['143', '56', '10', '150', '148', '131', '112', '123', '139', '114', '126', '80', '149', '19', '120'] 254.65432098765453
96 5.093086419753088 ['143', '56', '10', '150', '148', '131', '112', '123', '139', '114', '126', '80', '149', '19', '120'] 254.65432098765453
97 5.093086419753088 ['143', '56', '10', '150', '148', '131', '112', '123', '139', '114', '126', '80', '149', '19', '120'] 254.65432098765453
98 5.093086419753088 ['143', '56', '10', '150', '148', '131', '112', '123', '139', '114', '126', '80', '149', '19', '120'] 254.65432098765453
99 5.093086419753088 ['143', '56', '10', '150', '148', '131', '112', '123', '139', '114', '126', '80', '149', '19', '120'] 254.65432098765453
100 5.093086419753088 ['143', '56', '10', '150', '148', '131', '112', '123', '139', '114', '126', '80', '149', '19', '120'] 254.65432098765453
101 5.093086419753088 ['143', '56', '10', '150', '148', '131', '112', '123', '139', '114', '126', '80', '149', '19', '120'] 254.65432098765453
102 5.093086419753088 ['143', '56', '10', '150', '148', '131', '112', '123', '139', '114', '126', '80', '149', '19', '120'] 254.65432098765453
103 5.093086419753088 ['143', '56', '10', '150', '148', '131', '112', '123', '139', '114', '126', '80', '149', '19', '120'] 254.65432098765453
104 5.093086419753088 ['143', '56', '10', '150', '148', '131', '112', '123', '139', '114', '126', '80', '149', '19', '120'] 254.65432098765453
105 5.093086419753088 ['143', '56', '10', '150', '148', '131', '112', '123', '139', '114', '126', '80', '149', '19', '120'] 254.65432098765453
106 5.093086419753088 ['143', '56', '10', '150', '148', '131', '112', '123', '139', '114', '126', '80', '149', '19', '120'] 254.65432098765453
107 5.093086419753088 ['143', '56', '10', '150', '148', '131', '112', '123', '139', '114', '126', '80', '149', '19', '120'] 254.65432098765453
108 5.093086419753088 ['143', '56', '10', '150', '148', '131', '112', '123', '139', '114', '126', '80', '149', '19', '120'] 254.65432098765453
109 5.093086419753088 ['143', '56', '10', '150', '148', '131', '112', '123', '139', '114', '126', '80', '149', '19', '120'] 254.65432098765453
110 5.093086419753088 ['143', '56', '10', '150', '148', '131', '112', '123', '139', '114', '126', '80', '149', '19', '120'] 254.65432098765453
111 5.093086419753088 ['143', '56', '10', '150', '148', '131', '112', '123', '139', '114', '126', '80', '149', '19', '120'] 254.65432098765453
112 5.093086419753088 ['143', '56', '10', '150', '148', '131', '112', '123', '139', '114', '126', '80', '149', '19', '120'] 254.65432098765453
113 5.093086419753088 ['143', '56', '10', '150', '148', '131', '112', '123', '139', '114', '126', '80', '149', '19', '120'] 254.65432098765453
114 5.093086419753088 ['143', '56', '10', '150', '148', '131', '112', '123', '139', '114', '126', '80', '149', '19', '120'] 254.65432098765453
115 5.093086419753088 ['143', '56', '10', '150', '148', '131', '112', '123', '139', '114', '126', '80', '149', '19', '120'] 254.65432098765453
116 5.093086419753088 ['143', '56', '10', '150', '148', '131', '112', '123', '139', '114', '126', '80', '149', '19', '120'] 254.65432098765453
117 5.093086419753088 ['143', '56', '10', '150', '148', '131', '112', '123', '139', '114', '126', '80', '149', '19', '120'] 254.65432098765453
118 5.093086419753088 ['143', '56', '10', '150', '148', '131', '112', '123', '139', '114', '126', '80', '149', '19', '120'] 254.65432098765453
119 5.093086419753088 ['143', '56', '10', '150', '148', '131', '112', '123', '139', '114', '126', '80', '149', '19', '120'] 254.65432098765453
120 5.093086419753088 ['143', '56', '10', '150', '148', '131', '112', '123', '139', '114', '126', '80', '149', '19', '120'] 254.65432098765453
121 5.093086419753088 ['143', '56', '10', '150', '148', '131', '112', '123', '139', '114', '126', '80', '149', '19', '120'] 254.65432098765453
122 5.093086419753088 ['143', '56', '10', '150', '148', '131', '112', '123', '139', '114', '126', '80', '149', '19', '120'] 254.65432098765453
123 5.093086419753088 ['143', '56', '10', '150', '148', '131', '112', '123', '139', '114', '126', '80', '149', '19', '120'] 254.65432098765453
124 5.093086419753088 ['143', '56', '10', '150', '148', '131', '112', '123', '139', '114', '126', '80', '149', '19', '120'] 254.65432098765453
125 5.093086419753088 ['143', '56', '10', '150', '148', '131', '112', '123', '139', '114', '126', '80', '149', '19', '120'] 254.65432098765453
126 5.093086419753088 ['143', '56', '10', '150', '148', '131', '112', '123', '139', '114', '126', '80', '149', '19', '120'] 254.65432098765453
127 5.093086419753088 ['143', '56', '10', '150', '148', '131', '112', '123', '139', '114', '126', '80', '149', '19', '120'] 254.65432098765453
128 5.093086419753088 ['143', '56', '10', '150', '148', '131', '112', '123', '139', '114', '126', '80', '149', '19', '120'] 254.65432098765453
129 5.093086419753088 ['143', '56', '10', '150', '148', '131', '112', '123', '139', '114', '126', '80', '149', '19', '120'] 254.65432098765453
130 5.093086419753088 ['143', '56', '10', '150', '148', '131', '112', '123', '139', '114', '126', '80', '149', '19', '120'] 254.65432098765453
131 5.093086419753088 ['143', '56', '10', '150', '148', '131', '112', '123', '139', '114', '126', '80', '149', '19', '120'] 254.65432098765453
132 5.093086419753088 ['143', '56', '10', '150', '148', '131', '112', '123', '139', '114', '126', '80', '149', '19', '120'] 254.65432098765453
133 5.093086419753088 ['143', '56', '10', '150', '148', '131', '112', '123', '139', '114', '126', '80', '149', '19', '120'] 254.65432098765453
134 5.093086419753088 ['143', '56', '10', '150', '148', '131', '112', '123', '139', '114', '126', '80', '149', '19', '120'] 254.65432098765453
135 5.093086419753088 ['143', '56', '10', '150', '148', '131', '112', '123', '139', '114', '126', '80', '149', '19', '120'] 254.65432098765453
136 5.093086419753088 ['143', '56', '10', '150', '148', '131', '112', '123', '139', '114', '126', '80', '149', '19', '120'] 254.65432098765453
137 5.093086419753088 ['143', '56', '10', '150', '148', '131', '112', '123', '139', '114', '126', '80', '149', '19', '120'] 254.65432098765453
138 5.093086419753088 ['143', '56', '10', '150', '148', '131', '112', '123', '139', '114', '126', '80', '149', '19', '120'] 254.65432098765453
139 5.093086419753088 ['143', '56', '10', '150', '148', '131', '112', '123', '139', '114', '126', '80', '149', '19', '120'] 254.65432098765453
140 5.093086419753088 ['143', '56', '10', '150', '148', '131', '112', '123', '139', '114', '126', '80', '149', '19', '120'] 254.65432098765453
141 5.093086419753088 ['143', '56', '10', '150', '148', '131', '112', '123', '139', '114', '126', '80', '149', '19', '120'] 254.65432098765453
142 5.093086419753088 ['143', '56', '10', '150', '148', '131', '112', '123', '139', '114', '126', '80', '149', '19', '120'] 254.65432098765453
143 5.093086419753088 ['143', '56', '10', '150', '148', '131', '112', '123', '139', '114', '126', '80', '149', '19', '120'] 254.65432098765453
144 5.093086419753088 ['143', '56', '10', '150', '148', '131', '112', '123', '139', '114', '126', '80', '149', '19', '120'] 254.65432098765453
145 5.093086419753088 ['143', '56', '10', '150', '148', '131', '112', '123', '139', '114', '126', '80', '149', '19', '120'] 254.65432098765453
146 5.093086419753088 ['143', '56', '10', '150', '148', '131', '112', '123', '139', '114', '126', '80', '149', '19', '120'] 254.65432098765453
147 5.093086419753088 ['143', '56', '10', '150', '148', '131', '112', '123', '139', '114', '126', '80', '149', '19', '120'] 254.65432098765453
148 5.093086419753088 ['143', '56', '10', '150', '148', '131', '112', '123', '139', '114', '126', '80', '149', '19', '120'] 254.65432098765453
149 5.093086419753088 ['143', '56', '10', '150', '148', '131', '112', '123', '139', '114', '126', '80', '149', '19', '120'] 254.65432098765453
150 5.093086419753088 ['143', '56', '10', '150', '148', '131', '112', '123', '139', '114', '126', '80', '149', '19', '120'] 254.65432098765453
151 5.093086419753088 ['143', '56', '10', '150', '148', '131', '112', '123', '139', '114', '126', '80', '149', '19', '120'] 254.65432098765453
152 5.093086419753088 ['143', '56', '10', '150', '148', '131', '112', '123', '139', '114', '126', '80', '149', '19', '120'] 254.65432098765453
153 5.093086419753088 ['143', '56', '10', '150', '148', '131', '112', '123', '139', '114', '126', '80', '149', '19', '120'] 254.65432098765453
154 5.093086419753088 ['143', '56', '10', '150', '148', '131', '112', '123', '139', '114', '126', '80', '149', '19', '120'] 254.65432098765453
155 5.093086419753088 ['143', '56', '10', '150', '148', '131', '112', '123', '139', '114', '126', '80', '149', '19', '120'] 254.65432098765453
156 5.093086419753088 ['143', '56', '10', '150', '148', '131', '112', '123', '139', '114', '126', '80', '149', '19', '120'] 254.65432098765453
157 5.093086419753088 ['143', '56', '10', '150', '148', '131', '112', '123', '139', '114', '126', '80', '149', '19', '120'] 254.65432098765453
158 5.093086419753088 ['143', '56', '10', '150', '148', '131', '112', '123', '139', '114', '126', '80', '149', '19', '120'] 254.65432098765453
159 5.093086419753088 ['143', '56', '10', '150', '148', '131', '112', '123', '139', '114', '126', '80', '149', '19', '120'] 254.65432098765453
160 5.093086419753088 ['143', '56', '10', '150', '148', '131', '112', '123', '139', '114', '126', '80', '149', '19', '120'] 254.65432098765453
161 5.093086419753088 ['143', '56', '10', '150', '148', '131', '112', '123', '139', '114', '126', '80', '149', '19', '120'] 254.65432098765453
162 5.093086419753088 ['143', '56', '10', '150', '148', '131', '112', '123', '139', '114', '126', '80', '149', '19', '120'] 254.65432098765453
163 5.093086419753088 ['143', '56', '10', '150', '148', '131', '112', '123', '139', '114', '126', '80', '149', '19', '120'] 254.65432098765453
164 5.093086419753088 ['143', '56', '10', '150', '148', '131', '112', '123', '139', '114', '126', '80', '149', '19', '120'] 254.65432098765453
165 5.093086419753088 ['143', '56', '10', '150', '148', '131', '112', '123', '139', '114', '126', '80', '149', '19', '120'] 254.65432098765453
166 5.093086419753088 ['143', '56', '10', '150', '148', '131', '112', '123', '139', '114', '126', '80', '149', '19', '120'] 254.65432098765453
167 5.093086419753088 ['143', '56', '10', '150', '148', '131', '112', '123', '139', '114', '126', '80', '149', '19', '120'] 254.65432098765453
168 5.093086419753088 ['143', '56', '10', '150', '148', '131', '112', '123', '139', '114', '126', '80', '149', '19', '120'] 254.65432098765453
169 5.093086419753088 ['143', '56', '10', '150', '148', '131', '112', '123', '139', '114', '126', '80', '149', '19', '120'] 254.65432098765453
170 5.093086419753088 ['143', '56', '10', '150', '148', '131', '112', '123', '139', '114', '126', '80', '149', '19', '120'] 254.65432098765453
171 5.093086419753088 ['143', '56', '10', '150', '148', '131', '112', '123', '139', '114', '126', '80', '149', '19', '120'] 254.65432098765453
172 5.093086419753088 ['143', '56', '10', '150', '148', '131', '112', '123', '139', '114', '126', '80', '149', '19', '120'] 254.65432098765453
173 5.093086419753088 ['143', '56', '10', '150', '148', '131', '112', '123', '139', '114', '126', '80', '149', '19', '120'] 254.65432098765453
174 5.093086419753088 ['143', '56', '10', '150', '148', '131', '112', '123', '139', '114', '126', '80', '149', '19', '120'] 254.65432098765453
175 5.093086419753088 ['143', '56', '10', '150', '148', '131', '112', '123', '139', '114', '126', '80', '149', '19', '120'] 254.65432098765453
176 5.093086419753088 ['143', '56', '10', '150', '148', '131', '112', '123', '139', '114', '126', '80', '149', '19', '120'] 254.65432098765453
177 5.093086419753088 ['143', '56', '10', '150', '148', '131', '112', '123', '139', '114', '126', '80', '149', '19', '120'] 254.65432098765453
178 5.093086419753088 ['143', '56', '10', '150', '148', '131', '112', '123', '139', '114', '126', '80', '149', '19', '120'] 254.65432098765453
179 5.093086419753088 ['143', '56', '10', '150', '148', '131', '112', '123', '139', '114', '126', '80', '149', '19', '120'] 254.65432098765453
180 5.093086419753088 ['143', '56', '10', '150', '148', '131', '112', '123', '139', '114', '126', '80', '149', '19', '120'] 254.65432098765453
181 5.093086419753088 ['143', '56', '10', '150', '148', '131', '112', '123', '139', '114', '126', '80', '149', '19', '120'] 254.65432098765453
182 5.093086419753088 ['143', '56', '10', '150', '148', '131', '112', '123', '139', '114', '126', '80', '149', '19', '120'] 254.65432098765453
183 5.093086419753088 ['143', '56', '10', '150', '148', '131', '112', '123', '139', '114', '126', '80', '149', '19', '120'] 254.65432098765453
184 5.093086419753088 ['143', '56', '10', '150', '148', '131', '112', '123', '139', '114', '126', '80', '149', '19', '120'] 254.65432098765453
185 5.093086419753088 ['143', '56', '10', '150', '148', '131', '112', '123', '139', '114', '126', '80', '149', '19', '120'] 254.65432098765453
186 5.093086419753088 ['143', '56', '10', '150', '148', '131', '112', '123', '139', '114', '126', '80', '149', '19', '120'] 254.65432098765453
187 5.093086419753088 ['143', '56', '10', '150', '148', '131', '112', '123', '139', '114', '126', '80', '149', '19', '120'] 254.65432098765453
188 5.093086419753088 ['143', '56', '10', '150', '148', '131', '112', '123', '139', '114', '126', '80', '149', '19', '120'] 254.65432098765453
189 5.093086419753088 ['143', '56', '10', '150', '148', '131', '112', '123', '139', '114', '126', '80', '149', '19', '120'] 254.65432098765453
190 5.093086419753088 ['143', '56', '10', '150', '148', '131', '112', '123', '139', '114', '126', '80', '149', '19', '120'] 254.65432098765453
191 5.093086419753088 ['143', '56', '10', '150', '148', '131', '112', '123', '139', '114', '126', '80', '149', '19', '120'] 254.65432098765453
192 5.093086419753088 ['143', '56', '10', '150', '148', '131', '112', '123', '139', '114', '126', '80', '149', '19', '120'] 254.65432098765453
193 5.093086419753088 ['143', '56', '10', '150', '148', '131', '112', '123', '139', '114', '126', '80', '149', '19', '120'] 254.65432098765453
194 5.093086419753088 ['143', '56', '10', '150', '148', '131', '112', '123', '139', '114', '126', '80', '149', '19', '120'] 254.65432098765453
195 5.093086419753088 ['143', '56', '10', '150', '148', '131', '112', '123', '139', '114', '126', '80', '149', '19', '120'] 254.65432098765453
196 5.093086419753088 ['143', '56', '10', '150', '148', '131', '112', '123', '139', '114', '126', '80', '149', '19', '120'] 254.65432098765453
197 5.093086419753088 ['143', '56', '10', '150', '148', '131', '112', '123', '139', '114', '126', '80', '149', '19', '120'] 254.65432098765453
198 5.093086419753088 ['143', '56', '10', '150', '148', '131', '112', '123', '139', '114', '126', '80', '149', '19', '120'] 254.65432098765453
199 5.093086419753088 ['143', '56', '10', '150', '148', '131', '112', '123', '139', '114', '126', '80', '149', '19', '120'] 254.65432098765453
