0 5.532345679012345 ['143', '126', '148', '71', '111', '49', '19', '64', '150', '42', '12', '27', '121', '18', '7'] 279.69925925925935
1 5.518271604938273 ['15', '144', '111', '95', '105', '141', '82', '33', '128', '29', '59', '142', '117', '60', '119'] 278.7466666666668
2 5.518271604938273 ['15', '144', '111', '95', '105', '141', '82', '33', '128', '29', '59', '142', '117', '60', '119'] 277.90333333333336
3 5.441728395061731 ['111', '135', '104', '38', '14', '122', '8', '107', '140', '145', '137', '33', '15', '119', '99'] 277.08975308641976
4 5.421234567901235 ['99', '8', '111', '107', '137', '135', '104', '122', '138', '14', '34', '84', '33', '145', '15'] 276.30654320987657
5 5.421234567901235 ['99', '8', '111', '107', '137', '135', '104', '122', '138', '14', '34', '84', '33', '145', '15'] 275.2127160493827
6 5.401234567901238 ['60', '58', '122', '135', '111', '99', '137', '106', '107', '14', '32', '119', '123', '148', '150'] 274.01592592592607
7 5.401234567901238 ['60', '58', '122', '135', '111', '99', '137', '106', '107', '14', '32', '119', '123', '148', '150'] 273.12530864197544
8 5.355432098765434 ['148', '150', '135', '111', '123', '27', '106', '18', '71', '137', '119', '107', '14', '19', '130'] 271.993827160494
9 5.355432098765434 ['148', '150', '135', '111', '123', '27', '106', '18', '71', '137', '119', '107', '14', '19', '130'] 271.40234567901246
10 5.355432098765434 ['148', '150', '135', '111', '123', '27', '106', '18', '71', '137', '119', '107', '14', '19', '130'] 270.65790123456793
11 5.355432098765434 ['148', '150', '135', '111', '123', '27', '106', '18', '71', '137', '119', '107', '14', '19', '130'] 269.94123456790135
12 5.355432098765434 ['148', '150', '135', '111', '123', '27', '106', '18', '71', '137', '119', '107', '14', '19', '130'] 269.4409876543211
13 5.334197530864199 ['137', '135', '148', '107', '122', '14', '143', '126', '123', '144', '27', '25', '99', '18', '150'] 268.9271604938273
14 5.31740740740741 ['111', '18', '137', '148', '119', '106', '135', '150', '38', '122', '143', '121', '14', '7', '141'] 268.33049382716064
15 5.31740740740741 ['111', '18', '137', '148', '119', '106', '135', '150', '38', '122', '143', '121', '14', '7', '141'] 268.0274074074075
16 5.282716049382719 ['119', '106', '137', '111', '150', '18', '148', '135', '130', '126', '107', '27', '38', '14', '143'] 267.5087654320988
17 5.282716049382719 ['119', '106', '137', '111', '150', '18', '148', '135', '130', '126', '107', '27', '38', '14', '143'] 266.9158024691359
18 5.282716049382719 ['119', '106', '137', '111', '150', '18', '148', '135', '130', '126', '107', '27', '38', '14', '143'] 266.4825925925927
19 5.282716049382719 ['119', '106', '137', '111', '150', '18', '148', '135', '130', '126', '107', '27', '38', '14', '143'] 265.8309876543211
20 5.282716049382719 ['119', '106', '137', '111', '150', '18', '148', '135', '130', '126', '107', '27', '38', '14', '143'] 265.3909876543212
21 5.270370370370374 ['150', '109', '14', '119', '148', '137', '106', '123', '135', '143', '111', '107', '141', '38', '122'] 264.89444444444456
22 5.269629629629633 ['38', '143', '150', '123', '145', '107', '111', '106', '119', '14', '135', '137', '148', '126', '109'] 264.51185185185193
23 5.245308641975313 ['119', '137', '107', '135', '111', '150', '148', '106', '143', '18', '14', '126', '109', '122', '141'] 264.1272839506173
24 5.245308641975312 ['135', '106', '107', '148', '14', '18', '109', '119', '143', '111', '137', '150', '122', '126', '145'] 263.7867901234569
25 5.245308641975312 ['135', '106', '107', '148', '14', '18', '109', '119', '143', '111', '137', '150', '122', '126', '145'] 263.5381481481485
26 5.245308641975312 ['135', '106', '107', '148', '14', '18', '109', '119', '143', '111', '137', '150', '122', '126', '145'] 263.26111111111146
27 5.245308641975312 ['135', '106', '107', '148', '14', '18', '109', '119', '143', '111', '137', '150', '122', '126', '145'] 262.94901234567925
28 5.245308641975312 ['135', '106', '107', '148', '14', '18', '109', '119', '143', '111', '137', '150', '122', '126', '145'] 262.71345679012364
29 5.245308641975312 ['135', '106', '107', '148', '14', '18', '109', '119', '143', '111', '137', '150', '122', '126', '145'] 262.50172839506183
30 5.245308641975312 ['135', '106', '107', '148', '14', '18', '109', '119', '143', '111', '137', '150', '122', '126', '145'] 262.2654320987657
31 5.245308641975312 ['135', '106', '107', '148', '14', '18', '109', '119', '143', '111', '137', '150', '122', '126', '145'] 262.26543209876536
32 5.245308641975312 ['135', '106', '107', '148', '14', '18', '109', '119', '143', '111', '137', '150', '122', '126', '145'] 262.26543209876536
33 5.245308641975312 ['135', '106', '107', '148', '14', '18', '109', '119', '143', '111', '137', '150', '122', '126', '145'] 262.26543209876536
34 5.245308641975312 ['135', '106', '107', '148', '14', '18', '109', '119', '143', '111', '137', '150', '122', '126', '145'] 262.26543209876536
35 5.245308641975312 ['135', '106', '107', '148', '14', '18', '109', '119', '143', '111', '137', '150', '122', '126', '145'] 262.26543209876536
36 5.245308641975312 ['135', '106', '107', '148', '14', '18', '109', '119', '143', '111', '137', '150', '122', '126', '145'] 262.26543209876536
37 5.245308641975312 ['135', '106', '107', '148', '14', '18', '109', '119', '143', '111', '137', '150', '122', '126', '145'] 262.26543209876536
38 5.245308641975312 ['135', '106', '107', '148', '14', '18', '109', '119', '143', '111', '137', '150', '122', '126', '145'] 262.26543209876536
39 5.245308641975312 ['135', '106', '107', '148', '14', '18', '109', '119', '143', '111', '137', '150', '122', '126', '145'] 262.26543209876536
40 5.245308641975312 ['135', '106', '107', '148', '14', '18', '109', '119', '143', '111', '137', '150', '122', '126', '145'] 262.26543209876536
41 5.245308641975312 ['135', '106', '107', '148', '14', '18', '109', '119', '143', '111', '137', '150', '122', '126', '145'] 262.26543209876536
42 5.245308641975312 ['135', '106', '107', '148', '14', '18', '109', '119', '143', '111', '137', '150', '122', '126', '145'] 262.26543209876536
43 5.245308641975312 ['135', '106', '107', '148', '14', '18', '109', '119', '143', '111', '137', '150', '122', '126', '145'] 262.26543209876536
44 5.245308641975312 ['135', '106', '107', '148', '14', '18', '109', '119', '143', '111', '137', '150', '122', '126', '145'] 262.26543209876536
45 5.245308641975312 ['135', '106', '107', '148', '14', '18', '109', '119', '143', '111', '137', '150', '122', '126', '145'] 262.26543209876536
46 5.245308641975312 ['135', '106', '107', '148', '14', '18', '109', '119', '143', '111', '137', '150', '122', '126', '145'] 262.26543209876536
47 5.245308641975312 ['135', '106', '107', '148', '14', '18', '109', '119', '143', '111', '137', '150', '122', '126', '145'] 262.26543209876536
48 5.245308641975312 ['135', '106', '107', '148', '14', '18', '109', '119', '143', '111', '137', '150', '122', '126', '145'] 262.26543209876536
49 5.245308641975312 ['135', '106', '107', '148', '14', '18', '109', '119', '143', '111', '137', '150', '122', '126', '145'] 262.26543209876536
50 5.245308641975312 ['135', '106', '107', '148', '14', '18', '109', '119', '143', '111', '137', '150', '122', '126', '145'] 262.26543209876536
51 5.245308641975312 ['135', '106', '107', '148', '14', '18', '109', '119', '143', '111', '137', '150', '122', '126', '145'] 262.26543209876536
52 5.245308641975312 ['135', '106', '107', '148', '14', '18', '109', '119', '143', '111', '137', '150', '122', '126', '145'] 262.26543209876536
53 5.245308641975312 ['135', '106', '107', '148', '14', '18', '109', '119', '143', '111', '137', '150', '122', '126', '145'] 262.26543209876536
54 5.245308641975312 ['135', '106', '107', '148', '14', '18', '109', '119', '143', '111', '137', '150', '122', '126', '145'] 262.26543209876536
55 5.245308641975312 ['135', '106', '107', '148', '14', '18', '109', '119', '143', '111', '137', '150', '122', '126', '145'] 262.26543209876536
56 5.245308641975312 ['135', '106', '107', '148', '14', '18', '109', '119', '143', '111', '137', '150', '122', '126', '145'] 262.26543209876536
57 5.245308641975312 ['135', '106', '107', '148', '14', '18', '109', '119', '143', '111', '137', '150', '122', '126', '145'] 262.26543209876536
58 5.245308641975312 ['135', '106', '107', '148', '14', '18', '109', '119', '143', '111', '137', '150', '122', '126', '145'] 262.26543209876536
59 5.245308641975312 ['135', '106', '107', '148', '14', '18', '109', '119', '143', '111', '137', '150', '122', '126', '145'] 262.26543209876536
60 5.245308641975312 ['135', '106', '107', '148', '14', '18', '109', '119', '143', '111', '137', '150', '122', '126', '145'] 262.26543209876536
61 5.245308641975312 ['135', '106', '107', '148', '14', '18', '109', '119', '143', '111', '137', '150', '122', '126', '145'] 262.26543209876536
62 5.245308641975312 ['135', '106', '107', '148', '14', '18', '109', '119', '143', '111', '137', '150', '122', '126', '145'] 262.26543209876536
63 5.245308641975312 ['135', '106', '107', '148', '14', '18', '109', '119', '143', '111', '137', '150', '122', '126', '145'] 262.26543209876536
64 5.245308641975312 ['135', '106', '107', '148', '14', '18', '109', '119', '143', '111', '137', '150', '122', '126', '145'] 262.26543209876536
65 5.245308641975312 ['135', '106', '107', '148', '14', '18', '109', '119', '143', '111', '137', '150', '122', '126', '145'] 262.26543209876536
66 5.245308641975312 ['135', '106', '107', '148', '14', '18', '109', '119', '143', '111', '137', '150', '122', '126', '145'] 262.26543209876536
67 5.245308641975312 ['135', '106', '107', '148', '14', '18', '109', '119', '143', '111', '137', '150', '122', '126', '145'] 262.26543209876536
68 5.245308641975312 ['135', '106', '107', '148', '14', '18', '109', '119', '143', '111', '137', '150', '122', '126', '145'] 262.26543209876536
69 5.245308641975312 ['135', '106', '107', '148', '14', '18', '109', '119', '143', '111', '137', '150', '122', '126', '145'] 262.26543209876536
70 5.245308641975312 ['135', '106', '107', '148', '14', '18', '109', '119', '143', '111', '137', '150', '122', '126', '145'] 262.26543209876536
71 5.245308641975312 ['135', '106', '107', '148', '14', '18', '109', '119', '143', '111', '137', '150', '122', '126', '145'] 262.26543209876536
72 5.245308641975312 ['135', '106', '107', '148', '14', '18', '109', '119', '143', '111', '137', '150', '122', '126', '145'] 262.26543209876536
73 5.245308641975312 ['135', '106', '107', '148', '14', '18', '109', '119', '143', '111', '137', '150', '122', '126', '145'] 262.26543209876536
74 5.245308641975312 ['135', '106', '107', '148', '14', '18', '109', '119', '143', '111', '137', '150', '122', '126', '145'] 262.26543209876536
75 5.245308641975312 ['135', '106', '107', '148', '14', '18', '109', '119', '143', '111', '137', '150', '122', '126', '145'] 262.26543209876536
76 5.245308641975312 ['135', '106', '107', '148', '14', '18', '109', '119', '143', '111', '137', '150', '122', '126', '145'] 262.26543209876536
77 5.245308641975312 ['135', '106', '107', '148', '14', '18', '109', '119', '143', '111', '137', '150', '122', '126', '145'] 262.26543209876536
78 5.245308641975312 ['135', '106', '107', '148', '14', '18', '109', '119', '143', '111', '137', '150', '122', '126', '145'] 262.26543209876536
79 5.245308641975312 ['135', '106', '107', '148', '14', '18', '109', '119', '143', '111', '137', '150', '122', '126', '145'] 262.26543209876536
80 5.245308641975312 ['135', '106', '107', '148', '14', '18', '109', '119', '143', '111', '137', '150', '122', '126', '145'] 262.26543209876536
81 5.245308641975312 ['135', '106', '107', '148', '14', '18', '109', '119', '143', '111', '137', '150', '122', '126', '145'] 262.26543209876536
82 5.245308641975312 ['135', '106', '107', '148', '14', '18', '109', '119', '143', '111', '137', '150', '122', '126', '145'] 262.26543209876536
83 5.245308641975312 ['135', '106', '107', '148', '14', '18', '109', '119', '143', '111', '137', '150', '122', '126', '145'] 262.26543209876536
84 5.245308641975312 ['135', '106', '107', '148', '14', '18', '109', '119', '143', '111', '137', '150', '122', '126', '145'] 262.26543209876536
85 5.245308641975312 ['135', '106', '107', '148', '14', '18', '109', '119', '143', '111', '137', '150', '122', '126', '145'] 262.26543209876536
86 5.245308641975312 ['135', '106', '107', '148', '14', '18', '109', '119', '143', '111', '137', '150', '122', '126', '145'] 262.26543209876536
87 5.245308641975312 ['135', '106', '107', '148', '14', '18', '109', '119', '143', '111', '137', '150', '122', '126', '145'] 262.26543209876536
88 5.245308641975312 ['135', '106', '107', '148', '14', '18', '109', '119', '143', '111', '137', '150', '122', '126', '145'] 262.26543209876536
89 5.245308641975312 ['135', '106', '107', '148', '14', '18', '109', '119', '143', '111', '137', '150', '122', '126', '145'] 262.26543209876536
90 5.245308641975312 ['135', '106', '107', '148', '14', '18', '109', '119', '143', '111', '137', '150', '122', '126', '145'] 262.26543209876536
91 5.245308641975312 ['135', '106', '107', '148', '14', '18', '109', '119', '143', '111', '137', '150', '122', '126', '145'] 262.26543209876536
92 5.245308641975312 ['135', '106', '107', '148', '14', '18', '109', '119', '143', '111', '137', '150', '122', '126', '145'] 262.26543209876536
93 5.245308641975312 ['135', '106', '107', '148', '14', '18', '109', '119', '143', '111', '137', '150', '122', '126', '145'] 262.26543209876536
94 5.245308641975312 ['135', '106', '107', '148', '14', '18', '109', '119', '143', '111', '137', '150', '122', '126', '145'] 262.26543209876536
95 5.245308641975312 ['135', '106', '107', '148', '14', '18', '109', '119', '143', '111', '137', '150', '122', '126', '145'] 262.26543209876536
96 5.245308641975312 ['135', '106', '107', '148', '14', '18', '109', '119', '143', '111', '137', '150', '122', '126', '145'] 262.26543209876536
97 5.245308641975312 ['135', '106', '107', '148', '14', '18', '109', '119', '143', '111', '137', '150', '122', '126', '145'] 262.26543209876536
98 5.245308641975312 ['135', '106', '107', '148', '14', '18', '109', '119', '143', '111', '137', '150', '122', '126', '145'] 262.26543209876536
99 5.245308641975312 ['135', '106', '107', '148', '14', '18', '109', '119', '143', '111', '137', '150', '122', '126', '145'] 262.26543209876536
100 5.245308641975312 ['135', '106', '107', '148', '14', '18', '109', '119', '143', '111', '137', '150', '122', '126', '145'] 262.26543209876536
101 5.245308641975312 ['135', '106', '107', '148', '14', '18', '109', '119', '143', '111', '137', '150', '122', '126', '145'] 262.26543209876536
102 5.245308641975312 ['135', '106', '107', '148', '14', '18', '109', '119', '143', '111', '137', '150', '122', '126', '145'] 262.26543209876536
103 5.245308641975312 ['135', '106', '107', '148', '14', '18', '109', '119', '143', '111', '137', '150', '122', '126', '145'] 262.26543209876536
104 5.245308641975312 ['135', '106', '107', '148', '14', '18', '109', '119', '143', '111', '137', '150', '122', '126', '145'] 262.26543209876536
105 5.245308641975312 ['135', '106', '107', '148', '14', '18', '109', '119', '143', '111', '137', '150', '122', '126', '145'] 262.26543209876536
106 5.245308641975312 ['135', '106', '107', '148', '14', '18', '109', '119', '143', '111', '137', '150', '122', '126', '145'] 262.26543209876536
107 5.245308641975312 ['135', '106', '107', '148', '14', '18', '109', '119', '143', '111', '137', '150', '122', '126', '145'] 262.26543209876536
108 5.245308641975312 ['135', '106', '107', '148', '14', '18', '109', '119', '143', '111', '137', '150', '122', '126', '145'] 262.26543209876536
109 5.245308641975312 ['135', '106', '107', '148', '14', '18', '109', '119', '143', '111', '137', '150', '122', '126', '145'] 262.26543209876536
110 5.245308641975312 ['135', '106', '107', '148', '14', '18', '109', '119', '143', '111', '137', '150', '122', '126', '145'] 262.26543209876536
111 5.245308641975312 ['135', '106', '107', '148', '14', '18', '109', '119', '143', '111', '137', '150', '122', '126', '145'] 262.26543209876536
112 5.245308641975312 ['135', '106', '107', '148', '14', '18', '109', '119', '143', '111', '137', '150', '122', '126', '145'] 262.26543209876536
113 5.245308641975312 ['135', '106', '107', '148', '14', '18', '109', '119', '143', '111', '137', '150', '122', '126', '145'] 262.26543209876536
114 5.245308641975312 ['135', '106', '107', '148', '14', '18', '109', '119', '143', '111', '137', '150', '122', '126', '145'] 262.26543209876536
115 5.245308641975312 ['135', '106', '107', '148', '14', '18', '109', '119', '143', '111', '137', '150', '122', '126', '145'] 262.26543209876536
116 5.245308641975312 ['135', '106', '107', '148', '14', '18', '109', '119', '143', '111', '137', '150', '122', '126', '145'] 262.26543209876536
117 5.245308641975312 ['135', '106', '107', '148', '14', '18', '109', '119', '143', '111', '137', '150', '122', '126', '145'] 262.26543209876536
118 5.245308641975312 ['135', '106', '107', '148', '14', '18', '109', '119', '143', '111', '137', '150', '122', '126', '145'] 262.26543209876536
119 5.245308641975312 ['135', '106', '107', '148', '14', '18', '109', '119', '143', '111', '137', '150', '122', '126', '145'] 262.26543209876536
120 5.245308641975312 ['135', '106', '107', '148', '14', '18', '109', '119', '143', '111', '137', '150', '122', '126', '145'] 262.26543209876536
121 5.245308641975312 ['135', '106', '107', '148', '14', '18', '109', '119', '143', '111', '137', '150', '122', '126', '145'] 262.26543209876536
122 5.245308641975312 ['135', '106', '107', '148', '14', '18', '109', '119', '143', '111', '137', '150', '122', '126', '145'] 262.26543209876536
123 5.245308641975312 ['135', '106', '107', '148', '14', '18', '109', '119', '143', '111', '137', '150', '122', '126', '145'] 262.26543209876536
124 5.245308641975312 ['135', '106', '107', '148', '14', '18', '109', '119', '143', '111', '137', '150', '122', '126', '145'] 262.26543209876536
125 5.245308641975312 ['135', '106', '107', '148', '14', '18', '109', '119', '143', '111', '137', '150', '122', '126', '145'] 262.26543209876536
126 5.245308641975312 ['135', '106', '107', '148', '14', '18', '109', '119', '143', '111', '137', '150', '122', '126', '145'] 262.26543209876536
127 5.245308641975312 ['135', '106', '107', '148', '14', '18', '109', '119', '143', '111', '137', '150', '122', '126', '145'] 262.26543209876536
128 5.245308641975312 ['135', '106', '107', '148', '14', '18', '109', '119', '143', '111', '137', '150', '122', '126', '145'] 262.26543209876536
129 5.245308641975312 ['135', '106', '107', '148', '14', '18', '109', '119', '143', '111', '137', '150', '122', '126', '145'] 262.26543209876536
130 5.245308641975312 ['135', '106', '107', '148', '14', '18', '109', '119', '143', '111', '137', '150', '122', '126', '145'] 262.26543209876536
131 5.245308641975312 ['135', '106', '107', '148', '14', '18', '109', '119', '143', '111', '137', '150', '122', '126', '145'] 262.26543209876536
132 5.245308641975312 ['135', '106', '107', '148', '14', '18', '109', '119', '143', '111', '137', '150', '122', '126', '145'] 262.26543209876536
133 5.245308641975312 ['135', '106', '107', '148', '14', '18', '109', '119', '143', '111', '137', '150', '122', '126', '145'] 262.26543209876536
134 5.245308641975312 ['135', '106', '107', '148', '14', '18', '109', '119', '143', '111', '137', '150', '122', '126', '145'] 262.26543209876536
135 5.245308641975312 ['135', '106', '107', '148', '14', '18', '109', '119', '143', '111', '137', '150', '122', '126', '145'] 262.26543209876536
136 5.245308641975312 ['135', '106', '107', '148', '14', '18', '109', '119', '143', '111', '137', '150', '122', '126', '145'] 262.26543209876536
137 5.245308641975312 ['135', '106', '107', '148', '14', '18', '109', '119', '143', '111', '137', '150', '122', '126', '145'] 262.26543209876536
138 5.245308641975312 ['135', '106', '107', '148', '14', '18', '109', '119', '143', '111', '137', '150', '122', '126', '145'] 262.26543209876536
139 5.245308641975312 ['135', '106', '107', '148', '14', '18', '109', '119', '143', '111', '137', '150', '122', '126', '145'] 262.26543209876536
140 5.245308641975312 ['135', '106', '107', '148', '14', '18', '109', '119', '143', '111', '137', '150', '122', '126', '145'] 262.26543209876536
141 5.245308641975312 ['135', '106', '107', '148', '14', '18', '109', '119', '143', '111', '137', '150', '122', '126', '145'] 262.26543209876536
142 5.245308641975312 ['135', '106', '107', '148', '14', '18', '109', '119', '143', '111', '137', '150', '122', '126', '145'] 262.26543209876536
143 5.245308641975312 ['135', '106', '107', '148', '14', '18', '109', '119', '143', '111', '137', '150', '122', '126', '145'] 262.26543209876536
144 5.245308641975312 ['135', '106', '107', '148', '14', '18', '109', '119', '143', '111', '137', '150', '122', '126', '145'] 262.26543209876536
145 5.245308641975312 ['135', '106', '107', '148', '14', '18', '109', '119', '143', '111', '137', '150', '122', '126', '145'] 262.26543209876536
146 5.245308641975312 ['135', '106', '107', '148', '14', '18', '109', '119', '143', '111', '137', '150', '122', '126', '145'] 262.26543209876536
147 5.245308641975312 ['135', '106', '107', '148', '14', '18', '109', '119', '143', '111', '137', '150', '122', '126', '145'] 262.26543209876536
148 5.245308641975312 ['135', '106', '107', '148', '14', '18', '109', '119', '143', '111', '137', '150', '122', '126', '145'] 262.26543209876536
149 5.245308641975312 ['135', '106', '107', '148', '14', '18', '109', '119', '143', '111', '137', '150', '122', '126', '145'] 262.26543209876536
150 5.245308641975312 ['135', '106', '107', '148', '14', '18', '109', '119', '143', '111', '137', '150', '122', '126', '145'] 262.26543209876536
151 5.245308641975312 ['135', '106', '107', '148', '14', '18', '109', '119', '143', '111', '137', '150', '122', '126', '145'] 262.26543209876536
152 5.245308641975312 ['135', '106', '107', '148', '14', '18', '109', '119', '143', '111', '137', '150', '122', '126', '145'] 262.26543209876536
153 5.245308641975312 ['135', '106', '107', '148', '14', '18', '109', '119', '143', '111', '137', '150', '122', '126', '145'] 262.26543209876536
154 5.245308641975312 ['135', '106', '107', '148', '14', '18', '109', '119', '143', '111', '137', '150', '122', '126', '145'] 262.26543209876536
155 5.245308641975312 ['135', '106', '107', '148', '14', '18', '109', '119', '143', '111', '137', '150', '122', '126', '145'] 262.26543209876536
156 5.245308641975312 ['135', '106', '107', '148', '14', '18', '109', '119', '143', '111', '137', '150', '122', '126', '145'] 262.26543209876536
157 5.245308641975312 ['135', '106', '107', '148', '14', '18', '109', '119', '143', '111', '137', '150', '122', '126', '145'] 262.26543209876536
158 5.245308641975312 ['135', '106', '107', '148', '14', '18', '109', '119', '143', '111', '137', '150', '122', '126', '145'] 262.26543209876536
159 5.245308641975312 ['135', '106', '107', '148', '14', '18', '109', '119', '143', '111', '137', '150', '122', '126', '145'] 262.26543209876536
160 5.245308641975312 ['135', '106', '107', '148', '14', '18', '109', '119', '143', '111', '137', '150', '122', '126', '145'] 262.26543209876536
161 5.245308641975312 ['135', '106', '107', '148', '14', '18', '109', '119', '143', '111', '137', '150', '122', '126', '145'] 262.26543209876536
162 5.245308641975312 ['135', '106', '107', '148', '14', '18', '109', '119', '143', '111', '137', '150', '122', '126', '145'] 262.26543209876536
163 5.245308641975312 ['135', '106', '107', '148', '14', '18', '109', '119', '143', '111', '137', '150', '122', '126', '145'] 262.26543209876536
164 5.245308641975312 ['135', '106', '107', '148', '14', '18', '109', '119', '143', '111', '137', '150', '122', '126', '145'] 262.26543209876536
165 5.245308641975312 ['135', '106', '107', '148', '14', '18', '109', '119', '143', '111', '137', '150', '122', '126', '145'] 262.26543209876536
166 5.245308641975312 ['135', '106', '107', '148', '14', '18', '109', '119', '143', '111', '137', '150', '122', '126', '145'] 262.26543209876536
167 5.245308641975312 ['135', '106', '107', '148', '14', '18', '109', '119', '143', '111', '137', '150', '122', '126', '145'] 262.26543209876536
168 5.245308641975312 ['135', '106', '107', '148', '14', '18', '109', '119', '143', '111', '137', '150', '122', '126', '145'] 262.26543209876536
169 5.245308641975312 ['135', '106', '107', '148', '14', '18', '109', '119', '143', '111', '137', '150', '122', '126', '145'] 262.26543209876536
170 5.245308641975312 ['135', '106', '107', '148', '14', '18', '109', '119', '143', '111', '137', '150', '122', '126', '145'] 262.26543209876536
171 5.245308641975312 ['135', '106', '107', '148', '14', '18', '109', '119', '143', '111', '137', '150', '122', '126', '145'] 262.26543209876536
172 5.245308641975312 ['135', '106', '107', '148', '14', '18', '109', '119', '143', '111', '137', '150', '122', '126', '145'] 262.26543209876536
173 5.245308641975312 ['135', '106', '107', '148', '14', '18', '109', '119', '143', '111', '137', '150', '122', '126', '145'] 262.26543209876536
174 5.245308641975312 ['135', '106', '107', '148', '14', '18', '109', '119', '143', '111', '137', '150', '122', '126', '145'] 262.26543209876536
175 5.245308641975312 ['135', '106', '107', '148', '14', '18', '109', '119', '143', '111', '137', '150', '122', '126', '145'] 262.26543209876536
176 5.245308641975312 ['135', '106', '107', '148', '14', '18', '109', '119', '143', '111', '137', '150', '122', '126', '145'] 262.26543209876536
177 5.245308641975312 ['135', '106', '107', '148', '14', '18', '109', '119', '143', '111', '137', '150', '122', '126', '145'] 262.26543209876536
178 5.245308641975312 ['135', '106', '107', '148', '14', '18', '109', '119', '143', '111', '137', '150', '122', '126', '145'] 262.26543209876536
179 5.245308641975312 ['135', '106', '107', '148', '14', '18', '109', '119', '143', '111', '137', '150', '122', '126', '145'] 262.26543209876536
180 5.245308641975312 ['135', '106', '107', '148', '14', '18', '109', '119', '143', '111', '137', '150', '122', '126', '145'] 262.26543209876536
181 5.245308641975312 ['135', '106', '107', '148', '14', '18', '109', '119', '143', '111', '137', '150', '122', '126', '145'] 262.26543209876536
182 5.245308641975312 ['135', '106', '107', '148', '14', '18', '109', '119', '143', '111', '137', '150', '122', '126', '145'] 262.26543209876536
183 5.245308641975312 ['135', '106', '107', '148', '14', '18', '109', '119', '143', '111', '137', '150', '122', '126', '145'] 262.26543209876536
184 5.245308641975312 ['135', '106', '107', '148', '14', '18', '109', '119', '143', '111', '137', '150', '122', '126', '145'] 262.26543209876536
185 5.245308641975312 ['135', '106', '107', '148', '14', '18', '109', '119', '143', '111', '137', '150', '122', '126', '145'] 262.26543209876536
186 5.245308641975312 ['135', '106', '107', '148', '14', '18', '109', '119', '143', '111', '137', '150', '122', '126', '145'] 262.26543209876536
187 5.245308641975312 ['135', '106', '107', '148', '14', '18', '109', '119', '143', '111', '137', '150', '122', '126', '145'] 262.26543209876536
188 5.245308641975312 ['135', '106', '107', '148', '14', '18', '109', '119', '143', '111', '137', '150', '122', '126', '145'] 262.26543209876536
189 5.245308641975312 ['135', '106', '107', '148', '14', '18', '109', '119', '143', '111', '137', '150', '122', '126', '145'] 262.26543209876536
190 5.245308641975312 ['135', '106', '107', '148', '14', '18', '109', '119', '143', '111', '137', '150', '122', '126', '145'] 262.26543209876536
191 5.245308641975312 ['135', '106', '107', '148', '14', '18', '109', '119', '143', '111', '137', '150', '122', '126', '145'] 262.26543209876536
192 5.245308641975312 ['135', '106', '107', '148', '14', '18', '109', '119', '143', '111', '137', '150', '122', '126', '145'] 262.26543209876536
193 5.245308641975312 ['135', '106', '107', '148', '14', '18', '109', '119', '143', '111', '137', '150', '122', '126', '145'] 262.26543209876536
194 5.245308641975312 ['135', '106', '107', '148', '14', '18', '109', '119', '143', '111', '137', '150', '122', '126', '145'] 262.26543209876536
195 5.245308641975312 ['135', '106', '107', '148', '14', '18', '109', '119', '143', '111', '137', '150', '122', '126', '145'] 262.26543209876536
196 5.245308641975312 ['135', '106', '107', '148', '14', '18', '109', '119', '143', '111', '137', '150', '122', '126', '145'] 262.26543209876536
197 5.245308641975312 ['135', '106', '107', '148', '14', '18', '109', '119', '143', '111', '137', '150', '122', '126', '145'] 262.26543209876536
198 5.245308641975312 ['135', '106', '107', '148', '14', '18', '109', '119', '143', '111', '137', '150', '122', '126', '145'] 262.26543209876536
199 5.245308641975312 ['135', '106', '107', '148', '14', '18', '109', '119', '143', '111', '137', '150', '122', '126', '145'] 262.26543209876536
