0 34.5 ['27', '10', '6', '42', '40', '61'] 1919.3571428571436
1 31.428571428571427 ['17', '61', '32', '33', '48', '43'] 1831.9999999999998
2 28.714285714285715 ['32', '30', '61', '46', '33', '15'] 1752.2857142857142
3 28.714285714285715 ['32', '30', '61', '46', '33', '15'] 1683.642857142857
4 28.5 ['61', '32', '30', '33', '13', '15'] 1620.6428571428567
5 28.5 ['61', '32', '30', '33', '13', '15'] 1564.4285714285718
6 28.142857142857142 ['33', '61', '6', '39', '18', '30'] 1512.4285714285713
7 27.571428571428573 ['33', '61', '32', '36', '15', '17'] 1468.2142857142853
8 26.928571428571427 ['61', '32', '33', '6', '30', '36'] 1424.7142857142858
9 26.785714285714285 ['33', '61', '39', '32', '30', '36'] 1389.5
10 26.428571428571427 ['33', '61', '36', '32', '15', '30'] 1365.4285714285718
11 26.428571428571427 ['33', '61', '36', '32', '15', '30'] 1349.071428571428
12 26.428571428571427 ['33', '61', '36', '32', '15', '30'] 1340.1428571428569
13 26.428571428571427 ['33', '61', '36', '32', '15', '30'] 1335.4285714285713
14 26.428571428571427 ['33', '61', '36', '32', '15', '30'] 1329.928571428571
15 26.428571428571427 ['33', '61', '36', '32', '15', '30'] 1324.5714285714296
16 26.428571428571427 ['33', '61', '36', '32', '15', '30'] 1321.4285714285706
17 26.428571428571427 ['33', '61', '36', '32', '15', '30'] 1321.4285714285706
18 26.428571428571427 ['33', '61', '36', '32', '15', '30'] 1321.4285714285706
19 26.428571428571427 ['33', '61', '36', '32', '15', '30'] 1321.4285714285706
20 26.428571428571427 ['33', '61', '36', '32', '15', '30'] 1321.4285714285706
21 26.428571428571427 ['33', '61', '36', '32', '15', '30'] 1321.4285714285706
22 26.428571428571427 ['33', '61', '36', '32', '15', '30'] 1321.4285714285706
23 26.428571428571427 ['33', '61', '36', '32', '15', '30'] 1321.4285714285706
24 26.428571428571427 ['33', '61', '36', '32', '15', '30'] 1321.4285714285706
25 26.428571428571427 ['33', '61', '36', '32', '15', '30'] 1321.4285714285706
26 26.428571428571427 ['33', '61', '36', '32', '15', '30'] 1321.4285714285706
27 26.428571428571427 ['33', '61', '36', '32', '15', '30'] 1321.4285714285706
28 26.428571428571427 ['33', '61', '36', '32', '15', '30'] 1321.4285714285706
29 26.428571428571427 ['33', '61', '36', '32', '15', '30'] 1321.4285714285706
30 26.428571428571427 ['33', '61', '36', '32', '15', '30'] 1321.4285714285706
31 26.428571428571427 ['33', '61', '36', '32', '15', '30'] 1321.4285714285706
32 26.428571428571427 ['33', '61', '36', '32', '15', '30'] 1321.4285714285706
33 26.428571428571427 ['33', '61', '36', '32', '15', '30'] 1321.4285714285706
34 26.428571428571427 ['33', '61', '36', '32', '15', '30'] 1321.4285714285706
35 26.428571428571427 ['33', '61', '36', '32', '15', '30'] 1321.4285714285706
36 26.428571428571427 ['33', '61', '36', '32', '15', '30'] 1321.4285714285706
37 26.428571428571427 ['33', '61', '36', '32', '15', '30'] 1321.4285714285706
38 26.428571428571427 ['33', '61', '36', '32', '15', '30'] 1321.4285714285706
39 26.428571428571427 ['33', '61', '36', '32', '15', '30'] 1321.4285714285706
40 26.428571428571427 ['33', '61', '36', '32', '15', '30'] 1321.4285714285706
41 26.428571428571427 ['33', '61', '36', '32', '15', '30'] 1321.4285714285706
42 26.428571428571427 ['33', '61', '36', '32', '15', '30'] 1321.4285714285706
43 26.428571428571427 ['33', '61', '36', '32', '15', '30'] 1321.4285714285706
44 26.428571428571427 ['33', '61', '36', '32', '15', '30'] 1321.4285714285706
45 26.428571428571427 ['33', '61', '36', '32', '15', '30'] 1321.4285714285706
46 26.428571428571427 ['33', '61', '36', '32', '15', '30'] 1321.4285714285706
47 26.428571428571427 ['33', '61', '36', '32', '15', '30'] 1321.4285714285706
48 26.428571428571427 ['33', '61', '36', '32', '15', '30'] 1321.4285714285706
49 26.428571428571427 ['33', '61', '36', '32', '15', '30'] 1321.4285714285706
50 26.428571428571427 ['33', '61', '36', '32', '15', '30'] 1321.4285714285706
51 26.428571428571427 ['33', '61', '36', '32', '15', '30'] 1321.4285714285706
52 26.428571428571427 ['33', '61', '36', '32', '15', '30'] 1321.4285714285706
53 26.428571428571427 ['33', '61', '36', '32', '15', '30'] 1321.4285714285706
54 26.428571428571427 ['33', '61', '36', '32', '15', '30'] 1321.4285714285706
55 26.428571428571427 ['33', '61', '36', '32', '15', '30'] 1321.4285714285706
56 26.428571428571427 ['33', '61', '36', '32', '15', '30'] 1321.4285714285706
57 26.428571428571427 ['33', '61', '36', '32', '15', '30'] 1321.4285714285706
58 26.428571428571427 ['33', '61', '36', '32', '15', '30'] 1321.4285714285706
59 26.428571428571427 ['33', '61', '36', '32', '15', '30'] 1321.4285714285706
60 26.428571428571427 ['33', '61', '36', '32', '15', '30'] 1321.4285714285706
61 26.428571428571427 ['33', '61', '36', '32', '15', '30'] 1321.4285714285706
62 26.428571428571427 ['33', '61', '36', '32', '15', '30'] 1321.4285714285706
63 26.428571428571427 ['33', '61', '36', '32', '15', '30'] 1321.4285714285706
64 26.428571428571427 ['33', '61', '36', '32', '15', '30'] 1321.4285714285706
65 26.428571428571427 ['33', '61', '36', '32', '15', '30'] 1321.4285714285706
66 26.428571428571427 ['33', '61', '36', '32', '15', '30'] 1321.4285714285706
67 26.428571428571427 ['33', '61', '36', '32', '15', '30'] 1321.4285714285706
68 26.428571428571427 ['33', '61', '36', '32', '15', '30'] 1321.4285714285706
69 26.428571428571427 ['33', '61', '36', '32', '15', '30'] 1321.4285714285706
70 26.428571428571427 ['33', '61', '36', '32', '15', '30'] 1321.4285714285706
71 26.428571428571427 ['33', '61', '36', '32', '15', '30'] 1321.4285714285706
72 26.428571428571427 ['33', '61', '36', '32', '15', '30'] 1321.4285714285706
73 26.428571428571427 ['33', '61', '36', '32', '15', '30'] 1321.4285714285706
74 26.428571428571427 ['33', '61', '36', '32', '15', '30'] 1321.4285714285706
75 26.428571428571427 ['33', '61', '36', '32', '15', '30'] 1321.4285714285706
76 26.428571428571427 ['33', '61', '36', '32', '15', '30'] 1321.4285714285706
77 26.428571428571427 ['33', '61', '36', '32', '15', '30'] 1321.4285714285706
78 26.428571428571427 ['33', '61', '36', '32', '15', '30'] 1321.4285714285706
79 26.428571428571427 ['33', '61', '36', '32', '15', '30'] 1321.4285714285706
80 26.428571428571427 ['33', '61', '36', '32', '15', '30'] 1321.4285714285706
81 26.428571428571427 ['33', '61', '36', '32', '15', '30'] 1321.4285714285706
82 26.428571428571427 ['33', '61', '36', '32', '15', '30'] 1321.4285714285706
83 26.428571428571427 ['33', '61', '36', '32', '15', '30'] 1321.4285714285706
84 26.428571428571427 ['33', '61', '36', '32', '15', '30'] 1321.4285714285706
85 26.428571428571427 ['33', '61', '36', '32', '15', '30'] 1321.4285714285706
86 26.428571428571427 ['33', '61', '36', '32', '15', '30'] 1321.4285714285706
87 26.428571428571427 ['33', '61', '36', '32', '15', '30'] 1321.4285714285706
88 26.428571428571427 ['33', '61', '36', '32', '15', '30'] 1321.4285714285706
89 26.428571428571427 ['33', '61', '36', '32', '15', '30'] 1321.4285714285706
90 26.428571428571427 ['33', '61', '36', '32', '15', '30'] 1321.4285714285706
91 26.428571428571427 ['33', '61', '36', '32', '15', '30'] 1321.4285714285706
92 26.428571428571427 ['33', '61', '36', '32', '15', '30'] 1321.4285714285706
93 26.428571428571427 ['33', '61', '36', '32', '15', '30'] 1321.4285714285706
94 26.428571428571427 ['33', '61', '36', '32', '15', '30'] 1321.4285714285706
95 26.428571428571427 ['33', '61', '36', '32', '15', '30'] 1321.4285714285706
96 26.428571428571427 ['33', '61', '36', '32', '15', '30'] 1321.4285714285706
97 26.428571428571427 ['33', '61', '36', '32', '15', '30'] 1321.4285714285706
98 26.428571428571427 ['33', '61', '36', '32', '15', '30'] 1321.4285714285706
99 26.428571428571427 ['33', '61', '36', '32', '15', '30'] 1321.4285714285706
100 26.428571428571427 ['33', '61', '36', '32', '15', '30'] 1321.4285714285706
101 26.428571428571427 ['33', '61', '36', '32', '15', '30'] 1321.4285714285706
102 26.428571428571427 ['33', '61', '36', '32', '15', '30'] 1321.4285714285706
103 26.428571428571427 ['33', '61', '36', '32', '15', '30'] 1321.4285714285706
104 26.428571428571427 ['33', '61', '36', '32', '15', '30'] 1321.4285714285706
105 26.428571428571427 ['33', '61', '36', '32', '15', '30'] 1321.4285714285706
106 26.428571428571427 ['33', '61', '36', '32', '15', '30'] 1321.4285714285706
107 26.428571428571427 ['33', '61', '36', '32', '15', '30'] 1321.4285714285706
108 26.428571428571427 ['33', '61', '36', '32', '15', '30'] 1321.4285714285706
109 26.428571428571427 ['33', '61', '36', '32', '15', '30'] 1321.4285714285706
110 26.428571428571427 ['33', '61', '36', '32', '15', '30'] 1321.4285714285706
111 26.428571428571427 ['33', '61', '36', '32', '15', '30'] 1321.4285714285706
112 26.428571428571427 ['33', '61', '36', '32', '15', '30'] 1321.4285714285706
113 26.428571428571427 ['33', '61', '36', '32', '15', '30'] 1321.4285714285706
114 26.428571428571427 ['33', '61', '36', '32', '15', '30'] 1321.4285714285706
115 26.428571428571427 ['33', '61', '36', '32', '15', '30'] 1321.4285714285706
116 26.428571428571427 ['33', '61', '36', '32', '15', '30'] 1321.4285714285706
117 26.428571428571427 ['33', '61', '36', '32', '15', '30'] 1321.4285714285706
118 26.428571428571427 ['33', '61', '36', '32', '15', '30'] 1321.4285714285706
119 26.428571428571427 ['33', '61', '36', '32', '15', '30'] 1321.4285714285706
120 26.428571428571427 ['33', '61', '36', '32', '15', '30'] 1321.4285714285706
121 26.428571428571427 ['33', '61', '36', '32', '15', '30'] 1321.4285714285706
122 26.428571428571427 ['33', '61', '36', '32', '15', '30'] 1321.4285714285706
123 26.428571428571427 ['33', '61', '36', '32', '15', '30'] 1321.4285714285706
124 26.428571428571427 ['33', '61', '36', '32', '15', '30'] 1321.4285714285706
125 26.428571428571427 ['33', '61', '36', '32', '15', '30'] 1321.4285714285706
126 26.428571428571427 ['33', '61', '36', '32', '15', '30'] 1321.4285714285706
127 26.428571428571427 ['33', '61', '36', '32', '15', '30'] 1321.4285714285706
128 26.428571428571427 ['33', '61', '36', '32', '15', '30'] 1321.4285714285706
129 26.428571428571427 ['33', '61', '36', '32', '15', '30'] 1321.4285714285706
130 26.428571428571427 ['33', '61', '36', '32', '15', '30'] 1321.4285714285706
131 26.428571428571427 ['33', '61', '36', '32', '15', '30'] 1321.4285714285706
132 26.428571428571427 ['33', '61', '36', '32', '15', '30'] 1321.4285714285706
133 26.428571428571427 ['33', '61', '36', '32', '15', '30'] 1321.4285714285706
134 26.428571428571427 ['33', '61', '36', '32', '15', '30'] 1321.4285714285706
135 26.428571428571427 ['33', '61', '36', '32', '15', '30'] 1321.4285714285706
136 26.428571428571427 ['33', '61', '36', '32', '15', '30'] 1321.4285714285706
137 26.428571428571427 ['33', '61', '36', '32', '15', '30'] 1321.4285714285706
138 26.428571428571427 ['33', '61', '36', '32', '15', '30'] 1321.4285714285706
139 26.428571428571427 ['33', '61', '36', '32', '15', '30'] 1321.4285714285706
140 26.428571428571427 ['33', '61', '36', '32', '15', '30'] 1321.4285714285706
141 26.428571428571427 ['33', '61', '36', '32', '15', '30'] 1321.4285714285706
142 26.428571428571427 ['33', '61', '36', '32', '15', '30'] 1321.4285714285706
143 26.428571428571427 ['33', '61', '36', '32', '15', '30'] 1321.4285714285706
144 26.428571428571427 ['33', '61', '36', '32', '15', '30'] 1321.4285714285706
145 26.428571428571427 ['33', '61', '36', '32', '15', '30'] 1321.4285714285706
146 26.428571428571427 ['33', '61', '36', '32', '15', '30'] 1321.4285714285706
147 26.428571428571427 ['33', '61', '36', '32', '15', '30'] 1321.4285714285706
148 26.428571428571427 ['33', '61', '36', '32', '15', '30'] 1321.4285714285706
149 26.428571428571427 ['33', '61', '36', '32', '15', '30'] 1321.4285714285706
150 26.428571428571427 ['33', '61', '36', '32', '15', '30'] 1321.4285714285706
151 26.428571428571427 ['33', '61', '36', '32', '15', '30'] 1321.4285714285706
152 26.428571428571427 ['33', '61', '36', '32', '15', '30'] 1321.4285714285706
153 26.428571428571427 ['33', '61', '36', '32', '15', '30'] 1321.4285714285706
154 26.428571428571427 ['33', '61', '36', '32', '15', '30'] 1321.4285714285706
155 26.428571428571427 ['33', '61', '36', '32', '15', '30'] 1321.4285714285706
156 26.428571428571427 ['33', '61', '36', '32', '15', '30'] 1321.4285714285706
157 26.428571428571427 ['33', '61', '36', '32', '15', '30'] 1321.4285714285706
158 26.428571428571427 ['33', '61', '36', '32', '15', '30'] 1321.4285714285706
159 26.428571428571427 ['33', '61', '36', '32', '15', '30'] 1321.4285714285706
160 26.428571428571427 ['33', '61', '36', '32', '15', '30'] 1321.4285714285706
161 26.428571428571427 ['33', '61', '36', '32', '15', '30'] 1321.4285714285706
162 26.428571428571427 ['33', '61', '36', '32', '15', '30'] 1321.4285714285706
163 26.428571428571427 ['33', '61', '36', '32', '15', '30'] 1321.4285714285706
164 26.428571428571427 ['33', '61', '36', '32', '15', '30'] 1321.4285714285706
165 26.428571428571427 ['33', '61', '36', '32', '15', '30'] 1321.4285714285706
166 26.428571428571427 ['33', '61', '36', '32', '15', '30'] 1321.4285714285706
167 26.428571428571427 ['33', '61', '36', '32', '15', '30'] 1321.4285714285706
168 26.428571428571427 ['33', '61', '36', '32', '15', '30'] 1321.4285714285706
169 26.428571428571427 ['33', '61', '36', '32', '15', '30'] 1321.4285714285706
170 26.428571428571427 ['33', '61', '36', '32', '15', '30'] 1321.4285714285706
171 26.428571428571427 ['33', '61', '36', '32', '15', '30'] 1321.4285714285706
172 26.428571428571427 ['33', '61', '36', '32', '15', '30'] 1321.4285714285706
173 26.428571428571427 ['33', '61', '36', '32', '15', '30'] 1321.4285714285706
174 26.428571428571427 ['33', '61', '36', '32', '15', '30'] 1321.4285714285706
175 26.428571428571427 ['33', '61', '36', '32', '15', '30'] 1321.4285714285706
176 26.428571428571427 ['33', '61', '36', '32', '15', '30'] 1321.4285714285706
177 26.428571428571427 ['33', '61', '36', '32', '15', '30'] 1321.4285714285706
178 26.428571428571427 ['33', '61', '36', '32', '15', '30'] 1321.4285714285706
179 26.428571428571427 ['33', '61', '36', '32', '15', '30'] 1321.4285714285706
180 26.428571428571427 ['33', '61', '36', '32', '15', '30'] 1321.4285714285706
181 26.428571428571427 ['33', '61', '36', '32', '15', '30'] 1321.4285714285706
182 26.428571428571427 ['33', '61', '36', '32', '15', '30'] 1321.4285714285706
183 26.428571428571427 ['33', '61', '36', '32', '15', '30'] 1321.4285714285706
184 26.428571428571427 ['33', '61', '36', '32', '15', '30'] 1321.4285714285706
185 26.428571428571427 ['33', '61', '36', '32', '15', '30'] 1321.4285714285706
186 26.428571428571427 ['33', '61', '36', '32', '15', '30'] 1321.4285714285706
187 26.428571428571427 ['33', '61', '36', '32', '15', '30'] 1321.4285714285706
188 26.428571428571427 ['33', '61', '36', '32', '15', '30'] 1321.4285714285706
189 26.428571428571427 ['33', '61', '36', '32', '15', '30'] 1321.4285714285706
190 26.428571428571427 ['33', '61', '36', '32', '15', '30'] 1321.4285714285706
191 26.428571428571427 ['33', '61', '36', '32', '15', '30'] 1321.4285714285706
192 26.428571428571427 ['33', '61', '36', '32', '15', '30'] 1321.4285714285706
193 26.428571428571427 ['33', '61', '36', '32', '15', '30'] 1321.4285714285706
194 26.428571428571427 ['33', '61', '36', '32', '15', '30'] 1321.4285714285706
195 26.428571428571427 ['33', '61', '36', '32', '15', '30'] 1321.4285714285706
196 26.428571428571427 ['33', '61', '36', '32', '15', '30'] 1321.4285714285706
197 26.428571428571427 ['33', '61', '36', '32', '15', '30'] 1321.4285714285706
198 26.428571428571427 ['33', '61', '36', '32', '15', '30'] 1321.4285714285706
199 26.428571428571427 ['33', '61', '36', '32', '15', '30'] 1321.4285714285706
