0 26.17543859649123 ['25', '41', '29', '24', '52', '20'] 1394.1052631578943
1 26.17543859649123 ['25', '41', '29', '24', '52', '20'] 1368.8421052631577
2 25.263157894736842 ['20', '14', '18', '25', '8', '32'] 1342.0350877192982
3 25.263157894736842 ['20', '14', '18', '25', '8', '32'] 1322.456140350877
4 24.56140350877193 ['59', '20', '52', '60', '48', '14'] 1300.4912280701749
5 24.280701754385966 ['29', '52', '25', '48', '14', '8'] 1276.5614035087729
6 24.210526315789473 ['8', '14', '29', '38', '52', '48'] 1258.1754385964923
7 24.140350877192983 ['60', '8', '20', '52', '14', '59'] 1239.1578947368425
8 23.859649122807017 ['14', '20', '52', '8', '25', '59'] 1224.8421052631586
9 23.859649122807017 ['14', '20', '52', '8', '25', '59'] 1214.2456140350873
10 23.859649122807017 ['14', '20', '52', '8', '25', '59'] 1207.0175438596493
11 23.859649122807017 ['14', '20', '52', '8', '25', '59'] 1201.894736842105
12 23.859649122807017 ['14', '20', '52', '8', '25', '59'] 1197.8245614035081
13 23.789473684210527 ['14', '8', '52', '59', '62', '20'] 1194.385964912281
14 23.789473684210527 ['14', '8', '52', '59', '62', '20'] 1192.7719298245613
15 23.789473684210527 ['14', '8', '52', '59', '62', '20'] 1192.4912280701753
16 23.789473684210527 ['14', '8', '52', '59', '62', '20'] 1192.0
17 23.789473684210527 ['14', '8', '52', '59', '62', '20'] 1191.157894736842
18 23.789473684210527 ['14', '8', '52', '59', '62', '20'] 1189.473684210527
19 23.789473684210527 ['14', '8', '52', '59', '62', '20'] 1189.473684210527
20 23.789473684210527 ['14', '8', '52', '59', '62', '20'] 1189.473684210527
21 23.789473684210527 ['14', '8', '52', '59', '62', '20'] 1189.473684210527
22 23.789473684210527 ['14', '8', '52', '59', '62', '20'] 1189.473684210527
23 23.789473684210527 ['14', '8', '52', '59', '62', '20'] 1189.473684210527
24 23.789473684210527 ['14', '8', '52', '59', '62', '20'] 1189.473684210527
25 23.789473684210527 ['14', '8', '52', '59', '62', '20'] 1189.473684210527
26 23.789473684210527 ['14', '8', '52', '59', '62', '20'] 1189.473684210527
27 23.789473684210527 ['14', '8', '52', '59', '62', '20'] 1189.473684210527
28 23.789473684210527 ['14', '8', '52', '59', '62', '20'] 1189.473684210527
29 23.789473684210527 ['14', '8', '52', '59', '62', '20'] 1189.473684210527
30 23.789473684210527 ['14', '8', '52', '59', '62', '20'] 1189.473684210527
31 23.789473684210527 ['14', '8', '52', '59', '62', '20'] 1189.473684210527
32 23.789473684210527 ['14', '8', '52', '59', '62', '20'] 1189.473684210527
33 23.789473684210527 ['14', '8', '52', '59', '62', '20'] 1189.473684210527
34 23.789473684210527 ['14', '8', '52', '59', '62', '20'] 1189.473684210527
35 23.789473684210527 ['14', '8', '52', '59', '62', '20'] 1189.473684210527
36 23.789473684210527 ['14', '8', '52', '59', '62', '20'] 1189.473684210527
37 23.789473684210527 ['14', '8', '52', '59', '62', '20'] 1189.473684210527
38 23.789473684210527 ['14', '8', '52', '59', '62', '20'] 1189.473684210527
39 23.789473684210527 ['14', '8', '52', '59', '62', '20'] 1189.473684210527
40 23.789473684210527 ['14', '8', '52', '59', '62', '20'] 1189.473684210527
41 23.789473684210527 ['14', '8', '52', '59', '62', '20'] 1189.473684210527
42 23.789473684210527 ['14', '8', '52', '59', '62', '20'] 1189.473684210527
43 23.789473684210527 ['14', '8', '52', '59', '62', '20'] 1189.473684210527
44 23.789473684210527 ['14', '8', '52', '59', '62', '20'] 1189.473684210527
45 23.789473684210527 ['14', '8', '52', '59', '62', '20'] 1189.473684210527
46 23.789473684210527 ['14', '8', '52', '59', '62', '20'] 1189.473684210527
47 23.789473684210527 ['14', '8', '52', '59', '62', '20'] 1189.473684210527
48 23.789473684210527 ['14', '8', '52', '59', '62', '20'] 1189.473684210527
49 23.789473684210527 ['14', '8', '52', '59', '62', '20'] 1189.473684210527
50 23.789473684210527 ['14', '8', '52', '59', '62', '20'] 1189.473684210527
51 23.789473684210527 ['14', '8', '52', '59', '62', '20'] 1189.473684210527
52 23.789473684210527 ['14', '8', '52', '59', '62', '20'] 1189.473684210527
53 23.789473684210527 ['14', '8', '52', '59', '62', '20'] 1189.473684210527
54 23.789473684210527 ['14', '8', '52', '59', '62', '20'] 1189.473684210527
55 23.789473684210527 ['14', '8', '52', '59', '62', '20'] 1189.473684210527
56 23.789473684210527 ['14', '8', '52', '59', '62', '20'] 1189.473684210527
57 23.789473684210527 ['14', '8', '52', '59', '62', '20'] 1189.473684210527
58 23.789473684210527 ['14', '8', '52', '59', '62', '20'] 1189.473684210527
59 23.789473684210527 ['14', '8', '52', '59', '62', '20'] 1189.473684210527
60 23.789473684210527 ['14', '8', '52', '59', '62', '20'] 1189.473684210527
61 23.789473684210527 ['14', '8', '52', '59', '62', '20'] 1189.473684210527
62 23.789473684210527 ['14', '8', '52', '59', '62', '20'] 1189.473684210527
63 23.789473684210527 ['14', '8', '52', '59', '62', '20'] 1189.473684210527
64 23.789473684210527 ['14', '8', '52', '59', '62', '20'] 1189.473684210527
65 23.789473684210527 ['14', '8', '52', '59', '62', '20'] 1189.473684210527
66 23.789473684210527 ['14', '8', '52', '59', '62', '20'] 1189.473684210527
67 23.789473684210527 ['14', '8', '52', '59', '62', '20'] 1189.473684210527
68 23.789473684210527 ['14', '8', '52', '59', '62', '20'] 1189.473684210527
69 23.789473684210527 ['14', '8', '52', '59', '62', '20'] 1189.473684210527
70 23.789473684210527 ['14', '8', '52', '59', '62', '20'] 1189.473684210527
71 23.789473684210527 ['14', '8', '52', '59', '62', '20'] 1189.473684210527
72 23.789473684210527 ['14', '8', '52', '59', '62', '20'] 1189.473684210527
73 23.789473684210527 ['14', '8', '52', '59', '62', '20'] 1189.473684210527
74 23.789473684210527 ['14', '8', '52', '59', '62', '20'] 1189.473684210527
75 23.789473684210527 ['14', '8', '52', '59', '62', '20'] 1189.473684210527
76 23.789473684210527 ['14', '8', '52', '59', '62', '20'] 1189.473684210527
77 23.789473684210527 ['14', '8', '52', '59', '62', '20'] 1189.473684210527
78 23.789473684210527 ['14', '8', '52', '59', '62', '20'] 1189.473684210527
79 23.789473684210527 ['14', '8', '52', '59', '62', '20'] 1189.473684210527
80 23.789473684210527 ['14', '8', '52', '59', '62', '20'] 1189.473684210527
81 23.789473684210527 ['14', '8', '52', '59', '62', '20'] 1189.473684210527
82 23.789473684210527 ['14', '8', '52', '59', '62', '20'] 1189.473684210527
83 23.789473684210527 ['14', '8', '52', '59', '62', '20'] 1189.473684210527
84 23.789473684210527 ['14', '8', '52', '59', '62', '20'] 1189.473684210527
85 23.789473684210527 ['14', '8', '52', '59', '62', '20'] 1189.473684210527
86 23.789473684210527 ['14', '8', '52', '59', '62', '20'] 1189.473684210527
87 23.789473684210527 ['14', '8', '52', '59', '62', '20'] 1189.473684210527
88 23.789473684210527 ['14', '8', '52', '59', '62', '20'] 1189.473684210527
89 23.789473684210527 ['14', '8', '52', '59', '62', '20'] 1189.473684210527
90 23.789473684210527 ['14', '8', '52', '59', '62', '20'] 1189.473684210527
91 23.789473684210527 ['14', '8', '52', '59', '62', '20'] 1189.473684210527
92 23.789473684210527 ['14', '8', '52', '59', '62', '20'] 1189.473684210527
93 23.789473684210527 ['14', '8', '52', '59', '62', '20'] 1189.473684210527
94 23.789473684210527 ['14', '8', '52', '59', '62', '20'] 1189.473684210527
95 23.789473684210527 ['14', '8', '52', '59', '62', '20'] 1189.473684210527
96 23.789473684210527 ['14', '8', '52', '59', '62', '20'] 1189.473684210527
97 23.789473684210527 ['14', '8', '52', '59', '62', '20'] 1189.473684210527
98 23.789473684210527 ['14', '8', '52', '59', '62', '20'] 1189.473684210527
99 23.789473684210527 ['14', '8', '52', '59', '62', '20'] 1189.473684210527
100 23.789473684210527 ['14', '8', '52', '59', '62', '20'] 1189.473684210527
101 23.789473684210527 ['14', '8', '52', '59', '62', '20'] 1189.473684210527
102 23.789473684210527 ['14', '8', '52', '59', '62', '20'] 1189.473684210527
103 23.789473684210527 ['14', '8', '52', '59', '62', '20'] 1189.473684210527
104 23.789473684210527 ['14', '8', '52', '59', '62', '20'] 1189.473684210527
105 23.789473684210527 ['14', '8', '52', '59', '62', '20'] 1189.473684210527
106 23.789473684210527 ['14', '8', '52', '59', '62', '20'] 1189.473684210527
107 23.789473684210527 ['14', '8', '52', '59', '62', '20'] 1189.473684210527
108 23.789473684210527 ['14', '8', '52', '59', '62', '20'] 1189.473684210527
109 23.789473684210527 ['14', '8', '52', '59', '62', '20'] 1189.473684210527
110 23.789473684210527 ['14', '8', '52', '59', '62', '20'] 1189.473684210527
111 23.789473684210527 ['14', '8', '52', '59', '62', '20'] 1189.473684210527
112 23.789473684210527 ['14', '8', '52', '59', '62', '20'] 1189.473684210527
113 23.789473684210527 ['14', '8', '52', '59', '62', '20'] 1189.473684210527
114 23.789473684210527 ['14', '8', '52', '59', '62', '20'] 1189.473684210527
115 23.789473684210527 ['14', '8', '52', '59', '62', '20'] 1189.473684210527
116 23.789473684210527 ['14', '8', '52', '59', '62', '20'] 1189.473684210527
117 23.789473684210527 ['14', '8', '52', '59', '62', '20'] 1189.473684210527
118 23.789473684210527 ['14', '8', '52', '59', '62', '20'] 1189.473684210527
119 23.789473684210527 ['14', '8', '52', '59', '62', '20'] 1189.473684210527
120 23.789473684210527 ['14', '8', '52', '59', '62', '20'] 1189.473684210527
121 23.789473684210527 ['14', '8', '52', '59', '62', '20'] 1189.473684210527
122 23.789473684210527 ['14', '8', '52', '59', '62', '20'] 1189.473684210527
123 23.789473684210527 ['14', '8', '52', '59', '62', '20'] 1189.473684210527
124 23.789473684210527 ['14', '8', '52', '59', '62', '20'] 1189.473684210527
125 23.789473684210527 ['14', '8', '52', '59', '62', '20'] 1189.473684210527
126 23.789473684210527 ['14', '8', '52', '59', '62', '20'] 1189.473684210527
127 23.789473684210527 ['14', '8', '52', '59', '62', '20'] 1189.473684210527
128 23.789473684210527 ['14', '8', '52', '59', '62', '20'] 1189.473684210527
129 23.789473684210527 ['14', '8', '52', '59', '62', '20'] 1189.473684210527
130 23.789473684210527 ['14', '8', '52', '59', '62', '20'] 1189.473684210527
131 23.789473684210527 ['14', '8', '52', '59', '62', '20'] 1189.473684210527
132 23.789473684210527 ['14', '8', '52', '59', '62', '20'] 1189.473684210527
133 23.789473684210527 ['14', '8', '52', '59', '62', '20'] 1189.473684210527
134 23.789473684210527 ['14', '8', '52', '59', '62', '20'] 1189.473684210527
135 23.789473684210527 ['14', '8', '52', '59', '62', '20'] 1189.473684210527
136 23.789473684210527 ['14', '8', '52', '59', '62', '20'] 1189.473684210527
137 23.789473684210527 ['14', '8', '52', '59', '62', '20'] 1189.473684210527
138 23.789473684210527 ['14', '8', '52', '59', '62', '20'] 1189.473684210527
139 23.789473684210527 ['14', '8', '52', '59', '62', '20'] 1189.473684210527
140 23.789473684210527 ['14', '8', '52', '59', '62', '20'] 1189.473684210527
141 23.789473684210527 ['14', '8', '52', '59', '62', '20'] 1189.473684210527
142 23.789473684210527 ['14', '8', '52', '59', '62', '20'] 1189.473684210527
143 23.789473684210527 ['14', '8', '52', '59', '62', '20'] 1189.473684210527
144 23.789473684210527 ['14', '8', '52', '59', '62', '20'] 1189.473684210527
145 23.789473684210527 ['14', '8', '52', '59', '62', '20'] 1189.473684210527
146 23.789473684210527 ['14', '8', '52', '59', '62', '20'] 1189.473684210527
147 23.789473684210527 ['14', '8', '52', '59', '62', '20'] 1189.473684210527
148 23.789473684210527 ['14', '8', '52', '59', '62', '20'] 1189.473684210527
149 23.789473684210527 ['14', '8', '52', '59', '62', '20'] 1189.473684210527
150 23.789473684210527 ['14', '8', '52', '59', '62', '20'] 1189.473684210527
151 23.789473684210527 ['14', '8', '52', '59', '62', '20'] 1189.473684210527
152 23.789473684210527 ['14', '8', '52', '59', '62', '20'] 1189.473684210527
153 23.789473684210527 ['14', '8', '52', '59', '62', '20'] 1189.473684210527
154 23.789473684210527 ['14', '8', '52', '59', '62', '20'] 1189.473684210527
155 23.789473684210527 ['14', '8', '52', '59', '62', '20'] 1189.473684210527
156 23.789473684210527 ['14', '8', '52', '59', '62', '20'] 1189.473684210527
157 23.789473684210527 ['14', '8', '52', '59', '62', '20'] 1189.473684210527
158 23.789473684210527 ['14', '8', '52', '59', '62', '20'] 1189.473684210527
159 23.789473684210527 ['14', '8', '52', '59', '62', '20'] 1189.473684210527
160 23.789473684210527 ['14', '8', '52', '59', '62', '20'] 1189.473684210527
161 23.789473684210527 ['14', '8', '52', '59', '62', '20'] 1189.473684210527
162 23.789473684210527 ['14', '8', '52', '59', '62', '20'] 1189.473684210527
163 23.789473684210527 ['14', '8', '52', '59', '62', '20'] 1189.473684210527
164 23.789473684210527 ['14', '8', '52', '59', '62', '20'] 1189.473684210527
165 23.789473684210527 ['14', '8', '52', '59', '62', '20'] 1189.473684210527
166 23.789473684210527 ['14', '8', '52', '59', '62', '20'] 1189.473684210527
167 23.789473684210527 ['14', '8', '52', '59', '62', '20'] 1189.473684210527
168 23.789473684210527 ['14', '8', '52', '59', '62', '20'] 1189.473684210527
169 23.789473684210527 ['14', '8', '52', '59', '62', '20'] 1189.473684210527
170 23.789473684210527 ['14', '8', '52', '59', '62', '20'] 1189.473684210527
171 23.789473684210527 ['14', '8', '52', '59', '62', '20'] 1189.473684210527
172 23.789473684210527 ['14', '8', '52', '59', '62', '20'] 1189.473684210527
173 23.789473684210527 ['14', '8', '52', '59', '62', '20'] 1189.473684210527
174 23.789473684210527 ['14', '8', '52', '59', '62', '20'] 1189.473684210527
175 23.789473684210527 ['14', '8', '52', '59', '62', '20'] 1189.473684210527
176 23.789473684210527 ['14', '8', '52', '59', '62', '20'] 1189.473684210527
177 23.789473684210527 ['14', '8', '52', '59', '62', '20'] 1189.473684210527
178 23.789473684210527 ['14', '8', '52', '59', '62', '20'] 1189.473684210527
179 23.789473684210527 ['14', '8', '52', '59', '62', '20'] 1189.473684210527
180 23.789473684210527 ['14', '8', '52', '59', '62', '20'] 1189.473684210527
181 23.789473684210527 ['14', '8', '52', '59', '62', '20'] 1189.473684210527
182 23.789473684210527 ['14', '8', '52', '59', '62', '20'] 1189.473684210527
183 23.789473684210527 ['14', '8', '52', '59', '62', '20'] 1189.473684210527
184 23.789473684210527 ['14', '8', '52', '59', '62', '20'] 1189.473684210527
185 23.789473684210527 ['14', '8', '52', '59', '62', '20'] 1189.473684210527
186 23.789473684210527 ['14', '8', '52', '59', '62', '20'] 1189.473684210527
187 23.789473684210527 ['14', '8', '52', '59', '62', '20'] 1189.473684210527
188 23.789473684210527 ['14', '8', '52', '59', '62', '20'] 1189.473684210527
189 23.789473684210527 ['14', '8', '52', '59', '62', '20'] 1189.473684210527
190 23.789473684210527 ['14', '8', '52', '59', '62', '20'] 1189.473684210527
191 23.789473684210527 ['14', '8', '52', '59', '62', '20'] 1189.473684210527
192 23.789473684210527 ['14', '8', '52', '59', '62', '20'] 1189.473684210527
193 23.789473684210527 ['14', '8', '52', '59', '62', '20'] 1189.473684210527
194 23.789473684210527 ['14', '8', '52', '59', '62', '20'] 1189.473684210527
195 23.789473684210527 ['14', '8', '52', '59', '62', '20'] 1189.473684210527
196 23.789473684210527 ['14', '8', '52', '59', '62', '20'] 1189.473684210527
197 23.789473684210527 ['14', '8', '52', '59', '62', '20'] 1189.473684210527
198 23.789473684210527 ['14', '8', '52', '59', '62', '20'] 1189.473684210527
199 23.789473684210527 ['14', '8', '52', '59', '62', '20'] 1189.473684210527
