0 32.63157894736842 ['46', '1', '6', '12', '34', '8'] 1894.6666666666677
1 32.421052631578945 ['3', '62', '41', '50', '23', '8'] 1817.894736842105
2 32.07017543859649 ['34', '8', '56', '32', '46', '12'] 1748.2807017543855
3 31.57894736842105 ['34', '50', '56', '6', '46', '8'] 1685.9649122807025
4 30.105263157894736 ['34', '46', '13', '50', '8', '3'] 1631.8596491228072
5 29.473684210526315 ['8', '46', '34', '50', '28', '3'] 1591.7192982456138
6 29.473684210526315 ['8', '46', '34', '50', '28', '3'] 1546.666666666667
7 28.56140350877193 ['46', '8', '50', '3', '34', '40'] 1507.7192982456133
8 28.42105263157895 ['8', '34', '3', '46', '41', '50'] 1483.1578947368432
9 27.859649122807017 ['8', '50', '3', '34', '41', '40'] 1460.2105263157898
10 27.859649122807017 ['8', '50', '3', '34', '41', '40'] 1435.2280701754385
11 27.859649122807017 ['8', '50', '3', '34', '41', '40'] 1420.21052631579
12 27.859649122807017 ['8', '50', '3', '34', '41', '40'] 1413.543859649123
13 27.859649122807017 ['8', '50', '3', '34', '41', '40'] 1404.9122807017545
14 27.859649122807017 ['8', '50', '3', '34', '41', '40'] 1393.8947368421068
15 27.859649122807017 ['8', '50', '3', '34', '41', '40'] 1392.982456140351
16 27.859649122807017 ['8', '50', '3', '34', '41', '40'] 1392.982456140351
17 27.859649122807017 ['8', '50', '3', '34', '41', '40'] 1392.982456140351
18 27.859649122807017 ['8', '50', '3', '34', '41', '40'] 1392.982456140351
19 27.859649122807017 ['8', '50', '3', '34', '41', '40'] 1392.982456140351
20 27.859649122807017 ['8', '50', '3', '34', '41', '40'] 1392.982456140351
21 27.859649122807017 ['8', '50', '3', '34', '41', '40'] 1392.982456140351
22 27.859649122807017 ['8', '50', '3', '34', '41', '40'] 1392.982456140351
23 27.859649122807017 ['8', '50', '3', '34', '41', '40'] 1392.982456140351
24 27.859649122807017 ['8', '50', '3', '34', '41', '40'] 1392.982456140351
25 27.859649122807017 ['8', '50', '3', '34', '41', '40'] 1392.982456140351
26 27.859649122807017 ['8', '50', '3', '34', '41', '40'] 1392.982456140351
27 27.859649122807017 ['8', '50', '3', '34', '41', '40'] 1392.982456140351
28 27.859649122807017 ['8', '50', '3', '34', '41', '40'] 1392.982456140351
29 27.859649122807017 ['8', '50', '3', '34', '41', '40'] 1392.982456140351
30 27.859649122807017 ['8', '50', '3', '34', '41', '40'] 1392.982456140351
31 27.859649122807017 ['8', '50', '3', '34', '41', '40'] 1392.982456140351
32 27.859649122807017 ['8', '50', '3', '34', '41', '40'] 1392.982456140351
33 27.859649122807017 ['8', '50', '3', '34', '41', '40'] 1392.982456140351
34 27.859649122807017 ['8', '50', '3', '34', '41', '40'] 1392.982456140351
35 27.859649122807017 ['8', '50', '3', '34', '41', '40'] 1392.982456140351
36 27.859649122807017 ['8', '50', '3', '34', '41', '40'] 1392.982456140351
37 27.859649122807017 ['8', '50', '3', '34', '41', '40'] 1392.982456140351
38 27.859649122807017 ['8', '50', '3', '34', '41', '40'] 1392.982456140351
39 27.859649122807017 ['8', '50', '3', '34', '41', '40'] 1392.982456140351
40 27.859649122807017 ['8', '50', '3', '34', '41', '40'] 1392.982456140351
41 27.859649122807017 ['8', '50', '3', '34', '41', '40'] 1392.982456140351
42 27.859649122807017 ['8', '50', '3', '34', '41', '40'] 1392.982456140351
43 27.859649122807017 ['8', '50', '3', '34', '41', '40'] 1392.982456140351
44 27.859649122807017 ['8', '50', '3', '34', '41', '40'] 1392.982456140351
45 27.859649122807017 ['8', '50', '3', '34', '41', '40'] 1392.982456140351
46 27.859649122807017 ['8', '50', '3', '34', '41', '40'] 1392.982456140351
47 27.859649122807017 ['8', '50', '3', '34', '41', '40'] 1392.982456140351
48 27.859649122807017 ['8', '50', '3', '34', '41', '40'] 1392.982456140351
49 27.859649122807017 ['8', '50', '3', '34', '41', '40'] 1392.982456140351
50 27.859649122807017 ['8', '50', '3', '34', '41', '40'] 1392.982456140351
51 27.859649122807017 ['8', '50', '3', '34', '41', '40'] 1392.982456140351
52 27.859649122807017 ['8', '50', '3', '34', '41', '40'] 1392.982456140351
53 27.859649122807017 ['8', '50', '3', '34', '41', '40'] 1392.982456140351
54 27.859649122807017 ['8', '50', '3', '34', '41', '40'] 1392.982456140351
55 27.859649122807017 ['8', '50', '3', '34', '41', '40'] 1392.982456140351
56 27.859649122807017 ['8', '50', '3', '34', '41', '40'] 1392.982456140351
57 27.859649122807017 ['8', '50', '3', '34', '41', '40'] 1392.982456140351
58 27.859649122807017 ['8', '50', '3', '34', '41', '40'] 1392.982456140351
59 27.859649122807017 ['8', '50', '3', '34', '41', '40'] 1392.982456140351
60 27.859649122807017 ['8', '50', '3', '34', '41', '40'] 1392.982456140351
61 27.859649122807017 ['8', '50', '3', '34', '41', '40'] 1392.982456140351
62 27.859649122807017 ['8', '50', '3', '34', '41', '40'] 1392.982456140351
63 27.859649122807017 ['8', '50', '3', '34', '41', '40'] 1392.982456140351
64 27.859649122807017 ['8', '50', '3', '34', '41', '40'] 1392.982456140351
65 27.859649122807017 ['8', '50', '3', '34', '41', '40'] 1392.982456140351
66 27.859649122807017 ['8', '50', '3', '34', '41', '40'] 1392.982456140351
67 27.859649122807017 ['8', '50', '3', '34', '41', '40'] 1392.982456140351
68 27.859649122807017 ['8', '50', '3', '34', '41', '40'] 1392.982456140351
69 27.859649122807017 ['8', '50', '3', '34', '41', '40'] 1392.982456140351
70 27.859649122807017 ['8', '50', '3', '34', '41', '40'] 1392.982456140351
71 27.859649122807017 ['8', '50', '3', '34', '41', '40'] 1392.982456140351
72 27.859649122807017 ['8', '50', '3', '34', '41', '40'] 1392.982456140351
73 27.859649122807017 ['8', '50', '3', '34', '41', '40'] 1392.982456140351
74 27.859649122807017 ['8', '50', '3', '34', '41', '40'] 1392.982456140351
75 27.859649122807017 ['8', '50', '3', '34', '41', '40'] 1392.982456140351
76 27.859649122807017 ['8', '50', '3', '34', '41', '40'] 1392.982456140351
77 27.859649122807017 ['8', '50', '3', '34', '41', '40'] 1392.982456140351
78 27.859649122807017 ['8', '50', '3', '34', '41', '40'] 1392.982456140351
79 27.859649122807017 ['8', '50', '3', '34', '41', '40'] 1392.982456140351
80 27.859649122807017 ['8', '50', '3', '34', '41', '40'] 1392.982456140351
81 27.859649122807017 ['8', '50', '3', '34', '41', '40'] 1392.982456140351
82 27.859649122807017 ['8', '50', '3', '34', '41', '40'] 1392.982456140351
83 27.859649122807017 ['8', '50', '3', '34', '41', '40'] 1392.982456140351
84 27.859649122807017 ['8', '50', '3', '34', '41', '40'] 1392.982456140351
85 27.859649122807017 ['8', '50', '3', '34', '41', '40'] 1392.982456140351
86 27.859649122807017 ['8', '50', '3', '34', '41', '40'] 1392.982456140351
87 27.859649122807017 ['8', '50', '3', '34', '41', '40'] 1392.982456140351
88 27.859649122807017 ['8', '50', '3', '34', '41', '40'] 1392.982456140351
89 27.859649122807017 ['8', '50', '3', '34', '41', '40'] 1392.982456140351
90 27.859649122807017 ['8', '50', '3', '34', '41', '40'] 1392.982456140351
91 27.859649122807017 ['8', '50', '3', '34', '41', '40'] 1392.982456140351
92 27.859649122807017 ['8', '50', '3', '34', '41', '40'] 1392.982456140351
93 27.859649122807017 ['8', '50', '3', '34', '41', '40'] 1392.982456140351
94 27.859649122807017 ['8', '50', '3', '34', '41', '40'] 1392.982456140351
95 27.859649122807017 ['8', '50', '3', '34', '41', '40'] 1392.982456140351
96 27.859649122807017 ['8', '50', '3', '34', '41', '40'] 1392.982456140351
97 27.859649122807017 ['8', '50', '3', '34', '41', '40'] 1392.982456140351
98 27.859649122807017 ['8', '50', '3', '34', '41', '40'] 1392.982456140351
99 27.859649122807017 ['8', '50', '3', '34', '41', '40'] 1392.982456140351
100 27.859649122807017 ['8', '50', '3', '34', '41', '40'] 1392.982456140351
101 27.859649122807017 ['8', '50', '3', '34', '41', '40'] 1392.982456140351
102 27.859649122807017 ['8', '50', '3', '34', '41', '40'] 1392.982456140351
103 27.859649122807017 ['8', '50', '3', '34', '41', '40'] 1392.982456140351
104 27.859649122807017 ['8', '50', '3', '34', '41', '40'] 1392.982456140351
105 27.859649122807017 ['8', '50', '3', '34', '41', '40'] 1392.982456140351
106 27.859649122807017 ['8', '50', '3', '34', '41', '40'] 1392.982456140351
107 27.859649122807017 ['8', '50', '3', '34', '41', '40'] 1392.982456140351
108 27.859649122807017 ['8', '50', '3', '34', '41', '40'] 1392.982456140351
109 27.859649122807017 ['8', '50', '3', '34', '41', '40'] 1392.982456140351
110 27.859649122807017 ['8', '50', '3', '34', '41', '40'] 1392.982456140351
111 27.859649122807017 ['8', '50', '3', '34', '41', '40'] 1392.982456140351
112 27.859649122807017 ['8', '50', '3', '34', '41', '40'] 1392.982456140351
113 27.859649122807017 ['8', '50', '3', '34', '41', '40'] 1392.982456140351
114 27.859649122807017 ['8', '50', '3', '34', '41', '40'] 1392.982456140351
115 27.859649122807017 ['8', '50', '3', '34', '41', '40'] 1392.982456140351
116 27.859649122807017 ['8', '50', '3', '34', '41', '40'] 1392.982456140351
117 27.859649122807017 ['8', '50', '3', '34', '41', '40'] 1392.982456140351
118 27.859649122807017 ['8', '50', '3', '34', '41', '40'] 1392.982456140351
119 27.859649122807017 ['8', '50', '3', '34', '41', '40'] 1392.982456140351
120 27.859649122807017 ['8', '50', '3', '34', '41', '40'] 1392.982456140351
121 27.859649122807017 ['8', '50', '3', '34', '41', '40'] 1392.982456140351
122 27.859649122807017 ['8', '50', '3', '34', '41', '40'] 1392.982456140351
123 27.859649122807017 ['8', '50', '3', '34', '41', '40'] 1392.982456140351
124 27.859649122807017 ['8', '50', '3', '34', '41', '40'] 1392.982456140351
125 27.859649122807017 ['8', '50', '3', '34', '41', '40'] 1392.982456140351
126 27.859649122807017 ['8', '50', '3', '34', '41', '40'] 1392.982456140351
127 27.859649122807017 ['8', '50', '3', '34', '41', '40'] 1392.982456140351
128 27.859649122807017 ['8', '50', '3', '34', '41', '40'] 1392.982456140351
129 27.859649122807017 ['8', '50', '3', '34', '41', '40'] 1392.982456140351
130 27.859649122807017 ['8', '50', '3', '34', '41', '40'] 1392.982456140351
131 27.859649122807017 ['8', '50', '3', '34', '41', '40'] 1392.982456140351
132 27.859649122807017 ['8', '50', '3', '34', '41', '40'] 1392.982456140351
133 27.859649122807017 ['8', '50', '3', '34', '41', '40'] 1392.982456140351
134 27.859649122807017 ['8', '50', '3', '34', '41', '40'] 1392.982456140351
135 27.859649122807017 ['8', '50', '3', '34', '41', '40'] 1392.982456140351
136 27.859649122807017 ['8', '50', '3', '34', '41', '40'] 1392.982456140351
137 27.859649122807017 ['8', '50', '3', '34', '41', '40'] 1392.982456140351
138 27.859649122807017 ['8', '50', '3', '34', '41', '40'] 1392.982456140351
139 27.859649122807017 ['8', '50', '3', '34', '41', '40'] 1392.982456140351
140 27.859649122807017 ['8', '50', '3', '34', '41', '40'] 1392.982456140351
141 27.859649122807017 ['8', '50', '3', '34', '41', '40'] 1392.982456140351
142 27.859649122807017 ['8', '50', '3', '34', '41', '40'] 1392.982456140351
143 27.859649122807017 ['8', '50', '3', '34', '41', '40'] 1392.982456140351
144 27.859649122807017 ['8', '50', '3', '34', '41', '40'] 1392.982456140351
145 27.859649122807017 ['8', '50', '3', '34', '41', '40'] 1392.982456140351
146 27.859649122807017 ['8', '50', '3', '34', '41', '40'] 1392.982456140351
147 27.859649122807017 ['8', '50', '3', '34', '41', '40'] 1392.982456140351
148 27.859649122807017 ['8', '50', '3', '34', '41', '40'] 1392.982456140351
149 27.859649122807017 ['8', '50', '3', '34', '41', '40'] 1392.982456140351
150 27.859649122807017 ['8', '50', '3', '34', '41', '40'] 1392.982456140351
151 27.859649122807017 ['8', '50', '3', '34', '41', '40'] 1392.982456140351
152 27.859649122807017 ['8', '50', '3', '34', '41', '40'] 1392.982456140351
153 27.859649122807017 ['8', '50', '3', '34', '41', '40'] 1392.982456140351
154 27.859649122807017 ['8', '50', '3', '34', '41', '40'] 1392.982456140351
155 27.859649122807017 ['8', '50', '3', '34', '41', '40'] 1392.982456140351
156 27.859649122807017 ['8', '50', '3', '34', '41', '40'] 1392.982456140351
157 27.859649122807017 ['8', '50', '3', '34', '41', '40'] 1392.982456140351
158 27.859649122807017 ['8', '50', '3', '34', '41', '40'] 1392.982456140351
159 27.859649122807017 ['8', '50', '3', '34', '41', '40'] 1392.982456140351
160 27.859649122807017 ['8', '50', '3', '34', '41', '40'] 1392.982456140351
161 27.859649122807017 ['8', '50', '3', '34', '41', '40'] 1392.982456140351
162 27.859649122807017 ['8', '50', '3', '34', '41', '40'] 1392.982456140351
163 27.859649122807017 ['8', '50', '3', '34', '41', '40'] 1392.982456140351
164 27.859649122807017 ['8', '50', '3', '34', '41', '40'] 1392.982456140351
165 27.859649122807017 ['8', '50', '3', '34', '41', '40'] 1392.982456140351
166 27.859649122807017 ['8', '50', '3', '34', '41', '40'] 1392.982456140351
167 27.859649122807017 ['8', '50', '3', '34', '41', '40'] 1392.982456140351
168 27.859649122807017 ['8', '50', '3', '34', '41', '40'] 1392.982456140351
169 27.859649122807017 ['8', '50', '3', '34', '41', '40'] 1392.982456140351
170 27.859649122807017 ['8', '50', '3', '34', '41', '40'] 1392.982456140351
171 27.859649122807017 ['8', '50', '3', '34', '41', '40'] 1392.982456140351
172 27.859649122807017 ['8', '50', '3', '34', '41', '40'] 1392.982456140351
173 27.859649122807017 ['8', '50', '3', '34', '41', '40'] 1392.982456140351
174 27.859649122807017 ['8', '50', '3', '34', '41', '40'] 1392.982456140351
175 27.859649122807017 ['8', '50', '3', '34', '41', '40'] 1392.982456140351
176 27.859649122807017 ['8', '50', '3', '34', '41', '40'] 1392.982456140351
177 27.859649122807017 ['8', '50', '3', '34', '41', '40'] 1392.982456140351
178 27.859649122807017 ['8', '50', '3', '34', '41', '40'] 1392.982456140351
179 27.859649122807017 ['8', '50', '3', '34', '41', '40'] 1392.982456140351
180 27.859649122807017 ['8', '50', '3', '34', '41', '40'] 1392.982456140351
181 27.859649122807017 ['8', '50', '3', '34', '41', '40'] 1392.982456140351
182 27.859649122807017 ['8', '50', '3', '34', '41', '40'] 1392.982456140351
183 27.859649122807017 ['8', '50', '3', '34', '41', '40'] 1392.982456140351
184 27.859649122807017 ['8', '50', '3', '34', '41', '40'] 1392.982456140351
185 27.859649122807017 ['8', '50', '3', '34', '41', '40'] 1392.982456140351
186 27.859649122807017 ['8', '50', '3', '34', '41', '40'] 1392.982456140351
187 27.859649122807017 ['8', '50', '3', '34', '41', '40'] 1392.982456140351
188 27.859649122807017 ['8', '50', '3', '34', '41', '40'] 1392.982456140351
189 27.859649122807017 ['8', '50', '3', '34', '41', '40'] 1392.982456140351
190 27.859649122807017 ['8', '50', '3', '34', '41', '40'] 1392.982456140351
191 27.859649122807017 ['8', '50', '3', '34', '41', '40'] 1392.982456140351
192 27.859649122807017 ['8', '50', '3', '34', '41', '40'] 1392.982456140351
193 27.859649122807017 ['8', '50', '3', '34', '41', '40'] 1392.982456140351
194 27.859649122807017 ['8', '50', '3', '34', '41', '40'] 1392.982456140351
195 27.859649122807017 ['8', '50', '3', '34', '41', '40'] 1392.982456140351
196 27.859649122807017 ['8', '50', '3', '34', '41', '40'] 1392.982456140351
197 27.859649122807017 ['8', '50', '3', '34', '41', '40'] 1392.982456140351
198 27.859649122807017 ['8', '50', '3', '34', '41', '40'] 1392.982456140351
199 27.859649122807017 ['8', '50', '3', '34', '41', '40'] 1392.982456140351
