0 15.525925925925925 ['145', '75', '37', '124', '70', '139', '144', '92', '133', '54', '131', '82', '77', '122', '88'] 796.6814814814817
1 15.525925925925925 ['145', '75', '37', '124', '70', '139', '144', '92', '133', '54', '131', '82', '77', '122', '88'] 791.0592592592594
2 15.4 ['142', '49', '129', '136', '108', '118', '124', '115', '60', '119', '134', '19', '13', '137', '133'] 785.4074074074072
3 15.333333333333334 ['93', '142', '129', '71', '144', '140', '136', '120', '75', '28', '141', '119', '73', '39', '115'] 780.2666666666667
4 15.244444444444444 ['141', '80', '119', '39', '127', '71', '73', '139', '140', '142', '136', '133', '147', '92', '115'] 775.4000000000004
5 14.985185185185186 ['130', '139', '73', '137', '134', '128', '56', '147', '120', '144', '65', '77', '145', '150', '60'] 770.1703703703703
6 14.985185185185186 ['130', '139', '73', '137', '134', '128', '56', '147', '120', '144', '65', '77', '145', '150', '60'] 765.0814814814813
7 14.985185185185186 ['130', '139', '73', '137', '134', '128', '56', '147', '120', '144', '65', '77', '145', '150', '60'] 759.8814814814817
8 14.851851851851851 ['108', '129', '140', '139', '144', '148', '73', '99', '145', '77', '137', '128', '130', '95', '136'] 755.1037037037041
9 14.822222222222223 ['136', '119', '142', '139', '60', '79', '108', '115', '145', '144', '118', '148', '150', '122', '137'] 751.3925925925922
10 14.822222222222223 ['136', '119', '142', '139', '60', '79', '108', '115', '145', '144', '118', '148', '150', '122', '137'] 747.8814814814818
11 14.703703703703704 ['130', '140', '142', '147', '99', '139', '148', '141', '145', '144', '136', '39', '150', '133', '77'] 744.1703703703698
12 14.696296296296296 ['129', '144', '140', '120', '147', '142', '150', '138', '115', '136', '93', '128', '145', '148', '77'] 740.5925925925926
13 14.548148148148147 ['139', '145', '136', '120', '148', '142', '144', '129', '130', '147', '134', '150', '135', '108', '115'] 737.6148148148143
14 14.518518518518519 ['145', '142', '138', '144', '148', '136', '147', '120', '129', '150', '128', '130', '108', '140', '73'] 734.8000000000005
15 14.518518518518519 ['145', '142', '138', '144', '148', '136', '147', '120', '129', '150', '128', '130', '108', '140', '73'] 732.4148148148147
16 14.488888888888889 ['120', '148', '145', '129', '150', '136', '139', '142', '144', '130', '147', '140', '108', '77', '115'] 729.97037037037
17 14.488888888888889 ['120', '148', '145', '129', '150', '136', '139', '142', '144', '130', '147', '140', '108', '77', '115'] 728.0444444444446
18 14.488888888888889 ['120', '148', '145', '129', '150', '136', '139', '142', '144', '130', '147', '140', '108', '77', '115'] 726.7629629629628
19 14.474074074074075 ['120', '147', '128', '130', '150', '142', '144', '129', '139', '145', '136', '108', '133', '140', '148'] 725.8888888888888
20 14.474074074074075 ['120', '147', '128', '130', '150', '142', '144', '129', '139', '145', '136', '108', '133', '140', '148'] 725.1925925925921
21 14.451851851851853 ['144', '108', '140', '120', '130', '142', '136', '129', '150', '145', '147', '128', '148', '115', '139'] 724.4222222222216
22 14.451851851851853 ['144', '108', '140', '120', '130', '142', '136', '129', '150', '145', '147', '128', '148', '115', '139'] 723.755555555556
23 14.451851851851853 ['144', '108', '140', '120', '130', '142', '136', '129', '150', '145', '147', '128', '148', '115', '139'] 723.0370370370375
24 14.451851851851853 ['144', '108', '140', '120', '130', '142', '136', '129', '150', '145', '147', '128', '148', '115', '139'] 722.5925925925931
25 14.451851851851853 ['144', '108', '140', '120', '130', '142', '136', '129', '150', '145', '147', '128', '148', '115', '139'] 722.5925925925931
26 14.451851851851853 ['144', '108', '140', '120', '130', '142', '136', '129', '150', '145', '147', '128', '148', '115', '139'] 722.5925925925931
27 14.451851851851853 ['144', '108', '140', '120', '130', '142', '136', '129', '150', '145', '147', '128', '148', '115', '139'] 722.5925925925931
28 14.451851851851853 ['144', '108', '140', '120', '130', '142', '136', '129', '150', '145', '147', '128', '148', '115', '139'] 722.5925925925931
29 14.451851851851853 ['144', '108', '140', '120', '130', '142', '136', '129', '150', '145', '147', '128', '148', '115', '139'] 722.5925925925931
30 14.451851851851853 ['144', '108', '140', '120', '130', '142', '136', '129', '150', '145', '147', '128', '148', '115', '139'] 722.5925925925931
31 14.451851851851853 ['144', '108', '140', '120', '130', '142', '136', '129', '150', '145', '147', '128', '148', '115', '139'] 722.5925925925931
32 14.451851851851853 ['144', '108', '140', '120', '130', '142', '136', '129', '150', '145', '147', '128', '148', '115', '139'] 722.5925925925931
33 14.451851851851853 ['144', '108', '140', '120', '130', '142', '136', '129', '150', '145', '147', '128', '148', '115', '139'] 722.5925925925931
34 14.451851851851853 ['144', '108', '140', '120', '130', '142', '136', '129', '150', '145', '147', '128', '148', '115', '139'] 722.5925925925931
35 14.451851851851853 ['144', '108', '140', '120', '130', '142', '136', '129', '150', '145', '147', '128', '148', '115', '139'] 722.5925925925931
36 14.451851851851853 ['144', '108', '140', '120', '130', '142', '136', '129', '150', '145', '147', '128', '148', '115', '139'] 722.5925925925931
37 14.451851851851853 ['144', '108', '140', '120', '130', '142', '136', '129', '150', '145', '147', '128', '148', '115', '139'] 722.5925925925931
38 14.451851851851853 ['144', '108', '140', '120', '130', '142', '136', '129', '150', '145', '147', '128', '148', '115', '139'] 722.5925925925931
39 14.451851851851853 ['144', '108', '140', '120', '130', '142', '136', '129', '150', '145', '147', '128', '148', '115', '139'] 722.5925925925931
40 14.451851851851853 ['144', '108', '140', '120', '130', '142', '136', '129', '150', '145', '147', '128', '148', '115', '139'] 722.5925925925931
41 14.451851851851853 ['144', '108', '140', '120', '130', '142', '136', '129', '150', '145', '147', '128', '148', '115', '139'] 722.5925925925931
42 14.451851851851853 ['144', '108', '140', '120', '130', '142', '136', '129', '150', '145', '147', '128', '148', '115', '139'] 722.5925925925931
43 14.451851851851853 ['144', '108', '140', '120', '130', '142', '136', '129', '150', '145', '147', '128', '148', '115', '139'] 722.5925925925931
44 14.451851851851853 ['144', '108', '140', '120', '130', '142', '136', '129', '150', '145', '147', '128', '148', '115', '139'] 722.5925925925931
45 14.451851851851853 ['144', '108', '140', '120', '130', '142', '136', '129', '150', '145', '147', '128', '148', '115', '139'] 722.5925925925931
46 14.451851851851853 ['144', '108', '140', '120', '130', '142', '136', '129', '150', '145', '147', '128', '148', '115', '139'] 722.5925925925931
47 14.451851851851853 ['144', '108', '140', '120', '130', '142', '136', '129', '150', '145', '147', '128', '148', '115', '139'] 722.5925925925931
48 14.451851851851853 ['144', '108', '140', '120', '130', '142', '136', '129', '150', '145', '147', '128', '148', '115', '139'] 722.5925925925931
49 14.451851851851853 ['144', '108', '140', '120', '130', '142', '136', '129', '150', '145', '147', '128', '148', '115', '139'] 722.5925925925931
50 14.451851851851853 ['144', '108', '140', '120', '130', '142', '136', '129', '150', '145', '147', '128', '148', '115', '139'] 722.5925925925931
51 14.451851851851853 ['144', '108', '140', '120', '130', '142', '136', '129', '150', '145', '147', '128', '148', '115', '139'] 722.5925925925931
52 14.451851851851853 ['144', '108', '140', '120', '130', '142', '136', '129', '150', '145', '147', '128', '148', '115', '139'] 722.5925925925931
53 14.451851851851853 ['144', '108', '140', '120', '130', '142', '136', '129', '150', '145', '147', '128', '148', '115', '139'] 722.5925925925931
54 14.451851851851853 ['144', '108', '140', '120', '130', '142', '136', '129', '150', '145', '147', '128', '148', '115', '139'] 722.5925925925931
55 14.451851851851853 ['144', '108', '140', '120', '130', '142', '136', '129', '150', '145', '147', '128', '148', '115', '139'] 722.5925925925931
56 14.451851851851853 ['144', '108', '140', '120', '130', '142', '136', '129', '150', '145', '147', '128', '148', '115', '139'] 722.5925925925931
57 14.451851851851853 ['144', '108', '140', '120', '130', '142', '136', '129', '150', '145', '147', '128', '148', '115', '139'] 722.5925925925931
58 14.451851851851853 ['144', '108', '140', '120', '130', '142', '136', '129', '150', '145', '147', '128', '148', '115', '139'] 722.5925925925931
59 14.451851851851853 ['144', '108', '140', '120', '130', '142', '136', '129', '150', '145', '147', '128', '148', '115', '139'] 722.5925925925931
60 14.451851851851853 ['144', '108', '140', '120', '130', '142', '136', '129', '150', '145', '147', '128', '148', '115', '139'] 722.5925925925931
61 14.451851851851853 ['144', '108', '140', '120', '130', '142', '136', '129', '150', '145', '147', '128', '148', '115', '139'] 722.5925925925931
62 14.451851851851853 ['144', '108', '140', '120', '130', '142', '136', '129', '150', '145', '147', '128', '148', '115', '139'] 722.5925925925931
63 14.451851851851853 ['144', '108', '140', '120', '130', '142', '136', '129', '150', '145', '147', '128', '148', '115', '139'] 722.5925925925931
64 14.451851851851853 ['144', '108', '140', '120', '130', '142', '136', '129', '150', '145', '147', '128', '148', '115', '139'] 722.5925925925931
65 14.451851851851853 ['144', '108', '140', '120', '130', '142', '136', '129', '150', '145', '147', '128', '148', '115', '139'] 722.5925925925931
66 14.451851851851853 ['144', '108', '140', '120', '130', '142', '136', '129', '150', '145', '147', '128', '148', '115', '139'] 722.5925925925931
67 14.451851851851853 ['144', '108', '140', '120', '130', '142', '136', '129', '150', '145', '147', '128', '148', '115', '139'] 722.5925925925931
68 14.451851851851853 ['144', '108', '140', '120', '130', '142', '136', '129', '150', '145', '147', '128', '148', '115', '139'] 722.5925925925931
69 14.451851851851853 ['144', '108', '140', '120', '130', '142', '136', '129', '150', '145', '147', '128', '148', '115', '139'] 722.5925925925931
70 14.451851851851853 ['144', '108', '140', '120', '130', '142', '136', '129', '150', '145', '147', '128', '148', '115', '139'] 722.5925925925931
71 14.451851851851853 ['144', '108', '140', '120', '130', '142', '136', '129', '150', '145', '147', '128', '148', '115', '139'] 722.5925925925931
72 14.451851851851853 ['144', '108', '140', '120', '130', '142', '136', '129', '150', '145', '147', '128', '148', '115', '139'] 722.5925925925931
73 14.451851851851853 ['144', '108', '140', '120', '130', '142', '136', '129', '150', '145', '147', '128', '148', '115', '139'] 722.5925925925931
74 14.451851851851853 ['144', '108', '140', '120', '130', '142', '136', '129', '150', '145', '147', '128', '148', '115', '139'] 722.5925925925931
75 14.451851851851853 ['144', '108', '140', '120', '130', '142', '136', '129', '150', '145', '147', '128', '148', '115', '139'] 722.5925925925931
76 14.451851851851853 ['144', '108', '140', '120', '130', '142', '136', '129', '150', '145', '147', '128', '148', '115', '139'] 722.5925925925931
77 14.451851851851853 ['144', '108', '140', '120', '130', '142', '136', '129', '150', '145', '147', '128', '148', '115', '139'] 722.5925925925931
78 14.451851851851853 ['144', '108', '140', '120', '130', '142', '136', '129', '150', '145', '147', '128', '148', '115', '139'] 722.5925925925931
79 14.451851851851853 ['144', '108', '140', '120', '130', '142', '136', '129', '150', '145', '147', '128', '148', '115', '139'] 722.5925925925931
80 14.451851851851853 ['144', '108', '140', '120', '130', '142', '136', '129', '150', '145', '147', '128', '148', '115', '139'] 722.5925925925931
81 14.451851851851853 ['144', '108', '140', '120', '130', '142', '136', '129', '150', '145', '147', '128', '148', '115', '139'] 722.5925925925931
82 14.451851851851853 ['144', '108', '140', '120', '130', '142', '136', '129', '150', '145', '147', '128', '148', '115', '139'] 722.5925925925931
83 14.451851851851853 ['144', '108', '140', '120', '130', '142', '136', '129', '150', '145', '147', '128', '148', '115', '139'] 722.5925925925931
84 14.451851851851853 ['144', '108', '140', '120', '130', '142', '136', '129', '150', '145', '147', '128', '148', '115', '139'] 722.5925925925931
85 14.451851851851853 ['144', '108', '140', '120', '130', '142', '136', '129', '150', '145', '147', '128', '148', '115', '139'] 722.5925925925931
86 14.451851851851853 ['144', '108', '140', '120', '130', '142', '136', '129', '150', '145', '147', '128', '148', '115', '139'] 722.5925925925931
87 14.451851851851853 ['144', '108', '140', '120', '130', '142', '136', '129', '150', '145', '147', '128', '148', '115', '139'] 722.5925925925931
88 14.451851851851853 ['144', '108', '140', '120', '130', '142', '136', '129', '150', '145', '147', '128', '148', '115', '139'] 722.5925925925931
89 14.451851851851853 ['144', '108', '140', '120', '130', '142', '136', '129', '150', '145', '147', '128', '148', '115', '139'] 722.5925925925931
90 14.451851851851853 ['144', '108', '140', '120', '130', '142', '136', '129', '150', '145', '147', '128', '148', '115', '139'] 722.5925925925931
91 14.451851851851853 ['144', '108', '140', '120', '130', '142', '136', '129', '150', '145', '147', '128', '148', '115', '139'] 722.5925925925931
92 14.451851851851853 ['144', '108', '140', '120', '130', '142', '136', '129', '150', '145', '147', '128', '148', '115', '139'] 722.5925925925931
93 14.451851851851853 ['144', '108', '140', '120', '130', '142', '136', '129', '150', '145', '147', '128', '148', '115', '139'] 722.5925925925931
94 14.451851851851853 ['144', '108', '140', '120', '130', '142', '136', '129', '150', '145', '147', '128', '148', '115', '139'] 722.5925925925931
95 14.451851851851853 ['144', '108', '140', '120', '130', '142', '136', '129', '150', '145', '147', '128', '148', '115', '139'] 722.5925925925931
96 14.451851851851853 ['144', '108', '140', '120', '130', '142', '136', '129', '150', '145', '147', '128', '148', '115', '139'] 722.5925925925931
97 14.451851851851853 ['144', '108', '140', '120', '130', '142', '136', '129', '150', '145', '147', '128', '148', '115', '139'] 722.5925925925931
98 14.451851851851853 ['144', '108', '140', '120', '130', '142', '136', '129', '150', '145', '147', '128', '148', '115', '139'] 722.5925925925931
99 14.451851851851853 ['144', '108', '140', '120', '130', '142', '136', '129', '150', '145', '147', '128', '148', '115', '139'] 722.5925925925931
100 14.451851851851853 ['144', '108', '140', '120', '130', '142', '136', '129', '150', '145', '147', '128', '148', '115', '139'] 722.5925925925931
101 14.451851851851853 ['144', '108', '140', '120', '130', '142', '136', '129', '150', '145', '147', '128', '148', '115', '139'] 722.5925925925931
102 14.451851851851853 ['144', '108', '140', '120', '130', '142', '136', '129', '150', '145', '147', '128', '148', '115', '139'] 722.5925925925931
103 14.451851851851853 ['144', '108', '140', '120', '130', '142', '136', '129', '150', '145', '147', '128', '148', '115', '139'] 722.5925925925931
104 14.451851851851853 ['144', '108', '140', '120', '130', '142', '136', '129', '150', '145', '147', '128', '148', '115', '139'] 722.5925925925931
105 14.451851851851853 ['144', '108', '140', '120', '130', '142', '136', '129', '150', '145', '147', '128', '148', '115', '139'] 722.5925925925931
106 14.451851851851853 ['144', '108', '140', '120', '130', '142', '136', '129', '150', '145', '147', '128', '148', '115', '139'] 722.5925925925931
107 14.451851851851853 ['144', '108', '140', '120', '130', '142', '136', '129', '150', '145', '147', '128', '148', '115', '139'] 722.5925925925931
108 14.451851851851853 ['144', '108', '140', '120', '130', '142', '136', '129', '150', '145', '147', '128', '148', '115', '139'] 722.5925925925931
109 14.451851851851853 ['144', '108', '140', '120', '130', '142', '136', '129', '150', '145', '147', '128', '148', '115', '139'] 722.5925925925931
110 14.451851851851853 ['144', '108', '140', '120', '130', '142', '136', '129', '150', '145', '147', '128', '148', '115', '139'] 722.5925925925931
111 14.451851851851853 ['144', '108', '140', '120', '130', '142', '136', '129', '150', '145', '147', '128', '148', '115', '139'] 722.5925925925931
112 14.451851851851853 ['144', '108', '140', '120', '130', '142', '136', '129', '150', '145', '147', '128', '148', '115', '139'] 722.5925925925931
113 14.451851851851853 ['144', '108', '140', '120', '130', '142', '136', '129', '150', '145', '147', '128', '148', '115', '139'] 722.5925925925931
114 14.451851851851853 ['144', '108', '140', '120', '130', '142', '136', '129', '150', '145', '147', '128', '148', '115', '139'] 722.5925925925931
115 14.451851851851853 ['144', '108', '140', '120', '130', '142', '136', '129', '150', '145', '147', '128', '148', '115', '139'] 722.5925925925931
116 14.451851851851853 ['144', '108', '140', '120', '130', '142', '136', '129', '150', '145', '147', '128', '148', '115', '139'] 722.5925925925931
117 14.451851851851853 ['144', '108', '140', '120', '130', '142', '136', '129', '150', '145', '147', '128', '148', '115', '139'] 722.5925925925931
118 14.451851851851853 ['144', '108', '140', '120', '130', '142', '136', '129', '150', '145', '147', '128', '148', '115', '139'] 722.5925925925931
119 14.451851851851853 ['144', '108', '140', '120', '130', '142', '136', '129', '150', '145', '147', '128', '148', '115', '139'] 722.5925925925931
120 14.451851851851853 ['144', '108', '140', '120', '130', '142', '136', '129', '150', '145', '147', '128', '148', '115', '139'] 722.5925925925931
121 14.451851851851853 ['144', '108', '140', '120', '130', '142', '136', '129', '150', '145', '147', '128', '148', '115', '139'] 722.5925925925931
122 14.451851851851853 ['144', '108', '140', '120', '130', '142', '136', '129', '150', '145', '147', '128', '148', '115', '139'] 722.5925925925931
123 14.451851851851853 ['144', '108', '140', '120', '130', '142', '136', '129', '150', '145', '147', '128', '148', '115', '139'] 722.5925925925931
124 14.451851851851853 ['144', '108', '140', '120', '130', '142', '136', '129', '150', '145', '147', '128', '148', '115', '139'] 722.5925925925931
125 14.451851851851853 ['144', '108', '140', '120', '130', '142', '136', '129', '150', '145', '147', '128', '148', '115', '139'] 722.5925925925931
126 14.451851851851853 ['144', '108', '140', '120', '130', '142', '136', '129', '150', '145', '147', '128', '148', '115', '139'] 722.5925925925931
127 14.451851851851853 ['144', '108', '140', '120', '130', '142', '136', '129', '150', '145', '147', '128', '148', '115', '139'] 722.5925925925931
128 14.451851851851853 ['144', '108', '140', '120', '130', '142', '136', '129', '150', '145', '147', '128', '148', '115', '139'] 722.5925925925931
129 14.451851851851853 ['144', '108', '140', '120', '130', '142', '136', '129', '150', '145', '147', '128', '148', '115', '139'] 722.5925925925931
130 14.451851851851853 ['144', '108', '140', '120', '130', '142', '136', '129', '150', '145', '147', '128', '148', '115', '139'] 722.5925925925931
131 14.451851851851853 ['144', '108', '140', '120', '130', '142', '136', '129', '150', '145', '147', '128', '148', '115', '139'] 722.5925925925931
132 14.451851851851853 ['144', '108', '140', '120', '130', '142', '136', '129', '150', '145', '147', '128', '148', '115', '139'] 722.5925925925931
133 14.451851851851853 ['144', '108', '140', '120', '130', '142', '136', '129', '150', '145', '147', '128', '148', '115', '139'] 722.5925925925931
134 14.451851851851853 ['144', '108', '140', '120', '130', '142', '136', '129', '150', '145', '147', '128', '148', '115', '139'] 722.5925925925931
135 14.451851851851853 ['144', '108', '140', '120', '130', '142', '136', '129', '150', '145', '147', '128', '148', '115', '139'] 722.5925925925931
136 14.451851851851853 ['144', '108', '140', '120', '130', '142', '136', '129', '150', '145', '147', '128', '148', '115', '139'] 722.5925925925931
137 14.451851851851853 ['144', '108', '140', '120', '130', '142', '136', '129', '150', '145', '147', '128', '148', '115', '139'] 722.5925925925931
138 14.451851851851853 ['144', '108', '140', '120', '130', '142', '136', '129', '150', '145', '147', '128', '148', '115', '139'] 722.5925925925931
139 14.451851851851853 ['144', '108', '140', '120', '130', '142', '136', '129', '150', '145', '147', '128', '148', '115', '139'] 722.5925925925931
140 14.451851851851853 ['144', '108', '140', '120', '130', '142', '136', '129', '150', '145', '147', '128', '148', '115', '139'] 722.5925925925931
141 14.451851851851853 ['144', '108', '140', '120', '130', '142', '136', '129', '150', '145', '147', '128', '148', '115', '139'] 722.5925925925931
142 14.451851851851853 ['144', '108', '140', '120', '130', '142', '136', '129', '150', '145', '147', '128', '148', '115', '139'] 722.5925925925931
143 14.451851851851853 ['144', '108', '140', '120', '130', '142', '136', '129', '150', '145', '147', '128', '148', '115', '139'] 722.5925925925931
144 14.451851851851853 ['144', '108', '140', '120', '130', '142', '136', '129', '150', '145', '147', '128', '148', '115', '139'] 722.5925925925931
145 14.451851851851853 ['144', '108', '140', '120', '130', '142', '136', '129', '150', '145', '147', '128', '148', '115', '139'] 722.5925925925931
146 14.451851851851853 ['144', '108', '140', '120', '130', '142', '136', '129', '150', '145', '147', '128', '148', '115', '139'] 722.5925925925931
147 14.451851851851853 ['144', '108', '140', '120', '130', '142', '136', '129', '150', '145', '147', '128', '148', '115', '139'] 722.5925925925931
148 14.451851851851853 ['144', '108', '140', '120', '130', '142', '136', '129', '150', '145', '147', '128', '148', '115', '139'] 722.5925925925931
149 14.451851851851853 ['144', '108', '140', '120', '130', '142', '136', '129', '150', '145', '147', '128', '148', '115', '139'] 722.5925925925931
150 14.451851851851853 ['144', '108', '140', '120', '130', '142', '136', '129', '150', '145', '147', '128', '148', '115', '139'] 722.5925925925931
151 14.451851851851853 ['144', '108', '140', '120', '130', '142', '136', '129', '150', '145', '147', '128', '148', '115', '139'] 722.5925925925931
152 14.451851851851853 ['144', '108', '140', '120', '130', '142', '136', '129', '150', '145', '147', '128', '148', '115', '139'] 722.5925925925931
153 14.451851851851853 ['144', '108', '140', '120', '130', '142', '136', '129', '150', '145', '147', '128', '148', '115', '139'] 722.5925925925931
154 14.451851851851853 ['144', '108', '140', '120', '130', '142', '136', '129', '150', '145', '147', '128', '148', '115', '139'] 722.5925925925931
155 14.451851851851853 ['144', '108', '140', '120', '130', '142', '136', '129', '150', '145', '147', '128', '148', '115', '139'] 722.5925925925931
156 14.451851851851853 ['144', '108', '140', '120', '130', '142', '136', '129', '150', '145', '147', '128', '148', '115', '139'] 722.5925925925931
157 14.451851851851853 ['144', '108', '140', '120', '130', '142', '136', '129', '150', '145', '147', '128', '148', '115', '139'] 722.5925925925931
158 14.451851851851853 ['144', '108', '140', '120', '130', '142', '136', '129', '150', '145', '147', '128', '148', '115', '139'] 722.5925925925931
159 14.451851851851853 ['144', '108', '140', '120', '130', '142', '136', '129', '150', '145', '147', '128', '148', '115', '139'] 722.5925925925931
160 14.451851851851853 ['144', '108', '140', '120', '130', '142', '136', '129', '150', '145', '147', '128', '148', '115', '139'] 722.5925925925931
161 14.451851851851853 ['144', '108', '140', '120', '130', '142', '136', '129', '150', '145', '147', '128', '148', '115', '139'] 722.5925925925931
162 14.451851851851853 ['144', '108', '140', '120', '130', '142', '136', '129', '150', '145', '147', '128', '148', '115', '139'] 722.5925925925931
163 14.451851851851853 ['144', '108', '140', '120', '130', '142', '136', '129', '150', '145', '147', '128', '148', '115', '139'] 722.5925925925931
164 14.451851851851853 ['144', '108', '140', '120', '130', '142', '136', '129', '150', '145', '147', '128', '148', '115', '139'] 722.5925925925931
165 14.451851851851853 ['144', '108', '140', '120', '130', '142', '136', '129', '150', '145', '147', '128', '148', '115', '139'] 722.5925925925931
166 14.451851851851853 ['144', '108', '140', '120', '130', '142', '136', '129', '150', '145', '147', '128', '148', '115', '139'] 722.5925925925931
167 14.451851851851853 ['144', '108', '140', '120', '130', '142', '136', '129', '150', '145', '147', '128', '148', '115', '139'] 722.5925925925931
168 14.451851851851853 ['144', '108', '140', '120', '130', '142', '136', '129', '150', '145', '147', '128', '148', '115', '139'] 722.5925925925931
169 14.451851851851853 ['144', '108', '140', '120', '130', '142', '136', '129', '150', '145', '147', '128', '148', '115', '139'] 722.5925925925931
170 14.451851851851853 ['144', '108', '140', '120', '130', '142', '136', '129', '150', '145', '147', '128', '148', '115', '139'] 722.5925925925931
171 14.451851851851853 ['144', '108', '140', '120', '130', '142', '136', '129', '150', '145', '147', '128', '148', '115', '139'] 722.5925925925931
172 14.451851851851853 ['144', '108', '140', '120', '130', '142', '136', '129', '150', '145', '147', '128', '148', '115', '139'] 722.5925925925931
173 14.451851851851853 ['144', '108', '140', '120', '130', '142', '136', '129', '150', '145', '147', '128', '148', '115', '139'] 722.5925925925931
174 14.451851851851853 ['144', '108', '140', '120', '130', '142', '136', '129', '150', '145', '147', '128', '148', '115', '139'] 722.5925925925931
175 14.451851851851853 ['144', '108', '140', '120', '130', '142', '136', '129', '150', '145', '147', '128', '148', '115', '139'] 722.5925925925931
176 14.451851851851853 ['144', '108', '140', '120', '130', '142', '136', '129', '150', '145', '147', '128', '148', '115', '139'] 722.5925925925931
177 14.451851851851853 ['144', '108', '140', '120', '130', '142', '136', '129', '150', '145', '147', '128', '148', '115', '139'] 722.5925925925931
178 14.451851851851853 ['144', '108', '140', '120', '130', '142', '136', '129', '150', '145', '147', '128', '148', '115', '139'] 722.5925925925931
179 14.451851851851853 ['144', '108', '140', '120', '130', '142', '136', '129', '150', '145', '147', '128', '148', '115', '139'] 722.5925925925931
180 14.451851851851853 ['144', '108', '140', '120', '130', '142', '136', '129', '150', '145', '147', '128', '148', '115', '139'] 722.5925925925931
181 14.451851851851853 ['144', '108', '140', '120', '130', '142', '136', '129', '150', '145', '147', '128', '148', '115', '139'] 722.5925925925931
182 14.451851851851853 ['144', '108', '140', '120', '130', '142', '136', '129', '150', '145', '147', '128', '148', '115', '139'] 722.5925925925931
183 14.451851851851853 ['144', '108', '140', '120', '130', '142', '136', '129', '150', '145', '147', '128', '148', '115', '139'] 722.5925925925931
184 14.451851851851853 ['144', '108', '140', '120', '130', '142', '136', '129', '150', '145', '147', '128', '148', '115', '139'] 722.5925925925931
185 14.451851851851853 ['144', '108', '140', '120', '130', '142', '136', '129', '150', '145', '147', '128', '148', '115', '139'] 722.5925925925931
186 14.451851851851853 ['144', '108', '140', '120', '130', '142', '136', '129', '150', '145', '147', '128', '148', '115', '139'] 722.5925925925931
187 14.451851851851853 ['144', '108', '140', '120', '130', '142', '136', '129', '150', '145', '147', '128', '148', '115', '139'] 722.5925925925931
188 14.451851851851853 ['144', '108', '140', '120', '130', '142', '136', '129', '150', '145', '147', '128', '148', '115', '139'] 722.5925925925931
189 14.451851851851853 ['144', '108', '140', '120', '130', '142', '136', '129', '150', '145', '147', '128', '148', '115', '139'] 722.5925925925931
190 14.451851851851853 ['144', '108', '140', '120', '130', '142', '136', '129', '150', '145', '147', '128', '148', '115', '139'] 722.5925925925931
191 14.451851851851853 ['144', '108', '140', '120', '130', '142', '136', '129', '150', '145', '147', '128', '148', '115', '139'] 722.5925925925931
192 14.451851851851853 ['144', '108', '140', '120', '130', '142', '136', '129', '150', '145', '147', '128', '148', '115', '139'] 722.5925925925931
193 14.451851851851853 ['144', '108', '140', '120', '130', '142', '136', '129', '150', '145', '147', '128', '148', '115', '139'] 722.5925925925931
194 14.451851851851853 ['144', '108', '140', '120', '130', '142', '136', '129', '150', '145', '147', '128', '148', '115', '139'] 722.5925925925931
195 14.451851851851853 ['144', '108', '140', '120', '130', '142', '136', '129', '150', '145', '147', '128', '148', '115', '139'] 722.5925925925931
196 14.451851851851853 ['144', '108', '140', '120', '130', '142', '136', '129', '150', '145', '147', '128', '148', '115', '139'] 722.5925925925931
197 14.451851851851853 ['144', '108', '140', '120', '130', '142', '136', '129', '150', '145', '147', '128', '148', '115', '139'] 722.5925925925931
198 14.451851851851853 ['144', '108', '140', '120', '130', '142', '136', '129', '150', '145', '147', '128', '148', '115', '139'] 722.5925925925931
199 14.451851851851853 ['144', '108', '140', '120', '130', '142', '136', '129', '150', '145', '147', '128', '148', '115', '139'] 722.5925925925931
