0 14.207407407407407 ['143', '98', '134', '135', '90', '100', '141', '65', '133', '147', '86', '76', '55', '119', '121'] 742.0444444444444
1 14.207407407407407 ['143', '98', '134', '135', '90', '100', '141', '65', '133', '147', '86', '76', '55', '119', '121'] 734.7333333333332
2 14.192592592592593 ['143', '119', '135', '98', '90', '145', '110', '141', '86', '127', '134', '28', '100', '91', '21'] 727.7407407407406
3 14.14074074074074 ['93', '143', '112', '42', '121', '117', '144', '92', '130', '145', '41', '91', '137', '113', '132'] 721.7629629629629
4 14.051851851851852 ['135', '90', '119', '147', '143', '133', '121', '98', '123', '65', '86', '138', '76', '60', '134'] 715.5629629629628
5 13.903703703703703 ['121', '147', '131', '91', '143', '138', '50', '102', '145', '100', '120', '144', '134', '99', '72'] 710.6740740740744
6 13.77037037037037 ['91', '143', '137', '144', '121', '145', '141', '132', '98', '110', '117', '113', '127', '135', '134'] 705.7333333333335
7 13.77037037037037 ['91', '143', '137', '144', '121', '145', '141', '132', '98', '110', '117', '113', '127', '135', '134'] 701.5777777777774
8 13.77037037037037 ['91', '143', '137', '144', '121', '145', '141', '132', '98', '110', '117', '113', '127', '135', '134'] 698.007407407408
9 13.733333333333333 ['147', '143', '91', '134', '100', '98', '141', '135', '142', '144', '146', '117', '132', '86', '102'] 694.3481481481475
10 13.651851851851852 ['141', '147', '143', '135', '100', '98', '91', '134', '137', '138', '86', '132', '119', '142', '144'] 690.8296296296298
11 13.62962962962963 ['134', '119', '143', '135', '147', '91', '138', '98', '36', '130', '136', '125', '140', '137', '144'] 687.9555555555551
12 13.62962962962963 ['134', '119', '143', '135', '147', '91', '138', '98', '36', '130', '136', '125', '140', '137', '144'] 685.5629629629635
13 13.496296296296297 ['135', '92', '143', '144', '138', '132', '125', '134', '146', '99', '128', '102', '121', '113', '140'] 683.0814814814815
14 13.496296296296297 ['135', '92', '143', '144', '138', '132', '125', '134', '146', '99', '128', '102', '121', '113', '140'] 681.1629629629624
15 13.414814814814815 ['146', '134', '99', '144', '121', '138', '102', '143', '135', '140', '128', '125', '132', '130', '133'] 678.6814814814823
16 13.414814814814815 ['146', '134', '99', '144', '121', '138', '102', '143', '135', '140', '128', '125', '132', '130', '133'] 676.7777777777777
17 13.414814814814815 ['146', '134', '99', '144', '121', '138', '102', '143', '135', '140', '128', '125', '132', '130', '133'] 675.1037037037036
18 13.392592592592592 ['138', '128', '144', '134', '140', '141', '143', '135', '125', '147', '136', '121', '102', '86', '137'] 673.511111111111
19 13.37037037037037 ['144', '134', '143', '125', '146', '102', '140', '121', '138', '135', '99', '130', '132', '128', '136'] 672.1777777777784
20 13.34074074074074 ['140', '128', '135', '134', '130', '102', '144', '125', '143', '132', '99', '138', '137', '121', '147'] 670.8962962962964
21 13.333333333333334 ['125', '130', '138', '133', '144', '134', '132', '143', '140', '135', '121', '137', '146', '128', '136'] 669.9185185185181
22 13.311111111111112 ['136', '138', '134', '121', '133', '128', '140', '137', '143', '135', '125', '130', '144', '102', '132'] 668.8222222222221
23 13.28888888888889 ['134', '140', '138', '132', '143', '147', '144', '135', '137', '128', '125', '121', '136', '142', '130'] 667.7999999999997
24 13.28888888888889 ['134', '140', '138', '132', '143', '147', '144', '135', '137', '128', '125', '121', '136', '142', '130'] 666.7185185185182
25 13.28888888888889 ['134', '140', '138', '132', '143', '147', '144', '135', '137', '128', '125', '121', '136', '142', '130'] 665.7777777777783
26 13.28888888888889 ['134', '140', '138', '132', '143', '147', '144', '135', '137', '128', '125', '121', '136', '142', '130'] 665.2296296296303
27 13.28888888888889 ['134', '140', '138', '132', '143', '147', '144', '135', '137', '128', '125', '121', '136', '142', '130'] 664.8740740740744
28 13.28888888888889 ['134', '140', '138', '132', '143', '147', '144', '135', '137', '128', '125', '121', '136', '142', '130'] 664.5481481481482
29 13.28888888888889 ['134', '140', '138', '132', '143', '147', '144', '135', '137', '128', '125', '121', '136', '142', '130'] 664.4444444444445
30 13.28888888888889 ['134', '140', '138', '132', '143', '147', '144', '135', '137', '128', '125', '121', '136', '142', '130'] 664.4444444444445
31 13.28888888888889 ['134', '140', '138', '132', '143', '147', '144', '135', '137', '128', '125', '121', '136', '142', '130'] 664.4444444444445
32 13.28888888888889 ['134', '140', '138', '132', '143', '147', '144', '135', '137', '128', '125', '121', '136', '142', '130'] 664.4444444444445
33 13.28888888888889 ['134', '140', '138', '132', '143', '147', '144', '135', '137', '128', '125', '121', '136', '142', '130'] 664.4444444444445
34 13.28888888888889 ['134', '140', '138', '132', '143', '147', '144', '135', '137', '128', '125', '121', '136', '142', '130'] 664.4444444444445
35 13.28888888888889 ['134', '140', '138', '132', '143', '147', '144', '135', '137', '128', '125', '121', '136', '142', '130'] 664.4444444444445
36 13.28888888888889 ['134', '140', '138', '132', '143', '147', '144', '135', '137', '128', '125', '121', '136', '142', '130'] 664.4444444444445
37 13.28888888888889 ['134', '140', '138', '132', '143', '147', '144', '135', '137', '128', '125', '121', '136', '142', '130'] 664.4444444444445
38 13.28888888888889 ['134', '140', '138', '132', '143', '147', '144', '135', '137', '128', '125', '121', '136', '142', '130'] 664.4444444444445
39 13.28888888888889 ['134', '140', '138', '132', '143', '147', '144', '135', '137', '128', '125', '121', '136', '142', '130'] 664.4444444444445
40 13.28888888888889 ['134', '140', '138', '132', '143', '147', '144', '135', '137', '128', '125', '121', '136', '142', '130'] 664.4444444444445
41 13.28888888888889 ['134', '140', '138', '132', '143', '147', '144', '135', '137', '128', '125', '121', '136', '142', '130'] 664.4444444444445
42 13.28888888888889 ['134', '140', '138', '132', '143', '147', '144', '135', '137', '128', '125', '121', '136', '142', '130'] 664.4444444444445
43 13.28888888888889 ['134', '140', '138', '132', '143', '147', '144', '135', '137', '128', '125', '121', '136', '142', '130'] 664.4444444444445
44 13.28888888888889 ['134', '140', '138', '132', '143', '147', '144', '135', '137', '128', '125', '121', '136', '142', '130'] 664.4444444444445
45 13.28888888888889 ['134', '140', '138', '132', '143', '147', '144', '135', '137', '128', '125', '121', '136', '142', '130'] 664.4444444444445
46 13.28888888888889 ['134', '140', '138', '132', '143', '147', '144', '135', '137', '128', '125', '121', '136', '142', '130'] 664.4444444444445
47 13.28888888888889 ['134', '140', '138', '132', '143', '147', '144', '135', '137', '128', '125', '121', '136', '142', '130'] 664.4444444444445
48 13.28888888888889 ['134', '140', '138', '132', '143', '147', '144', '135', '137', '128', '125', '121', '136', '142', '130'] 664.4444444444445
49 13.28888888888889 ['134', '140', '138', '132', '143', '147', '144', '135', '137', '128', '125', '121', '136', '142', '130'] 664.4444444444445
50 13.28888888888889 ['134', '140', '138', '132', '143', '147', '144', '135', '137', '128', '125', '121', '136', '142', '130'] 664.4444444444445
51 13.28888888888889 ['134', '140', '138', '132', '143', '147', '144', '135', '137', '128', '125', '121', '136', '142', '130'] 664.4444444444445
52 13.28888888888889 ['134', '140', '138', '132', '143', '147', '144', '135', '137', '128', '125', '121', '136', '142', '130'] 664.4444444444445
53 13.28888888888889 ['134', '140', '138', '132', '143', '147', '144', '135', '137', '128', '125', '121', '136', '142', '130'] 664.4444444444445
54 13.28888888888889 ['134', '140', '138', '132', '143', '147', '144', '135', '137', '128', '125', '121', '136', '142', '130'] 664.4444444444445
55 13.28888888888889 ['134', '140', '138', '132', '143', '147', '144', '135', '137', '128', '125', '121', '136', '142', '130'] 664.4444444444445
56 13.28888888888889 ['134', '140', '138', '132', '143', '147', '144', '135', '137', '128', '125', '121', '136', '142', '130'] 664.4444444444445
57 13.28888888888889 ['134', '140', '138', '132', '143', '147', '144', '135', '137', '128', '125', '121', '136', '142', '130'] 664.4444444444445
58 13.28888888888889 ['134', '140', '138', '132', '143', '147', '144', '135', '137', '128', '125', '121', '136', '142', '130'] 664.4444444444445
59 13.28888888888889 ['134', '140', '138', '132', '143', '147', '144', '135', '137', '128', '125', '121', '136', '142', '130'] 664.4444444444445
60 13.28888888888889 ['134', '140', '138', '132', '143', '147', '144', '135', '137', '128', '125', '121', '136', '142', '130'] 664.4444444444445
61 13.28888888888889 ['134', '140', '138', '132', '143', '147', '144', '135', '137', '128', '125', '121', '136', '142', '130'] 664.4444444444445
62 13.28888888888889 ['134', '140', '138', '132', '143', '147', '144', '135', '137', '128', '125', '121', '136', '142', '130'] 664.4444444444445
63 13.28888888888889 ['134', '140', '138', '132', '143', '147', '144', '135', '137', '128', '125', '121', '136', '142', '130'] 664.4444444444445
64 13.28888888888889 ['134', '140', '138', '132', '143', '147', '144', '135', '137', '128', '125', '121', '136', '142', '130'] 664.4444444444445
65 13.28888888888889 ['134', '140', '138', '132', '143', '147', '144', '135', '137', '128', '125', '121', '136', '142', '130'] 664.4444444444445
66 13.28888888888889 ['134', '140', '138', '132', '143', '147', '144', '135', '137', '128', '125', '121', '136', '142', '130'] 664.4444444444445
67 13.28888888888889 ['134', '140', '138', '132', '143', '147', '144', '135', '137', '128', '125', '121', '136', '142', '130'] 664.4444444444445
68 13.28888888888889 ['134', '140', '138', '132', '143', '147', '144', '135', '137', '128', '125', '121', '136', '142', '130'] 664.4444444444445
69 13.28888888888889 ['134', '140', '138', '132', '143', '147', '144', '135', '137', '128', '125', '121', '136', '142', '130'] 664.4444444444445
70 13.28888888888889 ['134', '140', '138', '132', '143', '147', '144', '135', '137', '128', '125', '121', '136', '142', '130'] 664.4444444444445
71 13.28888888888889 ['134', '140', '138', '132', '143', '147', '144', '135', '137', '128', '125', '121', '136', '142', '130'] 664.4444444444445
72 13.28888888888889 ['134', '140', '138', '132', '143', '147', '144', '135', '137', '128', '125', '121', '136', '142', '130'] 664.4444444444445
73 13.28888888888889 ['134', '140', '138', '132', '143', '147', '144', '135', '137', '128', '125', '121', '136', '142', '130'] 664.4444444444445
74 13.28888888888889 ['134', '140', '138', '132', '143', '147', '144', '135', '137', '128', '125', '121', '136', '142', '130'] 664.4444444444445
75 13.28888888888889 ['134', '140', '138', '132', '143', '147', '144', '135', '137', '128', '125', '121', '136', '142', '130'] 664.4444444444445
76 13.28888888888889 ['134', '140', '138', '132', '143', '147', '144', '135', '137', '128', '125', '121', '136', '142', '130'] 664.4444444444445
77 13.28888888888889 ['134', '140', '138', '132', '143', '147', '144', '135', '137', '128', '125', '121', '136', '142', '130'] 664.4444444444445
78 13.28888888888889 ['134', '140', '138', '132', '143', '147', '144', '135', '137', '128', '125', '121', '136', '142', '130'] 664.4444444444445
79 13.28888888888889 ['134', '140', '138', '132', '143', '147', '144', '135', '137', '128', '125', '121', '136', '142', '130'] 664.4444444444445
80 13.28888888888889 ['134', '140', '138', '132', '143', '147', '144', '135', '137', '128', '125', '121', '136', '142', '130'] 664.4444444444445
81 13.28888888888889 ['134', '140', '138', '132', '143', '147', '144', '135', '137', '128', '125', '121', '136', '142', '130'] 664.4444444444445
82 13.28888888888889 ['134', '140', '138', '132', '143', '147', '144', '135', '137', '128', '125', '121', '136', '142', '130'] 664.4444444444445
83 13.28888888888889 ['134', '140', '138', '132', '143', '147', '144', '135', '137', '128', '125', '121', '136', '142', '130'] 664.4444444444445
84 13.28888888888889 ['134', '140', '138', '132', '143', '147', '144', '135', '137', '128', '125', '121', '136', '142', '130'] 664.4444444444445
85 13.28888888888889 ['134', '140', '138', '132', '143', '147', '144', '135', '137', '128', '125', '121', '136', '142', '130'] 664.4444444444445
86 13.28888888888889 ['134', '140', '138', '132', '143', '147', '144', '135', '137', '128', '125', '121', '136', '142', '130'] 664.4444444444445
87 13.28888888888889 ['134', '140', '138', '132', '143', '147', '144', '135', '137', '128', '125', '121', '136', '142', '130'] 664.4444444444445
88 13.28888888888889 ['134', '140', '138', '132', '143', '147', '144', '135', '137', '128', '125', '121', '136', '142', '130'] 664.4444444444445
89 13.28888888888889 ['134', '140', '138', '132', '143', '147', '144', '135', '137', '128', '125', '121', '136', '142', '130'] 664.4444444444445
90 13.28888888888889 ['134', '140', '138', '132', '143', '147', '144', '135', '137', '128', '125', '121', '136', '142', '130'] 664.4444444444445
91 13.28888888888889 ['134', '140', '138', '132', '143', '147', '144', '135', '137', '128', '125', '121', '136', '142', '130'] 664.4444444444445
92 13.28888888888889 ['134', '140', '138', '132', '143', '147', '144', '135', '137', '128', '125', '121', '136', '142', '130'] 664.4444444444445
93 13.28888888888889 ['134', '140', '138', '132', '143', '147', '144', '135', '137', '128', '125', '121', '136', '142', '130'] 664.4444444444445
94 13.28888888888889 ['134', '140', '138', '132', '143', '147', '144', '135', '137', '128', '125', '121', '136', '142', '130'] 664.4444444444445
95 13.28888888888889 ['134', '140', '138', '132', '143', '147', '144', '135', '137', '128', '125', '121', '136', '142', '130'] 664.4444444444445
96 13.28888888888889 ['134', '140', '138', '132', '143', '147', '144', '135', '137', '128', '125', '121', '136', '142', '130'] 664.4444444444445
97 13.28888888888889 ['134', '140', '138', '132', '143', '147', '144', '135', '137', '128', '125', '121', '136', '142', '130'] 664.4444444444445
98 13.28888888888889 ['134', '140', '138', '132', '143', '147', '144', '135', '137', '128', '125', '121', '136', '142', '130'] 664.4444444444445
99 13.28888888888889 ['134', '140', '138', '132', '143', '147', '144', '135', '137', '128', '125', '121', '136', '142', '130'] 664.4444444444445
100 13.28888888888889 ['134', '140', '138', '132', '143', '147', '144', '135', '137', '128', '125', '121', '136', '142', '130'] 664.4444444444445
101 13.28888888888889 ['134', '140', '138', '132', '143', '147', '144', '135', '137', '128', '125', '121', '136', '142', '130'] 664.4444444444445
102 13.28888888888889 ['134', '140', '138', '132', '143', '147', '144', '135', '137', '128', '125', '121', '136', '142', '130'] 664.4444444444445
103 13.28888888888889 ['134', '140', '138', '132', '143', '147', '144', '135', '137', '128', '125', '121', '136', '142', '130'] 664.4444444444445
104 13.28888888888889 ['134', '140', '138', '132', '143', '147', '144', '135', '137', '128', '125', '121', '136', '142', '130'] 664.4444444444445
105 13.28888888888889 ['134', '140', '138', '132', '143', '147', '144', '135', '137', '128', '125', '121', '136', '142', '130'] 664.4444444444445
106 13.28888888888889 ['134', '140', '138', '132', '143', '147', '144', '135', '137', '128', '125', '121', '136', '142', '130'] 664.4444444444445
107 13.28888888888889 ['134', '140', '138', '132', '143', '147', '144', '135', '137', '128', '125', '121', '136', '142', '130'] 664.4444444444445
108 13.28888888888889 ['134', '140', '138', '132', '143', '147', '144', '135', '137', '128', '125', '121', '136', '142', '130'] 664.4444444444445
109 13.28888888888889 ['134', '140', '138', '132', '143', '147', '144', '135', '137', '128', '125', '121', '136', '142', '130'] 664.4444444444445
110 13.28888888888889 ['134', '140', '138', '132', '143', '147', '144', '135', '137', '128', '125', '121', '136', '142', '130'] 664.4444444444445
111 13.28888888888889 ['134', '140', '138', '132', '143', '147', '144', '135', '137', '128', '125', '121', '136', '142', '130'] 664.4444444444445
112 13.28888888888889 ['134', '140', '138', '132', '143', '147', '144', '135', '137', '128', '125', '121', '136', '142', '130'] 664.4444444444445
113 13.28888888888889 ['134', '140', '138', '132', '143', '147', '144', '135', '137', '128', '125', '121', '136', '142', '130'] 664.4444444444445
114 13.28888888888889 ['134', '140', '138', '132', '143', '147', '144', '135', '137', '128', '125', '121', '136', '142', '130'] 664.4444444444445
115 13.28888888888889 ['134', '140', '138', '132', '143', '147', '144', '135', '137', '128', '125', '121', '136', '142', '130'] 664.4444444444445
116 13.28888888888889 ['134', '140', '138', '132', '143', '147', '144', '135', '137', '128', '125', '121', '136', '142', '130'] 664.4444444444445
117 13.28888888888889 ['134', '140', '138', '132', '143', '147', '144', '135', '137', '128', '125', '121', '136', '142', '130'] 664.4444444444445
118 13.28888888888889 ['134', '140', '138', '132', '143', '147', '144', '135', '137', '128', '125', '121', '136', '142', '130'] 664.4444444444445
119 13.28888888888889 ['134', '140', '138', '132', '143', '147', '144', '135', '137', '128', '125', '121', '136', '142', '130'] 664.4444444444445
120 13.28888888888889 ['134', '140', '138', '132', '143', '147', '144', '135', '137', '128', '125', '121', '136', '142', '130'] 664.4444444444445
121 13.28888888888889 ['134', '140', '138', '132', '143', '147', '144', '135', '137', '128', '125', '121', '136', '142', '130'] 664.4444444444445
122 13.28888888888889 ['134', '140', '138', '132', '143', '147', '144', '135', '137', '128', '125', '121', '136', '142', '130'] 664.4444444444445
123 13.28888888888889 ['134', '140', '138', '132', '143', '147', '144', '135', '137', '128', '125', '121', '136', '142', '130'] 664.4444444444445
124 13.28888888888889 ['134', '140', '138', '132', '143', '147', '144', '135', '137', '128', '125', '121', '136', '142', '130'] 664.4444444444445
125 13.28888888888889 ['134', '140', '138', '132', '143', '147', '144', '135', '137', '128', '125', '121', '136', '142', '130'] 664.4444444444445
126 13.28888888888889 ['134', '140', '138', '132', '143', '147', '144', '135', '137', '128', '125', '121', '136', '142', '130'] 664.4444444444445
127 13.28888888888889 ['134', '140', '138', '132', '143', '147', '144', '135', '137', '128', '125', '121', '136', '142', '130'] 664.4444444444445
128 13.28888888888889 ['134', '140', '138', '132', '143', '147', '144', '135', '137', '128', '125', '121', '136', '142', '130'] 664.4444444444445
129 13.28888888888889 ['134', '140', '138', '132', '143', '147', '144', '135', '137', '128', '125', '121', '136', '142', '130'] 664.4444444444445
130 13.28888888888889 ['134', '140', '138', '132', '143', '147', '144', '135', '137', '128', '125', '121', '136', '142', '130'] 664.4444444444445
131 13.28888888888889 ['134', '140', '138', '132', '143', '147', '144', '135', '137', '128', '125', '121', '136', '142', '130'] 664.4444444444445
132 13.28888888888889 ['134', '140', '138', '132', '143', '147', '144', '135', '137', '128', '125', '121', '136', '142', '130'] 664.4444444444445
133 13.28888888888889 ['134', '140', '138', '132', '143', '147', '144', '135', '137', '128', '125', '121', '136', '142', '130'] 664.4444444444445
134 13.28888888888889 ['134', '140', '138', '132', '143', '147', '144', '135', '137', '128', '125', '121', '136', '142', '130'] 664.4444444444445
135 13.28888888888889 ['134', '140', '138', '132', '143', '147', '144', '135', '137', '128', '125', '121', '136', '142', '130'] 664.4444444444445
136 13.28888888888889 ['134', '140', '138', '132', '143', '147', '144', '135', '137', '128', '125', '121', '136', '142', '130'] 664.4444444444445
137 13.28888888888889 ['134', '140', '138', '132', '143', '147', '144', '135', '137', '128', '125', '121', '136', '142', '130'] 664.4444444444445
138 13.28888888888889 ['134', '140', '138', '132', '143', '147', '144', '135', '137', '128', '125', '121', '136', '142', '130'] 664.4444444444445
139 13.28888888888889 ['134', '140', '138', '132', '143', '147', '144', '135', '137', '128', '125', '121', '136', '142', '130'] 664.4444444444445
140 13.28888888888889 ['134', '140', '138', '132', '143', '147', '144', '135', '137', '128', '125', '121', '136', '142', '130'] 664.4444444444445
141 13.28888888888889 ['134', '140', '138', '132', '143', '147', '144', '135', '137', '128', '125', '121', '136', '142', '130'] 664.4444444444445
142 13.28888888888889 ['134', '140', '138', '132', '143', '147', '144', '135', '137', '128', '125', '121', '136', '142', '130'] 664.4444444444445
143 13.28888888888889 ['134', '140', '138', '132', '143', '147', '144', '135', '137', '128', '125', '121', '136', '142', '130'] 664.4444444444445
144 13.28888888888889 ['134', '140', '138', '132', '143', '147', '144', '135', '137', '128', '125', '121', '136', '142', '130'] 664.4444444444445
145 13.28888888888889 ['134', '140', '138', '132', '143', '147', '144', '135', '137', '128', '125', '121', '136', '142', '130'] 664.4444444444445
146 13.28888888888889 ['134', '140', '138', '132', '143', '147', '144', '135', '137', '128', '125', '121', '136', '142', '130'] 664.4444444444445
147 13.28888888888889 ['134', '140', '138', '132', '143', '147', '144', '135', '137', '128', '125', '121', '136', '142', '130'] 664.4444444444445
148 13.28888888888889 ['134', '140', '138', '132', '143', '147', '144', '135', '137', '128', '125', '121', '136', '142', '130'] 664.4444444444445
149 13.28888888888889 ['134', '140', '138', '132', '143', '147', '144', '135', '137', '128', '125', '121', '136', '142', '130'] 664.4444444444445
150 13.28888888888889 ['134', '140', '138', '132', '143', '147', '144', '135', '137', '128', '125', '121', '136', '142', '130'] 664.4444444444445
151 13.28888888888889 ['134', '140', '138', '132', '143', '147', '144', '135', '137', '128', '125', '121', '136', '142', '130'] 664.4444444444445
152 13.28888888888889 ['134', '140', '138', '132', '143', '147', '144', '135', '137', '128', '125', '121', '136', '142', '130'] 664.4444444444445
153 13.28888888888889 ['134', '140', '138', '132', '143', '147', '144', '135', '137', '128', '125', '121', '136', '142', '130'] 664.4444444444445
154 13.28888888888889 ['134', '140', '138', '132', '143', '147', '144', '135', '137', '128', '125', '121', '136', '142', '130'] 664.4444444444445
155 13.28888888888889 ['134', '140', '138', '132', '143', '147', '144', '135', '137', '128', '125', '121', '136', '142', '130'] 664.4444444444445
156 13.28888888888889 ['134', '140', '138', '132', '143', '147', '144', '135', '137', '128', '125', '121', '136', '142', '130'] 664.4444444444445
157 13.28888888888889 ['134', '140', '138', '132', '143', '147', '144', '135', '137', '128', '125', '121', '136', '142', '130'] 664.4444444444445
158 13.28888888888889 ['134', '140', '138', '132', '143', '147', '144', '135', '137', '128', '125', '121', '136', '142', '130'] 664.4444444444445
159 13.28888888888889 ['134', '140', '138', '132', '143', '147', '144', '135', '137', '128', '125', '121', '136', '142', '130'] 664.4444444444445
160 13.28888888888889 ['134', '140', '138', '132', '143', '147', '144', '135', '137', '128', '125', '121', '136', '142', '130'] 664.4444444444445
161 13.28888888888889 ['134', '140', '138', '132', '143', '147', '144', '135', '137', '128', '125', '121', '136', '142', '130'] 664.4444444444445
162 13.28888888888889 ['134', '140', '138', '132', '143', '147', '144', '135', '137', '128', '125', '121', '136', '142', '130'] 664.4444444444445
163 13.28888888888889 ['134', '140', '138', '132', '143', '147', '144', '135', '137', '128', '125', '121', '136', '142', '130'] 664.4444444444445
164 13.28888888888889 ['134', '140', '138', '132', '143', '147', '144', '135', '137', '128', '125', '121', '136', '142', '130'] 664.4444444444445
165 13.28888888888889 ['134', '140', '138', '132', '143', '147', '144', '135', '137', '128', '125', '121', '136', '142', '130'] 664.4444444444445
166 13.28888888888889 ['134', '140', '138', '132', '143', '147', '144', '135', '137', '128', '125', '121', '136', '142', '130'] 664.4444444444445
167 13.28888888888889 ['134', '140', '138', '132', '143', '147', '144', '135', '137', '128', '125', '121', '136', '142', '130'] 664.4444444444445
168 13.28888888888889 ['134', '140', '138', '132', '143', '147', '144', '135', '137', '128', '125', '121', '136', '142', '130'] 664.4444444444445
169 13.28888888888889 ['134', '140', '138', '132', '143', '147', '144', '135', '137', '128', '125', '121', '136', '142', '130'] 664.4444444444445
170 13.28888888888889 ['134', '140', '138', '132', '143', '147', '144', '135', '137', '128', '125', '121', '136', '142', '130'] 664.4444444444445
171 13.28888888888889 ['134', '140', '138', '132', '143', '147', '144', '135', '137', '128', '125', '121', '136', '142', '130'] 664.4444444444445
172 13.28888888888889 ['134', '140', '138', '132', '143', '147', '144', '135', '137', '128', '125', '121', '136', '142', '130'] 664.4444444444445
173 13.28888888888889 ['134', '140', '138', '132', '143', '147', '144', '135', '137', '128', '125', '121', '136', '142', '130'] 664.4444444444445
174 13.28888888888889 ['134', '140', '138', '132', '143', '147', '144', '135', '137', '128', '125', '121', '136', '142', '130'] 664.4444444444445
175 13.28888888888889 ['134', '140', '138', '132', '143', '147', '144', '135', '137', '128', '125', '121', '136', '142', '130'] 664.4444444444445
176 13.28888888888889 ['134', '140', '138', '132', '143', '147', '144', '135', '137', '128', '125', '121', '136', '142', '130'] 664.4444444444445
177 13.28888888888889 ['134', '140', '138', '132', '143', '147', '144', '135', '137', '128', '125', '121', '136', '142', '130'] 664.4444444444445
178 13.28888888888889 ['134', '140', '138', '132', '143', '147', '144', '135', '137', '128', '125', '121', '136', '142', '130'] 664.4444444444445
179 13.28888888888889 ['134', '140', '138', '132', '143', '147', '144', '135', '137', '128', '125', '121', '136', '142', '130'] 664.4444444444445
180 13.28888888888889 ['134', '140', '138', '132', '143', '147', '144', '135', '137', '128', '125', '121', '136', '142', '130'] 664.4444444444445
181 13.28888888888889 ['134', '140', '138', '132', '143', '147', '144', '135', '137', '128', '125', '121', '136', '142', '130'] 664.4444444444445
182 13.28888888888889 ['134', '140', '138', '132', '143', '147', '144', '135', '137', '128', '125', '121', '136', '142', '130'] 664.4444444444445
183 13.28888888888889 ['134', '140', '138', '132', '143', '147', '144', '135', '137', '128', '125', '121', '136', '142', '130'] 664.4444444444445
184 13.28888888888889 ['134', '140', '138', '132', '143', '147', '144', '135', '137', '128', '125', '121', '136', '142', '130'] 664.4444444444445
185 13.28888888888889 ['134', '140', '138', '132', '143', '147', '144', '135', '137', '128', '125', '121', '136', '142', '130'] 664.4444444444445
186 13.28888888888889 ['134', '140', '138', '132', '143', '147', '144', '135', '137', '128', '125', '121', '136', '142', '130'] 664.4444444444445
187 13.28888888888889 ['134', '140', '138', '132', '143', '147', '144', '135', '137', '128', '125', '121', '136', '142', '130'] 664.4444444444445
188 13.28888888888889 ['134', '140', '138', '132', '143', '147', '144', '135', '137', '128', '125', '121', '136', '142', '130'] 664.4444444444445
189 13.28888888888889 ['134', '140', '138', '132', '143', '147', '144', '135', '137', '128', '125', '121', '136', '142', '130'] 664.4444444444445
190 13.28888888888889 ['134', '140', '138', '132', '143', '147', '144', '135', '137', '128', '125', '121', '136', '142', '130'] 664.4444444444445
191 13.28888888888889 ['134', '140', '138', '132', '143', '147', '144', '135', '137', '128', '125', '121', '136', '142', '130'] 664.4444444444445
192 13.28888888888889 ['134', '140', '138', '132', '143', '147', '144', '135', '137', '128', '125', '121', '136', '142', '130'] 664.4444444444445
193 13.28888888888889 ['134', '140', '138', '132', '143', '147', '144', '135', '137', '128', '125', '121', '136', '142', '130'] 664.4444444444445
194 13.28888888888889 ['134', '140', '138', '132', '143', '147', '144', '135', '137', '128', '125', '121', '136', '142', '130'] 664.4444444444445
195 13.28888888888889 ['134', '140', '138', '132', '143', '147', '144', '135', '137', '128', '125', '121', '136', '142', '130'] 664.4444444444445
196 13.28888888888889 ['134', '140', '138', '132', '143', '147', '144', '135', '137', '128', '125', '121', '136', '142', '130'] 664.4444444444445
197 13.28888888888889 ['134', '140', '138', '132', '143', '147', '144', '135', '137', '128', '125', '121', '136', '142', '130'] 664.4444444444445
198 13.28888888888889 ['134', '140', '138', '132', '143', '147', '144', '135', '137', '128', '125', '121', '136', '142', '130'] 664.4444444444445
199 13.28888888888889 ['134', '140', '138', '132', '143', '147', '144', '135', '137', '128', '125', '121', '136', '142', '130'] 664.4444444444445
