0 7.741935483870968 ['23', '34', '21'] 415.6451612903224
1 7.67741935483871 ['11', '31', '34'] 403.38709677419354
2 7.516129032258065 ['34', '21', '31'] 394.0967741935487
3 7.516129032258065 ['34', '21', '31'] 388.6774193548385
4 7.516129032258065 ['34', '21', '31'] 383.483870967742
5 7.516129032258065 ['34', '21', '31'] 379.3870967741937
6 7.516129032258065 ['34', '21', '31'] 376.00000000000006
7 7.516129032258065 ['34', '21', '31'] 375.80645161290323
8 7.516129032258065 ['34', '21', '31'] 375.80645161290323
9 7.516129032258065 ['34', '21', '31'] 375.80645161290323
10 7.516129032258065 ['34', '21', '31'] 375.80645161290323
11 7.516129032258065 ['34', '21', '31'] 375.80645161290323
12 7.516129032258065 ['34', '21', '31'] 375.80645161290323
13 7.516129032258065 ['34', '21', '31'] 375.80645161290323
14 7.516129032258065 ['34', '21', '31'] 375.80645161290323
15 7.516129032258065 ['34', '21', '31'] 375.80645161290323
16 7.516129032258065 ['34', '21', '31'] 375.80645161290323
17 7.516129032258065 ['34', '21', '31'] 375.80645161290323
18 7.516129032258065 ['34', '21', '31'] 375.80645161290323
19 7.516129032258065 ['34', '21', '31'] 375.80645161290323
20 7.516129032258065 ['34', '21', '31'] 375.80645161290323
21 7.516129032258065 ['34', '21', '31'] 375.80645161290323
22 7.516129032258065 ['34', '21', '31'] 375.80645161290323
23 7.516129032258065 ['34', '21', '31'] 375.80645161290323
24 7.516129032258065 ['34', '21', '31'] 375.80645161290323
25 7.516129032258065 ['34', '21', '31'] 375.80645161290323
26 7.516129032258065 ['34', '21', '31'] 375.80645161290323
27 7.516129032258065 ['34', '21', '31'] 375.80645161290323
28 7.516129032258065 ['34', '21', '31'] 375.80645161290323
29 7.516129032258065 ['34', '21', '31'] 375.80645161290323
30 7.516129032258065 ['34', '21', '31'] 375.80645161290323
31 7.516129032258065 ['34', '21', '31'] 375.80645161290323
32 7.516129032258065 ['34', '21', '31'] 375.80645161290323
33 7.516129032258065 ['34', '21', '31'] 375.80645161290323
34 7.516129032258065 ['34', '21', '31'] 375.80645161290323
35 7.516129032258065 ['34', '21', '31'] 375.80645161290323
36 7.516129032258065 ['34', '21', '31'] 375.80645161290323
37 7.516129032258065 ['34', '21', '31'] 375.80645161290323
38 7.516129032258065 ['34', '21', '31'] 375.80645161290323
39 7.516129032258065 ['34', '21', '31'] 375.80645161290323
40 7.516129032258065 ['34', '21', '31'] 375.80645161290323
41 7.516129032258065 ['34', '21', '31'] 375.80645161290323
42 7.516129032258065 ['34', '21', '31'] 375.80645161290323
43 7.516129032258065 ['34', '21', '31'] 375.80645161290323
44 7.516129032258065 ['34', '21', '31'] 375.80645161290323
45 7.516129032258065 ['34', '21', '31'] 375.80645161290323
46 7.516129032258065 ['34', '21', '31'] 375.80645161290323
47 7.516129032258065 ['34', '21', '31'] 375.80645161290323
48 7.516129032258065 ['34', '21', '31'] 375.80645161290323
49 7.516129032258065 ['34', '21', '31'] 375.80645161290323
50 7.516129032258065 ['34', '21', '31'] 375.80645161290323
51 7.516129032258065 ['34', '21', '31'] 375.80645161290323
52 7.516129032258065 ['34', '21', '31'] 375.80645161290323
53 7.516129032258065 ['34', '21', '31'] 375.80645161290323
54 7.516129032258065 ['34', '21', '31'] 375.80645161290323
55 7.516129032258065 ['34', '21', '31'] 375.80645161290323
56 7.516129032258065 ['34', '21', '31'] 375.80645161290323
57 7.516129032258065 ['34', '21', '31'] 375.80645161290323
58 7.516129032258065 ['34', '21', '31'] 375.80645161290323
59 7.516129032258065 ['34', '21', '31'] 375.80645161290323
60 7.516129032258065 ['34', '21', '31'] 375.80645161290323
61 7.516129032258065 ['34', '21', '31'] 375.80645161290323
62 7.516129032258065 ['34', '21', '31'] 375.80645161290323
63 7.516129032258065 ['34', '21', '31'] 375.80645161290323
64 7.516129032258065 ['34', '21', '31'] 375.80645161290323
65 7.516129032258065 ['34', '21', '31'] 375.80645161290323
66 7.516129032258065 ['34', '21', '31'] 375.80645161290323
67 7.516129032258065 ['34', '21', '31'] 375.80645161290323
68 7.516129032258065 ['34', '21', '31'] 375.80645161290323
69 7.516129032258065 ['34', '21', '31'] 375.80645161290323
70 7.516129032258065 ['34', '21', '31'] 375.80645161290323
71 7.516129032258065 ['34', '21', '31'] 375.80645161290323
72 7.516129032258065 ['34', '21', '31'] 375.80645161290323
73 7.516129032258065 ['34', '21', '31'] 375.80645161290323
74 7.516129032258065 ['34', '21', '31'] 375.80645161290323
75 7.516129032258065 ['34', '21', '31'] 375.80645161290323
76 7.516129032258065 ['34', '21', '31'] 375.80645161290323
77 7.516129032258065 ['34', '21', '31'] 375.80645161290323
78 7.516129032258065 ['34', '21', '31'] 375.80645161290323
79 7.516129032258065 ['34', '21', '31'] 375.80645161290323
80 7.516129032258065 ['34', '21', '31'] 375.80645161290323
81 7.516129032258065 ['34', '21', '31'] 375.80645161290323
82 7.516129032258065 ['34', '21', '31'] 375.80645161290323
83 7.516129032258065 ['34', '21', '31'] 375.80645161290323
84 7.516129032258065 ['34', '21', '31'] 375.80645161290323
85 7.516129032258065 ['34', '21', '31'] 375.80645161290323
86 7.516129032258065 ['34', '21', '31'] 375.80645161290323
87 7.516129032258065 ['34', '21', '31'] 375.80645161290323
88 7.516129032258065 ['34', '21', '31'] 375.80645161290323
89 7.516129032258065 ['34', '21', '31'] 375.80645161290323
90 7.516129032258065 ['34', '21', '31'] 375.80645161290323
91 7.516129032258065 ['34', '21', '31'] 375.80645161290323
92 7.516129032258065 ['34', '21', '31'] 375.80645161290323
93 7.516129032258065 ['34', '21', '31'] 375.80645161290323
94 7.516129032258065 ['34', '21', '31'] 375.80645161290323
95 7.516129032258065 ['34', '21', '31'] 375.80645161290323
96 7.516129032258065 ['34', '21', '31'] 375.80645161290323
97 7.516129032258065 ['34', '21', '31'] 375.80645161290323
98 7.516129032258065 ['34', '21', '31'] 375.80645161290323
99 7.516129032258065 ['34', '21', '31'] 375.80645161290323
100 7.516129032258065 ['34', '21', '31'] 375.80645161290323
101 7.516129032258065 ['34', '21', '31'] 375.80645161290323
102 7.516129032258065 ['34', '21', '31'] 375.80645161290323
103 7.516129032258065 ['34', '21', '31'] 375.80645161290323
104 7.516129032258065 ['34', '21', '31'] 375.80645161290323
105 7.516129032258065 ['34', '21', '31'] 375.80645161290323
106 7.516129032258065 ['34', '21', '31'] 375.80645161290323
107 7.516129032258065 ['34', '21', '31'] 375.80645161290323
108 7.516129032258065 ['34', '21', '31'] 375.80645161290323
109 7.516129032258065 ['34', '21', '31'] 375.80645161290323
110 7.516129032258065 ['34', '21', '31'] 375.80645161290323
111 7.516129032258065 ['34', '21', '31'] 375.80645161290323
112 7.516129032258065 ['34', '21', '31'] 375.80645161290323
113 7.516129032258065 ['34', '21', '31'] 375.80645161290323
114 7.516129032258065 ['34', '21', '31'] 375.80645161290323
115 7.516129032258065 ['34', '21', '31'] 375.80645161290323
116 7.516129032258065 ['34', '21', '31'] 375.80645161290323
117 7.516129032258065 ['34', '21', '31'] 375.80645161290323
118 7.516129032258065 ['34', '21', '31'] 375.80645161290323
119 7.516129032258065 ['34', '21', '31'] 375.80645161290323
120 7.516129032258065 ['34', '21', '31'] 375.80645161290323
121 7.516129032258065 ['34', '21', '31'] 375.80645161290323
122 7.516129032258065 ['34', '21', '31'] 375.80645161290323
123 7.516129032258065 ['34', '21', '31'] 375.80645161290323
124 7.516129032258065 ['34', '21', '31'] 375.80645161290323
125 7.516129032258065 ['34', '21', '31'] 375.80645161290323
126 7.516129032258065 ['34', '21', '31'] 375.80645161290323
127 7.516129032258065 ['34', '21', '31'] 375.80645161290323
128 7.516129032258065 ['34', '21', '31'] 375.80645161290323
129 7.516129032258065 ['34', '21', '31'] 375.80645161290323
130 7.516129032258065 ['34', '21', '31'] 375.80645161290323
131 7.516129032258065 ['34', '21', '31'] 375.80645161290323
132 7.516129032258065 ['34', '21', '31'] 375.80645161290323
133 7.516129032258065 ['34', '21', '31'] 375.80645161290323
134 7.516129032258065 ['34', '21', '31'] 375.80645161290323
135 7.516129032258065 ['34', '21', '31'] 375.80645161290323
136 7.516129032258065 ['34', '21', '31'] 375.80645161290323
137 7.516129032258065 ['34', '21', '31'] 375.80645161290323
138 7.516129032258065 ['34', '21', '31'] 375.80645161290323
139 7.516129032258065 ['34', '21', '31'] 375.80645161290323
140 7.516129032258065 ['34', '21', '31'] 375.80645161290323
141 7.516129032258065 ['34', '21', '31'] 375.80645161290323
142 7.516129032258065 ['34', '21', '31'] 375.80645161290323
143 7.516129032258065 ['34', '21', '31'] 375.80645161290323
144 7.516129032258065 ['34', '21', '31'] 375.80645161290323
145 7.516129032258065 ['34', '21', '31'] 375.80645161290323
146 7.516129032258065 ['34', '21', '31'] 375.80645161290323
147 7.516129032258065 ['34', '21', '31'] 375.80645161290323
148 7.516129032258065 ['34', '21', '31'] 375.80645161290323
149 7.516129032258065 ['34', '21', '31'] 375.80645161290323
150 7.516129032258065 ['34', '21', '31'] 375.80645161290323
151 7.516129032258065 ['34', '21', '31'] 375.80645161290323
152 7.516129032258065 ['34', '21', '31'] 375.80645161290323
153 7.516129032258065 ['34', '21', '31'] 375.80645161290323
154 7.516129032258065 ['34', '21', '31'] 375.80645161290323
155 7.516129032258065 ['34', '21', '31'] 375.80645161290323
156 7.516129032258065 ['34', '21', '31'] 375.80645161290323
157 7.516129032258065 ['34', '21', '31'] 375.80645161290323
158 7.516129032258065 ['34', '21', '31'] 375.80645161290323
159 7.516129032258065 ['34', '21', '31'] 375.80645161290323
160 7.516129032258065 ['34', '21', '31'] 375.80645161290323
161 7.516129032258065 ['34', '21', '31'] 375.80645161290323
162 7.516129032258065 ['34', '21', '31'] 375.80645161290323
163 7.516129032258065 ['34', '21', '31'] 375.80645161290323
164 7.516129032258065 ['34', '21', '31'] 375.80645161290323
165 7.516129032258065 ['34', '21', '31'] 375.80645161290323
166 7.516129032258065 ['34', '21', '31'] 375.80645161290323
167 7.516129032258065 ['34', '21', '31'] 375.80645161290323
168 7.516129032258065 ['34', '21', '31'] 375.80645161290323
169 7.516129032258065 ['34', '21', '31'] 375.80645161290323
170 7.516129032258065 ['34', '21', '31'] 375.80645161290323
171 7.516129032258065 ['34', '21', '31'] 375.80645161290323
172 7.516129032258065 ['34', '21', '31'] 375.80645161290323
173 7.516129032258065 ['34', '21', '31'] 375.80645161290323
174 7.516129032258065 ['34', '21', '31'] 375.80645161290323
175 7.516129032258065 ['34', '21', '31'] 375.80645161290323
176 7.516129032258065 ['34', '21', '31'] 375.80645161290323
177 7.516129032258065 ['34', '21', '31'] 375.80645161290323
178 7.516129032258065 ['34', '21', '31'] 375.80645161290323
179 7.516129032258065 ['34', '21', '31'] 375.80645161290323
180 7.516129032258065 ['34', '21', '31'] 375.80645161290323
181 7.516129032258065 ['34', '21', '31'] 375.80645161290323
182 7.516129032258065 ['34', '21', '31'] 375.80645161290323
183 7.516129032258065 ['34', '21', '31'] 375.80645161290323
184 7.516129032258065 ['34', '21', '31'] 375.80645161290323
185 7.516129032258065 ['34', '21', '31'] 375.80645161290323
186 7.516129032258065 ['34', '21', '31'] 375.80645161290323
187 7.516129032258065 ['34', '21', '31'] 375.80645161290323
188 7.516129032258065 ['34', '21', '31'] 375.80645161290323
189 7.516129032258065 ['34', '21', '31'] 375.80645161290323
190 7.516129032258065 ['34', '21', '31'] 375.80645161290323
191 7.516129032258065 ['34', '21', '31'] 375.80645161290323
192 7.516129032258065 ['34', '21', '31'] 375.80645161290323
193 7.516129032258065 ['34', '21', '31'] 375.80645161290323
194 7.516129032258065 ['34', '21', '31'] 375.80645161290323
195 7.516129032258065 ['34', '21', '31'] 375.80645161290323
196 7.516129032258065 ['34', '21', '31'] 375.80645161290323
197 7.516129032258065 ['34', '21', '31'] 375.80645161290323
198 7.516129032258065 ['34', '21', '31'] 375.80645161290323
199 7.516129032258065 ['34', '21', '31'] 375.80645161290323
