0 7.2727272727272725 ['1', '3'] 376.90909090909105
1 7.2727272727272725 ['1', '3'] 370.59090909090895
2 7.2727272727272725 ['1', '3'] 368.77272727272765
3 7.2727272727272725 ['1', '3'] 367.136363636364
4 7.2727272727272725 ['1', '3'] 364.72727272727263
5 7.2727272727272725 ['1', '3'] 363.6363636363634
6 7.2727272727272725 ['1', '3'] 363.6363636363634
7 7.2727272727272725 ['1', '3'] 363.6363636363634
8 7.2727272727272725 ['1', '3'] 363.6363636363634
9 7.2727272727272725 ['1', '3'] 363.6363636363634
10 7.2727272727272725 ['1', '3'] 363.6363636363634
11 7.2727272727272725 ['1', '3'] 363.6363636363634
12 7.2727272727272725 ['1', '3'] 363.6363636363634
13 7.2727272727272725 ['1', '3'] 363.6363636363634
14 7.2727272727272725 ['1', '3'] 363.6363636363634
15 7.2727272727272725 ['1', '3'] 363.6363636363634
16 7.2727272727272725 ['1', '3'] 363.6363636363634
17 7.2727272727272725 ['1', '3'] 363.6363636363634
18 7.2727272727272725 ['1', '3'] 363.6363636363634
19 7.2727272727272725 ['1', '3'] 363.6363636363634
20 7.2727272727272725 ['1', '3'] 363.6363636363634
21 7.2727272727272725 ['1', '3'] 363.6363636363634
22 7.2727272727272725 ['1', '3'] 363.6363636363634
23 7.2727272727272725 ['1', '3'] 363.6363636363634
24 7.2727272727272725 ['1', '3'] 363.6363636363634
25 7.2727272727272725 ['1', '3'] 363.6363636363634
26 7.2727272727272725 ['1', '3'] 363.6363636363634
27 7.2727272727272725 ['1', '3'] 363.6363636363634
28 7.2727272727272725 ['1', '3'] 363.6363636363634
29 7.2727272727272725 ['1', '3'] 363.6363636363634
30 7.2727272727272725 ['1', '3'] 363.6363636363634
31 7.2727272727272725 ['1', '3'] 363.6363636363634
32 7.2727272727272725 ['1', '3'] 363.6363636363634
33 7.2727272727272725 ['1', '3'] 363.6363636363634
34 7.2727272727272725 ['1', '3'] 363.6363636363634
35 7.2727272727272725 ['1', '3'] 363.6363636363634
36 7.2727272727272725 ['1', '3'] 363.6363636363634
37 7.2727272727272725 ['1', '3'] 363.6363636363634
38 7.2727272727272725 ['1', '3'] 363.6363636363634
39 7.2727272727272725 ['1', '3'] 363.6363636363634
40 7.2727272727272725 ['1', '3'] 363.6363636363634
41 7.2727272727272725 ['1', '3'] 363.6363636363634
42 7.2727272727272725 ['1', '3'] 363.6363636363634
43 7.2727272727272725 ['1', '3'] 363.6363636363634
44 7.2727272727272725 ['1', '3'] 363.6363636363634
45 7.2727272727272725 ['1', '3'] 363.6363636363634
46 7.2727272727272725 ['1', '3'] 363.6363636363634
47 7.2727272727272725 ['1', '3'] 363.6363636363634
48 7.2727272727272725 ['1', '3'] 363.6363636363634
49 7.2727272727272725 ['1', '3'] 363.6363636363634
50 7.2727272727272725 ['1', '3'] 363.6363636363634
51 7.2727272727272725 ['1', '3'] 363.6363636363634
52 7.2727272727272725 ['1', '3'] 363.6363636363634
53 7.2727272727272725 ['1', '3'] 363.6363636363634
54 7.2727272727272725 ['1', '3'] 363.6363636363634
55 7.2727272727272725 ['1', '3'] 363.6363636363634
56 7.2727272727272725 ['1', '3'] 363.6363636363634
57 7.2727272727272725 ['1', '3'] 363.6363636363634
58 7.2727272727272725 ['1', '3'] 363.6363636363634
59 7.2727272727272725 ['1', '3'] 363.6363636363634
60 7.2727272727272725 ['1', '3'] 363.6363636363634
61 7.2727272727272725 ['1', '3'] 363.6363636363634
62 7.2727272727272725 ['1', '3'] 363.6363636363634
63 7.2727272727272725 ['1', '3'] 363.6363636363634
64 7.2727272727272725 ['1', '3'] 363.6363636363634
65 7.2727272727272725 ['1', '3'] 363.6363636363634
66 7.2727272727272725 ['1', '3'] 363.6363636363634
67 7.2727272727272725 ['1', '3'] 363.6363636363634
68 7.2727272727272725 ['1', '3'] 363.6363636363634
69 7.2727272727272725 ['1', '3'] 363.6363636363634
70 7.2727272727272725 ['1', '3'] 363.6363636363634
71 7.2727272727272725 ['1', '3'] 363.6363636363634
72 7.2727272727272725 ['1', '3'] 363.6363636363634
73 7.2727272727272725 ['1', '3'] 363.6363636363634
74 7.2727272727272725 ['1', '3'] 363.6363636363634
75 7.2727272727272725 ['1', '3'] 363.6363636363634
76 7.2727272727272725 ['1', '3'] 363.6363636363634
77 7.2727272727272725 ['1', '3'] 363.6363636363634
78 7.2727272727272725 ['1', '3'] 363.6363636363634
79 7.2727272727272725 ['1', '3'] 363.6363636363634
80 7.2727272727272725 ['1', '3'] 363.6363636363634
81 7.2727272727272725 ['1', '3'] 363.6363636363634
82 7.2727272727272725 ['1', '3'] 363.6363636363634
83 7.2727272727272725 ['1', '3'] 363.6363636363634
84 7.2727272727272725 ['1', '3'] 363.6363636363634
85 7.2727272727272725 ['1', '3'] 363.6363636363634
86 7.2727272727272725 ['1', '3'] 363.6363636363634
87 7.2727272727272725 ['1', '3'] 363.6363636363634
88 7.2727272727272725 ['1', '3'] 363.6363636363634
89 7.2727272727272725 ['1', '3'] 363.6363636363634
90 7.2727272727272725 ['1', '3'] 363.6363636363634
91 7.2727272727272725 ['1', '3'] 363.6363636363634
92 7.2727272727272725 ['1', '3'] 363.6363636363634
93 7.2727272727272725 ['1', '3'] 363.6363636363634
94 7.2727272727272725 ['1', '3'] 363.6363636363634
95 7.2727272727272725 ['1', '3'] 363.6363636363634
96 7.2727272727272725 ['1', '3'] 363.6363636363634
97 7.2727272727272725 ['1', '3'] 363.6363636363634
98 7.2727272727272725 ['1', '3'] 363.6363636363634
99 7.2727272727272725 ['1', '3'] 363.6363636363634
100 7.2727272727272725 ['1', '3'] 363.6363636363634
101 7.2727272727272725 ['1', '3'] 363.6363636363634
102 7.2727272727272725 ['1', '3'] 363.6363636363634
103 7.2727272727272725 ['1', '3'] 363.6363636363634
104 7.2727272727272725 ['1', '3'] 363.6363636363634
105 7.2727272727272725 ['1', '3'] 363.6363636363634
106 7.2727272727272725 ['1', '3'] 363.6363636363634
107 7.2727272727272725 ['1', '3'] 363.6363636363634
108 7.2727272727272725 ['1', '3'] 363.6363636363634
109 7.2727272727272725 ['1', '3'] 363.6363636363634
110 7.2727272727272725 ['1', '3'] 363.6363636363634
111 7.2727272727272725 ['1', '3'] 363.6363636363634
112 7.2727272727272725 ['1', '3'] 363.6363636363634
113 7.2727272727272725 ['1', '3'] 363.6363636363634
114 7.2727272727272725 ['1', '3'] 363.6363636363634
115 7.2727272727272725 ['1', '3'] 363.6363636363634
116 7.2727272727272725 ['1', '3'] 363.6363636363634
117 7.2727272727272725 ['1', '3'] 363.6363636363634
118 7.2727272727272725 ['1', '3'] 363.6363636363634
119 7.2727272727272725 ['1', '3'] 363.6363636363634
120 7.2727272727272725 ['1', '3'] 363.6363636363634
121 7.2727272727272725 ['1', '3'] 363.6363636363634
122 7.2727272727272725 ['1', '3'] 363.6363636363634
123 7.2727272727272725 ['1', '3'] 363.6363636363634
124 7.2727272727272725 ['1', '3'] 363.6363636363634
125 7.2727272727272725 ['1', '3'] 363.6363636363634
126 7.2727272727272725 ['1', '3'] 363.6363636363634
127 7.2727272727272725 ['1', '3'] 363.6363636363634
128 7.2727272727272725 ['1', '3'] 363.6363636363634
129 7.2727272727272725 ['1', '3'] 363.6363636363634
130 7.2727272727272725 ['1', '3'] 363.6363636363634
131 7.2727272727272725 ['1', '3'] 363.6363636363634
132 7.2727272727272725 ['1', '3'] 363.6363636363634
133 7.2727272727272725 ['1', '3'] 363.6363636363634
134 7.2727272727272725 ['1', '3'] 363.6363636363634
135 7.2727272727272725 ['1', '3'] 363.6363636363634
136 7.2727272727272725 ['1', '3'] 363.6363636363634
137 7.2727272727272725 ['1', '3'] 363.6363636363634
138 7.2727272727272725 ['1', '3'] 363.6363636363634
139 7.2727272727272725 ['1', '3'] 363.6363636363634
140 7.2727272727272725 ['1', '3'] 363.6363636363634
141 7.2727272727272725 ['1', '3'] 363.6363636363634
142 7.2727272727272725 ['1', '3'] 363.6363636363634
143 7.2727272727272725 ['1', '3'] 363.6363636363634
144 7.2727272727272725 ['1', '3'] 363.6363636363634
145 7.2727272727272725 ['1', '3'] 363.6363636363634
146 7.2727272727272725 ['1', '3'] 363.6363636363634
147 7.2727272727272725 ['1', '3'] 363.6363636363634
148 7.2727272727272725 ['1', '3'] 363.6363636363634
149 7.2727272727272725 ['1', '3'] 363.6363636363634
150 7.2727272727272725 ['1', '3'] 363.6363636363634
151 7.2727272727272725 ['1', '3'] 363.6363636363634
152 7.2727272727272725 ['1', '3'] 363.6363636363634
153 7.2727272727272725 ['1', '3'] 363.6363636363634
154 7.2727272727272725 ['1', '3'] 363.6363636363634
155 7.2727272727272725 ['1', '3'] 363.6363636363634
156 7.2727272727272725 ['1', '3'] 363.6363636363634
157 7.2727272727272725 ['1', '3'] 363.6363636363634
158 7.2727272727272725 ['1', '3'] 363.6363636363634
159 7.2727272727272725 ['1', '3'] 363.6363636363634
160 7.2727272727272725 ['1', '3'] 363.6363636363634
161 7.2727272727272725 ['1', '3'] 363.6363636363634
162 7.2727272727272725 ['1', '3'] 363.6363636363634
163 7.2727272727272725 ['1', '3'] 363.6363636363634
164 7.2727272727272725 ['1', '3'] 363.6363636363634
165 7.2727272727272725 ['1', '3'] 363.6363636363634
166 7.2727272727272725 ['1', '3'] 363.6363636363634
167 7.2727272727272725 ['1', '3'] 363.6363636363634
168 7.2727272727272725 ['1', '3'] 363.6363636363634
169 7.2727272727272725 ['1', '3'] 363.6363636363634
170 7.2727272727272725 ['1', '3'] 363.6363636363634
171 7.2727272727272725 ['1', '3'] 363.6363636363634
172 7.2727272727272725 ['1', '3'] 363.6363636363634
173 7.2727272727272725 ['1', '3'] 363.6363636363634
174 7.2727272727272725 ['1', '3'] 363.6363636363634
175 7.2727272727272725 ['1', '3'] 363.6363636363634
176 7.2727272727272725 ['1', '3'] 363.6363636363634
177 7.2727272727272725 ['1', '3'] 363.6363636363634
178 7.2727272727272725 ['1', '3'] 363.6363636363634
179 7.2727272727272725 ['1', '3'] 363.6363636363634
180 7.2727272727272725 ['1', '3'] 363.6363636363634
181 7.2727272727272725 ['1', '3'] 363.6363636363634
182 7.2727272727272725 ['1', '3'] 363.6363636363634
183 7.2727272727272725 ['1', '3'] 363.6363636363634
184 7.2727272727272725 ['1', '3'] 363.6363636363634
185 7.2727272727272725 ['1', '3'] 363.6363636363634
186 7.2727272727272725 ['1', '3'] 363.6363636363634
187 7.2727272727272725 ['1', '3'] 363.6363636363634
188 7.2727272727272725 ['1', '3'] 363.6363636363634
189 7.2727272727272725 ['1', '3'] 363.6363636363634
190 7.2727272727272725 ['1', '3'] 363.6363636363634
191 7.2727272727272725 ['1', '3'] 363.6363636363634
192 7.2727272727272725 ['1', '3'] 363.6363636363634
193 7.2727272727272725 ['1', '3'] 363.6363636363634
194 7.2727272727272725 ['1', '3'] 363.6363636363634
195 7.2727272727272725 ['1', '3'] 363.6363636363634
196 7.2727272727272725 ['1', '3'] 363.6363636363634
197 7.2727272727272725 ['1', '3'] 363.6363636363634
198 7.2727272727272725 ['1', '3'] 363.6363636363634
199 7.2727272727272725 ['1', '3'] 363.6363636363634
