0 5.204814814814818 ['39', '43', '103', '86', '1', '80', '101', '89', '42', '49', '114', '99', '139', '104', '128'] 265.6722222222223
1 5.2011111111111115 ['13', '126', '142', '143', '149', '53', '118', '147', '80', '10', '148', '16', '119', '36', '98'] 263.7129629629631
2 5.189629629629634 ['114', '128', '99', '91', '101', '80', '109', '69', '144', '89', '86', '103', '105', '43', '139'] 262.5475308641976
3 5.1287654320987714 ['80', '42', '99', '102', '130', '83', '89', '143', '136', '101', '114', '128', '49', '126', '1'] 261.3895061728396
4 5.1287654320987714 ['80', '42', '99', '102', '130', '83', '89', '143', '136', '101', '114', '128', '49', '126', '1'] 260.28864197530874
5 5.1287654320987714 ['80', '42', '99', '102', '130', '83', '89', '143', '136', '101', '114', '128', '49', '126', '1'] 259.41790123456803
6 5.10876543209877 ['99', '80', '128', '89', '126', '1', '83', '143', '103', '150', '86', '149', '139', '114', '8'] 258.5613580246914
7 5.070617283950619 ['86', '80', '99', '126', '143', '136', '1', '147', '19', '135', '128', '79', '139', '114', '20'] 257.67407407407416
8 5.0627160493827175 ['114', '147', '80', '126', '143', '79', '63', '99', '136', '135', '93', '19', '98', '150', '128'] 256.37604938271613
9 5.0135802469135795 ['143', '80', '99', '142', '126', '147', '128', '114', '98', '138', '79', '124', '141', '139', '135'] 255.16839506172855
10 5.0135802469135795 ['143', '80', '99', '142', '126', '147', '128', '114', '98', '138', '79', '124', '141', '139', '135'] 253.79469135802483
11 4.994074074074074 ['141', '49', '150', '79', '142', '143', '126', '80', '114', '128', '147', '73', '99', '20', '148'] 253.13111111111127
12 4.979259259259258 ['139', '143', '126', '142', '114', '99', '128', '141', '86', '20', '49', '135', '148', '147', '79'] 252.3465432098766
13 4.979259259259258 ['139', '143', '126', '142', '114', '99', '128', '141', '86', '20', '49', '135', '148', '147', '79'] 251.44148148148153
14 4.968765432098766 ['148', '128', '141', '142', '20', '143', '139', '147', '135', '126', '99', '114', '86', '49', '138'] 250.65962962962962
15 4.966666666666665 ['79', '135', '80', '114', '98', '128', '126', '143', '138', '99', '142', '147', '139', '92', '148'] 250.0750617283951
16 4.965432098765432 ['80', '99', '135', '143', '142', '126', '128', '79', '147', '114', '20', '150', '139', '138', '49'] 249.34802469135798
17 4.962592592592592 ['139', '135', '141', '114', '80', '128', '147', '142', '99', '143', '148', '138', '126', '79', '20'] 248.89
18 4.948888888888889 ['142', '20', '49', '80', '79', '126', '114', '99', '147', '135', '128', '143', '148', '141', '39'] 248.53320987654325
19 4.932222222222221 ['139', '147', '80', '148', '99', '138', '135', '143', '128', '126', '20', '142', '114', '93', '49'] 248.2346913580247
20 4.932222222222221 ['139', '147', '80', '148', '99', '138', '135', '143', '128', '126', '20', '142', '114', '93', '49'] 247.91851851851837
21 4.932222222222221 ['139', '147', '80', '148', '99', '138', '135', '143', '128', '126', '20', '142', '114', '93', '49'] 247.71753086419747
22 4.932222222222221 ['139', '147', '80', '148', '99', '138', '135', '143', '128', '126', '20', '142', '114', '93', '49'] 247.38197530864193
23 4.932222222222221 ['139', '147', '80', '148', '99', '138', '135', '143', '128', '126', '20', '142', '114', '93', '49'] 247.08432098765445
24 4.932222222222221 ['139', '147', '80', '148', '99', '138', '135', '143', '128', '126', '20', '142', '114', '93', '49'] 246.82407407407405
25 4.932222222222221 ['139', '147', '80', '148', '99', '138', '135', '143', '128', '126', '20', '142', '114', '93', '49'] 246.66296296296264
26 4.932222222222221 ['139', '147', '80', '148', '99', '138', '135', '143', '128', '126', '20', '142', '114', '93', '49'] 246.61111111111074
27 4.932222222222221 ['139', '147', '80', '148', '99', '138', '135', '143', '128', '126', '20', '142', '114', '93', '49'] 246.61111111111074
28 4.932222222222221 ['139', '147', '80', '148', '99', '138', '135', '143', '128', '126', '20', '142', '114', '93', '49'] 246.61111111111074
29 4.932222222222221 ['139', '147', '80', '148', '99', '138', '135', '143', '128', '126', '20', '142', '114', '93', '49'] 246.61111111111074
30 4.932222222222221 ['139', '147', '80', '148', '99', '138', '135', '143', '128', '126', '20', '142', '114', '93', '49'] 246.61111111111074
31 4.932222222222221 ['139', '147', '80', '148', '99', '138', '135', '143', '128', '126', '20', '142', '114', '93', '49'] 246.61111111111074
32 4.932222222222221 ['139', '147', '80', '148', '99', '138', '135', '143', '128', '126', '20', '142', '114', '93', '49'] 246.61111111111074
33 4.932222222222221 ['139', '147', '80', '148', '99', '138', '135', '143', '128', '126', '20', '142', '114', '93', '49'] 246.61111111111074
34 4.932222222222221 ['139', '147', '80', '148', '99', '138', '135', '143', '128', '126', '20', '142', '114', '93', '49'] 246.61111111111074
35 4.932222222222221 ['139', '147', '80', '148', '99', '138', '135', '143', '128', '126', '20', '142', '114', '93', '49'] 246.61111111111074
36 4.932222222222221 ['139', '147', '80', '148', '99', '138', '135', '143', '128', '126', '20', '142', '114', '93', '49'] 246.61111111111074
37 4.932222222222221 ['139', '147', '80', '148', '99', '138', '135', '143', '128', '126', '20', '142', '114', '93', '49'] 246.61111111111074
38 4.932222222222221 ['139', '147', '80', '148', '99', '138', '135', '143', '128', '126', '20', '142', '114', '93', '49'] 246.61111111111074
39 4.932222222222221 ['139', '147', '80', '148', '99', '138', '135', '143', '128', '126', '20', '142', '114', '93', '49'] 246.61111111111074
40 4.932222222222221 ['139', '147', '80', '148', '99', '138', '135', '143', '128', '126', '20', '142', '114', '93', '49'] 246.61111111111074
41 4.932222222222221 ['139', '147', '80', '148', '99', '138', '135', '143', '128', '126', '20', '142', '114', '93', '49'] 246.61111111111074
42 4.932222222222221 ['139', '147', '80', '148', '99', '138', '135', '143', '128', '126', '20', '142', '114', '93', '49'] 246.61111111111074
43 4.932222222222221 ['139', '147', '80', '148', '99', '138', '135', '143', '128', '126', '20', '142', '114', '93', '49'] 246.61111111111074
44 4.932222222222221 ['139', '147', '80', '148', '99', '138', '135', '143', '128', '126', '20', '142', '114', '93', '49'] 246.61111111111074
45 4.932222222222221 ['139', '147', '80', '148', '99', '138', '135', '143', '128', '126', '20', '142', '114', '93', '49'] 246.61111111111074
46 4.932222222222221 ['139', '147', '80', '148', '99', '138', '135', '143', '128', '126', '20', '142', '114', '93', '49'] 246.61111111111074
47 4.932222222222221 ['139', '147', '80', '148', '99', '138', '135', '143', '128', '126', '20', '142', '114', '93', '49'] 246.61111111111074
48 4.932222222222221 ['139', '147', '80', '148', '99', '138', '135', '143', '128', '126', '20', '142', '114', '93', '49'] 246.61111111111074
49 4.932222222222221 ['139', '147', '80', '148', '99', '138', '135', '143', '128', '126', '20', '142', '114', '93', '49'] 246.61111111111074
50 4.932222222222221 ['139', '147', '80', '148', '99', '138', '135', '143', '128', '126', '20', '142', '114', '93', '49'] 246.61111111111074
51 4.932222222222221 ['139', '147', '80', '148', '99', '138', '135', '143', '128', '126', '20', '142', '114', '93', '49'] 246.61111111111074
52 4.932222222222221 ['139', '147', '80', '148', '99', '138', '135', '143', '128', '126', '20', '142', '114', '93', '49'] 246.61111111111074
53 4.932222222222221 ['139', '147', '80', '148', '99', '138', '135', '143', '128', '126', '20', '142', '114', '93', '49'] 246.61111111111074
54 4.932222222222221 ['139', '147', '80', '148', '99', '138', '135', '143', '128', '126', '20', '142', '114', '93', '49'] 246.61111111111074
55 4.932222222222221 ['139', '147', '80', '148', '99', '138', '135', '143', '128', '126', '20', '142', '114', '93', '49'] 246.61111111111074
56 4.932222222222221 ['139', '147', '80', '148', '99', '138', '135', '143', '128', '126', '20', '142', '114', '93', '49'] 246.61111111111074
57 4.932222222222221 ['139', '147', '80', '148', '99', '138', '135', '143', '128', '126', '20', '142', '114', '93', '49'] 246.61111111111074
58 4.932222222222221 ['139', '147', '80', '148', '99', '138', '135', '143', '128', '126', '20', '142', '114', '93', '49'] 246.61111111111074
59 4.932222222222221 ['139', '147', '80', '148', '99', '138', '135', '143', '128', '126', '20', '142', '114', '93', '49'] 246.61111111111074
60 4.932222222222221 ['139', '147', '80', '148', '99', '138', '135', '143', '128', '126', '20', '142', '114', '93', '49'] 246.61111111111074
61 4.932222222222221 ['139', '147', '80', '148', '99', '138', '135', '143', '128', '126', '20', '142', '114', '93', '49'] 246.61111111111074
62 4.932222222222221 ['139', '147', '80', '148', '99', '138', '135', '143', '128', '126', '20', '142', '114', '93', '49'] 246.61111111111074
63 4.932222222222221 ['139', '147', '80', '148', '99', '138', '135', '143', '128', '126', '20', '142', '114', '93', '49'] 246.61111111111074
64 4.932222222222221 ['139', '147', '80', '148', '99', '138', '135', '143', '128', '126', '20', '142', '114', '93', '49'] 246.61111111111074
65 4.932222222222221 ['139', '147', '80', '148', '99', '138', '135', '143', '128', '126', '20', '142', '114', '93', '49'] 246.61111111111074
66 4.932222222222221 ['139', '147', '80', '148', '99', '138', '135', '143', '128', '126', '20', '142', '114', '93', '49'] 246.61111111111074
67 4.932222222222221 ['139', '147', '80', '148', '99', '138', '135', '143', '128', '126', '20', '142', '114', '93', '49'] 246.61111111111074
68 4.932222222222221 ['139', '147', '80', '148', '99', '138', '135', '143', '128', '126', '20', '142', '114', '93', '49'] 246.61111111111074
69 4.932222222222221 ['139', '147', '80', '148', '99', '138', '135', '143', '128', '126', '20', '142', '114', '93', '49'] 246.61111111111074
70 4.932222222222221 ['139', '147', '80', '148', '99', '138', '135', '143', '128', '126', '20', '142', '114', '93', '49'] 246.61111111111074
71 4.932222222222221 ['139', '147', '80', '148', '99', '138', '135', '143', '128', '126', '20', '142', '114', '93', '49'] 246.61111111111074
72 4.932222222222221 ['139', '147', '80', '148', '99', '138', '135', '143', '128', '126', '20', '142', '114', '93', '49'] 246.61111111111074
73 4.932222222222221 ['139', '147', '80', '148', '99', '138', '135', '143', '128', '126', '20', '142', '114', '93', '49'] 246.61111111111074
74 4.932222222222221 ['139', '147', '80', '148', '99', '138', '135', '143', '128', '126', '20', '142', '114', '93', '49'] 246.61111111111074
75 4.932222222222221 ['139', '147', '80', '148', '99', '138', '135', '143', '128', '126', '20', '142', '114', '93', '49'] 246.61111111111074
76 4.932222222222221 ['139', '147', '80', '148', '99', '138', '135', '143', '128', '126', '20', '142', '114', '93', '49'] 246.61111111111074
77 4.932222222222221 ['139', '147', '80', '148', '99', '138', '135', '143', '128', '126', '20', '142', '114', '93', '49'] 246.61111111111074
78 4.932222222222221 ['139', '147', '80', '148', '99', '138', '135', '143', '128', '126', '20', '142', '114', '93', '49'] 246.61111111111074
79 4.932222222222221 ['139', '147', '80', '148', '99', '138', '135', '143', '128', '126', '20', '142', '114', '93', '49'] 246.61111111111074
80 4.932222222222221 ['139', '147', '80', '148', '99', '138', '135', '143', '128', '126', '20', '142', '114', '93', '49'] 246.61111111111074
81 4.932222222222221 ['139', '147', '80', '148', '99', '138', '135', '143', '128', '126', '20', '142', '114', '93', '49'] 246.61111111111074
82 4.932222222222221 ['139', '147', '80', '148', '99', '138', '135', '143', '128', '126', '20', '142', '114', '93', '49'] 246.61111111111074
83 4.932222222222221 ['139', '147', '80', '148', '99', '138', '135', '143', '128', '126', '20', '142', '114', '93', '49'] 246.61111111111074
84 4.932222222222221 ['139', '147', '80', '148', '99', '138', '135', '143', '128', '126', '20', '142', '114', '93', '49'] 246.61111111111074
85 4.932222222222221 ['139', '147', '80', '148', '99', '138', '135', '143', '128', '126', '20', '142', '114', '93', '49'] 246.61111111111074
86 4.932222222222221 ['139', '147', '80', '148', '99', '138', '135', '143', '128', '126', '20', '142', '114', '93', '49'] 246.61111111111074
87 4.932222222222221 ['139', '147', '80', '148', '99', '138', '135', '143', '128', '126', '20', '142', '114', '93', '49'] 246.61111111111074
88 4.932222222222221 ['139', '147', '80', '148', '99', '138', '135', '143', '128', '126', '20', '142', '114', '93', '49'] 246.61111111111074
89 4.932222222222221 ['139', '147', '80', '148', '99', '138', '135', '143', '128', '126', '20', '142', '114', '93', '49'] 246.61111111111074
90 4.932222222222221 ['139', '147', '80', '148', '99', '138', '135', '143', '128', '126', '20', '142', '114', '93', '49'] 246.61111111111074
91 4.932222222222221 ['139', '147', '80', '148', '99', '138', '135', '143', '128', '126', '20', '142', '114', '93', '49'] 246.61111111111074
92 4.932222222222221 ['139', '147', '80', '148', '99', '138', '135', '143', '128', '126', '20', '142', '114', '93', '49'] 246.61111111111074
93 4.932222222222221 ['139', '147', '80', '148', '99', '138', '135', '143', '128', '126', '20', '142', '114', '93', '49'] 246.61111111111074
94 4.932222222222221 ['139', '147', '80', '148', '99', '138', '135', '143', '128', '126', '20', '142', '114', '93', '49'] 246.61111111111074
95 4.932222222222221 ['139', '147', '80', '148', '99', '138', '135', '143', '128', '126', '20', '142', '114', '93', '49'] 246.61111111111074
96 4.932222222222221 ['139', '147', '80', '148', '99', '138', '135', '143', '128', '126', '20', '142', '114', '93', '49'] 246.61111111111074
97 4.932222222222221 ['139', '147', '80', '148', '99', '138', '135', '143', '128', '126', '20', '142', '114', '93', '49'] 246.61111111111074
98 4.932222222222221 ['139', '147', '80', '148', '99', '138', '135', '143', '128', '126', '20', '142', '114', '93', '49'] 246.61111111111074
99 4.932222222222221 ['139', '147', '80', '148', '99', '138', '135', '143', '128', '126', '20', '142', '114', '93', '49'] 246.61111111111074
100 4.932222222222221 ['139', '147', '80', '148', '99', '138', '135', '143', '128', '126', '20', '142', '114', '93', '49'] 246.61111111111074
101 4.932222222222221 ['139', '147', '80', '148', '99', '138', '135', '143', '128', '126', '20', '142', '114', '93', '49'] 246.61111111111074
102 4.932222222222221 ['139', '147', '80', '148', '99', '138', '135', '143', '128', '126', '20', '142', '114', '93', '49'] 246.61111111111074
103 4.932222222222221 ['139', '147', '80', '148', '99', '138', '135', '143', '128', '126', '20', '142', '114', '93', '49'] 246.61111111111074
104 4.932222222222221 ['139', '147', '80', '148', '99', '138', '135', '143', '128', '126', '20', '142', '114', '93', '49'] 246.61111111111074
105 4.932222222222221 ['139', '147', '80', '148', '99', '138', '135', '143', '128', '126', '20', '142', '114', '93', '49'] 246.61111111111074
106 4.932222222222221 ['139', '147', '80', '148', '99', '138', '135', '143', '128', '126', '20', '142', '114', '93', '49'] 246.61111111111074
107 4.932222222222221 ['139', '147', '80', '148', '99', '138', '135', '143', '128', '126', '20', '142', '114', '93', '49'] 246.61111111111074
108 4.932222222222221 ['139', '147', '80', '148', '99', '138', '135', '143', '128', '126', '20', '142', '114', '93', '49'] 246.61111111111074
109 4.932222222222221 ['139', '147', '80', '148', '99', '138', '135', '143', '128', '126', '20', '142', '114', '93', '49'] 246.61111111111074
110 4.932222222222221 ['139', '147', '80', '148', '99', '138', '135', '143', '128', '126', '20', '142', '114', '93', '49'] 246.61111111111074
111 4.932222222222221 ['139', '147', '80', '148', '99', '138', '135', '143', '128', '126', '20', '142', '114', '93', '49'] 246.61111111111074
112 4.932222222222221 ['139', '147', '80', '148', '99', '138', '135', '143', '128', '126', '20', '142', '114', '93', '49'] 246.61111111111074
113 4.932222222222221 ['139', '147', '80', '148', '99', '138', '135', '143', '128', '126', '20', '142', '114', '93', '49'] 246.61111111111074
114 4.932222222222221 ['139', '147', '80', '148', '99', '138', '135', '143', '128', '126', '20', '142', '114', '93', '49'] 246.61111111111074
115 4.932222222222221 ['139', '147', '80', '148', '99', '138', '135', '143', '128', '126', '20', '142', '114', '93', '49'] 246.61111111111074
116 4.932222222222221 ['139', '147', '80', '148', '99', '138', '135', '143', '128', '126', '20', '142', '114', '93', '49'] 246.61111111111074
117 4.932222222222221 ['139', '147', '80', '148', '99', '138', '135', '143', '128', '126', '20', '142', '114', '93', '49'] 246.61111111111074
118 4.932222222222221 ['139', '147', '80', '148', '99', '138', '135', '143', '128', '126', '20', '142', '114', '93', '49'] 246.61111111111074
119 4.932222222222221 ['139', '147', '80', '148', '99', '138', '135', '143', '128', '126', '20', '142', '114', '93', '49'] 246.61111111111074
120 4.932222222222221 ['139', '147', '80', '148', '99', '138', '135', '143', '128', '126', '20', '142', '114', '93', '49'] 246.61111111111074
121 4.932222222222221 ['139', '147', '80', '148', '99', '138', '135', '143', '128', '126', '20', '142', '114', '93', '49'] 246.61111111111074
122 4.932222222222221 ['139', '147', '80', '148', '99', '138', '135', '143', '128', '126', '20', '142', '114', '93', '49'] 246.61111111111074
123 4.932222222222221 ['139', '147', '80', '148', '99', '138', '135', '143', '128', '126', '20', '142', '114', '93', '49'] 246.61111111111074
124 4.932222222222221 ['139', '147', '80', '148', '99', '138', '135', '143', '128', '126', '20', '142', '114', '93', '49'] 246.61111111111074
125 4.932222222222221 ['139', '147', '80', '148', '99', '138', '135', '143', '128', '126', '20', '142', '114', '93', '49'] 246.61111111111074
126 4.932222222222221 ['139', '147', '80', '148', '99', '138', '135', '143', '128', '126', '20', '142', '114', '93', '49'] 246.61111111111074
127 4.932222222222221 ['139', '147', '80', '148', '99', '138', '135', '143', '128', '126', '20', '142', '114', '93', '49'] 246.61111111111074
128 4.932222222222221 ['139', '147', '80', '148', '99', '138', '135', '143', '128', '126', '20', '142', '114', '93', '49'] 246.61111111111074
129 4.932222222222221 ['139', '147', '80', '148', '99', '138', '135', '143', '128', '126', '20', '142', '114', '93', '49'] 246.61111111111074
130 4.932222222222221 ['139', '147', '80', '148', '99', '138', '135', '143', '128', '126', '20', '142', '114', '93', '49'] 246.61111111111074
131 4.932222222222221 ['139', '147', '80', '148', '99', '138', '135', '143', '128', '126', '20', '142', '114', '93', '49'] 246.61111111111074
132 4.932222222222221 ['139', '147', '80', '148', '99', '138', '135', '143', '128', '126', '20', '142', '114', '93', '49'] 246.61111111111074
133 4.932222222222221 ['139', '147', '80', '148', '99', '138', '135', '143', '128', '126', '20', '142', '114', '93', '49'] 246.61111111111074
134 4.932222222222221 ['139', '147', '80', '148', '99', '138', '135', '143', '128', '126', '20', '142', '114', '93', '49'] 246.61111111111074
135 4.932222222222221 ['139', '147', '80', '148', '99', '138', '135', '143', '128', '126', '20', '142', '114', '93', '49'] 246.61111111111074
136 4.932222222222221 ['139', '147', '80', '148', '99', '138', '135', '143', '128', '126', '20', '142', '114', '93', '49'] 246.61111111111074
137 4.932222222222221 ['139', '147', '80', '148', '99', '138', '135', '143', '128', '126', '20', '142', '114', '93', '49'] 246.61111111111074
138 4.932222222222221 ['139', '147', '80', '148', '99', '138', '135', '143', '128', '126', '20', '142', '114', '93', '49'] 246.61111111111074
139 4.932222222222221 ['139', '147', '80', '148', '99', '138', '135', '143', '128', '126', '20', '142', '114', '93', '49'] 246.61111111111074
140 4.932222222222221 ['139', '147', '80', '148', '99', '138', '135', '143', '128', '126', '20', '142', '114', '93', '49'] 246.61111111111074
141 4.932222222222221 ['139', '147', '80', '148', '99', '138', '135', '143', '128', '126', '20', '142', '114', '93', '49'] 246.61111111111074
142 4.932222222222221 ['139', '147', '80', '148', '99', '138', '135', '143', '128', '126', '20', '142', '114', '93', '49'] 246.61111111111074
143 4.932222222222221 ['139', '147', '80', '148', '99', '138', '135', '143', '128', '126', '20', '142', '114', '93', '49'] 246.61111111111074
144 4.932222222222221 ['139', '147', '80', '148', '99', '138', '135', '143', '128', '126', '20', '142', '114', '93', '49'] 246.61111111111074
145 4.932222222222221 ['139', '147', '80', '148', '99', '138', '135', '143', '128', '126', '20', '142', '114', '93', '49'] 246.61111111111074
146 4.932222222222221 ['139', '147', '80', '148', '99', '138', '135', '143', '128', '126', '20', '142', '114', '93', '49'] 246.61111111111074
147 4.932222222222221 ['139', '147', '80', '148', '99', '138', '135', '143', '128', '126', '20', '142', '114', '93', '49'] 246.61111111111074
148 4.932222222222221 ['139', '147', '80', '148', '99', '138', '135', '143', '128', '126', '20', '142', '114', '93', '49'] 246.61111111111074
149 4.932222222222221 ['139', '147', '80', '148', '99', '138', '135', '143', '128', '126', '20', '142', '114', '93', '49'] 246.61111111111074
150 4.932222222222221 ['139', '147', '80', '148', '99', '138', '135', '143', '128', '126', '20', '142', '114', '93', '49'] 246.61111111111074
151 4.932222222222221 ['139', '147', '80', '148', '99', '138', '135', '143', '128', '126', '20', '142', '114', '93', '49'] 246.61111111111074
152 4.932222222222221 ['139', '147', '80', '148', '99', '138', '135', '143', '128', '126', '20', '142', '114', '93', '49'] 246.61111111111074
153 4.932222222222221 ['139', '147', '80', '148', '99', '138', '135', '143', '128', '126', '20', '142', '114', '93', '49'] 246.61111111111074
154 4.932222222222221 ['139', '147', '80', '148', '99', '138', '135', '143', '128', '126', '20', '142', '114', '93', '49'] 246.61111111111074
155 4.932222222222221 ['139', '147', '80', '148', '99', '138', '135', '143', '128', '126', '20', '142', '114', '93', '49'] 246.61111111111074
156 4.932222222222221 ['139', '147', '80', '148', '99', '138', '135', '143', '128', '126', '20', '142', '114', '93', '49'] 246.61111111111074
157 4.932222222222221 ['139', '147', '80', '148', '99', '138', '135', '143', '128', '126', '20', '142', '114', '93', '49'] 246.61111111111074
158 4.932222222222221 ['139', '147', '80', '148', '99', '138', '135', '143', '128', '126', '20', '142', '114', '93', '49'] 246.61111111111074
159 4.932222222222221 ['139', '147', '80', '148', '99', '138', '135', '143', '128', '126', '20', '142', '114', '93', '49'] 246.61111111111074
160 4.932222222222221 ['139', '147', '80', '148', '99', '138', '135', '143', '128', '126', '20', '142', '114', '93', '49'] 246.61111111111074
161 4.932222222222221 ['139', '147', '80', '148', '99', '138', '135', '143', '128', '126', '20', '142', '114', '93', '49'] 246.61111111111074
162 4.932222222222221 ['139', '147', '80', '148', '99', '138', '135', '143', '128', '126', '20', '142', '114', '93', '49'] 246.61111111111074
163 4.932222222222221 ['139', '147', '80', '148', '99', '138', '135', '143', '128', '126', '20', '142', '114', '93', '49'] 246.61111111111074
164 4.932222222222221 ['139', '147', '80', '148', '99', '138', '135', '143', '128', '126', '20', '142', '114', '93', '49'] 246.61111111111074
165 4.932222222222221 ['139', '147', '80', '148', '99', '138', '135', '143', '128', '126', '20', '142', '114', '93', '49'] 246.61111111111074
166 4.932222222222221 ['139', '147', '80', '148', '99', '138', '135', '143', '128', '126', '20', '142', '114', '93', '49'] 246.61111111111074
167 4.932222222222221 ['139', '147', '80', '148', '99', '138', '135', '143', '128', '126', '20', '142', '114', '93', '49'] 246.61111111111074
168 4.932222222222221 ['139', '147', '80', '148', '99', '138', '135', '143', '128', '126', '20', '142', '114', '93', '49'] 246.61111111111074
169 4.932222222222221 ['139', '147', '80', '148', '99', '138', '135', '143', '128', '126', '20', '142', '114', '93', '49'] 246.61111111111074
170 4.932222222222221 ['139', '147', '80', '148', '99', '138', '135', '143', '128', '126', '20', '142', '114', '93', '49'] 246.61111111111074
171 4.932222222222221 ['139', '147', '80', '148', '99', '138', '135', '143', '128', '126', '20', '142', '114', '93', '49'] 246.61111111111074
172 4.932222222222221 ['139', '147', '80', '148', '99', '138', '135', '143', '128', '126', '20', '142', '114', '93', '49'] 246.61111111111074
173 4.932222222222221 ['139', '147', '80', '148', '99', '138', '135', '143', '128', '126', '20', '142', '114', '93', '49'] 246.61111111111074
174 4.932222222222221 ['139', '147', '80', '148', '99', '138', '135', '143', '128', '126', '20', '142', '114', '93', '49'] 246.61111111111074
175 4.932222222222221 ['139', '147', '80', '148', '99', '138', '135', '143', '128', '126', '20', '142', '114', '93', '49'] 246.61111111111074
176 4.932222222222221 ['139', '147', '80', '148', '99', '138', '135', '143', '128', '126', '20', '142', '114', '93', '49'] 246.61111111111074
177 4.932222222222221 ['139', '147', '80', '148', '99', '138', '135', '143', '128', '126', '20', '142', '114', '93', '49'] 246.61111111111074
178 4.932222222222221 ['139', '147', '80', '148', '99', '138', '135', '143', '128', '126', '20', '142', '114', '93', '49'] 246.61111111111074
179 4.932222222222221 ['139', '147', '80', '148', '99', '138', '135', '143', '128', '126', '20', '142', '114', '93', '49'] 246.61111111111074
180 4.932222222222221 ['139', '147', '80', '148', '99', '138', '135', '143', '128', '126', '20', '142', '114', '93', '49'] 246.61111111111074
181 4.932222222222221 ['139', '147', '80', '148', '99', '138', '135', '143', '128', '126', '20', '142', '114', '93', '49'] 246.61111111111074
182 4.932222222222221 ['139', '147', '80', '148', '99', '138', '135', '143', '128', '126', '20', '142', '114', '93', '49'] 246.61111111111074
183 4.932222222222221 ['139', '147', '80', '148', '99', '138', '135', '143', '128', '126', '20', '142', '114', '93', '49'] 246.61111111111074
184 4.932222222222221 ['139', '147', '80', '148', '99', '138', '135', '143', '128', '126', '20', '142', '114', '93', '49'] 246.61111111111074
185 4.932222222222221 ['139', '147', '80', '148', '99', '138', '135', '143', '128', '126', '20', '142', '114', '93', '49'] 246.61111111111074
186 4.932222222222221 ['139', '147', '80', '148', '99', '138', '135', '143', '128', '126', '20', '142', '114', '93', '49'] 246.61111111111074
187 4.932222222222221 ['139', '147', '80', '148', '99', '138', '135', '143', '128', '126', '20', '142', '114', '93', '49'] 246.61111111111074
188 4.932222222222221 ['139', '147', '80', '148', '99', '138', '135', '143', '128', '126', '20', '142', '114', '93', '49'] 246.61111111111074
189 4.932222222222221 ['139', '147', '80', '148', '99', '138', '135', '143', '128', '126', '20', '142', '114', '93', '49'] 246.61111111111074
190 4.932222222222221 ['139', '147', '80', '148', '99', '138', '135', '143', '128', '126', '20', '142', '114', '93', '49'] 246.61111111111074
191 4.932222222222221 ['139', '147', '80', '148', '99', '138', '135', '143', '128', '126', '20', '142', '114', '93', '49'] 246.61111111111074
192 4.932222222222221 ['139', '147', '80', '148', '99', '138', '135', '143', '128', '126', '20', '142', '114', '93', '49'] 246.61111111111074
193 4.932222222222221 ['139', '147', '80', '148', '99', '138', '135', '143', '128', '126', '20', '142', '114', '93', '49'] 246.61111111111074
194 4.932222222222221 ['139', '147', '80', '148', '99', '138', '135', '143', '128', '126', '20', '142', '114', '93', '49'] 246.61111111111074
195 4.932222222222221 ['139', '147', '80', '148', '99', '138', '135', '143', '128', '126', '20', '142', '114', '93', '49'] 246.61111111111074
196 4.932222222222221 ['139', '147', '80', '148', '99', '138', '135', '143', '128', '126', '20', '142', '114', '93', '49'] 246.61111111111074
197 4.932222222222221 ['139', '147', '80', '148', '99', '138', '135', '143', '128', '126', '20', '142', '114', '93', '49'] 246.61111111111074
198 4.932222222222221 ['139', '147', '80', '148', '99', '138', '135', '143', '128', '126', '20', '142', '114', '93', '49'] 246.61111111111074
199 4.932222222222221 ['139', '147', '80', '148', '99', '138', '135', '143', '128', '126', '20', '142', '114', '93', '49'] 246.61111111111074
