0 14.222222222222221 ['136', '138', '116', '95', '12', '148', '145', '75', '132', '38', '8', '57', '84', '46', '126'] 735.6740740740742
1 14.222222222222221 ['136', '138', '116', '95', '12', '148', '145', '75', '132', '38', '8', '57', '84', '46', '126'] 728.5481481481482
2 14.148148148148149 ['8', '132', '129', '130', '138', '105', '113', '95', '128', '101', '147', '38', '148', '57', '1'] 722.3037037037038
3 13.955555555555556 ['116', '8', '132', '148', '57', '12', '38', '5', '75', '126', '138', '147', '136', '133', '145'] 715.8370370370372
4 13.940740740740742 ['136', '138', '130', '116', '10', '118', '135', '125', '147', '128', '129', '120', '143', '97', '95'] 709.5925925925928
5 13.837037037037037 ['116', '101', '57', '136', '138', '129', '140', '8', '148', '128', '95', '105', '145', '147', '98'] 703.9407407407413
6 13.540740740740741 ['148', '147', '128', '133', '132', '116', '77', '138', '129', '126', '145', '113', '139', '88', '127'] 697.8740740740742
7 13.540740740740741 ['148', '147', '128', '133', '132', '116', '77', '138', '129', '126', '145', '113', '139', '88', '127'] 693.0074074074071
8 13.540740740740741 ['148', '147', '128', '133', '132', '116', '77', '138', '129', '126', '145', '113', '139', '88', '127'] 689.0962962962963
9 13.496296296296297 ['148', '138', '133', '145', '147', '116', '129', '125', '126', '143', '139', '140', '77', '118', '135'] 684.9629629629629
10 13.407407407407407 ['147', '138', '143', '148', '116', '145', '129', '133', '135', '128', '57', '140', '81', '120', '125'] 681.1333333333331
11 13.385185185185184 ['148', '138', '145', '57', '147', '116', '143', '132', '136', '139', '129', '25', '135', '149', '113'] 677.6222222222227
12 13.385185185185184 ['148', '138', '145', '57', '147', '116', '143', '132', '136', '139', '129', '25', '135', '149', '113'] 674.7481481481481
13 13.281481481481482 ['135', '145', '132', '148', '113', '116', '138', '129', '139', '147', '140', '149', '143', '125', '81'] 672.0222222222224
14 13.281481481481482 ['135', '145', '132', '148', '113', '116', '138', '129', '139', '147', '140', '149', '143', '125', '81'] 670.0296296296294
15 13.251851851851852 ['143', '116', '129', '145', '57', '135', '148', '113', '147', '139', '138', '125', '132', '149', '136'] 668.1925925925925
16 13.251851851851852 ['143', '116', '129', '145', '57', '135', '148', '113', '147', '139', '138', '125', '132', '149', '136'] 666.6074074074066
17 13.251851851851852 ['143', '116', '129', '145', '57', '135', '148', '113', '147', '139', '138', '125', '132', '149', '136'] 665.4888888888895
18 13.251851851851852 ['143', '116', '129', '145', '57', '135', '148', '113', '147', '139', '138', '125', '132', '149', '136'] 664.5333333333336
19 13.237037037037037 ['138', '140', '148', '149', '145', '125', '143', '116', '147', '139', '129', '135', '113', '132', '57'] 663.7851851851851
20 13.237037037037037 ['138', '140', '148', '149', '145', '125', '143', '116', '147', '139', '129', '135', '113', '132', '57'] 663.2148148148146
21 13.237037037037037 ['138', '140', '148', '149', '145', '125', '143', '116', '147', '139', '129', '135', '113', '132', '57'] 662.5185185185179
22 13.237037037037037 ['138', '140', '148', '149', '145', '125', '143', '116', '147', '139', '129', '135', '113', '132', '57'] 662.0296296296295
23 13.237037037037037 ['138', '140', '148', '149', '145', '125', '143', '116', '147', '139', '129', '135', '113', '132', '57'] 661.8518518518516
24 13.237037037037037 ['138', '140', '148', '149', '145', '125', '143', '116', '147', '139', '129', '135', '113', '132', '57'] 661.8518518518516
25 13.237037037037037 ['138', '140', '148', '149', '145', '125', '143', '116', '147', '139', '129', '135', '113', '132', '57'] 661.8518518518516
26 13.237037037037037 ['138', '140', '148', '149', '145', '125', '143', '116', '147', '139', '129', '135', '113', '132', '57'] 661.8518518518516
27 13.237037037037037 ['138', '140', '148', '149', '145', '125', '143', '116', '147', '139', '129', '135', '113', '132', '57'] 661.8518518518516
28 13.237037037037037 ['138', '140', '148', '149', '145', '125', '143', '116', '147', '139', '129', '135', '113', '132', '57'] 661.8518518518516
29 13.237037037037037 ['138', '140', '148', '149', '145', '125', '143', '116', '147', '139', '129', '135', '113', '132', '57'] 661.8518518518516
30 13.237037037037037 ['138', '140', '148', '149', '145', '125', '143', '116', '147', '139', '129', '135', '113', '132', '57'] 661.8518518518516
31 13.237037037037037 ['138', '140', '148', '149', '145', '125', '143', '116', '147', '139', '129', '135', '113', '132', '57'] 661.8518518518516
32 13.237037037037037 ['138', '140', '148', '149', '145', '125', '143', '116', '147', '139', '129', '135', '113', '132', '57'] 661.8518518518516
33 13.237037037037037 ['138', '140', '148', '149', '145', '125', '143', '116', '147', '139', '129', '135', '113', '132', '57'] 661.8518518518516
34 13.237037037037037 ['138', '140', '148', '149', '145', '125', '143', '116', '147', '139', '129', '135', '113', '132', '57'] 661.8518518518516
35 13.237037037037037 ['138', '140', '148', '149', '145', '125', '143', '116', '147', '139', '129', '135', '113', '132', '57'] 661.8518518518516
36 13.237037037037037 ['138', '140', '148', '149', '145', '125', '143', '116', '147', '139', '129', '135', '113', '132', '57'] 661.8518518518516
37 13.237037037037037 ['138', '140', '148', '149', '145', '125', '143', '116', '147', '139', '129', '135', '113', '132', '57'] 661.8518518518516
38 13.237037037037037 ['138', '140', '148', '149', '145', '125', '143', '116', '147', '139', '129', '135', '113', '132', '57'] 661.8518518518516
39 13.237037037037037 ['138', '140', '148', '149', '145', '125', '143', '116', '147', '139', '129', '135', '113', '132', '57'] 661.8518518518516
40 13.237037037037037 ['138', '140', '148', '149', '145', '125', '143', '116', '147', '139', '129', '135', '113', '132', '57'] 661.8518518518516
41 13.237037037037037 ['138', '140', '148', '149', '145', '125', '143', '116', '147', '139', '129', '135', '113', '132', '57'] 661.8518518518516
42 13.237037037037037 ['138', '140', '148', '149', '145', '125', '143', '116', '147', '139', '129', '135', '113', '132', '57'] 661.8518518518516
43 13.237037037037037 ['138', '140', '148', '149', '145', '125', '143', '116', '147', '139', '129', '135', '113', '132', '57'] 661.8518518518516
44 13.237037037037037 ['138', '140', '148', '149', '145', '125', '143', '116', '147', '139', '129', '135', '113', '132', '57'] 661.8518518518516
45 13.237037037037037 ['138', '140', '148', '149', '145', '125', '143', '116', '147', '139', '129', '135', '113', '132', '57'] 661.8518518518516
46 13.237037037037037 ['138', '140', '148', '149', '145', '125', '143', '116', '147', '139', '129', '135', '113', '132', '57'] 661.8518518518516
47 13.237037037037037 ['138', '140', '148', '149', '145', '125', '143', '116', '147', '139', '129', '135', '113', '132', '57'] 661.8518518518516
48 13.237037037037037 ['138', '140', '148', '149', '145', '125', '143', '116', '147', '139', '129', '135', '113', '132', '57'] 661.8518518518516
49 13.237037037037037 ['138', '140', '148', '149', '145', '125', '143', '116', '147', '139', '129', '135', '113', '132', '57'] 661.8518518518516
50 13.237037037037037 ['138', '140', '148', '149', '145', '125', '143', '116', '147', '139', '129', '135', '113', '132', '57'] 661.8518518518516
51 13.237037037037037 ['138', '140', '148', '149', '145', '125', '143', '116', '147', '139', '129', '135', '113', '132', '57'] 661.8518518518516
52 13.237037037037037 ['138', '140', '148', '149', '145', '125', '143', '116', '147', '139', '129', '135', '113', '132', '57'] 661.8518518518516
53 13.237037037037037 ['138', '140', '148', '149', '145', '125', '143', '116', '147', '139', '129', '135', '113', '132', '57'] 661.8518518518516
54 13.237037037037037 ['138', '140', '148', '149', '145', '125', '143', '116', '147', '139', '129', '135', '113', '132', '57'] 661.8518518518516
55 13.237037037037037 ['138', '140', '148', '149', '145', '125', '143', '116', '147', '139', '129', '135', '113', '132', '57'] 661.8518518518516
56 13.237037037037037 ['138', '140', '148', '149', '145', '125', '143', '116', '147', '139', '129', '135', '113', '132', '57'] 661.8518518518516
57 13.237037037037037 ['138', '140', '148', '149', '145', '125', '143', '116', '147', '139', '129', '135', '113', '132', '57'] 661.8518518518516
58 13.237037037037037 ['138', '140', '148', '149', '145', '125', '143', '116', '147', '139', '129', '135', '113', '132', '57'] 661.8518518518516
59 13.237037037037037 ['138', '140', '148', '149', '145', '125', '143', '116', '147', '139', '129', '135', '113', '132', '57'] 661.8518518518516
60 13.237037037037037 ['138', '140', '148', '149', '145', '125', '143', '116', '147', '139', '129', '135', '113', '132', '57'] 661.8518518518516
61 13.237037037037037 ['138', '140', '148', '149', '145', '125', '143', '116', '147', '139', '129', '135', '113', '132', '57'] 661.8518518518516
62 13.237037037037037 ['138', '140', '148', '149', '145', '125', '143', '116', '147', '139', '129', '135', '113', '132', '57'] 661.8518518518516
63 13.237037037037037 ['138', '140', '148', '149', '145', '125', '143', '116', '147', '139', '129', '135', '113', '132', '57'] 661.8518518518516
64 13.237037037037037 ['138', '140', '148', '149', '145', '125', '143', '116', '147', '139', '129', '135', '113', '132', '57'] 661.8518518518516
65 13.237037037037037 ['138', '140', '148', '149', '145', '125', '143', '116', '147', '139', '129', '135', '113', '132', '57'] 661.8518518518516
66 13.237037037037037 ['138', '140', '148', '149', '145', '125', '143', '116', '147', '139', '129', '135', '113', '132', '57'] 661.8518518518516
67 13.237037037037037 ['138', '140', '148', '149', '145', '125', '143', '116', '147', '139', '129', '135', '113', '132', '57'] 661.8518518518516
68 13.237037037037037 ['138', '140', '148', '149', '145', '125', '143', '116', '147', '139', '129', '135', '113', '132', '57'] 661.8518518518516
69 13.237037037037037 ['138', '140', '148', '149', '145', '125', '143', '116', '147', '139', '129', '135', '113', '132', '57'] 661.8518518518516
70 13.237037037037037 ['138', '140', '148', '149', '145', '125', '143', '116', '147', '139', '129', '135', '113', '132', '57'] 661.8518518518516
71 13.237037037037037 ['138', '140', '148', '149', '145', '125', '143', '116', '147', '139', '129', '135', '113', '132', '57'] 661.8518518518516
72 13.237037037037037 ['138', '140', '148', '149', '145', '125', '143', '116', '147', '139', '129', '135', '113', '132', '57'] 661.8518518518516
73 13.237037037037037 ['138', '140', '148', '149', '145', '125', '143', '116', '147', '139', '129', '135', '113', '132', '57'] 661.8518518518516
74 13.237037037037037 ['138', '140', '148', '149', '145', '125', '143', '116', '147', '139', '129', '135', '113', '132', '57'] 661.8518518518516
75 13.237037037037037 ['138', '140', '148', '149', '145', '125', '143', '116', '147', '139', '129', '135', '113', '132', '57'] 661.8518518518516
76 13.237037037037037 ['138', '140', '148', '149', '145', '125', '143', '116', '147', '139', '129', '135', '113', '132', '57'] 661.8518518518516
77 13.237037037037037 ['138', '140', '148', '149', '145', '125', '143', '116', '147', '139', '129', '135', '113', '132', '57'] 661.8518518518516
78 13.237037037037037 ['138', '140', '148', '149', '145', '125', '143', '116', '147', '139', '129', '135', '113', '132', '57'] 661.8518518518516
79 13.237037037037037 ['138', '140', '148', '149', '145', '125', '143', '116', '147', '139', '129', '135', '113', '132', '57'] 661.8518518518516
80 13.237037037037037 ['138', '140', '148', '149', '145', '125', '143', '116', '147', '139', '129', '135', '113', '132', '57'] 661.8518518518516
81 13.237037037037037 ['138', '140', '148', '149', '145', '125', '143', '116', '147', '139', '129', '135', '113', '132', '57'] 661.8518518518516
82 13.237037037037037 ['138', '140', '148', '149', '145', '125', '143', '116', '147', '139', '129', '135', '113', '132', '57'] 661.8518518518516
83 13.237037037037037 ['138', '140', '148', '149', '145', '125', '143', '116', '147', '139', '129', '135', '113', '132', '57'] 661.8518518518516
84 13.237037037037037 ['138', '140', '148', '149', '145', '125', '143', '116', '147', '139', '129', '135', '113', '132', '57'] 661.8518518518516
85 13.237037037037037 ['138', '140', '148', '149', '145', '125', '143', '116', '147', '139', '129', '135', '113', '132', '57'] 661.8518518518516
86 13.237037037037037 ['138', '140', '148', '149', '145', '125', '143', '116', '147', '139', '129', '135', '113', '132', '57'] 661.8518518518516
87 13.237037037037037 ['138', '140', '148', '149', '145', '125', '143', '116', '147', '139', '129', '135', '113', '132', '57'] 661.8518518518516
88 13.237037037037037 ['138', '140', '148', '149', '145', '125', '143', '116', '147', '139', '129', '135', '113', '132', '57'] 661.8518518518516
89 13.237037037037037 ['138', '140', '148', '149', '145', '125', '143', '116', '147', '139', '129', '135', '113', '132', '57'] 661.8518518518516
90 13.237037037037037 ['138', '140', '148', '149', '145', '125', '143', '116', '147', '139', '129', '135', '113', '132', '57'] 661.8518518518516
91 13.237037037037037 ['138', '140', '148', '149', '145', '125', '143', '116', '147', '139', '129', '135', '113', '132', '57'] 661.8518518518516
92 13.237037037037037 ['138', '140', '148', '149', '145', '125', '143', '116', '147', '139', '129', '135', '113', '132', '57'] 661.8518518518516
93 13.237037037037037 ['138', '140', '148', '149', '145', '125', '143', '116', '147', '139', '129', '135', '113', '132', '57'] 661.8518518518516
94 13.237037037037037 ['138', '140', '148', '149', '145', '125', '143', '116', '147', '139', '129', '135', '113', '132', '57'] 661.8518518518516
95 13.237037037037037 ['138', '140', '148', '149', '145', '125', '143', '116', '147', '139', '129', '135', '113', '132', '57'] 661.8518518518516
96 13.237037037037037 ['138', '140', '148', '149', '145', '125', '143', '116', '147', '139', '129', '135', '113', '132', '57'] 661.8518518518516
97 13.237037037037037 ['138', '140', '148', '149', '145', '125', '143', '116', '147', '139', '129', '135', '113', '132', '57'] 661.8518518518516
98 13.237037037037037 ['138', '140', '148', '149', '145', '125', '143', '116', '147', '139', '129', '135', '113', '132', '57'] 661.8518518518516
99 13.237037037037037 ['138', '140', '148', '149', '145', '125', '143', '116', '147', '139', '129', '135', '113', '132', '57'] 661.8518518518516
100 13.237037037037037 ['138', '140', '148', '149', '145', '125', '143', '116', '147', '139', '129', '135', '113', '132', '57'] 661.8518518518516
101 13.237037037037037 ['138', '140', '148', '149', '145', '125', '143', '116', '147', '139', '129', '135', '113', '132', '57'] 661.8518518518516
102 13.237037037037037 ['138', '140', '148', '149', '145', '125', '143', '116', '147', '139', '129', '135', '113', '132', '57'] 661.8518518518516
103 13.237037037037037 ['138', '140', '148', '149', '145', '125', '143', '116', '147', '139', '129', '135', '113', '132', '57'] 661.8518518518516
104 13.237037037037037 ['138', '140', '148', '149', '145', '125', '143', '116', '147', '139', '129', '135', '113', '132', '57'] 661.8518518518516
105 13.237037037037037 ['138', '140', '148', '149', '145', '125', '143', '116', '147', '139', '129', '135', '113', '132', '57'] 661.8518518518516
106 13.237037037037037 ['138', '140', '148', '149', '145', '125', '143', '116', '147', '139', '129', '135', '113', '132', '57'] 661.8518518518516
107 13.237037037037037 ['138', '140', '148', '149', '145', '125', '143', '116', '147', '139', '129', '135', '113', '132', '57'] 661.8518518518516
108 13.237037037037037 ['138', '140', '148', '149', '145', '125', '143', '116', '147', '139', '129', '135', '113', '132', '57'] 661.8518518518516
109 13.237037037037037 ['138', '140', '148', '149', '145', '125', '143', '116', '147', '139', '129', '135', '113', '132', '57'] 661.8518518518516
110 13.237037037037037 ['138', '140', '148', '149', '145', '125', '143', '116', '147', '139', '129', '135', '113', '132', '57'] 661.8518518518516
111 13.237037037037037 ['138', '140', '148', '149', '145', '125', '143', '116', '147', '139', '129', '135', '113', '132', '57'] 661.8518518518516
112 13.237037037037037 ['138', '140', '148', '149', '145', '125', '143', '116', '147', '139', '129', '135', '113', '132', '57'] 661.8518518518516
113 13.237037037037037 ['138', '140', '148', '149', '145', '125', '143', '116', '147', '139', '129', '135', '113', '132', '57'] 661.8518518518516
114 13.237037037037037 ['138', '140', '148', '149', '145', '125', '143', '116', '147', '139', '129', '135', '113', '132', '57'] 661.8518518518516
115 13.237037037037037 ['138', '140', '148', '149', '145', '125', '143', '116', '147', '139', '129', '135', '113', '132', '57'] 661.8518518518516
116 13.237037037037037 ['138', '140', '148', '149', '145', '125', '143', '116', '147', '139', '129', '135', '113', '132', '57'] 661.8518518518516
117 13.237037037037037 ['138', '140', '148', '149', '145', '125', '143', '116', '147', '139', '129', '135', '113', '132', '57'] 661.8518518518516
118 13.237037037037037 ['138', '140', '148', '149', '145', '125', '143', '116', '147', '139', '129', '135', '113', '132', '57'] 661.8518518518516
119 13.237037037037037 ['138', '140', '148', '149', '145', '125', '143', '116', '147', '139', '129', '135', '113', '132', '57'] 661.8518518518516
120 13.237037037037037 ['138', '140', '148', '149', '145', '125', '143', '116', '147', '139', '129', '135', '113', '132', '57'] 661.8518518518516
121 13.237037037037037 ['138', '140', '148', '149', '145', '125', '143', '116', '147', '139', '129', '135', '113', '132', '57'] 661.8518518518516
122 13.237037037037037 ['138', '140', '148', '149', '145', '125', '143', '116', '147', '139', '129', '135', '113', '132', '57'] 661.8518518518516
123 13.237037037037037 ['138', '140', '148', '149', '145', '125', '143', '116', '147', '139', '129', '135', '113', '132', '57'] 661.8518518518516
124 13.237037037037037 ['138', '140', '148', '149', '145', '125', '143', '116', '147', '139', '129', '135', '113', '132', '57'] 661.8518518518516
125 13.237037037037037 ['138', '140', '148', '149', '145', '125', '143', '116', '147', '139', '129', '135', '113', '132', '57'] 661.8518518518516
126 13.237037037037037 ['138', '140', '148', '149', '145', '125', '143', '116', '147', '139', '129', '135', '113', '132', '57'] 661.8518518518516
127 13.237037037037037 ['138', '140', '148', '149', '145', '125', '143', '116', '147', '139', '129', '135', '113', '132', '57'] 661.8518518518516
128 13.237037037037037 ['138', '140', '148', '149', '145', '125', '143', '116', '147', '139', '129', '135', '113', '132', '57'] 661.8518518518516
129 13.237037037037037 ['138', '140', '148', '149', '145', '125', '143', '116', '147', '139', '129', '135', '113', '132', '57'] 661.8518518518516
130 13.237037037037037 ['138', '140', '148', '149', '145', '125', '143', '116', '147', '139', '129', '135', '113', '132', '57'] 661.8518518518516
131 13.237037037037037 ['138', '140', '148', '149', '145', '125', '143', '116', '147', '139', '129', '135', '113', '132', '57'] 661.8518518518516
132 13.237037037037037 ['138', '140', '148', '149', '145', '125', '143', '116', '147', '139', '129', '135', '113', '132', '57'] 661.8518518518516
133 13.237037037037037 ['138', '140', '148', '149', '145', '125', '143', '116', '147', '139', '129', '135', '113', '132', '57'] 661.8518518518516
134 13.237037037037037 ['138', '140', '148', '149', '145', '125', '143', '116', '147', '139', '129', '135', '113', '132', '57'] 661.8518518518516
135 13.237037037037037 ['138', '140', '148', '149', '145', '125', '143', '116', '147', '139', '129', '135', '113', '132', '57'] 661.8518518518516
136 13.237037037037037 ['138', '140', '148', '149', '145', '125', '143', '116', '147', '139', '129', '135', '113', '132', '57'] 661.8518518518516
137 13.237037037037037 ['138', '140', '148', '149', '145', '125', '143', '116', '147', '139', '129', '135', '113', '132', '57'] 661.8518518518516
138 13.237037037037037 ['138', '140', '148', '149', '145', '125', '143', '116', '147', '139', '129', '135', '113', '132', '57'] 661.8518518518516
139 13.237037037037037 ['138', '140', '148', '149', '145', '125', '143', '116', '147', '139', '129', '135', '113', '132', '57'] 661.8518518518516
140 13.237037037037037 ['138', '140', '148', '149', '145', '125', '143', '116', '147', '139', '129', '135', '113', '132', '57'] 661.8518518518516
141 13.237037037037037 ['138', '140', '148', '149', '145', '125', '143', '116', '147', '139', '129', '135', '113', '132', '57'] 661.8518518518516
142 13.237037037037037 ['138', '140', '148', '149', '145', '125', '143', '116', '147', '139', '129', '135', '113', '132', '57'] 661.8518518518516
143 13.237037037037037 ['138', '140', '148', '149', '145', '125', '143', '116', '147', '139', '129', '135', '113', '132', '57'] 661.8518518518516
144 13.237037037037037 ['138', '140', '148', '149', '145', '125', '143', '116', '147', '139', '129', '135', '113', '132', '57'] 661.8518518518516
145 13.237037037037037 ['138', '140', '148', '149', '145', '125', '143', '116', '147', '139', '129', '135', '113', '132', '57'] 661.8518518518516
146 13.237037037037037 ['138', '140', '148', '149', '145', '125', '143', '116', '147', '139', '129', '135', '113', '132', '57'] 661.8518518518516
147 13.237037037037037 ['138', '140', '148', '149', '145', '125', '143', '116', '147', '139', '129', '135', '113', '132', '57'] 661.8518518518516
148 13.237037037037037 ['138', '140', '148', '149', '145', '125', '143', '116', '147', '139', '129', '135', '113', '132', '57'] 661.8518518518516
149 13.237037037037037 ['138', '140', '148', '149', '145', '125', '143', '116', '147', '139', '129', '135', '113', '132', '57'] 661.8518518518516
150 13.237037037037037 ['138', '140', '148', '149', '145', '125', '143', '116', '147', '139', '129', '135', '113', '132', '57'] 661.8518518518516
151 13.237037037037037 ['138', '140', '148', '149', '145', '125', '143', '116', '147', '139', '129', '135', '113', '132', '57'] 661.8518518518516
152 13.237037037037037 ['138', '140', '148', '149', '145', '125', '143', '116', '147', '139', '129', '135', '113', '132', '57'] 661.8518518518516
153 13.237037037037037 ['138', '140', '148', '149', '145', '125', '143', '116', '147', '139', '129', '135', '113', '132', '57'] 661.8518518518516
154 13.237037037037037 ['138', '140', '148', '149', '145', '125', '143', '116', '147', '139', '129', '135', '113', '132', '57'] 661.8518518518516
155 13.237037037037037 ['138', '140', '148', '149', '145', '125', '143', '116', '147', '139', '129', '135', '113', '132', '57'] 661.8518518518516
156 13.237037037037037 ['138', '140', '148', '149', '145', '125', '143', '116', '147', '139', '129', '135', '113', '132', '57'] 661.8518518518516
157 13.237037037037037 ['138', '140', '148', '149', '145', '125', '143', '116', '147', '139', '129', '135', '113', '132', '57'] 661.8518518518516
158 13.237037037037037 ['138', '140', '148', '149', '145', '125', '143', '116', '147', '139', '129', '135', '113', '132', '57'] 661.8518518518516
159 13.237037037037037 ['138', '140', '148', '149', '145', '125', '143', '116', '147', '139', '129', '135', '113', '132', '57'] 661.8518518518516
160 13.237037037037037 ['138', '140', '148', '149', '145', '125', '143', '116', '147', '139', '129', '135', '113', '132', '57'] 661.8518518518516
161 13.237037037037037 ['138', '140', '148', '149', '145', '125', '143', '116', '147', '139', '129', '135', '113', '132', '57'] 661.8518518518516
162 13.237037037037037 ['138', '140', '148', '149', '145', '125', '143', '116', '147', '139', '129', '135', '113', '132', '57'] 661.8518518518516
163 13.237037037037037 ['138', '140', '148', '149', '145', '125', '143', '116', '147', '139', '129', '135', '113', '132', '57'] 661.8518518518516
164 13.237037037037037 ['138', '140', '148', '149', '145', '125', '143', '116', '147', '139', '129', '135', '113', '132', '57'] 661.8518518518516
165 13.237037037037037 ['138', '140', '148', '149', '145', '125', '143', '116', '147', '139', '129', '135', '113', '132', '57'] 661.8518518518516
166 13.237037037037037 ['138', '140', '148', '149', '145', '125', '143', '116', '147', '139', '129', '135', '113', '132', '57'] 661.8518518518516
167 13.237037037037037 ['138', '140', '148', '149', '145', '125', '143', '116', '147', '139', '129', '135', '113', '132', '57'] 661.8518518518516
168 13.237037037037037 ['138', '140', '148', '149', '145', '125', '143', '116', '147', '139', '129', '135', '113', '132', '57'] 661.8518518518516
169 13.237037037037037 ['138', '140', '148', '149', '145', '125', '143', '116', '147', '139', '129', '135', '113', '132', '57'] 661.8518518518516
170 13.237037037037037 ['138', '140', '148', '149', '145', '125', '143', '116', '147', '139', '129', '135', '113', '132', '57'] 661.8518518518516
171 13.237037037037037 ['138', '140', '148', '149', '145', '125', '143', '116', '147', '139', '129', '135', '113', '132', '57'] 661.8518518518516
172 13.237037037037037 ['138', '140', '148', '149', '145', '125', '143', '116', '147', '139', '129', '135', '113', '132', '57'] 661.8518518518516
173 13.237037037037037 ['138', '140', '148', '149', '145', '125', '143', '116', '147', '139', '129', '135', '113', '132', '57'] 661.8518518518516
174 13.237037037037037 ['138', '140', '148', '149', '145', '125', '143', '116', '147', '139', '129', '135', '113', '132', '57'] 661.8518518518516
175 13.237037037037037 ['138', '140', '148', '149', '145', '125', '143', '116', '147', '139', '129', '135', '113', '132', '57'] 661.8518518518516
176 13.237037037037037 ['138', '140', '148', '149', '145', '125', '143', '116', '147', '139', '129', '135', '113', '132', '57'] 661.8518518518516
177 13.237037037037037 ['138', '140', '148', '149', '145', '125', '143', '116', '147', '139', '129', '135', '113', '132', '57'] 661.8518518518516
178 13.237037037037037 ['138', '140', '148', '149', '145', '125', '143', '116', '147', '139', '129', '135', '113', '132', '57'] 661.8518518518516
179 13.237037037037037 ['138', '140', '148', '149', '145', '125', '143', '116', '147', '139', '129', '135', '113', '132', '57'] 661.8518518518516
180 13.237037037037037 ['138', '140', '148', '149', '145', '125', '143', '116', '147', '139', '129', '135', '113', '132', '57'] 661.8518518518516
181 13.237037037037037 ['138', '140', '148', '149', '145', '125', '143', '116', '147', '139', '129', '135', '113', '132', '57'] 661.8518518518516
182 13.237037037037037 ['138', '140', '148', '149', '145', '125', '143', '116', '147', '139', '129', '135', '113', '132', '57'] 661.8518518518516
183 13.237037037037037 ['138', '140', '148', '149', '145', '125', '143', '116', '147', '139', '129', '135', '113', '132', '57'] 661.8518518518516
184 13.237037037037037 ['138', '140', '148', '149', '145', '125', '143', '116', '147', '139', '129', '135', '113', '132', '57'] 661.8518518518516
185 13.237037037037037 ['138', '140', '148', '149', '145', '125', '143', '116', '147', '139', '129', '135', '113', '132', '57'] 661.8518518518516
186 13.237037037037037 ['138', '140', '148', '149', '145', '125', '143', '116', '147', '139', '129', '135', '113', '132', '57'] 661.8518518518516
187 13.237037037037037 ['138', '140', '148', '149', '145', '125', '143', '116', '147', '139', '129', '135', '113', '132', '57'] 661.8518518518516
188 13.237037037037037 ['138', '140', '148', '149', '145', '125', '143', '116', '147', '139', '129', '135', '113', '132', '57'] 661.8518518518516
189 13.237037037037037 ['138', '140', '148', '149', '145', '125', '143', '116', '147', '139', '129', '135', '113', '132', '57'] 661.8518518518516
190 13.237037037037037 ['138', '140', '148', '149', '145', '125', '143', '116', '147', '139', '129', '135', '113', '132', '57'] 661.8518518518516
191 13.237037037037037 ['138', '140', '148', '149', '145', '125', '143', '116', '147', '139', '129', '135', '113', '132', '57'] 661.8518518518516
192 13.237037037037037 ['138', '140', '148', '149', '145', '125', '143', '116', '147', '139', '129', '135', '113', '132', '57'] 661.8518518518516
193 13.237037037037037 ['138', '140', '148', '149', '145', '125', '143', '116', '147', '139', '129', '135', '113', '132', '57'] 661.8518518518516
194 13.237037037037037 ['138', '140', '148', '149', '145', '125', '143', '116', '147', '139', '129', '135', '113', '132', '57'] 661.8518518518516
195 13.237037037037037 ['138', '140', '148', '149', '145', '125', '143', '116', '147', '139', '129', '135', '113', '132', '57'] 661.8518518518516
196 13.237037037037037 ['138', '140', '148', '149', '145', '125', '143', '116', '147', '139', '129', '135', '113', '132', '57'] 661.8518518518516
197 13.237037037037037 ['138', '140', '148', '149', '145', '125', '143', '116', '147', '139', '129', '135', '113', '132', '57'] 661.8518518518516
198 13.237037037037037 ['138', '140', '148', '149', '145', '125', '143', '116', '147', '139', '129', '135', '113', '132', '57'] 661.8518518518516
199 13.237037037037037 ['138', '140', '148', '149', '145', '125', '143', '116', '147', '139', '129', '135', '113', '132', '57'] 661.8518518518516
