0 24.49122807017544 ['12', '8', '46', '28', '3', '9'] 1375.999999999999
1 24.49122807017544 ['12', '8', '46', '28', '3', '9'] 1334.5964912280704
2 24.280701754385966 ['50', '3', '19', '14', '9', '63'] 1303.1578947368412
3 24.07017543859649 ['14', '9', '3', '50', '63', '34'] 1266.1052631578953
4 23.29824561403509 ['9', '3', '8', '63', '50', '34'] 1234.1052631578953
5 23.29824561403509 ['9', '3', '8', '63', '50', '34'] 1213.0526315789475
6 23.228070175438596 ['3', '34', '8', '9', '50', '12'] 1193.7543859649122
7 23.228070175438596 ['3', '34', '8', '9', '50', '12'] 1181.8947368421052
8 22.736842105263158 ['8', '34', '50', '19', '3', '4'] 1168.4210526315785
9 22.736842105263158 ['8', '34', '50', '19', '3', '4'] 1162.877192982456
10 22.736842105263158 ['8', '34', '50', '19', '3', '4'] 1157.4736842105256
11 22.736842105263158 ['8', '34', '50', '19', '3', '4'] 1151.0877192982455
12 22.736842105263158 ['8', '34', '50', '19', '3', '4'] 1141.8245614035088
13 22.736842105263158 ['8', '34', '50', '19', '3', '4'] 1137.894736842105
14 22.736842105263158 ['8', '34', '50', '19', '3', '4'] 1136.8421052631572
15 22.736842105263158 ['8', '34', '50', '19', '3', '4'] 1136.8421052631572
16 22.736842105263158 ['8', '34', '50', '19', '3', '4'] 1136.8421052631572
17 22.736842105263158 ['8', '34', '50', '19', '3', '4'] 1136.8421052631572
18 22.736842105263158 ['8', '34', '50', '19', '3', '4'] 1136.8421052631572
19 22.736842105263158 ['8', '34', '50', '19', '3', '4'] 1136.8421052631572
20 22.736842105263158 ['8', '34', '50', '19', '3', '4'] 1136.8421052631572
21 22.736842105263158 ['8', '34', '50', '19', '3', '4'] 1136.8421052631572
22 22.736842105263158 ['8', '34', '50', '19', '3', '4'] 1136.8421052631572
23 22.736842105263158 ['8', '34', '50', '19', '3', '4'] 1136.8421052631572
24 22.736842105263158 ['8', '34', '50', '19', '3', '4'] 1136.8421052631572
25 22.736842105263158 ['8', '34', '50', '19', '3', '4'] 1136.8421052631572
26 22.736842105263158 ['8', '34', '50', '19', '3', '4'] 1136.8421052631572
27 22.736842105263158 ['8', '34', '50', '19', '3', '4'] 1136.8421052631572
28 22.736842105263158 ['8', '34', '50', '19', '3', '4'] 1136.8421052631572
29 22.736842105263158 ['8', '34', '50', '19', '3', '4'] 1136.8421052631572
30 22.736842105263158 ['8', '34', '50', '19', '3', '4'] 1136.8421052631572
31 22.736842105263158 ['8', '34', '50', '19', '3', '4'] 1136.8421052631572
32 22.736842105263158 ['8', '34', '50', '19', '3', '4'] 1136.8421052631572
33 22.736842105263158 ['8', '34', '50', '19', '3', '4'] 1136.8421052631572
34 22.736842105263158 ['8', '34', '50', '19', '3', '4'] 1136.8421052631572
35 22.736842105263158 ['8', '34', '50', '19', '3', '4'] 1136.8421052631572
36 22.736842105263158 ['8', '34', '50', '19', '3', '4'] 1136.8421052631572
37 22.736842105263158 ['8', '34', '50', '19', '3', '4'] 1136.8421052631572
38 22.736842105263158 ['8', '34', '50', '19', '3', '4'] 1136.8421052631572
39 22.736842105263158 ['8', '34', '50', '19', '3', '4'] 1136.8421052631572
40 22.736842105263158 ['8', '34', '50', '19', '3', '4'] 1136.8421052631572
41 22.736842105263158 ['8', '34', '50', '19', '3', '4'] 1136.8421052631572
42 22.736842105263158 ['8', '34', '50', '19', '3', '4'] 1136.8421052631572
43 22.736842105263158 ['8', '34', '50', '19', '3', '4'] 1136.8421052631572
44 22.736842105263158 ['8', '34', '50', '19', '3', '4'] 1136.8421052631572
45 22.736842105263158 ['8', '34', '50', '19', '3', '4'] 1136.8421052631572
46 22.736842105263158 ['8', '34', '50', '19', '3', '4'] 1136.8421052631572
47 22.736842105263158 ['8', '34', '50', '19', '3', '4'] 1136.8421052631572
48 22.736842105263158 ['8', '34', '50', '19', '3', '4'] 1136.8421052631572
49 22.736842105263158 ['8', '34', '50', '19', '3', '4'] 1136.8421052631572
50 22.736842105263158 ['8', '34', '50', '19', '3', '4'] 1136.8421052631572
51 22.736842105263158 ['8', '34', '50', '19', '3', '4'] 1136.8421052631572
52 22.736842105263158 ['8', '34', '50', '19', '3', '4'] 1136.8421052631572
53 22.736842105263158 ['8', '34', '50', '19', '3', '4'] 1136.8421052631572
54 22.736842105263158 ['8', '34', '50', '19', '3', '4'] 1136.8421052631572
55 22.736842105263158 ['8', '34', '50', '19', '3', '4'] 1136.8421052631572
56 22.736842105263158 ['8', '34', '50', '19', '3', '4'] 1136.8421052631572
57 22.736842105263158 ['8', '34', '50', '19', '3', '4'] 1136.8421052631572
58 22.736842105263158 ['8', '34', '50', '19', '3', '4'] 1136.8421052631572
59 22.736842105263158 ['8', '34', '50', '19', '3', '4'] 1136.8421052631572
60 22.736842105263158 ['8', '34', '50', '19', '3', '4'] 1136.8421052631572
61 22.736842105263158 ['8', '34', '50', '19', '3', '4'] 1136.8421052631572
62 22.736842105263158 ['8', '34', '50', '19', '3', '4'] 1136.8421052631572
63 22.736842105263158 ['8', '34', '50', '19', '3', '4'] 1136.8421052631572
64 22.736842105263158 ['8', '34', '50', '19', '3', '4'] 1136.8421052631572
65 22.736842105263158 ['8', '34', '50', '19', '3', '4'] 1136.8421052631572
66 22.736842105263158 ['8', '34', '50', '19', '3', '4'] 1136.8421052631572
67 22.736842105263158 ['8', '34', '50', '19', '3', '4'] 1136.8421052631572
68 22.736842105263158 ['8', '34', '50', '19', '3', '4'] 1136.8421052631572
69 22.736842105263158 ['8', '34', '50', '19', '3', '4'] 1136.8421052631572
70 22.736842105263158 ['8', '34', '50', '19', '3', '4'] 1136.8421052631572
71 22.736842105263158 ['8', '34', '50', '19', '3', '4'] 1136.8421052631572
72 22.736842105263158 ['8', '34', '50', '19', '3', '4'] 1136.8421052631572
73 22.736842105263158 ['8', '34', '50', '19', '3', '4'] 1136.8421052631572
74 22.736842105263158 ['8', '34', '50', '19', '3', '4'] 1136.8421052631572
75 22.736842105263158 ['8', '34', '50', '19', '3', '4'] 1136.8421052631572
76 22.736842105263158 ['8', '34', '50', '19', '3', '4'] 1136.8421052631572
77 22.736842105263158 ['8', '34', '50', '19', '3', '4'] 1136.8421052631572
78 22.736842105263158 ['8', '34', '50', '19', '3', '4'] 1136.8421052631572
79 22.736842105263158 ['8', '34', '50', '19', '3', '4'] 1136.8421052631572
80 22.736842105263158 ['8', '34', '50', '19', '3', '4'] 1136.8421052631572
81 22.736842105263158 ['8', '34', '50', '19', '3', '4'] 1136.8421052631572
82 22.736842105263158 ['8', '34', '50', '19', '3', '4'] 1136.8421052631572
83 22.736842105263158 ['8', '34', '50', '19', '3', '4'] 1136.8421052631572
84 22.736842105263158 ['8', '34', '50', '19', '3', '4'] 1136.8421052631572
85 22.736842105263158 ['8', '34', '50', '19', '3', '4'] 1136.8421052631572
86 22.736842105263158 ['8', '34', '50', '19', '3', '4'] 1136.8421052631572
87 22.736842105263158 ['8', '34', '50', '19', '3', '4'] 1136.8421052631572
88 22.736842105263158 ['8', '34', '50', '19', '3', '4'] 1136.8421052631572
89 22.736842105263158 ['8', '34', '50', '19', '3', '4'] 1136.8421052631572
90 22.736842105263158 ['8', '34', '50', '19', '3', '4'] 1136.8421052631572
91 22.736842105263158 ['8', '34', '50', '19', '3', '4'] 1136.8421052631572
92 22.736842105263158 ['8', '34', '50', '19', '3', '4'] 1136.8421052631572
93 22.736842105263158 ['8', '34', '50', '19', '3', '4'] 1136.8421052631572
94 22.736842105263158 ['8', '34', '50', '19', '3', '4'] 1136.8421052631572
95 22.736842105263158 ['8', '34', '50', '19', '3', '4'] 1136.8421052631572
96 22.736842105263158 ['8', '34', '50', '19', '3', '4'] 1136.8421052631572
97 22.736842105263158 ['8', '34', '50', '19', '3', '4'] 1136.8421052631572
98 22.736842105263158 ['8', '34', '50', '19', '3', '4'] 1136.8421052631572
99 22.736842105263158 ['8', '34', '50', '19', '3', '4'] 1136.8421052631572
100 22.736842105263158 ['8', '34', '50', '19', '3', '4'] 1136.8421052631572
101 22.736842105263158 ['8', '34', '50', '19', '3', '4'] 1136.8421052631572
102 22.736842105263158 ['8', '34', '50', '19', '3', '4'] 1136.8421052631572
103 22.736842105263158 ['8', '34', '50', '19', '3', '4'] 1136.8421052631572
104 22.736842105263158 ['8', '34', '50', '19', '3', '4'] 1136.8421052631572
105 22.736842105263158 ['8', '34', '50', '19', '3', '4'] 1136.8421052631572
106 22.736842105263158 ['8', '34', '50', '19', '3', '4'] 1136.8421052631572
107 22.736842105263158 ['8', '34', '50', '19', '3', '4'] 1136.8421052631572
108 22.736842105263158 ['8', '34', '50', '19', '3', '4'] 1136.8421052631572
109 22.736842105263158 ['8', '34', '50', '19', '3', '4'] 1136.8421052631572
110 22.736842105263158 ['8', '34', '50', '19', '3', '4'] 1136.8421052631572
111 22.736842105263158 ['8', '34', '50', '19', '3', '4'] 1136.8421052631572
112 22.736842105263158 ['8', '34', '50', '19', '3', '4'] 1136.8421052631572
113 22.736842105263158 ['8', '34', '50', '19', '3', '4'] 1136.8421052631572
114 22.736842105263158 ['8', '34', '50', '19', '3', '4'] 1136.8421052631572
115 22.736842105263158 ['8', '34', '50', '19', '3', '4'] 1136.8421052631572
116 22.736842105263158 ['8', '34', '50', '19', '3', '4'] 1136.8421052631572
117 22.736842105263158 ['8', '34', '50', '19', '3', '4'] 1136.8421052631572
118 22.736842105263158 ['8', '34', '50', '19', '3', '4'] 1136.8421052631572
119 22.736842105263158 ['8', '34', '50', '19', '3', '4'] 1136.8421052631572
120 22.736842105263158 ['8', '34', '50', '19', '3', '4'] 1136.8421052631572
121 22.736842105263158 ['8', '34', '50', '19', '3', '4'] 1136.8421052631572
122 22.736842105263158 ['8', '34', '50', '19', '3', '4'] 1136.8421052631572
123 22.736842105263158 ['8', '34', '50', '19', '3', '4'] 1136.8421052631572
124 22.736842105263158 ['8', '34', '50', '19', '3', '4'] 1136.8421052631572
125 22.736842105263158 ['8', '34', '50', '19', '3', '4'] 1136.8421052631572
126 22.736842105263158 ['8', '34', '50', '19', '3', '4'] 1136.8421052631572
127 22.736842105263158 ['8', '34', '50', '19', '3', '4'] 1136.8421052631572
128 22.736842105263158 ['8', '34', '50', '19', '3', '4'] 1136.8421052631572
129 22.736842105263158 ['8', '34', '50', '19', '3', '4'] 1136.8421052631572
130 22.736842105263158 ['8', '34', '50', '19', '3', '4'] 1136.8421052631572
131 22.736842105263158 ['8', '34', '50', '19', '3', '4'] 1136.8421052631572
132 22.736842105263158 ['8', '34', '50', '19', '3', '4'] 1136.8421052631572
133 22.736842105263158 ['8', '34', '50', '19', '3', '4'] 1136.8421052631572
134 22.736842105263158 ['8', '34', '50', '19', '3', '4'] 1136.8421052631572
135 22.736842105263158 ['8', '34', '50', '19', '3', '4'] 1136.8421052631572
136 22.736842105263158 ['8', '34', '50', '19', '3', '4'] 1136.8421052631572
137 22.736842105263158 ['8', '34', '50', '19', '3', '4'] 1136.8421052631572
138 22.736842105263158 ['8', '34', '50', '19', '3', '4'] 1136.8421052631572
139 22.736842105263158 ['8', '34', '50', '19', '3', '4'] 1136.8421052631572
140 22.736842105263158 ['8', '34', '50', '19', '3', '4'] 1136.8421052631572
141 22.736842105263158 ['8', '34', '50', '19', '3', '4'] 1136.8421052631572
142 22.736842105263158 ['8', '34', '50', '19', '3', '4'] 1136.8421052631572
143 22.736842105263158 ['8', '34', '50', '19', '3', '4'] 1136.8421052631572
144 22.736842105263158 ['8', '34', '50', '19', '3', '4'] 1136.8421052631572
145 22.736842105263158 ['8', '34', '50', '19', '3', '4'] 1136.8421052631572
146 22.736842105263158 ['8', '34', '50', '19', '3', '4'] 1136.8421052631572
147 22.736842105263158 ['8', '34', '50', '19', '3', '4'] 1136.8421052631572
148 22.736842105263158 ['8', '34', '50', '19', '3', '4'] 1136.8421052631572
149 22.736842105263158 ['8', '34', '50', '19', '3', '4'] 1136.8421052631572
150 22.736842105263158 ['8', '34', '50', '19', '3', '4'] 1136.8421052631572
151 22.736842105263158 ['8', '34', '50', '19', '3', '4'] 1136.8421052631572
152 22.736842105263158 ['8', '34', '50', '19', '3', '4'] 1136.8421052631572
153 22.736842105263158 ['8', '34', '50', '19', '3', '4'] 1136.8421052631572
154 22.736842105263158 ['8', '34', '50', '19', '3', '4'] 1136.8421052631572
155 22.736842105263158 ['8', '34', '50', '19', '3', '4'] 1136.8421052631572
156 22.736842105263158 ['8', '34', '50', '19', '3', '4'] 1136.8421052631572
157 22.736842105263158 ['8', '34', '50', '19', '3', '4'] 1136.8421052631572
158 22.736842105263158 ['8', '34', '50', '19', '3', '4'] 1136.8421052631572
159 22.736842105263158 ['8', '34', '50', '19', '3', '4'] 1136.8421052631572
160 22.736842105263158 ['8', '34', '50', '19', '3', '4'] 1136.8421052631572
161 22.736842105263158 ['8', '34', '50', '19', '3', '4'] 1136.8421052631572
162 22.736842105263158 ['8', '34', '50', '19', '3', '4'] 1136.8421052631572
163 22.736842105263158 ['8', '34', '50', '19', '3', '4'] 1136.8421052631572
164 22.736842105263158 ['8', '34', '50', '19', '3', '4'] 1136.8421052631572
165 22.736842105263158 ['8', '34', '50', '19', '3', '4'] 1136.8421052631572
166 22.736842105263158 ['8', '34', '50', '19', '3', '4'] 1136.8421052631572
167 22.736842105263158 ['8', '34', '50', '19', '3', '4'] 1136.8421052631572
168 22.736842105263158 ['8', '34', '50', '19', '3', '4'] 1136.8421052631572
169 22.736842105263158 ['8', '34', '50', '19', '3', '4'] 1136.8421052631572
170 22.736842105263158 ['8', '34', '50', '19', '3', '4'] 1136.8421052631572
171 22.736842105263158 ['8', '34', '50', '19', '3', '4'] 1136.8421052631572
172 22.736842105263158 ['8', '34', '50', '19', '3', '4'] 1136.8421052631572
173 22.736842105263158 ['8', '34', '50', '19', '3', '4'] 1136.8421052631572
174 22.736842105263158 ['8', '34', '50', '19', '3', '4'] 1136.8421052631572
175 22.736842105263158 ['8', '34', '50', '19', '3', '4'] 1136.8421052631572
176 22.736842105263158 ['8', '34', '50', '19', '3', '4'] 1136.8421052631572
177 22.736842105263158 ['8', '34', '50', '19', '3', '4'] 1136.8421052631572
178 22.736842105263158 ['8', '34', '50', '19', '3', '4'] 1136.8421052631572
179 22.736842105263158 ['8', '34', '50', '19', '3', '4'] 1136.8421052631572
180 22.736842105263158 ['8', '34', '50', '19', '3', '4'] 1136.8421052631572
181 22.736842105263158 ['8', '34', '50', '19', '3', '4'] 1136.8421052631572
182 22.736842105263158 ['8', '34', '50', '19', '3', '4'] 1136.8421052631572
183 22.736842105263158 ['8', '34', '50', '19', '3', '4'] 1136.8421052631572
184 22.736842105263158 ['8', '34', '50', '19', '3', '4'] 1136.8421052631572
185 22.736842105263158 ['8', '34', '50', '19', '3', '4'] 1136.8421052631572
186 22.736842105263158 ['8', '34', '50', '19', '3', '4'] 1136.8421052631572
187 22.736842105263158 ['8', '34', '50', '19', '3', '4'] 1136.8421052631572
188 22.736842105263158 ['8', '34', '50', '19', '3', '4'] 1136.8421052631572
189 22.736842105263158 ['8', '34', '50', '19', '3', '4'] 1136.8421052631572
190 22.736842105263158 ['8', '34', '50', '19', '3', '4'] 1136.8421052631572
191 22.736842105263158 ['8', '34', '50', '19', '3', '4'] 1136.8421052631572
192 22.736842105263158 ['8', '34', '50', '19', '3', '4'] 1136.8421052631572
193 22.736842105263158 ['8', '34', '50', '19', '3', '4'] 1136.8421052631572
194 22.736842105263158 ['8', '34', '50', '19', '3', '4'] 1136.8421052631572
195 22.736842105263158 ['8', '34', '50', '19', '3', '4'] 1136.8421052631572
196 22.736842105263158 ['8', '34', '50', '19', '3', '4'] 1136.8421052631572
197 22.736842105263158 ['8', '34', '50', '19', '3', '4'] 1136.8421052631572
198 22.736842105263158 ['8', '34', '50', '19', '3', '4'] 1136.8421052631572
199 22.736842105263158 ['8', '34', '50', '19', '3', '4'] 1136.8421052631572
