0 14.6 ['31', '117', '82', '147', '148', '142', '144', '97', '95', '45', '96', '75', '114', '92', '59'] 745.7851851851855
1 14.533333333333333 ['31', '130', '75', '117', '146', '142', '94', '59', '135', '95', '136', '79', '45', '144', '97'] 739.8222222222228
2 14.392592592592592 ['81', '117', '16', '143', '138', '39', '148', '97', '139', '13', '118', '141', '31', '92', '123'] 734.4370370370374
3 14.311111111111112 ['141', '87', '81', '143', '139', '98', '116', '118', '148', '92', '46', '97', '130', '124', '39'] 729.7703703703702
4 14.148148148148149 ['132', '113', '33', '129', '117', '135', '145', '128', '115', '103', '139', '148', '48', '100', '93'] 723.7555555555557
5 14.133333333333333 ['105', '113', '100', '128', '97', '145', '142', '33', '146', '135', '132', '68', '112', '48', '150'] 718.8888888888891
6 13.88888888888889 ['100', '33', '145', '48', '138', '97', '135', '146', '150', '128', '142', '2', '148', '96', '149'] 713.9629629629628
7 13.785185185185185 ['146', '135', '100', '145', '128', '142', '143', '87', '130', '149', '148', '96', '97', '33', '136'] 709.2888888888892
8 13.785185185185185 ['146', '135', '100', '145', '128', '142', '143', '87', '130', '149', '148', '96', '97', '33', '136'] 703.5259259259262
9 13.77037037037037 ['128', '145', '33', '148', '117', '115', '130', '100', '147', '146', '135', '110', '97', '138', '149'] 698.9259259259262
10 13.77037037037037 ['128', '145', '33', '148', '117', '115', '130', '100', '147', '146', '135', '110', '97', '138', '149'] 695.0222222222219
11 13.622222222222222 ['33', '138', '142', '145', '97', '146', '129', '135', '100', '148', '128', '149', '143', '96', '150'] 691.2888888888891
12 13.585185185185185 ['33', '138', '148', '145', '142', '128', '130', '117', '135', '149', '143', '150', '139', '97', '100'] 688.6444444444443
13 13.57037037037037 ['97', '145', '100', '142', '33', '128', '130', '148', '149', '150', '141', '135', '147', '117', '143'] 685.7629629629632
14 13.481481481481481 ['115', '141', '148', '143', '117', '128', '146', '135', '138', '100', '149', '33', '145', '142', '136'] 683.1259259259258
15 13.481481481481481 ['115', '141', '148', '143', '117', '128', '146', '135', '138', '100', '149', '33', '145', '142', '136'] 680.3851851851847
16 13.42962962962963 ['145', '149', '117', '100', '138', '146', '135', '143', '148', '128', '142', '136', '141', '33', '147'] 677.6666666666669
17 13.42962962962963 ['145', '149', '117', '100', '138', '146', '135', '143', '148', '128', '142', '136', '141', '33', '147'] 675.7333333333335
18 13.42962962962963 ['145', '149', '117', '100', '138', '146', '135', '143', '148', '128', '142', '136', '141', '33', '147'] 674.5037037037031
19 13.42962962962963 ['145', '149', '117', '100', '138', '146', '135', '143', '148', '128', '142', '136', '141', '33', '147'] 673.4444444444446
20 13.407407407407407 ['145', '148', '150', '135', '141', '128', '149', '100', '143', '138', '117', '33', '142', '129', '136'] 672.407407407408
21 13.4 ['138', '141', '128', '149', '145', '148', '146', '117', '100', '143', '136', '142', '135', '150', '147'] 671.4814814814816
22 13.4 ['138', '141', '128', '149', '145', '148', '146', '117', '100', '143', '136', '142', '135', '150', '147'] 670.6962962962963
23 13.392592592592592 ['143', '136', '150', '142', '135', '145', '128', '141', '148', '117', '100', '149', '138', '129', '147'] 670.2444444444441
24 13.392592592592592 ['143', '136', '150', '142', '135', '145', '128', '141', '148', '117', '100', '149', '138', '129', '147'] 670.0222222222217
25 13.392592592592592 ['143', '136', '150', '142', '135', '145', '128', '141', '148', '117', '100', '149', '138', '129', '147'] 669.8814814814808
26 13.392592592592592 ['143', '136', '150', '142', '135', '145', '128', '141', '148', '117', '100', '149', '138', '129', '147'] 669.7703703703696
27 13.392592592592592 ['143', '136', '150', '142', '135', '145', '128', '141', '148', '117', '100', '149', '138', '129', '147'] 669.6296296296288
28 13.392592592592592 ['143', '136', '150', '142', '135', '145', '128', '141', '148', '117', '100', '149', '138', '129', '147'] 669.6296296296288
29 13.392592592592592 ['143', '136', '150', '142', '135', '145', '128', '141', '148', '117', '100', '149', '138', '129', '147'] 669.6296296296288
30 13.392592592592592 ['143', '136', '150', '142', '135', '145', '128', '141', '148', '117', '100', '149', '138', '129', '147'] 669.6296296296288
31 13.392592592592592 ['143', '136', '150', '142', '135', '145', '128', '141', '148', '117', '100', '149', '138', '129', '147'] 669.6296296296288
32 13.392592592592592 ['143', '136', '150', '142', '135', '145', '128', '141', '148', '117', '100', '149', '138', '129', '147'] 669.6296296296288
33 13.392592592592592 ['143', '136', '150', '142', '135', '145', '128', '141', '148', '117', '100', '149', '138', '129', '147'] 669.6296296296288
34 13.392592592592592 ['143', '136', '150', '142', '135', '145', '128', '141', '148', '117', '100', '149', '138', '129', '147'] 669.6296296296288
35 13.392592592592592 ['143', '136', '150', '142', '135', '145', '128', '141', '148', '117', '100', '149', '138', '129', '147'] 669.6296296296288
36 13.392592592592592 ['143', '136', '150', '142', '135', '145', '128', '141', '148', '117', '100', '149', '138', '129', '147'] 669.6296296296288
37 13.392592592592592 ['143', '136', '150', '142', '135', '145', '128', '141', '148', '117', '100', '149', '138', '129', '147'] 669.6296296296288
38 13.392592592592592 ['143', '136', '150', '142', '135', '145', '128', '141', '148', '117', '100', '149', '138', '129', '147'] 669.6296296296288
39 13.392592592592592 ['143', '136', '150', '142', '135', '145', '128', '141', '148', '117', '100', '149', '138', '129', '147'] 669.6296296296288
40 13.392592592592592 ['143', '136', '150', '142', '135', '145', '128', '141', '148', '117', '100', '149', '138', '129', '147'] 669.6296296296288
41 13.392592592592592 ['143', '136', '150', '142', '135', '145', '128', '141', '148', '117', '100', '149', '138', '129', '147'] 669.6296296296288
42 13.392592592592592 ['143', '136', '150', '142', '135', '145', '128', '141', '148', '117', '100', '149', '138', '129', '147'] 669.6296296296288
43 13.392592592592592 ['143', '136', '150', '142', '135', '145', '128', '141', '148', '117', '100', '149', '138', '129', '147'] 669.6296296296288
44 13.392592592592592 ['143', '136', '150', '142', '135', '145', '128', '141', '148', '117', '100', '149', '138', '129', '147'] 669.6296296296288
45 13.392592592592592 ['143', '136', '150', '142', '135', '145', '128', '141', '148', '117', '100', '149', '138', '129', '147'] 669.6296296296288
46 13.392592592592592 ['143', '136', '150', '142', '135', '145', '128', '141', '148', '117', '100', '149', '138', '129', '147'] 669.6296296296288
47 13.392592592592592 ['143', '136', '150', '142', '135', '145', '128', '141', '148', '117', '100', '149', '138', '129', '147'] 669.6296296296288
48 13.392592592592592 ['143', '136', '150', '142', '135', '145', '128', '141', '148', '117', '100', '149', '138', '129', '147'] 669.6296296296288
49 13.392592592592592 ['143', '136', '150', '142', '135', '145', '128', '141', '148', '117', '100', '149', '138', '129', '147'] 669.6296296296288
50 13.392592592592592 ['143', '136', '150', '142', '135', '145', '128', '141', '148', '117', '100', '149', '138', '129', '147'] 669.6296296296288
51 13.392592592592592 ['143', '136', '150', '142', '135', '145', '128', '141', '148', '117', '100', '149', '138', '129', '147'] 669.6296296296288
52 13.392592592592592 ['143', '136', '150', '142', '135', '145', '128', '141', '148', '117', '100', '149', '138', '129', '147'] 669.6296296296288
53 13.392592592592592 ['143', '136', '150', '142', '135', '145', '128', '141', '148', '117', '100', '149', '138', '129', '147'] 669.6296296296288
54 13.392592592592592 ['143', '136', '150', '142', '135', '145', '128', '141', '148', '117', '100', '149', '138', '129', '147'] 669.6296296296288
55 13.392592592592592 ['143', '136', '150', '142', '135', '145', '128', '141', '148', '117', '100', '149', '138', '129', '147'] 669.6296296296288
56 13.392592592592592 ['143', '136', '150', '142', '135', '145', '128', '141', '148', '117', '100', '149', '138', '129', '147'] 669.6296296296288
57 13.392592592592592 ['143', '136', '150', '142', '135', '145', '128', '141', '148', '117', '100', '149', '138', '129', '147'] 669.6296296296288
58 13.392592592592592 ['143', '136', '150', '142', '135', '145', '128', '141', '148', '117', '100', '149', '138', '129', '147'] 669.6296296296288
59 13.392592592592592 ['143', '136', '150', '142', '135', '145', '128', '141', '148', '117', '100', '149', '138', '129', '147'] 669.6296296296288
60 13.392592592592592 ['143', '136', '150', '142', '135', '145', '128', '141', '148', '117', '100', '149', '138', '129', '147'] 669.6296296296288
61 13.392592592592592 ['143', '136', '150', '142', '135', '145', '128', '141', '148', '117', '100', '149', '138', '129', '147'] 669.6296296296288
62 13.392592592592592 ['143', '136', '150', '142', '135', '145', '128', '141', '148', '117', '100', '149', '138', '129', '147'] 669.6296296296288
63 13.392592592592592 ['143', '136', '150', '142', '135', '145', '128', '141', '148', '117', '100', '149', '138', '129', '147'] 669.6296296296288
64 13.392592592592592 ['143', '136', '150', '142', '135', '145', '128', '141', '148', '117', '100', '149', '138', '129', '147'] 669.6296296296288
65 13.392592592592592 ['143', '136', '150', '142', '135', '145', '128', '141', '148', '117', '100', '149', '138', '129', '147'] 669.6296296296288
66 13.392592592592592 ['143', '136', '150', '142', '135', '145', '128', '141', '148', '117', '100', '149', '138', '129', '147'] 669.6296296296288
67 13.392592592592592 ['143', '136', '150', '142', '135', '145', '128', '141', '148', '117', '100', '149', '138', '129', '147'] 669.6296296296288
68 13.392592592592592 ['143', '136', '150', '142', '135', '145', '128', '141', '148', '117', '100', '149', '138', '129', '147'] 669.6296296296288
69 13.392592592592592 ['143', '136', '150', '142', '135', '145', '128', '141', '148', '117', '100', '149', '138', '129', '147'] 669.6296296296288
70 13.392592592592592 ['143', '136', '150', '142', '135', '145', '128', '141', '148', '117', '100', '149', '138', '129', '147'] 669.6296296296288
71 13.392592592592592 ['143', '136', '150', '142', '135', '145', '128', '141', '148', '117', '100', '149', '138', '129', '147'] 669.6296296296288
72 13.392592592592592 ['143', '136', '150', '142', '135', '145', '128', '141', '148', '117', '100', '149', '138', '129', '147'] 669.6296296296288
73 13.392592592592592 ['143', '136', '150', '142', '135', '145', '128', '141', '148', '117', '100', '149', '138', '129', '147'] 669.6296296296288
74 13.392592592592592 ['143', '136', '150', '142', '135', '145', '128', '141', '148', '117', '100', '149', '138', '129', '147'] 669.6296296296288
75 13.392592592592592 ['143', '136', '150', '142', '135', '145', '128', '141', '148', '117', '100', '149', '138', '129', '147'] 669.6296296296288
76 13.392592592592592 ['143', '136', '150', '142', '135', '145', '128', '141', '148', '117', '100', '149', '138', '129', '147'] 669.6296296296288
77 13.392592592592592 ['143', '136', '150', '142', '135', '145', '128', '141', '148', '117', '100', '149', '138', '129', '147'] 669.6296296296288
78 13.392592592592592 ['143', '136', '150', '142', '135', '145', '128', '141', '148', '117', '100', '149', '138', '129', '147'] 669.6296296296288
79 13.392592592592592 ['143', '136', '150', '142', '135', '145', '128', '141', '148', '117', '100', '149', '138', '129', '147'] 669.6296296296288
80 13.392592592592592 ['143', '136', '150', '142', '135', '145', '128', '141', '148', '117', '100', '149', '138', '129', '147'] 669.6296296296288
81 13.392592592592592 ['143', '136', '150', '142', '135', '145', '128', '141', '148', '117', '100', '149', '138', '129', '147'] 669.6296296296288
82 13.392592592592592 ['143', '136', '150', '142', '135', '145', '128', '141', '148', '117', '100', '149', '138', '129', '147'] 669.6296296296288
83 13.392592592592592 ['143', '136', '150', '142', '135', '145', '128', '141', '148', '117', '100', '149', '138', '129', '147'] 669.6296296296288
84 13.392592592592592 ['143', '136', '150', '142', '135', '145', '128', '141', '148', '117', '100', '149', '138', '129', '147'] 669.6296296296288
85 13.392592592592592 ['143', '136', '150', '142', '135', '145', '128', '141', '148', '117', '100', '149', '138', '129', '147'] 669.6296296296288
86 13.392592592592592 ['143', '136', '150', '142', '135', '145', '128', '141', '148', '117', '100', '149', '138', '129', '147'] 669.6296296296288
87 13.392592592592592 ['143', '136', '150', '142', '135', '145', '128', '141', '148', '117', '100', '149', '138', '129', '147'] 669.6296296296288
88 13.392592592592592 ['143', '136', '150', '142', '135', '145', '128', '141', '148', '117', '100', '149', '138', '129', '147'] 669.6296296296288
89 13.392592592592592 ['143', '136', '150', '142', '135', '145', '128', '141', '148', '117', '100', '149', '138', '129', '147'] 669.6296296296288
90 13.392592592592592 ['143', '136', '150', '142', '135', '145', '128', '141', '148', '117', '100', '149', '138', '129', '147'] 669.6296296296288
91 13.392592592592592 ['143', '136', '150', '142', '135', '145', '128', '141', '148', '117', '100', '149', '138', '129', '147'] 669.6296296296288
92 13.392592592592592 ['143', '136', '150', '142', '135', '145', '128', '141', '148', '117', '100', '149', '138', '129', '147'] 669.6296296296288
93 13.392592592592592 ['143', '136', '150', '142', '135', '145', '128', '141', '148', '117', '100', '149', '138', '129', '147'] 669.6296296296288
94 13.392592592592592 ['143', '136', '150', '142', '135', '145', '128', '141', '148', '117', '100', '149', '138', '129', '147'] 669.6296296296288
95 13.392592592592592 ['143', '136', '150', '142', '135', '145', '128', '141', '148', '117', '100', '149', '138', '129', '147'] 669.6296296296288
96 13.392592592592592 ['143', '136', '150', '142', '135', '145', '128', '141', '148', '117', '100', '149', '138', '129', '147'] 669.6296296296288
97 13.392592592592592 ['143', '136', '150', '142', '135', '145', '128', '141', '148', '117', '100', '149', '138', '129', '147'] 669.6296296296288
98 13.392592592592592 ['143', '136', '150', '142', '135', '145', '128', '141', '148', '117', '100', '149', '138', '129', '147'] 669.6296296296288
99 13.392592592592592 ['143', '136', '150', '142', '135', '145', '128', '141', '148', '117', '100', '149', '138', '129', '147'] 669.6296296296288
100 13.392592592592592 ['143', '136', '150', '142', '135', '145', '128', '141', '148', '117', '100', '149', '138', '129', '147'] 669.6296296296288
101 13.392592592592592 ['143', '136', '150', '142', '135', '145', '128', '141', '148', '117', '100', '149', '138', '129', '147'] 669.6296296296288
102 13.392592592592592 ['143', '136', '150', '142', '135', '145', '128', '141', '148', '117', '100', '149', '138', '129', '147'] 669.6296296296288
103 13.392592592592592 ['143', '136', '150', '142', '135', '145', '128', '141', '148', '117', '100', '149', '138', '129', '147'] 669.6296296296288
104 13.392592592592592 ['143', '136', '150', '142', '135', '145', '128', '141', '148', '117', '100', '149', '138', '129', '147'] 669.6296296296288
105 13.392592592592592 ['143', '136', '150', '142', '135', '145', '128', '141', '148', '117', '100', '149', '138', '129', '147'] 669.6296296296288
106 13.392592592592592 ['143', '136', '150', '142', '135', '145', '128', '141', '148', '117', '100', '149', '138', '129', '147'] 669.6296296296288
107 13.392592592592592 ['143', '136', '150', '142', '135', '145', '128', '141', '148', '117', '100', '149', '138', '129', '147'] 669.6296296296288
108 13.392592592592592 ['143', '136', '150', '142', '135', '145', '128', '141', '148', '117', '100', '149', '138', '129', '147'] 669.6296296296288
109 13.392592592592592 ['143', '136', '150', '142', '135', '145', '128', '141', '148', '117', '100', '149', '138', '129', '147'] 669.6296296296288
110 13.392592592592592 ['143', '136', '150', '142', '135', '145', '128', '141', '148', '117', '100', '149', '138', '129', '147'] 669.6296296296288
111 13.392592592592592 ['143', '136', '150', '142', '135', '145', '128', '141', '148', '117', '100', '149', '138', '129', '147'] 669.6296296296288
112 13.392592592592592 ['143', '136', '150', '142', '135', '145', '128', '141', '148', '117', '100', '149', '138', '129', '147'] 669.6296296296288
113 13.392592592592592 ['143', '136', '150', '142', '135', '145', '128', '141', '148', '117', '100', '149', '138', '129', '147'] 669.6296296296288
114 13.392592592592592 ['143', '136', '150', '142', '135', '145', '128', '141', '148', '117', '100', '149', '138', '129', '147'] 669.6296296296288
115 13.392592592592592 ['143', '136', '150', '142', '135', '145', '128', '141', '148', '117', '100', '149', '138', '129', '147'] 669.6296296296288
116 13.392592592592592 ['143', '136', '150', '142', '135', '145', '128', '141', '148', '117', '100', '149', '138', '129', '147'] 669.6296296296288
117 13.392592592592592 ['143', '136', '150', '142', '135', '145', '128', '141', '148', '117', '100', '149', '138', '129', '147'] 669.6296296296288
118 13.392592592592592 ['143', '136', '150', '142', '135', '145', '128', '141', '148', '117', '100', '149', '138', '129', '147'] 669.6296296296288
119 13.392592592592592 ['143', '136', '150', '142', '135', '145', '128', '141', '148', '117', '100', '149', '138', '129', '147'] 669.6296296296288
120 13.392592592592592 ['143', '136', '150', '142', '135', '145', '128', '141', '148', '117', '100', '149', '138', '129', '147'] 669.6296296296288
121 13.392592592592592 ['143', '136', '150', '142', '135', '145', '128', '141', '148', '117', '100', '149', '138', '129', '147'] 669.6296296296288
122 13.392592592592592 ['143', '136', '150', '142', '135', '145', '128', '141', '148', '117', '100', '149', '138', '129', '147'] 669.6296296296288
123 13.392592592592592 ['143', '136', '150', '142', '135', '145', '128', '141', '148', '117', '100', '149', '138', '129', '147'] 669.6296296296288
124 13.392592592592592 ['143', '136', '150', '142', '135', '145', '128', '141', '148', '117', '100', '149', '138', '129', '147'] 669.6296296296288
125 13.392592592592592 ['143', '136', '150', '142', '135', '145', '128', '141', '148', '117', '100', '149', '138', '129', '147'] 669.6296296296288
126 13.392592592592592 ['143', '136', '150', '142', '135', '145', '128', '141', '148', '117', '100', '149', '138', '129', '147'] 669.6296296296288
127 13.392592592592592 ['143', '136', '150', '142', '135', '145', '128', '141', '148', '117', '100', '149', '138', '129', '147'] 669.6296296296288
128 13.392592592592592 ['143', '136', '150', '142', '135', '145', '128', '141', '148', '117', '100', '149', '138', '129', '147'] 669.6296296296288
129 13.392592592592592 ['143', '136', '150', '142', '135', '145', '128', '141', '148', '117', '100', '149', '138', '129', '147'] 669.6296296296288
130 13.392592592592592 ['143', '136', '150', '142', '135', '145', '128', '141', '148', '117', '100', '149', '138', '129', '147'] 669.6296296296288
131 13.392592592592592 ['143', '136', '150', '142', '135', '145', '128', '141', '148', '117', '100', '149', '138', '129', '147'] 669.6296296296288
132 13.392592592592592 ['143', '136', '150', '142', '135', '145', '128', '141', '148', '117', '100', '149', '138', '129', '147'] 669.6296296296288
133 13.392592592592592 ['143', '136', '150', '142', '135', '145', '128', '141', '148', '117', '100', '149', '138', '129', '147'] 669.6296296296288
134 13.392592592592592 ['143', '136', '150', '142', '135', '145', '128', '141', '148', '117', '100', '149', '138', '129', '147'] 669.6296296296288
135 13.392592592592592 ['143', '136', '150', '142', '135', '145', '128', '141', '148', '117', '100', '149', '138', '129', '147'] 669.6296296296288
136 13.392592592592592 ['143', '136', '150', '142', '135', '145', '128', '141', '148', '117', '100', '149', '138', '129', '147'] 669.6296296296288
137 13.392592592592592 ['143', '136', '150', '142', '135', '145', '128', '141', '148', '117', '100', '149', '138', '129', '147'] 669.6296296296288
138 13.392592592592592 ['143', '136', '150', '142', '135', '145', '128', '141', '148', '117', '100', '149', '138', '129', '147'] 669.6296296296288
139 13.392592592592592 ['143', '136', '150', '142', '135', '145', '128', '141', '148', '117', '100', '149', '138', '129', '147'] 669.6296296296288
140 13.392592592592592 ['143', '136', '150', '142', '135', '145', '128', '141', '148', '117', '100', '149', '138', '129', '147'] 669.6296296296288
141 13.392592592592592 ['143', '136', '150', '142', '135', '145', '128', '141', '148', '117', '100', '149', '138', '129', '147'] 669.6296296296288
142 13.392592592592592 ['143', '136', '150', '142', '135', '145', '128', '141', '148', '117', '100', '149', '138', '129', '147'] 669.6296296296288
143 13.392592592592592 ['143', '136', '150', '142', '135', '145', '128', '141', '148', '117', '100', '149', '138', '129', '147'] 669.6296296296288
144 13.392592592592592 ['143', '136', '150', '142', '135', '145', '128', '141', '148', '117', '100', '149', '138', '129', '147'] 669.6296296296288
145 13.392592592592592 ['143', '136', '150', '142', '135', '145', '128', '141', '148', '117', '100', '149', '138', '129', '147'] 669.6296296296288
146 13.392592592592592 ['143', '136', '150', '142', '135', '145', '128', '141', '148', '117', '100', '149', '138', '129', '147'] 669.6296296296288
147 13.392592592592592 ['143', '136', '150', '142', '135', '145', '128', '141', '148', '117', '100', '149', '138', '129', '147'] 669.6296296296288
148 13.392592592592592 ['143', '136', '150', '142', '135', '145', '128', '141', '148', '117', '100', '149', '138', '129', '147'] 669.6296296296288
149 13.392592592592592 ['143', '136', '150', '142', '135', '145', '128', '141', '148', '117', '100', '149', '138', '129', '147'] 669.6296296296288
150 13.392592592592592 ['143', '136', '150', '142', '135', '145', '128', '141', '148', '117', '100', '149', '138', '129', '147'] 669.6296296296288
151 13.392592592592592 ['143', '136', '150', '142', '135', '145', '128', '141', '148', '117', '100', '149', '138', '129', '147'] 669.6296296296288
152 13.392592592592592 ['143', '136', '150', '142', '135', '145', '128', '141', '148', '117', '100', '149', '138', '129', '147'] 669.6296296296288
153 13.392592592592592 ['143', '136', '150', '142', '135', '145', '128', '141', '148', '117', '100', '149', '138', '129', '147'] 669.6296296296288
154 13.392592592592592 ['143', '136', '150', '142', '135', '145', '128', '141', '148', '117', '100', '149', '138', '129', '147'] 669.6296296296288
155 13.392592592592592 ['143', '136', '150', '142', '135', '145', '128', '141', '148', '117', '100', '149', '138', '129', '147'] 669.6296296296288
156 13.392592592592592 ['143', '136', '150', '142', '135', '145', '128', '141', '148', '117', '100', '149', '138', '129', '147'] 669.6296296296288
157 13.392592592592592 ['143', '136', '150', '142', '135', '145', '128', '141', '148', '117', '100', '149', '138', '129', '147'] 669.6296296296288
158 13.392592592592592 ['143', '136', '150', '142', '135', '145', '128', '141', '148', '117', '100', '149', '138', '129', '147'] 669.6296296296288
159 13.392592592592592 ['143', '136', '150', '142', '135', '145', '128', '141', '148', '117', '100', '149', '138', '129', '147'] 669.6296296296288
160 13.392592592592592 ['143', '136', '150', '142', '135', '145', '128', '141', '148', '117', '100', '149', '138', '129', '147'] 669.6296296296288
161 13.392592592592592 ['143', '136', '150', '142', '135', '145', '128', '141', '148', '117', '100', '149', '138', '129', '147'] 669.6296296296288
162 13.392592592592592 ['143', '136', '150', '142', '135', '145', '128', '141', '148', '117', '100', '149', '138', '129', '147'] 669.6296296296288
163 13.392592592592592 ['143', '136', '150', '142', '135', '145', '128', '141', '148', '117', '100', '149', '138', '129', '147'] 669.6296296296288
164 13.392592592592592 ['143', '136', '150', '142', '135', '145', '128', '141', '148', '117', '100', '149', '138', '129', '147'] 669.6296296296288
165 13.392592592592592 ['143', '136', '150', '142', '135', '145', '128', '141', '148', '117', '100', '149', '138', '129', '147'] 669.6296296296288
166 13.392592592592592 ['143', '136', '150', '142', '135', '145', '128', '141', '148', '117', '100', '149', '138', '129', '147'] 669.6296296296288
167 13.392592592592592 ['143', '136', '150', '142', '135', '145', '128', '141', '148', '117', '100', '149', '138', '129', '147'] 669.6296296296288
168 13.392592592592592 ['143', '136', '150', '142', '135', '145', '128', '141', '148', '117', '100', '149', '138', '129', '147'] 669.6296296296288
169 13.392592592592592 ['143', '136', '150', '142', '135', '145', '128', '141', '148', '117', '100', '149', '138', '129', '147'] 669.6296296296288
170 13.392592592592592 ['143', '136', '150', '142', '135', '145', '128', '141', '148', '117', '100', '149', '138', '129', '147'] 669.6296296296288
171 13.392592592592592 ['143', '136', '150', '142', '135', '145', '128', '141', '148', '117', '100', '149', '138', '129', '147'] 669.6296296296288
172 13.392592592592592 ['143', '136', '150', '142', '135', '145', '128', '141', '148', '117', '100', '149', '138', '129', '147'] 669.6296296296288
173 13.392592592592592 ['143', '136', '150', '142', '135', '145', '128', '141', '148', '117', '100', '149', '138', '129', '147'] 669.6296296296288
174 13.392592592592592 ['143', '136', '150', '142', '135', '145', '128', '141', '148', '117', '100', '149', '138', '129', '147'] 669.6296296296288
175 13.392592592592592 ['143', '136', '150', '142', '135', '145', '128', '141', '148', '117', '100', '149', '138', '129', '147'] 669.6296296296288
176 13.392592592592592 ['143', '136', '150', '142', '135', '145', '128', '141', '148', '117', '100', '149', '138', '129', '147'] 669.6296296296288
177 13.392592592592592 ['143', '136', '150', '142', '135', '145', '128', '141', '148', '117', '100', '149', '138', '129', '147'] 669.6296296296288
178 13.392592592592592 ['143', '136', '150', '142', '135', '145', '128', '141', '148', '117', '100', '149', '138', '129', '147'] 669.6296296296288
179 13.392592592592592 ['143', '136', '150', '142', '135', '145', '128', '141', '148', '117', '100', '149', '138', '129', '147'] 669.6296296296288
180 13.392592592592592 ['143', '136', '150', '142', '135', '145', '128', '141', '148', '117', '100', '149', '138', '129', '147'] 669.6296296296288
181 13.392592592592592 ['143', '136', '150', '142', '135', '145', '128', '141', '148', '117', '100', '149', '138', '129', '147'] 669.6296296296288
182 13.392592592592592 ['143', '136', '150', '142', '135', '145', '128', '141', '148', '117', '100', '149', '138', '129', '147'] 669.6296296296288
183 13.392592592592592 ['143', '136', '150', '142', '135', '145', '128', '141', '148', '117', '100', '149', '138', '129', '147'] 669.6296296296288
184 13.392592592592592 ['143', '136', '150', '142', '135', '145', '128', '141', '148', '117', '100', '149', '138', '129', '147'] 669.6296296296288
185 13.392592592592592 ['143', '136', '150', '142', '135', '145', '128', '141', '148', '117', '100', '149', '138', '129', '147'] 669.6296296296288
186 13.392592592592592 ['143', '136', '150', '142', '135', '145', '128', '141', '148', '117', '100', '149', '138', '129', '147'] 669.6296296296288
187 13.392592592592592 ['143', '136', '150', '142', '135', '145', '128', '141', '148', '117', '100', '149', '138', '129', '147'] 669.6296296296288
188 13.392592592592592 ['143', '136', '150', '142', '135', '145', '128', '141', '148', '117', '100', '149', '138', '129', '147'] 669.6296296296288
189 13.392592592592592 ['143', '136', '150', '142', '135', '145', '128', '141', '148', '117', '100', '149', '138', '129', '147'] 669.6296296296288
190 13.392592592592592 ['143', '136', '150', '142', '135', '145', '128', '141', '148', '117', '100', '149', '138', '129', '147'] 669.6296296296288
191 13.392592592592592 ['143', '136', '150', '142', '135', '145', '128', '141', '148', '117', '100', '149', '138', '129', '147'] 669.6296296296288
192 13.392592592592592 ['143', '136', '150', '142', '135', '145', '128', '141', '148', '117', '100', '149', '138', '129', '147'] 669.6296296296288
193 13.392592592592592 ['143', '136', '150', '142', '135', '145', '128', '141', '148', '117', '100', '149', '138', '129', '147'] 669.6296296296288
194 13.392592592592592 ['143', '136', '150', '142', '135', '145', '128', '141', '148', '117', '100', '149', '138', '129', '147'] 669.6296296296288
195 13.392592592592592 ['143', '136', '150', '142', '135', '145', '128', '141', '148', '117', '100', '149', '138', '129', '147'] 669.6296296296288
196 13.392592592592592 ['143', '136', '150', '142', '135', '145', '128', '141', '148', '117', '100', '149', '138', '129', '147'] 669.6296296296288
197 13.392592592592592 ['143', '136', '150', '142', '135', '145', '128', '141', '148', '117', '100', '149', '138', '129', '147'] 669.6296296296288
198 13.392592592592592 ['143', '136', '150', '142', '135', '145', '128', '141', '148', '117', '100', '149', '138', '129', '147'] 669.6296296296288
199 13.392592592592592 ['143', '136', '150', '142', '135', '145', '128', '141', '148', '117', '100', '149', '138', '129', '147'] 669.6296296296288
