0 23.574468085106382 ['1', '8', '9', '23', '47'] 1311.0638297872335
1 21.872340425531913 ['8', '42', '36', '23', '30'] 1254.3829787234038
2 21.872340425531913 ['8', '42', '36', '23', '30'] 1212.0851063829791
3 21.361702127659573 ['8', '30', '42', '28', '23'] 1177.6170212765965
4 20.851063829787233 ['8', '47', '30', '23', '28'] 1143.2340425531909
5 20.340425531914892 ['23', '8', '42', '43', '30'] 1109.9574468085102
6 20.340425531914892 ['23', '8', '42', '43', '30'] 1085.7872340425529
7 20.085106382978722 ['8', '30', '23', '43', '47'] 1061.0212765957444
8 20.085106382978722 ['8', '30', '23', '43', '47'] 1038.2978723404258
9 20.085106382978722 ['8', '30', '23', '43', '47'] 1020.0851063829786
10 19.829787234042552 ['30', '43', '12', '23', '47'] 1010.3829787234041
11 19.829787234042552 ['30', '43', '12', '23', '47'] 1005.2765957446798
12 19.829787234042552 ['30', '43', '12', '23', '47'] 1003.4893617021262
13 19.829787234042552 ['30', '43', '12', '23', '47'] 1001.9574468085093
14 19.829787234042552 ['30', '43', '12', '23', '47'] 999.1489361702113
15 19.829787234042552 ['30', '43', '12', '23', '47'] 995.3191489361693
16 19.829787234042552 ['30', '43', '12', '23', '47'] 991.4893617021277
17 19.829787234042552 ['30', '43', '12', '23', '47'] 991.4893617021277
18 19.829787234042552 ['30', '43', '12', '23', '47'] 991.4893617021277
19 19.829787234042552 ['30', '43', '12', '23', '47'] 991.4893617021277
20 19.829787234042552 ['30', '43', '12', '23', '47'] 991.4893617021277
21 19.829787234042552 ['30', '43', '12', '23', '47'] 991.4893617021277
22 19.829787234042552 ['30', '43', '12', '23', '47'] 991.4893617021277
23 19.829787234042552 ['30', '43', '12', '23', '47'] 991.4893617021277
24 19.829787234042552 ['30', '43', '12', '23', '47'] 991.4893617021277
25 19.829787234042552 ['30', '43', '12', '23', '47'] 991.4893617021277
26 19.829787234042552 ['30', '43', '12', '23', '47'] 991.4893617021277
27 19.829787234042552 ['30', '43', '12', '23', '47'] 991.4893617021277
28 19.829787234042552 ['30', '43', '12', '23', '47'] 991.4893617021277
29 19.829787234042552 ['30', '43', '12', '23', '47'] 991.4893617021277
30 19.829787234042552 ['30', '43', '12', '23', '47'] 991.4893617021277
31 19.829787234042552 ['30', '43', '12', '23', '47'] 991.4893617021277
32 19.829787234042552 ['30', '43', '12', '23', '47'] 991.4893617021277
33 19.829787234042552 ['30', '43', '12', '23', '47'] 991.4893617021277
34 19.829787234042552 ['30', '43', '12', '23', '47'] 991.4893617021277
35 19.829787234042552 ['30', '43', '12', '23', '47'] 991.4893617021277
36 19.829787234042552 ['30', '43', '12', '23', '47'] 991.4893617021277
37 19.829787234042552 ['30', '43', '12', '23', '47'] 991.4893617021277
38 19.829787234042552 ['30', '43', '12', '23', '47'] 991.4893617021277
39 19.829787234042552 ['30', '43', '12', '23', '47'] 991.4893617021277
40 19.829787234042552 ['30', '43', '12', '23', '47'] 991.4893617021277
41 19.829787234042552 ['30', '43', '12', '23', '47'] 991.4893617021277
42 19.829787234042552 ['30', '43', '12', '23', '47'] 991.4893617021277
43 19.829787234042552 ['30', '43', '12', '23', '47'] 991.4893617021277
44 19.829787234042552 ['30', '43', '12', '23', '47'] 991.4893617021277
45 19.829787234042552 ['30', '43', '12', '23', '47'] 991.4893617021277
46 19.829787234042552 ['30', '43', '12', '23', '47'] 991.4893617021277
47 19.829787234042552 ['30', '43', '12', '23', '47'] 991.4893617021277
48 19.829787234042552 ['30', '43', '12', '23', '47'] 991.4893617021277
49 19.829787234042552 ['30', '43', '12', '23', '47'] 991.4893617021277
50 19.829787234042552 ['30', '43', '12', '23', '47'] 991.4893617021277
51 19.829787234042552 ['30', '43', '12', '23', '47'] 991.4893617021277
52 19.829787234042552 ['30', '43', '12', '23', '47'] 991.4893617021277
53 19.829787234042552 ['30', '43', '12', '23', '47'] 991.4893617021277
54 19.829787234042552 ['30', '43', '12', '23', '47'] 991.4893617021277
55 19.829787234042552 ['30', '43', '12', '23', '47'] 991.4893617021277
56 19.829787234042552 ['30', '43', '12', '23', '47'] 991.4893617021277
57 19.829787234042552 ['30', '43', '12', '23', '47'] 991.4893617021277
58 19.829787234042552 ['30', '43', '12', '23', '47'] 991.4893617021277
59 19.829787234042552 ['30', '43', '12', '23', '47'] 991.4893617021277
60 19.829787234042552 ['30', '43', '12', '23', '47'] 991.4893617021277
61 19.829787234042552 ['30', '43', '12', '23', '47'] 991.4893617021277
62 19.829787234042552 ['30', '43', '12', '23', '47'] 991.4893617021277
63 19.829787234042552 ['30', '43', '12', '23', '47'] 991.4893617021277
64 19.829787234042552 ['30', '43', '12', '23', '47'] 991.4893617021277
65 19.829787234042552 ['30', '43', '12', '23', '47'] 991.4893617021277
66 19.829787234042552 ['30', '43', '12', '23', '47'] 991.4893617021277
67 19.829787234042552 ['30', '43', '12', '23', '47'] 991.4893617021277
68 19.829787234042552 ['30', '43', '12', '23', '47'] 991.4893617021277
69 19.829787234042552 ['30', '43', '12', '23', '47'] 991.4893617021277
70 19.829787234042552 ['30', '43', '12', '23', '47'] 991.4893617021277
71 19.829787234042552 ['30', '43', '12', '23', '47'] 991.4893617021277
72 19.829787234042552 ['30', '43', '12', '23', '47'] 991.4893617021277
73 19.829787234042552 ['30', '43', '12', '23', '47'] 991.4893617021277
74 19.829787234042552 ['30', '43', '12', '23', '47'] 991.4893617021277
75 19.829787234042552 ['30', '43', '12', '23', '47'] 991.4893617021277
76 19.829787234042552 ['30', '43', '12', '23', '47'] 991.4893617021277
77 19.829787234042552 ['30', '43', '12', '23', '47'] 991.4893617021277
78 19.829787234042552 ['30', '43', '12', '23', '47'] 991.4893617021277
79 19.829787234042552 ['30', '43', '12', '23', '47'] 991.4893617021277
80 19.829787234042552 ['30', '43', '12', '23', '47'] 991.4893617021277
81 19.829787234042552 ['30', '43', '12', '23', '47'] 991.4893617021277
82 19.829787234042552 ['30', '43', '12', '23', '47'] 991.4893617021277
83 19.829787234042552 ['30', '43', '12', '23', '47'] 991.4893617021277
84 19.829787234042552 ['30', '43', '12', '23', '47'] 991.4893617021277
85 19.829787234042552 ['30', '43', '12', '23', '47'] 991.4893617021277
86 19.829787234042552 ['30', '43', '12', '23', '47'] 991.4893617021277
87 19.829787234042552 ['30', '43', '12', '23', '47'] 991.4893617021277
88 19.829787234042552 ['30', '43', '12', '23', '47'] 991.4893617021277
89 19.829787234042552 ['30', '43', '12', '23', '47'] 991.4893617021277
90 19.829787234042552 ['30', '43', '12', '23', '47'] 991.4893617021277
91 19.829787234042552 ['30', '43', '12', '23', '47'] 991.4893617021277
92 19.829787234042552 ['30', '43', '12', '23', '47'] 991.4893617021277
93 19.829787234042552 ['30', '43', '12', '23', '47'] 991.4893617021277
94 19.829787234042552 ['30', '43', '12', '23', '47'] 991.4893617021277
95 19.829787234042552 ['30', '43', '12', '23', '47'] 991.4893617021277
96 19.829787234042552 ['30', '43', '12', '23', '47'] 991.4893617021277
97 19.829787234042552 ['30', '43', '12', '23', '47'] 991.4893617021277
98 19.829787234042552 ['30', '43', '12', '23', '47'] 991.4893617021277
99 19.829787234042552 ['30', '43', '12', '23', '47'] 991.4893617021277
100 19.829787234042552 ['30', '43', '12', '23', '47'] 991.4893617021277
101 19.829787234042552 ['30', '43', '12', '23', '47'] 991.4893617021277
102 19.829787234042552 ['30', '43', '12', '23', '47'] 991.4893617021277
103 19.829787234042552 ['30', '43', '12', '23', '47'] 991.4893617021277
104 19.829787234042552 ['30', '43', '12', '23', '47'] 991.4893617021277
105 19.829787234042552 ['30', '43', '12', '23', '47'] 991.4893617021277
106 19.829787234042552 ['30', '43', '12', '23', '47'] 991.4893617021277
107 19.829787234042552 ['30', '43', '12', '23', '47'] 991.4893617021277
108 19.829787234042552 ['30', '43', '12', '23', '47'] 991.4893617021277
109 19.829787234042552 ['30', '43', '12', '23', '47'] 991.4893617021277
110 19.829787234042552 ['30', '43', '12', '23', '47'] 991.4893617021277
111 19.829787234042552 ['30', '43', '12', '23', '47'] 991.4893617021277
112 19.829787234042552 ['30', '43', '12', '23', '47'] 991.4893617021277
113 19.829787234042552 ['30', '43', '12', '23', '47'] 991.4893617021277
114 19.829787234042552 ['30', '43', '12', '23', '47'] 991.4893617021277
115 19.829787234042552 ['30', '43', '12', '23', '47'] 991.4893617021277
116 19.829787234042552 ['30', '43', '12', '23', '47'] 991.4893617021277
117 19.829787234042552 ['30', '43', '12', '23', '47'] 991.4893617021277
118 19.829787234042552 ['30', '43', '12', '23', '47'] 991.4893617021277
119 19.829787234042552 ['30', '43', '12', '23', '47'] 991.4893617021277
120 19.829787234042552 ['30', '43', '12', '23', '47'] 991.4893617021277
121 19.829787234042552 ['30', '43', '12', '23', '47'] 991.4893617021277
122 19.829787234042552 ['30', '43', '12', '23', '47'] 991.4893617021277
123 19.829787234042552 ['30', '43', '12', '23', '47'] 991.4893617021277
124 19.829787234042552 ['30', '43', '12', '23', '47'] 991.4893617021277
125 19.829787234042552 ['30', '43', '12', '23', '47'] 991.4893617021277
126 19.829787234042552 ['30', '43', '12', '23', '47'] 991.4893617021277
127 19.829787234042552 ['30', '43', '12', '23', '47'] 991.4893617021277
128 19.829787234042552 ['30', '43', '12', '23', '47'] 991.4893617021277
129 19.829787234042552 ['30', '43', '12', '23', '47'] 991.4893617021277
130 19.829787234042552 ['30', '43', '12', '23', '47'] 991.4893617021277
131 19.829787234042552 ['30', '43', '12', '23', '47'] 991.4893617021277
132 19.829787234042552 ['30', '43', '12', '23', '47'] 991.4893617021277
133 19.829787234042552 ['30', '43', '12', '23', '47'] 991.4893617021277
134 19.829787234042552 ['30', '43', '12', '23', '47'] 991.4893617021277
135 19.829787234042552 ['30', '43', '12', '23', '47'] 991.4893617021277
136 19.829787234042552 ['30', '43', '12', '23', '47'] 991.4893617021277
137 19.829787234042552 ['30', '43', '12', '23', '47'] 991.4893617021277
138 19.829787234042552 ['30', '43', '12', '23', '47'] 991.4893617021277
139 19.829787234042552 ['30', '43', '12', '23', '47'] 991.4893617021277
140 19.829787234042552 ['30', '43', '12', '23', '47'] 991.4893617021277
141 19.829787234042552 ['30', '43', '12', '23', '47'] 991.4893617021277
142 19.829787234042552 ['30', '43', '12', '23', '47'] 991.4893617021277
143 19.829787234042552 ['30', '43', '12', '23', '47'] 991.4893617021277
144 19.829787234042552 ['30', '43', '12', '23', '47'] 991.4893617021277
145 19.829787234042552 ['30', '43', '12', '23', '47'] 991.4893617021277
146 19.829787234042552 ['30', '43', '12', '23', '47'] 991.4893617021277
147 19.829787234042552 ['30', '43', '12', '23', '47'] 991.4893617021277
148 19.829787234042552 ['30', '43', '12', '23', '47'] 991.4893617021277
149 19.829787234042552 ['30', '43', '12', '23', '47'] 991.4893617021277
150 19.829787234042552 ['30', '43', '12', '23', '47'] 991.4893617021277
151 19.829787234042552 ['30', '43', '12', '23', '47'] 991.4893617021277
152 19.829787234042552 ['30', '43', '12', '23', '47'] 991.4893617021277
153 19.829787234042552 ['30', '43', '12', '23', '47'] 991.4893617021277
154 19.829787234042552 ['30', '43', '12', '23', '47'] 991.4893617021277
155 19.829787234042552 ['30', '43', '12', '23', '47'] 991.4893617021277
156 19.829787234042552 ['30', '43', '12', '23', '47'] 991.4893617021277
157 19.829787234042552 ['30', '43', '12', '23', '47'] 991.4893617021277
158 19.829787234042552 ['30', '43', '12', '23', '47'] 991.4893617021277
159 19.829787234042552 ['30', '43', '12', '23', '47'] 991.4893617021277
160 19.829787234042552 ['30', '43', '12', '23', '47'] 991.4893617021277
161 19.829787234042552 ['30', '43', '12', '23', '47'] 991.4893617021277
162 19.829787234042552 ['30', '43', '12', '23', '47'] 991.4893617021277
163 19.829787234042552 ['30', '43', '12', '23', '47'] 991.4893617021277
164 19.829787234042552 ['30', '43', '12', '23', '47'] 991.4893617021277
165 19.829787234042552 ['30', '43', '12', '23', '47'] 991.4893617021277
166 19.829787234042552 ['30', '43', '12', '23', '47'] 991.4893617021277
167 19.829787234042552 ['30', '43', '12', '23', '47'] 991.4893617021277
168 19.829787234042552 ['30', '43', '12', '23', '47'] 991.4893617021277
169 19.829787234042552 ['30', '43', '12', '23', '47'] 991.4893617021277
170 19.829787234042552 ['30', '43', '12', '23', '47'] 991.4893617021277
171 19.829787234042552 ['30', '43', '12', '23', '47'] 991.4893617021277
172 19.829787234042552 ['30', '43', '12', '23', '47'] 991.4893617021277
173 19.829787234042552 ['30', '43', '12', '23', '47'] 991.4893617021277
174 19.829787234042552 ['30', '43', '12', '23', '47'] 991.4893617021277
175 19.829787234042552 ['30', '43', '12', '23', '47'] 991.4893617021277
176 19.829787234042552 ['30', '43', '12', '23', '47'] 991.4893617021277
177 19.829787234042552 ['30', '43', '12', '23', '47'] 991.4893617021277
178 19.829787234042552 ['30', '43', '12', '23', '47'] 991.4893617021277
179 19.829787234042552 ['30', '43', '12', '23', '47'] 991.4893617021277
180 19.829787234042552 ['30', '43', '12', '23', '47'] 991.4893617021277
181 19.829787234042552 ['30', '43', '12', '23', '47'] 991.4893617021277
182 19.829787234042552 ['30', '43', '12', '23', '47'] 991.4893617021277
183 19.829787234042552 ['30', '43', '12', '23', '47'] 991.4893617021277
184 19.829787234042552 ['30', '43', '12', '23', '47'] 991.4893617021277
185 19.829787234042552 ['30', '43', '12', '23', '47'] 991.4893617021277
186 19.829787234042552 ['30', '43', '12', '23', '47'] 991.4893617021277
187 19.829787234042552 ['30', '43', '12', '23', '47'] 991.4893617021277
188 19.829787234042552 ['30', '43', '12', '23', '47'] 991.4893617021277
189 19.829787234042552 ['30', '43', '12', '23', '47'] 991.4893617021277
190 19.829787234042552 ['30', '43', '12', '23', '47'] 991.4893617021277
191 19.829787234042552 ['30', '43', '12', '23', '47'] 991.4893617021277
192 19.829787234042552 ['30', '43', '12', '23', '47'] 991.4893617021277
193 19.829787234042552 ['30', '43', '12', '23', '47'] 991.4893617021277
194 19.829787234042552 ['30', '43', '12', '23', '47'] 991.4893617021277
195 19.829787234042552 ['30', '43', '12', '23', '47'] 991.4893617021277
196 19.829787234042552 ['30', '43', '12', '23', '47'] 991.4893617021277
197 19.829787234042552 ['30', '43', '12', '23', '47'] 991.4893617021277
198 19.829787234042552 ['30', '43', '12', '23', '47'] 991.4893617021277
199 19.829787234042552 ['30', '43', '12', '23', '47'] 991.4893617021277
