0 5.131358024691361 ['49', '124', '144', '81', '93', '140', '17', '103', '59', '75', '23', '139', '24', '10', '85'] 262.1383950617285
1 5.131358024691361 ['49', '124', '144', '81', '93', '140', '17', '103', '59', '75', '23', '139', '24', '10', '85'] 260.44111111111124
2 5.12666666666667 ['94', '95', '119', '86', '121', '115', '99', '131', '5', '85', '136', '120', '54', '145', '133'] 259.3276543209878
3 5.083580246913586 ['102', '137', '141', '101', '8', '19', '129', '110', '21', '16', '56', '94', '26', '120', '107'] 258.5706172839508
4 5.001234567901239 ['94', '21', '101', '120', '19', '56', '110', '129', '141', '137', '102', '107', '132', '128', '38'] 257.50333333333356
5 5.001234567901239 ['94', '21', '101', '120', '19', '56', '110', '129', '141', '137', '102', '107', '132', '128', '38'] 256.6060493827161
6 5.001234567901239 ['94', '21', '101', '120', '19', '56', '110', '129', '141', '137', '102', '107', '132', '128', '38'] 255.54111111111123
7 5.001234567901239 ['94', '21', '101', '120', '19', '56', '110', '129', '141', '137', '102', '107', '132', '128', '38'] 254.61753086419765
8 4.97740740740741 ['87', '38', '136', '120', '47', '137', '124', '109', '93', '79', '133', '149', '103', '83', '102'] 253.62975308641987
9 4.97740740740741 ['87', '38', '136', '120', '47', '137', '124', '109', '93', '79', '133', '149', '103', '83', '102'] 252.94617283950635
10 4.966790123456793 ['132', '101', '111', '133', '141', '56', '17', '100', '94', '127', '99', '109', '120', '142', '102'] 252.17308641975328
11 4.958518518518521 ['85', '132', '120', '101', '111', '140', '141', '7', '143', '19', '139', '137', '102', '94', '149'] 251.25938271604957
12 4.94666666666667 ['137', '101', '132', '141', '142', '94', '17', '109', '19', '85', '95', '124', '120', '93', '140'] 250.29604938271618
13 4.938641975308645 ['140', '141', '101', '94', '120', '132', '111', '102', '7', '137', '124', '85', '100', '51', '139'] 249.30012345679026
14 4.922716049382718 ['101', '143', '111', '102', '120', '141', '149', '132', '94', '140', '103', '137', '56', '19', '139'] 248.682962962963
15 4.890493827160497 ['94', '132', '120', '102', '140', '109', '124', '141', '137', '133', '142', '111', '103', '149', '101'] 247.93333333333345
16 4.890493827160497 ['94', '132', '120', '102', '140', '109', '124', '141', '137', '133', '142', '111', '103', '149', '101'] 247.0876543209878
17 4.861234567901235 ['132', '149', '101', '111', '102', '140', '94', '141', '17', '120', '137', '139', '103', '100', '142'] 246.2266666666668
18 4.861234567901235 ['132', '149', '101', '111', '102', '140', '94', '141', '17', '120', '137', '139', '103', '100', '142'] 245.5419753086421
19 4.861234567901235 ['132', '149', '101', '111', '102', '140', '94', '141', '17', '120', '137', '139', '103', '100', '142'] 244.95728395061727
20 4.854197530864197 ['132', '140', '111', '120', '94', '17', '141', '102', '142', '101', '124', '137', '100', '139', '144'] 244.49024691358034
21 4.854197530864197 ['132', '140', '111', '120', '94', '17', '141', '102', '142', '101', '124', '137', '100', '139', '144'] 243.94074074074084
22 4.854197530864197 ['132', '140', '111', '120', '94', '17', '141', '102', '142', '101', '124', '137', '100', '139', '144'] 243.57024691358018
23 4.854197530864197 ['132', '140', '111', '120', '94', '17', '141', '102', '142', '101', '124', '137', '100', '139', '144'] 243.2974074074075
24 4.854197530864197 ['132', '140', '111', '120', '94', '17', '141', '102', '142', '101', '124', '137', '100', '139', '144'] 243.17024691358043
25 4.854197530864197 ['132', '140', '111', '120', '94', '17', '141', '102', '142', '101', '124', '137', '100', '139', '144'] 243.03629629629657
26 4.854197530864197 ['132', '140', '111', '120', '94', '17', '141', '102', '142', '101', '124', '137', '100', '139', '144'] 242.95617283950656
27 4.841728395061728 ['94', '140', '124', '17', '142', '101', '120', '141', '102', '132', '137', '139', '103', '149', '144'] 242.86629629629664
28 4.841728395061728 ['94', '140', '124', '17', '142', '101', '120', '141', '102', '132', '137', '139', '103', '149', '144'] 242.77037037037059
29 4.841728395061728 ['94', '140', '124', '17', '142', '101', '120', '141', '102', '132', '137', '139', '103', '149', '144'] 242.69629629629648
30 4.841728395061728 ['94', '140', '124', '17', '142', '101', '120', '141', '102', '132', '137', '139', '103', '149', '144'] 242.61222222222236
31 4.841728395061728 ['94', '140', '124', '17', '142', '101', '120', '141', '102', '132', '137', '139', '103', '149', '144'] 242.3675308641974
32 4.841728395061728 ['94', '140', '124', '17', '142', '101', '120', '141', '102', '132', '137', '139', '103', '149', '144'] 242.09592592592568
33 4.841728395061728 ['94', '140', '124', '17', '142', '101', '120', '141', '102', '132', '137', '139', '103', '149', '144'] 242.08641975308618
34 4.841728395061728 ['94', '140', '124', '17', '142', '101', '120', '141', '102', '132', '137', '139', '103', '149', '144'] 242.08641975308618
35 4.841728395061728 ['94', '140', '124', '17', '142', '101', '120', '141', '102', '132', '137', '139', '103', '149', '144'] 242.08641975308618
36 4.841728395061728 ['94', '140', '124', '17', '142', '101', '120', '141', '102', '132', '137', '139', '103', '149', '144'] 242.08641975308618
37 4.841728395061728 ['94', '140', '124', '17', '142', '101', '120', '141', '102', '132', '137', '139', '103', '149', '144'] 242.08641975308618
38 4.841728395061728 ['94', '140', '124', '17', '142', '101', '120', '141', '102', '132', '137', '139', '103', '149', '144'] 242.08641975308618
39 4.841728395061728 ['94', '140', '124', '17', '142', '101', '120', '141', '102', '132', '137', '139', '103', '149', '144'] 242.08641975308618
40 4.841728395061728 ['94', '140', '124', '17', '142', '101', '120', '141', '102', '132', '137', '139', '103', '149', '144'] 242.08641975308618
41 4.841728395061728 ['94', '140', '124', '17', '142', '101', '120', '141', '102', '132', '137', '139', '103', '149', '144'] 242.08641975308618
42 4.841728395061728 ['94', '140', '124', '17', '142', '101', '120', '141', '102', '132', '137', '139', '103', '149', '144'] 242.08641975308618
43 4.841728395061728 ['94', '140', '124', '17', '142', '101', '120', '141', '102', '132', '137', '139', '103', '149', '144'] 242.08641975308618
44 4.841728395061728 ['94', '140', '124', '17', '142', '101', '120', '141', '102', '132', '137', '139', '103', '149', '144'] 242.08641975308618
45 4.841728395061728 ['94', '140', '124', '17', '142', '101', '120', '141', '102', '132', '137', '139', '103', '149', '144'] 242.08641975308618
46 4.841728395061728 ['94', '140', '124', '17', '142', '101', '120', '141', '102', '132', '137', '139', '103', '149', '144'] 242.08641975308618
47 4.841728395061728 ['94', '140', '124', '17', '142', '101', '120', '141', '102', '132', '137', '139', '103', '149', '144'] 242.08641975308618
48 4.841728395061728 ['94', '140', '124', '17', '142', '101', '120', '141', '102', '132', '137', '139', '103', '149', '144'] 242.08641975308618
49 4.841728395061728 ['94', '140', '124', '17', '142', '101', '120', '141', '102', '132', '137', '139', '103', '149', '144'] 242.08641975308618
50 4.841728395061728 ['94', '140', '124', '17', '142', '101', '120', '141', '102', '132', '137', '139', '103', '149', '144'] 242.08641975308618
51 4.841728395061728 ['94', '140', '124', '17', '142', '101', '120', '141', '102', '132', '137', '139', '103', '149', '144'] 242.08641975308618
52 4.841728395061728 ['94', '140', '124', '17', '142', '101', '120', '141', '102', '132', '137', '139', '103', '149', '144'] 242.08641975308618
53 4.841728395061728 ['94', '140', '124', '17', '142', '101', '120', '141', '102', '132', '137', '139', '103', '149', '144'] 242.08641975308618
54 4.841728395061728 ['94', '140', '124', '17', '142', '101', '120', '141', '102', '132', '137', '139', '103', '149', '144'] 242.08641975308618
55 4.841728395061728 ['94', '140', '124', '17', '142', '101', '120', '141', '102', '132', '137', '139', '103', '149', '144'] 242.08641975308618
56 4.841728395061728 ['94', '140', '124', '17', '142', '101', '120', '141', '102', '132', '137', '139', '103', '149', '144'] 242.08641975308618
57 4.841728395061728 ['94', '140', '124', '17', '142', '101', '120', '141', '102', '132', '137', '139', '103', '149', '144'] 242.08641975308618
58 4.841728395061728 ['94', '140', '124', '17', '142', '101', '120', '141', '102', '132', '137', '139', '103', '149', '144'] 242.08641975308618
59 4.841728395061728 ['94', '140', '124', '17', '142', '101', '120', '141', '102', '132', '137', '139', '103', '149', '144'] 242.08641975308618
60 4.841728395061728 ['94', '140', '124', '17', '142', '101', '120', '141', '102', '132', '137', '139', '103', '149', '144'] 242.08641975308618
61 4.841728395061728 ['94', '140', '124', '17', '142', '101', '120', '141', '102', '132', '137', '139', '103', '149', '144'] 242.08641975308618
62 4.841728395061728 ['94', '140', '124', '17', '142', '101', '120', '141', '102', '132', '137', '139', '103', '149', '144'] 242.08641975308618
63 4.841728395061728 ['94', '140', '124', '17', '142', '101', '120', '141', '102', '132', '137', '139', '103', '149', '144'] 242.08641975308618
64 4.841728395061728 ['94', '140', '124', '17', '142', '101', '120', '141', '102', '132', '137', '139', '103', '149', '144'] 242.08641975308618
65 4.841728395061728 ['94', '140', '124', '17', '142', '101', '120', '141', '102', '132', '137', '139', '103', '149', '144'] 242.08641975308618
66 4.841728395061728 ['94', '140', '124', '17', '142', '101', '120', '141', '102', '132', '137', '139', '103', '149', '144'] 242.08641975308618
67 4.841728395061728 ['94', '140', '124', '17', '142', '101', '120', '141', '102', '132', '137', '139', '103', '149', '144'] 242.08641975308618
68 4.841728395061728 ['94', '140', '124', '17', '142', '101', '120', '141', '102', '132', '137', '139', '103', '149', '144'] 242.08641975308618
69 4.841728395061728 ['94', '140', '124', '17', '142', '101', '120', '141', '102', '132', '137', '139', '103', '149', '144'] 242.08641975308618
70 4.841728395061728 ['94', '140', '124', '17', '142', '101', '120', '141', '102', '132', '137', '139', '103', '149', '144'] 242.08641975308618
71 4.841728395061728 ['94', '140', '124', '17', '142', '101', '120', '141', '102', '132', '137', '139', '103', '149', '144'] 242.08641975308618
72 4.841728395061728 ['94', '140', '124', '17', '142', '101', '120', '141', '102', '132', '137', '139', '103', '149', '144'] 242.08641975308618
73 4.841728395061728 ['94', '140', '124', '17', '142', '101', '120', '141', '102', '132', '137', '139', '103', '149', '144'] 242.08641975308618
74 4.841728395061728 ['94', '140', '124', '17', '142', '101', '120', '141', '102', '132', '137', '139', '103', '149', '144'] 242.08641975308618
75 4.841728395061728 ['94', '140', '124', '17', '142', '101', '120', '141', '102', '132', '137', '139', '103', '149', '144'] 242.08641975308618
76 4.841728395061728 ['94', '140', '124', '17', '142', '101', '120', '141', '102', '132', '137', '139', '103', '149', '144'] 242.08641975308618
77 4.841728395061728 ['94', '140', '124', '17', '142', '101', '120', '141', '102', '132', '137', '139', '103', '149', '144'] 242.08641975308618
78 4.841728395061728 ['94', '140', '124', '17', '142', '101', '120', '141', '102', '132', '137', '139', '103', '149', '144'] 242.08641975308618
79 4.841728395061728 ['94', '140', '124', '17', '142', '101', '120', '141', '102', '132', '137', '139', '103', '149', '144'] 242.08641975308618
80 4.841728395061728 ['94', '140', '124', '17', '142', '101', '120', '141', '102', '132', '137', '139', '103', '149', '144'] 242.08641975308618
81 4.841728395061728 ['94', '140', '124', '17', '142', '101', '120', '141', '102', '132', '137', '139', '103', '149', '144'] 242.08641975308618
82 4.841728395061728 ['94', '140', '124', '17', '142', '101', '120', '141', '102', '132', '137', '139', '103', '149', '144'] 242.08641975308618
83 4.841728395061728 ['94', '140', '124', '17', '142', '101', '120', '141', '102', '132', '137', '139', '103', '149', '144'] 242.08641975308618
84 4.841728395061728 ['94', '140', '124', '17', '142', '101', '120', '141', '102', '132', '137', '139', '103', '149', '144'] 242.08641975308618
85 4.841728395061728 ['94', '140', '124', '17', '142', '101', '120', '141', '102', '132', '137', '139', '103', '149', '144'] 242.08641975308618
86 4.841728395061728 ['94', '140', '124', '17', '142', '101', '120', '141', '102', '132', '137', '139', '103', '149', '144'] 242.08641975308618
87 4.841728395061728 ['94', '140', '124', '17', '142', '101', '120', '141', '102', '132', '137', '139', '103', '149', '144'] 242.08641975308618
88 4.841728395061728 ['94', '140', '124', '17', '142', '101', '120', '141', '102', '132', '137', '139', '103', '149', '144'] 242.08641975308618
89 4.841728395061728 ['94', '140', '124', '17', '142', '101', '120', '141', '102', '132', '137', '139', '103', '149', '144'] 242.08641975308618
90 4.841728395061728 ['94', '140', '124', '17', '142', '101', '120', '141', '102', '132', '137', '139', '103', '149', '144'] 242.08641975308618
91 4.841728395061728 ['94', '140', '124', '17', '142', '101', '120', '141', '102', '132', '137', '139', '103', '149', '144'] 242.08641975308618
92 4.841728395061728 ['94', '140', '124', '17', '142', '101', '120', '141', '102', '132', '137', '139', '103', '149', '144'] 242.08641975308618
93 4.841728395061728 ['94', '140', '124', '17', '142', '101', '120', '141', '102', '132', '137', '139', '103', '149', '144'] 242.08641975308618
94 4.841728395061728 ['94', '140', '124', '17', '142', '101', '120', '141', '102', '132', '137', '139', '103', '149', '144'] 242.08641975308618
95 4.841728395061728 ['94', '140', '124', '17', '142', '101', '120', '141', '102', '132', '137', '139', '103', '149', '144'] 242.08641975308618
96 4.841728395061728 ['94', '140', '124', '17', '142', '101', '120', '141', '102', '132', '137', '139', '103', '149', '144'] 242.08641975308618
97 4.841728395061728 ['94', '140', '124', '17', '142', '101', '120', '141', '102', '132', '137', '139', '103', '149', '144'] 242.08641975308618
98 4.841728395061728 ['94', '140', '124', '17', '142', '101', '120', '141', '102', '132', '137', '139', '103', '149', '144'] 242.08641975308618
99 4.841728395061728 ['94', '140', '124', '17', '142', '101', '120', '141', '102', '132', '137', '139', '103', '149', '144'] 242.08641975308618
100 4.841728395061728 ['94', '140', '124', '17', '142', '101', '120', '141', '102', '132', '137', '139', '103', '149', '144'] 242.08641975308618
101 4.841728395061728 ['94', '140', '124', '17', '142', '101', '120', '141', '102', '132', '137', '139', '103', '149', '144'] 242.08641975308618
102 4.841728395061728 ['94', '140', '124', '17', '142', '101', '120', '141', '102', '132', '137', '139', '103', '149', '144'] 242.08641975308618
103 4.841728395061728 ['94', '140', '124', '17', '142', '101', '120', '141', '102', '132', '137', '139', '103', '149', '144'] 242.08641975308618
104 4.841728395061728 ['94', '140', '124', '17', '142', '101', '120', '141', '102', '132', '137', '139', '103', '149', '144'] 242.08641975308618
105 4.841728395061728 ['94', '140', '124', '17', '142', '101', '120', '141', '102', '132', '137', '139', '103', '149', '144'] 242.08641975308618
106 4.841728395061728 ['94', '140', '124', '17', '142', '101', '120', '141', '102', '132', '137', '139', '103', '149', '144'] 242.08641975308618
107 4.841728395061728 ['94', '140', '124', '17', '142', '101', '120', '141', '102', '132', '137', '139', '103', '149', '144'] 242.08641975308618
108 4.841728395061728 ['94', '140', '124', '17', '142', '101', '120', '141', '102', '132', '137', '139', '103', '149', '144'] 242.08641975308618
109 4.841728395061728 ['94', '140', '124', '17', '142', '101', '120', '141', '102', '132', '137', '139', '103', '149', '144'] 242.08641975308618
110 4.841728395061728 ['94', '140', '124', '17', '142', '101', '120', '141', '102', '132', '137', '139', '103', '149', '144'] 242.08641975308618
111 4.841728395061728 ['94', '140', '124', '17', '142', '101', '120', '141', '102', '132', '137', '139', '103', '149', '144'] 242.08641975308618
112 4.841728395061728 ['94', '140', '124', '17', '142', '101', '120', '141', '102', '132', '137', '139', '103', '149', '144'] 242.08641975308618
113 4.841728395061728 ['94', '140', '124', '17', '142', '101', '120', '141', '102', '132', '137', '139', '103', '149', '144'] 242.08641975308618
114 4.841728395061728 ['94', '140', '124', '17', '142', '101', '120', '141', '102', '132', '137', '139', '103', '149', '144'] 242.08641975308618
115 4.841728395061728 ['94', '140', '124', '17', '142', '101', '120', '141', '102', '132', '137', '139', '103', '149', '144'] 242.08641975308618
116 4.841728395061728 ['94', '140', '124', '17', '142', '101', '120', '141', '102', '132', '137', '139', '103', '149', '144'] 242.08641975308618
117 4.841728395061728 ['94', '140', '124', '17', '142', '101', '120', '141', '102', '132', '137', '139', '103', '149', '144'] 242.08641975308618
118 4.841728395061728 ['94', '140', '124', '17', '142', '101', '120', '141', '102', '132', '137', '139', '103', '149', '144'] 242.08641975308618
119 4.841728395061728 ['94', '140', '124', '17', '142', '101', '120', '141', '102', '132', '137', '139', '103', '149', '144'] 242.08641975308618
120 4.841728395061728 ['94', '140', '124', '17', '142', '101', '120', '141', '102', '132', '137', '139', '103', '149', '144'] 242.08641975308618
121 4.841728395061728 ['94', '140', '124', '17', '142', '101', '120', '141', '102', '132', '137', '139', '103', '149', '144'] 242.08641975308618
122 4.841728395061728 ['94', '140', '124', '17', '142', '101', '120', '141', '102', '132', '137', '139', '103', '149', '144'] 242.08641975308618
123 4.841728395061728 ['94', '140', '124', '17', '142', '101', '120', '141', '102', '132', '137', '139', '103', '149', '144'] 242.08641975308618
124 4.841728395061728 ['94', '140', '124', '17', '142', '101', '120', '141', '102', '132', '137', '139', '103', '149', '144'] 242.08641975308618
125 4.841728395061728 ['94', '140', '124', '17', '142', '101', '120', '141', '102', '132', '137', '139', '103', '149', '144'] 242.08641975308618
126 4.841728395061728 ['94', '140', '124', '17', '142', '101', '120', '141', '102', '132', '137', '139', '103', '149', '144'] 242.08641975308618
127 4.841728395061728 ['94', '140', '124', '17', '142', '101', '120', '141', '102', '132', '137', '139', '103', '149', '144'] 242.08641975308618
128 4.841728395061728 ['94', '140', '124', '17', '142', '101', '120', '141', '102', '132', '137', '139', '103', '149', '144'] 242.08641975308618
129 4.841728395061728 ['94', '140', '124', '17', '142', '101', '120', '141', '102', '132', '137', '139', '103', '149', '144'] 242.08641975308618
130 4.841728395061728 ['94', '140', '124', '17', '142', '101', '120', '141', '102', '132', '137', '139', '103', '149', '144'] 242.08641975308618
131 4.841728395061728 ['94', '140', '124', '17', '142', '101', '120', '141', '102', '132', '137', '139', '103', '149', '144'] 242.08641975308618
132 4.841728395061728 ['94', '140', '124', '17', '142', '101', '120', '141', '102', '132', '137', '139', '103', '149', '144'] 242.08641975308618
133 4.841728395061728 ['94', '140', '124', '17', '142', '101', '120', '141', '102', '132', '137', '139', '103', '149', '144'] 242.08641975308618
134 4.841728395061728 ['94', '140', '124', '17', '142', '101', '120', '141', '102', '132', '137', '139', '103', '149', '144'] 242.08641975308618
135 4.841728395061728 ['94', '140', '124', '17', '142', '101', '120', '141', '102', '132', '137', '139', '103', '149', '144'] 242.08641975308618
136 4.841728395061728 ['94', '140', '124', '17', '142', '101', '120', '141', '102', '132', '137', '139', '103', '149', '144'] 242.08641975308618
137 4.841728395061728 ['94', '140', '124', '17', '142', '101', '120', '141', '102', '132', '137', '139', '103', '149', '144'] 242.08641975308618
138 4.841728395061728 ['94', '140', '124', '17', '142', '101', '120', '141', '102', '132', '137', '139', '103', '149', '144'] 242.08641975308618
139 4.841728395061728 ['94', '140', '124', '17', '142', '101', '120', '141', '102', '132', '137', '139', '103', '149', '144'] 242.08641975308618
140 4.841728395061728 ['94', '140', '124', '17', '142', '101', '120', '141', '102', '132', '137', '139', '103', '149', '144'] 242.08641975308618
141 4.841728395061728 ['94', '140', '124', '17', '142', '101', '120', '141', '102', '132', '137', '139', '103', '149', '144'] 242.08641975308618
142 4.841728395061728 ['94', '140', '124', '17', '142', '101', '120', '141', '102', '132', '137', '139', '103', '149', '144'] 242.08641975308618
143 4.841728395061728 ['94', '140', '124', '17', '142', '101', '120', '141', '102', '132', '137', '139', '103', '149', '144'] 242.08641975308618
144 4.841728395061728 ['94', '140', '124', '17', '142', '101', '120', '141', '102', '132', '137', '139', '103', '149', '144'] 242.08641975308618
145 4.841728395061728 ['94', '140', '124', '17', '142', '101', '120', '141', '102', '132', '137', '139', '103', '149', '144'] 242.08641975308618
146 4.841728395061728 ['94', '140', '124', '17', '142', '101', '120', '141', '102', '132', '137', '139', '103', '149', '144'] 242.08641975308618
147 4.841728395061728 ['94', '140', '124', '17', '142', '101', '120', '141', '102', '132', '137', '139', '103', '149', '144'] 242.08641975308618
148 4.841728395061728 ['94', '140', '124', '17', '142', '101', '120', '141', '102', '132', '137', '139', '103', '149', '144'] 242.08641975308618
149 4.841728395061728 ['94', '140', '124', '17', '142', '101', '120', '141', '102', '132', '137', '139', '103', '149', '144'] 242.08641975308618
150 4.841728395061728 ['94', '140', '124', '17', '142', '101', '120', '141', '102', '132', '137', '139', '103', '149', '144'] 242.08641975308618
151 4.841728395061728 ['94', '140', '124', '17', '142', '101', '120', '141', '102', '132', '137', '139', '103', '149', '144'] 242.08641975308618
152 4.841728395061728 ['94', '140', '124', '17', '142', '101', '120', '141', '102', '132', '137', '139', '103', '149', '144'] 242.08641975308618
153 4.841728395061728 ['94', '140', '124', '17', '142', '101', '120', '141', '102', '132', '137', '139', '103', '149', '144'] 242.08641975308618
154 4.841728395061728 ['94', '140', '124', '17', '142', '101', '120', '141', '102', '132', '137', '139', '103', '149', '144'] 242.08641975308618
155 4.841728395061728 ['94', '140', '124', '17', '142', '101', '120', '141', '102', '132', '137', '139', '103', '149', '144'] 242.08641975308618
156 4.841728395061728 ['94', '140', '124', '17', '142', '101', '120', '141', '102', '132', '137', '139', '103', '149', '144'] 242.08641975308618
157 4.841728395061728 ['94', '140', '124', '17', '142', '101', '120', '141', '102', '132', '137', '139', '103', '149', '144'] 242.08641975308618
158 4.841728395061728 ['94', '140', '124', '17', '142', '101', '120', '141', '102', '132', '137', '139', '103', '149', '144'] 242.08641975308618
159 4.841728395061728 ['94', '140', '124', '17', '142', '101', '120', '141', '102', '132', '137', '139', '103', '149', '144'] 242.08641975308618
160 4.841728395061728 ['94', '140', '124', '17', '142', '101', '120', '141', '102', '132', '137', '139', '103', '149', '144'] 242.08641975308618
161 4.841728395061728 ['94', '140', '124', '17', '142', '101', '120', '141', '102', '132', '137', '139', '103', '149', '144'] 242.08641975308618
162 4.841728395061728 ['94', '140', '124', '17', '142', '101', '120', '141', '102', '132', '137', '139', '103', '149', '144'] 242.08641975308618
163 4.841728395061728 ['94', '140', '124', '17', '142', '101', '120', '141', '102', '132', '137', '139', '103', '149', '144'] 242.08641975308618
164 4.841728395061728 ['94', '140', '124', '17', '142', '101', '120', '141', '102', '132', '137', '139', '103', '149', '144'] 242.08641975308618
165 4.841728395061728 ['94', '140', '124', '17', '142', '101', '120', '141', '102', '132', '137', '139', '103', '149', '144'] 242.08641975308618
166 4.841728395061728 ['94', '140', '124', '17', '142', '101', '120', '141', '102', '132', '137', '139', '103', '149', '144'] 242.08641975308618
167 4.841728395061728 ['94', '140', '124', '17', '142', '101', '120', '141', '102', '132', '137', '139', '103', '149', '144'] 242.08641975308618
168 4.841728395061728 ['94', '140', '124', '17', '142', '101', '120', '141', '102', '132', '137', '139', '103', '149', '144'] 242.08641975308618
169 4.841728395061728 ['94', '140', '124', '17', '142', '101', '120', '141', '102', '132', '137', '139', '103', '149', '144'] 242.08641975308618
170 4.841728395061728 ['94', '140', '124', '17', '142', '101', '120', '141', '102', '132', '137', '139', '103', '149', '144'] 242.08641975308618
171 4.841728395061728 ['94', '140', '124', '17', '142', '101', '120', '141', '102', '132', '137', '139', '103', '149', '144'] 242.08641975308618
172 4.841728395061728 ['94', '140', '124', '17', '142', '101', '120', '141', '102', '132', '137', '139', '103', '149', '144'] 242.08641975308618
173 4.841728395061728 ['94', '140', '124', '17', '142', '101', '120', '141', '102', '132', '137', '139', '103', '149', '144'] 242.08641975308618
174 4.841728395061728 ['94', '140', '124', '17', '142', '101', '120', '141', '102', '132', '137', '139', '103', '149', '144'] 242.08641975308618
175 4.841728395061728 ['94', '140', '124', '17', '142', '101', '120', '141', '102', '132', '137', '139', '103', '149', '144'] 242.08641975308618
176 4.841728395061728 ['94', '140', '124', '17', '142', '101', '120', '141', '102', '132', '137', '139', '103', '149', '144'] 242.08641975308618
177 4.841728395061728 ['94', '140', '124', '17', '142', '101', '120', '141', '102', '132', '137', '139', '103', '149', '144'] 242.08641975308618
178 4.841728395061728 ['94', '140', '124', '17', '142', '101', '120', '141', '102', '132', '137', '139', '103', '149', '144'] 242.08641975308618
179 4.841728395061728 ['94', '140', '124', '17', '142', '101', '120', '141', '102', '132', '137', '139', '103', '149', '144'] 242.08641975308618
180 4.841728395061728 ['94', '140', '124', '17', '142', '101', '120', '141', '102', '132', '137', '139', '103', '149', '144'] 242.08641975308618
181 4.841728395061728 ['94', '140', '124', '17', '142', '101', '120', '141', '102', '132', '137', '139', '103', '149', '144'] 242.08641975308618
182 4.841728395061728 ['94', '140', '124', '17', '142', '101', '120', '141', '102', '132', '137', '139', '103', '149', '144'] 242.08641975308618
183 4.841728395061728 ['94', '140', '124', '17', '142', '101', '120', '141', '102', '132', '137', '139', '103', '149', '144'] 242.08641975308618
184 4.841728395061728 ['94', '140', '124', '17', '142', '101', '120', '141', '102', '132', '137', '139', '103', '149', '144'] 242.08641975308618
185 4.841728395061728 ['94', '140', '124', '17', '142', '101', '120', '141', '102', '132', '137', '139', '103', '149', '144'] 242.08641975308618
186 4.841728395061728 ['94', '140', '124', '17', '142', '101', '120', '141', '102', '132', '137', '139', '103', '149', '144'] 242.08641975308618
187 4.841728395061728 ['94', '140', '124', '17', '142', '101', '120', '141', '102', '132', '137', '139', '103', '149', '144'] 242.08641975308618
188 4.841728395061728 ['94', '140', '124', '17', '142', '101', '120', '141', '102', '132', '137', '139', '103', '149', '144'] 242.08641975308618
189 4.841728395061728 ['94', '140', '124', '17', '142', '101', '120', '141', '102', '132', '137', '139', '103', '149', '144'] 242.08641975308618
190 4.841728395061728 ['94', '140', '124', '17', '142', '101', '120', '141', '102', '132', '137', '139', '103', '149', '144'] 242.08641975308618
191 4.841728395061728 ['94', '140', '124', '17', '142', '101', '120', '141', '102', '132', '137', '139', '103', '149', '144'] 242.08641975308618
192 4.841728395061728 ['94', '140', '124', '17', '142', '101', '120', '141', '102', '132', '137', '139', '103', '149', '144'] 242.08641975308618
193 4.841728395061728 ['94', '140', '124', '17', '142', '101', '120', '141', '102', '132', '137', '139', '103', '149', '144'] 242.08641975308618
194 4.841728395061728 ['94', '140', '124', '17', '142', '101', '120', '141', '102', '132', '137', '139', '103', '149', '144'] 242.08641975308618
195 4.841728395061728 ['94', '140', '124', '17', '142', '101', '120', '141', '102', '132', '137', '139', '103', '149', '144'] 242.08641975308618
196 4.841728395061728 ['94', '140', '124', '17', '142', '101', '120', '141', '102', '132', '137', '139', '103', '149', '144'] 242.08641975308618
197 4.841728395061728 ['94', '140', '124', '17', '142', '101', '120', '141', '102', '132', '137', '139', '103', '149', '144'] 242.08641975308618
198 4.841728395061728 ['94', '140', '124', '17', '142', '101', '120', '141', '102', '132', '137', '139', '103', '149', '144'] 242.08641975308618
199 4.841728395061728 ['94', '140', '124', '17', '142', '101', '120', '141', '102', '132', '137', '139', '103', '149', '144'] 242.08641975308618
