0 199.57407407407408 ['14', '29', '54', '56', '7', '53'] 10944.111111111113
1 191.88888888888889 ['29', '53', '14', '7', '22', '31'] 10662.66666666667
2 191.88888888888889 ['29', '53', '14', '7', '22', '31'] 10452.055555555555
3 191.88888888888889 ['29', '53', '14', '7', '22', '31'] 10184.888888888885
4 191.88888888888889 ['29', '53', '14', '7', '22', '31'] 9978.037037037038
5 186.83333333333334 ['53', '7', '31', '48', '14', '34'] 9825.870370370369
6 186.83333333333334 ['53', '7', '31', '48', '14', '34'] 9690.74074074074
7 182.55555555555554 ['7', '31', '22', '29', '14', '48'] 9573.370370370372
8 182.09259259259258 ['31', '14', '7', '29', '48', '4'] 9409.870370370372
9 182.09259259259258 ['31', '14', '7', '29', '48', '4'] 9264.425925925923
10 182.09259259259258 ['31', '14', '7', '29', '48', '4'] 9185.833333333328
11 182.09259259259258 ['31', '14', '7', '29', '48', '4'] 9131.499999999998
12 182.09259259259258 ['31', '14', '7', '29', '48', '4'] 9121.296296296294
13 182.09259259259258 ['31', '14', '7', '29', '48', '4'] 9114.351851851847
14 182.09259259259258 ['31', '14', '7', '29', '48', '4'] 9104.629629629622
15 182.09259259259258 ['31', '14', '7', '29', '48', '4'] 9104.629629629622
16 182.09259259259258 ['31', '14', '7', '29', '48', '4'] 9104.629629629622
17 182.09259259259258 ['31', '14', '7', '29', '48', '4'] 9104.629629629622
18 182.09259259259258 ['31', '14', '7', '29', '48', '4'] 9104.629629629622
19 182.09259259259258 ['31', '14', '7', '29', '48', '4'] 9104.629629629622
20 182.09259259259258 ['31', '14', '7', '29', '48', '4'] 9104.629629629622
21 182.09259259259258 ['31', '14', '7', '29', '48', '4'] 9104.629629629622
22 182.09259259259258 ['31', '14', '7', '29', '48', '4'] 9104.629629629622
23 182.09259259259258 ['31', '14', '7', '29', '48', '4'] 9104.629629629622
24 182.09259259259258 ['31', '14', '7', '29', '48', '4'] 9104.629629629622
25 182.09259259259258 ['31', '14', '7', '29', '48', '4'] 9104.629629629622
26 182.09259259259258 ['31', '14', '7', '29', '48', '4'] 9104.629629629622
27 182.09259259259258 ['31', '14', '7', '29', '48', '4'] 9104.629629629622
28 182.09259259259258 ['31', '14', '7', '29', '48', '4'] 9104.629629629622
29 182.09259259259258 ['31', '14', '7', '29', '48', '4'] 9104.629629629622
30 182.09259259259258 ['31', '14', '7', '29', '48', '4'] 9104.629629629622
31 182.09259259259258 ['31', '14', '7', '29', '48', '4'] 9104.629629629622
32 182.09259259259258 ['31', '14', '7', '29', '48', '4'] 9104.629629629622
33 182.09259259259258 ['31', '14', '7', '29', '48', '4'] 9104.629629629622
34 182.09259259259258 ['31', '14', '7', '29', '48', '4'] 9104.629629629622
35 182.09259259259258 ['31', '14', '7', '29', '48', '4'] 9104.629629629622
36 182.09259259259258 ['31', '14', '7', '29', '48', '4'] 9104.629629629622
37 182.09259259259258 ['31', '14', '7', '29', '48', '4'] 9104.629629629622
38 182.09259259259258 ['31', '14', '7', '29', '48', '4'] 9104.629629629622
39 182.09259259259258 ['31', '14', '7', '29', '48', '4'] 9104.629629629622
40 182.09259259259258 ['31', '14', '7', '29', '48', '4'] 9104.629629629622
41 182.09259259259258 ['31', '14', '7', '29', '48', '4'] 9104.629629629622
42 182.09259259259258 ['31', '14', '7', '29', '48', '4'] 9104.629629629622
43 182.09259259259258 ['31', '14', '7', '29', '48', '4'] 9104.629629629622
44 182.09259259259258 ['31', '14', '7', '29', '48', '4'] 9104.629629629622
45 182.09259259259258 ['31', '14', '7', '29', '48', '4'] 9104.629629629622
46 182.09259259259258 ['31', '14', '7', '29', '48', '4'] 9104.629629629622
47 182.09259259259258 ['31', '14', '7', '29', '48', '4'] 9104.629629629622
48 182.09259259259258 ['31', '14', '7', '29', '48', '4'] 9104.629629629622
49 182.09259259259258 ['31', '14', '7', '29', '48', '4'] 9104.629629629622
50 182.09259259259258 ['31', '14', '7', '29', '48', '4'] 9104.629629629622
51 182.09259259259258 ['31', '14', '7', '29', '48', '4'] 9104.629629629622
52 182.09259259259258 ['31', '14', '7', '29', '48', '4'] 9104.629629629622
53 182.09259259259258 ['31', '14', '7', '29', '48', '4'] 9104.629629629622
54 182.09259259259258 ['31', '14', '7', '29', '48', '4'] 9104.629629629622
55 182.09259259259258 ['31', '14', '7', '29', '48', '4'] 9104.629629629622
56 182.09259259259258 ['31', '14', '7', '29', '48', '4'] 9104.629629629622
57 182.09259259259258 ['31', '14', '7', '29', '48', '4'] 9104.629629629622
58 182.09259259259258 ['31', '14', '7', '29', '48', '4'] 9104.629629629622
59 182.09259259259258 ['31', '14', '7', '29', '48', '4'] 9104.629629629622
60 182.09259259259258 ['31', '14', '7', '29', '48', '4'] 9104.629629629622
61 182.09259259259258 ['31', '14', '7', '29', '48', '4'] 9104.629629629622
62 182.09259259259258 ['31', '14', '7', '29', '48', '4'] 9104.629629629622
63 182.09259259259258 ['31', '14', '7', '29', '48', '4'] 9104.629629629622
64 182.09259259259258 ['31', '14', '7', '29', '48', '4'] 9104.629629629622
65 182.09259259259258 ['31', '14', '7', '29', '48', '4'] 9104.629629629622
66 182.09259259259258 ['31', '14', '7', '29', '48', '4'] 9104.629629629622
67 182.09259259259258 ['31', '14', '7', '29', '48', '4'] 9104.629629629622
68 182.09259259259258 ['31', '14', '7', '29', '48', '4'] 9104.629629629622
69 182.09259259259258 ['31', '14', '7', '29', '48', '4'] 9104.629629629622
70 182.09259259259258 ['31', '14', '7', '29', '48', '4'] 9104.629629629622
71 182.09259259259258 ['31', '14', '7', '29', '48', '4'] 9104.629629629622
72 182.09259259259258 ['31', '14', '7', '29', '48', '4'] 9104.629629629622
73 182.09259259259258 ['31', '14', '7', '29', '48', '4'] 9104.629629629622
74 182.09259259259258 ['31', '14', '7', '29', '48', '4'] 9104.629629629622
75 182.09259259259258 ['31', '14', '7', '29', '48', '4'] 9104.629629629622
76 182.09259259259258 ['31', '14', '7', '29', '48', '4'] 9104.629629629622
77 182.09259259259258 ['31', '14', '7', '29', '48', '4'] 9104.629629629622
78 182.09259259259258 ['31', '14', '7', '29', '48', '4'] 9104.629629629622
79 182.09259259259258 ['31', '14', '7', '29', '48', '4'] 9104.629629629622
80 182.09259259259258 ['31', '14', '7', '29', '48', '4'] 9104.629629629622
81 182.09259259259258 ['31', '14', '7', '29', '48', '4'] 9104.629629629622
82 182.09259259259258 ['31', '14', '7', '29', '48', '4'] 9104.629629629622
83 182.09259259259258 ['31', '14', '7', '29', '48', '4'] 9104.629629629622
84 182.09259259259258 ['31', '14', '7', '29', '48', '4'] 9104.629629629622
85 182.09259259259258 ['31', '14', '7', '29', '48', '4'] 9104.629629629622
86 182.09259259259258 ['31', '14', '7', '29', '48', '4'] 9104.629629629622
87 182.09259259259258 ['31', '14', '7', '29', '48', '4'] 9104.629629629622
88 182.09259259259258 ['31', '14', '7', '29', '48', '4'] 9104.629629629622
89 182.09259259259258 ['31', '14', '7', '29', '48', '4'] 9104.629629629622
90 182.09259259259258 ['31', '14', '7', '29', '48', '4'] 9104.629629629622
91 182.09259259259258 ['31', '14', '7', '29', '48', '4'] 9104.629629629622
92 182.09259259259258 ['31', '14', '7', '29', '48', '4'] 9104.629629629622
93 182.09259259259258 ['31', '14', '7', '29', '48', '4'] 9104.629629629622
94 182.09259259259258 ['31', '14', '7', '29', '48', '4'] 9104.629629629622
95 182.09259259259258 ['31', '14', '7', '29', '48', '4'] 9104.629629629622
96 182.09259259259258 ['31', '14', '7', '29', '48', '4'] 9104.629629629622
97 182.09259259259258 ['31', '14', '7', '29', '48', '4'] 9104.629629629622
98 182.09259259259258 ['31', '14', '7', '29', '48', '4'] 9104.629629629622
99 182.09259259259258 ['31', '14', '7', '29', '48', '4'] 9104.629629629622
100 182.09259259259258 ['31', '14', '7', '29', '48', '4'] 9104.629629629622
101 182.09259259259258 ['31', '14', '7', '29', '48', '4'] 9104.629629629622
102 182.09259259259258 ['31', '14', '7', '29', '48', '4'] 9104.629629629622
103 182.09259259259258 ['31', '14', '7', '29', '48', '4'] 9104.629629629622
104 182.09259259259258 ['31', '14', '7', '29', '48', '4'] 9104.629629629622
105 182.09259259259258 ['31', '14', '7', '29', '48', '4'] 9104.629629629622
106 182.09259259259258 ['31', '14', '7', '29', '48', '4'] 9104.629629629622
107 182.09259259259258 ['31', '14', '7', '29', '48', '4'] 9104.629629629622
108 182.09259259259258 ['31', '14', '7', '29', '48', '4'] 9104.629629629622
109 182.09259259259258 ['31', '14', '7', '29', '48', '4'] 9104.629629629622
110 182.09259259259258 ['31', '14', '7', '29', '48', '4'] 9104.629629629622
111 182.09259259259258 ['31', '14', '7', '29', '48', '4'] 9104.629629629622
112 182.09259259259258 ['31', '14', '7', '29', '48', '4'] 9104.629629629622
113 182.09259259259258 ['31', '14', '7', '29', '48', '4'] 9104.629629629622
114 182.09259259259258 ['31', '14', '7', '29', '48', '4'] 9104.629629629622
115 182.09259259259258 ['31', '14', '7', '29', '48', '4'] 9104.629629629622
116 182.09259259259258 ['31', '14', '7', '29', '48', '4'] 9104.629629629622
117 182.09259259259258 ['31', '14', '7', '29', '48', '4'] 9104.629629629622
118 182.09259259259258 ['31', '14', '7', '29', '48', '4'] 9104.629629629622
119 182.09259259259258 ['31', '14', '7', '29', '48', '4'] 9104.629629629622
120 182.09259259259258 ['31', '14', '7', '29', '48', '4'] 9104.629629629622
121 182.09259259259258 ['31', '14', '7', '29', '48', '4'] 9104.629629629622
122 182.09259259259258 ['31', '14', '7', '29', '48', '4'] 9104.629629629622
123 182.09259259259258 ['31', '14', '7', '29', '48', '4'] 9104.629629629622
124 182.09259259259258 ['31', '14', '7', '29', '48', '4'] 9104.629629629622
125 182.09259259259258 ['31', '14', '7', '29', '48', '4'] 9104.629629629622
126 182.09259259259258 ['31', '14', '7', '29', '48', '4'] 9104.629629629622
127 182.09259259259258 ['31', '14', '7', '29', '48', '4'] 9104.629629629622
128 182.09259259259258 ['31', '14', '7', '29', '48', '4'] 9104.629629629622
129 182.09259259259258 ['31', '14', '7', '29', '48', '4'] 9104.629629629622
130 182.09259259259258 ['31', '14', '7', '29', '48', '4'] 9104.629629629622
131 182.09259259259258 ['31', '14', '7', '29', '48', '4'] 9104.629629629622
132 182.09259259259258 ['31', '14', '7', '29', '48', '4'] 9104.629629629622
133 182.09259259259258 ['31', '14', '7', '29', '48', '4'] 9104.629629629622
134 182.09259259259258 ['31', '14', '7', '29', '48', '4'] 9104.629629629622
135 182.09259259259258 ['31', '14', '7', '29', '48', '4'] 9104.629629629622
136 182.09259259259258 ['31', '14', '7', '29', '48', '4'] 9104.629629629622
137 182.09259259259258 ['31', '14', '7', '29', '48', '4'] 9104.629629629622
138 182.09259259259258 ['31', '14', '7', '29', '48', '4'] 9104.629629629622
139 182.09259259259258 ['31', '14', '7', '29', '48', '4'] 9104.629629629622
140 182.09259259259258 ['31', '14', '7', '29', '48', '4'] 9104.629629629622
141 182.09259259259258 ['31', '14', '7', '29', '48', '4'] 9104.629629629622
142 182.09259259259258 ['31', '14', '7', '29', '48', '4'] 9104.629629629622
143 182.09259259259258 ['31', '14', '7', '29', '48', '4'] 9104.629629629622
144 182.09259259259258 ['31', '14', '7', '29', '48', '4'] 9104.629629629622
145 182.09259259259258 ['31', '14', '7', '29', '48', '4'] 9104.629629629622
146 182.09259259259258 ['31', '14', '7', '29', '48', '4'] 9104.629629629622
147 182.09259259259258 ['31', '14', '7', '29', '48', '4'] 9104.629629629622
148 182.09259259259258 ['31', '14', '7', '29', '48', '4'] 9104.629629629622
149 182.09259259259258 ['31', '14', '7', '29', '48', '4'] 9104.629629629622
150 182.09259259259258 ['31', '14', '7', '29', '48', '4'] 9104.629629629622
151 182.09259259259258 ['31', '14', '7', '29', '48', '4'] 9104.629629629622
152 182.09259259259258 ['31', '14', '7', '29', '48', '4'] 9104.629629629622
153 182.09259259259258 ['31', '14', '7', '29', '48', '4'] 9104.629629629622
154 182.09259259259258 ['31', '14', '7', '29', '48', '4'] 9104.629629629622
155 182.09259259259258 ['31', '14', '7', '29', '48', '4'] 9104.629629629622
156 182.09259259259258 ['31', '14', '7', '29', '48', '4'] 9104.629629629622
157 182.09259259259258 ['31', '14', '7', '29', '48', '4'] 9104.629629629622
158 182.09259259259258 ['31', '14', '7', '29', '48', '4'] 9104.629629629622
159 182.09259259259258 ['31', '14', '7', '29', '48', '4'] 9104.629629629622
160 182.09259259259258 ['31', '14', '7', '29', '48', '4'] 9104.629629629622
161 182.09259259259258 ['31', '14', '7', '29', '48', '4'] 9104.629629629622
162 182.09259259259258 ['31', '14', '7', '29', '48', '4'] 9104.629629629622
163 182.09259259259258 ['31', '14', '7', '29', '48', '4'] 9104.629629629622
164 182.09259259259258 ['31', '14', '7', '29', '48', '4'] 9104.629629629622
165 182.09259259259258 ['31', '14', '7', '29', '48', '4'] 9104.629629629622
166 182.09259259259258 ['31', '14', '7', '29', '48', '4'] 9104.629629629622
167 182.09259259259258 ['31', '14', '7', '29', '48', '4'] 9104.629629629622
168 182.09259259259258 ['31', '14', '7', '29', '48', '4'] 9104.629629629622
169 182.09259259259258 ['31', '14', '7', '29', '48', '4'] 9104.629629629622
170 182.09259259259258 ['31', '14', '7', '29', '48', '4'] 9104.629629629622
171 182.09259259259258 ['31', '14', '7', '29', '48', '4'] 9104.629629629622
172 182.09259259259258 ['31', '14', '7', '29', '48', '4'] 9104.629629629622
173 182.09259259259258 ['31', '14', '7', '29', '48', '4'] 9104.629629629622
174 182.09259259259258 ['31', '14', '7', '29', '48', '4'] 9104.629629629622
175 182.09259259259258 ['31', '14', '7', '29', '48', '4'] 9104.629629629622
176 182.09259259259258 ['31', '14', '7', '29', '48', '4'] 9104.629629629622
177 182.09259259259258 ['31', '14', '7', '29', '48', '4'] 9104.629629629622
178 182.09259259259258 ['31', '14', '7', '29', '48', '4'] 9104.629629629622
179 182.09259259259258 ['31', '14', '7', '29', '48', '4'] 9104.629629629622
180 182.09259259259258 ['31', '14', '7', '29', '48', '4'] 9104.629629629622
181 182.09259259259258 ['31', '14', '7', '29', '48', '4'] 9104.629629629622
182 182.09259259259258 ['31', '14', '7', '29', '48', '4'] 9104.629629629622
183 182.09259259259258 ['31', '14', '7', '29', '48', '4'] 9104.629629629622
184 182.09259259259258 ['31', '14', '7', '29', '48', '4'] 9104.629629629622
185 182.09259259259258 ['31', '14', '7', '29', '48', '4'] 9104.629629629622
186 182.09259259259258 ['31', '14', '7', '29', '48', '4'] 9104.629629629622
187 182.09259259259258 ['31', '14', '7', '29', '48', '4'] 9104.629629629622
188 182.09259259259258 ['31', '14', '7', '29', '48', '4'] 9104.629629629622
189 182.09259259259258 ['31', '14', '7', '29', '48', '4'] 9104.629629629622
190 182.09259259259258 ['31', '14', '7', '29', '48', '4'] 9104.629629629622
191 182.09259259259258 ['31', '14', '7', '29', '48', '4'] 9104.629629629622
192 182.09259259259258 ['31', '14', '7', '29', '48', '4'] 9104.629629629622
193 182.09259259259258 ['31', '14', '7', '29', '48', '4'] 9104.629629629622
194 182.09259259259258 ['31', '14', '7', '29', '48', '4'] 9104.629629629622
195 182.09259259259258 ['31', '14', '7', '29', '48', '4'] 9104.629629629622
196 182.09259259259258 ['31', '14', '7', '29', '48', '4'] 9104.629629629622
197 182.09259259259258 ['31', '14', '7', '29', '48', '4'] 9104.629629629622
198 182.09259259259258 ['31', '14', '7', '29', '48', '4'] 9104.629629629622
199 182.09259259259258 ['31', '14', '7', '29', '48', '4'] 9104.629629629622
