0 25.25925925925926 ['21', '23', '11'] 1331.4814814814813
1 24.11111111111111 ['1', '8', '20'] 1301.4814814814815
2 23.814814814814813 ['11', '8', '21'] 1269.555555555555
3 23.074074074074073 ['8', '24', '11'] 1236.1111111111106
4 23.074074074074073 ['8', '24', '11'] 1212.3333333333335
5 23.0 ['8', '11', '20'] 1185.1851851851852
6 23.0 ['8', '11', '20'] 1163.4814814814808
7 23.0 ['8', '11', '20'] 1152.999999999999
8 23.0 ['8', '11', '20'] 1151.259259259259
9 23.0 ['8', '11', '20'] 1150.0
10 23.0 ['8', '11', '20'] 1150.0
11 23.0 ['8', '11', '20'] 1150.0
12 23.0 ['8', '11', '20'] 1150.0
13 23.0 ['8', '11', '20'] 1150.0
14 23.0 ['8', '11', '20'] 1150.0
15 23.0 ['8', '11', '20'] 1150.0
16 23.0 ['8', '11', '20'] 1150.0
17 23.0 ['8', '11', '20'] 1150.0
18 23.0 ['8', '11', '20'] 1150.0
19 23.0 ['8', '11', '20'] 1150.0
20 23.0 ['8', '11', '20'] 1150.0
21 23.0 ['8', '11', '20'] 1150.0
22 23.0 ['8', '11', '20'] 1150.0
23 23.0 ['8', '11', '20'] 1150.0
24 23.0 ['8', '11', '20'] 1150.0
25 23.0 ['8', '11', '20'] 1150.0
26 23.0 ['8', '11', '20'] 1150.0
27 23.0 ['8', '11', '20'] 1150.0
28 23.0 ['8', '11', '20'] 1150.0
29 23.0 ['8', '11', '20'] 1150.0
30 23.0 ['8', '11', '20'] 1150.0
31 23.0 ['8', '11', '20'] 1150.0
32 23.0 ['8', '11', '20'] 1150.0
33 23.0 ['8', '11', '20'] 1150.0
34 23.0 ['8', '11', '20'] 1150.0
35 23.0 ['8', '11', '20'] 1150.0
36 23.0 ['8', '11', '20'] 1150.0
37 23.0 ['8', '11', '20'] 1150.0
38 23.0 ['8', '11', '20'] 1150.0
39 23.0 ['8', '11', '20'] 1150.0
40 23.0 ['8', '11', '20'] 1150.0
41 23.0 ['8', '11', '20'] 1150.0
42 23.0 ['8', '11', '20'] 1150.0
43 23.0 ['8', '11', '20'] 1150.0
44 23.0 ['8', '11', '20'] 1150.0
45 23.0 ['8', '11', '20'] 1150.0
46 23.0 ['8', '11', '20'] 1150.0
47 23.0 ['8', '11', '20'] 1150.0
48 23.0 ['8', '11', '20'] 1150.0
49 23.0 ['8', '11', '20'] 1150.0
50 23.0 ['8', '11', '20'] 1150.0
51 23.0 ['8', '11', '20'] 1150.0
52 23.0 ['8', '11', '20'] 1150.0
53 23.0 ['8', '11', '20'] 1150.0
54 23.0 ['8', '11', '20'] 1150.0
55 23.0 ['8', '11', '20'] 1150.0
56 23.0 ['8', '11', '20'] 1150.0
57 23.0 ['8', '11', '20'] 1150.0
58 23.0 ['8', '11', '20'] 1150.0
59 23.0 ['8', '11', '20'] 1150.0
60 23.0 ['8', '11', '20'] 1150.0
61 23.0 ['8', '11', '20'] 1150.0
62 23.0 ['8', '11', '20'] 1150.0
63 23.0 ['8', '11', '20'] 1150.0
64 23.0 ['8', '11', '20'] 1150.0
65 23.0 ['8', '11', '20'] 1150.0
66 23.0 ['8', '11', '20'] 1150.0
67 23.0 ['8', '11', '20'] 1150.0
68 23.0 ['8', '11', '20'] 1150.0
69 23.0 ['8', '11', '20'] 1150.0
70 23.0 ['8', '11', '20'] 1150.0
71 23.0 ['8', '11', '20'] 1150.0
72 23.0 ['8', '11', '20'] 1150.0
73 23.0 ['8', '11', '20'] 1150.0
74 23.0 ['8', '11', '20'] 1150.0
75 23.0 ['8', '11', '20'] 1150.0
76 23.0 ['8', '11', '20'] 1150.0
77 23.0 ['8', '11', '20'] 1150.0
78 23.0 ['8', '11', '20'] 1150.0
79 23.0 ['8', '11', '20'] 1150.0
80 23.0 ['8', '11', '20'] 1150.0
81 23.0 ['8', '11', '20'] 1150.0
82 23.0 ['8', '11', '20'] 1150.0
83 23.0 ['8', '11', '20'] 1150.0
84 23.0 ['8', '11', '20'] 1150.0
85 23.0 ['8', '11', '20'] 1150.0
86 23.0 ['8', '11', '20'] 1150.0
87 23.0 ['8', '11', '20'] 1150.0
88 23.0 ['8', '11', '20'] 1150.0
89 23.0 ['8', '11', '20'] 1150.0
90 23.0 ['8', '11', '20'] 1150.0
91 23.0 ['8', '11', '20'] 1150.0
92 23.0 ['8', '11', '20'] 1150.0
93 23.0 ['8', '11', '20'] 1150.0
94 23.0 ['8', '11', '20'] 1150.0
95 23.0 ['8', '11', '20'] 1150.0
96 23.0 ['8', '11', '20'] 1150.0
97 23.0 ['8', '11', '20'] 1150.0
98 23.0 ['8', '11', '20'] 1150.0
99 23.0 ['8', '11', '20'] 1150.0
100 23.0 ['8', '11', '20'] 1150.0
101 23.0 ['8', '11', '20'] 1150.0
102 23.0 ['8', '11', '20'] 1150.0
103 23.0 ['8', '11', '20'] 1150.0
104 23.0 ['8', '11', '20'] 1150.0
105 23.0 ['8', '11', '20'] 1150.0
106 23.0 ['8', '11', '20'] 1150.0
107 23.0 ['8', '11', '20'] 1150.0
108 23.0 ['8', '11', '20'] 1150.0
109 23.0 ['8', '11', '20'] 1150.0
110 23.0 ['8', '11', '20'] 1150.0
111 23.0 ['8', '11', '20'] 1150.0
112 23.0 ['8', '11', '20'] 1150.0
113 23.0 ['8', '11', '20'] 1150.0
114 23.0 ['8', '11', '20'] 1150.0
115 23.0 ['8', '11', '20'] 1150.0
116 23.0 ['8', '11', '20'] 1150.0
117 23.0 ['8', '11', '20'] 1150.0
118 23.0 ['8', '11', '20'] 1150.0
119 23.0 ['8', '11', '20'] 1150.0
120 23.0 ['8', '11', '20'] 1150.0
121 23.0 ['8', '11', '20'] 1150.0
122 23.0 ['8', '11', '20'] 1150.0
123 23.0 ['8', '11', '20'] 1150.0
124 23.0 ['8', '11', '20'] 1150.0
125 23.0 ['8', '11', '20'] 1150.0
126 23.0 ['8', '11', '20'] 1150.0
127 23.0 ['8', '11', '20'] 1150.0
128 23.0 ['8', '11', '20'] 1150.0
129 23.0 ['8', '11', '20'] 1150.0
130 23.0 ['8', '11', '20'] 1150.0
131 23.0 ['8', '11', '20'] 1150.0
132 23.0 ['8', '11', '20'] 1150.0
133 23.0 ['8', '11', '20'] 1150.0
134 23.0 ['8', '11', '20'] 1150.0
135 23.0 ['8', '11', '20'] 1150.0
136 23.0 ['8', '11', '20'] 1150.0
137 23.0 ['8', '11', '20'] 1150.0
138 23.0 ['8', '11', '20'] 1150.0
139 23.0 ['8', '11', '20'] 1150.0
140 23.0 ['8', '11', '20'] 1150.0
141 23.0 ['8', '11', '20'] 1150.0
142 23.0 ['8', '11', '20'] 1150.0
143 23.0 ['8', '11', '20'] 1150.0
144 23.0 ['8', '11', '20'] 1150.0
145 23.0 ['8', '11', '20'] 1150.0
146 23.0 ['8', '11', '20'] 1150.0
147 23.0 ['8', '11', '20'] 1150.0
148 23.0 ['8', '11', '20'] 1150.0
149 23.0 ['8', '11', '20'] 1150.0
150 23.0 ['8', '11', '20'] 1150.0
151 23.0 ['8', '11', '20'] 1150.0
152 23.0 ['8', '11', '20'] 1150.0
153 23.0 ['8', '11', '20'] 1150.0
154 23.0 ['8', '11', '20'] 1150.0
155 23.0 ['8', '11', '20'] 1150.0
156 23.0 ['8', '11', '20'] 1150.0
157 23.0 ['8', '11', '20'] 1150.0
158 23.0 ['8', '11', '20'] 1150.0
159 23.0 ['8', '11', '20'] 1150.0
160 23.0 ['8', '11', '20'] 1150.0
161 23.0 ['8', '11', '20'] 1150.0
162 23.0 ['8', '11', '20'] 1150.0
163 23.0 ['8', '11', '20'] 1150.0
164 23.0 ['8', '11', '20'] 1150.0
165 23.0 ['8', '11', '20'] 1150.0
166 23.0 ['8', '11', '20'] 1150.0
167 23.0 ['8', '11', '20'] 1150.0
168 23.0 ['8', '11', '20'] 1150.0
169 23.0 ['8', '11', '20'] 1150.0
170 23.0 ['8', '11', '20'] 1150.0
171 23.0 ['8', '11', '20'] 1150.0
172 23.0 ['8', '11', '20'] 1150.0
173 23.0 ['8', '11', '20'] 1150.0
174 23.0 ['8', '11', '20'] 1150.0
175 23.0 ['8', '11', '20'] 1150.0
176 23.0 ['8', '11', '20'] 1150.0
177 23.0 ['8', '11', '20'] 1150.0
178 23.0 ['8', '11', '20'] 1150.0
179 23.0 ['8', '11', '20'] 1150.0
180 23.0 ['8', '11', '20'] 1150.0
181 23.0 ['8', '11', '20'] 1150.0
182 23.0 ['8', '11', '20'] 1150.0
183 23.0 ['8', '11', '20'] 1150.0
184 23.0 ['8', '11', '20'] 1150.0
185 23.0 ['8', '11', '20'] 1150.0
186 23.0 ['8', '11', '20'] 1150.0
187 23.0 ['8', '11', '20'] 1150.0
188 23.0 ['8', '11', '20'] 1150.0
189 23.0 ['8', '11', '20'] 1150.0
190 23.0 ['8', '11', '20'] 1150.0
191 23.0 ['8', '11', '20'] 1150.0
192 23.0 ['8', '11', '20'] 1150.0
193 23.0 ['8', '11', '20'] 1150.0
194 23.0 ['8', '11', '20'] 1150.0
195 23.0 ['8', '11', '20'] 1150.0
196 23.0 ['8', '11', '20'] 1150.0
197 23.0 ['8', '11', '20'] 1150.0
198 23.0 ['8', '11', '20'] 1150.0
199 23.0 ['8', '11', '20'] 1150.0
