0 6.511627906976744 ['21', '34', '9', '16'] 374.69767441860455
1 6.511627906976744 ['21', '34', '9', '16'] 362.23255813953506
2 6.1395348837209305 ['16', '9', '14', '24'] 350.23255813953483
3 6.1395348837209305 ['16', '9', '14', '24'] 338.9767441860464
4 5.8604651162790695 ['16', '9', '14', '40'] 323.7209302325582
5 5.8604651162790695 ['16', '9', '14', '40'] 311.1627906976746
6 5.8604651162790695 ['16', '9', '14', '40'] 302.9767441860466
7 5.8604651162790695 ['16', '9', '14', '40'] 298.8837209302328
8 5.8604651162790695 ['16', '9', '14', '40'] 295.90697674418635
9 5.8604651162790695 ['16', '9', '14', '40'] 294.41860465116304
10 5.8604651162790695 ['16', '9', '14', '40'] 293.0232558139534
11 5.8604651162790695 ['16', '9', '14', '40'] 293.0232558139534
12 5.8604651162790695 ['16', '9', '14', '40'] 293.0232558139534
13 5.8604651162790695 ['16', '9', '14', '40'] 293.0232558139534
14 5.8604651162790695 ['16', '9', '14', '40'] 293.0232558139534
15 5.8604651162790695 ['16', '9', '14', '40'] 293.0232558139534
16 5.8604651162790695 ['16', '9', '14', '40'] 293.0232558139534
17 5.8604651162790695 ['16', '9', '14', '40'] 293.0232558139534
18 5.8604651162790695 ['16', '9', '14', '40'] 293.0232558139534
19 5.8604651162790695 ['16', '9', '14', '40'] 293.0232558139534
20 5.8604651162790695 ['16', '9', '14', '40'] 293.0232558139534
21 5.8604651162790695 ['16', '9', '14', '40'] 293.0232558139534
22 5.8604651162790695 ['16', '9', '14', '40'] 293.0232558139534
23 5.8604651162790695 ['16', '9', '14', '40'] 293.0232558139534
24 5.8604651162790695 ['16', '9', '14', '40'] 293.0232558139534
25 5.8604651162790695 ['16', '9', '14', '40'] 293.0232558139534
26 5.8604651162790695 ['16', '9', '14', '40'] 293.0232558139534
27 5.8604651162790695 ['16', '9', '14', '40'] 293.0232558139534
28 5.8604651162790695 ['16', '9', '14', '40'] 293.0232558139534
29 5.8604651162790695 ['16', '9', '14', '40'] 293.0232558139534
30 5.8604651162790695 ['16', '9', '14', '40'] 293.0232558139534
31 5.8604651162790695 ['16', '9', '14', '40'] 293.0232558139534
32 5.8604651162790695 ['16', '9', '14', '40'] 293.0232558139534
33 5.8604651162790695 ['16', '9', '14', '40'] 293.0232558139534
34 5.8604651162790695 ['16', '9', '14', '40'] 293.0232558139534
35 5.8604651162790695 ['16', '9', '14', '40'] 293.0232558139534
36 5.8604651162790695 ['16', '9', '14', '40'] 293.0232558139534
37 5.8604651162790695 ['16', '9', '14', '40'] 293.0232558139534
38 5.8604651162790695 ['16', '9', '14', '40'] 293.0232558139534
39 5.8604651162790695 ['16', '9', '14', '40'] 293.0232558139534
40 5.8604651162790695 ['16', '9', '14', '40'] 293.0232558139534
41 5.8604651162790695 ['16', '9', '14', '40'] 293.0232558139534
42 5.8604651162790695 ['16', '9', '14', '40'] 293.0232558139534
43 5.8604651162790695 ['16', '9', '14', '40'] 293.0232558139534
44 5.8604651162790695 ['16', '9', '14', '40'] 293.0232558139534
45 5.8604651162790695 ['16', '9', '14', '40'] 293.0232558139534
46 5.8604651162790695 ['16', '9', '14', '40'] 293.0232558139534
47 5.8604651162790695 ['16', '9', '14', '40'] 293.0232558139534
48 5.8604651162790695 ['16', '9', '14', '40'] 293.0232558139534
49 5.8604651162790695 ['16', '9', '14', '40'] 293.0232558139534
50 5.8604651162790695 ['16', '9', '14', '40'] 293.0232558139534
51 5.8604651162790695 ['16', '9', '14', '40'] 293.0232558139534
52 5.8604651162790695 ['16', '9', '14', '40'] 293.0232558139534
53 5.8604651162790695 ['16', '9', '14', '40'] 293.0232558139534
54 5.8604651162790695 ['16', '9', '14', '40'] 293.0232558139534
55 5.8604651162790695 ['16', '9', '14', '40'] 293.0232558139534
56 5.8604651162790695 ['16', '9', '14', '40'] 293.0232558139534
57 5.8604651162790695 ['16', '9', '14', '40'] 293.0232558139534
58 5.8604651162790695 ['16', '9', '14', '40'] 293.0232558139534
59 5.8604651162790695 ['16', '9', '14', '40'] 293.0232558139534
60 5.8604651162790695 ['16', '9', '14', '40'] 293.0232558139534
61 5.8604651162790695 ['16', '9', '14', '40'] 293.0232558139534
62 5.8604651162790695 ['16', '9', '14', '40'] 293.0232558139534
63 5.8604651162790695 ['16', '9', '14', '40'] 293.0232558139534
64 5.8604651162790695 ['16', '9', '14', '40'] 293.0232558139534
65 5.8604651162790695 ['16', '9', '14', '40'] 293.0232558139534
66 5.8604651162790695 ['16', '9', '14', '40'] 293.0232558139534
67 5.8604651162790695 ['16', '9', '14', '40'] 293.0232558139534
68 5.8604651162790695 ['16', '9', '14', '40'] 293.0232558139534
69 5.8604651162790695 ['16', '9', '14', '40'] 293.0232558139534
70 5.8604651162790695 ['16', '9', '14', '40'] 293.0232558139534
71 5.8604651162790695 ['16', '9', '14', '40'] 293.0232558139534
72 5.8604651162790695 ['16', '9', '14', '40'] 293.0232558139534
73 5.8604651162790695 ['16', '9', '14', '40'] 293.0232558139534
74 5.8604651162790695 ['16', '9', '14', '40'] 293.0232558139534
75 5.8604651162790695 ['16', '9', '14', '40'] 293.0232558139534
76 5.8604651162790695 ['16', '9', '14', '40'] 293.0232558139534
77 5.8604651162790695 ['16', '9', '14', '40'] 293.0232558139534
78 5.8604651162790695 ['16', '9', '14', '40'] 293.0232558139534
79 5.8604651162790695 ['16', '9', '14', '40'] 293.0232558139534
80 5.8604651162790695 ['16', '9', '14', '40'] 293.0232558139534
81 5.8604651162790695 ['16', '9', '14', '40'] 293.0232558139534
82 5.8604651162790695 ['16', '9', '14', '40'] 293.0232558139534
83 5.8604651162790695 ['16', '9', '14', '40'] 293.0232558139534
84 5.8604651162790695 ['16', '9', '14', '40'] 293.0232558139534
85 5.8604651162790695 ['16', '9', '14', '40'] 293.0232558139534
86 5.8604651162790695 ['16', '9', '14', '40'] 293.0232558139534
87 5.8604651162790695 ['16', '9', '14', '40'] 293.0232558139534
88 5.8604651162790695 ['16', '9', '14', '40'] 293.0232558139534
89 5.8604651162790695 ['16', '9', '14', '40'] 293.0232558139534
90 5.8604651162790695 ['16', '9', '14', '40'] 293.0232558139534
91 5.8604651162790695 ['16', '9', '14', '40'] 293.0232558139534
92 5.8604651162790695 ['16', '9', '14', '40'] 293.0232558139534
93 5.8604651162790695 ['16', '9', '14', '40'] 293.0232558139534
94 5.8604651162790695 ['16', '9', '14', '40'] 293.0232558139534
95 5.8604651162790695 ['16', '9', '14', '40'] 293.0232558139534
96 5.8604651162790695 ['16', '9', '14', '40'] 293.0232558139534
97 5.8604651162790695 ['16', '9', '14', '40'] 293.0232558139534
98 5.8604651162790695 ['16', '9', '14', '40'] 293.0232558139534
99 5.8604651162790695 ['16', '9', '14', '40'] 293.0232558139534
100 5.8604651162790695 ['16', '9', '14', '40'] 293.0232558139534
101 5.8604651162790695 ['16', '9', '14', '40'] 293.0232558139534
102 5.8604651162790695 ['16', '9', '14', '40'] 293.0232558139534
103 5.8604651162790695 ['16', '9', '14', '40'] 293.0232558139534
104 5.8604651162790695 ['16', '9', '14', '40'] 293.0232558139534
105 5.8604651162790695 ['16', '9', '14', '40'] 293.0232558139534
106 5.8604651162790695 ['16', '9', '14', '40'] 293.0232558139534
107 5.8604651162790695 ['16', '9', '14', '40'] 293.0232558139534
108 5.8604651162790695 ['16', '9', '14', '40'] 293.0232558139534
109 5.8604651162790695 ['16', '9', '14', '40'] 293.0232558139534
110 5.8604651162790695 ['16', '9', '14', '40'] 293.0232558139534
111 5.8604651162790695 ['16', '9', '14', '40'] 293.0232558139534
112 5.8604651162790695 ['16', '9', '14', '40'] 293.0232558139534
113 5.8604651162790695 ['16', '9', '14', '40'] 293.0232558139534
114 5.8604651162790695 ['16', '9', '14', '40'] 293.0232558139534
115 5.8604651162790695 ['16', '9', '14', '40'] 293.0232558139534
116 5.8604651162790695 ['16', '9', '14', '40'] 293.0232558139534
117 5.8604651162790695 ['16', '9', '14', '40'] 293.0232558139534
118 5.8604651162790695 ['16', '9', '14', '40'] 293.0232558139534
119 5.8604651162790695 ['16', '9', '14', '40'] 293.0232558139534
120 5.8604651162790695 ['16', '9', '14', '40'] 293.0232558139534
121 5.8604651162790695 ['16', '9', '14', '40'] 293.0232558139534
122 5.8604651162790695 ['16', '9', '14', '40'] 293.0232558139534
123 5.8604651162790695 ['16', '9', '14', '40'] 293.0232558139534
124 5.8604651162790695 ['16', '9', '14', '40'] 293.0232558139534
125 5.8604651162790695 ['16', '9', '14', '40'] 293.0232558139534
126 5.8604651162790695 ['16', '9', '14', '40'] 293.0232558139534
127 5.8604651162790695 ['16', '9', '14', '40'] 293.0232558139534
128 5.8604651162790695 ['16', '9', '14', '40'] 293.0232558139534
129 5.8604651162790695 ['16', '9', '14', '40'] 293.0232558139534
130 5.8604651162790695 ['16', '9', '14', '40'] 293.0232558139534
131 5.8604651162790695 ['16', '9', '14', '40'] 293.0232558139534
132 5.8604651162790695 ['16', '9', '14', '40'] 293.0232558139534
133 5.8604651162790695 ['16', '9', '14', '40'] 293.0232558139534
134 5.8604651162790695 ['16', '9', '14', '40'] 293.0232558139534
135 5.8604651162790695 ['16', '9', '14', '40'] 293.0232558139534
136 5.8604651162790695 ['16', '9', '14', '40'] 293.0232558139534
137 5.8604651162790695 ['16', '9', '14', '40'] 293.0232558139534
138 5.8604651162790695 ['16', '9', '14', '40'] 293.0232558139534
139 5.8604651162790695 ['16', '9', '14', '40'] 293.0232558139534
140 5.8604651162790695 ['16', '9', '14', '40'] 293.0232558139534
141 5.8604651162790695 ['16', '9', '14', '40'] 293.0232558139534
142 5.8604651162790695 ['16', '9', '14', '40'] 293.0232558139534
143 5.8604651162790695 ['16', '9', '14', '40'] 293.0232558139534
144 5.8604651162790695 ['16', '9', '14', '40'] 293.0232558139534
145 5.8604651162790695 ['16', '9', '14', '40'] 293.0232558139534
146 5.8604651162790695 ['16', '9', '14', '40'] 293.0232558139534
147 5.8604651162790695 ['16', '9', '14', '40'] 293.0232558139534
148 5.8604651162790695 ['16', '9', '14', '40'] 293.0232558139534
149 5.8604651162790695 ['16', '9', '14', '40'] 293.0232558139534
150 5.8604651162790695 ['16', '9', '14', '40'] 293.0232558139534
151 5.8604651162790695 ['16', '9', '14', '40'] 293.0232558139534
152 5.8604651162790695 ['16', '9', '14', '40'] 293.0232558139534
153 5.8604651162790695 ['16', '9', '14', '40'] 293.0232558139534
154 5.8604651162790695 ['16', '9', '14', '40'] 293.0232558139534
155 5.8604651162790695 ['16', '9', '14', '40'] 293.0232558139534
156 5.8604651162790695 ['16', '9', '14', '40'] 293.0232558139534
157 5.8604651162790695 ['16', '9', '14', '40'] 293.0232558139534
158 5.8604651162790695 ['16', '9', '14', '40'] 293.0232558139534
159 5.8604651162790695 ['16', '9', '14', '40'] 293.0232558139534
160 5.8604651162790695 ['16', '9', '14', '40'] 293.0232558139534
161 5.8604651162790695 ['16', '9', '14', '40'] 293.0232558139534
162 5.8604651162790695 ['16', '9', '14', '40'] 293.0232558139534
163 5.8604651162790695 ['16', '9', '14', '40'] 293.0232558139534
164 5.8604651162790695 ['16', '9', '14', '40'] 293.0232558139534
165 5.8604651162790695 ['16', '9', '14', '40'] 293.0232558139534
166 5.8604651162790695 ['16', '9', '14', '40'] 293.0232558139534
167 5.8604651162790695 ['16', '9', '14', '40'] 293.0232558139534
168 5.8604651162790695 ['16', '9', '14', '40'] 293.0232558139534
169 5.8604651162790695 ['16', '9', '14', '40'] 293.0232558139534
170 5.8604651162790695 ['16', '9', '14', '40'] 293.0232558139534
171 5.8604651162790695 ['16', '9', '14', '40'] 293.0232558139534
172 5.8604651162790695 ['16', '9', '14', '40'] 293.0232558139534
173 5.8604651162790695 ['16', '9', '14', '40'] 293.0232558139534
174 5.8604651162790695 ['16', '9', '14', '40'] 293.0232558139534
175 5.8604651162790695 ['16', '9', '14', '40'] 293.0232558139534
176 5.8604651162790695 ['16', '9', '14', '40'] 293.0232558139534
177 5.8604651162790695 ['16', '9', '14', '40'] 293.0232558139534
178 5.8604651162790695 ['16', '9', '14', '40'] 293.0232558139534
179 5.8604651162790695 ['16', '9', '14', '40'] 293.0232558139534
180 5.8604651162790695 ['16', '9', '14', '40'] 293.0232558139534
181 5.8604651162790695 ['16', '9', '14', '40'] 293.0232558139534
182 5.8604651162790695 ['16', '9', '14', '40'] 293.0232558139534
183 5.8604651162790695 ['16', '9', '14', '40'] 293.0232558139534
184 5.8604651162790695 ['16', '9', '14', '40'] 293.0232558139534
185 5.8604651162790695 ['16', '9', '14', '40'] 293.0232558139534
186 5.8604651162790695 ['16', '9', '14', '40'] 293.0232558139534
187 5.8604651162790695 ['16', '9', '14', '40'] 293.0232558139534
188 5.8604651162790695 ['16', '9', '14', '40'] 293.0232558139534
189 5.8604651162790695 ['16', '9', '14', '40'] 293.0232558139534
190 5.8604651162790695 ['16', '9', '14', '40'] 293.0232558139534
191 5.8604651162790695 ['16', '9', '14', '40'] 293.0232558139534
192 5.8604651162790695 ['16', '9', '14', '40'] 293.0232558139534
193 5.8604651162790695 ['16', '9', '14', '40'] 293.0232558139534
194 5.8604651162790695 ['16', '9', '14', '40'] 293.0232558139534
195 5.8604651162790695 ['16', '9', '14', '40'] 293.0232558139534
196 5.8604651162790695 ['16', '9', '14', '40'] 293.0232558139534
197 5.8604651162790695 ['16', '9', '14', '40'] 293.0232558139534
198 5.8604651162790695 ['16', '9', '14', '40'] 293.0232558139534
199 5.8604651162790695 ['16', '9', '14', '40'] 293.0232558139534
