0 14.42962962962963 ['69', '113', '138', '139', '52', '140', '27', '136', '88', '119', '148', '127', '1', '71', '84'] 739.5407407407413
1 14.385185185185184 ['120', '68', '94', '140', '142', '86', '121', '130', '34', '44', '71', '26', '75', '141', '149'] 734.4444444444445
2 14.274074074074074 ['123', '104', '29', '128', '83', '141', '100', '116', '125', '85', '140', '94', '127', '86', '99'] 728.8814814814814
3 14.14074074074074 ['75', '140', '80', '6', '123', '20', '149', '15', '88', '139', '120', '141', '107', '134', '68'] 723.5777777777778
4 14.037037037037036 ['120', '141', '75', '149', '140', '92', '139', '136', '134', '15', '123', '80', '6', '68', '63'] 718.4074074074077
5 13.866666666666667 ['140', '141', '120', '125', '5', '123', '127', '149', '128', '94', '92', '136', '29', '135', '104'] 713.6888888888883
6 13.822222222222223 ['149', '136', '140', '125', '123', '5', '127', '128', '94', '145', '29', '150', '135', '141', '71'] 707.2888888888888
7 13.748148148148148 ['136', '132', '141', '140', '120', '138', '51', '135', '149', '129', '75', '71', '139', '128', '3'] 701.8296296296296
8 13.674074074074074 ['150', '140', '136', '85', '128', '145', '104', '141', '149', '80', '134', '137', '120', '127', '116'] 696.2444444444449
9 13.674074074074074 ['150', '140', '136', '85', '128', '145', '104', '141', '149', '80', '134', '137', '120', '127', '116'] 692.5851851851857
10 13.518518518518519 ['140', '136', '141', '139', '120', '134', '128', '132', '80', '127', '75', '145', '135', '122', '149'] 687.6148148148147
11 13.4 ['149', '120', '138', '140', '136', '135', '128', '141', '92', '145', '94', '132', '143', '139', '113'] 682.9851851851855
12 13.4 ['149', '120', '138', '140', '136', '135', '128', '141', '92', '145', '94', '132', '143', '139', '113'] 679.7703703703697
13 13.392592592592592 ['145', '140', '139', '120', '128', '136', '149', '138', '143', '111', '20', '132', '125', '134', '141'] 676.8518518518522
14 13.333333333333334 ['135', '128', '145', '120', '149', '141', '136', '140', '139', '150', '138', '147', '127', '134', '132'] 673.6666666666663
15 13.333333333333334 ['135', '128', '145', '120', '149', '141', '136', '140', '139', '150', '138', '147', '127', '134', '132'] 671.7481481481487
16 13.333333333333334 ['135', '128', '145', '120', '149', '141', '136', '140', '139', '150', '138', '147', '127', '134', '132'] 669.9111111111109
17 13.237037037037037 ['140', '136', '135', '132', '139', '150', '149', '141', '145', '138', '128', '120', '143', '127', '147'] 668.1037037037036
18 13.237037037037037 ['140', '136', '135', '132', '139', '150', '149', '141', '145', '138', '128', '120', '143', '127', '147'] 666.1851851851845
19 13.222222222222221 ['140', '135', '120', '132', '149', '145', '143', '138', '141', '139', '136', '128', '147', '94', '111'] 664.3851851851858
20 13.2 ['138', '128', '147', '120', '149', '143', '140', '135', '139', '145', '136', '141', '111', '132', '127'] 662.8296296296294
21 13.2 ['138', '128', '147', '120', '149', '143', '140', '135', '139', '145', '136', '141', '111', '132', '127'] 661.5925925925926
22 13.2 ['138', '128', '147', '120', '149', '143', '140', '135', '139', '145', '136', '141', '111', '132', '127'] 661.1037037037034
23 13.2 ['138', '128', '147', '120', '149', '143', '140', '135', '139', '145', '136', '141', '111', '132', '127'] 660.6814814814809
24 13.2 ['138', '128', '147', '120', '149', '143', '140', '135', '139', '145', '136', '141', '111', '132', '127'] 660.1851851851852
25 13.2 ['138', '128', '147', '120', '149', '143', '140', '135', '139', '145', '136', '141', '111', '132', '127'] 660.0000000000002
26 13.2 ['138', '128', '147', '120', '149', '143', '140', '135', '139', '145', '136', '141', '111', '132', '127'] 660.0000000000002
27 13.2 ['138', '128', '147', '120', '149', '143', '140', '135', '139', '145', '136', '141', '111', '132', '127'] 660.0000000000002
28 13.2 ['138', '128', '147', '120', '149', '143', '140', '135', '139', '145', '136', '141', '111', '132', '127'] 660.0000000000002
29 13.2 ['138', '128', '147', '120', '149', '143', '140', '135', '139', '145', '136', '141', '111', '132', '127'] 660.0000000000002
30 13.2 ['138', '128', '147', '120', '149', '143', '140', '135', '139', '145', '136', '141', '111', '132', '127'] 660.0000000000002
31 13.2 ['138', '128', '147', '120', '149', '143', '140', '135', '139', '145', '136', '141', '111', '132', '127'] 660.0000000000002
32 13.2 ['138', '128', '147', '120', '149', '143', '140', '135', '139', '145', '136', '141', '111', '132', '127'] 660.0000000000002
33 13.2 ['138', '128', '147', '120', '149', '143', '140', '135', '139', '145', '136', '141', '111', '132', '127'] 660.0000000000002
34 13.2 ['138', '128', '147', '120', '149', '143', '140', '135', '139', '145', '136', '141', '111', '132', '127'] 660.0000000000002
35 13.2 ['138', '128', '147', '120', '149', '143', '140', '135', '139', '145', '136', '141', '111', '132', '127'] 660.0000000000002
36 13.2 ['138', '128', '147', '120', '149', '143', '140', '135', '139', '145', '136', '141', '111', '132', '127'] 660.0000000000002
37 13.2 ['138', '128', '147', '120', '149', '143', '140', '135', '139', '145', '136', '141', '111', '132', '127'] 660.0000000000002
38 13.2 ['138', '128', '147', '120', '149', '143', '140', '135', '139', '145', '136', '141', '111', '132', '127'] 660.0000000000002
39 13.2 ['138', '128', '147', '120', '149', '143', '140', '135', '139', '145', '136', '141', '111', '132', '127'] 660.0000000000002
40 13.2 ['138', '128', '147', '120', '149', '143', '140', '135', '139', '145', '136', '141', '111', '132', '127'] 660.0000000000002
41 13.2 ['138', '128', '147', '120', '149', '143', '140', '135', '139', '145', '136', '141', '111', '132', '127'] 660.0000000000002
42 13.2 ['138', '128', '147', '120', '149', '143', '140', '135', '139', '145', '136', '141', '111', '132', '127'] 660.0000000000002
43 13.2 ['138', '128', '147', '120', '149', '143', '140', '135', '139', '145', '136', '141', '111', '132', '127'] 660.0000000000002
44 13.2 ['138', '128', '147', '120', '149', '143', '140', '135', '139', '145', '136', '141', '111', '132', '127'] 660.0000000000002
45 13.2 ['138', '128', '147', '120', '149', '143', '140', '135', '139', '145', '136', '141', '111', '132', '127'] 660.0000000000002
46 13.2 ['138', '128', '147', '120', '149', '143', '140', '135', '139', '145', '136', '141', '111', '132', '127'] 660.0000000000002
47 13.2 ['138', '128', '147', '120', '149', '143', '140', '135', '139', '145', '136', '141', '111', '132', '127'] 660.0000000000002
48 13.2 ['138', '128', '147', '120', '149', '143', '140', '135', '139', '145', '136', '141', '111', '132', '127'] 660.0000000000002
49 13.2 ['138', '128', '147', '120', '149', '143', '140', '135', '139', '145', '136', '141', '111', '132', '127'] 660.0000000000002
50 13.2 ['138', '128', '147', '120', '149', '143', '140', '135', '139', '145', '136', '141', '111', '132', '127'] 660.0000000000002
51 13.2 ['138', '128', '147', '120', '149', '143', '140', '135', '139', '145', '136', '141', '111', '132', '127'] 660.0000000000002
52 13.2 ['138', '128', '147', '120', '149', '143', '140', '135', '139', '145', '136', '141', '111', '132', '127'] 660.0000000000002
53 13.2 ['138', '128', '147', '120', '149', '143', '140', '135', '139', '145', '136', '141', '111', '132', '127'] 660.0000000000002
54 13.2 ['138', '128', '147', '120', '149', '143', '140', '135', '139', '145', '136', '141', '111', '132', '127'] 660.0000000000002
55 13.2 ['138', '128', '147', '120', '149', '143', '140', '135', '139', '145', '136', '141', '111', '132', '127'] 660.0000000000002
56 13.2 ['138', '128', '147', '120', '149', '143', '140', '135', '139', '145', '136', '141', '111', '132', '127'] 660.0000000000002
57 13.2 ['138', '128', '147', '120', '149', '143', '140', '135', '139', '145', '136', '141', '111', '132', '127'] 660.0000000000002
58 13.2 ['138', '128', '147', '120', '149', '143', '140', '135', '139', '145', '136', '141', '111', '132', '127'] 660.0000000000002
59 13.2 ['138', '128', '147', '120', '149', '143', '140', '135', '139', '145', '136', '141', '111', '132', '127'] 660.0000000000002
60 13.2 ['138', '128', '147', '120', '149', '143', '140', '135', '139', '145', '136', '141', '111', '132', '127'] 660.0000000000002
61 13.2 ['138', '128', '147', '120', '149', '143', '140', '135', '139', '145', '136', '141', '111', '132', '127'] 660.0000000000002
62 13.2 ['138', '128', '147', '120', '149', '143', '140', '135', '139', '145', '136', '141', '111', '132', '127'] 660.0000000000002
63 13.2 ['138', '128', '147', '120', '149', '143', '140', '135', '139', '145', '136', '141', '111', '132', '127'] 660.0000000000002
64 13.2 ['138', '128', '147', '120', '149', '143', '140', '135', '139', '145', '136', '141', '111', '132', '127'] 660.0000000000002
65 13.2 ['138', '128', '147', '120', '149', '143', '140', '135', '139', '145', '136', '141', '111', '132', '127'] 660.0000000000002
66 13.2 ['138', '128', '147', '120', '149', '143', '140', '135', '139', '145', '136', '141', '111', '132', '127'] 660.0000000000002
67 13.2 ['138', '128', '147', '120', '149', '143', '140', '135', '139', '145', '136', '141', '111', '132', '127'] 660.0000000000002
68 13.2 ['138', '128', '147', '120', '149', '143', '140', '135', '139', '145', '136', '141', '111', '132', '127'] 660.0000000000002
69 13.2 ['138', '128', '147', '120', '149', '143', '140', '135', '139', '145', '136', '141', '111', '132', '127'] 660.0000000000002
70 13.2 ['138', '128', '147', '120', '149', '143', '140', '135', '139', '145', '136', '141', '111', '132', '127'] 660.0000000000002
71 13.2 ['138', '128', '147', '120', '149', '143', '140', '135', '139', '145', '136', '141', '111', '132', '127'] 660.0000000000002
72 13.2 ['138', '128', '147', '120', '149', '143', '140', '135', '139', '145', '136', '141', '111', '132', '127'] 660.0000000000002
73 13.2 ['138', '128', '147', '120', '149', '143', '140', '135', '139', '145', '136', '141', '111', '132', '127'] 660.0000000000002
74 13.2 ['138', '128', '147', '120', '149', '143', '140', '135', '139', '145', '136', '141', '111', '132', '127'] 660.0000000000002
75 13.2 ['138', '128', '147', '120', '149', '143', '140', '135', '139', '145', '136', '141', '111', '132', '127'] 660.0000000000002
76 13.2 ['138', '128', '147', '120', '149', '143', '140', '135', '139', '145', '136', '141', '111', '132', '127'] 660.0000000000002
77 13.2 ['138', '128', '147', '120', '149', '143', '140', '135', '139', '145', '136', '141', '111', '132', '127'] 660.0000000000002
78 13.2 ['138', '128', '147', '120', '149', '143', '140', '135', '139', '145', '136', '141', '111', '132', '127'] 660.0000000000002
79 13.2 ['138', '128', '147', '120', '149', '143', '140', '135', '139', '145', '136', '141', '111', '132', '127'] 660.0000000000002
80 13.2 ['138', '128', '147', '120', '149', '143', '140', '135', '139', '145', '136', '141', '111', '132', '127'] 660.0000000000002
81 13.2 ['138', '128', '147', '120', '149', '143', '140', '135', '139', '145', '136', '141', '111', '132', '127'] 660.0000000000002
82 13.2 ['138', '128', '147', '120', '149', '143', '140', '135', '139', '145', '136', '141', '111', '132', '127'] 660.0000000000002
83 13.2 ['138', '128', '147', '120', '149', '143', '140', '135', '139', '145', '136', '141', '111', '132', '127'] 660.0000000000002
84 13.2 ['138', '128', '147', '120', '149', '143', '140', '135', '139', '145', '136', '141', '111', '132', '127'] 660.0000000000002
85 13.2 ['138', '128', '147', '120', '149', '143', '140', '135', '139', '145', '136', '141', '111', '132', '127'] 660.0000000000002
86 13.2 ['138', '128', '147', '120', '149', '143', '140', '135', '139', '145', '136', '141', '111', '132', '127'] 660.0000000000002
87 13.2 ['138', '128', '147', '120', '149', '143', '140', '135', '139', '145', '136', '141', '111', '132', '127'] 660.0000000000002
88 13.2 ['138', '128', '147', '120', '149', '143', '140', '135', '139', '145', '136', '141', '111', '132', '127'] 660.0000000000002
89 13.2 ['138', '128', '147', '120', '149', '143', '140', '135', '139', '145', '136', '141', '111', '132', '127'] 660.0000000000002
90 13.2 ['138', '128', '147', '120', '149', '143', '140', '135', '139', '145', '136', '141', '111', '132', '127'] 660.0000000000002
91 13.2 ['138', '128', '147', '120', '149', '143', '140', '135', '139', '145', '136', '141', '111', '132', '127'] 660.0000000000002
92 13.2 ['138', '128', '147', '120', '149', '143', '140', '135', '139', '145', '136', '141', '111', '132', '127'] 660.0000000000002
93 13.2 ['138', '128', '147', '120', '149', '143', '140', '135', '139', '145', '136', '141', '111', '132', '127'] 660.0000000000002
94 13.2 ['138', '128', '147', '120', '149', '143', '140', '135', '139', '145', '136', '141', '111', '132', '127'] 660.0000000000002
95 13.2 ['138', '128', '147', '120', '149', '143', '140', '135', '139', '145', '136', '141', '111', '132', '127'] 660.0000000000002
96 13.2 ['138', '128', '147', '120', '149', '143', '140', '135', '139', '145', '136', '141', '111', '132', '127'] 660.0000000000002
97 13.2 ['138', '128', '147', '120', '149', '143', '140', '135', '139', '145', '136', '141', '111', '132', '127'] 660.0000000000002
98 13.2 ['138', '128', '147', '120', '149', '143', '140', '135', '139', '145', '136', '141', '111', '132', '127'] 660.0000000000002
99 13.2 ['138', '128', '147', '120', '149', '143', '140', '135', '139', '145', '136', '141', '111', '132', '127'] 660.0000000000002
100 13.2 ['138', '128', '147', '120', '149', '143', '140', '135', '139', '145', '136', '141', '111', '132', '127'] 660.0000000000002
101 13.2 ['138', '128', '147', '120', '149', '143', '140', '135', '139', '145', '136', '141', '111', '132', '127'] 660.0000000000002
102 13.2 ['138', '128', '147', '120', '149', '143', '140', '135', '139', '145', '136', '141', '111', '132', '127'] 660.0000000000002
103 13.2 ['138', '128', '147', '120', '149', '143', '140', '135', '139', '145', '136', '141', '111', '132', '127'] 660.0000000000002
104 13.2 ['138', '128', '147', '120', '149', '143', '140', '135', '139', '145', '136', '141', '111', '132', '127'] 660.0000000000002
105 13.2 ['138', '128', '147', '120', '149', '143', '140', '135', '139', '145', '136', '141', '111', '132', '127'] 660.0000000000002
106 13.2 ['138', '128', '147', '120', '149', '143', '140', '135', '139', '145', '136', '141', '111', '132', '127'] 660.0000000000002
107 13.2 ['138', '128', '147', '120', '149', '143', '140', '135', '139', '145', '136', '141', '111', '132', '127'] 660.0000000000002
108 13.2 ['138', '128', '147', '120', '149', '143', '140', '135', '139', '145', '136', '141', '111', '132', '127'] 660.0000000000002
109 13.2 ['138', '128', '147', '120', '149', '143', '140', '135', '139', '145', '136', '141', '111', '132', '127'] 660.0000000000002
110 13.2 ['138', '128', '147', '120', '149', '143', '140', '135', '139', '145', '136', '141', '111', '132', '127'] 660.0000000000002
111 13.2 ['138', '128', '147', '120', '149', '143', '140', '135', '139', '145', '136', '141', '111', '132', '127'] 660.0000000000002
112 13.2 ['138', '128', '147', '120', '149', '143', '140', '135', '139', '145', '136', '141', '111', '132', '127'] 660.0000000000002
113 13.2 ['138', '128', '147', '120', '149', '143', '140', '135', '139', '145', '136', '141', '111', '132', '127'] 660.0000000000002
114 13.2 ['138', '128', '147', '120', '149', '143', '140', '135', '139', '145', '136', '141', '111', '132', '127'] 660.0000000000002
115 13.2 ['138', '128', '147', '120', '149', '143', '140', '135', '139', '145', '136', '141', '111', '132', '127'] 660.0000000000002
116 13.2 ['138', '128', '147', '120', '149', '143', '140', '135', '139', '145', '136', '141', '111', '132', '127'] 660.0000000000002
117 13.2 ['138', '128', '147', '120', '149', '143', '140', '135', '139', '145', '136', '141', '111', '132', '127'] 660.0000000000002
118 13.2 ['138', '128', '147', '120', '149', '143', '140', '135', '139', '145', '136', '141', '111', '132', '127'] 660.0000000000002
119 13.2 ['138', '128', '147', '120', '149', '143', '140', '135', '139', '145', '136', '141', '111', '132', '127'] 660.0000000000002
120 13.2 ['138', '128', '147', '120', '149', '143', '140', '135', '139', '145', '136', '141', '111', '132', '127'] 660.0000000000002
121 13.2 ['138', '128', '147', '120', '149', '143', '140', '135', '139', '145', '136', '141', '111', '132', '127'] 660.0000000000002
122 13.2 ['138', '128', '147', '120', '149', '143', '140', '135', '139', '145', '136', '141', '111', '132', '127'] 660.0000000000002
123 13.2 ['138', '128', '147', '120', '149', '143', '140', '135', '139', '145', '136', '141', '111', '132', '127'] 660.0000000000002
124 13.2 ['138', '128', '147', '120', '149', '143', '140', '135', '139', '145', '136', '141', '111', '132', '127'] 660.0000000000002
125 13.2 ['138', '128', '147', '120', '149', '143', '140', '135', '139', '145', '136', '141', '111', '132', '127'] 660.0000000000002
126 13.2 ['138', '128', '147', '120', '149', '143', '140', '135', '139', '145', '136', '141', '111', '132', '127'] 660.0000000000002
127 13.2 ['138', '128', '147', '120', '149', '143', '140', '135', '139', '145', '136', '141', '111', '132', '127'] 660.0000000000002
128 13.2 ['138', '128', '147', '120', '149', '143', '140', '135', '139', '145', '136', '141', '111', '132', '127'] 660.0000000000002
129 13.2 ['138', '128', '147', '120', '149', '143', '140', '135', '139', '145', '136', '141', '111', '132', '127'] 660.0000000000002
130 13.2 ['138', '128', '147', '120', '149', '143', '140', '135', '139', '145', '136', '141', '111', '132', '127'] 660.0000000000002
131 13.2 ['138', '128', '147', '120', '149', '143', '140', '135', '139', '145', '136', '141', '111', '132', '127'] 660.0000000000002
132 13.2 ['138', '128', '147', '120', '149', '143', '140', '135', '139', '145', '136', '141', '111', '132', '127'] 660.0000000000002
133 13.2 ['138', '128', '147', '120', '149', '143', '140', '135', '139', '145', '136', '141', '111', '132', '127'] 660.0000000000002
134 13.2 ['138', '128', '147', '120', '149', '143', '140', '135', '139', '145', '136', '141', '111', '132', '127'] 660.0000000000002
135 13.2 ['138', '128', '147', '120', '149', '143', '140', '135', '139', '145', '136', '141', '111', '132', '127'] 660.0000000000002
136 13.2 ['138', '128', '147', '120', '149', '143', '140', '135', '139', '145', '136', '141', '111', '132', '127'] 660.0000000000002
137 13.2 ['138', '128', '147', '120', '149', '143', '140', '135', '139', '145', '136', '141', '111', '132', '127'] 660.0000000000002
138 13.2 ['138', '128', '147', '120', '149', '143', '140', '135', '139', '145', '136', '141', '111', '132', '127'] 660.0000000000002
139 13.2 ['138', '128', '147', '120', '149', '143', '140', '135', '139', '145', '136', '141', '111', '132', '127'] 660.0000000000002
140 13.2 ['138', '128', '147', '120', '149', '143', '140', '135', '139', '145', '136', '141', '111', '132', '127'] 660.0000000000002
141 13.2 ['138', '128', '147', '120', '149', '143', '140', '135', '139', '145', '136', '141', '111', '132', '127'] 660.0000000000002
142 13.2 ['138', '128', '147', '120', '149', '143', '140', '135', '139', '145', '136', '141', '111', '132', '127'] 660.0000000000002
143 13.2 ['138', '128', '147', '120', '149', '143', '140', '135', '139', '145', '136', '141', '111', '132', '127'] 660.0000000000002
144 13.2 ['138', '128', '147', '120', '149', '143', '140', '135', '139', '145', '136', '141', '111', '132', '127'] 660.0000000000002
145 13.2 ['138', '128', '147', '120', '149', '143', '140', '135', '139', '145', '136', '141', '111', '132', '127'] 660.0000000000002
146 13.2 ['138', '128', '147', '120', '149', '143', '140', '135', '139', '145', '136', '141', '111', '132', '127'] 660.0000000000002
147 13.2 ['138', '128', '147', '120', '149', '143', '140', '135', '139', '145', '136', '141', '111', '132', '127'] 660.0000000000002
148 13.2 ['138', '128', '147', '120', '149', '143', '140', '135', '139', '145', '136', '141', '111', '132', '127'] 660.0000000000002
149 13.2 ['138', '128', '147', '120', '149', '143', '140', '135', '139', '145', '136', '141', '111', '132', '127'] 660.0000000000002
150 13.2 ['138', '128', '147', '120', '149', '143', '140', '135', '139', '145', '136', '141', '111', '132', '127'] 660.0000000000002
151 13.2 ['138', '128', '147', '120', '149', '143', '140', '135', '139', '145', '136', '141', '111', '132', '127'] 660.0000000000002
152 13.2 ['138', '128', '147', '120', '149', '143', '140', '135', '139', '145', '136', '141', '111', '132', '127'] 660.0000000000002
153 13.2 ['138', '128', '147', '120', '149', '143', '140', '135', '139', '145', '136', '141', '111', '132', '127'] 660.0000000000002
154 13.2 ['138', '128', '147', '120', '149', '143', '140', '135', '139', '145', '136', '141', '111', '132', '127'] 660.0000000000002
155 13.2 ['138', '128', '147', '120', '149', '143', '140', '135', '139', '145', '136', '141', '111', '132', '127'] 660.0000000000002
156 13.2 ['138', '128', '147', '120', '149', '143', '140', '135', '139', '145', '136', '141', '111', '132', '127'] 660.0000000000002
157 13.2 ['138', '128', '147', '120', '149', '143', '140', '135', '139', '145', '136', '141', '111', '132', '127'] 660.0000000000002
158 13.2 ['138', '128', '147', '120', '149', '143', '140', '135', '139', '145', '136', '141', '111', '132', '127'] 660.0000000000002
159 13.2 ['138', '128', '147', '120', '149', '143', '140', '135', '139', '145', '136', '141', '111', '132', '127'] 660.0000000000002
160 13.2 ['138', '128', '147', '120', '149', '143', '140', '135', '139', '145', '136', '141', '111', '132', '127'] 660.0000000000002
161 13.2 ['138', '128', '147', '120', '149', '143', '140', '135', '139', '145', '136', '141', '111', '132', '127'] 660.0000000000002
162 13.2 ['138', '128', '147', '120', '149', '143', '140', '135', '139', '145', '136', '141', '111', '132', '127'] 660.0000000000002
163 13.2 ['138', '128', '147', '120', '149', '143', '140', '135', '139', '145', '136', '141', '111', '132', '127'] 660.0000000000002
164 13.2 ['138', '128', '147', '120', '149', '143', '140', '135', '139', '145', '136', '141', '111', '132', '127'] 660.0000000000002
165 13.2 ['138', '128', '147', '120', '149', '143', '140', '135', '139', '145', '136', '141', '111', '132', '127'] 660.0000000000002
166 13.2 ['138', '128', '147', '120', '149', '143', '140', '135', '139', '145', '136', '141', '111', '132', '127'] 660.0000000000002
167 13.2 ['138', '128', '147', '120', '149', '143', '140', '135', '139', '145', '136', '141', '111', '132', '127'] 660.0000000000002
168 13.2 ['138', '128', '147', '120', '149', '143', '140', '135', '139', '145', '136', '141', '111', '132', '127'] 660.0000000000002
169 13.2 ['138', '128', '147', '120', '149', '143', '140', '135', '139', '145', '136', '141', '111', '132', '127'] 660.0000000000002
170 13.2 ['138', '128', '147', '120', '149', '143', '140', '135', '139', '145', '136', '141', '111', '132', '127'] 660.0000000000002
171 13.2 ['138', '128', '147', '120', '149', '143', '140', '135', '139', '145', '136', '141', '111', '132', '127'] 660.0000000000002
172 13.2 ['138', '128', '147', '120', '149', '143', '140', '135', '139', '145', '136', '141', '111', '132', '127'] 660.0000000000002
173 13.2 ['138', '128', '147', '120', '149', '143', '140', '135', '139', '145', '136', '141', '111', '132', '127'] 660.0000000000002
174 13.2 ['138', '128', '147', '120', '149', '143', '140', '135', '139', '145', '136', '141', '111', '132', '127'] 660.0000000000002
175 13.2 ['138', '128', '147', '120', '149', '143', '140', '135', '139', '145', '136', '141', '111', '132', '127'] 660.0000000000002
176 13.2 ['138', '128', '147', '120', '149', '143', '140', '135', '139', '145', '136', '141', '111', '132', '127'] 660.0000000000002
177 13.2 ['138', '128', '147', '120', '149', '143', '140', '135', '139', '145', '136', '141', '111', '132', '127'] 660.0000000000002
178 13.2 ['138', '128', '147', '120', '149', '143', '140', '135', '139', '145', '136', '141', '111', '132', '127'] 660.0000000000002
179 13.2 ['138', '128', '147', '120', '149', '143', '140', '135', '139', '145', '136', '141', '111', '132', '127'] 660.0000000000002
180 13.2 ['138', '128', '147', '120', '149', '143', '140', '135', '139', '145', '136', '141', '111', '132', '127'] 660.0000000000002
181 13.2 ['138', '128', '147', '120', '149', '143', '140', '135', '139', '145', '136', '141', '111', '132', '127'] 660.0000000000002
182 13.2 ['138', '128', '147', '120', '149', '143', '140', '135', '139', '145', '136', '141', '111', '132', '127'] 660.0000000000002
183 13.2 ['138', '128', '147', '120', '149', '143', '140', '135', '139', '145', '136', '141', '111', '132', '127'] 660.0000000000002
184 13.2 ['138', '128', '147', '120', '149', '143', '140', '135', '139', '145', '136', '141', '111', '132', '127'] 660.0000000000002
185 13.2 ['138', '128', '147', '120', '149', '143', '140', '135', '139', '145', '136', '141', '111', '132', '127'] 660.0000000000002
186 13.2 ['138', '128', '147', '120', '149', '143', '140', '135', '139', '145', '136', '141', '111', '132', '127'] 660.0000000000002
187 13.2 ['138', '128', '147', '120', '149', '143', '140', '135', '139', '145', '136', '141', '111', '132', '127'] 660.0000000000002
188 13.2 ['138', '128', '147', '120', '149', '143', '140', '135', '139', '145', '136', '141', '111', '132', '127'] 660.0000000000002
189 13.2 ['138', '128', '147', '120', '149', '143', '140', '135', '139', '145', '136', '141', '111', '132', '127'] 660.0000000000002
190 13.2 ['138', '128', '147', '120', '149', '143', '140', '135', '139', '145', '136', '141', '111', '132', '127'] 660.0000000000002
191 13.2 ['138', '128', '147', '120', '149', '143', '140', '135', '139', '145', '136', '141', '111', '132', '127'] 660.0000000000002
192 13.2 ['138', '128', '147', '120', '149', '143', '140', '135', '139', '145', '136', '141', '111', '132', '127'] 660.0000000000002
193 13.2 ['138', '128', '147', '120', '149', '143', '140', '135', '139', '145', '136', '141', '111', '132', '127'] 660.0000000000002
194 13.2 ['138', '128', '147', '120', '149', '143', '140', '135', '139', '145', '136', '141', '111', '132', '127'] 660.0000000000002
195 13.2 ['138', '128', '147', '120', '149', '143', '140', '135', '139', '145', '136', '141', '111', '132', '127'] 660.0000000000002
196 13.2 ['138', '128', '147', '120', '149', '143', '140', '135', '139', '145', '136', '141', '111', '132', '127'] 660.0000000000002
197 13.2 ['138', '128', '147', '120', '149', '143', '140', '135', '139', '145', '136', '141', '111', '132', '127'] 660.0000000000002
198 13.2 ['138', '128', '147', '120', '149', '143', '140', '135', '139', '145', '136', '141', '111', '132', '127'] 660.0000000000002
199 13.2 ['138', '128', '147', '120', '149', '143', '140', '135', '139', '145', '136', '141', '111', '132', '127'] 660.0000000000002
