0 14.484848484848484 ['4', '7', '18'] 779.5757575757577
1 14.393939393939394 ['7', '28', '4'] 764.3030303030303
2 14.393939393939394 ['7', '28', '4'] 752.0606060606059
3 14.393939393939394 ['7', '28', '4'] 735.9090909090912
4 14.393939393939394 ['7', '28', '4'] 724.6969696969702
5 14.393939393939394 ['7', '28', '4'] 721.787878787879
6 14.393939393939394 ['7', '28', '4'] 719.6969696969693
7 14.393939393939394 ['7', '28', '4'] 719.6969696969693
8 14.393939393939394 ['7', '28', '4'] 719.6969696969693
9 14.393939393939394 ['7', '28', '4'] 719.6969696969693
10 14.393939393939394 ['7', '28', '4'] 719.6969696969693
11 14.393939393939394 ['7', '28', '4'] 719.6969696969693
12 14.393939393939394 ['7', '28', '4'] 719.6969696969693
13 14.393939393939394 ['7', '28', '4'] 719.6969696969693
14 14.393939393939394 ['7', '28', '4'] 719.6969696969693
15 14.393939393939394 ['7', '28', '4'] 719.6969696969693
16 14.393939393939394 ['7', '28', '4'] 719.6969696969693
17 14.393939393939394 ['7', '28', '4'] 719.6969696969693
18 14.393939393939394 ['7', '28', '4'] 719.6969696969693
19 14.393939393939394 ['7', '28', '4'] 719.6969696969693
20 14.393939393939394 ['7', '28', '4'] 719.6969696969693
21 14.393939393939394 ['7', '28', '4'] 719.6969696969693
22 14.393939393939394 ['7', '28', '4'] 719.6969696969693
23 14.393939393939394 ['7', '28', '4'] 719.6969696969693
24 14.393939393939394 ['7', '28', '4'] 719.6969696969693
25 14.393939393939394 ['7', '28', '4'] 719.6969696969693
26 14.393939393939394 ['7', '28', '4'] 719.6969696969693
27 14.393939393939394 ['7', '28', '4'] 719.6969696969693
28 14.393939393939394 ['7', '28', '4'] 719.6969696969693
29 14.393939393939394 ['7', '28', '4'] 719.6969696969693
30 14.393939393939394 ['7', '28', '4'] 719.6969696969693
31 14.393939393939394 ['7', '28', '4'] 719.6969696969693
32 14.393939393939394 ['7', '28', '4'] 719.6969696969693
33 14.393939393939394 ['7', '28', '4'] 719.6969696969693
34 14.393939393939394 ['7', '28', '4'] 719.6969696969693
35 14.393939393939394 ['7', '28', '4'] 719.6969696969693
36 14.393939393939394 ['7', '28', '4'] 719.6969696969693
37 14.393939393939394 ['7', '28', '4'] 719.6969696969693
38 14.393939393939394 ['7', '28', '4'] 719.6969696969693
39 14.393939393939394 ['7', '28', '4'] 719.6969696969693
40 14.393939393939394 ['7', '28', '4'] 719.6969696969693
41 14.393939393939394 ['7', '28', '4'] 719.6969696969693
42 14.393939393939394 ['7', '28', '4'] 719.6969696969693
43 14.393939393939394 ['7', '28', '4'] 719.6969696969693
44 14.393939393939394 ['7', '28', '4'] 719.6969696969693
45 14.393939393939394 ['7', '28', '4'] 719.6969696969693
46 14.393939393939394 ['7', '28', '4'] 719.6969696969693
47 14.393939393939394 ['7', '28', '4'] 719.6969696969693
48 14.393939393939394 ['7', '28', '4'] 719.6969696969693
49 14.393939393939394 ['7', '28', '4'] 719.6969696969693
50 14.393939393939394 ['7', '28', '4'] 719.6969696969693
51 14.393939393939394 ['7', '28', '4'] 719.6969696969693
52 14.393939393939394 ['7', '28', '4'] 719.6969696969693
53 14.393939393939394 ['7', '28', '4'] 719.6969696969693
54 14.393939393939394 ['7', '28', '4'] 719.6969696969693
55 14.393939393939394 ['7', '28', '4'] 719.6969696969693
56 14.393939393939394 ['7', '28', '4'] 719.6969696969693
57 14.393939393939394 ['7', '28', '4'] 719.6969696969693
58 14.393939393939394 ['7', '28', '4'] 719.6969696969693
59 14.393939393939394 ['7', '28', '4'] 719.6969696969693
60 14.393939393939394 ['7', '28', '4'] 719.6969696969693
61 14.393939393939394 ['7', '28', '4'] 719.6969696969693
62 14.393939393939394 ['7', '28', '4'] 719.6969696969693
63 14.393939393939394 ['7', '28', '4'] 719.6969696969693
64 14.393939393939394 ['7', '28', '4'] 719.6969696969693
65 14.393939393939394 ['7', '28', '4'] 719.6969696969693
66 14.393939393939394 ['7', '28', '4'] 719.6969696969693
67 14.393939393939394 ['7', '28', '4'] 719.6969696969693
68 14.393939393939394 ['7', '28', '4'] 719.6969696969693
69 14.393939393939394 ['7', '28', '4'] 719.6969696969693
70 14.393939393939394 ['7', '28', '4'] 719.6969696969693
71 14.393939393939394 ['7', '28', '4'] 719.6969696969693
72 14.393939393939394 ['7', '28', '4'] 719.6969696969693
73 14.393939393939394 ['7', '28', '4'] 719.6969696969693
74 14.393939393939394 ['7', '28', '4'] 719.6969696969693
75 14.393939393939394 ['7', '28', '4'] 719.6969696969693
76 14.393939393939394 ['7', '28', '4'] 719.6969696969693
77 14.393939393939394 ['7', '28', '4'] 719.6969696969693
78 14.393939393939394 ['7', '28', '4'] 719.6969696969693
79 14.393939393939394 ['7', '28', '4'] 719.6969696969693
80 14.393939393939394 ['7', '28', '4'] 719.6969696969693
81 14.393939393939394 ['7', '28', '4'] 719.6969696969693
82 14.393939393939394 ['7', '28', '4'] 719.6969696969693
83 14.393939393939394 ['7', '28', '4'] 719.6969696969693
84 14.393939393939394 ['7', '28', '4'] 719.6969696969693
85 14.393939393939394 ['7', '28', '4'] 719.6969696969693
86 14.393939393939394 ['7', '28', '4'] 719.6969696969693
87 14.393939393939394 ['7', '28', '4'] 719.6969696969693
88 14.393939393939394 ['7', '28', '4'] 719.6969696969693
89 14.393939393939394 ['7', '28', '4'] 719.6969696969693
90 14.393939393939394 ['7', '28', '4'] 719.6969696969693
91 14.393939393939394 ['7', '28', '4'] 719.6969696969693
92 14.393939393939394 ['7', '28', '4'] 719.6969696969693
93 14.393939393939394 ['7', '28', '4'] 719.6969696969693
94 14.393939393939394 ['7', '28', '4'] 719.6969696969693
95 14.393939393939394 ['7', '28', '4'] 719.6969696969693
96 14.393939393939394 ['7', '28', '4'] 719.6969696969693
97 14.393939393939394 ['7', '28', '4'] 719.6969696969693
98 14.393939393939394 ['7', '28', '4'] 719.6969696969693
99 14.393939393939394 ['7', '28', '4'] 719.6969696969693
100 14.393939393939394 ['7', '28', '4'] 719.6969696969693
101 14.393939393939394 ['7', '28', '4'] 719.6969696969693
102 14.393939393939394 ['7', '28', '4'] 719.6969696969693
103 14.393939393939394 ['7', '28', '4'] 719.6969696969693
104 14.393939393939394 ['7', '28', '4'] 719.6969696969693
105 14.393939393939394 ['7', '28', '4'] 719.6969696969693
106 14.393939393939394 ['7', '28', '4'] 719.6969696969693
107 14.393939393939394 ['7', '28', '4'] 719.6969696969693
108 14.393939393939394 ['7', '28', '4'] 719.6969696969693
109 14.393939393939394 ['7', '28', '4'] 719.6969696969693
110 14.393939393939394 ['7', '28', '4'] 719.6969696969693
111 14.393939393939394 ['7', '28', '4'] 719.6969696969693
112 14.393939393939394 ['7', '28', '4'] 719.6969696969693
113 14.393939393939394 ['7', '28', '4'] 719.6969696969693
114 14.393939393939394 ['7', '28', '4'] 719.6969696969693
115 14.393939393939394 ['7', '28', '4'] 719.6969696969693
116 14.393939393939394 ['7', '28', '4'] 719.6969696969693
117 14.393939393939394 ['7', '28', '4'] 719.6969696969693
118 14.393939393939394 ['7', '28', '4'] 719.6969696969693
119 14.393939393939394 ['7', '28', '4'] 719.6969696969693
120 14.393939393939394 ['7', '28', '4'] 719.6969696969693
121 14.393939393939394 ['7', '28', '4'] 719.6969696969693
122 14.393939393939394 ['7', '28', '4'] 719.6969696969693
123 14.393939393939394 ['7', '28', '4'] 719.6969696969693
124 14.393939393939394 ['7', '28', '4'] 719.6969696969693
125 14.393939393939394 ['7', '28', '4'] 719.6969696969693
126 14.393939393939394 ['7', '28', '4'] 719.6969696969693
127 14.393939393939394 ['7', '28', '4'] 719.6969696969693
128 14.393939393939394 ['7', '28', '4'] 719.6969696969693
129 14.393939393939394 ['7', '28', '4'] 719.6969696969693
130 14.393939393939394 ['7', '28', '4'] 719.6969696969693
131 14.393939393939394 ['7', '28', '4'] 719.6969696969693
132 14.393939393939394 ['7', '28', '4'] 719.6969696969693
133 14.393939393939394 ['7', '28', '4'] 719.6969696969693
134 14.393939393939394 ['7', '28', '4'] 719.6969696969693
135 14.393939393939394 ['7', '28', '4'] 719.6969696969693
136 14.393939393939394 ['7', '28', '4'] 719.6969696969693
137 14.393939393939394 ['7', '28', '4'] 719.6969696969693
138 14.393939393939394 ['7', '28', '4'] 719.6969696969693
139 14.393939393939394 ['7', '28', '4'] 719.6969696969693
140 14.393939393939394 ['7', '28', '4'] 719.6969696969693
141 14.393939393939394 ['7', '28', '4'] 719.6969696969693
142 14.393939393939394 ['7', '28', '4'] 719.6969696969693
143 14.393939393939394 ['7', '28', '4'] 719.6969696969693
144 14.393939393939394 ['7', '28', '4'] 719.6969696969693
145 14.393939393939394 ['7', '28', '4'] 719.6969696969693
146 14.393939393939394 ['7', '28', '4'] 719.6969696969693
147 14.393939393939394 ['7', '28', '4'] 719.6969696969693
148 14.393939393939394 ['7', '28', '4'] 719.6969696969693
149 14.393939393939394 ['7', '28', '4'] 719.6969696969693
150 14.393939393939394 ['7', '28', '4'] 719.6969696969693
151 14.393939393939394 ['7', '28', '4'] 719.6969696969693
152 14.393939393939394 ['7', '28', '4'] 719.6969696969693
153 14.393939393939394 ['7', '28', '4'] 719.6969696969693
154 14.393939393939394 ['7', '28', '4'] 719.6969696969693
155 14.393939393939394 ['7', '28', '4'] 719.6969696969693
156 14.393939393939394 ['7', '28', '4'] 719.6969696969693
157 14.393939393939394 ['7', '28', '4'] 719.6969696969693
158 14.393939393939394 ['7', '28', '4'] 719.6969696969693
159 14.393939393939394 ['7', '28', '4'] 719.6969696969693
160 14.393939393939394 ['7', '28', '4'] 719.6969696969693
161 14.393939393939394 ['7', '28', '4'] 719.6969696969693
162 14.393939393939394 ['7', '28', '4'] 719.6969696969693
163 14.393939393939394 ['7', '28', '4'] 719.6969696969693
164 14.393939393939394 ['7', '28', '4'] 719.6969696969693
165 14.393939393939394 ['7', '28', '4'] 719.6969696969693
166 14.393939393939394 ['7', '28', '4'] 719.6969696969693
167 14.393939393939394 ['7', '28', '4'] 719.6969696969693
168 14.393939393939394 ['7', '28', '4'] 719.6969696969693
169 14.393939393939394 ['7', '28', '4'] 719.6969696969693
170 14.393939393939394 ['7', '28', '4'] 719.6969696969693
171 14.393939393939394 ['7', '28', '4'] 719.6969696969693
172 14.393939393939394 ['7', '28', '4'] 719.6969696969693
173 14.393939393939394 ['7', '28', '4'] 719.6969696969693
174 14.393939393939394 ['7', '28', '4'] 719.6969696969693
175 14.393939393939394 ['7', '28', '4'] 719.6969696969693
176 14.393939393939394 ['7', '28', '4'] 719.6969696969693
177 14.393939393939394 ['7', '28', '4'] 719.6969696969693
178 14.393939393939394 ['7', '28', '4'] 719.6969696969693
179 14.393939393939394 ['7', '28', '4'] 719.6969696969693
180 14.393939393939394 ['7', '28', '4'] 719.6969696969693
181 14.393939393939394 ['7', '28', '4'] 719.6969696969693
182 14.393939393939394 ['7', '28', '4'] 719.6969696969693
183 14.393939393939394 ['7', '28', '4'] 719.6969696969693
184 14.393939393939394 ['7', '28', '4'] 719.6969696969693
185 14.393939393939394 ['7', '28', '4'] 719.6969696969693
186 14.393939393939394 ['7', '28', '4'] 719.6969696969693
187 14.393939393939394 ['7', '28', '4'] 719.6969696969693
188 14.393939393939394 ['7', '28', '4'] 719.6969696969693
189 14.393939393939394 ['7', '28', '4'] 719.6969696969693
190 14.393939393939394 ['7', '28', '4'] 719.6969696969693
191 14.393939393939394 ['7', '28', '4'] 719.6969696969693
192 14.393939393939394 ['7', '28', '4'] 719.6969696969693
193 14.393939393939394 ['7', '28', '4'] 719.6969696969693
194 14.393939393939394 ['7', '28', '4'] 719.6969696969693
195 14.393939393939394 ['7', '28', '4'] 719.6969696969693
196 14.393939393939394 ['7', '28', '4'] 719.6969696969693
197 14.393939393939394 ['7', '28', '4'] 719.6969696969693
198 14.393939393939394 ['7', '28', '4'] 719.6969696969693
199 14.393939393939394 ['7', '28', '4'] 719.6969696969693
