0 28.67924528301887 ['53', '16', '2', '33', '31'] 1528.4528301886796
1 28.37735849056604 ['48', '41', '17', '55', '16'] 1493.509433962264
2 27.09433962264151 ['2', '53', '33', '16', '55'] 1460.6792452830189
3 27.09433962264151 ['2', '53', '33', '16', '55'] 1426.7924528301883
4 27.09433962264151 ['2', '53', '33', '16', '55'] 1395.6226415094334
5 26.641509433962263 ['41', '16', '39', '55', '53'] 1372.9811320754714
6 26.11320754716981 ['16', '41', '43', '55', '53'] 1355.9999999999995
7 26.11320754716981 ['16', '41', '43', '55', '53'] 1342.641509433962
8 26.11320754716981 ['16', '41', '43', '55', '53'] 1329.3584905660377
9 26.11320754716981 ['16', '41', '43', '55', '53'] 1324.6037735849054
10 26.11320754716981 ['16', '41', '43', '55', '53'] 1314.6415094339623
11 26.11320754716981 ['16', '41', '43', '55', '53'] 1305.6603773584916
12 26.11320754716981 ['16', '41', '43', '55', '53'] 1305.6603773584916
13 26.11320754716981 ['16', '41', '43', '55', '53'] 1305.6603773584916
14 26.11320754716981 ['16', '41', '43', '55', '53'] 1305.6603773584916
15 26.11320754716981 ['16', '41', '43', '55', '53'] 1305.6603773584916
16 26.11320754716981 ['16', '41', '43', '55', '53'] 1305.6603773584916
17 26.11320754716981 ['16', '41', '43', '55', '53'] 1305.6603773584916
18 26.11320754716981 ['16', '41', '43', '55', '53'] 1305.6603773584916
19 26.11320754716981 ['16', '41', '43', '55', '53'] 1305.6603773584916
20 26.11320754716981 ['16', '41', '43', '55', '53'] 1305.6603773584916
21 26.11320754716981 ['16', '41', '43', '55', '53'] 1305.6603773584916
22 26.11320754716981 ['16', '41', '43', '55', '53'] 1305.6603773584916
23 26.11320754716981 ['16', '41', '43', '55', '53'] 1305.6603773584916
24 26.11320754716981 ['16', '41', '43', '55', '53'] 1305.6603773584916
25 26.11320754716981 ['16', '41', '43', '55', '53'] 1305.6603773584916
26 26.11320754716981 ['16', '41', '43', '55', '53'] 1305.6603773584916
27 26.11320754716981 ['16', '41', '43', '55', '53'] 1305.6603773584916
28 26.11320754716981 ['16', '41', '43', '55', '53'] 1305.6603773584916
29 26.11320754716981 ['16', '41', '43', '55', '53'] 1305.6603773584916
30 26.11320754716981 ['16', '41', '43', '55', '53'] 1305.6603773584916
31 26.11320754716981 ['16', '41', '43', '55', '53'] 1305.6603773584916
32 26.11320754716981 ['16', '41', '43', '55', '53'] 1305.6603773584916
33 26.11320754716981 ['16', '41', '43', '55', '53'] 1305.6603773584916
34 26.11320754716981 ['16', '41', '43', '55', '53'] 1305.6603773584916
35 26.11320754716981 ['16', '41', '43', '55', '53'] 1305.6603773584916
36 26.11320754716981 ['16', '41', '43', '55', '53'] 1305.6603773584916
37 26.11320754716981 ['16', '41', '43', '55', '53'] 1305.6603773584916
38 26.11320754716981 ['16', '41', '43', '55', '53'] 1305.6603773584916
39 26.11320754716981 ['16', '41', '43', '55', '53'] 1305.6603773584916
40 26.11320754716981 ['16', '41', '43', '55', '53'] 1305.6603773584916
41 26.11320754716981 ['16', '41', '43', '55', '53'] 1305.6603773584916
42 26.11320754716981 ['16', '41', '43', '55', '53'] 1305.6603773584916
43 26.11320754716981 ['16', '41', '43', '55', '53'] 1305.6603773584916
44 26.11320754716981 ['16', '41', '43', '55', '53'] 1305.6603773584916
45 26.11320754716981 ['16', '41', '43', '55', '53'] 1305.6603773584916
46 26.11320754716981 ['16', '41', '43', '55', '53'] 1305.6603773584916
47 26.11320754716981 ['16', '41', '43', '55', '53'] 1305.6603773584916
48 26.11320754716981 ['16', '41', '43', '55', '53'] 1305.6603773584916
49 26.11320754716981 ['16', '41', '43', '55', '53'] 1305.6603773584916
50 26.11320754716981 ['16', '41', '43', '55', '53'] 1305.6603773584916
51 26.11320754716981 ['16', '41', '43', '55', '53'] 1305.6603773584916
52 26.11320754716981 ['16', '41', '43', '55', '53'] 1305.6603773584916
53 26.11320754716981 ['16', '41', '43', '55', '53'] 1305.6603773584916
54 26.11320754716981 ['16', '41', '43', '55', '53'] 1305.6603773584916
55 26.11320754716981 ['16', '41', '43', '55', '53'] 1305.6603773584916
56 26.11320754716981 ['16', '41', '43', '55', '53'] 1305.6603773584916
57 26.11320754716981 ['16', '41', '43', '55', '53'] 1305.6603773584916
58 26.11320754716981 ['16', '41', '43', '55', '53'] 1305.6603773584916
59 26.11320754716981 ['16', '41', '43', '55', '53'] 1305.6603773584916
60 26.11320754716981 ['16', '41', '43', '55', '53'] 1305.6603773584916
61 26.11320754716981 ['16', '41', '43', '55', '53'] 1305.6603773584916
62 26.11320754716981 ['16', '41', '43', '55', '53'] 1305.6603773584916
63 26.11320754716981 ['16', '41', '43', '55', '53'] 1305.6603773584916
64 26.11320754716981 ['16', '41', '43', '55', '53'] 1305.6603773584916
65 26.11320754716981 ['16', '41', '43', '55', '53'] 1305.6603773584916
66 26.11320754716981 ['16', '41', '43', '55', '53'] 1305.6603773584916
67 26.11320754716981 ['16', '41', '43', '55', '53'] 1305.6603773584916
68 26.11320754716981 ['16', '41', '43', '55', '53'] 1305.6603773584916
69 26.11320754716981 ['16', '41', '43', '55', '53'] 1305.6603773584916
70 26.11320754716981 ['16', '41', '43', '55', '53'] 1305.6603773584916
71 26.11320754716981 ['16', '41', '43', '55', '53'] 1305.6603773584916
72 26.11320754716981 ['16', '41', '43', '55', '53'] 1305.6603773584916
73 26.11320754716981 ['16', '41', '43', '55', '53'] 1305.6603773584916
74 26.11320754716981 ['16', '41', '43', '55', '53'] 1305.6603773584916
75 26.11320754716981 ['16', '41', '43', '55', '53'] 1305.6603773584916
76 26.11320754716981 ['16', '41', '43', '55', '53'] 1305.6603773584916
77 26.11320754716981 ['16', '41', '43', '55', '53'] 1305.6603773584916
78 26.11320754716981 ['16', '41', '43', '55', '53'] 1305.6603773584916
79 26.11320754716981 ['16', '41', '43', '55', '53'] 1305.6603773584916
80 26.11320754716981 ['16', '41', '43', '55', '53'] 1305.6603773584916
81 26.11320754716981 ['16', '41', '43', '55', '53'] 1305.6603773584916
82 26.11320754716981 ['16', '41', '43', '55', '53'] 1305.6603773584916
83 26.11320754716981 ['16', '41', '43', '55', '53'] 1305.6603773584916
84 26.11320754716981 ['16', '41', '43', '55', '53'] 1305.6603773584916
85 26.11320754716981 ['16', '41', '43', '55', '53'] 1305.6603773584916
86 26.11320754716981 ['16', '41', '43', '55', '53'] 1305.6603773584916
87 26.11320754716981 ['16', '41', '43', '55', '53'] 1305.6603773584916
88 26.11320754716981 ['16', '41', '43', '55', '53'] 1305.6603773584916
89 26.11320754716981 ['16', '41', '43', '55', '53'] 1305.6603773584916
90 26.11320754716981 ['16', '41', '43', '55', '53'] 1305.6603773584916
91 26.11320754716981 ['16', '41', '43', '55', '53'] 1305.6603773584916
92 26.11320754716981 ['16', '41', '43', '55', '53'] 1305.6603773584916
93 26.11320754716981 ['16', '41', '43', '55', '53'] 1305.6603773584916
94 26.11320754716981 ['16', '41', '43', '55', '53'] 1305.6603773584916
95 26.11320754716981 ['16', '41', '43', '55', '53'] 1305.6603773584916
96 26.11320754716981 ['16', '41', '43', '55', '53'] 1305.6603773584916
97 26.11320754716981 ['16', '41', '43', '55', '53'] 1305.6603773584916
98 26.11320754716981 ['16', '41', '43', '55', '53'] 1305.6603773584916
99 26.11320754716981 ['16', '41', '43', '55', '53'] 1305.6603773584916
100 26.11320754716981 ['16', '41', '43', '55', '53'] 1305.6603773584916
101 26.11320754716981 ['16', '41', '43', '55', '53'] 1305.6603773584916
102 26.11320754716981 ['16', '41', '43', '55', '53'] 1305.6603773584916
103 26.11320754716981 ['16', '41', '43', '55', '53'] 1305.6603773584916
104 26.11320754716981 ['16', '41', '43', '55', '53'] 1305.6603773584916
105 26.11320754716981 ['16', '41', '43', '55', '53'] 1305.6603773584916
106 26.11320754716981 ['16', '41', '43', '55', '53'] 1305.6603773584916
107 26.11320754716981 ['16', '41', '43', '55', '53'] 1305.6603773584916
108 26.11320754716981 ['16', '41', '43', '55', '53'] 1305.6603773584916
109 26.11320754716981 ['16', '41', '43', '55', '53'] 1305.6603773584916
110 26.11320754716981 ['16', '41', '43', '55', '53'] 1305.6603773584916
111 26.11320754716981 ['16', '41', '43', '55', '53'] 1305.6603773584916
112 26.11320754716981 ['16', '41', '43', '55', '53'] 1305.6603773584916
113 26.11320754716981 ['16', '41', '43', '55', '53'] 1305.6603773584916
114 26.11320754716981 ['16', '41', '43', '55', '53'] 1305.6603773584916
115 26.11320754716981 ['16', '41', '43', '55', '53'] 1305.6603773584916
116 26.11320754716981 ['16', '41', '43', '55', '53'] 1305.6603773584916
117 26.11320754716981 ['16', '41', '43', '55', '53'] 1305.6603773584916
118 26.11320754716981 ['16', '41', '43', '55', '53'] 1305.6603773584916
119 26.11320754716981 ['16', '41', '43', '55', '53'] 1305.6603773584916
120 26.11320754716981 ['16', '41', '43', '55', '53'] 1305.6603773584916
121 26.11320754716981 ['16', '41', '43', '55', '53'] 1305.6603773584916
122 26.11320754716981 ['16', '41', '43', '55', '53'] 1305.6603773584916
123 26.11320754716981 ['16', '41', '43', '55', '53'] 1305.6603773584916
124 26.11320754716981 ['16', '41', '43', '55', '53'] 1305.6603773584916
125 26.11320754716981 ['16', '41', '43', '55', '53'] 1305.6603773584916
126 26.11320754716981 ['16', '41', '43', '55', '53'] 1305.6603773584916
127 26.11320754716981 ['16', '41', '43', '55', '53'] 1305.6603773584916
128 26.11320754716981 ['16', '41', '43', '55', '53'] 1305.6603773584916
129 26.11320754716981 ['16', '41', '43', '55', '53'] 1305.6603773584916
130 26.11320754716981 ['16', '41', '43', '55', '53'] 1305.6603773584916
131 26.11320754716981 ['16', '41', '43', '55', '53'] 1305.6603773584916
132 26.11320754716981 ['16', '41', '43', '55', '53'] 1305.6603773584916
133 26.11320754716981 ['16', '41', '43', '55', '53'] 1305.6603773584916
134 26.11320754716981 ['16', '41', '43', '55', '53'] 1305.6603773584916
135 26.11320754716981 ['16', '41', '43', '55', '53'] 1305.6603773584916
136 26.11320754716981 ['16', '41', '43', '55', '53'] 1305.6603773584916
137 26.11320754716981 ['16', '41', '43', '55', '53'] 1305.6603773584916
138 26.11320754716981 ['16', '41', '43', '55', '53'] 1305.6603773584916
139 26.11320754716981 ['16', '41', '43', '55', '53'] 1305.6603773584916
140 26.11320754716981 ['16', '41', '43', '55', '53'] 1305.6603773584916
141 26.11320754716981 ['16', '41', '43', '55', '53'] 1305.6603773584916
142 26.11320754716981 ['16', '41', '43', '55', '53'] 1305.6603773584916
143 26.11320754716981 ['16', '41', '43', '55', '53'] 1305.6603773584916
144 26.11320754716981 ['16', '41', '43', '55', '53'] 1305.6603773584916
145 26.11320754716981 ['16', '41', '43', '55', '53'] 1305.6603773584916
146 26.11320754716981 ['16', '41', '43', '55', '53'] 1305.6603773584916
147 26.11320754716981 ['16', '41', '43', '55', '53'] 1305.6603773584916
148 26.11320754716981 ['16', '41', '43', '55', '53'] 1305.6603773584916
149 26.11320754716981 ['16', '41', '43', '55', '53'] 1305.6603773584916
150 26.11320754716981 ['16', '41', '43', '55', '53'] 1305.6603773584916
151 26.11320754716981 ['16', '41', '43', '55', '53'] 1305.6603773584916
152 26.11320754716981 ['16', '41', '43', '55', '53'] 1305.6603773584916
153 26.11320754716981 ['16', '41', '43', '55', '53'] 1305.6603773584916
154 26.11320754716981 ['16', '41', '43', '55', '53'] 1305.6603773584916
155 26.11320754716981 ['16', '41', '43', '55', '53'] 1305.6603773584916
156 26.11320754716981 ['16', '41', '43', '55', '53'] 1305.6603773584916
157 26.11320754716981 ['16', '41', '43', '55', '53'] 1305.6603773584916
158 26.11320754716981 ['16', '41', '43', '55', '53'] 1305.6603773584916
159 26.11320754716981 ['16', '41', '43', '55', '53'] 1305.6603773584916
160 26.11320754716981 ['16', '41', '43', '55', '53'] 1305.6603773584916
161 26.11320754716981 ['16', '41', '43', '55', '53'] 1305.6603773584916
162 26.11320754716981 ['16', '41', '43', '55', '53'] 1305.6603773584916
163 26.11320754716981 ['16', '41', '43', '55', '53'] 1305.6603773584916
164 26.11320754716981 ['16', '41', '43', '55', '53'] 1305.6603773584916
165 26.11320754716981 ['16', '41', '43', '55', '53'] 1305.6603773584916
166 26.11320754716981 ['16', '41', '43', '55', '53'] 1305.6603773584916
167 26.11320754716981 ['16', '41', '43', '55', '53'] 1305.6603773584916
168 26.11320754716981 ['16', '41', '43', '55', '53'] 1305.6603773584916
169 26.11320754716981 ['16', '41', '43', '55', '53'] 1305.6603773584916
170 26.11320754716981 ['16', '41', '43', '55', '53'] 1305.6603773584916
171 26.11320754716981 ['16', '41', '43', '55', '53'] 1305.6603773584916
172 26.11320754716981 ['16', '41', '43', '55', '53'] 1305.6603773584916
173 26.11320754716981 ['16', '41', '43', '55', '53'] 1305.6603773584916
174 26.11320754716981 ['16', '41', '43', '55', '53'] 1305.6603773584916
175 26.11320754716981 ['16', '41', '43', '55', '53'] 1305.6603773584916
176 26.11320754716981 ['16', '41', '43', '55', '53'] 1305.6603773584916
177 26.11320754716981 ['16', '41', '43', '55', '53'] 1305.6603773584916
178 26.11320754716981 ['16', '41', '43', '55', '53'] 1305.6603773584916
179 26.11320754716981 ['16', '41', '43', '55', '53'] 1305.6603773584916
180 26.11320754716981 ['16', '41', '43', '55', '53'] 1305.6603773584916
181 26.11320754716981 ['16', '41', '43', '55', '53'] 1305.6603773584916
182 26.11320754716981 ['16', '41', '43', '55', '53'] 1305.6603773584916
183 26.11320754716981 ['16', '41', '43', '55', '53'] 1305.6603773584916
184 26.11320754716981 ['16', '41', '43', '55', '53'] 1305.6603773584916
185 26.11320754716981 ['16', '41', '43', '55', '53'] 1305.6603773584916
186 26.11320754716981 ['16', '41', '43', '55', '53'] 1305.6603773584916
187 26.11320754716981 ['16', '41', '43', '55', '53'] 1305.6603773584916
188 26.11320754716981 ['16', '41', '43', '55', '53'] 1305.6603773584916
189 26.11320754716981 ['16', '41', '43', '55', '53'] 1305.6603773584916
190 26.11320754716981 ['16', '41', '43', '55', '53'] 1305.6603773584916
191 26.11320754716981 ['16', '41', '43', '55', '53'] 1305.6603773584916
192 26.11320754716981 ['16', '41', '43', '55', '53'] 1305.6603773584916
193 26.11320754716981 ['16', '41', '43', '55', '53'] 1305.6603773584916
194 26.11320754716981 ['16', '41', '43', '55', '53'] 1305.6603773584916
195 26.11320754716981 ['16', '41', '43', '55', '53'] 1305.6603773584916
196 26.11320754716981 ['16', '41', '43', '55', '53'] 1305.6603773584916
197 26.11320754716981 ['16', '41', '43', '55', '53'] 1305.6603773584916
198 26.11320754716981 ['16', '41', '43', '55', '53'] 1305.6603773584916
199 26.11320754716981 ['16', '41', '43', '55', '53'] 1305.6603773584916
