0 5.478888888888889 ['16', '100', '86', '113', '75', '92', '149', '140', '111', '137', '22', '104', '131', '44', '87'] 279.6837037037038
1 5.478888888888889 ['16', '100', '86', '113', '75', '92', '149', '140', '111', '137', '22', '104', '131', '44', '87'] 278.5411111111111
2 5.478888888888889 ['16', '100', '86', '113', '75', '92', '149', '140', '111', '137', '22', '104', '131', '44', '87'] 277.4443209876544
3 5.478888888888889 ['16', '100', '86', '113', '75', '92', '149', '140', '111', '137', '22', '104', '131', '44', '87'] 276.5935802469137
4 5.478888888888889 ['16', '100', '86', '113', '75', '92', '149', '140', '111', '137', '22', '104', '131', '44', '87'] 275.89345679012354
5 5.436913580246913 ['114', '120', '12', '97', '134', '53', '140', '141', '149', '136', '102', '129', '145', '58', '121'] 275.16654320987664
6 5.436913580246913 ['114', '120', '12', '97', '134', '53', '140', '141', '149', '136', '102', '129', '145', '58', '121'] 274.3192592592593
7 5.4175308641975315 ['104', '100', '116', '76', '65', '43', '119', '106', '149', '129', '110', '111', '131', '127', '16'] 273.4891358024692
8 5.406172839506173 ['100', '101', '145', '120', '95', '142', '37', '134', '104', '114', '133', '129', '131', '141', '8'] 272.4898765432098
9 5.369012345679015 ['101', '145', '141', '100', '120', '134', '133', '104', '131', '149', '25', '132', '54', '114', '37'] 271.77691358024697
10 5.369012345679015 ['101', '145', '141', '100', '120', '134', '133', '104', '131', '149', '25', '132', '54', '114', '37'] 270.99061728395066
11 5.366049382716051 ['131', '133', '111', '134', '104', '100', '120', '141', '97', '75', '145', '132', '129', '114', '149'] 270.16358024691374
12 5.275555555555555 ['131', '104', '114', '129', '145', '148', '146', '100', '97', '134', '111', '136', '142', '135', '149'] 269.32135802469145
13 5.275555555555555 ['131', '104', '114', '129', '145', '148', '146', '100', '97', '134', '111', '136', '142', '135', '149'] 268.64493827160504
14 5.275555555555555 ['131', '104', '114', '129', '145', '148', '146', '100', '97', '134', '111', '136', '142', '135', '149'] 267.9880246913582
15 5.275555555555555 ['131', '104', '114', '129', '145', '148', '146', '100', '97', '134', '111', '136', '142', '135', '149'] 267.4755555555556
16 5.275555555555555 ['131', '104', '114', '129', '145', '148', '146', '100', '97', '134', '111', '136', '142', '135', '149'] 266.8090123456791
17 5.275555555555555 ['131', '104', '114', '129', '145', '148', '146', '100', '97', '134', '111', '136', '142', '135', '149'] 266.3040740740742
18 5.265555555555557 ['149', '97', '134', '120', '131', '111', '145', '104', '100', '101', '135', '146', '136', '133', '138'] 265.75370370370376
19 5.265555555555557 ['149', '97', '134', '120', '131', '111', '145', '104', '100', '101', '135', '146', '136', '133', '138'] 265.21567901234573
20 5.265555555555557 ['149', '97', '134', '120', '131', '111', '145', '104', '100', '101', '135', '146', '136', '133', '138'] 264.5846913580247
21 5.250740740740742 ['136', '100', '101', '134', '120', '145', '149', '104', '138', '141', '131', '111', '135', '133', '146'] 264.1091358024691
22 5.250246913580247 ['104', '100', '136', '145', '114', '97', '141', '111', '134', '131', '138', '149', '135', '133', '146'] 263.5970370370372
23 5.2319753086419745 ['134', '136', '146', '104', '111', '135', '97', '145', '100', '149', '131', '101', '141', '142', '138'] 263.211975308642
24 5.229876543209877 ['135', '149', '131', '111', '101', '146', '134', '141', '136', '104', '100', '145', '97', '142', '133'] 262.95777777777766
25 5.229876543209877 ['135', '149', '131', '111', '101', '146', '134', '141', '136', '104', '100', '145', '97', '142', '133'] 262.60814814814813
26 5.220864197530864 ['100', '131', '146', '138', '141', '101', '149', '145', '134', '111', '135', '136', '104', '133', '142'] 262.11160493827174
27 5.220864197530864 ['100', '131', '146', '138', '141', '101', '149', '145', '134', '111', '135', '136', '104', '133', '142'] 261.6013580246915
28 5.220864197530864 ['100', '131', '146', '138', '141', '101', '149', '145', '134', '111', '135', '136', '104', '133', '142'] 261.5330864197532
29 5.220864197530864 ['100', '131', '146', '138', '141', '101', '149', '145', '134', '111', '135', '136', '104', '133', '142'] 261.466790123457
30 5.220864197530864 ['100', '131', '146', '138', '141', '101', '149', '145', '134', '111', '135', '136', '104', '133', '142'] 261.43975308641996
31 5.220864197530864 ['100', '131', '146', '138', '141', '101', '149', '145', '134', '111', '135', '136', '104', '133', '142'] 261.3946913580249
32 5.220864197530864 ['100', '131', '146', '138', '141', '101', '149', '145', '134', '111', '135', '136', '104', '133', '142'] 261.3135802469137
33 5.220864197530864 ['100', '131', '146', '138', '141', '101', '149', '145', '134', '111', '135', '136', '104', '133', '142'] 261.11530864197516
34 5.220864197530864 ['100', '131', '146', '138', '141', '101', '149', '145', '134', '111', '135', '136', '104', '133', '142'] 261.043209876543
35 5.220864197530864 ['100', '131', '146', '138', '141', '101', '149', '145', '134', '111', '135', '136', '104', '133', '142'] 261.043209876543
36 5.220864197530864 ['100', '131', '146', '138', '141', '101', '149', '145', '134', '111', '135', '136', '104', '133', '142'] 261.043209876543
37 5.220864197530864 ['100', '131', '146', '138', '141', '101', '149', '145', '134', '111', '135', '136', '104', '133', '142'] 261.043209876543
38 5.220864197530864 ['100', '131', '146', '138', '141', '101', '149', '145', '134', '111', '135', '136', '104', '133', '142'] 261.043209876543
39 5.220864197530864 ['100', '131', '146', '138', '141', '101', '149', '145', '134', '111', '135', '136', '104', '133', '142'] 261.043209876543
40 5.220864197530864 ['100', '131', '146', '138', '141', '101', '149', '145', '134', '111', '135', '136', '104', '133', '142'] 261.043209876543
41 5.220864197530864 ['100', '131', '146', '138', '141', '101', '149', '145', '134', '111', '135', '136', '104', '133', '142'] 261.043209876543
42 5.220864197530864 ['100', '131', '146', '138', '141', '101', '149', '145', '134', '111', '135', '136', '104', '133', '142'] 261.043209876543
43 5.220864197530864 ['100', '131', '146', '138', '141', '101', '149', '145', '134', '111', '135', '136', '104', '133', '142'] 261.043209876543
44 5.220864197530864 ['100', '131', '146', '138', '141', '101', '149', '145', '134', '111', '135', '136', '104', '133', '142'] 261.043209876543
45 5.220864197530864 ['100', '131', '146', '138', '141', '101', '149', '145', '134', '111', '135', '136', '104', '133', '142'] 261.043209876543
46 5.220864197530864 ['100', '131', '146', '138', '141', '101', '149', '145', '134', '111', '135', '136', '104', '133', '142'] 261.043209876543
47 5.220864197530864 ['100', '131', '146', '138', '141', '101', '149', '145', '134', '111', '135', '136', '104', '133', '142'] 261.043209876543
48 5.220864197530864 ['100', '131', '146', '138', '141', '101', '149', '145', '134', '111', '135', '136', '104', '133', '142'] 261.043209876543
49 5.220864197530864 ['100', '131', '146', '138', '141', '101', '149', '145', '134', '111', '135', '136', '104', '133', '142'] 261.043209876543
50 5.220864197530864 ['100', '131', '146', '138', '141', '101', '149', '145', '134', '111', '135', '136', '104', '133', '142'] 261.043209876543
51 5.220864197530864 ['100', '131', '146', '138', '141', '101', '149', '145', '134', '111', '135', '136', '104', '133', '142'] 261.043209876543
52 5.220864197530864 ['100', '131', '146', '138', '141', '101', '149', '145', '134', '111', '135', '136', '104', '133', '142'] 261.043209876543
53 5.220864197530864 ['100', '131', '146', '138', '141', '101', '149', '145', '134', '111', '135', '136', '104', '133', '142'] 261.043209876543
54 5.220864197530864 ['100', '131', '146', '138', '141', '101', '149', '145', '134', '111', '135', '136', '104', '133', '142'] 261.043209876543
55 5.220864197530864 ['100', '131', '146', '138', '141', '101', '149', '145', '134', '111', '135', '136', '104', '133', '142'] 261.043209876543
56 5.220864197530864 ['100', '131', '146', '138', '141', '101', '149', '145', '134', '111', '135', '136', '104', '133', '142'] 261.043209876543
57 5.220864197530864 ['100', '131', '146', '138', '141', '101', '149', '145', '134', '111', '135', '136', '104', '133', '142'] 261.043209876543
58 5.220864197530864 ['100', '131', '146', '138', '141', '101', '149', '145', '134', '111', '135', '136', '104', '133', '142'] 261.043209876543
59 5.220864197530864 ['100', '131', '146', '138', '141', '101', '149', '145', '134', '111', '135', '136', '104', '133', '142'] 261.043209876543
60 5.220864197530864 ['100', '131', '146', '138', '141', '101', '149', '145', '134', '111', '135', '136', '104', '133', '142'] 261.043209876543
61 5.220864197530864 ['100', '131', '146', '138', '141', '101', '149', '145', '134', '111', '135', '136', '104', '133', '142'] 261.043209876543
62 5.220864197530864 ['100', '131', '146', '138', '141', '101', '149', '145', '134', '111', '135', '136', '104', '133', '142'] 261.043209876543
63 5.220864197530864 ['100', '131', '146', '138', '141', '101', '149', '145', '134', '111', '135', '136', '104', '133', '142'] 261.043209876543
64 5.220864197530864 ['100', '131', '146', '138', '141', '101', '149', '145', '134', '111', '135', '136', '104', '133', '142'] 261.043209876543
65 5.220864197530864 ['100', '131', '146', '138', '141', '101', '149', '145', '134', '111', '135', '136', '104', '133', '142'] 261.043209876543
66 5.220864197530864 ['100', '131', '146', '138', '141', '101', '149', '145', '134', '111', '135', '136', '104', '133', '142'] 261.043209876543
67 5.220864197530864 ['100', '131', '146', '138', '141', '101', '149', '145', '134', '111', '135', '136', '104', '133', '142'] 261.043209876543
68 5.220864197530864 ['100', '131', '146', '138', '141', '101', '149', '145', '134', '111', '135', '136', '104', '133', '142'] 261.043209876543
69 5.220864197530864 ['100', '131', '146', '138', '141', '101', '149', '145', '134', '111', '135', '136', '104', '133', '142'] 261.043209876543
70 5.220864197530864 ['100', '131', '146', '138', '141', '101', '149', '145', '134', '111', '135', '136', '104', '133', '142'] 261.043209876543
71 5.220864197530864 ['100', '131', '146', '138', '141', '101', '149', '145', '134', '111', '135', '136', '104', '133', '142'] 261.043209876543
72 5.220864197530864 ['100', '131', '146', '138', '141', '101', '149', '145', '134', '111', '135', '136', '104', '133', '142'] 261.043209876543
73 5.220864197530864 ['100', '131', '146', '138', '141', '101', '149', '145', '134', '111', '135', '136', '104', '133', '142'] 261.043209876543
74 5.220864197530864 ['100', '131', '146', '138', '141', '101', '149', '145', '134', '111', '135', '136', '104', '133', '142'] 261.043209876543
75 5.220864197530864 ['100', '131', '146', '138', '141', '101', '149', '145', '134', '111', '135', '136', '104', '133', '142'] 261.043209876543
76 5.220864197530864 ['100', '131', '146', '138', '141', '101', '149', '145', '134', '111', '135', '136', '104', '133', '142'] 261.043209876543
77 5.220864197530864 ['100', '131', '146', '138', '141', '101', '149', '145', '134', '111', '135', '136', '104', '133', '142'] 261.043209876543
78 5.220864197530864 ['100', '131', '146', '138', '141', '101', '149', '145', '134', '111', '135', '136', '104', '133', '142'] 261.043209876543
79 5.220864197530864 ['100', '131', '146', '138', '141', '101', '149', '145', '134', '111', '135', '136', '104', '133', '142'] 261.043209876543
80 5.220864197530864 ['100', '131', '146', '138', '141', '101', '149', '145', '134', '111', '135', '136', '104', '133', '142'] 261.043209876543
81 5.220864197530864 ['100', '131', '146', '138', '141', '101', '149', '145', '134', '111', '135', '136', '104', '133', '142'] 261.043209876543
82 5.220864197530864 ['100', '131', '146', '138', '141', '101', '149', '145', '134', '111', '135', '136', '104', '133', '142'] 261.043209876543
83 5.220864197530864 ['100', '131', '146', '138', '141', '101', '149', '145', '134', '111', '135', '136', '104', '133', '142'] 261.043209876543
84 5.220864197530864 ['100', '131', '146', '138', '141', '101', '149', '145', '134', '111', '135', '136', '104', '133', '142'] 261.043209876543
85 5.220864197530864 ['100', '131', '146', '138', '141', '101', '149', '145', '134', '111', '135', '136', '104', '133', '142'] 261.043209876543
86 5.220864197530864 ['100', '131', '146', '138', '141', '101', '149', '145', '134', '111', '135', '136', '104', '133', '142'] 261.043209876543
87 5.220864197530864 ['100', '131', '146', '138', '141', '101', '149', '145', '134', '111', '135', '136', '104', '133', '142'] 261.043209876543
88 5.220864197530864 ['100', '131', '146', '138', '141', '101', '149', '145', '134', '111', '135', '136', '104', '133', '142'] 261.043209876543
89 5.220864197530864 ['100', '131', '146', '138', '141', '101', '149', '145', '134', '111', '135', '136', '104', '133', '142'] 261.043209876543
90 5.220864197530864 ['100', '131', '146', '138', '141', '101', '149', '145', '134', '111', '135', '136', '104', '133', '142'] 261.043209876543
91 5.220864197530864 ['100', '131', '146', '138', '141', '101', '149', '145', '134', '111', '135', '136', '104', '133', '142'] 261.043209876543
92 5.220864197530864 ['100', '131', '146', '138', '141', '101', '149', '145', '134', '111', '135', '136', '104', '133', '142'] 261.043209876543
93 5.220864197530864 ['100', '131', '146', '138', '141', '101', '149', '145', '134', '111', '135', '136', '104', '133', '142'] 261.043209876543
94 5.220864197530864 ['100', '131', '146', '138', '141', '101', '149', '145', '134', '111', '135', '136', '104', '133', '142'] 261.043209876543
95 5.220864197530864 ['100', '131', '146', '138', '141', '101', '149', '145', '134', '111', '135', '136', '104', '133', '142'] 261.043209876543
96 5.220864197530864 ['100', '131', '146', '138', '141', '101', '149', '145', '134', '111', '135', '136', '104', '133', '142'] 261.043209876543
97 5.220864197530864 ['100', '131', '146', '138', '141', '101', '149', '145', '134', '111', '135', '136', '104', '133', '142'] 261.043209876543
98 5.220864197530864 ['100', '131', '146', '138', '141', '101', '149', '145', '134', '111', '135', '136', '104', '133', '142'] 261.043209876543
99 5.220864197530864 ['100', '131', '146', '138', '141', '101', '149', '145', '134', '111', '135', '136', '104', '133', '142'] 261.043209876543
100 5.220864197530864 ['100', '131', '146', '138', '141', '101', '149', '145', '134', '111', '135', '136', '104', '133', '142'] 261.043209876543
101 5.220864197530864 ['100', '131', '146', '138', '141', '101', '149', '145', '134', '111', '135', '136', '104', '133', '142'] 261.043209876543
102 5.220864197530864 ['100', '131', '146', '138', '141', '101', '149', '145', '134', '111', '135', '136', '104', '133', '142'] 261.043209876543
103 5.220864197530864 ['100', '131', '146', '138', '141', '101', '149', '145', '134', '111', '135', '136', '104', '133', '142'] 261.043209876543
104 5.220864197530864 ['100', '131', '146', '138', '141', '101', '149', '145', '134', '111', '135', '136', '104', '133', '142'] 261.043209876543
105 5.220864197530864 ['100', '131', '146', '138', '141', '101', '149', '145', '134', '111', '135', '136', '104', '133', '142'] 261.043209876543
106 5.220864197530864 ['100', '131', '146', '138', '141', '101', '149', '145', '134', '111', '135', '136', '104', '133', '142'] 261.043209876543
107 5.220864197530864 ['100', '131', '146', '138', '141', '101', '149', '145', '134', '111', '135', '136', '104', '133', '142'] 261.043209876543
108 5.220864197530864 ['100', '131', '146', '138', '141', '101', '149', '145', '134', '111', '135', '136', '104', '133', '142'] 261.043209876543
109 5.220864197530864 ['100', '131', '146', '138', '141', '101', '149', '145', '134', '111', '135', '136', '104', '133', '142'] 261.043209876543
110 5.220864197530864 ['100', '131', '146', '138', '141', '101', '149', '145', '134', '111', '135', '136', '104', '133', '142'] 261.043209876543
111 5.220864197530864 ['100', '131', '146', '138', '141', '101', '149', '145', '134', '111', '135', '136', '104', '133', '142'] 261.043209876543
112 5.220864197530864 ['100', '131', '146', '138', '141', '101', '149', '145', '134', '111', '135', '136', '104', '133', '142'] 261.043209876543
113 5.220864197530864 ['100', '131', '146', '138', '141', '101', '149', '145', '134', '111', '135', '136', '104', '133', '142'] 261.043209876543
114 5.220864197530864 ['100', '131', '146', '138', '141', '101', '149', '145', '134', '111', '135', '136', '104', '133', '142'] 261.043209876543
115 5.220864197530864 ['100', '131', '146', '138', '141', '101', '149', '145', '134', '111', '135', '136', '104', '133', '142'] 261.043209876543
116 5.220864197530864 ['100', '131', '146', '138', '141', '101', '149', '145', '134', '111', '135', '136', '104', '133', '142'] 261.043209876543
117 5.220864197530864 ['100', '131', '146', '138', '141', '101', '149', '145', '134', '111', '135', '136', '104', '133', '142'] 261.043209876543
118 5.220864197530864 ['100', '131', '146', '138', '141', '101', '149', '145', '134', '111', '135', '136', '104', '133', '142'] 261.043209876543
119 5.220864197530864 ['100', '131', '146', '138', '141', '101', '149', '145', '134', '111', '135', '136', '104', '133', '142'] 261.043209876543
120 5.220864197530864 ['100', '131', '146', '138', '141', '101', '149', '145', '134', '111', '135', '136', '104', '133', '142'] 261.043209876543
121 5.220864197530864 ['100', '131', '146', '138', '141', '101', '149', '145', '134', '111', '135', '136', '104', '133', '142'] 261.043209876543
122 5.220864197530864 ['100', '131', '146', '138', '141', '101', '149', '145', '134', '111', '135', '136', '104', '133', '142'] 261.043209876543
123 5.220864197530864 ['100', '131', '146', '138', '141', '101', '149', '145', '134', '111', '135', '136', '104', '133', '142'] 261.043209876543
124 5.220864197530864 ['100', '131', '146', '138', '141', '101', '149', '145', '134', '111', '135', '136', '104', '133', '142'] 261.043209876543
125 5.220864197530864 ['100', '131', '146', '138', '141', '101', '149', '145', '134', '111', '135', '136', '104', '133', '142'] 261.043209876543
126 5.220864197530864 ['100', '131', '146', '138', '141', '101', '149', '145', '134', '111', '135', '136', '104', '133', '142'] 261.043209876543
127 5.220864197530864 ['100', '131', '146', '138', '141', '101', '149', '145', '134', '111', '135', '136', '104', '133', '142'] 261.043209876543
128 5.220864197530864 ['100', '131', '146', '138', '141', '101', '149', '145', '134', '111', '135', '136', '104', '133', '142'] 261.043209876543
129 5.220864197530864 ['100', '131', '146', '138', '141', '101', '149', '145', '134', '111', '135', '136', '104', '133', '142'] 261.043209876543
130 5.220864197530864 ['100', '131', '146', '138', '141', '101', '149', '145', '134', '111', '135', '136', '104', '133', '142'] 261.043209876543
131 5.220864197530864 ['100', '131', '146', '138', '141', '101', '149', '145', '134', '111', '135', '136', '104', '133', '142'] 261.043209876543
132 5.220864197530864 ['100', '131', '146', '138', '141', '101', '149', '145', '134', '111', '135', '136', '104', '133', '142'] 261.043209876543
133 5.220864197530864 ['100', '131', '146', '138', '141', '101', '149', '145', '134', '111', '135', '136', '104', '133', '142'] 261.043209876543
134 5.220864197530864 ['100', '131', '146', '138', '141', '101', '149', '145', '134', '111', '135', '136', '104', '133', '142'] 261.043209876543
135 5.220864197530864 ['100', '131', '146', '138', '141', '101', '149', '145', '134', '111', '135', '136', '104', '133', '142'] 261.043209876543
136 5.220864197530864 ['100', '131', '146', '138', '141', '101', '149', '145', '134', '111', '135', '136', '104', '133', '142'] 261.043209876543
137 5.220864197530864 ['100', '131', '146', '138', '141', '101', '149', '145', '134', '111', '135', '136', '104', '133', '142'] 261.043209876543
138 5.220864197530864 ['100', '131', '146', '138', '141', '101', '149', '145', '134', '111', '135', '136', '104', '133', '142'] 261.043209876543
139 5.220864197530864 ['100', '131', '146', '138', '141', '101', '149', '145', '134', '111', '135', '136', '104', '133', '142'] 261.043209876543
140 5.220864197530864 ['100', '131', '146', '138', '141', '101', '149', '145', '134', '111', '135', '136', '104', '133', '142'] 261.043209876543
141 5.220864197530864 ['100', '131', '146', '138', '141', '101', '149', '145', '134', '111', '135', '136', '104', '133', '142'] 261.043209876543
142 5.220864197530864 ['100', '131', '146', '138', '141', '101', '149', '145', '134', '111', '135', '136', '104', '133', '142'] 261.043209876543
143 5.220864197530864 ['100', '131', '146', '138', '141', '101', '149', '145', '134', '111', '135', '136', '104', '133', '142'] 261.043209876543
144 5.220864197530864 ['100', '131', '146', '138', '141', '101', '149', '145', '134', '111', '135', '136', '104', '133', '142'] 261.043209876543
145 5.220864197530864 ['100', '131', '146', '138', '141', '101', '149', '145', '134', '111', '135', '136', '104', '133', '142'] 261.043209876543
146 5.220864197530864 ['100', '131', '146', '138', '141', '101', '149', '145', '134', '111', '135', '136', '104', '133', '142'] 261.043209876543
147 5.220864197530864 ['100', '131', '146', '138', '141', '101', '149', '145', '134', '111', '135', '136', '104', '133', '142'] 261.043209876543
148 5.220864197530864 ['100', '131', '146', '138', '141', '101', '149', '145', '134', '111', '135', '136', '104', '133', '142'] 261.043209876543
149 5.220864197530864 ['100', '131', '146', '138', '141', '101', '149', '145', '134', '111', '135', '136', '104', '133', '142'] 261.043209876543
150 5.220864197530864 ['100', '131', '146', '138', '141', '101', '149', '145', '134', '111', '135', '136', '104', '133', '142'] 261.043209876543
151 5.220864197530864 ['100', '131', '146', '138', '141', '101', '149', '145', '134', '111', '135', '136', '104', '133', '142'] 261.043209876543
152 5.220864197530864 ['100', '131', '146', '138', '141', '101', '149', '145', '134', '111', '135', '136', '104', '133', '142'] 261.043209876543
153 5.220864197530864 ['100', '131', '146', '138', '141', '101', '149', '145', '134', '111', '135', '136', '104', '133', '142'] 261.043209876543
154 5.220864197530864 ['100', '131', '146', '138', '141', '101', '149', '145', '134', '111', '135', '136', '104', '133', '142'] 261.043209876543
155 5.220864197530864 ['100', '131', '146', '138', '141', '101', '149', '145', '134', '111', '135', '136', '104', '133', '142'] 261.043209876543
156 5.220864197530864 ['100', '131', '146', '138', '141', '101', '149', '145', '134', '111', '135', '136', '104', '133', '142'] 261.043209876543
157 5.220864197530864 ['100', '131', '146', '138', '141', '101', '149', '145', '134', '111', '135', '136', '104', '133', '142'] 261.043209876543
158 5.220864197530864 ['100', '131', '146', '138', '141', '101', '149', '145', '134', '111', '135', '136', '104', '133', '142'] 261.043209876543
159 5.220864197530864 ['100', '131', '146', '138', '141', '101', '149', '145', '134', '111', '135', '136', '104', '133', '142'] 261.043209876543
160 5.220864197530864 ['100', '131', '146', '138', '141', '101', '149', '145', '134', '111', '135', '136', '104', '133', '142'] 261.043209876543
161 5.220864197530864 ['100', '131', '146', '138', '141', '101', '149', '145', '134', '111', '135', '136', '104', '133', '142'] 261.043209876543
162 5.220864197530864 ['100', '131', '146', '138', '141', '101', '149', '145', '134', '111', '135', '136', '104', '133', '142'] 261.043209876543
163 5.220864197530864 ['100', '131', '146', '138', '141', '101', '149', '145', '134', '111', '135', '136', '104', '133', '142'] 261.043209876543
164 5.220864197530864 ['100', '131', '146', '138', '141', '101', '149', '145', '134', '111', '135', '136', '104', '133', '142'] 261.043209876543
165 5.220864197530864 ['100', '131', '146', '138', '141', '101', '149', '145', '134', '111', '135', '136', '104', '133', '142'] 261.043209876543
166 5.220864197530864 ['100', '131', '146', '138', '141', '101', '149', '145', '134', '111', '135', '136', '104', '133', '142'] 261.043209876543
167 5.220864197530864 ['100', '131', '146', '138', '141', '101', '149', '145', '134', '111', '135', '136', '104', '133', '142'] 261.043209876543
168 5.220864197530864 ['100', '131', '146', '138', '141', '101', '149', '145', '134', '111', '135', '136', '104', '133', '142'] 261.043209876543
169 5.220864197530864 ['100', '131', '146', '138', '141', '101', '149', '145', '134', '111', '135', '136', '104', '133', '142'] 261.043209876543
170 5.220864197530864 ['100', '131', '146', '138', '141', '101', '149', '145', '134', '111', '135', '136', '104', '133', '142'] 261.043209876543
171 5.220864197530864 ['100', '131', '146', '138', '141', '101', '149', '145', '134', '111', '135', '136', '104', '133', '142'] 261.043209876543
172 5.220864197530864 ['100', '131', '146', '138', '141', '101', '149', '145', '134', '111', '135', '136', '104', '133', '142'] 261.043209876543
173 5.220864197530864 ['100', '131', '146', '138', '141', '101', '149', '145', '134', '111', '135', '136', '104', '133', '142'] 261.043209876543
174 5.220864197530864 ['100', '131', '146', '138', '141', '101', '149', '145', '134', '111', '135', '136', '104', '133', '142'] 261.043209876543
175 5.220864197530864 ['100', '131', '146', '138', '141', '101', '149', '145', '134', '111', '135', '136', '104', '133', '142'] 261.043209876543
176 5.220864197530864 ['100', '131', '146', '138', '141', '101', '149', '145', '134', '111', '135', '136', '104', '133', '142'] 261.043209876543
177 5.220864197530864 ['100', '131', '146', '138', '141', '101', '149', '145', '134', '111', '135', '136', '104', '133', '142'] 261.043209876543
178 5.220864197530864 ['100', '131', '146', '138', '141', '101', '149', '145', '134', '111', '135', '136', '104', '133', '142'] 261.043209876543
179 5.220864197530864 ['100', '131', '146', '138', '141', '101', '149', '145', '134', '111', '135', '136', '104', '133', '142'] 261.043209876543
180 5.220864197530864 ['100', '131', '146', '138', '141', '101', '149', '145', '134', '111', '135', '136', '104', '133', '142'] 261.043209876543
181 5.220864197530864 ['100', '131', '146', '138', '141', '101', '149', '145', '134', '111', '135', '136', '104', '133', '142'] 261.043209876543
182 5.220864197530864 ['100', '131', '146', '138', '141', '101', '149', '145', '134', '111', '135', '136', '104', '133', '142'] 261.043209876543
183 5.220864197530864 ['100', '131', '146', '138', '141', '101', '149', '145', '134', '111', '135', '136', '104', '133', '142'] 261.043209876543
184 5.220864197530864 ['100', '131', '146', '138', '141', '101', '149', '145', '134', '111', '135', '136', '104', '133', '142'] 261.043209876543
185 5.220864197530864 ['100', '131', '146', '138', '141', '101', '149', '145', '134', '111', '135', '136', '104', '133', '142'] 261.043209876543
186 5.220864197530864 ['100', '131', '146', '138', '141', '101', '149', '145', '134', '111', '135', '136', '104', '133', '142'] 261.043209876543
187 5.220864197530864 ['100', '131', '146', '138', '141', '101', '149', '145', '134', '111', '135', '136', '104', '133', '142'] 261.043209876543
188 5.220864197530864 ['100', '131', '146', '138', '141', '101', '149', '145', '134', '111', '135', '136', '104', '133', '142'] 261.043209876543
189 5.220864197530864 ['100', '131', '146', '138', '141', '101', '149', '145', '134', '111', '135', '136', '104', '133', '142'] 261.043209876543
190 5.220864197530864 ['100', '131', '146', '138', '141', '101', '149', '145', '134', '111', '135', '136', '104', '133', '142'] 261.043209876543
191 5.220864197530864 ['100', '131', '146', '138', '141', '101', '149', '145', '134', '111', '135', '136', '104', '133', '142'] 261.043209876543
192 5.220864197530864 ['100', '131', '146', '138', '141', '101', '149', '145', '134', '111', '135', '136', '104', '133', '142'] 261.043209876543
193 5.220864197530864 ['100', '131', '146', '138', '141', '101', '149', '145', '134', '111', '135', '136', '104', '133', '142'] 261.043209876543
194 5.220864197530864 ['100', '131', '146', '138', '141', '101', '149', '145', '134', '111', '135', '136', '104', '133', '142'] 261.043209876543
195 5.220864197530864 ['100', '131', '146', '138', '141', '101', '149', '145', '134', '111', '135', '136', '104', '133', '142'] 261.043209876543
196 5.220864197530864 ['100', '131', '146', '138', '141', '101', '149', '145', '134', '111', '135', '136', '104', '133', '142'] 261.043209876543
197 5.220864197530864 ['100', '131', '146', '138', '141', '101', '149', '145', '134', '111', '135', '136', '104', '133', '142'] 261.043209876543
198 5.220864197530864 ['100', '131', '146', '138', '141', '101', '149', '145', '134', '111', '135', '136', '104', '133', '142'] 261.043209876543
199 5.220864197530864 ['100', '131', '146', '138', '141', '101', '149', '145', '134', '111', '135', '136', '104', '133', '142'] 261.043209876543
