0 7.6 ['34', '19', '27', '5'] 479.6999999999999
1 7.6 ['34', '19', '27', '5'] 462.9000000000002
2 7.6 ['34', '19', '27', '5'] 444.3000000000001
3 7.6 ['34', '19', '27', '5'] 427.79999999999967
4 7.2 ['19', '5', '31', '34'] 412.90000000000026
5 7.2 ['19', '5', '31', '34'] 397.8
6 7.2 ['19', '5', '31', '34'] 381.29999999999984
7 7.0 ['34', '19', '31', '11'] 370.00000000000034
8 7.0 ['34', '19', '31', '11'] 361.9000000000003
9 7.0 ['34', '19', '31', '11'] 358.7
10 7.0 ['34', '19', '31', '11'] 354.59999999999974
11 7.0 ['34', '19', '31', '11'] 350.0
12 7.0 ['34', '19', '31', '11'] 350.0
13 7.0 ['34', '19', '31', '11'] 350.0
14 7.0 ['34', '19', '31', '11'] 350.0
15 7.0 ['34', '19', '31', '11'] 350.0
16 7.0 ['34', '19', '31', '11'] 350.0
17 7.0 ['34', '19', '31', '11'] 350.0
18 7.0 ['34', '19', '31', '11'] 350.0
19 7.0 ['34', '19', '31', '11'] 350.0
20 7.0 ['34', '19', '31', '11'] 350.0
21 7.0 ['34', '19', '31', '11'] 350.0
22 7.0 ['34', '19', '31', '11'] 350.0
23 7.0 ['34', '19', '31', '11'] 350.0
24 7.0 ['34', '19', '31', '11'] 350.0
25 7.0 ['34', '19', '31', '11'] 350.0
26 7.0 ['34', '19', '31', '11'] 350.0
27 7.0 ['34', '19', '31', '11'] 350.0
28 7.0 ['34', '19', '31', '11'] 350.0
29 7.0 ['34', '19', '31', '11'] 350.0
30 7.0 ['34', '19', '31', '11'] 350.0
31 7.0 ['34', '19', '31', '11'] 350.0
32 7.0 ['34', '19', '31', '11'] 350.0
33 7.0 ['34', '19', '31', '11'] 350.0
34 7.0 ['34', '19', '31', '11'] 350.0
35 7.0 ['34', '19', '31', '11'] 350.0
36 7.0 ['34', '19', '31', '11'] 350.0
37 7.0 ['34', '19', '31', '11'] 350.0
38 7.0 ['34', '19', '31', '11'] 350.0
39 7.0 ['34', '19', '31', '11'] 350.0
40 7.0 ['34', '19', '31', '11'] 350.0
41 7.0 ['34', '19', '31', '11'] 350.0
42 7.0 ['34', '19', '31', '11'] 350.0
43 7.0 ['34', '19', '31', '11'] 350.0
44 7.0 ['34', '19', '31', '11'] 350.0
45 7.0 ['34', '19', '31', '11'] 350.0
46 7.0 ['34', '19', '31', '11'] 350.0
47 7.0 ['34', '19', '31', '11'] 350.0
48 7.0 ['34', '19', '31', '11'] 350.0
49 7.0 ['34', '19', '31', '11'] 350.0
50 7.0 ['34', '19', '31', '11'] 350.0
51 7.0 ['34', '19', '31', '11'] 350.0
52 7.0 ['34', '19', '31', '11'] 350.0
53 7.0 ['34', '19', '31', '11'] 350.0
54 7.0 ['34', '19', '31', '11'] 350.0
55 7.0 ['34', '19', '31', '11'] 350.0
56 7.0 ['34', '19', '31', '11'] 350.0
57 7.0 ['34', '19', '31', '11'] 350.0
58 7.0 ['34', '19', '31', '11'] 350.0
59 7.0 ['34', '19', '31', '11'] 350.0
60 7.0 ['34', '19', '31', '11'] 350.0
61 7.0 ['34', '19', '31', '11'] 350.0
62 7.0 ['34', '19', '31', '11'] 350.0
63 7.0 ['34', '19', '31', '11'] 350.0
64 7.0 ['34', '19', '31', '11'] 350.0
65 7.0 ['34', '19', '31', '11'] 350.0
66 7.0 ['34', '19', '31', '11'] 350.0
67 7.0 ['34', '19', '31', '11'] 350.0
68 7.0 ['34', '19', '31', '11'] 350.0
69 7.0 ['34', '19', '31', '11'] 350.0
70 7.0 ['34', '19', '31', '11'] 350.0
71 7.0 ['34', '19', '31', '11'] 350.0
72 7.0 ['34', '19', '31', '11'] 350.0
73 7.0 ['34', '19', '31', '11'] 350.0
74 7.0 ['34', '19', '31', '11'] 350.0
75 7.0 ['34', '19', '31', '11'] 350.0
76 7.0 ['34', '19', '31', '11'] 350.0
77 7.0 ['34', '19', '31', '11'] 350.0
78 7.0 ['34', '19', '31', '11'] 350.0
79 7.0 ['34', '19', '31', '11'] 350.0
80 7.0 ['34', '19', '31', '11'] 350.0
81 7.0 ['34', '19', '31', '11'] 350.0
82 7.0 ['34', '19', '31', '11'] 350.0
83 7.0 ['34', '19', '31', '11'] 350.0
84 7.0 ['34', '19', '31', '11'] 350.0
85 7.0 ['34', '19', '31', '11'] 350.0
86 7.0 ['34', '19', '31', '11'] 350.0
87 7.0 ['34', '19', '31', '11'] 350.0
88 7.0 ['34', '19', '31', '11'] 350.0
89 7.0 ['34', '19', '31', '11'] 350.0
90 7.0 ['34', '19', '31', '11'] 350.0
91 7.0 ['34', '19', '31', '11'] 350.0
92 7.0 ['34', '19', '31', '11'] 350.0
93 7.0 ['34', '19', '31', '11'] 350.0
94 7.0 ['34', '19', '31', '11'] 350.0
95 7.0 ['34', '19', '31', '11'] 350.0
96 7.0 ['34', '19', '31', '11'] 350.0
97 7.0 ['34', '19', '31', '11'] 350.0
98 7.0 ['34', '19', '31', '11'] 350.0
99 7.0 ['34', '19', '31', '11'] 350.0
100 7.0 ['34', '19', '31', '11'] 350.0
101 7.0 ['34', '19', '31', '11'] 350.0
102 7.0 ['34', '19', '31', '11'] 350.0
103 7.0 ['34', '19', '31', '11'] 350.0
104 7.0 ['34', '19', '31', '11'] 350.0
105 7.0 ['34', '19', '31', '11'] 350.0
106 7.0 ['34', '19', '31', '11'] 350.0
107 7.0 ['34', '19', '31', '11'] 350.0
108 7.0 ['34', '19', '31', '11'] 350.0
109 7.0 ['34', '19', '31', '11'] 350.0
110 7.0 ['34', '19', '31', '11'] 350.0
111 7.0 ['34', '19', '31', '11'] 350.0
112 7.0 ['34', '19', '31', '11'] 350.0
113 7.0 ['34', '19', '31', '11'] 350.0
114 7.0 ['34', '19', '31', '11'] 350.0
115 7.0 ['34', '19', '31', '11'] 350.0
116 7.0 ['34', '19', '31', '11'] 350.0
117 7.0 ['34', '19', '31', '11'] 350.0
118 7.0 ['34', '19', '31', '11'] 350.0
119 7.0 ['34', '19', '31', '11'] 350.0
120 7.0 ['34', '19', '31', '11'] 350.0
121 7.0 ['34', '19', '31', '11'] 350.0
122 7.0 ['34', '19', '31', '11'] 350.0
123 7.0 ['34', '19', '31', '11'] 350.0
124 7.0 ['34', '19', '31', '11'] 350.0
125 7.0 ['34', '19', '31', '11'] 350.0
126 7.0 ['34', '19', '31', '11'] 350.0
127 7.0 ['34', '19', '31', '11'] 350.0
128 7.0 ['34', '19', '31', '11'] 350.0
129 7.0 ['34', '19', '31', '11'] 350.0
130 7.0 ['34', '19', '31', '11'] 350.0
131 7.0 ['34', '19', '31', '11'] 350.0
132 7.0 ['34', '19', '31', '11'] 350.0
133 7.0 ['34', '19', '31', '11'] 350.0
134 7.0 ['34', '19', '31', '11'] 350.0
135 7.0 ['34', '19', '31', '11'] 350.0
136 7.0 ['34', '19', '31', '11'] 350.0
137 7.0 ['34', '19', '31', '11'] 350.0
138 7.0 ['34', '19', '31', '11'] 350.0
139 7.0 ['34', '19', '31', '11'] 350.0
140 7.0 ['34', '19', '31', '11'] 350.0
141 7.0 ['34', '19', '31', '11'] 350.0
142 7.0 ['34', '19', '31', '11'] 350.0
143 7.0 ['34', '19', '31', '11'] 350.0
144 7.0 ['34', '19', '31', '11'] 350.0
145 7.0 ['34', '19', '31', '11'] 350.0
146 7.0 ['34', '19', '31', '11'] 350.0
147 7.0 ['34', '19', '31', '11'] 350.0
148 7.0 ['34', '19', '31', '11'] 350.0
149 7.0 ['34', '19', '31', '11'] 350.0
150 7.0 ['34', '19', '31', '11'] 350.0
151 7.0 ['34', '19', '31', '11'] 350.0
152 7.0 ['34', '19', '31', '11'] 350.0
153 7.0 ['34', '19', '31', '11'] 350.0
154 7.0 ['34', '19', '31', '11'] 350.0
155 7.0 ['34', '19', '31', '11'] 350.0
156 7.0 ['34', '19', '31', '11'] 350.0
157 7.0 ['34', '19', '31', '11'] 350.0
158 7.0 ['34', '19', '31', '11'] 350.0
159 7.0 ['34', '19', '31', '11'] 350.0
160 7.0 ['34', '19', '31', '11'] 350.0
161 7.0 ['34', '19', '31', '11'] 350.0
162 7.0 ['34', '19', '31', '11'] 350.0
163 7.0 ['34', '19', '31', '11'] 350.0
164 7.0 ['34', '19', '31', '11'] 350.0
165 7.0 ['34', '19', '31', '11'] 350.0
166 7.0 ['34', '19', '31', '11'] 350.0
167 7.0 ['34', '19', '31', '11'] 350.0
168 7.0 ['34', '19', '31', '11'] 350.0
169 7.0 ['34', '19', '31', '11'] 350.0
170 7.0 ['34', '19', '31', '11'] 350.0
171 7.0 ['34', '19', '31', '11'] 350.0
172 7.0 ['34', '19', '31', '11'] 350.0
173 7.0 ['34', '19', '31', '11'] 350.0
174 7.0 ['34', '19', '31', '11'] 350.0
175 7.0 ['34', '19', '31', '11'] 350.0
176 7.0 ['34', '19', '31', '11'] 350.0
177 7.0 ['34', '19', '31', '11'] 350.0
178 7.0 ['34', '19', '31', '11'] 350.0
179 7.0 ['34', '19', '31', '11'] 350.0
180 7.0 ['34', '19', '31', '11'] 350.0
181 7.0 ['34', '19', '31', '11'] 350.0
182 7.0 ['34', '19', '31', '11'] 350.0
183 7.0 ['34', '19', '31', '11'] 350.0
184 7.0 ['34', '19', '31', '11'] 350.0
185 7.0 ['34', '19', '31', '11'] 350.0
186 7.0 ['34', '19', '31', '11'] 350.0
187 7.0 ['34', '19', '31', '11'] 350.0
188 7.0 ['34', '19', '31', '11'] 350.0
189 7.0 ['34', '19', '31', '11'] 350.0
190 7.0 ['34', '19', '31', '11'] 350.0
191 7.0 ['34', '19', '31', '11'] 350.0
192 7.0 ['34', '19', '31', '11'] 350.0
193 7.0 ['34', '19', '31', '11'] 350.0
194 7.0 ['34', '19', '31', '11'] 350.0
195 7.0 ['34', '19', '31', '11'] 350.0
196 7.0 ['34', '19', '31', '11'] 350.0
197 7.0 ['34', '19', '31', '11'] 350.0
198 7.0 ['34', '19', '31', '11'] 350.0
199 7.0 ['34', '19', '31', '11'] 350.0
