0 14.266666666666667 ['146', '140', '113', '84', '143', '101', '91', '119', '95', '124', '144', '80', '131', '94', '14'] 737.0370370370368
1 14.266666666666667 ['146', '140', '113', '84', '143', '101', '91', '119', '95', '124', '144', '80', '131', '94', '14'] 729.4074074074075
2 14.266666666666667 ['146', '140', '113', '84', '143', '101', '91', '119', '95', '124', '144', '80', '131', '94', '14'] 724.3703703703708
3 14.066666666666666 ['95', '144', '101', '131', '146', '78', '87', '124', '115', '84', '140', '130', '91', '127', '113'] 719.8074074074077
4 13.866666666666667 ['144', '127', '137', '115', '113', '75', '131', '71', '101', '146', '78', '124', '130', '148', '125'] 714.6370370370367
5 13.866666666666667 ['144', '127', '137', '115', '113', '75', '131', '71', '101', '146', '78', '124', '130', '148', '125'] 709.1851851851853
6 13.866666666666667 ['144', '127', '137', '115', '113', '75', '131', '71', '101', '146', '78', '124', '130', '148', '125'] 703.7481481481484
7 13.755555555555556 ['124', '144', '130', '141', '115', '102', '119', '125', '137', '131', '136', '78', '140', '71', '81'] 700.0444444444445
8 13.748148148148148 ['125', '137', '95', '136', '124', '149', '113', '92', '45', '140', '127', '102', '130', '146', '144'] 696.5555555555555
9 13.718518518518518 ['137', '125', '124', '127', '140', '144', '150', '139', '101', '126', '121', '136', '75', '143', '131'] 692.8740740740742
10 13.688888888888888 ['144', '137', '123', '124', '140', '102', '125', '86', '119', '130', '122', '81', '99', '126', '146'] 690.1333333333332
11 13.607407407407408 ['124', '130', '137', '125', '135', '107', '136', '150', '127', '140', '102', '86', '139', '146', '142'] 687.2222222222216
12 13.555555555555555 ['140', '125', '137', '124', '130', '136', '113', '135', '144', '146', '129', '122', '86', '139', '123'] 684.777777777778
13 13.555555555555555 ['140', '125', '137', '124', '130', '136', '113', '135', '144', '146', '129', '122', '86', '139', '123'] 682.8148148148148
14 13.525925925925925 ['125', '130', '131', '146', '136', '140', '144', '137', '124', '139', '126', '150', '141', '135', '115'] 681.2814814814808
15 13.503703703703703 ['140', '144', '136', '141', '125', '130', '124', '123', '137', '131', '139', '135', '146', '86', '150'] 679.6370370370378
16 13.496296296296297 ['86', '125', '131', '144', '137', '141', '140', '130', '115', '136', '102', '139', '135', '127', '142'] 678.1555555555559
17 13.444444444444445 ['125', '139', '137', '144', '122', '136', '86', '130', '140', '131', '150', '134', '102', '123', '124'] 676.6148148148145
18 13.444444444444445 ['125', '139', '137', '144', '122', '136', '86', '130', '140', '131', '150', '134', '102', '123', '124'] 675.6296296296296
19 13.414814814814815 ['136', '134', '139', '102', '144', '130', '122', '124', '146', '137', '125', '140', '126', '123', '150'] 674.4222222222215
20 13.414814814814815 ['136', '134', '139', '102', '144', '130', '122', '124', '146', '137', '125', '140', '126', '123', '150'] 673.4740740740743
21 13.4 ['140', '144', '146', '125', '150', '131', '130', '139', '136', '122', '124', '137', '135', '102', '123'] 672.4444444444451
22 13.377777777777778 ['137', '134', '140', '122', '131', '125', '144', '139', '102', '136', '130', '124', '149', '150', '135'] 671.2814814814816
23 13.362962962962962 ['140', '137', '146', '150', '125', '102', '130', '131', '144', '136', '135', '122', '139', '134', '124'] 670.7037037037037
24 13.355555555555556 ['140', '136', '150', '146', '135', '144', '134', '125', '137', '122', '139', '130', '149', '124', '102'] 669.9703703703699
25 13.348148148148148 ['149', '122', '130', '139', '140', '131', '135', '125', '134', '137', '144', '136', '150', '142', '146'] 669.1925925925922
26 13.348148148148148 ['149', '122', '130', '139', '140', '131', '135', '125', '134', '137', '144', '136', '150', '142', '146'] 668.7555555555556
27 13.333333333333334 ['102', '140', '146', '144', '139', '135', '137', '130', '149', '125', '122', '134', '136', '150', '142'] 668.2740740740737
28 13.333333333333334 ['102', '140', '146', '144', '139', '135', '137', '130', '149', '125', '122', '134', '136', '150', '142'] 667.9925925925921
29 13.333333333333334 ['102', '140', '146', '144', '139', '135', '137', '130', '149', '125', '122', '134', '136', '150', '142'] 667.8518518518513
30 13.333333333333334 ['102', '140', '146', '144', '139', '135', '137', '130', '149', '125', '122', '134', '136', '150', '142'] 667.6222222222228
31 13.333333333333334 ['102', '140', '146', '144', '139', '135', '137', '130', '149', '125', '122', '134', '136', '150', '142'] 667.3703703703708
32 13.333333333333334 ['102', '140', '146', '144', '139', '135', '137', '130', '149', '125', '122', '134', '136', '150', '142'] 666.9259259259263
33 13.333333333333334 ['102', '140', '146', '144', '139', '135', '137', '130', '149', '125', '122', '134', '136', '150', '142'] 666.6666666666669
34 13.333333333333334 ['102', '140', '146', '144', '139', '135', '137', '130', '149', '125', '122', '134', '136', '150', '142'] 666.6666666666669
35 13.333333333333334 ['102', '140', '146', '144', '139', '135', '137', '130', '149', '125', '122', '134', '136', '150', '142'] 666.6666666666669
36 13.333333333333334 ['102', '140', '146', '144', '139', '135', '137', '130', '149', '125', '122', '134', '136', '150', '142'] 666.6666666666669
37 13.333333333333334 ['102', '140', '146', '144', '139', '135', '137', '130', '149', '125', '122', '134', '136', '150', '142'] 666.6666666666669
38 13.333333333333334 ['102', '140', '146', '144', '139', '135', '137', '130', '149', '125', '122', '134', '136', '150', '142'] 666.6666666666669
39 13.333333333333334 ['102', '140', '146', '144', '139', '135', '137', '130', '149', '125', '122', '134', '136', '150', '142'] 666.6666666666669
40 13.333333333333334 ['102', '140', '146', '144', '139', '135', '137', '130', '149', '125', '122', '134', '136', '150', '142'] 666.6666666666669
41 13.333333333333334 ['102', '140', '146', '144', '139', '135', '137', '130', '149', '125', '122', '134', '136', '150', '142'] 666.6666666666669
42 13.333333333333334 ['102', '140', '146', '144', '139', '135', '137', '130', '149', '125', '122', '134', '136', '150', '142'] 666.6666666666669
43 13.333333333333334 ['102', '140', '146', '144', '139', '135', '137', '130', '149', '125', '122', '134', '136', '150', '142'] 666.6666666666669
44 13.333333333333334 ['102', '140', '146', '144', '139', '135', '137', '130', '149', '125', '122', '134', '136', '150', '142'] 666.6666666666669
45 13.333333333333334 ['102', '140', '146', '144', '139', '135', '137', '130', '149', '125', '122', '134', '136', '150', '142'] 666.6666666666669
46 13.333333333333334 ['102', '140', '146', '144', '139', '135', '137', '130', '149', '125', '122', '134', '136', '150', '142'] 666.6666666666669
47 13.333333333333334 ['102', '140', '146', '144', '139', '135', '137', '130', '149', '125', '122', '134', '136', '150', '142'] 666.6666666666669
48 13.333333333333334 ['102', '140', '146', '144', '139', '135', '137', '130', '149', '125', '122', '134', '136', '150', '142'] 666.6666666666669
49 13.333333333333334 ['102', '140', '146', '144', '139', '135', '137', '130', '149', '125', '122', '134', '136', '150', '142'] 666.6666666666669
50 13.333333333333334 ['102', '140', '146', '144', '139', '135', '137', '130', '149', '125', '122', '134', '136', '150', '142'] 666.6666666666669
51 13.333333333333334 ['102', '140', '146', '144', '139', '135', '137', '130', '149', '125', '122', '134', '136', '150', '142'] 666.6666666666669
52 13.333333333333334 ['102', '140', '146', '144', '139', '135', '137', '130', '149', '125', '122', '134', '136', '150', '142'] 666.6666666666669
53 13.333333333333334 ['102', '140', '146', '144', '139', '135', '137', '130', '149', '125', '122', '134', '136', '150', '142'] 666.6666666666669
54 13.333333333333334 ['102', '140', '146', '144', '139', '135', '137', '130', '149', '125', '122', '134', '136', '150', '142'] 666.6666666666669
55 13.333333333333334 ['102', '140', '146', '144', '139', '135', '137', '130', '149', '125', '122', '134', '136', '150', '142'] 666.6666666666669
56 13.333333333333334 ['102', '140', '146', '144', '139', '135', '137', '130', '149', '125', '122', '134', '136', '150', '142'] 666.6666666666669
57 13.333333333333334 ['102', '140', '146', '144', '139', '135', '137', '130', '149', '125', '122', '134', '136', '150', '142'] 666.6666666666669
58 13.333333333333334 ['102', '140', '146', '144', '139', '135', '137', '130', '149', '125', '122', '134', '136', '150', '142'] 666.6666666666669
59 13.333333333333334 ['102', '140', '146', '144', '139', '135', '137', '130', '149', '125', '122', '134', '136', '150', '142'] 666.6666666666669
60 13.333333333333334 ['102', '140', '146', '144', '139', '135', '137', '130', '149', '125', '122', '134', '136', '150', '142'] 666.6666666666669
61 13.333333333333334 ['102', '140', '146', '144', '139', '135', '137', '130', '149', '125', '122', '134', '136', '150', '142'] 666.6666666666669
62 13.333333333333334 ['102', '140', '146', '144', '139', '135', '137', '130', '149', '125', '122', '134', '136', '150', '142'] 666.6666666666669
63 13.333333333333334 ['102', '140', '146', '144', '139', '135', '137', '130', '149', '125', '122', '134', '136', '150', '142'] 666.6666666666669
64 13.333333333333334 ['102', '140', '146', '144', '139', '135', '137', '130', '149', '125', '122', '134', '136', '150', '142'] 666.6666666666669
65 13.333333333333334 ['102', '140', '146', '144', '139', '135', '137', '130', '149', '125', '122', '134', '136', '150', '142'] 666.6666666666669
66 13.333333333333334 ['102', '140', '146', '144', '139', '135', '137', '130', '149', '125', '122', '134', '136', '150', '142'] 666.6666666666669
67 13.333333333333334 ['102', '140', '146', '144', '139', '135', '137', '130', '149', '125', '122', '134', '136', '150', '142'] 666.6666666666669
68 13.333333333333334 ['102', '140', '146', '144', '139', '135', '137', '130', '149', '125', '122', '134', '136', '150', '142'] 666.6666666666669
69 13.333333333333334 ['102', '140', '146', '144', '139', '135', '137', '130', '149', '125', '122', '134', '136', '150', '142'] 666.6666666666669
70 13.333333333333334 ['102', '140', '146', '144', '139', '135', '137', '130', '149', '125', '122', '134', '136', '150', '142'] 666.6666666666669
71 13.333333333333334 ['102', '140', '146', '144', '139', '135', '137', '130', '149', '125', '122', '134', '136', '150', '142'] 666.6666666666669
72 13.333333333333334 ['102', '140', '146', '144', '139', '135', '137', '130', '149', '125', '122', '134', '136', '150', '142'] 666.6666666666669
73 13.333333333333334 ['102', '140', '146', '144', '139', '135', '137', '130', '149', '125', '122', '134', '136', '150', '142'] 666.6666666666669
74 13.333333333333334 ['102', '140', '146', '144', '139', '135', '137', '130', '149', '125', '122', '134', '136', '150', '142'] 666.6666666666669
75 13.333333333333334 ['102', '140', '146', '144', '139', '135', '137', '130', '149', '125', '122', '134', '136', '150', '142'] 666.6666666666669
76 13.333333333333334 ['102', '140', '146', '144', '139', '135', '137', '130', '149', '125', '122', '134', '136', '150', '142'] 666.6666666666669
77 13.333333333333334 ['102', '140', '146', '144', '139', '135', '137', '130', '149', '125', '122', '134', '136', '150', '142'] 666.6666666666669
78 13.333333333333334 ['102', '140', '146', '144', '139', '135', '137', '130', '149', '125', '122', '134', '136', '150', '142'] 666.6666666666669
79 13.333333333333334 ['102', '140', '146', '144', '139', '135', '137', '130', '149', '125', '122', '134', '136', '150', '142'] 666.6666666666669
80 13.333333333333334 ['102', '140', '146', '144', '139', '135', '137', '130', '149', '125', '122', '134', '136', '150', '142'] 666.6666666666669
81 13.333333333333334 ['102', '140', '146', '144', '139', '135', '137', '130', '149', '125', '122', '134', '136', '150', '142'] 666.6666666666669
82 13.333333333333334 ['102', '140', '146', '144', '139', '135', '137', '130', '149', '125', '122', '134', '136', '150', '142'] 666.6666666666669
83 13.333333333333334 ['102', '140', '146', '144', '139', '135', '137', '130', '149', '125', '122', '134', '136', '150', '142'] 666.6666666666669
84 13.333333333333334 ['102', '140', '146', '144', '139', '135', '137', '130', '149', '125', '122', '134', '136', '150', '142'] 666.6666666666669
85 13.333333333333334 ['102', '140', '146', '144', '139', '135', '137', '130', '149', '125', '122', '134', '136', '150', '142'] 666.6666666666669
86 13.333333333333334 ['102', '140', '146', '144', '139', '135', '137', '130', '149', '125', '122', '134', '136', '150', '142'] 666.6666666666669
87 13.333333333333334 ['102', '140', '146', '144', '139', '135', '137', '130', '149', '125', '122', '134', '136', '150', '142'] 666.6666666666669
88 13.333333333333334 ['102', '140', '146', '144', '139', '135', '137', '130', '149', '125', '122', '134', '136', '150', '142'] 666.6666666666669
89 13.333333333333334 ['102', '140', '146', '144', '139', '135', '137', '130', '149', '125', '122', '134', '136', '150', '142'] 666.6666666666669
90 13.333333333333334 ['102', '140', '146', '144', '139', '135', '137', '130', '149', '125', '122', '134', '136', '150', '142'] 666.6666666666669
91 13.333333333333334 ['102', '140', '146', '144', '139', '135', '137', '130', '149', '125', '122', '134', '136', '150', '142'] 666.6666666666669
92 13.333333333333334 ['102', '140', '146', '144', '139', '135', '137', '130', '149', '125', '122', '134', '136', '150', '142'] 666.6666666666669
93 13.333333333333334 ['102', '140', '146', '144', '139', '135', '137', '130', '149', '125', '122', '134', '136', '150', '142'] 666.6666666666669
94 13.333333333333334 ['102', '140', '146', '144', '139', '135', '137', '130', '149', '125', '122', '134', '136', '150', '142'] 666.6666666666669
95 13.333333333333334 ['102', '140', '146', '144', '139', '135', '137', '130', '149', '125', '122', '134', '136', '150', '142'] 666.6666666666669
96 13.333333333333334 ['102', '140', '146', '144', '139', '135', '137', '130', '149', '125', '122', '134', '136', '150', '142'] 666.6666666666669
97 13.333333333333334 ['102', '140', '146', '144', '139', '135', '137', '130', '149', '125', '122', '134', '136', '150', '142'] 666.6666666666669
98 13.333333333333334 ['102', '140', '146', '144', '139', '135', '137', '130', '149', '125', '122', '134', '136', '150', '142'] 666.6666666666669
99 13.333333333333334 ['102', '140', '146', '144', '139', '135', '137', '130', '149', '125', '122', '134', '136', '150', '142'] 666.6666666666669
100 13.333333333333334 ['102', '140', '146', '144', '139', '135', '137', '130', '149', '125', '122', '134', '136', '150', '142'] 666.6666666666669
101 13.333333333333334 ['102', '140', '146', '144', '139', '135', '137', '130', '149', '125', '122', '134', '136', '150', '142'] 666.6666666666669
102 13.333333333333334 ['102', '140', '146', '144', '139', '135', '137', '130', '149', '125', '122', '134', '136', '150', '142'] 666.6666666666669
103 13.333333333333334 ['102', '140', '146', '144', '139', '135', '137', '130', '149', '125', '122', '134', '136', '150', '142'] 666.6666666666669
104 13.333333333333334 ['102', '140', '146', '144', '139', '135', '137', '130', '149', '125', '122', '134', '136', '150', '142'] 666.6666666666669
105 13.333333333333334 ['102', '140', '146', '144', '139', '135', '137', '130', '149', '125', '122', '134', '136', '150', '142'] 666.6666666666669
106 13.333333333333334 ['102', '140', '146', '144', '139', '135', '137', '130', '149', '125', '122', '134', '136', '150', '142'] 666.6666666666669
107 13.333333333333334 ['102', '140', '146', '144', '139', '135', '137', '130', '149', '125', '122', '134', '136', '150', '142'] 666.6666666666669
108 13.333333333333334 ['102', '140', '146', '144', '139', '135', '137', '130', '149', '125', '122', '134', '136', '150', '142'] 666.6666666666669
109 13.333333333333334 ['102', '140', '146', '144', '139', '135', '137', '130', '149', '125', '122', '134', '136', '150', '142'] 666.6666666666669
110 13.333333333333334 ['102', '140', '146', '144', '139', '135', '137', '130', '149', '125', '122', '134', '136', '150', '142'] 666.6666666666669
111 13.333333333333334 ['102', '140', '146', '144', '139', '135', '137', '130', '149', '125', '122', '134', '136', '150', '142'] 666.6666666666669
112 13.333333333333334 ['102', '140', '146', '144', '139', '135', '137', '130', '149', '125', '122', '134', '136', '150', '142'] 666.6666666666669
113 13.333333333333334 ['102', '140', '146', '144', '139', '135', '137', '130', '149', '125', '122', '134', '136', '150', '142'] 666.6666666666669
114 13.333333333333334 ['102', '140', '146', '144', '139', '135', '137', '130', '149', '125', '122', '134', '136', '150', '142'] 666.6666666666669
115 13.333333333333334 ['102', '140', '146', '144', '139', '135', '137', '130', '149', '125', '122', '134', '136', '150', '142'] 666.6666666666669
116 13.333333333333334 ['102', '140', '146', '144', '139', '135', '137', '130', '149', '125', '122', '134', '136', '150', '142'] 666.6666666666669
117 13.333333333333334 ['102', '140', '146', '144', '139', '135', '137', '130', '149', '125', '122', '134', '136', '150', '142'] 666.6666666666669
118 13.333333333333334 ['102', '140', '146', '144', '139', '135', '137', '130', '149', '125', '122', '134', '136', '150', '142'] 666.6666666666669
119 13.333333333333334 ['102', '140', '146', '144', '139', '135', '137', '130', '149', '125', '122', '134', '136', '150', '142'] 666.6666666666669
120 13.333333333333334 ['102', '140', '146', '144', '139', '135', '137', '130', '149', '125', '122', '134', '136', '150', '142'] 666.6666666666669
121 13.333333333333334 ['102', '140', '146', '144', '139', '135', '137', '130', '149', '125', '122', '134', '136', '150', '142'] 666.6666666666669
122 13.333333333333334 ['102', '140', '146', '144', '139', '135', '137', '130', '149', '125', '122', '134', '136', '150', '142'] 666.6666666666669
123 13.333333333333334 ['102', '140', '146', '144', '139', '135', '137', '130', '149', '125', '122', '134', '136', '150', '142'] 666.6666666666669
124 13.333333333333334 ['102', '140', '146', '144', '139', '135', '137', '130', '149', '125', '122', '134', '136', '150', '142'] 666.6666666666669
125 13.333333333333334 ['102', '140', '146', '144', '139', '135', '137', '130', '149', '125', '122', '134', '136', '150', '142'] 666.6666666666669
126 13.333333333333334 ['102', '140', '146', '144', '139', '135', '137', '130', '149', '125', '122', '134', '136', '150', '142'] 666.6666666666669
127 13.333333333333334 ['102', '140', '146', '144', '139', '135', '137', '130', '149', '125', '122', '134', '136', '150', '142'] 666.6666666666669
128 13.333333333333334 ['102', '140', '146', '144', '139', '135', '137', '130', '149', '125', '122', '134', '136', '150', '142'] 666.6666666666669
129 13.333333333333334 ['102', '140', '146', '144', '139', '135', '137', '130', '149', '125', '122', '134', '136', '150', '142'] 666.6666666666669
130 13.333333333333334 ['102', '140', '146', '144', '139', '135', '137', '130', '149', '125', '122', '134', '136', '150', '142'] 666.6666666666669
131 13.333333333333334 ['102', '140', '146', '144', '139', '135', '137', '130', '149', '125', '122', '134', '136', '150', '142'] 666.6666666666669
132 13.333333333333334 ['102', '140', '146', '144', '139', '135', '137', '130', '149', '125', '122', '134', '136', '150', '142'] 666.6666666666669
133 13.333333333333334 ['102', '140', '146', '144', '139', '135', '137', '130', '149', '125', '122', '134', '136', '150', '142'] 666.6666666666669
134 13.333333333333334 ['102', '140', '146', '144', '139', '135', '137', '130', '149', '125', '122', '134', '136', '150', '142'] 666.6666666666669
135 13.333333333333334 ['102', '140', '146', '144', '139', '135', '137', '130', '149', '125', '122', '134', '136', '150', '142'] 666.6666666666669
136 13.333333333333334 ['102', '140', '146', '144', '139', '135', '137', '130', '149', '125', '122', '134', '136', '150', '142'] 666.6666666666669
137 13.333333333333334 ['102', '140', '146', '144', '139', '135', '137', '130', '149', '125', '122', '134', '136', '150', '142'] 666.6666666666669
138 13.333333333333334 ['102', '140', '146', '144', '139', '135', '137', '130', '149', '125', '122', '134', '136', '150', '142'] 666.6666666666669
139 13.333333333333334 ['102', '140', '146', '144', '139', '135', '137', '130', '149', '125', '122', '134', '136', '150', '142'] 666.6666666666669
140 13.333333333333334 ['102', '140', '146', '144', '139', '135', '137', '130', '149', '125', '122', '134', '136', '150', '142'] 666.6666666666669
141 13.333333333333334 ['102', '140', '146', '144', '139', '135', '137', '130', '149', '125', '122', '134', '136', '150', '142'] 666.6666666666669
142 13.333333333333334 ['102', '140', '146', '144', '139', '135', '137', '130', '149', '125', '122', '134', '136', '150', '142'] 666.6666666666669
143 13.333333333333334 ['102', '140', '146', '144', '139', '135', '137', '130', '149', '125', '122', '134', '136', '150', '142'] 666.6666666666669
144 13.333333333333334 ['102', '140', '146', '144', '139', '135', '137', '130', '149', '125', '122', '134', '136', '150', '142'] 666.6666666666669
145 13.333333333333334 ['102', '140', '146', '144', '139', '135', '137', '130', '149', '125', '122', '134', '136', '150', '142'] 666.6666666666669
146 13.333333333333334 ['102', '140', '146', '144', '139', '135', '137', '130', '149', '125', '122', '134', '136', '150', '142'] 666.6666666666669
147 13.333333333333334 ['102', '140', '146', '144', '139', '135', '137', '130', '149', '125', '122', '134', '136', '150', '142'] 666.6666666666669
148 13.333333333333334 ['102', '140', '146', '144', '139', '135', '137', '130', '149', '125', '122', '134', '136', '150', '142'] 666.6666666666669
149 13.333333333333334 ['102', '140', '146', '144', '139', '135', '137', '130', '149', '125', '122', '134', '136', '150', '142'] 666.6666666666669
150 13.333333333333334 ['102', '140', '146', '144', '139', '135', '137', '130', '149', '125', '122', '134', '136', '150', '142'] 666.6666666666669
151 13.333333333333334 ['102', '140', '146', '144', '139', '135', '137', '130', '149', '125', '122', '134', '136', '150', '142'] 666.6666666666669
152 13.333333333333334 ['102', '140', '146', '144', '139', '135', '137', '130', '149', '125', '122', '134', '136', '150', '142'] 666.6666666666669
153 13.333333333333334 ['102', '140', '146', '144', '139', '135', '137', '130', '149', '125', '122', '134', '136', '150', '142'] 666.6666666666669
154 13.333333333333334 ['102', '140', '146', '144', '139', '135', '137', '130', '149', '125', '122', '134', '136', '150', '142'] 666.6666666666669
155 13.333333333333334 ['102', '140', '146', '144', '139', '135', '137', '130', '149', '125', '122', '134', '136', '150', '142'] 666.6666666666669
156 13.333333333333334 ['102', '140', '146', '144', '139', '135', '137', '130', '149', '125', '122', '134', '136', '150', '142'] 666.6666666666669
157 13.333333333333334 ['102', '140', '146', '144', '139', '135', '137', '130', '149', '125', '122', '134', '136', '150', '142'] 666.6666666666669
158 13.333333333333334 ['102', '140', '146', '144', '139', '135', '137', '130', '149', '125', '122', '134', '136', '150', '142'] 666.6666666666669
159 13.333333333333334 ['102', '140', '146', '144', '139', '135', '137', '130', '149', '125', '122', '134', '136', '150', '142'] 666.6666666666669
160 13.333333333333334 ['102', '140', '146', '144', '139', '135', '137', '130', '149', '125', '122', '134', '136', '150', '142'] 666.6666666666669
161 13.333333333333334 ['102', '140', '146', '144', '139', '135', '137', '130', '149', '125', '122', '134', '136', '150', '142'] 666.6666666666669
162 13.333333333333334 ['102', '140', '146', '144', '139', '135', '137', '130', '149', '125', '122', '134', '136', '150', '142'] 666.6666666666669
163 13.333333333333334 ['102', '140', '146', '144', '139', '135', '137', '130', '149', '125', '122', '134', '136', '150', '142'] 666.6666666666669
164 13.333333333333334 ['102', '140', '146', '144', '139', '135', '137', '130', '149', '125', '122', '134', '136', '150', '142'] 666.6666666666669
165 13.333333333333334 ['102', '140', '146', '144', '139', '135', '137', '130', '149', '125', '122', '134', '136', '150', '142'] 666.6666666666669
166 13.333333333333334 ['102', '140', '146', '144', '139', '135', '137', '130', '149', '125', '122', '134', '136', '150', '142'] 666.6666666666669
167 13.333333333333334 ['102', '140', '146', '144', '139', '135', '137', '130', '149', '125', '122', '134', '136', '150', '142'] 666.6666666666669
168 13.333333333333334 ['102', '140', '146', '144', '139', '135', '137', '130', '149', '125', '122', '134', '136', '150', '142'] 666.6666666666669
169 13.333333333333334 ['102', '140', '146', '144', '139', '135', '137', '130', '149', '125', '122', '134', '136', '150', '142'] 666.6666666666669
170 13.333333333333334 ['102', '140', '146', '144', '139', '135', '137', '130', '149', '125', '122', '134', '136', '150', '142'] 666.6666666666669
171 13.333333333333334 ['102', '140', '146', '144', '139', '135', '137', '130', '149', '125', '122', '134', '136', '150', '142'] 666.6666666666669
172 13.333333333333334 ['102', '140', '146', '144', '139', '135', '137', '130', '149', '125', '122', '134', '136', '150', '142'] 666.6666666666669
173 13.333333333333334 ['102', '140', '146', '144', '139', '135', '137', '130', '149', '125', '122', '134', '136', '150', '142'] 666.6666666666669
174 13.333333333333334 ['102', '140', '146', '144', '139', '135', '137', '130', '149', '125', '122', '134', '136', '150', '142'] 666.6666666666669
175 13.333333333333334 ['102', '140', '146', '144', '139', '135', '137', '130', '149', '125', '122', '134', '136', '150', '142'] 666.6666666666669
176 13.333333333333334 ['102', '140', '146', '144', '139', '135', '137', '130', '149', '125', '122', '134', '136', '150', '142'] 666.6666666666669
177 13.333333333333334 ['102', '140', '146', '144', '139', '135', '137', '130', '149', '125', '122', '134', '136', '150', '142'] 666.6666666666669
178 13.333333333333334 ['102', '140', '146', '144', '139', '135', '137', '130', '149', '125', '122', '134', '136', '150', '142'] 666.6666666666669
179 13.333333333333334 ['102', '140', '146', '144', '139', '135', '137', '130', '149', '125', '122', '134', '136', '150', '142'] 666.6666666666669
180 13.333333333333334 ['102', '140', '146', '144', '139', '135', '137', '130', '149', '125', '122', '134', '136', '150', '142'] 666.6666666666669
181 13.333333333333334 ['102', '140', '146', '144', '139', '135', '137', '130', '149', '125', '122', '134', '136', '150', '142'] 666.6666666666669
182 13.333333333333334 ['102', '140', '146', '144', '139', '135', '137', '130', '149', '125', '122', '134', '136', '150', '142'] 666.6666666666669
183 13.333333333333334 ['102', '140', '146', '144', '139', '135', '137', '130', '149', '125', '122', '134', '136', '150', '142'] 666.6666666666669
184 13.333333333333334 ['102', '140', '146', '144', '139', '135', '137', '130', '149', '125', '122', '134', '136', '150', '142'] 666.6666666666669
185 13.333333333333334 ['102', '140', '146', '144', '139', '135', '137', '130', '149', '125', '122', '134', '136', '150', '142'] 666.6666666666669
186 13.333333333333334 ['102', '140', '146', '144', '139', '135', '137', '130', '149', '125', '122', '134', '136', '150', '142'] 666.6666666666669
187 13.333333333333334 ['102', '140', '146', '144', '139', '135', '137', '130', '149', '125', '122', '134', '136', '150', '142'] 666.6666666666669
188 13.333333333333334 ['102', '140', '146', '144', '139', '135', '137', '130', '149', '125', '122', '134', '136', '150', '142'] 666.6666666666669
189 13.333333333333334 ['102', '140', '146', '144', '139', '135', '137', '130', '149', '125', '122', '134', '136', '150', '142'] 666.6666666666669
190 13.333333333333334 ['102', '140', '146', '144', '139', '135', '137', '130', '149', '125', '122', '134', '136', '150', '142'] 666.6666666666669
191 13.333333333333334 ['102', '140', '146', '144', '139', '135', '137', '130', '149', '125', '122', '134', '136', '150', '142'] 666.6666666666669
192 13.333333333333334 ['102', '140', '146', '144', '139', '135', '137', '130', '149', '125', '122', '134', '136', '150', '142'] 666.6666666666669
193 13.333333333333334 ['102', '140', '146', '144', '139', '135', '137', '130', '149', '125', '122', '134', '136', '150', '142'] 666.6666666666669
194 13.333333333333334 ['102', '140', '146', '144', '139', '135', '137', '130', '149', '125', '122', '134', '136', '150', '142'] 666.6666666666669
195 13.333333333333334 ['102', '140', '146', '144', '139', '135', '137', '130', '149', '125', '122', '134', '136', '150', '142'] 666.6666666666669
196 13.333333333333334 ['102', '140', '146', '144', '139', '135', '137', '130', '149', '125', '122', '134', '136', '150', '142'] 666.6666666666669
197 13.333333333333334 ['102', '140', '146', '144', '139', '135', '137', '130', '149', '125', '122', '134', '136', '150', '142'] 666.6666666666669
198 13.333333333333334 ['102', '140', '146', '144', '139', '135', '137', '130', '149', '125', '122', '134', '136', '150', '142'] 666.6666666666669
199 13.333333333333334 ['102', '140', '146', '144', '139', '135', '137', '130', '149', '125', '122', '134', '136', '150', '142'] 666.6666666666669
