0 14.37037037037037 ['102', '36', '81', '136', '117', '78', '141', '31', '106', '108', '111', '131', '9', '134', '147'] 740.5407407407405
1 14.34074074074074 ['111', '106', '147', '31', '62', '102', '78', '148', '108', '122', '141', '99', '10', '109', '73'] 732.3481481481484
2 14.28888888888889 ['131', '42', '141', '148', '75', '134', '115', '127', '118', '84', '128', '24', '45', '149', '96'] 725.2888888888892
3 14.037037037037036 ['148', '115', '84', '141', '86', '108', '134', '149', '127', '106', '125', '42', '147', '117', '131'] 718.8148148148149
4 13.97037037037037 ['138', '31', '125', '135', '149', '94', '134', '17', '113', '111', '148', '143', '132', '141', '10'] 713.5777777777774
5 13.955555555555556 ['145', '115', '124', '148', '24', '106', '147', '73', '141', '149', '126', '91', '84', '114', '99'] 708.6
6 13.71111111111111 ['126', '138', '141', '111', '101', '149', '145', '106', '115', '121', '31', '143', '114', '122', '148'] 703.6592592592597
7 13.71111111111111 ['126', '138', '141', '111', '101', '149', '145', '106', '115', '121', '31', '143', '114', '122', '148'] 699.7925925925924
8 13.688888888888888 ['108', '149', '125', '115', '148', '134', '126', '147', '118', '127', '135', '141', '146', '121', '31'] 696.3777777777779
9 13.674074074074074 ['125', '145', '124', '115', '134', '138', '147', '141', '114', '5', '126', '148', '149', '96', '150'] 693.1925925925921
10 13.6 ['145', '143', '134', '147', '141', '115', '149', '138', '125', '148', '135', '127', '76', '111', '118'] 689.725925925926
11 13.592592592592593 ['147', '125', '126', '149', '148', '141', '134', '138', '143', '132', '96', '114', '135', '115', '127'] 685.7185185185185
12 13.57037037037037 ['138', '147', '127', '115', '134', '145', '125', '149', '141', '143', '122', '148', '126', '101', '111'] 683.2666666666667
13 13.533333333333333 ['134', '147', '127', '148', '125', '115', '149', '135', '143', '141', '145', '118', '111', '121', '138'] 681.3481481481476
14 13.511111111111111 ['149', '141', '138', '114', '134', '148', '125', '126', '143', '124', '147', '108', '115', '122', '121'] 679.3925925925935
15 13.488888888888889 ['145', '147', '148', '121', '143', '141', '149', '115', '124', '126', '118', '114', '127', '128', '134'] 677.7777777777778
16 13.451851851851853 ['127', '134', '125', '138', '148', '141', '147', '149', '115', '122', '126', '132', '121', '124', '145'] 676.2296296296298
17 13.414814814814815 ['138', '127', '147', '141', '134', '121', '148', '126', '115', '124', '145', '149', '122', '143', '132'] 675.2370370370368
18 13.414814814814815 ['138', '127', '147', '141', '134', '121', '148', '126', '115', '124', '145', '149', '122', '143', '132'] 674.3555555555547
19 13.414814814814815 ['138', '127', '147', '141', '134', '121', '148', '126', '115', '124', '145', '149', '122', '143', '132'] 673.3703703703708
20 13.4 ['128', '126', '147', '141', '134', '127', '148', '145', '124', '115', '143', '121', '149', '132', '138'] 672.4444444444453
21 13.4 ['128', '126', '147', '141', '134', '127', '148', '145', '124', '115', '143', '121', '149', '132', '138'] 671.9703703703708
22 13.4 ['128', '126', '147', '141', '134', '127', '148', '145', '124', '115', '143', '121', '149', '132', '138'] 671.4592592592594
23 13.4 ['128', '126', '147', '141', '134', '127', '148', '145', '124', '115', '143', '121', '149', '132', '138'] 671.0222222222221
24 13.4 ['128', '126', '147', '141', '134', '127', '148', '145', '124', '115', '143', '121', '149', '132', '138'] 670.5777777777774
25 13.4 ['128', '126', '147', '141', '134', '127', '148', '145', '124', '115', '143', '121', '149', '132', '138'] 670.459259259259
26 13.4 ['128', '126', '147', '141', '134', '127', '148', '145', '124', '115', '143', '121', '149', '132', '138'] 670.1629629629625
27 13.4 ['128', '126', '147', '141', '134', '127', '148', '145', '124', '115', '143', '121', '149', '132', '138'] 669.9999999999994
28 13.4 ['128', '126', '147', '141', '134', '127', '148', '145', '124', '115', '143', '121', '149', '132', '138'] 669.9999999999994
29 13.4 ['128', '126', '147', '141', '134', '127', '148', '145', '124', '115', '143', '121', '149', '132', '138'] 669.9999999999994
30 13.4 ['128', '126', '147', '141', '134', '127', '148', '145', '124', '115', '143', '121', '149', '132', '138'] 669.9999999999994
31 13.4 ['128', '126', '147', '141', '134', '127', '148', '145', '124', '115', '143', '121', '149', '132', '138'] 669.9999999999994
32 13.4 ['128', '126', '147', '141', '134', '127', '148', '145', '124', '115', '143', '121', '149', '132', '138'] 669.9999999999994
33 13.4 ['128', '126', '147', '141', '134', '127', '148', '145', '124', '115', '143', '121', '149', '132', '138'] 669.9999999999994
34 13.4 ['128', '126', '147', '141', '134', '127', '148', '145', '124', '115', '143', '121', '149', '132', '138'] 669.9999999999994
35 13.4 ['128', '126', '147', '141', '134', '127', '148', '145', '124', '115', '143', '121', '149', '132', '138'] 669.9999999999994
36 13.4 ['128', '126', '147', '141', '134', '127', '148', '145', '124', '115', '143', '121', '149', '132', '138'] 669.9999999999994
37 13.4 ['128', '126', '147', '141', '134', '127', '148', '145', '124', '115', '143', '121', '149', '132', '138'] 669.9999999999994
38 13.4 ['128', '126', '147', '141', '134', '127', '148', '145', '124', '115', '143', '121', '149', '132', '138'] 669.9999999999994
39 13.4 ['128', '126', '147', '141', '134', '127', '148', '145', '124', '115', '143', '121', '149', '132', '138'] 669.9999999999994
40 13.4 ['128', '126', '147', '141', '134', '127', '148', '145', '124', '115', '143', '121', '149', '132', '138'] 669.9999999999994
41 13.4 ['128', '126', '147', '141', '134', '127', '148', '145', '124', '115', '143', '121', '149', '132', '138'] 669.9999999999994
42 13.4 ['128', '126', '147', '141', '134', '127', '148', '145', '124', '115', '143', '121', '149', '132', '138'] 669.9999999999994
43 13.4 ['128', '126', '147', '141', '134', '127', '148', '145', '124', '115', '143', '121', '149', '132', '138'] 669.9999999999994
44 13.4 ['128', '126', '147', '141', '134', '127', '148', '145', '124', '115', '143', '121', '149', '132', '138'] 669.9999999999994
45 13.4 ['128', '126', '147', '141', '134', '127', '148', '145', '124', '115', '143', '121', '149', '132', '138'] 669.9999999999994
46 13.4 ['128', '126', '147', '141', '134', '127', '148', '145', '124', '115', '143', '121', '149', '132', '138'] 669.9999999999994
47 13.4 ['128', '126', '147', '141', '134', '127', '148', '145', '124', '115', '143', '121', '149', '132', '138'] 669.9999999999994
48 13.4 ['128', '126', '147', '141', '134', '127', '148', '145', '124', '115', '143', '121', '149', '132', '138'] 669.9999999999994
49 13.4 ['128', '126', '147', '141', '134', '127', '148', '145', '124', '115', '143', '121', '149', '132', '138'] 669.9999999999994
50 13.4 ['128', '126', '147', '141', '134', '127', '148', '145', '124', '115', '143', '121', '149', '132', '138'] 669.9999999999994
51 13.4 ['128', '126', '147', '141', '134', '127', '148', '145', '124', '115', '143', '121', '149', '132', '138'] 669.9999999999994
52 13.4 ['128', '126', '147', '141', '134', '127', '148', '145', '124', '115', '143', '121', '149', '132', '138'] 669.9999999999994
53 13.4 ['128', '126', '147', '141', '134', '127', '148', '145', '124', '115', '143', '121', '149', '132', '138'] 669.9999999999994
54 13.4 ['128', '126', '147', '141', '134', '127', '148', '145', '124', '115', '143', '121', '149', '132', '138'] 669.9999999999994
55 13.4 ['128', '126', '147', '141', '134', '127', '148', '145', '124', '115', '143', '121', '149', '132', '138'] 669.9999999999994
56 13.4 ['128', '126', '147', '141', '134', '127', '148', '145', '124', '115', '143', '121', '149', '132', '138'] 669.9999999999994
57 13.4 ['128', '126', '147', '141', '134', '127', '148', '145', '124', '115', '143', '121', '149', '132', '138'] 669.9999999999994
58 13.4 ['128', '126', '147', '141', '134', '127', '148', '145', '124', '115', '143', '121', '149', '132', '138'] 669.9999999999994
59 13.4 ['128', '126', '147', '141', '134', '127', '148', '145', '124', '115', '143', '121', '149', '132', '138'] 669.9999999999994
60 13.4 ['128', '126', '147', '141', '134', '127', '148', '145', '124', '115', '143', '121', '149', '132', '138'] 669.9999999999994
61 13.4 ['128', '126', '147', '141', '134', '127', '148', '145', '124', '115', '143', '121', '149', '132', '138'] 669.9999999999994
62 13.4 ['128', '126', '147', '141', '134', '127', '148', '145', '124', '115', '143', '121', '149', '132', '138'] 669.9999999999994
63 13.4 ['128', '126', '147', '141', '134', '127', '148', '145', '124', '115', '143', '121', '149', '132', '138'] 669.9999999999994
64 13.4 ['128', '126', '147', '141', '134', '127', '148', '145', '124', '115', '143', '121', '149', '132', '138'] 669.9999999999994
65 13.4 ['128', '126', '147', '141', '134', '127', '148', '145', '124', '115', '143', '121', '149', '132', '138'] 669.9999999999994
66 13.4 ['128', '126', '147', '141', '134', '127', '148', '145', '124', '115', '143', '121', '149', '132', '138'] 669.9999999999994
67 13.4 ['128', '126', '147', '141', '134', '127', '148', '145', '124', '115', '143', '121', '149', '132', '138'] 669.9999999999994
68 13.4 ['128', '126', '147', '141', '134', '127', '148', '145', '124', '115', '143', '121', '149', '132', '138'] 669.9999999999994
69 13.4 ['128', '126', '147', '141', '134', '127', '148', '145', '124', '115', '143', '121', '149', '132', '138'] 669.9999999999994
70 13.4 ['128', '126', '147', '141', '134', '127', '148', '145', '124', '115', '143', '121', '149', '132', '138'] 669.9999999999994
71 13.4 ['128', '126', '147', '141', '134', '127', '148', '145', '124', '115', '143', '121', '149', '132', '138'] 669.9999999999994
72 13.4 ['128', '126', '147', '141', '134', '127', '148', '145', '124', '115', '143', '121', '149', '132', '138'] 669.9999999999994
73 13.4 ['128', '126', '147', '141', '134', '127', '148', '145', '124', '115', '143', '121', '149', '132', '138'] 669.9999999999994
74 13.4 ['128', '126', '147', '141', '134', '127', '148', '145', '124', '115', '143', '121', '149', '132', '138'] 669.9999999999994
75 13.4 ['128', '126', '147', '141', '134', '127', '148', '145', '124', '115', '143', '121', '149', '132', '138'] 669.9999999999994
76 13.4 ['128', '126', '147', '141', '134', '127', '148', '145', '124', '115', '143', '121', '149', '132', '138'] 669.9999999999994
77 13.4 ['128', '126', '147', '141', '134', '127', '148', '145', '124', '115', '143', '121', '149', '132', '138'] 669.9999999999994
78 13.4 ['128', '126', '147', '141', '134', '127', '148', '145', '124', '115', '143', '121', '149', '132', '138'] 669.9999999999994
79 13.4 ['128', '126', '147', '141', '134', '127', '148', '145', '124', '115', '143', '121', '149', '132', '138'] 669.9999999999994
80 13.4 ['128', '126', '147', '141', '134', '127', '148', '145', '124', '115', '143', '121', '149', '132', '138'] 669.9999999999994
81 13.4 ['128', '126', '147', '141', '134', '127', '148', '145', '124', '115', '143', '121', '149', '132', '138'] 669.9999999999994
82 13.4 ['128', '126', '147', '141', '134', '127', '148', '145', '124', '115', '143', '121', '149', '132', '138'] 669.9999999999994
83 13.4 ['128', '126', '147', '141', '134', '127', '148', '145', '124', '115', '143', '121', '149', '132', '138'] 669.9999999999994
84 13.4 ['128', '126', '147', '141', '134', '127', '148', '145', '124', '115', '143', '121', '149', '132', '138'] 669.9999999999994
85 13.4 ['128', '126', '147', '141', '134', '127', '148', '145', '124', '115', '143', '121', '149', '132', '138'] 669.9999999999994
86 13.4 ['128', '126', '147', '141', '134', '127', '148', '145', '124', '115', '143', '121', '149', '132', '138'] 669.9999999999994
87 13.4 ['128', '126', '147', '141', '134', '127', '148', '145', '124', '115', '143', '121', '149', '132', '138'] 669.9999999999994
88 13.4 ['128', '126', '147', '141', '134', '127', '148', '145', '124', '115', '143', '121', '149', '132', '138'] 669.9999999999994
89 13.4 ['128', '126', '147', '141', '134', '127', '148', '145', '124', '115', '143', '121', '149', '132', '138'] 669.9999999999994
90 13.4 ['128', '126', '147', '141', '134', '127', '148', '145', '124', '115', '143', '121', '149', '132', '138'] 669.9999999999994
91 13.4 ['128', '126', '147', '141', '134', '127', '148', '145', '124', '115', '143', '121', '149', '132', '138'] 669.9999999999994
92 13.4 ['128', '126', '147', '141', '134', '127', '148', '145', '124', '115', '143', '121', '149', '132', '138'] 669.9999999999994
93 13.4 ['128', '126', '147', '141', '134', '127', '148', '145', '124', '115', '143', '121', '149', '132', '138'] 669.9999999999994
94 13.4 ['128', '126', '147', '141', '134', '127', '148', '145', '124', '115', '143', '121', '149', '132', '138'] 669.9999999999994
95 13.4 ['128', '126', '147', '141', '134', '127', '148', '145', '124', '115', '143', '121', '149', '132', '138'] 669.9999999999994
96 13.4 ['128', '126', '147', '141', '134', '127', '148', '145', '124', '115', '143', '121', '149', '132', '138'] 669.9999999999994
97 13.4 ['128', '126', '147', '141', '134', '127', '148', '145', '124', '115', '143', '121', '149', '132', '138'] 669.9999999999994
98 13.4 ['128', '126', '147', '141', '134', '127', '148', '145', '124', '115', '143', '121', '149', '132', '138'] 669.9999999999994
99 13.4 ['128', '126', '147', '141', '134', '127', '148', '145', '124', '115', '143', '121', '149', '132', '138'] 669.9999999999994
100 13.4 ['128', '126', '147', '141', '134', '127', '148', '145', '124', '115', '143', '121', '149', '132', '138'] 669.9999999999994
101 13.4 ['128', '126', '147', '141', '134', '127', '148', '145', '124', '115', '143', '121', '149', '132', '138'] 669.9999999999994
102 13.4 ['128', '126', '147', '141', '134', '127', '148', '145', '124', '115', '143', '121', '149', '132', '138'] 669.9999999999994
103 13.4 ['128', '126', '147', '141', '134', '127', '148', '145', '124', '115', '143', '121', '149', '132', '138'] 669.9999999999994
104 13.4 ['128', '126', '147', '141', '134', '127', '148', '145', '124', '115', '143', '121', '149', '132', '138'] 669.9999999999994
105 13.4 ['128', '126', '147', '141', '134', '127', '148', '145', '124', '115', '143', '121', '149', '132', '138'] 669.9999999999994
106 13.4 ['128', '126', '147', '141', '134', '127', '148', '145', '124', '115', '143', '121', '149', '132', '138'] 669.9999999999994
107 13.4 ['128', '126', '147', '141', '134', '127', '148', '145', '124', '115', '143', '121', '149', '132', '138'] 669.9999999999994
108 13.4 ['128', '126', '147', '141', '134', '127', '148', '145', '124', '115', '143', '121', '149', '132', '138'] 669.9999999999994
109 13.4 ['128', '126', '147', '141', '134', '127', '148', '145', '124', '115', '143', '121', '149', '132', '138'] 669.9999999999994
110 13.4 ['128', '126', '147', '141', '134', '127', '148', '145', '124', '115', '143', '121', '149', '132', '138'] 669.9999999999994
111 13.4 ['128', '126', '147', '141', '134', '127', '148', '145', '124', '115', '143', '121', '149', '132', '138'] 669.9999999999994
112 13.4 ['128', '126', '147', '141', '134', '127', '148', '145', '124', '115', '143', '121', '149', '132', '138'] 669.9999999999994
113 13.4 ['128', '126', '147', '141', '134', '127', '148', '145', '124', '115', '143', '121', '149', '132', '138'] 669.9999999999994
114 13.4 ['128', '126', '147', '141', '134', '127', '148', '145', '124', '115', '143', '121', '149', '132', '138'] 669.9999999999994
115 13.4 ['128', '126', '147', '141', '134', '127', '148', '145', '124', '115', '143', '121', '149', '132', '138'] 669.9999999999994
116 13.4 ['128', '126', '147', '141', '134', '127', '148', '145', '124', '115', '143', '121', '149', '132', '138'] 669.9999999999994
117 13.4 ['128', '126', '147', '141', '134', '127', '148', '145', '124', '115', '143', '121', '149', '132', '138'] 669.9999999999994
118 13.4 ['128', '126', '147', '141', '134', '127', '148', '145', '124', '115', '143', '121', '149', '132', '138'] 669.9999999999994
119 13.4 ['128', '126', '147', '141', '134', '127', '148', '145', '124', '115', '143', '121', '149', '132', '138'] 669.9999999999994
120 13.4 ['128', '126', '147', '141', '134', '127', '148', '145', '124', '115', '143', '121', '149', '132', '138'] 669.9999999999994
121 13.4 ['128', '126', '147', '141', '134', '127', '148', '145', '124', '115', '143', '121', '149', '132', '138'] 669.9999999999994
122 13.4 ['128', '126', '147', '141', '134', '127', '148', '145', '124', '115', '143', '121', '149', '132', '138'] 669.9999999999994
123 13.4 ['128', '126', '147', '141', '134', '127', '148', '145', '124', '115', '143', '121', '149', '132', '138'] 669.9999999999994
124 13.4 ['128', '126', '147', '141', '134', '127', '148', '145', '124', '115', '143', '121', '149', '132', '138'] 669.9999999999994
125 13.4 ['128', '126', '147', '141', '134', '127', '148', '145', '124', '115', '143', '121', '149', '132', '138'] 669.9999999999994
126 13.4 ['128', '126', '147', '141', '134', '127', '148', '145', '124', '115', '143', '121', '149', '132', '138'] 669.9999999999994
127 13.4 ['128', '126', '147', '141', '134', '127', '148', '145', '124', '115', '143', '121', '149', '132', '138'] 669.9999999999994
128 13.4 ['128', '126', '147', '141', '134', '127', '148', '145', '124', '115', '143', '121', '149', '132', '138'] 669.9999999999994
129 13.4 ['128', '126', '147', '141', '134', '127', '148', '145', '124', '115', '143', '121', '149', '132', '138'] 669.9999999999994
130 13.4 ['128', '126', '147', '141', '134', '127', '148', '145', '124', '115', '143', '121', '149', '132', '138'] 669.9999999999994
131 13.4 ['128', '126', '147', '141', '134', '127', '148', '145', '124', '115', '143', '121', '149', '132', '138'] 669.9999999999994
132 13.4 ['128', '126', '147', '141', '134', '127', '148', '145', '124', '115', '143', '121', '149', '132', '138'] 669.9999999999994
133 13.4 ['128', '126', '147', '141', '134', '127', '148', '145', '124', '115', '143', '121', '149', '132', '138'] 669.9999999999994
134 13.4 ['128', '126', '147', '141', '134', '127', '148', '145', '124', '115', '143', '121', '149', '132', '138'] 669.9999999999994
135 13.4 ['128', '126', '147', '141', '134', '127', '148', '145', '124', '115', '143', '121', '149', '132', '138'] 669.9999999999994
136 13.4 ['128', '126', '147', '141', '134', '127', '148', '145', '124', '115', '143', '121', '149', '132', '138'] 669.9999999999994
137 13.4 ['128', '126', '147', '141', '134', '127', '148', '145', '124', '115', '143', '121', '149', '132', '138'] 669.9999999999994
138 13.4 ['128', '126', '147', '141', '134', '127', '148', '145', '124', '115', '143', '121', '149', '132', '138'] 669.9999999999994
139 13.4 ['128', '126', '147', '141', '134', '127', '148', '145', '124', '115', '143', '121', '149', '132', '138'] 669.9999999999994
140 13.4 ['128', '126', '147', '141', '134', '127', '148', '145', '124', '115', '143', '121', '149', '132', '138'] 669.9999999999994
141 13.4 ['128', '126', '147', '141', '134', '127', '148', '145', '124', '115', '143', '121', '149', '132', '138'] 669.9999999999994
142 13.4 ['128', '126', '147', '141', '134', '127', '148', '145', '124', '115', '143', '121', '149', '132', '138'] 669.9999999999994
143 13.4 ['128', '126', '147', '141', '134', '127', '148', '145', '124', '115', '143', '121', '149', '132', '138'] 669.9999999999994
144 13.4 ['128', '126', '147', '141', '134', '127', '148', '145', '124', '115', '143', '121', '149', '132', '138'] 669.9999999999994
145 13.4 ['128', '126', '147', '141', '134', '127', '148', '145', '124', '115', '143', '121', '149', '132', '138'] 669.9999999999994
146 13.4 ['128', '126', '147', '141', '134', '127', '148', '145', '124', '115', '143', '121', '149', '132', '138'] 669.9999999999994
147 13.4 ['128', '126', '147', '141', '134', '127', '148', '145', '124', '115', '143', '121', '149', '132', '138'] 669.9999999999994
148 13.4 ['128', '126', '147', '141', '134', '127', '148', '145', '124', '115', '143', '121', '149', '132', '138'] 669.9999999999994
149 13.4 ['128', '126', '147', '141', '134', '127', '148', '145', '124', '115', '143', '121', '149', '132', '138'] 669.9999999999994
150 13.4 ['128', '126', '147', '141', '134', '127', '148', '145', '124', '115', '143', '121', '149', '132', '138'] 669.9999999999994
151 13.4 ['128', '126', '147', '141', '134', '127', '148', '145', '124', '115', '143', '121', '149', '132', '138'] 669.9999999999994
152 13.4 ['128', '126', '147', '141', '134', '127', '148', '145', '124', '115', '143', '121', '149', '132', '138'] 669.9999999999994
153 13.4 ['128', '126', '147', '141', '134', '127', '148', '145', '124', '115', '143', '121', '149', '132', '138'] 669.9999999999994
154 13.4 ['128', '126', '147', '141', '134', '127', '148', '145', '124', '115', '143', '121', '149', '132', '138'] 669.9999999999994
155 13.4 ['128', '126', '147', '141', '134', '127', '148', '145', '124', '115', '143', '121', '149', '132', '138'] 669.9999999999994
156 13.4 ['128', '126', '147', '141', '134', '127', '148', '145', '124', '115', '143', '121', '149', '132', '138'] 669.9999999999994
157 13.4 ['128', '126', '147', '141', '134', '127', '148', '145', '124', '115', '143', '121', '149', '132', '138'] 669.9999999999994
158 13.4 ['128', '126', '147', '141', '134', '127', '148', '145', '124', '115', '143', '121', '149', '132', '138'] 669.9999999999994
159 13.4 ['128', '126', '147', '141', '134', '127', '148', '145', '124', '115', '143', '121', '149', '132', '138'] 669.9999999999994
160 13.4 ['128', '126', '147', '141', '134', '127', '148', '145', '124', '115', '143', '121', '149', '132', '138'] 669.9999999999994
161 13.4 ['128', '126', '147', '141', '134', '127', '148', '145', '124', '115', '143', '121', '149', '132', '138'] 669.9999999999994
162 13.4 ['128', '126', '147', '141', '134', '127', '148', '145', '124', '115', '143', '121', '149', '132', '138'] 669.9999999999994
163 13.4 ['128', '126', '147', '141', '134', '127', '148', '145', '124', '115', '143', '121', '149', '132', '138'] 669.9999999999994
164 13.4 ['128', '126', '147', '141', '134', '127', '148', '145', '124', '115', '143', '121', '149', '132', '138'] 669.9999999999994
165 13.4 ['128', '126', '147', '141', '134', '127', '148', '145', '124', '115', '143', '121', '149', '132', '138'] 669.9999999999994
166 13.4 ['128', '126', '147', '141', '134', '127', '148', '145', '124', '115', '143', '121', '149', '132', '138'] 669.9999999999994
167 13.4 ['128', '126', '147', '141', '134', '127', '148', '145', '124', '115', '143', '121', '149', '132', '138'] 669.9999999999994
168 13.4 ['128', '126', '147', '141', '134', '127', '148', '145', '124', '115', '143', '121', '149', '132', '138'] 669.9999999999994
169 13.4 ['128', '126', '147', '141', '134', '127', '148', '145', '124', '115', '143', '121', '149', '132', '138'] 669.9999999999994
170 13.4 ['128', '126', '147', '141', '134', '127', '148', '145', '124', '115', '143', '121', '149', '132', '138'] 669.9999999999994
171 13.4 ['128', '126', '147', '141', '134', '127', '148', '145', '124', '115', '143', '121', '149', '132', '138'] 669.9999999999994
172 13.4 ['128', '126', '147', '141', '134', '127', '148', '145', '124', '115', '143', '121', '149', '132', '138'] 669.9999999999994
173 13.4 ['128', '126', '147', '141', '134', '127', '148', '145', '124', '115', '143', '121', '149', '132', '138'] 669.9999999999994
174 13.4 ['128', '126', '147', '141', '134', '127', '148', '145', '124', '115', '143', '121', '149', '132', '138'] 669.9999999999994
175 13.4 ['128', '126', '147', '141', '134', '127', '148', '145', '124', '115', '143', '121', '149', '132', '138'] 669.9999999999994
176 13.4 ['128', '126', '147', '141', '134', '127', '148', '145', '124', '115', '143', '121', '149', '132', '138'] 669.9999999999994
177 13.4 ['128', '126', '147', '141', '134', '127', '148', '145', '124', '115', '143', '121', '149', '132', '138'] 669.9999999999994
178 13.4 ['128', '126', '147', '141', '134', '127', '148', '145', '124', '115', '143', '121', '149', '132', '138'] 669.9999999999994
179 13.4 ['128', '126', '147', '141', '134', '127', '148', '145', '124', '115', '143', '121', '149', '132', '138'] 669.9999999999994
180 13.4 ['128', '126', '147', '141', '134', '127', '148', '145', '124', '115', '143', '121', '149', '132', '138'] 669.9999999999994
181 13.4 ['128', '126', '147', '141', '134', '127', '148', '145', '124', '115', '143', '121', '149', '132', '138'] 669.9999999999994
182 13.4 ['128', '126', '147', '141', '134', '127', '148', '145', '124', '115', '143', '121', '149', '132', '138'] 669.9999999999994
183 13.4 ['128', '126', '147', '141', '134', '127', '148', '145', '124', '115', '143', '121', '149', '132', '138'] 669.9999999999994
184 13.4 ['128', '126', '147', '141', '134', '127', '148', '145', '124', '115', '143', '121', '149', '132', '138'] 669.9999999999994
185 13.4 ['128', '126', '147', '141', '134', '127', '148', '145', '124', '115', '143', '121', '149', '132', '138'] 669.9999999999994
186 13.4 ['128', '126', '147', '141', '134', '127', '148', '145', '124', '115', '143', '121', '149', '132', '138'] 669.9999999999994
187 13.4 ['128', '126', '147', '141', '134', '127', '148', '145', '124', '115', '143', '121', '149', '132', '138'] 669.9999999999994
188 13.4 ['128', '126', '147', '141', '134', '127', '148', '145', '124', '115', '143', '121', '149', '132', '138'] 669.9999999999994
189 13.4 ['128', '126', '147', '141', '134', '127', '148', '145', '124', '115', '143', '121', '149', '132', '138'] 669.9999999999994
190 13.4 ['128', '126', '147', '141', '134', '127', '148', '145', '124', '115', '143', '121', '149', '132', '138'] 669.9999999999994
191 13.4 ['128', '126', '147', '141', '134', '127', '148', '145', '124', '115', '143', '121', '149', '132', '138'] 669.9999999999994
192 13.4 ['128', '126', '147', '141', '134', '127', '148', '145', '124', '115', '143', '121', '149', '132', '138'] 669.9999999999994
193 13.4 ['128', '126', '147', '141', '134', '127', '148', '145', '124', '115', '143', '121', '149', '132', '138'] 669.9999999999994
194 13.4 ['128', '126', '147', '141', '134', '127', '148', '145', '124', '115', '143', '121', '149', '132', '138'] 669.9999999999994
195 13.4 ['128', '126', '147', '141', '134', '127', '148', '145', '124', '115', '143', '121', '149', '132', '138'] 669.9999999999994
196 13.4 ['128', '126', '147', '141', '134', '127', '148', '145', '124', '115', '143', '121', '149', '132', '138'] 669.9999999999994
197 13.4 ['128', '126', '147', '141', '134', '127', '148', '145', '124', '115', '143', '121', '149', '132', '138'] 669.9999999999994
198 13.4 ['128', '126', '147', '141', '134', '127', '148', '145', '124', '115', '143', '121', '149', '132', '138'] 669.9999999999994
199 13.4 ['128', '126', '147', '141', '134', '127', '148', '145', '124', '115', '143', '121', '149', '132', '138'] 669.9999999999994
