0 25.674418604651162 ['31', '22', '41', '32'] 1342.4883720930222
1 25.511627906976745 ['39', '21', '31', '9'] 1322.883720930233
2 25.232558139534884 ['39', '34', '31', '9'] 1306.13953488372
3 25.023255813953487 ['22', '31', '32', '9'] 1291.7906976744182
4 24.674418604651162 ['41', '31', '9', '22'] 1277.4651162790701
5 24.674418604651162 ['41', '31', '9', '22'] 1264.6744186046526
6 24.674418604651162 ['41', '31', '9', '22'] 1255.1395348837195
7 24.674418604651162 ['41', '31', '9', '22'] 1246.558139534884
8 24.674418604651162 ['41', '31', '9', '22'] 1244.1627906976746
9 24.674418604651162 ['41', '31', '9', '22'] 1240.0930232558148
10 24.674418604651162 ['41', '31', '9', '22'] 1235.1860465116274
11 24.674418604651162 ['41', '31', '9', '22'] 1233.720930232558
12 24.674418604651162 ['41', '31', '9', '22'] 1233.720930232558
13 24.674418604651162 ['41', '31', '9', '22'] 1233.720930232558
14 24.674418604651162 ['41', '31', '9', '22'] 1233.720930232558
15 24.674418604651162 ['41', '31', '9', '22'] 1233.720930232558
16 24.674418604651162 ['41', '31', '9', '22'] 1233.720930232558
17 24.674418604651162 ['41', '31', '9', '22'] 1233.720930232558
18 24.674418604651162 ['41', '31', '9', '22'] 1233.720930232558
19 24.674418604651162 ['41', '31', '9', '22'] 1233.720930232558
20 24.674418604651162 ['41', '31', '9', '22'] 1233.720930232558
21 24.674418604651162 ['41', '31', '9', '22'] 1233.720930232558
22 24.674418604651162 ['41', '31', '9', '22'] 1233.720930232558
23 24.674418604651162 ['41', '31', '9', '22'] 1233.720930232558
24 24.674418604651162 ['41', '31', '9', '22'] 1233.720930232558
25 24.674418604651162 ['41', '31', '9', '22'] 1233.720930232558
26 24.674418604651162 ['41', '31', '9', '22'] 1233.720930232558
27 24.674418604651162 ['41', '31', '9', '22'] 1233.720930232558
28 24.674418604651162 ['41', '31', '9', '22'] 1233.720930232558
29 24.674418604651162 ['41', '31', '9', '22'] 1233.720930232558
30 24.674418604651162 ['41', '31', '9', '22'] 1233.720930232558
31 24.674418604651162 ['41', '31', '9', '22'] 1233.720930232558
32 24.674418604651162 ['41', '31', '9', '22'] 1233.720930232558
33 24.674418604651162 ['41', '31', '9', '22'] 1233.720930232558
34 24.674418604651162 ['41', '31', '9', '22'] 1233.720930232558
35 24.674418604651162 ['41', '31', '9', '22'] 1233.720930232558
36 24.674418604651162 ['41', '31', '9', '22'] 1233.720930232558
37 24.674418604651162 ['41', '31', '9', '22'] 1233.720930232558
38 24.674418604651162 ['41', '31', '9', '22'] 1233.720930232558
39 24.674418604651162 ['41', '31', '9', '22'] 1233.720930232558
40 24.674418604651162 ['41', '31', '9', '22'] 1233.720930232558
41 24.674418604651162 ['41', '31', '9', '22'] 1233.720930232558
42 24.674418604651162 ['41', '31', '9', '22'] 1233.720930232558
43 24.674418604651162 ['41', '31', '9', '22'] 1233.720930232558
44 24.674418604651162 ['41', '31', '9', '22'] 1233.720930232558
45 24.674418604651162 ['41', '31', '9', '22'] 1233.720930232558
46 24.674418604651162 ['41', '31', '9', '22'] 1233.720930232558
47 24.674418604651162 ['41', '31', '9', '22'] 1233.720930232558
48 24.674418604651162 ['41', '31', '9', '22'] 1233.720930232558
49 24.674418604651162 ['41', '31', '9', '22'] 1233.720930232558
50 24.674418604651162 ['41', '31', '9', '22'] 1233.720930232558
51 24.674418604651162 ['41', '31', '9', '22'] 1233.720930232558
52 24.674418604651162 ['41', '31', '9', '22'] 1233.720930232558
53 24.674418604651162 ['41', '31', '9', '22'] 1233.720930232558
54 24.674418604651162 ['41', '31', '9', '22'] 1233.720930232558
55 24.674418604651162 ['41', '31', '9', '22'] 1233.720930232558
56 24.674418604651162 ['41', '31', '9', '22'] 1233.720930232558
57 24.674418604651162 ['41', '31', '9', '22'] 1233.720930232558
58 24.674418604651162 ['41', '31', '9', '22'] 1233.720930232558
59 24.674418604651162 ['41', '31', '9', '22'] 1233.720930232558
60 24.674418604651162 ['41', '31', '9', '22'] 1233.720930232558
61 24.674418604651162 ['41', '31', '9', '22'] 1233.720930232558
62 24.674418604651162 ['41', '31', '9', '22'] 1233.720930232558
63 24.674418604651162 ['41', '31', '9', '22'] 1233.720930232558
64 24.674418604651162 ['41', '31', '9', '22'] 1233.720930232558
65 24.674418604651162 ['41', '31', '9', '22'] 1233.720930232558
66 24.674418604651162 ['41', '31', '9', '22'] 1233.720930232558
67 24.674418604651162 ['41', '31', '9', '22'] 1233.720930232558
68 24.674418604651162 ['41', '31', '9', '22'] 1233.720930232558
69 24.674418604651162 ['41', '31', '9', '22'] 1233.720930232558
70 24.674418604651162 ['41', '31', '9', '22'] 1233.720930232558
71 24.674418604651162 ['41', '31', '9', '22'] 1233.720930232558
72 24.674418604651162 ['41', '31', '9', '22'] 1233.720930232558
73 24.674418604651162 ['41', '31', '9', '22'] 1233.720930232558
74 24.674418604651162 ['41', '31', '9', '22'] 1233.720930232558
75 24.674418604651162 ['41', '31', '9', '22'] 1233.720930232558
76 24.674418604651162 ['41', '31', '9', '22'] 1233.720930232558
77 24.674418604651162 ['41', '31', '9', '22'] 1233.720930232558
78 24.674418604651162 ['41', '31', '9', '22'] 1233.720930232558
79 24.674418604651162 ['41', '31', '9', '22'] 1233.720930232558
80 24.674418604651162 ['41', '31', '9', '22'] 1233.720930232558
81 24.674418604651162 ['41', '31', '9', '22'] 1233.720930232558
82 24.674418604651162 ['41', '31', '9', '22'] 1233.720930232558
83 24.674418604651162 ['41', '31', '9', '22'] 1233.720930232558
84 24.674418604651162 ['41', '31', '9', '22'] 1233.720930232558
85 24.674418604651162 ['41', '31', '9', '22'] 1233.720930232558
86 24.674418604651162 ['41', '31', '9', '22'] 1233.720930232558
87 24.674418604651162 ['41', '31', '9', '22'] 1233.720930232558
88 24.674418604651162 ['41', '31', '9', '22'] 1233.720930232558
89 24.674418604651162 ['41', '31', '9', '22'] 1233.720930232558
90 24.674418604651162 ['41', '31', '9', '22'] 1233.720930232558
91 24.674418604651162 ['41', '31', '9', '22'] 1233.720930232558
92 24.674418604651162 ['41', '31', '9', '22'] 1233.720930232558
93 24.674418604651162 ['41', '31', '9', '22'] 1233.720930232558
94 24.674418604651162 ['41', '31', '9', '22'] 1233.720930232558
95 24.674418604651162 ['41', '31', '9', '22'] 1233.720930232558
96 24.674418604651162 ['41', '31', '9', '22'] 1233.720930232558
97 24.674418604651162 ['41', '31', '9', '22'] 1233.720930232558
98 24.674418604651162 ['41', '31', '9', '22'] 1233.720930232558
99 24.674418604651162 ['41', '31', '9', '22'] 1233.720930232558
100 24.674418604651162 ['41', '31', '9', '22'] 1233.720930232558
101 24.674418604651162 ['41', '31', '9', '22'] 1233.720930232558
102 24.674418604651162 ['41', '31', '9', '22'] 1233.720930232558
103 24.674418604651162 ['41', '31', '9', '22'] 1233.720930232558
104 24.674418604651162 ['41', '31', '9', '22'] 1233.720930232558
105 24.674418604651162 ['41', '31', '9', '22'] 1233.720930232558
106 24.674418604651162 ['41', '31', '9', '22'] 1233.720930232558
107 24.674418604651162 ['41', '31', '9', '22'] 1233.720930232558
108 24.674418604651162 ['41', '31', '9', '22'] 1233.720930232558
109 24.674418604651162 ['41', '31', '9', '22'] 1233.720930232558
110 24.674418604651162 ['41', '31', '9', '22'] 1233.720930232558
111 24.674418604651162 ['41', '31', '9', '22'] 1233.720930232558
112 24.674418604651162 ['41', '31', '9', '22'] 1233.720930232558
113 24.674418604651162 ['41', '31', '9', '22'] 1233.720930232558
114 24.674418604651162 ['41', '31', '9', '22'] 1233.720930232558
115 24.674418604651162 ['41', '31', '9', '22'] 1233.720930232558
116 24.674418604651162 ['41', '31', '9', '22'] 1233.720930232558
117 24.674418604651162 ['41', '31', '9', '22'] 1233.720930232558
118 24.674418604651162 ['41', '31', '9', '22'] 1233.720930232558
119 24.674418604651162 ['41', '31', '9', '22'] 1233.720930232558
120 24.674418604651162 ['41', '31', '9', '22'] 1233.720930232558
121 24.674418604651162 ['41', '31', '9', '22'] 1233.720930232558
122 24.674418604651162 ['41', '31', '9', '22'] 1233.720930232558
123 24.674418604651162 ['41', '31', '9', '22'] 1233.720930232558
124 24.674418604651162 ['41', '31', '9', '22'] 1233.720930232558
125 24.674418604651162 ['41', '31', '9', '22'] 1233.720930232558
126 24.674418604651162 ['41', '31', '9', '22'] 1233.720930232558
127 24.674418604651162 ['41', '31', '9', '22'] 1233.720930232558
128 24.674418604651162 ['41', '31', '9', '22'] 1233.720930232558
129 24.674418604651162 ['41', '31', '9', '22'] 1233.720930232558
130 24.674418604651162 ['41', '31', '9', '22'] 1233.720930232558
131 24.674418604651162 ['41', '31', '9', '22'] 1233.720930232558
132 24.674418604651162 ['41', '31', '9', '22'] 1233.720930232558
133 24.674418604651162 ['41', '31', '9', '22'] 1233.720930232558
134 24.674418604651162 ['41', '31', '9', '22'] 1233.720930232558
135 24.674418604651162 ['41', '31', '9', '22'] 1233.720930232558
136 24.674418604651162 ['41', '31', '9', '22'] 1233.720930232558
137 24.674418604651162 ['41', '31', '9', '22'] 1233.720930232558
138 24.674418604651162 ['41', '31', '9', '22'] 1233.720930232558
139 24.674418604651162 ['41', '31', '9', '22'] 1233.720930232558
140 24.674418604651162 ['41', '31', '9', '22'] 1233.720930232558
141 24.674418604651162 ['41', '31', '9', '22'] 1233.720930232558
142 24.674418604651162 ['41', '31', '9', '22'] 1233.720930232558
143 24.674418604651162 ['41', '31', '9', '22'] 1233.720930232558
144 24.674418604651162 ['41', '31', '9', '22'] 1233.720930232558
145 24.674418604651162 ['41', '31', '9', '22'] 1233.720930232558
146 24.674418604651162 ['41', '31', '9', '22'] 1233.720930232558
147 24.674418604651162 ['41', '31', '9', '22'] 1233.720930232558
148 24.674418604651162 ['41', '31', '9', '22'] 1233.720930232558
149 24.674418604651162 ['41', '31', '9', '22'] 1233.720930232558
150 24.674418604651162 ['41', '31', '9', '22'] 1233.720930232558
151 24.674418604651162 ['41', '31', '9', '22'] 1233.720930232558
152 24.674418604651162 ['41', '31', '9', '22'] 1233.720930232558
153 24.674418604651162 ['41', '31', '9', '22'] 1233.720930232558
154 24.674418604651162 ['41', '31', '9', '22'] 1233.720930232558
155 24.674418604651162 ['41', '31', '9', '22'] 1233.720930232558
156 24.674418604651162 ['41', '31', '9', '22'] 1233.720930232558
157 24.674418604651162 ['41', '31', '9', '22'] 1233.720930232558
158 24.674418604651162 ['41', '31', '9', '22'] 1233.720930232558
159 24.674418604651162 ['41', '31', '9', '22'] 1233.720930232558
160 24.674418604651162 ['41', '31', '9', '22'] 1233.720930232558
161 24.674418604651162 ['41', '31', '9', '22'] 1233.720930232558
162 24.674418604651162 ['41', '31', '9', '22'] 1233.720930232558
163 24.674418604651162 ['41', '31', '9', '22'] 1233.720930232558
164 24.674418604651162 ['41', '31', '9', '22'] 1233.720930232558
165 24.674418604651162 ['41', '31', '9', '22'] 1233.720930232558
166 24.674418604651162 ['41', '31', '9', '22'] 1233.720930232558
167 24.674418604651162 ['41', '31', '9', '22'] 1233.720930232558
168 24.674418604651162 ['41', '31', '9', '22'] 1233.720930232558
169 24.674418604651162 ['41', '31', '9', '22'] 1233.720930232558
170 24.674418604651162 ['41', '31', '9', '22'] 1233.720930232558
171 24.674418604651162 ['41', '31', '9', '22'] 1233.720930232558
172 24.674418604651162 ['41', '31', '9', '22'] 1233.720930232558
173 24.674418604651162 ['41', '31', '9', '22'] 1233.720930232558
174 24.674418604651162 ['41', '31', '9', '22'] 1233.720930232558
175 24.674418604651162 ['41', '31', '9', '22'] 1233.720930232558
176 24.674418604651162 ['41', '31', '9', '22'] 1233.720930232558
177 24.674418604651162 ['41', '31', '9', '22'] 1233.720930232558
178 24.674418604651162 ['41', '31', '9', '22'] 1233.720930232558
179 24.674418604651162 ['41', '31', '9', '22'] 1233.720930232558
180 24.674418604651162 ['41', '31', '9', '22'] 1233.720930232558
181 24.674418604651162 ['41', '31', '9', '22'] 1233.720930232558
182 24.674418604651162 ['41', '31', '9', '22'] 1233.720930232558
183 24.674418604651162 ['41', '31', '9', '22'] 1233.720930232558
184 24.674418604651162 ['41', '31', '9', '22'] 1233.720930232558
185 24.674418604651162 ['41', '31', '9', '22'] 1233.720930232558
186 24.674418604651162 ['41', '31', '9', '22'] 1233.720930232558
187 24.674418604651162 ['41', '31', '9', '22'] 1233.720930232558
188 24.674418604651162 ['41', '31', '9', '22'] 1233.720930232558
189 24.674418604651162 ['41', '31', '9', '22'] 1233.720930232558
190 24.674418604651162 ['41', '31', '9', '22'] 1233.720930232558
191 24.674418604651162 ['41', '31', '9', '22'] 1233.720930232558
192 24.674418604651162 ['41', '31', '9', '22'] 1233.720930232558
193 24.674418604651162 ['41', '31', '9', '22'] 1233.720930232558
194 24.674418604651162 ['41', '31', '9', '22'] 1233.720930232558
195 24.674418604651162 ['41', '31', '9', '22'] 1233.720930232558
196 24.674418604651162 ['41', '31', '9', '22'] 1233.720930232558
197 24.674418604651162 ['41', '31', '9', '22'] 1233.720930232558
198 24.674418604651162 ['41', '31', '9', '22'] 1233.720930232558
199 24.674418604651162 ['41', '31', '9', '22'] 1233.720930232558
