0 14.318518518518518 ['137', '65', '7', '145', '117', '120', '13', '12', '25', '138', '121', '97', '140', '126', '36'] 736.5111111111115
1 14.28888888888889 ['117', '36', '120', '25', '81', '46', '21', '135', '108', '63', '138', '133', '126', '140', '145'] 730.3629629629633
2 14.244444444444444 ['103', '10', '112', '99', '89', '33', '76', '80', '142', '113', '149', '147', '100', '57', '145'] 723.2814814814817
3 13.985185185185186 ['135', '118', '120', '40', '133', '150', '13', '122', '140', '126', '25', '99', '123', '147', '149'] 716.9703703703707
4 13.985185185185186 ['135', '118', '120', '40', '133', '150', '13', '122', '140', '126', '25', '99', '123', '147', '149'] 711.3333333333337
5 13.97037037037037 ['150', '149', '113', '132', '39', '135', '103', '117', '49', '68', '57', '121', '137', '116', '123'] 706.9259259259258
6 13.77037037037037 ['147', '101', '132', '57', '48', '149', '150', '113', '40', '120', '103', '99', '138', '135', '116'] 702.3407407407407
7 13.725925925925926 ['120', '150', '132', '116', '137', '135', '99', '97', '138', '145', '113', '103', '9', '121', '57'] 698.5185185185189
8 13.651851851851852 ['116', '138', '74', '147', '113', '120', '137', '140', '127', '123', '103', '150', '7', '114', '122'] 694.7333333333332
9 13.651851851851852 ['116', '138', '74', '147', '113', '120', '137', '140', '127', '123', '103', '150', '7', '114', '122'] 691.2592592592597
10 13.577777777777778 ['120', '149', '116', '147', '150', '145', '113', '101', '107', '140', '137', '23', '138', '123', '13'] 687.4740740740739
11 13.481481481481481 ['114', '129', '116', '147', '127', '137', '113', '121', '138', '117', '140', '132', '102', '145', '149'] 684.2444444444446
12 13.474074074074075 ['149', '113', '145', '132', '147', '116', '138', '121', '123', '102', '150', '129', '120', '140', '117'] 681.3259259259257
13 13.385185185185184 ['138', '113', '150', '147', '116', '120', '145', '149', '123', '127', '129', '48', '132', '101', '137'] 677.6148148148153
14 13.333333333333334 ['123', '120', '150', '113', '149', '132', '145', '137', '138', '116', '147', '121', '140', '101', '127'] 674.837037037037
15 13.333333333333334 ['123', '120', '150', '113', '149', '132', '145', '137', '138', '116', '147', '121', '140', '101', '127'] 672.8222222222217
16 13.296296296296296 ['116', '147', '113', '120', '137', '150', '145', '123', '138', '149', '129', '121', '132', '135', '127'] 670.8148148148151
17 13.296296296296296 ['116', '147', '113', '120', '137', '150', '145', '123', '138', '149', '129', '121', '132', '135', '127'] 668.822222222222
18 13.28888888888889 ['123', '129', '137', '116', '147', '138', '113', '121', '149', '127', '145', '150', '120', '140', '135'] 667.1851851851847
19 13.28888888888889 ['123', '129', '137', '116', '147', '138', '113', '121', '149', '127', '145', '150', '120', '140', '135'] 666.2148148148149
20 13.25925925925926 ['127', '140', '116', '145', '120', '149', '150', '147', '138', '113', '123', '129', '137', '132', '135'] 665.6370370370379
21 13.25925925925926 ['127', '140', '116', '145', '120', '149', '150', '147', '138', '113', '123', '129', '137', '132', '135'] 664.9185185185191
22 13.25925925925926 ['127', '140', '116', '145', '120', '149', '150', '147', '138', '113', '123', '129', '137', '132', '135'] 664.2592592592596
23 13.25925925925926 ['127', '140', '116', '145', '120', '149', '150', '147', '138', '113', '123', '129', '137', '132', '135'] 663.6222222222223
24 13.25925925925926 ['127', '140', '116', '145', '120', '149', '150', '147', '138', '113', '123', '129', '137', '132', '135'] 662.9629629629625
25 13.25925925925926 ['127', '140', '116', '145', '120', '149', '150', '147', '138', '113', '123', '129', '137', '132', '135'] 662.9629629629625
26 13.25925925925926 ['127', '140', '116', '145', '120', '149', '150', '147', '138', '113', '123', '129', '137', '132', '135'] 662.9629629629625
27 13.25925925925926 ['127', '140', '116', '145', '120', '149', '150', '147', '138', '113', '123', '129', '137', '132', '135'] 662.9629629629625
28 13.25925925925926 ['127', '140', '116', '145', '120', '149', '150', '147', '138', '113', '123', '129', '137', '132', '135'] 662.9629629629625
29 13.25925925925926 ['127', '140', '116', '145', '120', '149', '150', '147', '138', '113', '123', '129', '137', '132', '135'] 662.9629629629625
30 13.25925925925926 ['127', '140', '116', '145', '120', '149', '150', '147', '138', '113', '123', '129', '137', '132', '135'] 662.9629629629625
31 13.25925925925926 ['127', '140', '116', '145', '120', '149', '150', '147', '138', '113', '123', '129', '137', '132', '135'] 662.9629629629625
32 13.25925925925926 ['127', '140', '116', '145', '120', '149', '150', '147', '138', '113', '123', '129', '137', '132', '135'] 662.9629629629625
33 13.25925925925926 ['127', '140', '116', '145', '120', '149', '150', '147', '138', '113', '123', '129', '137', '132', '135'] 662.9629629629625
34 13.25925925925926 ['127', '140', '116', '145', '120', '149', '150', '147', '138', '113', '123', '129', '137', '132', '135'] 662.9629629629625
35 13.25925925925926 ['127', '140', '116', '145', '120', '149', '150', '147', '138', '113', '123', '129', '137', '132', '135'] 662.9629629629625
36 13.25925925925926 ['127', '140', '116', '145', '120', '149', '150', '147', '138', '113', '123', '129', '137', '132', '135'] 662.9629629629625
37 13.25925925925926 ['127', '140', '116', '145', '120', '149', '150', '147', '138', '113', '123', '129', '137', '132', '135'] 662.9629629629625
38 13.25925925925926 ['127', '140', '116', '145', '120', '149', '150', '147', '138', '113', '123', '129', '137', '132', '135'] 662.9629629629625
39 13.25925925925926 ['127', '140', '116', '145', '120', '149', '150', '147', '138', '113', '123', '129', '137', '132', '135'] 662.9629629629625
40 13.25925925925926 ['127', '140', '116', '145', '120', '149', '150', '147', '138', '113', '123', '129', '137', '132', '135'] 662.9629629629625
41 13.25925925925926 ['127', '140', '116', '145', '120', '149', '150', '147', '138', '113', '123', '129', '137', '132', '135'] 662.9629629629625
42 13.25925925925926 ['127', '140', '116', '145', '120', '149', '150', '147', '138', '113', '123', '129', '137', '132', '135'] 662.9629629629625
43 13.25925925925926 ['127', '140', '116', '145', '120', '149', '150', '147', '138', '113', '123', '129', '137', '132', '135'] 662.9629629629625
44 13.25925925925926 ['127', '140', '116', '145', '120', '149', '150', '147', '138', '113', '123', '129', '137', '132', '135'] 662.9629629629625
45 13.25925925925926 ['127', '140', '116', '145', '120', '149', '150', '147', '138', '113', '123', '129', '137', '132', '135'] 662.9629629629625
46 13.25925925925926 ['127', '140', '116', '145', '120', '149', '150', '147', '138', '113', '123', '129', '137', '132', '135'] 662.9629629629625
47 13.25925925925926 ['127', '140', '116', '145', '120', '149', '150', '147', '138', '113', '123', '129', '137', '132', '135'] 662.9629629629625
48 13.25925925925926 ['127', '140', '116', '145', '120', '149', '150', '147', '138', '113', '123', '129', '137', '132', '135'] 662.9629629629625
49 13.25925925925926 ['127', '140', '116', '145', '120', '149', '150', '147', '138', '113', '123', '129', '137', '132', '135'] 662.9629629629625
50 13.25925925925926 ['127', '140', '116', '145', '120', '149', '150', '147', '138', '113', '123', '129', '137', '132', '135'] 662.9629629629625
51 13.25925925925926 ['127', '140', '116', '145', '120', '149', '150', '147', '138', '113', '123', '129', '137', '132', '135'] 662.9629629629625
52 13.25925925925926 ['127', '140', '116', '145', '120', '149', '150', '147', '138', '113', '123', '129', '137', '132', '135'] 662.9629629629625
53 13.25925925925926 ['127', '140', '116', '145', '120', '149', '150', '147', '138', '113', '123', '129', '137', '132', '135'] 662.9629629629625
54 13.25925925925926 ['127', '140', '116', '145', '120', '149', '150', '147', '138', '113', '123', '129', '137', '132', '135'] 662.9629629629625
55 13.25925925925926 ['127', '140', '116', '145', '120', '149', '150', '147', '138', '113', '123', '129', '137', '132', '135'] 662.9629629629625
56 13.25925925925926 ['127', '140', '116', '145', '120', '149', '150', '147', '138', '113', '123', '129', '137', '132', '135'] 662.9629629629625
57 13.25925925925926 ['127', '140', '116', '145', '120', '149', '150', '147', '138', '113', '123', '129', '137', '132', '135'] 662.9629629629625
58 13.25925925925926 ['127', '140', '116', '145', '120', '149', '150', '147', '138', '113', '123', '129', '137', '132', '135'] 662.9629629629625
59 13.25925925925926 ['127', '140', '116', '145', '120', '149', '150', '147', '138', '113', '123', '129', '137', '132', '135'] 662.9629629629625
60 13.25925925925926 ['127', '140', '116', '145', '120', '149', '150', '147', '138', '113', '123', '129', '137', '132', '135'] 662.9629629629625
61 13.25925925925926 ['127', '140', '116', '145', '120', '149', '150', '147', '138', '113', '123', '129', '137', '132', '135'] 662.9629629629625
62 13.25925925925926 ['127', '140', '116', '145', '120', '149', '150', '147', '138', '113', '123', '129', '137', '132', '135'] 662.9629629629625
63 13.25925925925926 ['127', '140', '116', '145', '120', '149', '150', '147', '138', '113', '123', '129', '137', '132', '135'] 662.9629629629625
64 13.25925925925926 ['127', '140', '116', '145', '120', '149', '150', '147', '138', '113', '123', '129', '137', '132', '135'] 662.9629629629625
65 13.25925925925926 ['127', '140', '116', '145', '120', '149', '150', '147', '138', '113', '123', '129', '137', '132', '135'] 662.9629629629625
66 13.25925925925926 ['127', '140', '116', '145', '120', '149', '150', '147', '138', '113', '123', '129', '137', '132', '135'] 662.9629629629625
67 13.25925925925926 ['127', '140', '116', '145', '120', '149', '150', '147', '138', '113', '123', '129', '137', '132', '135'] 662.9629629629625
68 13.25925925925926 ['127', '140', '116', '145', '120', '149', '150', '147', '138', '113', '123', '129', '137', '132', '135'] 662.9629629629625
69 13.25925925925926 ['127', '140', '116', '145', '120', '149', '150', '147', '138', '113', '123', '129', '137', '132', '135'] 662.9629629629625
70 13.25925925925926 ['127', '140', '116', '145', '120', '149', '150', '147', '138', '113', '123', '129', '137', '132', '135'] 662.9629629629625
71 13.25925925925926 ['127', '140', '116', '145', '120', '149', '150', '147', '138', '113', '123', '129', '137', '132', '135'] 662.9629629629625
72 13.25925925925926 ['127', '140', '116', '145', '120', '149', '150', '147', '138', '113', '123', '129', '137', '132', '135'] 662.9629629629625
73 13.25925925925926 ['127', '140', '116', '145', '120', '149', '150', '147', '138', '113', '123', '129', '137', '132', '135'] 662.9629629629625
74 13.25925925925926 ['127', '140', '116', '145', '120', '149', '150', '147', '138', '113', '123', '129', '137', '132', '135'] 662.9629629629625
75 13.25925925925926 ['127', '140', '116', '145', '120', '149', '150', '147', '138', '113', '123', '129', '137', '132', '135'] 662.9629629629625
76 13.25925925925926 ['127', '140', '116', '145', '120', '149', '150', '147', '138', '113', '123', '129', '137', '132', '135'] 662.9629629629625
77 13.25925925925926 ['127', '140', '116', '145', '120', '149', '150', '147', '138', '113', '123', '129', '137', '132', '135'] 662.9629629629625
78 13.25925925925926 ['127', '140', '116', '145', '120', '149', '150', '147', '138', '113', '123', '129', '137', '132', '135'] 662.9629629629625
79 13.25925925925926 ['127', '140', '116', '145', '120', '149', '150', '147', '138', '113', '123', '129', '137', '132', '135'] 662.9629629629625
80 13.25925925925926 ['127', '140', '116', '145', '120', '149', '150', '147', '138', '113', '123', '129', '137', '132', '135'] 662.9629629629625
81 13.25925925925926 ['127', '140', '116', '145', '120', '149', '150', '147', '138', '113', '123', '129', '137', '132', '135'] 662.9629629629625
82 13.25925925925926 ['127', '140', '116', '145', '120', '149', '150', '147', '138', '113', '123', '129', '137', '132', '135'] 662.9629629629625
83 13.25925925925926 ['127', '140', '116', '145', '120', '149', '150', '147', '138', '113', '123', '129', '137', '132', '135'] 662.9629629629625
84 13.25925925925926 ['127', '140', '116', '145', '120', '149', '150', '147', '138', '113', '123', '129', '137', '132', '135'] 662.9629629629625
85 13.25925925925926 ['127', '140', '116', '145', '120', '149', '150', '147', '138', '113', '123', '129', '137', '132', '135'] 662.9629629629625
86 13.25925925925926 ['127', '140', '116', '145', '120', '149', '150', '147', '138', '113', '123', '129', '137', '132', '135'] 662.9629629629625
87 13.25925925925926 ['127', '140', '116', '145', '120', '149', '150', '147', '138', '113', '123', '129', '137', '132', '135'] 662.9629629629625
88 13.25925925925926 ['127', '140', '116', '145', '120', '149', '150', '147', '138', '113', '123', '129', '137', '132', '135'] 662.9629629629625
89 13.25925925925926 ['127', '140', '116', '145', '120', '149', '150', '147', '138', '113', '123', '129', '137', '132', '135'] 662.9629629629625
90 13.25925925925926 ['127', '140', '116', '145', '120', '149', '150', '147', '138', '113', '123', '129', '137', '132', '135'] 662.9629629629625
91 13.25925925925926 ['127', '140', '116', '145', '120', '149', '150', '147', '138', '113', '123', '129', '137', '132', '135'] 662.9629629629625
92 13.25925925925926 ['127', '140', '116', '145', '120', '149', '150', '147', '138', '113', '123', '129', '137', '132', '135'] 662.9629629629625
93 13.25925925925926 ['127', '140', '116', '145', '120', '149', '150', '147', '138', '113', '123', '129', '137', '132', '135'] 662.9629629629625
94 13.25925925925926 ['127', '140', '116', '145', '120', '149', '150', '147', '138', '113', '123', '129', '137', '132', '135'] 662.9629629629625
95 13.25925925925926 ['127', '140', '116', '145', '120', '149', '150', '147', '138', '113', '123', '129', '137', '132', '135'] 662.9629629629625
96 13.25925925925926 ['127', '140', '116', '145', '120', '149', '150', '147', '138', '113', '123', '129', '137', '132', '135'] 662.9629629629625
97 13.25925925925926 ['127', '140', '116', '145', '120', '149', '150', '147', '138', '113', '123', '129', '137', '132', '135'] 662.9629629629625
98 13.25925925925926 ['127', '140', '116', '145', '120', '149', '150', '147', '138', '113', '123', '129', '137', '132', '135'] 662.9629629629625
99 13.25925925925926 ['127', '140', '116', '145', '120', '149', '150', '147', '138', '113', '123', '129', '137', '132', '135'] 662.9629629629625
100 13.25925925925926 ['127', '140', '116', '145', '120', '149', '150', '147', '138', '113', '123', '129', '137', '132', '135'] 662.9629629629625
101 13.25925925925926 ['127', '140', '116', '145', '120', '149', '150', '147', '138', '113', '123', '129', '137', '132', '135'] 662.9629629629625
102 13.25925925925926 ['127', '140', '116', '145', '120', '149', '150', '147', '138', '113', '123', '129', '137', '132', '135'] 662.9629629629625
103 13.25925925925926 ['127', '140', '116', '145', '120', '149', '150', '147', '138', '113', '123', '129', '137', '132', '135'] 662.9629629629625
104 13.25925925925926 ['127', '140', '116', '145', '120', '149', '150', '147', '138', '113', '123', '129', '137', '132', '135'] 662.9629629629625
105 13.25925925925926 ['127', '140', '116', '145', '120', '149', '150', '147', '138', '113', '123', '129', '137', '132', '135'] 662.9629629629625
106 13.25925925925926 ['127', '140', '116', '145', '120', '149', '150', '147', '138', '113', '123', '129', '137', '132', '135'] 662.9629629629625
107 13.25925925925926 ['127', '140', '116', '145', '120', '149', '150', '147', '138', '113', '123', '129', '137', '132', '135'] 662.9629629629625
108 13.25925925925926 ['127', '140', '116', '145', '120', '149', '150', '147', '138', '113', '123', '129', '137', '132', '135'] 662.9629629629625
109 13.25925925925926 ['127', '140', '116', '145', '120', '149', '150', '147', '138', '113', '123', '129', '137', '132', '135'] 662.9629629629625
110 13.25925925925926 ['127', '140', '116', '145', '120', '149', '150', '147', '138', '113', '123', '129', '137', '132', '135'] 662.9629629629625
111 13.25925925925926 ['127', '140', '116', '145', '120', '149', '150', '147', '138', '113', '123', '129', '137', '132', '135'] 662.9629629629625
112 13.25925925925926 ['127', '140', '116', '145', '120', '149', '150', '147', '138', '113', '123', '129', '137', '132', '135'] 662.9629629629625
113 13.25925925925926 ['127', '140', '116', '145', '120', '149', '150', '147', '138', '113', '123', '129', '137', '132', '135'] 662.9629629629625
114 13.25925925925926 ['127', '140', '116', '145', '120', '149', '150', '147', '138', '113', '123', '129', '137', '132', '135'] 662.9629629629625
115 13.25925925925926 ['127', '140', '116', '145', '120', '149', '150', '147', '138', '113', '123', '129', '137', '132', '135'] 662.9629629629625
116 13.25925925925926 ['127', '140', '116', '145', '120', '149', '150', '147', '138', '113', '123', '129', '137', '132', '135'] 662.9629629629625
117 13.25925925925926 ['127', '140', '116', '145', '120', '149', '150', '147', '138', '113', '123', '129', '137', '132', '135'] 662.9629629629625
118 13.25925925925926 ['127', '140', '116', '145', '120', '149', '150', '147', '138', '113', '123', '129', '137', '132', '135'] 662.9629629629625
119 13.25925925925926 ['127', '140', '116', '145', '120', '149', '150', '147', '138', '113', '123', '129', '137', '132', '135'] 662.9629629629625
120 13.25925925925926 ['127', '140', '116', '145', '120', '149', '150', '147', '138', '113', '123', '129', '137', '132', '135'] 662.9629629629625
121 13.25925925925926 ['127', '140', '116', '145', '120', '149', '150', '147', '138', '113', '123', '129', '137', '132', '135'] 662.9629629629625
122 13.25925925925926 ['127', '140', '116', '145', '120', '149', '150', '147', '138', '113', '123', '129', '137', '132', '135'] 662.9629629629625
123 13.25925925925926 ['127', '140', '116', '145', '120', '149', '150', '147', '138', '113', '123', '129', '137', '132', '135'] 662.9629629629625
124 13.25925925925926 ['127', '140', '116', '145', '120', '149', '150', '147', '138', '113', '123', '129', '137', '132', '135'] 662.9629629629625
125 13.25925925925926 ['127', '140', '116', '145', '120', '149', '150', '147', '138', '113', '123', '129', '137', '132', '135'] 662.9629629629625
126 13.25925925925926 ['127', '140', '116', '145', '120', '149', '150', '147', '138', '113', '123', '129', '137', '132', '135'] 662.9629629629625
127 13.25925925925926 ['127', '140', '116', '145', '120', '149', '150', '147', '138', '113', '123', '129', '137', '132', '135'] 662.9629629629625
128 13.25925925925926 ['127', '140', '116', '145', '120', '149', '150', '147', '138', '113', '123', '129', '137', '132', '135'] 662.9629629629625
129 13.25925925925926 ['127', '140', '116', '145', '120', '149', '150', '147', '138', '113', '123', '129', '137', '132', '135'] 662.9629629629625
130 13.25925925925926 ['127', '140', '116', '145', '120', '149', '150', '147', '138', '113', '123', '129', '137', '132', '135'] 662.9629629629625
131 13.25925925925926 ['127', '140', '116', '145', '120', '149', '150', '147', '138', '113', '123', '129', '137', '132', '135'] 662.9629629629625
132 13.25925925925926 ['127', '140', '116', '145', '120', '149', '150', '147', '138', '113', '123', '129', '137', '132', '135'] 662.9629629629625
133 13.25925925925926 ['127', '140', '116', '145', '120', '149', '150', '147', '138', '113', '123', '129', '137', '132', '135'] 662.9629629629625
134 13.25925925925926 ['127', '140', '116', '145', '120', '149', '150', '147', '138', '113', '123', '129', '137', '132', '135'] 662.9629629629625
135 13.25925925925926 ['127', '140', '116', '145', '120', '149', '150', '147', '138', '113', '123', '129', '137', '132', '135'] 662.9629629629625
136 13.25925925925926 ['127', '140', '116', '145', '120', '149', '150', '147', '138', '113', '123', '129', '137', '132', '135'] 662.9629629629625
137 13.25925925925926 ['127', '140', '116', '145', '120', '149', '150', '147', '138', '113', '123', '129', '137', '132', '135'] 662.9629629629625
138 13.25925925925926 ['127', '140', '116', '145', '120', '149', '150', '147', '138', '113', '123', '129', '137', '132', '135'] 662.9629629629625
139 13.25925925925926 ['127', '140', '116', '145', '120', '149', '150', '147', '138', '113', '123', '129', '137', '132', '135'] 662.9629629629625
140 13.25925925925926 ['127', '140', '116', '145', '120', '149', '150', '147', '138', '113', '123', '129', '137', '132', '135'] 662.9629629629625
141 13.25925925925926 ['127', '140', '116', '145', '120', '149', '150', '147', '138', '113', '123', '129', '137', '132', '135'] 662.9629629629625
142 13.25925925925926 ['127', '140', '116', '145', '120', '149', '150', '147', '138', '113', '123', '129', '137', '132', '135'] 662.9629629629625
143 13.25925925925926 ['127', '140', '116', '145', '120', '149', '150', '147', '138', '113', '123', '129', '137', '132', '135'] 662.9629629629625
144 13.25925925925926 ['127', '140', '116', '145', '120', '149', '150', '147', '138', '113', '123', '129', '137', '132', '135'] 662.9629629629625
145 13.25925925925926 ['127', '140', '116', '145', '120', '149', '150', '147', '138', '113', '123', '129', '137', '132', '135'] 662.9629629629625
146 13.25925925925926 ['127', '140', '116', '145', '120', '149', '150', '147', '138', '113', '123', '129', '137', '132', '135'] 662.9629629629625
147 13.25925925925926 ['127', '140', '116', '145', '120', '149', '150', '147', '138', '113', '123', '129', '137', '132', '135'] 662.9629629629625
148 13.25925925925926 ['127', '140', '116', '145', '120', '149', '150', '147', '138', '113', '123', '129', '137', '132', '135'] 662.9629629629625
149 13.25925925925926 ['127', '140', '116', '145', '120', '149', '150', '147', '138', '113', '123', '129', '137', '132', '135'] 662.9629629629625
150 13.25925925925926 ['127', '140', '116', '145', '120', '149', '150', '147', '138', '113', '123', '129', '137', '132', '135'] 662.9629629629625
151 13.25925925925926 ['127', '140', '116', '145', '120', '149', '150', '147', '138', '113', '123', '129', '137', '132', '135'] 662.9629629629625
152 13.25925925925926 ['127', '140', '116', '145', '120', '149', '150', '147', '138', '113', '123', '129', '137', '132', '135'] 662.9629629629625
153 13.25925925925926 ['127', '140', '116', '145', '120', '149', '150', '147', '138', '113', '123', '129', '137', '132', '135'] 662.9629629629625
154 13.25925925925926 ['127', '140', '116', '145', '120', '149', '150', '147', '138', '113', '123', '129', '137', '132', '135'] 662.9629629629625
155 13.25925925925926 ['127', '140', '116', '145', '120', '149', '150', '147', '138', '113', '123', '129', '137', '132', '135'] 662.9629629629625
156 13.25925925925926 ['127', '140', '116', '145', '120', '149', '150', '147', '138', '113', '123', '129', '137', '132', '135'] 662.9629629629625
157 13.25925925925926 ['127', '140', '116', '145', '120', '149', '150', '147', '138', '113', '123', '129', '137', '132', '135'] 662.9629629629625
158 13.25925925925926 ['127', '140', '116', '145', '120', '149', '150', '147', '138', '113', '123', '129', '137', '132', '135'] 662.9629629629625
159 13.25925925925926 ['127', '140', '116', '145', '120', '149', '150', '147', '138', '113', '123', '129', '137', '132', '135'] 662.9629629629625
160 13.25925925925926 ['127', '140', '116', '145', '120', '149', '150', '147', '138', '113', '123', '129', '137', '132', '135'] 662.9629629629625
161 13.25925925925926 ['127', '140', '116', '145', '120', '149', '150', '147', '138', '113', '123', '129', '137', '132', '135'] 662.9629629629625
162 13.25925925925926 ['127', '140', '116', '145', '120', '149', '150', '147', '138', '113', '123', '129', '137', '132', '135'] 662.9629629629625
163 13.25925925925926 ['127', '140', '116', '145', '120', '149', '150', '147', '138', '113', '123', '129', '137', '132', '135'] 662.9629629629625
164 13.25925925925926 ['127', '140', '116', '145', '120', '149', '150', '147', '138', '113', '123', '129', '137', '132', '135'] 662.9629629629625
165 13.25925925925926 ['127', '140', '116', '145', '120', '149', '150', '147', '138', '113', '123', '129', '137', '132', '135'] 662.9629629629625
166 13.25925925925926 ['127', '140', '116', '145', '120', '149', '150', '147', '138', '113', '123', '129', '137', '132', '135'] 662.9629629629625
167 13.25925925925926 ['127', '140', '116', '145', '120', '149', '150', '147', '138', '113', '123', '129', '137', '132', '135'] 662.9629629629625
168 13.25925925925926 ['127', '140', '116', '145', '120', '149', '150', '147', '138', '113', '123', '129', '137', '132', '135'] 662.9629629629625
169 13.25925925925926 ['127', '140', '116', '145', '120', '149', '150', '147', '138', '113', '123', '129', '137', '132', '135'] 662.9629629629625
170 13.25925925925926 ['127', '140', '116', '145', '120', '149', '150', '147', '138', '113', '123', '129', '137', '132', '135'] 662.9629629629625
171 13.25925925925926 ['127', '140', '116', '145', '120', '149', '150', '147', '138', '113', '123', '129', '137', '132', '135'] 662.9629629629625
172 13.25925925925926 ['127', '140', '116', '145', '120', '149', '150', '147', '138', '113', '123', '129', '137', '132', '135'] 662.9629629629625
173 13.25925925925926 ['127', '140', '116', '145', '120', '149', '150', '147', '138', '113', '123', '129', '137', '132', '135'] 662.9629629629625
174 13.25925925925926 ['127', '140', '116', '145', '120', '149', '150', '147', '138', '113', '123', '129', '137', '132', '135'] 662.9629629629625
175 13.25925925925926 ['127', '140', '116', '145', '120', '149', '150', '147', '138', '113', '123', '129', '137', '132', '135'] 662.9629629629625
176 13.25925925925926 ['127', '140', '116', '145', '120', '149', '150', '147', '138', '113', '123', '129', '137', '132', '135'] 662.9629629629625
177 13.25925925925926 ['127', '140', '116', '145', '120', '149', '150', '147', '138', '113', '123', '129', '137', '132', '135'] 662.9629629629625
178 13.25925925925926 ['127', '140', '116', '145', '120', '149', '150', '147', '138', '113', '123', '129', '137', '132', '135'] 662.9629629629625
179 13.25925925925926 ['127', '140', '116', '145', '120', '149', '150', '147', '138', '113', '123', '129', '137', '132', '135'] 662.9629629629625
180 13.25925925925926 ['127', '140', '116', '145', '120', '149', '150', '147', '138', '113', '123', '129', '137', '132', '135'] 662.9629629629625
181 13.25925925925926 ['127', '140', '116', '145', '120', '149', '150', '147', '138', '113', '123', '129', '137', '132', '135'] 662.9629629629625
182 13.25925925925926 ['127', '140', '116', '145', '120', '149', '150', '147', '138', '113', '123', '129', '137', '132', '135'] 662.9629629629625
183 13.25925925925926 ['127', '140', '116', '145', '120', '149', '150', '147', '138', '113', '123', '129', '137', '132', '135'] 662.9629629629625
184 13.25925925925926 ['127', '140', '116', '145', '120', '149', '150', '147', '138', '113', '123', '129', '137', '132', '135'] 662.9629629629625
185 13.25925925925926 ['127', '140', '116', '145', '120', '149', '150', '147', '138', '113', '123', '129', '137', '132', '135'] 662.9629629629625
186 13.25925925925926 ['127', '140', '116', '145', '120', '149', '150', '147', '138', '113', '123', '129', '137', '132', '135'] 662.9629629629625
187 13.25925925925926 ['127', '140', '116', '145', '120', '149', '150', '147', '138', '113', '123', '129', '137', '132', '135'] 662.9629629629625
188 13.25925925925926 ['127', '140', '116', '145', '120', '149', '150', '147', '138', '113', '123', '129', '137', '132', '135'] 662.9629629629625
189 13.25925925925926 ['127', '140', '116', '145', '120', '149', '150', '147', '138', '113', '123', '129', '137', '132', '135'] 662.9629629629625
190 13.25925925925926 ['127', '140', '116', '145', '120', '149', '150', '147', '138', '113', '123', '129', '137', '132', '135'] 662.9629629629625
191 13.25925925925926 ['127', '140', '116', '145', '120', '149', '150', '147', '138', '113', '123', '129', '137', '132', '135'] 662.9629629629625
192 13.25925925925926 ['127', '140', '116', '145', '120', '149', '150', '147', '138', '113', '123', '129', '137', '132', '135'] 662.9629629629625
193 13.25925925925926 ['127', '140', '116', '145', '120', '149', '150', '147', '138', '113', '123', '129', '137', '132', '135'] 662.9629629629625
194 13.25925925925926 ['127', '140', '116', '145', '120', '149', '150', '147', '138', '113', '123', '129', '137', '132', '135'] 662.9629629629625
195 13.25925925925926 ['127', '140', '116', '145', '120', '149', '150', '147', '138', '113', '123', '129', '137', '132', '135'] 662.9629629629625
196 13.25925925925926 ['127', '140', '116', '145', '120', '149', '150', '147', '138', '113', '123', '129', '137', '132', '135'] 662.9629629629625
197 13.25925925925926 ['127', '140', '116', '145', '120', '149', '150', '147', '138', '113', '123', '129', '137', '132', '135'] 662.9629629629625
198 13.25925925925926 ['127', '140', '116', '145', '120', '149', '150', '147', '138', '113', '123', '129', '137', '132', '135'] 662.9629629629625
199 13.25925925925926 ['127', '140', '116', '145', '120', '149', '150', '147', '138', '113', '123', '129', '137', '132', '135'] 662.9629629629625
