0 36.175438596491226 ['25', '16', '18', '41', '5', '29'] 1872.7719298245613
1 35.50877192982456 ['58', '31', '14', '8', '35', '41'] 1842.5438596491233
2 35.12280701754386 ['57', '17', '14', '62', '5', '33'] 1817.0350877192982
3 34.68421052631579 ['38', '52', '8', '14', '22', '5'] 1788.4912280701756
4 34.50877192982456 ['8', '5', '38', '52', '14', '45'] 1769.1754385964912
5 34.19298245614035 ['8', '52', '35', '25', '41', '14'] 1752.6140350877188
6 33.8421052631579 ['8', '14', '35', '52', '41', '38'] 1736.9473684210525
7 33.8421052631579 ['8', '14', '35', '52', '41', '38'] 1725.1403508771937
8 33.526315789473685 ['8', '14', '52', '17', '5', '35'] 1713.7017543859647
9 33.526315789473685 ['8', '14', '52', '17', '5', '35'] 1704.754385964912
10 33.526315789473685 ['8', '14', '52', '17', '5', '35'] 1696.9298245614036
11 33.526315789473685 ['8', '14', '52', '17', '5', '35'] 1691.5087719298233
12 33.50877192982456 ['17', '14', '52', '35', '8', '48'] 1685.6315789473672
13 33.50877192982456 ['17', '14', '52', '35', '8', '48'] 1677.3508771929828
14 33.50877192982456 ['17', '14', '52', '35', '8', '48'] 1676.2807017543869
15 33.50877192982456 ['17', '14', '52', '35', '8', '48'] 1676.2105263157903
16 33.50877192982456 ['17', '14', '52', '35', '8', '48'] 1676.070175438597
17 33.50877192982456 ['17', '14', '52', '35', '8', '48'] 1675.7719298245624
18 33.50877192982456 ['17', '14', '52', '35', '8', '48'] 1675.4385964912296
19 33.50877192982456 ['17', '14', '52', '35', '8', '48'] 1675.4385964912296
20 33.50877192982456 ['17', '14', '52', '35', '8', '48'] 1675.4385964912296
21 33.50877192982456 ['17', '14', '52', '35', '8', '48'] 1675.4385964912296
22 33.50877192982456 ['17', '14', '52', '35', '8', '48'] 1675.4385964912296
23 33.50877192982456 ['17', '14', '52', '35', '8', '48'] 1675.4385964912296
24 33.50877192982456 ['17', '14', '52', '35', '8', '48'] 1675.4385964912296
25 33.50877192982456 ['17', '14', '52', '35', '8', '48'] 1675.4385964912296
26 33.50877192982456 ['17', '14', '52', '35', '8', '48'] 1675.4385964912296
27 33.50877192982456 ['17', '14', '52', '35', '8', '48'] 1675.4385964912296
28 33.50877192982456 ['17', '14', '52', '35', '8', '48'] 1675.4385964912296
29 33.50877192982456 ['17', '14', '52', '35', '8', '48'] 1675.4385964912296
30 33.50877192982456 ['17', '14', '52', '35', '8', '48'] 1675.4385964912296
31 33.50877192982456 ['17', '14', '52', '35', '8', '48'] 1675.4385964912296
32 33.50877192982456 ['17', '14', '52', '35', '8', '48'] 1675.4385964912296
33 33.50877192982456 ['17', '14', '52', '35', '8', '48'] 1675.4385964912296
34 33.50877192982456 ['17', '14', '52', '35', '8', '48'] 1675.4385964912296
35 33.50877192982456 ['17', '14', '52', '35', '8', '48'] 1675.4385964912296
36 33.50877192982456 ['17', '14', '52', '35', '8', '48'] 1675.4385964912296
37 33.50877192982456 ['17', '14', '52', '35', '8', '48'] 1675.4385964912296
38 33.50877192982456 ['17', '14', '52', '35', '8', '48'] 1675.4385964912296
39 33.50877192982456 ['17', '14', '52', '35', '8', '48'] 1675.4385964912296
40 33.50877192982456 ['17', '14', '52', '35', '8', '48'] 1675.4385964912296
41 33.50877192982456 ['17', '14', '52', '35', '8', '48'] 1675.4385964912296
42 33.50877192982456 ['17', '14', '52', '35', '8', '48'] 1675.4385964912296
43 33.50877192982456 ['17', '14', '52', '35', '8', '48'] 1675.4385964912296
44 33.50877192982456 ['17', '14', '52', '35', '8', '48'] 1675.4385964912296
45 33.50877192982456 ['17', '14', '52', '35', '8', '48'] 1675.4385964912296
46 33.50877192982456 ['17', '14', '52', '35', '8', '48'] 1675.4385964912296
47 33.50877192982456 ['17', '14', '52', '35', '8', '48'] 1675.4385964912296
48 33.50877192982456 ['17', '14', '52', '35', '8', '48'] 1675.4385964912296
49 33.50877192982456 ['17', '14', '52', '35', '8', '48'] 1675.4385964912296
50 33.50877192982456 ['17', '14', '52', '35', '8', '48'] 1675.4385964912296
51 33.50877192982456 ['17', '14', '52', '35', '8', '48'] 1675.4385964912296
52 33.50877192982456 ['17', '14', '52', '35', '8', '48'] 1675.4385964912296
53 33.50877192982456 ['17', '14', '52', '35', '8', '48'] 1675.4385964912296
54 33.50877192982456 ['17', '14', '52', '35', '8', '48'] 1675.4385964912296
55 33.50877192982456 ['17', '14', '52', '35', '8', '48'] 1675.4385964912296
56 33.50877192982456 ['17', '14', '52', '35', '8', '48'] 1675.4385964912296
57 33.50877192982456 ['17', '14', '52', '35', '8', '48'] 1675.4385964912296
58 33.50877192982456 ['17', '14', '52', '35', '8', '48'] 1675.4385964912296
59 33.50877192982456 ['17', '14', '52', '35', '8', '48'] 1675.4385964912296
60 33.50877192982456 ['17', '14', '52', '35', '8', '48'] 1675.4385964912296
61 33.50877192982456 ['17', '14', '52', '35', '8', '48'] 1675.4385964912296
62 33.50877192982456 ['17', '14', '52', '35', '8', '48'] 1675.4385964912296
63 33.50877192982456 ['17', '14', '52', '35', '8', '48'] 1675.4385964912296
64 33.50877192982456 ['17', '14', '52', '35', '8', '48'] 1675.4385964912296
65 33.50877192982456 ['17', '14', '52', '35', '8', '48'] 1675.4385964912296
66 33.50877192982456 ['17', '14', '52', '35', '8', '48'] 1675.4385964912296
67 33.50877192982456 ['17', '14', '52', '35', '8', '48'] 1675.4385964912296
68 33.50877192982456 ['17', '14', '52', '35', '8', '48'] 1675.4385964912296
69 33.50877192982456 ['17', '14', '52', '35', '8', '48'] 1675.4385964912296
70 33.50877192982456 ['17', '14', '52', '35', '8', '48'] 1675.4385964912296
71 33.50877192982456 ['17', '14', '52', '35', '8', '48'] 1675.4385964912296
72 33.50877192982456 ['17', '14', '52', '35', '8', '48'] 1675.4385964912296
73 33.50877192982456 ['17', '14', '52', '35', '8', '48'] 1675.4385964912296
74 33.50877192982456 ['17', '14', '52', '35', '8', '48'] 1675.4385964912296
75 33.50877192982456 ['17', '14', '52', '35', '8', '48'] 1675.4385964912296
76 33.50877192982456 ['17', '14', '52', '35', '8', '48'] 1675.4385964912296
77 33.50877192982456 ['17', '14', '52', '35', '8', '48'] 1675.4385964912296
78 33.50877192982456 ['17', '14', '52', '35', '8', '48'] 1675.4385964912296
79 33.50877192982456 ['17', '14', '52', '35', '8', '48'] 1675.4385964912296
80 33.50877192982456 ['17', '14', '52', '35', '8', '48'] 1675.4385964912296
81 33.50877192982456 ['17', '14', '52', '35', '8', '48'] 1675.4385964912296
82 33.50877192982456 ['17', '14', '52', '35', '8', '48'] 1675.4385964912296
83 33.50877192982456 ['17', '14', '52', '35', '8', '48'] 1675.4385964912296
84 33.50877192982456 ['17', '14', '52', '35', '8', '48'] 1675.4385964912296
85 33.50877192982456 ['17', '14', '52', '35', '8', '48'] 1675.4385964912296
86 33.50877192982456 ['17', '14', '52', '35', '8', '48'] 1675.4385964912296
87 33.50877192982456 ['17', '14', '52', '35', '8', '48'] 1675.4385964912296
88 33.50877192982456 ['17', '14', '52', '35', '8', '48'] 1675.4385964912296
89 33.50877192982456 ['17', '14', '52', '35', '8', '48'] 1675.4385964912296
90 33.50877192982456 ['17', '14', '52', '35', '8', '48'] 1675.4385964912296
91 33.50877192982456 ['17', '14', '52', '35', '8', '48'] 1675.4385964912296
92 33.50877192982456 ['17', '14', '52', '35', '8', '48'] 1675.4385964912296
93 33.50877192982456 ['17', '14', '52', '35', '8', '48'] 1675.4385964912296
94 33.50877192982456 ['17', '14', '52', '35', '8', '48'] 1675.4385964912296
95 33.50877192982456 ['17', '14', '52', '35', '8', '48'] 1675.4385964912296
96 33.50877192982456 ['17', '14', '52', '35', '8', '48'] 1675.4385964912296
97 33.50877192982456 ['17', '14', '52', '35', '8', '48'] 1675.4385964912296
98 33.50877192982456 ['17', '14', '52', '35', '8', '48'] 1675.4385964912296
99 33.50877192982456 ['17', '14', '52', '35', '8', '48'] 1675.4385964912296
100 33.50877192982456 ['17', '14', '52', '35', '8', '48'] 1675.4385964912296
101 33.50877192982456 ['17', '14', '52', '35', '8', '48'] 1675.4385964912296
102 33.50877192982456 ['17', '14', '52', '35', '8', '48'] 1675.4385964912296
103 33.50877192982456 ['17', '14', '52', '35', '8', '48'] 1675.4385964912296
104 33.50877192982456 ['17', '14', '52', '35', '8', '48'] 1675.4385964912296
105 33.50877192982456 ['17', '14', '52', '35', '8', '48'] 1675.4385964912296
106 33.50877192982456 ['17', '14', '52', '35', '8', '48'] 1675.4385964912296
107 33.50877192982456 ['17', '14', '52', '35', '8', '48'] 1675.4385964912296
108 33.50877192982456 ['17', '14', '52', '35', '8', '48'] 1675.4385964912296
109 33.50877192982456 ['17', '14', '52', '35', '8', '48'] 1675.4385964912296
110 33.50877192982456 ['17', '14', '52', '35', '8', '48'] 1675.4385964912296
111 33.50877192982456 ['17', '14', '52', '35', '8', '48'] 1675.4385964912296
112 33.50877192982456 ['17', '14', '52', '35', '8', '48'] 1675.4385964912296
113 33.50877192982456 ['17', '14', '52', '35', '8', '48'] 1675.4385964912296
114 33.50877192982456 ['17', '14', '52', '35', '8', '48'] 1675.4385964912296
115 33.50877192982456 ['17', '14', '52', '35', '8', '48'] 1675.4385964912296
116 33.50877192982456 ['17', '14', '52', '35', '8', '48'] 1675.4385964912296
117 33.50877192982456 ['17', '14', '52', '35', '8', '48'] 1675.4385964912296
118 33.50877192982456 ['17', '14', '52', '35', '8', '48'] 1675.4385964912296
119 33.50877192982456 ['17', '14', '52', '35', '8', '48'] 1675.4385964912296
120 33.50877192982456 ['17', '14', '52', '35', '8', '48'] 1675.4385964912296
121 33.50877192982456 ['17', '14', '52', '35', '8', '48'] 1675.4385964912296
122 33.50877192982456 ['17', '14', '52', '35', '8', '48'] 1675.4385964912296
123 33.50877192982456 ['17', '14', '52', '35', '8', '48'] 1675.4385964912296
124 33.50877192982456 ['17', '14', '52', '35', '8', '48'] 1675.4385964912296
125 33.50877192982456 ['17', '14', '52', '35', '8', '48'] 1675.4385964912296
126 33.50877192982456 ['17', '14', '52', '35', '8', '48'] 1675.4385964912296
127 33.50877192982456 ['17', '14', '52', '35', '8', '48'] 1675.4385964912296
128 33.50877192982456 ['17', '14', '52', '35', '8', '48'] 1675.4385964912296
129 33.50877192982456 ['17', '14', '52', '35', '8', '48'] 1675.4385964912296
130 33.50877192982456 ['17', '14', '52', '35', '8', '48'] 1675.4385964912296
131 33.50877192982456 ['17', '14', '52', '35', '8', '48'] 1675.4385964912296
132 33.50877192982456 ['17', '14', '52', '35', '8', '48'] 1675.4385964912296
133 33.50877192982456 ['17', '14', '52', '35', '8', '48'] 1675.4385964912296
134 33.50877192982456 ['17', '14', '52', '35', '8', '48'] 1675.4385964912296
135 33.50877192982456 ['17', '14', '52', '35', '8', '48'] 1675.4385964912296
136 33.50877192982456 ['17', '14', '52', '35', '8', '48'] 1675.4385964912296
137 33.50877192982456 ['17', '14', '52', '35', '8', '48'] 1675.4385964912296
138 33.50877192982456 ['17', '14', '52', '35', '8', '48'] 1675.4385964912296
139 33.50877192982456 ['17', '14', '52', '35', '8', '48'] 1675.4385964912296
140 33.50877192982456 ['17', '14', '52', '35', '8', '48'] 1675.4385964912296
141 33.50877192982456 ['17', '14', '52', '35', '8', '48'] 1675.4385964912296
142 33.50877192982456 ['17', '14', '52', '35', '8', '48'] 1675.4385964912296
143 33.50877192982456 ['17', '14', '52', '35', '8', '48'] 1675.4385964912296
144 33.50877192982456 ['17', '14', '52', '35', '8', '48'] 1675.4385964912296
145 33.50877192982456 ['17', '14', '52', '35', '8', '48'] 1675.4385964912296
146 33.50877192982456 ['17', '14', '52', '35', '8', '48'] 1675.4385964912296
147 33.50877192982456 ['17', '14', '52', '35', '8', '48'] 1675.4385964912296
148 33.50877192982456 ['17', '14', '52', '35', '8', '48'] 1675.4385964912296
149 33.50877192982456 ['17', '14', '52', '35', '8', '48'] 1675.4385964912296
150 33.50877192982456 ['17', '14', '52', '35', '8', '48'] 1675.4385964912296
151 33.50877192982456 ['17', '14', '52', '35', '8', '48'] 1675.4385964912296
152 33.50877192982456 ['17', '14', '52', '35', '8', '48'] 1675.4385964912296
153 33.50877192982456 ['17', '14', '52', '35', '8', '48'] 1675.4385964912296
154 33.50877192982456 ['17', '14', '52', '35', '8', '48'] 1675.4385964912296
155 33.50877192982456 ['17', '14', '52', '35', '8', '48'] 1675.4385964912296
156 33.50877192982456 ['17', '14', '52', '35', '8', '48'] 1675.4385964912296
157 33.50877192982456 ['17', '14', '52', '35', '8', '48'] 1675.4385964912296
158 33.50877192982456 ['17', '14', '52', '35', '8', '48'] 1675.4385964912296
159 33.50877192982456 ['17', '14', '52', '35', '8', '48'] 1675.4385964912296
160 33.50877192982456 ['17', '14', '52', '35', '8', '48'] 1675.4385964912296
161 33.50877192982456 ['17', '14', '52', '35', '8', '48'] 1675.4385964912296
162 33.50877192982456 ['17', '14', '52', '35', '8', '48'] 1675.4385964912296
163 33.50877192982456 ['17', '14', '52', '35', '8', '48'] 1675.4385964912296
164 33.50877192982456 ['17', '14', '52', '35', '8', '48'] 1675.4385964912296
165 33.50877192982456 ['17', '14', '52', '35', '8', '48'] 1675.4385964912296
166 33.50877192982456 ['17', '14', '52', '35', '8', '48'] 1675.4385964912296
167 33.50877192982456 ['17', '14', '52', '35', '8', '48'] 1675.4385964912296
168 33.50877192982456 ['17', '14', '52', '35', '8', '48'] 1675.4385964912296
169 33.50877192982456 ['17', '14', '52', '35', '8', '48'] 1675.4385964912296
170 33.50877192982456 ['17', '14', '52', '35', '8', '48'] 1675.4385964912296
171 33.50877192982456 ['17', '14', '52', '35', '8', '48'] 1675.4385964912296
172 33.50877192982456 ['17', '14', '52', '35', '8', '48'] 1675.4385964912296
173 33.50877192982456 ['17', '14', '52', '35', '8', '48'] 1675.4385964912296
174 33.50877192982456 ['17', '14', '52', '35', '8', '48'] 1675.4385964912296
175 33.50877192982456 ['17', '14', '52', '35', '8', '48'] 1675.4385964912296
176 33.50877192982456 ['17', '14', '52', '35', '8', '48'] 1675.4385964912296
177 33.50877192982456 ['17', '14', '52', '35', '8', '48'] 1675.4385964912296
178 33.50877192982456 ['17', '14', '52', '35', '8', '48'] 1675.4385964912296
179 33.50877192982456 ['17', '14', '52', '35', '8', '48'] 1675.4385964912296
180 33.50877192982456 ['17', '14', '52', '35', '8', '48'] 1675.4385964912296
181 33.50877192982456 ['17', '14', '52', '35', '8', '48'] 1675.4385964912296
182 33.50877192982456 ['17', '14', '52', '35', '8', '48'] 1675.4385964912296
183 33.50877192982456 ['17', '14', '52', '35', '8', '48'] 1675.4385964912296
184 33.50877192982456 ['17', '14', '52', '35', '8', '48'] 1675.4385964912296
185 33.50877192982456 ['17', '14', '52', '35', '8', '48'] 1675.4385964912296
186 33.50877192982456 ['17', '14', '52', '35', '8', '48'] 1675.4385964912296
187 33.50877192982456 ['17', '14', '52', '35', '8', '48'] 1675.4385964912296
188 33.50877192982456 ['17', '14', '52', '35', '8', '48'] 1675.4385964912296
189 33.50877192982456 ['17', '14', '52', '35', '8', '48'] 1675.4385964912296
190 33.50877192982456 ['17', '14', '52', '35', '8', '48'] 1675.4385964912296
191 33.50877192982456 ['17', '14', '52', '35', '8', '48'] 1675.4385964912296
192 33.50877192982456 ['17', '14', '52', '35', '8', '48'] 1675.4385964912296
193 33.50877192982456 ['17', '14', '52', '35', '8', '48'] 1675.4385964912296
194 33.50877192982456 ['17', '14', '52', '35', '8', '48'] 1675.4385964912296
195 33.50877192982456 ['17', '14', '52', '35', '8', '48'] 1675.4385964912296
196 33.50877192982456 ['17', '14', '52', '35', '8', '48'] 1675.4385964912296
197 33.50877192982456 ['17', '14', '52', '35', '8', '48'] 1675.4385964912296
198 33.50877192982456 ['17', '14', '52', '35', '8', '48'] 1675.4385964912296
199 33.50877192982456 ['17', '14', '52', '35', '8', '48'] 1675.4385964912296
