0 5.378518518518521 ['95', '136', '148', '145', '71', '46', '49', '28', '91', '76', '143', '101', '1', '141', '51'] 272.2904938271607
1 5.359382716049388 ['10', '98', '140', '56', '110', '113', '62', '133', '87', '81', '40', '150', '149', '127', '59'] 271.4417283950619
2 5.343580246913586 ['121', '146', '77', '91', '80', '84', '127', '46', '140', '110', '124', '44', '86', '2', '19'] 270.5420987654323
3 5.2816049382716095 ['140', '10', '110', '121', '49', '103', '98', '150', '80', '46', '90', '133', '60', '115', '124'] 269.65037037037047
4 5.2816049382716095 ['140', '10', '110', '121', '49', '103', '98', '150', '80', '46', '90', '133', '60', '115', '124'] 268.9986419753088
5 5.2816049382716095 ['140', '10', '110', '121', '49', '103', '98', '150', '80', '46', '90', '133', '60', '115', '124'] 268.21185185185203
6 5.2816049382716095 ['140', '10', '110', '121', '49', '103', '98', '150', '80', '46', '90', '133', '60', '115', '124'] 267.50839506172855
7 5.2816049382716095 ['140', '10', '110', '121', '49', '103', '98', '150', '80', '46', '90', '133', '60', '115', '124'] 266.9162962962964
8 5.266172839506176 ['133', '98', '150', '149', '148', '62', '113', '142', '10', '55', '46', '115', '110', '103', '60'] 266.21629629629643
9 5.2381481481481496 ['10', '140', '49', '110', '150', '27', '144', '103', '121', '138', '131', '149', '113', '148', '60'] 265.31000000000023
10 5.231358024691362 ['150', '149', '46', '103', '133', '140', '138', '145', '49', '83', '124', '55', '91', '77', '10'] 264.5995061728397
11 5.203333333333337 ['103', '140', '46', '110', '150', '124', '133', '55', '142', '60', '98', '127', '10', '145', '149'] 263.9506172839508
12 5.194074074074076 ['140', '103', '46', '10', '149', '133', '124', '150', '145', '135', '98', '77', '31', '70', '55'] 263.1482716049383
13 5.194074074074076 ['140', '103', '46', '10', '149', '133', '124', '150', '145', '135', '98', '77', '31', '70', '55'] 262.4723456790125
14 5.176790123456793 ['98', '145', '55', '149', '10', '46', '103', '150', '140', '124', '133', '31', '77', '142', '135'] 261.8285185185187
15 5.141481481481484 ['150', '31', '133', '145', '140', '149', '98', '46', '10', '148', '119', '103', '124', '144', '121'] 260.980740740741
16 5.141481481481484 ['150', '31', '133', '145', '140', '149', '98', '46', '10', '148', '119', '103', '124', '144', '121'] 260.0220987654322
17 5.141481481481484 ['150', '31', '133', '145', '140', '149', '98', '46', '10', '148', '119', '103', '124', '144', '121'] 259.3595061728396
18 5.141481481481484 ['150', '31', '133', '145', '140', '149', '98', '46', '10', '148', '119', '103', '124', '144', '121'] 258.9046913580248
19 5.141481481481484 ['150', '31', '133', '145', '140', '149', '98', '46', '10', '148', '119', '103', '124', '144', '121'] 258.3314814814816
20 5.126913580246918 ['150', '133', '46', '124', '31', '140', '149', '145', '10', '98', '103', '56', '121', '119', '148'] 257.85975308641986
21 5.123456790123459 ['149', '148', '145', '31', '10', '150', '98', '103', '119', '133', '140', '124', '46', '77', '121'] 257.3346913580248
22 5.123456790123459 ['149', '148', '145', '31', '10', '150', '98', '103', '119', '133', '140', '124', '46', '77', '121'] 256.95111111111123
23 5.118518518518522 ['46', '124', '140', '133', '149', '10', '31', '119', '103', '98', '145', '150', '148', '139', '77'] 256.6818518518521
24 5.112469135802472 ['98', '140', '145', '150', '46', '10', '149', '133', '31', '139', '103', '124', '77', '144', '119'] 256.3730864197531
25 5.111728395061733 ['124', '133', '145', '46', '31', '139', '103', '150', '98', '10', '149', '140', '119', '127', '77'] 256.1565432098766
26 5.097901234567906 ['139', '133', '140', '46', '31', '145', '150', '77', '103', '10', '149', '124', '98', '56', '119'] 256.0075308641979
27 5.097901234567906 ['139', '133', '140', '46', '31', '145', '150', '77', '103', '10', '149', '124', '98', '56', '119'] 255.79543209876581
28 5.097901234567906 ['139', '133', '140', '46', '31', '145', '150', '77', '103', '10', '149', '124', '98', '56', '119'] 255.6333333333337
29 5.097901234567906 ['139', '133', '140', '46', '31', '145', '150', '77', '103', '10', '149', '124', '98', '56', '119'] 255.32222222222254
30 5.097901234567906 ['139', '133', '140', '46', '31', '145', '150', '77', '103', '10', '149', '124', '98', '56', '119'] 254.89506172839506
31 5.097901234567906 ['139', '133', '140', '46', '31', '145', '150', '77', '103', '10', '149', '124', '98', '56', '119'] 254.89506172839506
32 5.097901234567906 ['139', '133', '140', '46', '31', '145', '150', '77', '103', '10', '149', '124', '98', '56', '119'] 254.89506172839506
33 5.097901234567906 ['139', '133', '140', '46', '31', '145', '150', '77', '103', '10', '149', '124', '98', '56', '119'] 254.89506172839506
34 5.097901234567906 ['139', '133', '140', '46', '31', '145', '150', '77', '103', '10', '149', '124', '98', '56', '119'] 254.89506172839506
35 5.097901234567906 ['139', '133', '140', '46', '31', '145', '150', '77', '103', '10', '149', '124', '98', '56', '119'] 254.89506172839506
36 5.097901234567906 ['139', '133', '140', '46', '31', '145', '150', '77', '103', '10', '149', '124', '98', '56', '119'] 254.89506172839506
37 5.097901234567906 ['139', '133', '140', '46', '31', '145', '150', '77', '103', '10', '149', '124', '98', '56', '119'] 254.89506172839506
38 5.097901234567906 ['139', '133', '140', '46', '31', '145', '150', '77', '103', '10', '149', '124', '98', '56', '119'] 254.89506172839506
39 5.097901234567906 ['139', '133', '140', '46', '31', '145', '150', '77', '103', '10', '149', '124', '98', '56', '119'] 254.89506172839506
40 5.097901234567906 ['139', '133', '140', '46', '31', '145', '150', '77', '103', '10', '149', '124', '98', '56', '119'] 254.89506172839506
41 5.097901234567906 ['139', '133', '140', '46', '31', '145', '150', '77', '103', '10', '149', '124', '98', '56', '119'] 254.89506172839506
42 5.097901234567906 ['139', '133', '140', '46', '31', '145', '150', '77', '103', '10', '149', '124', '98', '56', '119'] 254.89506172839506
43 5.097901234567906 ['139', '133', '140', '46', '31', '145', '150', '77', '103', '10', '149', '124', '98', '56', '119'] 254.89506172839506
44 5.097901234567906 ['139', '133', '140', '46', '31', '145', '150', '77', '103', '10', '149', '124', '98', '56', '119'] 254.89506172839506
45 5.097901234567906 ['139', '133', '140', '46', '31', '145', '150', '77', '103', '10', '149', '124', '98', '56', '119'] 254.89506172839506
46 5.097901234567906 ['139', '133', '140', '46', '31', '145', '150', '77', '103', '10', '149', '124', '98', '56', '119'] 254.89506172839506
47 5.097901234567906 ['139', '133', '140', '46', '31', '145', '150', '77', '103', '10', '149', '124', '98', '56', '119'] 254.89506172839506
48 5.097901234567906 ['139', '133', '140', '46', '31', '145', '150', '77', '103', '10', '149', '124', '98', '56', '119'] 254.89506172839506
49 5.097901234567906 ['139', '133', '140', '46', '31', '145', '150', '77', '103', '10', '149', '124', '98', '56', '119'] 254.89506172839506
50 5.097901234567906 ['139', '133', '140', '46', '31', '145', '150', '77', '103', '10', '149', '124', '98', '56', '119'] 254.89506172839506
51 5.097901234567906 ['139', '133', '140', '46', '31', '145', '150', '77', '103', '10', '149', '124', '98', '56', '119'] 254.89506172839506
52 5.097901234567906 ['139', '133', '140', '46', '31', '145', '150', '77', '103', '10', '149', '124', '98', '56', '119'] 254.89506172839506
53 5.097901234567906 ['139', '133', '140', '46', '31', '145', '150', '77', '103', '10', '149', '124', '98', '56', '119'] 254.89506172839506
54 5.097901234567906 ['139', '133', '140', '46', '31', '145', '150', '77', '103', '10', '149', '124', '98', '56', '119'] 254.89506172839506
55 5.097901234567906 ['139', '133', '140', '46', '31', '145', '150', '77', '103', '10', '149', '124', '98', '56', '119'] 254.89506172839506
56 5.097901234567906 ['139', '133', '140', '46', '31', '145', '150', '77', '103', '10', '149', '124', '98', '56', '119'] 254.89506172839506
57 5.097901234567906 ['139', '133', '140', '46', '31', '145', '150', '77', '103', '10', '149', '124', '98', '56', '119'] 254.89506172839506
58 5.097901234567906 ['139', '133', '140', '46', '31', '145', '150', '77', '103', '10', '149', '124', '98', '56', '119'] 254.89506172839506
59 5.097901234567906 ['139', '133', '140', '46', '31', '145', '150', '77', '103', '10', '149', '124', '98', '56', '119'] 254.89506172839506
60 5.097901234567906 ['139', '133', '140', '46', '31', '145', '150', '77', '103', '10', '149', '124', '98', '56', '119'] 254.89506172839506
61 5.097901234567906 ['139', '133', '140', '46', '31', '145', '150', '77', '103', '10', '149', '124', '98', '56', '119'] 254.89506172839506
62 5.097901234567906 ['139', '133', '140', '46', '31', '145', '150', '77', '103', '10', '149', '124', '98', '56', '119'] 254.89506172839506
63 5.097901234567906 ['139', '133', '140', '46', '31', '145', '150', '77', '103', '10', '149', '124', '98', '56', '119'] 254.89506172839506
64 5.097901234567906 ['139', '133', '140', '46', '31', '145', '150', '77', '103', '10', '149', '124', '98', '56', '119'] 254.89506172839506
65 5.097901234567906 ['139', '133', '140', '46', '31', '145', '150', '77', '103', '10', '149', '124', '98', '56', '119'] 254.89506172839506
66 5.097901234567906 ['139', '133', '140', '46', '31', '145', '150', '77', '103', '10', '149', '124', '98', '56', '119'] 254.89506172839506
67 5.097901234567906 ['139', '133', '140', '46', '31', '145', '150', '77', '103', '10', '149', '124', '98', '56', '119'] 254.89506172839506
68 5.097901234567906 ['139', '133', '140', '46', '31', '145', '150', '77', '103', '10', '149', '124', '98', '56', '119'] 254.89506172839506
69 5.097901234567906 ['139', '133', '140', '46', '31', '145', '150', '77', '103', '10', '149', '124', '98', '56', '119'] 254.89506172839506
70 5.097901234567906 ['139', '133', '140', '46', '31', '145', '150', '77', '103', '10', '149', '124', '98', '56', '119'] 254.89506172839506
71 5.097901234567906 ['139', '133', '140', '46', '31', '145', '150', '77', '103', '10', '149', '124', '98', '56', '119'] 254.89506172839506
72 5.097901234567906 ['139', '133', '140', '46', '31', '145', '150', '77', '103', '10', '149', '124', '98', '56', '119'] 254.89506172839506
73 5.097901234567906 ['139', '133', '140', '46', '31', '145', '150', '77', '103', '10', '149', '124', '98', '56', '119'] 254.89506172839506
74 5.097901234567906 ['139', '133', '140', '46', '31', '145', '150', '77', '103', '10', '149', '124', '98', '56', '119'] 254.89506172839506
75 5.097901234567906 ['139', '133', '140', '46', '31', '145', '150', '77', '103', '10', '149', '124', '98', '56', '119'] 254.89506172839506
76 5.097901234567906 ['139', '133', '140', '46', '31', '145', '150', '77', '103', '10', '149', '124', '98', '56', '119'] 254.89506172839506
77 5.097901234567906 ['139', '133', '140', '46', '31', '145', '150', '77', '103', '10', '149', '124', '98', '56', '119'] 254.89506172839506
78 5.097901234567906 ['139', '133', '140', '46', '31', '145', '150', '77', '103', '10', '149', '124', '98', '56', '119'] 254.89506172839506
79 5.097901234567906 ['139', '133', '140', '46', '31', '145', '150', '77', '103', '10', '149', '124', '98', '56', '119'] 254.89506172839506
80 5.097901234567906 ['139', '133', '140', '46', '31', '145', '150', '77', '103', '10', '149', '124', '98', '56', '119'] 254.89506172839506
81 5.097901234567906 ['139', '133', '140', '46', '31', '145', '150', '77', '103', '10', '149', '124', '98', '56', '119'] 254.89506172839506
82 5.097901234567906 ['139', '133', '140', '46', '31', '145', '150', '77', '103', '10', '149', '124', '98', '56', '119'] 254.89506172839506
83 5.097901234567906 ['139', '133', '140', '46', '31', '145', '150', '77', '103', '10', '149', '124', '98', '56', '119'] 254.89506172839506
84 5.097901234567906 ['139', '133', '140', '46', '31', '145', '150', '77', '103', '10', '149', '124', '98', '56', '119'] 254.89506172839506
85 5.097901234567906 ['139', '133', '140', '46', '31', '145', '150', '77', '103', '10', '149', '124', '98', '56', '119'] 254.89506172839506
86 5.097901234567906 ['139', '133', '140', '46', '31', '145', '150', '77', '103', '10', '149', '124', '98', '56', '119'] 254.89506172839506
87 5.097901234567906 ['139', '133', '140', '46', '31', '145', '150', '77', '103', '10', '149', '124', '98', '56', '119'] 254.89506172839506
88 5.097901234567906 ['139', '133', '140', '46', '31', '145', '150', '77', '103', '10', '149', '124', '98', '56', '119'] 254.89506172839506
89 5.097901234567906 ['139', '133', '140', '46', '31', '145', '150', '77', '103', '10', '149', '124', '98', '56', '119'] 254.89506172839506
90 5.097901234567906 ['139', '133', '140', '46', '31', '145', '150', '77', '103', '10', '149', '124', '98', '56', '119'] 254.89506172839506
91 5.097901234567906 ['139', '133', '140', '46', '31', '145', '150', '77', '103', '10', '149', '124', '98', '56', '119'] 254.89506172839506
92 5.097901234567906 ['139', '133', '140', '46', '31', '145', '150', '77', '103', '10', '149', '124', '98', '56', '119'] 254.89506172839506
93 5.097901234567906 ['139', '133', '140', '46', '31', '145', '150', '77', '103', '10', '149', '124', '98', '56', '119'] 254.89506172839506
94 5.097901234567906 ['139', '133', '140', '46', '31', '145', '150', '77', '103', '10', '149', '124', '98', '56', '119'] 254.89506172839506
95 5.097901234567906 ['139', '133', '140', '46', '31', '145', '150', '77', '103', '10', '149', '124', '98', '56', '119'] 254.89506172839506
96 5.097901234567906 ['139', '133', '140', '46', '31', '145', '150', '77', '103', '10', '149', '124', '98', '56', '119'] 254.89506172839506
97 5.097901234567906 ['139', '133', '140', '46', '31', '145', '150', '77', '103', '10', '149', '124', '98', '56', '119'] 254.89506172839506
98 5.097901234567906 ['139', '133', '140', '46', '31', '145', '150', '77', '103', '10', '149', '124', '98', '56', '119'] 254.89506172839506
99 5.097901234567906 ['139', '133', '140', '46', '31', '145', '150', '77', '103', '10', '149', '124', '98', '56', '119'] 254.89506172839506
100 5.097901234567906 ['139', '133', '140', '46', '31', '145', '150', '77', '103', '10', '149', '124', '98', '56', '119'] 254.89506172839506
101 5.097901234567906 ['139', '133', '140', '46', '31', '145', '150', '77', '103', '10', '149', '124', '98', '56', '119'] 254.89506172839506
102 5.097901234567906 ['139', '133', '140', '46', '31', '145', '150', '77', '103', '10', '149', '124', '98', '56', '119'] 254.89506172839506
103 5.097901234567906 ['139', '133', '140', '46', '31', '145', '150', '77', '103', '10', '149', '124', '98', '56', '119'] 254.89506172839506
104 5.097901234567906 ['139', '133', '140', '46', '31', '145', '150', '77', '103', '10', '149', '124', '98', '56', '119'] 254.89506172839506
105 5.097901234567906 ['139', '133', '140', '46', '31', '145', '150', '77', '103', '10', '149', '124', '98', '56', '119'] 254.89506172839506
106 5.097901234567906 ['139', '133', '140', '46', '31', '145', '150', '77', '103', '10', '149', '124', '98', '56', '119'] 254.89506172839506
107 5.097901234567906 ['139', '133', '140', '46', '31', '145', '150', '77', '103', '10', '149', '124', '98', '56', '119'] 254.89506172839506
108 5.097901234567906 ['139', '133', '140', '46', '31', '145', '150', '77', '103', '10', '149', '124', '98', '56', '119'] 254.89506172839506
109 5.097901234567906 ['139', '133', '140', '46', '31', '145', '150', '77', '103', '10', '149', '124', '98', '56', '119'] 254.89506172839506
110 5.097901234567906 ['139', '133', '140', '46', '31', '145', '150', '77', '103', '10', '149', '124', '98', '56', '119'] 254.89506172839506
111 5.097901234567906 ['139', '133', '140', '46', '31', '145', '150', '77', '103', '10', '149', '124', '98', '56', '119'] 254.89506172839506
112 5.097901234567906 ['139', '133', '140', '46', '31', '145', '150', '77', '103', '10', '149', '124', '98', '56', '119'] 254.89506172839506
113 5.097901234567906 ['139', '133', '140', '46', '31', '145', '150', '77', '103', '10', '149', '124', '98', '56', '119'] 254.89506172839506
114 5.097901234567906 ['139', '133', '140', '46', '31', '145', '150', '77', '103', '10', '149', '124', '98', '56', '119'] 254.89506172839506
115 5.097901234567906 ['139', '133', '140', '46', '31', '145', '150', '77', '103', '10', '149', '124', '98', '56', '119'] 254.89506172839506
116 5.097901234567906 ['139', '133', '140', '46', '31', '145', '150', '77', '103', '10', '149', '124', '98', '56', '119'] 254.89506172839506
117 5.097901234567906 ['139', '133', '140', '46', '31', '145', '150', '77', '103', '10', '149', '124', '98', '56', '119'] 254.89506172839506
118 5.097901234567906 ['139', '133', '140', '46', '31', '145', '150', '77', '103', '10', '149', '124', '98', '56', '119'] 254.89506172839506
119 5.097901234567906 ['139', '133', '140', '46', '31', '145', '150', '77', '103', '10', '149', '124', '98', '56', '119'] 254.89506172839506
120 5.097901234567906 ['139', '133', '140', '46', '31', '145', '150', '77', '103', '10', '149', '124', '98', '56', '119'] 254.89506172839506
121 5.097901234567906 ['139', '133', '140', '46', '31', '145', '150', '77', '103', '10', '149', '124', '98', '56', '119'] 254.89506172839506
122 5.097901234567906 ['139', '133', '140', '46', '31', '145', '150', '77', '103', '10', '149', '124', '98', '56', '119'] 254.89506172839506
123 5.097901234567906 ['139', '133', '140', '46', '31', '145', '150', '77', '103', '10', '149', '124', '98', '56', '119'] 254.89506172839506
124 5.097901234567906 ['139', '133', '140', '46', '31', '145', '150', '77', '103', '10', '149', '124', '98', '56', '119'] 254.89506172839506
125 5.097901234567906 ['139', '133', '140', '46', '31', '145', '150', '77', '103', '10', '149', '124', '98', '56', '119'] 254.89506172839506
126 5.097901234567906 ['139', '133', '140', '46', '31', '145', '150', '77', '103', '10', '149', '124', '98', '56', '119'] 254.89506172839506
127 5.097901234567906 ['139', '133', '140', '46', '31', '145', '150', '77', '103', '10', '149', '124', '98', '56', '119'] 254.89506172839506
128 5.097901234567906 ['139', '133', '140', '46', '31', '145', '150', '77', '103', '10', '149', '124', '98', '56', '119'] 254.89506172839506
129 5.097901234567906 ['139', '133', '140', '46', '31', '145', '150', '77', '103', '10', '149', '124', '98', '56', '119'] 254.89506172839506
130 5.097901234567906 ['139', '133', '140', '46', '31', '145', '150', '77', '103', '10', '149', '124', '98', '56', '119'] 254.89506172839506
131 5.097901234567906 ['139', '133', '140', '46', '31', '145', '150', '77', '103', '10', '149', '124', '98', '56', '119'] 254.89506172839506
132 5.097901234567906 ['139', '133', '140', '46', '31', '145', '150', '77', '103', '10', '149', '124', '98', '56', '119'] 254.89506172839506
133 5.097901234567906 ['139', '133', '140', '46', '31', '145', '150', '77', '103', '10', '149', '124', '98', '56', '119'] 254.89506172839506
134 5.097901234567906 ['139', '133', '140', '46', '31', '145', '150', '77', '103', '10', '149', '124', '98', '56', '119'] 254.89506172839506
135 5.097901234567906 ['139', '133', '140', '46', '31', '145', '150', '77', '103', '10', '149', '124', '98', '56', '119'] 254.89506172839506
136 5.097901234567906 ['139', '133', '140', '46', '31', '145', '150', '77', '103', '10', '149', '124', '98', '56', '119'] 254.89506172839506
137 5.097901234567906 ['139', '133', '140', '46', '31', '145', '150', '77', '103', '10', '149', '124', '98', '56', '119'] 254.89506172839506
138 5.097901234567906 ['139', '133', '140', '46', '31', '145', '150', '77', '103', '10', '149', '124', '98', '56', '119'] 254.89506172839506
139 5.097901234567906 ['139', '133', '140', '46', '31', '145', '150', '77', '103', '10', '149', '124', '98', '56', '119'] 254.89506172839506
140 5.097901234567906 ['139', '133', '140', '46', '31', '145', '150', '77', '103', '10', '149', '124', '98', '56', '119'] 254.89506172839506
141 5.097901234567906 ['139', '133', '140', '46', '31', '145', '150', '77', '103', '10', '149', '124', '98', '56', '119'] 254.89506172839506
142 5.097901234567906 ['139', '133', '140', '46', '31', '145', '150', '77', '103', '10', '149', '124', '98', '56', '119'] 254.89506172839506
143 5.097901234567906 ['139', '133', '140', '46', '31', '145', '150', '77', '103', '10', '149', '124', '98', '56', '119'] 254.89506172839506
144 5.097901234567906 ['139', '133', '140', '46', '31', '145', '150', '77', '103', '10', '149', '124', '98', '56', '119'] 254.89506172839506
145 5.097901234567906 ['139', '133', '140', '46', '31', '145', '150', '77', '103', '10', '149', '124', '98', '56', '119'] 254.89506172839506
146 5.097901234567906 ['139', '133', '140', '46', '31', '145', '150', '77', '103', '10', '149', '124', '98', '56', '119'] 254.89506172839506
147 5.097901234567906 ['139', '133', '140', '46', '31', '145', '150', '77', '103', '10', '149', '124', '98', '56', '119'] 254.89506172839506
148 5.097901234567906 ['139', '133', '140', '46', '31', '145', '150', '77', '103', '10', '149', '124', '98', '56', '119'] 254.89506172839506
149 5.097901234567906 ['139', '133', '140', '46', '31', '145', '150', '77', '103', '10', '149', '124', '98', '56', '119'] 254.89506172839506
150 5.097901234567906 ['139', '133', '140', '46', '31', '145', '150', '77', '103', '10', '149', '124', '98', '56', '119'] 254.89506172839506
151 5.097901234567906 ['139', '133', '140', '46', '31', '145', '150', '77', '103', '10', '149', '124', '98', '56', '119'] 254.89506172839506
152 5.097901234567906 ['139', '133', '140', '46', '31', '145', '150', '77', '103', '10', '149', '124', '98', '56', '119'] 254.89506172839506
153 5.097901234567906 ['139', '133', '140', '46', '31', '145', '150', '77', '103', '10', '149', '124', '98', '56', '119'] 254.89506172839506
154 5.097901234567906 ['139', '133', '140', '46', '31', '145', '150', '77', '103', '10', '149', '124', '98', '56', '119'] 254.89506172839506
155 5.097901234567906 ['139', '133', '140', '46', '31', '145', '150', '77', '103', '10', '149', '124', '98', '56', '119'] 254.89506172839506
156 5.097901234567906 ['139', '133', '140', '46', '31', '145', '150', '77', '103', '10', '149', '124', '98', '56', '119'] 254.89506172839506
157 5.097901234567906 ['139', '133', '140', '46', '31', '145', '150', '77', '103', '10', '149', '124', '98', '56', '119'] 254.89506172839506
158 5.097901234567906 ['139', '133', '140', '46', '31', '145', '150', '77', '103', '10', '149', '124', '98', '56', '119'] 254.89506172839506
159 5.097901234567906 ['139', '133', '140', '46', '31', '145', '150', '77', '103', '10', '149', '124', '98', '56', '119'] 254.89506172839506
160 5.097901234567906 ['139', '133', '140', '46', '31', '145', '150', '77', '103', '10', '149', '124', '98', '56', '119'] 254.89506172839506
161 5.097901234567906 ['139', '133', '140', '46', '31', '145', '150', '77', '103', '10', '149', '124', '98', '56', '119'] 254.89506172839506
162 5.097901234567906 ['139', '133', '140', '46', '31', '145', '150', '77', '103', '10', '149', '124', '98', '56', '119'] 254.89506172839506
163 5.097901234567906 ['139', '133', '140', '46', '31', '145', '150', '77', '103', '10', '149', '124', '98', '56', '119'] 254.89506172839506
164 5.097901234567906 ['139', '133', '140', '46', '31', '145', '150', '77', '103', '10', '149', '124', '98', '56', '119'] 254.89506172839506
165 5.097901234567906 ['139', '133', '140', '46', '31', '145', '150', '77', '103', '10', '149', '124', '98', '56', '119'] 254.89506172839506
166 5.097901234567906 ['139', '133', '140', '46', '31', '145', '150', '77', '103', '10', '149', '124', '98', '56', '119'] 254.89506172839506
167 5.097901234567906 ['139', '133', '140', '46', '31', '145', '150', '77', '103', '10', '149', '124', '98', '56', '119'] 254.89506172839506
168 5.097901234567906 ['139', '133', '140', '46', '31', '145', '150', '77', '103', '10', '149', '124', '98', '56', '119'] 254.89506172839506
169 5.097901234567906 ['139', '133', '140', '46', '31', '145', '150', '77', '103', '10', '149', '124', '98', '56', '119'] 254.89506172839506
170 5.097901234567906 ['139', '133', '140', '46', '31', '145', '150', '77', '103', '10', '149', '124', '98', '56', '119'] 254.89506172839506
171 5.097901234567906 ['139', '133', '140', '46', '31', '145', '150', '77', '103', '10', '149', '124', '98', '56', '119'] 254.89506172839506
172 5.097901234567906 ['139', '133', '140', '46', '31', '145', '150', '77', '103', '10', '149', '124', '98', '56', '119'] 254.89506172839506
173 5.097901234567906 ['139', '133', '140', '46', '31', '145', '150', '77', '103', '10', '149', '124', '98', '56', '119'] 254.89506172839506
174 5.097901234567906 ['139', '133', '140', '46', '31', '145', '150', '77', '103', '10', '149', '124', '98', '56', '119'] 254.89506172839506
175 5.097901234567906 ['139', '133', '140', '46', '31', '145', '150', '77', '103', '10', '149', '124', '98', '56', '119'] 254.89506172839506
176 5.097901234567906 ['139', '133', '140', '46', '31', '145', '150', '77', '103', '10', '149', '124', '98', '56', '119'] 254.89506172839506
177 5.097901234567906 ['139', '133', '140', '46', '31', '145', '150', '77', '103', '10', '149', '124', '98', '56', '119'] 254.89506172839506
178 5.097901234567906 ['139', '133', '140', '46', '31', '145', '150', '77', '103', '10', '149', '124', '98', '56', '119'] 254.89506172839506
179 5.097901234567906 ['139', '133', '140', '46', '31', '145', '150', '77', '103', '10', '149', '124', '98', '56', '119'] 254.89506172839506
180 5.097901234567906 ['139', '133', '140', '46', '31', '145', '150', '77', '103', '10', '149', '124', '98', '56', '119'] 254.89506172839506
181 5.097901234567906 ['139', '133', '140', '46', '31', '145', '150', '77', '103', '10', '149', '124', '98', '56', '119'] 254.89506172839506
182 5.097901234567906 ['139', '133', '140', '46', '31', '145', '150', '77', '103', '10', '149', '124', '98', '56', '119'] 254.89506172839506
183 5.097901234567906 ['139', '133', '140', '46', '31', '145', '150', '77', '103', '10', '149', '124', '98', '56', '119'] 254.89506172839506
184 5.097901234567906 ['139', '133', '140', '46', '31', '145', '150', '77', '103', '10', '149', '124', '98', '56', '119'] 254.89506172839506
185 5.097901234567906 ['139', '133', '140', '46', '31', '145', '150', '77', '103', '10', '149', '124', '98', '56', '119'] 254.89506172839506
186 5.097901234567906 ['139', '133', '140', '46', '31', '145', '150', '77', '103', '10', '149', '124', '98', '56', '119'] 254.89506172839506
187 5.097901234567906 ['139', '133', '140', '46', '31', '145', '150', '77', '103', '10', '149', '124', '98', '56', '119'] 254.89506172839506
188 5.097901234567906 ['139', '133', '140', '46', '31', '145', '150', '77', '103', '10', '149', '124', '98', '56', '119'] 254.89506172839506
189 5.097901234567906 ['139', '133', '140', '46', '31', '145', '150', '77', '103', '10', '149', '124', '98', '56', '119'] 254.89506172839506
190 5.097901234567906 ['139', '133', '140', '46', '31', '145', '150', '77', '103', '10', '149', '124', '98', '56', '119'] 254.89506172839506
191 5.097901234567906 ['139', '133', '140', '46', '31', '145', '150', '77', '103', '10', '149', '124', '98', '56', '119'] 254.89506172839506
192 5.097901234567906 ['139', '133', '140', '46', '31', '145', '150', '77', '103', '10', '149', '124', '98', '56', '119'] 254.89506172839506
193 5.097901234567906 ['139', '133', '140', '46', '31', '145', '150', '77', '103', '10', '149', '124', '98', '56', '119'] 254.89506172839506
194 5.097901234567906 ['139', '133', '140', '46', '31', '145', '150', '77', '103', '10', '149', '124', '98', '56', '119'] 254.89506172839506
195 5.097901234567906 ['139', '133', '140', '46', '31', '145', '150', '77', '103', '10', '149', '124', '98', '56', '119'] 254.89506172839506
196 5.097901234567906 ['139', '133', '140', '46', '31', '145', '150', '77', '103', '10', '149', '124', '98', '56', '119'] 254.89506172839506
197 5.097901234567906 ['139', '133', '140', '46', '31', '145', '150', '77', '103', '10', '149', '124', '98', '56', '119'] 254.89506172839506
198 5.097901234567906 ['139', '133', '140', '46', '31', '145', '150', '77', '103', '10', '149', '124', '98', '56', '119'] 254.89506172839506
199 5.097901234567906 ['139', '133', '140', '46', '31', '145', '150', '77', '103', '10', '149', '124', '98', '56', '119'] 254.89506172839506
