0 5.47283950617284 ['86', '70', '15', '23', '142', '150', '147', '134', '52', '109', '90', '99', '8', '67', '139'] 278.01629629629633
1 5.46592592592593 ['147', '141', '27', '17', '23', '81', '135', '98', '134', '103', '109', '32', '72', '52', '122'] 276.70370370370387
2 5.46592592592593 ['147', '141', '27', '17', '23', '81', '135', '98', '134', '103', '109', '32', '72', '52', '122'] 275.54691358024706
3 5.424567901234567 ['78', '134', '147', '144', '113', '45', '72', '131', '138', '98', '105', '90', '115', '66', '123'] 274.6012345679013
4 5.418395061728396 ['81', '142', '37', '29', '141', '53', '34', '140', '65', '123', '89', '98', '144', '145', '131'] 273.7225925925927
5 5.369135802469136 ['145', '134', '135', '92', '131', '147', '115', '133', '14', '123', '69', '120', '91', '104', '144'] 272.8307407407409
6 5.3362962962962985 ['145', '135', '131', '92', '104', '134', '144', '108', '96', '69', '128', '64', '147', '14', '91'] 271.83814814814826
7 5.3362962962962985 ['145', '135', '131', '92', '104', '134', '144', '108', '96', '69', '128', '64', '147', '14', '91'] 271.0582716049384
8 5.3362962962962985 ['145', '135', '131', '92', '104', '134', '144', '108', '96', '69', '128', '64', '147', '14', '91'] 270.10296296296315
9 5.304074074074077 ['144', '131', '147', '134', '128', '64', '109', '135', '104', '142', '17', '133', '91', '14', '72'] 269.29296296296303
10 5.295185185185187 ['92', '104', '145', '14', '134', '147', '131', '144', '128', '96', '64', '91', '133', '142', '135'] 268.12543209876554
11 5.280493827160495 ['131', '104', '144', '134', '115', '142', '135', '147', '123', '129', '121', '3', '138', '128', '91'] 266.9580246913581
12 5.272592592592595 ['115', '142', '104', '144', '147', '131', '135', '108', '136', '133', '3', '91', '64', '66', '52'] 265.8883950617285
13 5.272592592592595 ['115', '142', '104', '144', '147', '131', '135', '108', '136', '133', '3', '91', '64', '66', '52'] 265.3744444444445
14 5.251481481481481 ['91', '131', '135', '147', '104', '136', '134', '144', '133', '129', '70', '111', '115', '84', '138'] 264.75308641975323
15 5.236913580246916 ['145', '104', '91', '135', '147', '134', '144', '64', '128', '142', '129', '108', '115', '131', '84'] 264.04160493827163
16 5.236913580246916 ['145', '104', '91', '135', '147', '134', '144', '64', '128', '142', '129', '108', '115', '131', '84'] 263.4977777777778
17 5.216049382716052 ['144', '111', '133', '147', '131', '104', '91', '135', '115', '128', '136', '134', '64', '129', '108'] 262.957901234568
18 5.216049382716052 ['144', '111', '133', '147', '131', '104', '91', '135', '115', '128', '136', '134', '64', '129', '108'] 262.5137037037038
19 5.216049382716052 ['144', '111', '133', '147', '131', '104', '91', '135', '115', '128', '136', '134', '64', '129', '108'] 261.9632098765434
20 5.202345679012347 ['115', '147', '91', '104', '144', '131', '142', '136', '135', '129', '145', '111', '123', '133', '64'] 261.5333333333335
21 5.196790123456793 ['129', '144', '128', '147', '136', '131', '64', '91', '115', '135', '133', '104', '142', '108', '111'] 261.11530864197545
22 5.194320987654326 ['131', '129', '136', '142', '145', '104', '144', '91', '108', '147', '135', '133', '115', '128', '66'] 260.68185185185195
23 5.194320987654326 ['131', '129', '136', '142', '145', '104', '144', '91', '108', '147', '135', '133', '115', '128', '66'] 260.3041975308643
24 5.194320987654326 ['131', '129', '136', '142', '145', '104', '144', '91', '108', '147', '135', '133', '115', '128', '66'] 260.0065432098768
25 5.183827160493831 ['111', '136', '129', '128', '104', '108', '147', '135', '133', '115', '91', '131', '144', '145', '142'] 259.74641975308657
26 5.183827160493831 ['111', '136', '129', '128', '104', '108', '147', '135', '133', '115', '91', '131', '144', '145', '142'] 259.6425925925927
27 5.183827160493831 ['111', '136', '129', '128', '104', '108', '147', '135', '133', '115', '91', '131', '144', '145', '142'] 259.5586419753088
28 5.183827160493831 ['111', '136', '129', '128', '104', '108', '147', '135', '133', '115', '91', '131', '144', '145', '142'] 259.41172839506186
29 5.183827160493831 ['111', '136', '129', '128', '104', '108', '147', '135', '133', '115', '91', '131', '144', '145', '142'] 259.19135802469134
30 5.183827160493831 ['111', '136', '129', '128', '104', '108', '147', '135', '133', '115', '91', '131', '144', '145', '142'] 259.19135802469134
31 5.183827160493831 ['111', '136', '129', '128', '104', '108', '147', '135', '133', '115', '91', '131', '144', '145', '142'] 259.19135802469134
32 5.183827160493831 ['111', '136', '129', '128', '104', '108', '147', '135', '133', '115', '91', '131', '144', '145', '142'] 259.19135802469134
33 5.183827160493831 ['111', '136', '129', '128', '104', '108', '147', '135', '133', '115', '91', '131', '144', '145', '142'] 259.19135802469134
34 5.183827160493831 ['111', '136', '129', '128', '104', '108', '147', '135', '133', '115', '91', '131', '144', '145', '142'] 259.19135802469134
35 5.183827160493831 ['111', '136', '129', '128', '104', '108', '147', '135', '133', '115', '91', '131', '144', '145', '142'] 259.19135802469134
36 5.183827160493831 ['111', '136', '129', '128', '104', '108', '147', '135', '133', '115', '91', '131', '144', '145', '142'] 259.19135802469134
37 5.183827160493831 ['111', '136', '129', '128', '104', '108', '147', '135', '133', '115', '91', '131', '144', '145', '142'] 259.19135802469134
38 5.183827160493831 ['111', '136', '129', '128', '104', '108', '147', '135', '133', '115', '91', '131', '144', '145', '142'] 259.19135802469134
39 5.183827160493831 ['111', '136', '129', '128', '104', '108', '147', '135', '133', '115', '91', '131', '144', '145', '142'] 259.19135802469134
40 5.183827160493831 ['111', '136', '129', '128', '104', '108', '147', '135', '133', '115', '91', '131', '144', '145', '142'] 259.19135802469134
41 5.183827160493831 ['111', '136', '129', '128', '104', '108', '147', '135', '133', '115', '91', '131', '144', '145', '142'] 259.19135802469134
42 5.183827160493831 ['111', '136', '129', '128', '104', '108', '147', '135', '133', '115', '91', '131', '144', '145', '142'] 259.19135802469134
43 5.183827160493831 ['111', '136', '129', '128', '104', '108', '147', '135', '133', '115', '91', '131', '144', '145', '142'] 259.19135802469134
44 5.183827160493831 ['111', '136', '129', '128', '104', '108', '147', '135', '133', '115', '91', '131', '144', '145', '142'] 259.19135802469134
45 5.183827160493831 ['111', '136', '129', '128', '104', '108', '147', '135', '133', '115', '91', '131', '144', '145', '142'] 259.19135802469134
46 5.183827160493831 ['111', '136', '129', '128', '104', '108', '147', '135', '133', '115', '91', '131', '144', '145', '142'] 259.19135802469134
47 5.183827160493831 ['111', '136', '129', '128', '104', '108', '147', '135', '133', '115', '91', '131', '144', '145', '142'] 259.19135802469134
48 5.183827160493831 ['111', '136', '129', '128', '104', '108', '147', '135', '133', '115', '91', '131', '144', '145', '142'] 259.19135802469134
49 5.183827160493831 ['111', '136', '129', '128', '104', '108', '147', '135', '133', '115', '91', '131', '144', '145', '142'] 259.19135802469134
50 5.183827160493831 ['111', '136', '129', '128', '104', '108', '147', '135', '133', '115', '91', '131', '144', '145', '142'] 259.19135802469134
51 5.183827160493831 ['111', '136', '129', '128', '104', '108', '147', '135', '133', '115', '91', '131', '144', '145', '142'] 259.19135802469134
52 5.183827160493831 ['111', '136', '129', '128', '104', '108', '147', '135', '133', '115', '91', '131', '144', '145', '142'] 259.19135802469134
53 5.183827160493831 ['111', '136', '129', '128', '104', '108', '147', '135', '133', '115', '91', '131', '144', '145', '142'] 259.19135802469134
54 5.183827160493831 ['111', '136', '129', '128', '104', '108', '147', '135', '133', '115', '91', '131', '144', '145', '142'] 259.19135802469134
55 5.183827160493831 ['111', '136', '129', '128', '104', '108', '147', '135', '133', '115', '91', '131', '144', '145', '142'] 259.19135802469134
56 5.183827160493831 ['111', '136', '129', '128', '104', '108', '147', '135', '133', '115', '91', '131', '144', '145', '142'] 259.19135802469134
57 5.183827160493831 ['111', '136', '129', '128', '104', '108', '147', '135', '133', '115', '91', '131', '144', '145', '142'] 259.19135802469134
58 5.183827160493831 ['111', '136', '129', '128', '104', '108', '147', '135', '133', '115', '91', '131', '144', '145', '142'] 259.19135802469134
59 5.183827160493831 ['111', '136', '129', '128', '104', '108', '147', '135', '133', '115', '91', '131', '144', '145', '142'] 259.19135802469134
60 5.183827160493831 ['111', '136', '129', '128', '104', '108', '147', '135', '133', '115', '91', '131', '144', '145', '142'] 259.19135802469134
61 5.183827160493831 ['111', '136', '129', '128', '104', '108', '147', '135', '133', '115', '91', '131', '144', '145', '142'] 259.19135802469134
62 5.183827160493831 ['111', '136', '129', '128', '104', '108', '147', '135', '133', '115', '91', '131', '144', '145', '142'] 259.19135802469134
63 5.183827160493831 ['111', '136', '129', '128', '104', '108', '147', '135', '133', '115', '91', '131', '144', '145', '142'] 259.19135802469134
64 5.183827160493831 ['111', '136', '129', '128', '104', '108', '147', '135', '133', '115', '91', '131', '144', '145', '142'] 259.19135802469134
65 5.183827160493831 ['111', '136', '129', '128', '104', '108', '147', '135', '133', '115', '91', '131', '144', '145', '142'] 259.19135802469134
66 5.183827160493831 ['111', '136', '129', '128', '104', '108', '147', '135', '133', '115', '91', '131', '144', '145', '142'] 259.19135802469134
67 5.183827160493831 ['111', '136', '129', '128', '104', '108', '147', '135', '133', '115', '91', '131', '144', '145', '142'] 259.19135802469134
68 5.183827160493831 ['111', '136', '129', '128', '104', '108', '147', '135', '133', '115', '91', '131', '144', '145', '142'] 259.19135802469134
69 5.183827160493831 ['111', '136', '129', '128', '104', '108', '147', '135', '133', '115', '91', '131', '144', '145', '142'] 259.19135802469134
70 5.183827160493831 ['111', '136', '129', '128', '104', '108', '147', '135', '133', '115', '91', '131', '144', '145', '142'] 259.19135802469134
71 5.183827160493831 ['111', '136', '129', '128', '104', '108', '147', '135', '133', '115', '91', '131', '144', '145', '142'] 259.19135802469134
72 5.183827160493831 ['111', '136', '129', '128', '104', '108', '147', '135', '133', '115', '91', '131', '144', '145', '142'] 259.19135802469134
73 5.183827160493831 ['111', '136', '129', '128', '104', '108', '147', '135', '133', '115', '91', '131', '144', '145', '142'] 259.19135802469134
74 5.183827160493831 ['111', '136', '129', '128', '104', '108', '147', '135', '133', '115', '91', '131', '144', '145', '142'] 259.19135802469134
75 5.183827160493831 ['111', '136', '129', '128', '104', '108', '147', '135', '133', '115', '91', '131', '144', '145', '142'] 259.19135802469134
76 5.183827160493831 ['111', '136', '129', '128', '104', '108', '147', '135', '133', '115', '91', '131', '144', '145', '142'] 259.19135802469134
77 5.183827160493831 ['111', '136', '129', '128', '104', '108', '147', '135', '133', '115', '91', '131', '144', '145', '142'] 259.19135802469134
78 5.183827160493831 ['111', '136', '129', '128', '104', '108', '147', '135', '133', '115', '91', '131', '144', '145', '142'] 259.19135802469134
79 5.183827160493831 ['111', '136', '129', '128', '104', '108', '147', '135', '133', '115', '91', '131', '144', '145', '142'] 259.19135802469134
80 5.183827160493831 ['111', '136', '129', '128', '104', '108', '147', '135', '133', '115', '91', '131', '144', '145', '142'] 259.19135802469134
81 5.183827160493831 ['111', '136', '129', '128', '104', '108', '147', '135', '133', '115', '91', '131', '144', '145', '142'] 259.19135802469134
82 5.183827160493831 ['111', '136', '129', '128', '104', '108', '147', '135', '133', '115', '91', '131', '144', '145', '142'] 259.19135802469134
83 5.183827160493831 ['111', '136', '129', '128', '104', '108', '147', '135', '133', '115', '91', '131', '144', '145', '142'] 259.19135802469134
84 5.183827160493831 ['111', '136', '129', '128', '104', '108', '147', '135', '133', '115', '91', '131', '144', '145', '142'] 259.19135802469134
85 5.183827160493831 ['111', '136', '129', '128', '104', '108', '147', '135', '133', '115', '91', '131', '144', '145', '142'] 259.19135802469134
86 5.183827160493831 ['111', '136', '129', '128', '104', '108', '147', '135', '133', '115', '91', '131', '144', '145', '142'] 259.19135802469134
87 5.183827160493831 ['111', '136', '129', '128', '104', '108', '147', '135', '133', '115', '91', '131', '144', '145', '142'] 259.19135802469134
88 5.183827160493831 ['111', '136', '129', '128', '104', '108', '147', '135', '133', '115', '91', '131', '144', '145', '142'] 259.19135802469134
89 5.183827160493831 ['111', '136', '129', '128', '104', '108', '147', '135', '133', '115', '91', '131', '144', '145', '142'] 259.19135802469134
90 5.183827160493831 ['111', '136', '129', '128', '104', '108', '147', '135', '133', '115', '91', '131', '144', '145', '142'] 259.19135802469134
91 5.183827160493831 ['111', '136', '129', '128', '104', '108', '147', '135', '133', '115', '91', '131', '144', '145', '142'] 259.19135802469134
92 5.183827160493831 ['111', '136', '129', '128', '104', '108', '147', '135', '133', '115', '91', '131', '144', '145', '142'] 259.19135802469134
93 5.183827160493831 ['111', '136', '129', '128', '104', '108', '147', '135', '133', '115', '91', '131', '144', '145', '142'] 259.19135802469134
94 5.183827160493831 ['111', '136', '129', '128', '104', '108', '147', '135', '133', '115', '91', '131', '144', '145', '142'] 259.19135802469134
95 5.183827160493831 ['111', '136', '129', '128', '104', '108', '147', '135', '133', '115', '91', '131', '144', '145', '142'] 259.19135802469134
96 5.183827160493831 ['111', '136', '129', '128', '104', '108', '147', '135', '133', '115', '91', '131', '144', '145', '142'] 259.19135802469134
97 5.183827160493831 ['111', '136', '129', '128', '104', '108', '147', '135', '133', '115', '91', '131', '144', '145', '142'] 259.19135802469134
98 5.183827160493831 ['111', '136', '129', '128', '104', '108', '147', '135', '133', '115', '91', '131', '144', '145', '142'] 259.19135802469134
99 5.183827160493831 ['111', '136', '129', '128', '104', '108', '147', '135', '133', '115', '91', '131', '144', '145', '142'] 259.19135802469134
100 5.183827160493831 ['111', '136', '129', '128', '104', '108', '147', '135', '133', '115', '91', '131', '144', '145', '142'] 259.19135802469134
101 5.183827160493831 ['111', '136', '129', '128', '104', '108', '147', '135', '133', '115', '91', '131', '144', '145', '142'] 259.19135802469134
102 5.183827160493831 ['111', '136', '129', '128', '104', '108', '147', '135', '133', '115', '91', '131', '144', '145', '142'] 259.19135802469134
103 5.183827160493831 ['111', '136', '129', '128', '104', '108', '147', '135', '133', '115', '91', '131', '144', '145', '142'] 259.19135802469134
104 5.183827160493831 ['111', '136', '129', '128', '104', '108', '147', '135', '133', '115', '91', '131', '144', '145', '142'] 259.19135802469134
105 5.183827160493831 ['111', '136', '129', '128', '104', '108', '147', '135', '133', '115', '91', '131', '144', '145', '142'] 259.19135802469134
106 5.183827160493831 ['111', '136', '129', '128', '104', '108', '147', '135', '133', '115', '91', '131', '144', '145', '142'] 259.19135802469134
107 5.183827160493831 ['111', '136', '129', '128', '104', '108', '147', '135', '133', '115', '91', '131', '144', '145', '142'] 259.19135802469134
108 5.183827160493831 ['111', '136', '129', '128', '104', '108', '147', '135', '133', '115', '91', '131', '144', '145', '142'] 259.19135802469134
109 5.183827160493831 ['111', '136', '129', '128', '104', '108', '147', '135', '133', '115', '91', '131', '144', '145', '142'] 259.19135802469134
110 5.183827160493831 ['111', '136', '129', '128', '104', '108', '147', '135', '133', '115', '91', '131', '144', '145', '142'] 259.19135802469134
111 5.183827160493831 ['111', '136', '129', '128', '104', '108', '147', '135', '133', '115', '91', '131', '144', '145', '142'] 259.19135802469134
112 5.183827160493831 ['111', '136', '129', '128', '104', '108', '147', '135', '133', '115', '91', '131', '144', '145', '142'] 259.19135802469134
113 5.183827160493831 ['111', '136', '129', '128', '104', '108', '147', '135', '133', '115', '91', '131', '144', '145', '142'] 259.19135802469134
114 5.183827160493831 ['111', '136', '129', '128', '104', '108', '147', '135', '133', '115', '91', '131', '144', '145', '142'] 259.19135802469134
115 5.183827160493831 ['111', '136', '129', '128', '104', '108', '147', '135', '133', '115', '91', '131', '144', '145', '142'] 259.19135802469134
116 5.183827160493831 ['111', '136', '129', '128', '104', '108', '147', '135', '133', '115', '91', '131', '144', '145', '142'] 259.19135802469134
117 5.183827160493831 ['111', '136', '129', '128', '104', '108', '147', '135', '133', '115', '91', '131', '144', '145', '142'] 259.19135802469134
118 5.183827160493831 ['111', '136', '129', '128', '104', '108', '147', '135', '133', '115', '91', '131', '144', '145', '142'] 259.19135802469134
119 5.183827160493831 ['111', '136', '129', '128', '104', '108', '147', '135', '133', '115', '91', '131', '144', '145', '142'] 259.19135802469134
120 5.183827160493831 ['111', '136', '129', '128', '104', '108', '147', '135', '133', '115', '91', '131', '144', '145', '142'] 259.19135802469134
121 5.183827160493831 ['111', '136', '129', '128', '104', '108', '147', '135', '133', '115', '91', '131', '144', '145', '142'] 259.19135802469134
122 5.183827160493831 ['111', '136', '129', '128', '104', '108', '147', '135', '133', '115', '91', '131', '144', '145', '142'] 259.19135802469134
123 5.183827160493831 ['111', '136', '129', '128', '104', '108', '147', '135', '133', '115', '91', '131', '144', '145', '142'] 259.19135802469134
124 5.183827160493831 ['111', '136', '129', '128', '104', '108', '147', '135', '133', '115', '91', '131', '144', '145', '142'] 259.19135802469134
125 5.183827160493831 ['111', '136', '129', '128', '104', '108', '147', '135', '133', '115', '91', '131', '144', '145', '142'] 259.19135802469134
126 5.183827160493831 ['111', '136', '129', '128', '104', '108', '147', '135', '133', '115', '91', '131', '144', '145', '142'] 259.19135802469134
127 5.183827160493831 ['111', '136', '129', '128', '104', '108', '147', '135', '133', '115', '91', '131', '144', '145', '142'] 259.19135802469134
128 5.183827160493831 ['111', '136', '129', '128', '104', '108', '147', '135', '133', '115', '91', '131', '144', '145', '142'] 259.19135802469134
129 5.183827160493831 ['111', '136', '129', '128', '104', '108', '147', '135', '133', '115', '91', '131', '144', '145', '142'] 259.19135802469134
130 5.183827160493831 ['111', '136', '129', '128', '104', '108', '147', '135', '133', '115', '91', '131', '144', '145', '142'] 259.19135802469134
131 5.183827160493831 ['111', '136', '129', '128', '104', '108', '147', '135', '133', '115', '91', '131', '144', '145', '142'] 259.19135802469134
132 5.183827160493831 ['111', '136', '129', '128', '104', '108', '147', '135', '133', '115', '91', '131', '144', '145', '142'] 259.19135802469134
133 5.183827160493831 ['111', '136', '129', '128', '104', '108', '147', '135', '133', '115', '91', '131', '144', '145', '142'] 259.19135802469134
134 5.183827160493831 ['111', '136', '129', '128', '104', '108', '147', '135', '133', '115', '91', '131', '144', '145', '142'] 259.19135802469134
135 5.183827160493831 ['111', '136', '129', '128', '104', '108', '147', '135', '133', '115', '91', '131', '144', '145', '142'] 259.19135802469134
136 5.183827160493831 ['111', '136', '129', '128', '104', '108', '147', '135', '133', '115', '91', '131', '144', '145', '142'] 259.19135802469134
137 5.183827160493831 ['111', '136', '129', '128', '104', '108', '147', '135', '133', '115', '91', '131', '144', '145', '142'] 259.19135802469134
138 5.183827160493831 ['111', '136', '129', '128', '104', '108', '147', '135', '133', '115', '91', '131', '144', '145', '142'] 259.19135802469134
139 5.183827160493831 ['111', '136', '129', '128', '104', '108', '147', '135', '133', '115', '91', '131', '144', '145', '142'] 259.19135802469134
140 5.183827160493831 ['111', '136', '129', '128', '104', '108', '147', '135', '133', '115', '91', '131', '144', '145', '142'] 259.19135802469134
141 5.183827160493831 ['111', '136', '129', '128', '104', '108', '147', '135', '133', '115', '91', '131', '144', '145', '142'] 259.19135802469134
142 5.183827160493831 ['111', '136', '129', '128', '104', '108', '147', '135', '133', '115', '91', '131', '144', '145', '142'] 259.19135802469134
143 5.183827160493831 ['111', '136', '129', '128', '104', '108', '147', '135', '133', '115', '91', '131', '144', '145', '142'] 259.19135802469134
144 5.183827160493831 ['111', '136', '129', '128', '104', '108', '147', '135', '133', '115', '91', '131', '144', '145', '142'] 259.19135802469134
145 5.183827160493831 ['111', '136', '129', '128', '104', '108', '147', '135', '133', '115', '91', '131', '144', '145', '142'] 259.19135802469134
146 5.183827160493831 ['111', '136', '129', '128', '104', '108', '147', '135', '133', '115', '91', '131', '144', '145', '142'] 259.19135802469134
147 5.183827160493831 ['111', '136', '129', '128', '104', '108', '147', '135', '133', '115', '91', '131', '144', '145', '142'] 259.19135802469134
148 5.183827160493831 ['111', '136', '129', '128', '104', '108', '147', '135', '133', '115', '91', '131', '144', '145', '142'] 259.19135802469134
149 5.183827160493831 ['111', '136', '129', '128', '104', '108', '147', '135', '133', '115', '91', '131', '144', '145', '142'] 259.19135802469134
150 5.183827160493831 ['111', '136', '129', '128', '104', '108', '147', '135', '133', '115', '91', '131', '144', '145', '142'] 259.19135802469134
151 5.183827160493831 ['111', '136', '129', '128', '104', '108', '147', '135', '133', '115', '91', '131', '144', '145', '142'] 259.19135802469134
152 5.183827160493831 ['111', '136', '129', '128', '104', '108', '147', '135', '133', '115', '91', '131', '144', '145', '142'] 259.19135802469134
153 5.183827160493831 ['111', '136', '129', '128', '104', '108', '147', '135', '133', '115', '91', '131', '144', '145', '142'] 259.19135802469134
154 5.183827160493831 ['111', '136', '129', '128', '104', '108', '147', '135', '133', '115', '91', '131', '144', '145', '142'] 259.19135802469134
155 5.183827160493831 ['111', '136', '129', '128', '104', '108', '147', '135', '133', '115', '91', '131', '144', '145', '142'] 259.19135802469134
156 5.183827160493831 ['111', '136', '129', '128', '104', '108', '147', '135', '133', '115', '91', '131', '144', '145', '142'] 259.19135802469134
157 5.183827160493831 ['111', '136', '129', '128', '104', '108', '147', '135', '133', '115', '91', '131', '144', '145', '142'] 259.19135802469134
158 5.183827160493831 ['111', '136', '129', '128', '104', '108', '147', '135', '133', '115', '91', '131', '144', '145', '142'] 259.19135802469134
159 5.183827160493831 ['111', '136', '129', '128', '104', '108', '147', '135', '133', '115', '91', '131', '144', '145', '142'] 259.19135802469134
160 5.183827160493831 ['111', '136', '129', '128', '104', '108', '147', '135', '133', '115', '91', '131', '144', '145', '142'] 259.19135802469134
161 5.183827160493831 ['111', '136', '129', '128', '104', '108', '147', '135', '133', '115', '91', '131', '144', '145', '142'] 259.19135802469134
162 5.183827160493831 ['111', '136', '129', '128', '104', '108', '147', '135', '133', '115', '91', '131', '144', '145', '142'] 259.19135802469134
163 5.183827160493831 ['111', '136', '129', '128', '104', '108', '147', '135', '133', '115', '91', '131', '144', '145', '142'] 259.19135802469134
164 5.183827160493831 ['111', '136', '129', '128', '104', '108', '147', '135', '133', '115', '91', '131', '144', '145', '142'] 259.19135802469134
165 5.183827160493831 ['111', '136', '129', '128', '104', '108', '147', '135', '133', '115', '91', '131', '144', '145', '142'] 259.19135802469134
166 5.183827160493831 ['111', '136', '129', '128', '104', '108', '147', '135', '133', '115', '91', '131', '144', '145', '142'] 259.19135802469134
167 5.183827160493831 ['111', '136', '129', '128', '104', '108', '147', '135', '133', '115', '91', '131', '144', '145', '142'] 259.19135802469134
168 5.183827160493831 ['111', '136', '129', '128', '104', '108', '147', '135', '133', '115', '91', '131', '144', '145', '142'] 259.19135802469134
169 5.183827160493831 ['111', '136', '129', '128', '104', '108', '147', '135', '133', '115', '91', '131', '144', '145', '142'] 259.19135802469134
170 5.183827160493831 ['111', '136', '129', '128', '104', '108', '147', '135', '133', '115', '91', '131', '144', '145', '142'] 259.19135802469134
171 5.183827160493831 ['111', '136', '129', '128', '104', '108', '147', '135', '133', '115', '91', '131', '144', '145', '142'] 259.19135802469134
172 5.183827160493831 ['111', '136', '129', '128', '104', '108', '147', '135', '133', '115', '91', '131', '144', '145', '142'] 259.19135802469134
173 5.183827160493831 ['111', '136', '129', '128', '104', '108', '147', '135', '133', '115', '91', '131', '144', '145', '142'] 259.19135802469134
174 5.183827160493831 ['111', '136', '129', '128', '104', '108', '147', '135', '133', '115', '91', '131', '144', '145', '142'] 259.19135802469134
175 5.183827160493831 ['111', '136', '129', '128', '104', '108', '147', '135', '133', '115', '91', '131', '144', '145', '142'] 259.19135802469134
176 5.183827160493831 ['111', '136', '129', '128', '104', '108', '147', '135', '133', '115', '91', '131', '144', '145', '142'] 259.19135802469134
177 5.183827160493831 ['111', '136', '129', '128', '104', '108', '147', '135', '133', '115', '91', '131', '144', '145', '142'] 259.19135802469134
178 5.183827160493831 ['111', '136', '129', '128', '104', '108', '147', '135', '133', '115', '91', '131', '144', '145', '142'] 259.19135802469134
179 5.183827160493831 ['111', '136', '129', '128', '104', '108', '147', '135', '133', '115', '91', '131', '144', '145', '142'] 259.19135802469134
180 5.183827160493831 ['111', '136', '129', '128', '104', '108', '147', '135', '133', '115', '91', '131', '144', '145', '142'] 259.19135802469134
181 5.183827160493831 ['111', '136', '129', '128', '104', '108', '147', '135', '133', '115', '91', '131', '144', '145', '142'] 259.19135802469134
182 5.183827160493831 ['111', '136', '129', '128', '104', '108', '147', '135', '133', '115', '91', '131', '144', '145', '142'] 259.19135802469134
183 5.183827160493831 ['111', '136', '129', '128', '104', '108', '147', '135', '133', '115', '91', '131', '144', '145', '142'] 259.19135802469134
184 5.183827160493831 ['111', '136', '129', '128', '104', '108', '147', '135', '133', '115', '91', '131', '144', '145', '142'] 259.19135802469134
185 5.183827160493831 ['111', '136', '129', '128', '104', '108', '147', '135', '133', '115', '91', '131', '144', '145', '142'] 259.19135802469134
186 5.183827160493831 ['111', '136', '129', '128', '104', '108', '147', '135', '133', '115', '91', '131', '144', '145', '142'] 259.19135802469134
187 5.183827160493831 ['111', '136', '129', '128', '104', '108', '147', '135', '133', '115', '91', '131', '144', '145', '142'] 259.19135802469134
188 5.183827160493831 ['111', '136', '129', '128', '104', '108', '147', '135', '133', '115', '91', '131', '144', '145', '142'] 259.19135802469134
189 5.183827160493831 ['111', '136', '129', '128', '104', '108', '147', '135', '133', '115', '91', '131', '144', '145', '142'] 259.19135802469134
190 5.183827160493831 ['111', '136', '129', '128', '104', '108', '147', '135', '133', '115', '91', '131', '144', '145', '142'] 259.19135802469134
191 5.183827160493831 ['111', '136', '129', '128', '104', '108', '147', '135', '133', '115', '91', '131', '144', '145', '142'] 259.19135802469134
192 5.183827160493831 ['111', '136', '129', '128', '104', '108', '147', '135', '133', '115', '91', '131', '144', '145', '142'] 259.19135802469134
193 5.183827160493831 ['111', '136', '129', '128', '104', '108', '147', '135', '133', '115', '91', '131', '144', '145', '142'] 259.19135802469134
194 5.183827160493831 ['111', '136', '129', '128', '104', '108', '147', '135', '133', '115', '91', '131', '144', '145', '142'] 259.19135802469134
195 5.183827160493831 ['111', '136', '129', '128', '104', '108', '147', '135', '133', '115', '91', '131', '144', '145', '142'] 259.19135802469134
196 5.183827160493831 ['111', '136', '129', '128', '104', '108', '147', '135', '133', '115', '91', '131', '144', '145', '142'] 259.19135802469134
197 5.183827160493831 ['111', '136', '129', '128', '104', '108', '147', '135', '133', '115', '91', '131', '144', '145', '142'] 259.19135802469134
198 5.183827160493831 ['111', '136', '129', '128', '104', '108', '147', '135', '133', '115', '91', '131', '144', '145', '142'] 259.19135802469134
199 5.183827160493831 ['111', '136', '129', '128', '104', '108', '147', '135', '133', '115', '91', '131', '144', '145', '142'] 259.19135802469134
