0 14.222222222222221 ['135', '128', '103', '149', '138', '120', '75', '93', '131', '6', '121', '88', '50', '117', '129'] 739.9703703703705
1 14.222222222222221 ['135', '128', '103', '149', '138', '120', '75', '93', '131', '6', '121', '88', '50', '117', '129'] 733.7407407407408
2 14.185185185185185 ['50', '117', '103', '120', '138', '131', '128', '75', '135', '6', '122', '136', '149', '129', '66'] 726.985185185185
3 14.11111111111111 ['117', '149', '131', '138', '120', '103', '6', '50', '129', '122', '135', '89', '121', '128', '136'] 720.9555555555551
4 13.955555555555556 ['128', '138', '146', '135', '133', '131', '129', '149', '122', '112', '116', '93', '136', '117', '79'] 715.8296296296295
5 13.955555555555556 ['128', '138', '146', '135', '133', '131', '129', '149', '122', '112', '116', '93', '136', '117', '79'] 711.0962962962966
6 13.881481481481481 ['122', '138', '150', '79', '143', '149', '103', '95', '88', '135', '141', '93', '81', '126', '117'] 705.9703703703701
7 13.844444444444445 ['5', '117', '141', '129', '120', '103', '138', '128', '146', '148', '75', '89', '122', '87', '143'] 700.644444444444
8 13.748148148148148 ['79', '135', '138', '141', '146', '129', '122', '128', '131', '112', '120', '105', '116', '136', '149'] 696.2888888888891
9 13.748148148148148 ['79', '135', '138', '141', '146', '129', '122', '128', '131', '112', '120', '105', '116', '136', '149'] 693.0666666666671
10 13.666666666666666 ['141', '149', '79', '122', '105', '131', '116', '146', '135', '129', '128', '150', '88', '138', '136'] 690.2074074074073
11 13.651851851851852 ['138', '141', '103', '89', '122', '149', '129', '135', '128', '88', '117', '120', '79', '146', '136'] 687.9925925925918
12 13.577777777777778 ['143', '138', '149', '79', '122', '141', '128', '135', '103', '129', '136', '117', '146', '120', '88'] 685.7851851851857
13 13.562962962962963 ['128', '149', '146', '136', '100', '141', '79', '117', '131', '150', '120', '138', '122', '129', '135'] 683.4740740740741
14 13.562962962962963 ['128', '149', '146', '136', '100', '141', '79', '117', '131', '150', '120', '138', '122', '129', '135'] 681.7629629629627
15 13.548148148148147 ['117', '103', '141', '129', '135', '149', '146', '138', '128', '79', '120', '122', '148', '143', '88'] 680.3333333333338
16 13.488888888888889 ['131', '122', '129', '141', '149', '146', '79', '138', '135', '150', '117', '128', '148', '120', '136'] 678.9407407407413
17 13.444444444444445 ['141', '135', '149', '143', '150', '138', '117', '136', '122', '79', '128', '120', '105', '148', '146'] 677.5037037037036
18 13.444444444444445 ['141', '135', '149', '143', '150', '138', '117', '136', '122', '79', '128', '120', '105', '148', '146'] 676.496296296296
19 13.444444444444445 ['141', '135', '149', '143', '150', '138', '117', '136', '122', '79', '128', '120', '105', '148', '146'] 675.3259259259258
20 13.444444444444445 ['141', '135', '149', '143', '150', '138', '117', '136', '122', '79', '128', '120', '105', '148', '146'] 674.1037037037037
21 13.42962962962963 ['129', '122', '117', '148', '138', '149', '143', '79', '146', '141', '120', '128', '135', '150', '136'] 673.1629629629632
22 13.42962962962963 ['129', '122', '117', '148', '138', '149', '143', '79', '146', '141', '120', '128', '135', '150', '136'] 672.5037037037043
23 13.42962962962963 ['129', '122', '117', '148', '138', '149', '143', '79', '146', '141', '120', '128', '135', '150', '136'] 672.0592592592598
24 13.42962962962963 ['129', '122', '117', '148', '138', '149', '143', '79', '146', '141', '120', '128', '135', '150', '136'] 671.5629629629631
25 13.42962962962963 ['129', '122', '117', '148', '138', '149', '143', '79', '146', '141', '120', '128', '135', '150', '136'] 671.4814814814815
26 13.42962962962963 ['129', '122', '117', '148', '138', '149', '143', '79', '146', '141', '120', '128', '135', '150', '136'] 671.4814814814815
27 13.42962962962963 ['129', '122', '117', '148', '138', '149', '143', '79', '146', '141', '120', '128', '135', '150', '136'] 671.4814814814815
28 13.42962962962963 ['129', '122', '117', '148', '138', '149', '143', '79', '146', '141', '120', '128', '135', '150', '136'] 671.4814814814815
29 13.42962962962963 ['129', '122', '117', '148', '138', '149', '143', '79', '146', '141', '120', '128', '135', '150', '136'] 671.4814814814815
30 13.42962962962963 ['129', '122', '117', '148', '138', '149', '143', '79', '146', '141', '120', '128', '135', '150', '136'] 671.4814814814815
31 13.42962962962963 ['129', '122', '117', '148', '138', '149', '143', '79', '146', '141', '120', '128', '135', '150', '136'] 671.4814814814815
32 13.42962962962963 ['129', '122', '117', '148', '138', '149', '143', '79', '146', '141', '120', '128', '135', '150', '136'] 671.4814814814815
33 13.42962962962963 ['129', '122', '117', '148', '138', '149', '143', '79', '146', '141', '120', '128', '135', '150', '136'] 671.4814814814815
34 13.42962962962963 ['129', '122', '117', '148', '138', '149', '143', '79', '146', '141', '120', '128', '135', '150', '136'] 671.4814814814815
35 13.42962962962963 ['129', '122', '117', '148', '138', '149', '143', '79', '146', '141', '120', '128', '135', '150', '136'] 671.4814814814815
36 13.42962962962963 ['129', '122', '117', '148', '138', '149', '143', '79', '146', '141', '120', '128', '135', '150', '136'] 671.4814814814815
37 13.42962962962963 ['129', '122', '117', '148', '138', '149', '143', '79', '146', '141', '120', '128', '135', '150', '136'] 671.4814814814815
38 13.42962962962963 ['129', '122', '117', '148', '138', '149', '143', '79', '146', '141', '120', '128', '135', '150', '136'] 671.4814814814815
39 13.42962962962963 ['129', '122', '117', '148', '138', '149', '143', '79', '146', '141', '120', '128', '135', '150', '136'] 671.4814814814815
40 13.42962962962963 ['129', '122', '117', '148', '138', '149', '143', '79', '146', '141', '120', '128', '135', '150', '136'] 671.4814814814815
41 13.42962962962963 ['129', '122', '117', '148', '138', '149', '143', '79', '146', '141', '120', '128', '135', '150', '136'] 671.4814814814815
42 13.42962962962963 ['129', '122', '117', '148', '138', '149', '143', '79', '146', '141', '120', '128', '135', '150', '136'] 671.4814814814815
43 13.42962962962963 ['129', '122', '117', '148', '138', '149', '143', '79', '146', '141', '120', '128', '135', '150', '136'] 671.4814814814815
44 13.42962962962963 ['129', '122', '117', '148', '138', '149', '143', '79', '146', '141', '120', '128', '135', '150', '136'] 671.4814814814815
45 13.42962962962963 ['129', '122', '117', '148', '138', '149', '143', '79', '146', '141', '120', '128', '135', '150', '136'] 671.4814814814815
46 13.42962962962963 ['129', '122', '117', '148', '138', '149', '143', '79', '146', '141', '120', '128', '135', '150', '136'] 671.4814814814815
47 13.42962962962963 ['129', '122', '117', '148', '138', '149', '143', '79', '146', '141', '120', '128', '135', '150', '136'] 671.4814814814815
48 13.42962962962963 ['129', '122', '117', '148', '138', '149', '143', '79', '146', '141', '120', '128', '135', '150', '136'] 671.4814814814815
49 13.42962962962963 ['129', '122', '117', '148', '138', '149', '143', '79', '146', '141', '120', '128', '135', '150', '136'] 671.4814814814815
50 13.42962962962963 ['129', '122', '117', '148', '138', '149', '143', '79', '146', '141', '120', '128', '135', '150', '136'] 671.4814814814815
51 13.42962962962963 ['129', '122', '117', '148', '138', '149', '143', '79', '146', '141', '120', '128', '135', '150', '136'] 671.4814814814815
52 13.42962962962963 ['129', '122', '117', '148', '138', '149', '143', '79', '146', '141', '120', '128', '135', '150', '136'] 671.4814814814815
53 13.42962962962963 ['129', '122', '117', '148', '138', '149', '143', '79', '146', '141', '120', '128', '135', '150', '136'] 671.4814814814815
54 13.42962962962963 ['129', '122', '117', '148', '138', '149', '143', '79', '146', '141', '120', '128', '135', '150', '136'] 671.4814814814815
55 13.42962962962963 ['129', '122', '117', '148', '138', '149', '143', '79', '146', '141', '120', '128', '135', '150', '136'] 671.4814814814815
56 13.42962962962963 ['129', '122', '117', '148', '138', '149', '143', '79', '146', '141', '120', '128', '135', '150', '136'] 671.4814814814815
57 13.42962962962963 ['129', '122', '117', '148', '138', '149', '143', '79', '146', '141', '120', '128', '135', '150', '136'] 671.4814814814815
58 13.42962962962963 ['129', '122', '117', '148', '138', '149', '143', '79', '146', '141', '120', '128', '135', '150', '136'] 671.4814814814815
59 13.42962962962963 ['129', '122', '117', '148', '138', '149', '143', '79', '146', '141', '120', '128', '135', '150', '136'] 671.4814814814815
60 13.42962962962963 ['129', '122', '117', '148', '138', '149', '143', '79', '146', '141', '120', '128', '135', '150', '136'] 671.4814814814815
61 13.42962962962963 ['129', '122', '117', '148', '138', '149', '143', '79', '146', '141', '120', '128', '135', '150', '136'] 671.4814814814815
62 13.42962962962963 ['129', '122', '117', '148', '138', '149', '143', '79', '146', '141', '120', '128', '135', '150', '136'] 671.4814814814815
63 13.42962962962963 ['129', '122', '117', '148', '138', '149', '143', '79', '146', '141', '120', '128', '135', '150', '136'] 671.4814814814815
64 13.42962962962963 ['129', '122', '117', '148', '138', '149', '143', '79', '146', '141', '120', '128', '135', '150', '136'] 671.4814814814815
65 13.42962962962963 ['129', '122', '117', '148', '138', '149', '143', '79', '146', '141', '120', '128', '135', '150', '136'] 671.4814814814815
66 13.42962962962963 ['129', '122', '117', '148', '138', '149', '143', '79', '146', '141', '120', '128', '135', '150', '136'] 671.4814814814815
67 13.42962962962963 ['129', '122', '117', '148', '138', '149', '143', '79', '146', '141', '120', '128', '135', '150', '136'] 671.4814814814815
68 13.42962962962963 ['129', '122', '117', '148', '138', '149', '143', '79', '146', '141', '120', '128', '135', '150', '136'] 671.4814814814815
69 13.42962962962963 ['129', '122', '117', '148', '138', '149', '143', '79', '146', '141', '120', '128', '135', '150', '136'] 671.4814814814815
70 13.42962962962963 ['129', '122', '117', '148', '138', '149', '143', '79', '146', '141', '120', '128', '135', '150', '136'] 671.4814814814815
71 13.42962962962963 ['129', '122', '117', '148', '138', '149', '143', '79', '146', '141', '120', '128', '135', '150', '136'] 671.4814814814815
72 13.42962962962963 ['129', '122', '117', '148', '138', '149', '143', '79', '146', '141', '120', '128', '135', '150', '136'] 671.4814814814815
73 13.42962962962963 ['129', '122', '117', '148', '138', '149', '143', '79', '146', '141', '120', '128', '135', '150', '136'] 671.4814814814815
74 13.42962962962963 ['129', '122', '117', '148', '138', '149', '143', '79', '146', '141', '120', '128', '135', '150', '136'] 671.4814814814815
75 13.42962962962963 ['129', '122', '117', '148', '138', '149', '143', '79', '146', '141', '120', '128', '135', '150', '136'] 671.4814814814815
76 13.42962962962963 ['129', '122', '117', '148', '138', '149', '143', '79', '146', '141', '120', '128', '135', '150', '136'] 671.4814814814815
77 13.42962962962963 ['129', '122', '117', '148', '138', '149', '143', '79', '146', '141', '120', '128', '135', '150', '136'] 671.4814814814815
78 13.42962962962963 ['129', '122', '117', '148', '138', '149', '143', '79', '146', '141', '120', '128', '135', '150', '136'] 671.4814814814815
79 13.42962962962963 ['129', '122', '117', '148', '138', '149', '143', '79', '146', '141', '120', '128', '135', '150', '136'] 671.4814814814815
80 13.42962962962963 ['129', '122', '117', '148', '138', '149', '143', '79', '146', '141', '120', '128', '135', '150', '136'] 671.4814814814815
81 13.42962962962963 ['129', '122', '117', '148', '138', '149', '143', '79', '146', '141', '120', '128', '135', '150', '136'] 671.4814814814815
82 13.42962962962963 ['129', '122', '117', '148', '138', '149', '143', '79', '146', '141', '120', '128', '135', '150', '136'] 671.4814814814815
83 13.42962962962963 ['129', '122', '117', '148', '138', '149', '143', '79', '146', '141', '120', '128', '135', '150', '136'] 671.4814814814815
84 13.42962962962963 ['129', '122', '117', '148', '138', '149', '143', '79', '146', '141', '120', '128', '135', '150', '136'] 671.4814814814815
85 13.42962962962963 ['129', '122', '117', '148', '138', '149', '143', '79', '146', '141', '120', '128', '135', '150', '136'] 671.4814814814815
86 13.42962962962963 ['129', '122', '117', '148', '138', '149', '143', '79', '146', '141', '120', '128', '135', '150', '136'] 671.4814814814815
87 13.42962962962963 ['129', '122', '117', '148', '138', '149', '143', '79', '146', '141', '120', '128', '135', '150', '136'] 671.4814814814815
88 13.42962962962963 ['129', '122', '117', '148', '138', '149', '143', '79', '146', '141', '120', '128', '135', '150', '136'] 671.4814814814815
89 13.42962962962963 ['129', '122', '117', '148', '138', '149', '143', '79', '146', '141', '120', '128', '135', '150', '136'] 671.4814814814815
90 13.42962962962963 ['129', '122', '117', '148', '138', '149', '143', '79', '146', '141', '120', '128', '135', '150', '136'] 671.4814814814815
91 13.42962962962963 ['129', '122', '117', '148', '138', '149', '143', '79', '146', '141', '120', '128', '135', '150', '136'] 671.4814814814815
92 13.42962962962963 ['129', '122', '117', '148', '138', '149', '143', '79', '146', '141', '120', '128', '135', '150', '136'] 671.4814814814815
93 13.42962962962963 ['129', '122', '117', '148', '138', '149', '143', '79', '146', '141', '120', '128', '135', '150', '136'] 671.4814814814815
94 13.42962962962963 ['129', '122', '117', '148', '138', '149', '143', '79', '146', '141', '120', '128', '135', '150', '136'] 671.4814814814815
95 13.42962962962963 ['129', '122', '117', '148', '138', '149', '143', '79', '146', '141', '120', '128', '135', '150', '136'] 671.4814814814815
96 13.42962962962963 ['129', '122', '117', '148', '138', '149', '143', '79', '146', '141', '120', '128', '135', '150', '136'] 671.4814814814815
97 13.42962962962963 ['129', '122', '117', '148', '138', '149', '143', '79', '146', '141', '120', '128', '135', '150', '136'] 671.4814814814815
98 13.42962962962963 ['129', '122', '117', '148', '138', '149', '143', '79', '146', '141', '120', '128', '135', '150', '136'] 671.4814814814815
99 13.42962962962963 ['129', '122', '117', '148', '138', '149', '143', '79', '146', '141', '120', '128', '135', '150', '136'] 671.4814814814815
100 13.42962962962963 ['129', '122', '117', '148', '138', '149', '143', '79', '146', '141', '120', '128', '135', '150', '136'] 671.4814814814815
101 13.42962962962963 ['129', '122', '117', '148', '138', '149', '143', '79', '146', '141', '120', '128', '135', '150', '136'] 671.4814814814815
102 13.42962962962963 ['129', '122', '117', '148', '138', '149', '143', '79', '146', '141', '120', '128', '135', '150', '136'] 671.4814814814815
103 13.42962962962963 ['129', '122', '117', '148', '138', '149', '143', '79', '146', '141', '120', '128', '135', '150', '136'] 671.4814814814815
104 13.42962962962963 ['129', '122', '117', '148', '138', '149', '143', '79', '146', '141', '120', '128', '135', '150', '136'] 671.4814814814815
105 13.42962962962963 ['129', '122', '117', '148', '138', '149', '143', '79', '146', '141', '120', '128', '135', '150', '136'] 671.4814814814815
106 13.42962962962963 ['129', '122', '117', '148', '138', '149', '143', '79', '146', '141', '120', '128', '135', '150', '136'] 671.4814814814815
107 13.42962962962963 ['129', '122', '117', '148', '138', '149', '143', '79', '146', '141', '120', '128', '135', '150', '136'] 671.4814814814815
108 13.42962962962963 ['129', '122', '117', '148', '138', '149', '143', '79', '146', '141', '120', '128', '135', '150', '136'] 671.4814814814815
109 13.42962962962963 ['129', '122', '117', '148', '138', '149', '143', '79', '146', '141', '120', '128', '135', '150', '136'] 671.4814814814815
110 13.42962962962963 ['129', '122', '117', '148', '138', '149', '143', '79', '146', '141', '120', '128', '135', '150', '136'] 671.4814814814815
111 13.42962962962963 ['129', '122', '117', '148', '138', '149', '143', '79', '146', '141', '120', '128', '135', '150', '136'] 671.4814814814815
112 13.42962962962963 ['129', '122', '117', '148', '138', '149', '143', '79', '146', '141', '120', '128', '135', '150', '136'] 671.4814814814815
113 13.42962962962963 ['129', '122', '117', '148', '138', '149', '143', '79', '146', '141', '120', '128', '135', '150', '136'] 671.4814814814815
114 13.42962962962963 ['129', '122', '117', '148', '138', '149', '143', '79', '146', '141', '120', '128', '135', '150', '136'] 671.4814814814815
115 13.42962962962963 ['129', '122', '117', '148', '138', '149', '143', '79', '146', '141', '120', '128', '135', '150', '136'] 671.4814814814815
116 13.42962962962963 ['129', '122', '117', '148', '138', '149', '143', '79', '146', '141', '120', '128', '135', '150', '136'] 671.4814814814815
117 13.42962962962963 ['129', '122', '117', '148', '138', '149', '143', '79', '146', '141', '120', '128', '135', '150', '136'] 671.4814814814815
118 13.42962962962963 ['129', '122', '117', '148', '138', '149', '143', '79', '146', '141', '120', '128', '135', '150', '136'] 671.4814814814815
119 13.42962962962963 ['129', '122', '117', '148', '138', '149', '143', '79', '146', '141', '120', '128', '135', '150', '136'] 671.4814814814815
120 13.42962962962963 ['129', '122', '117', '148', '138', '149', '143', '79', '146', '141', '120', '128', '135', '150', '136'] 671.4814814814815
121 13.42962962962963 ['129', '122', '117', '148', '138', '149', '143', '79', '146', '141', '120', '128', '135', '150', '136'] 671.4814814814815
122 13.42962962962963 ['129', '122', '117', '148', '138', '149', '143', '79', '146', '141', '120', '128', '135', '150', '136'] 671.4814814814815
123 13.42962962962963 ['129', '122', '117', '148', '138', '149', '143', '79', '146', '141', '120', '128', '135', '150', '136'] 671.4814814814815
124 13.42962962962963 ['129', '122', '117', '148', '138', '149', '143', '79', '146', '141', '120', '128', '135', '150', '136'] 671.4814814814815
125 13.42962962962963 ['129', '122', '117', '148', '138', '149', '143', '79', '146', '141', '120', '128', '135', '150', '136'] 671.4814814814815
126 13.42962962962963 ['129', '122', '117', '148', '138', '149', '143', '79', '146', '141', '120', '128', '135', '150', '136'] 671.4814814814815
127 13.42962962962963 ['129', '122', '117', '148', '138', '149', '143', '79', '146', '141', '120', '128', '135', '150', '136'] 671.4814814814815
128 13.42962962962963 ['129', '122', '117', '148', '138', '149', '143', '79', '146', '141', '120', '128', '135', '150', '136'] 671.4814814814815
129 13.42962962962963 ['129', '122', '117', '148', '138', '149', '143', '79', '146', '141', '120', '128', '135', '150', '136'] 671.4814814814815
130 13.42962962962963 ['129', '122', '117', '148', '138', '149', '143', '79', '146', '141', '120', '128', '135', '150', '136'] 671.4814814814815
131 13.42962962962963 ['129', '122', '117', '148', '138', '149', '143', '79', '146', '141', '120', '128', '135', '150', '136'] 671.4814814814815
132 13.42962962962963 ['129', '122', '117', '148', '138', '149', '143', '79', '146', '141', '120', '128', '135', '150', '136'] 671.4814814814815
133 13.42962962962963 ['129', '122', '117', '148', '138', '149', '143', '79', '146', '141', '120', '128', '135', '150', '136'] 671.4814814814815
134 13.42962962962963 ['129', '122', '117', '148', '138', '149', '143', '79', '146', '141', '120', '128', '135', '150', '136'] 671.4814814814815
135 13.42962962962963 ['129', '122', '117', '148', '138', '149', '143', '79', '146', '141', '120', '128', '135', '150', '136'] 671.4814814814815
136 13.42962962962963 ['129', '122', '117', '148', '138', '149', '143', '79', '146', '141', '120', '128', '135', '150', '136'] 671.4814814814815
137 13.42962962962963 ['129', '122', '117', '148', '138', '149', '143', '79', '146', '141', '120', '128', '135', '150', '136'] 671.4814814814815
138 13.42962962962963 ['129', '122', '117', '148', '138', '149', '143', '79', '146', '141', '120', '128', '135', '150', '136'] 671.4814814814815
139 13.42962962962963 ['129', '122', '117', '148', '138', '149', '143', '79', '146', '141', '120', '128', '135', '150', '136'] 671.4814814814815
140 13.42962962962963 ['129', '122', '117', '148', '138', '149', '143', '79', '146', '141', '120', '128', '135', '150', '136'] 671.4814814814815
141 13.42962962962963 ['129', '122', '117', '148', '138', '149', '143', '79', '146', '141', '120', '128', '135', '150', '136'] 671.4814814814815
142 13.42962962962963 ['129', '122', '117', '148', '138', '149', '143', '79', '146', '141', '120', '128', '135', '150', '136'] 671.4814814814815
143 13.42962962962963 ['129', '122', '117', '148', '138', '149', '143', '79', '146', '141', '120', '128', '135', '150', '136'] 671.4814814814815
144 13.42962962962963 ['129', '122', '117', '148', '138', '149', '143', '79', '146', '141', '120', '128', '135', '150', '136'] 671.4814814814815
145 13.42962962962963 ['129', '122', '117', '148', '138', '149', '143', '79', '146', '141', '120', '128', '135', '150', '136'] 671.4814814814815
146 13.42962962962963 ['129', '122', '117', '148', '138', '149', '143', '79', '146', '141', '120', '128', '135', '150', '136'] 671.4814814814815
147 13.42962962962963 ['129', '122', '117', '148', '138', '149', '143', '79', '146', '141', '120', '128', '135', '150', '136'] 671.4814814814815
148 13.42962962962963 ['129', '122', '117', '148', '138', '149', '143', '79', '146', '141', '120', '128', '135', '150', '136'] 671.4814814814815
149 13.42962962962963 ['129', '122', '117', '148', '138', '149', '143', '79', '146', '141', '120', '128', '135', '150', '136'] 671.4814814814815
150 13.42962962962963 ['129', '122', '117', '148', '138', '149', '143', '79', '146', '141', '120', '128', '135', '150', '136'] 671.4814814814815
151 13.42962962962963 ['129', '122', '117', '148', '138', '149', '143', '79', '146', '141', '120', '128', '135', '150', '136'] 671.4814814814815
152 13.42962962962963 ['129', '122', '117', '148', '138', '149', '143', '79', '146', '141', '120', '128', '135', '150', '136'] 671.4814814814815
153 13.42962962962963 ['129', '122', '117', '148', '138', '149', '143', '79', '146', '141', '120', '128', '135', '150', '136'] 671.4814814814815
154 13.42962962962963 ['129', '122', '117', '148', '138', '149', '143', '79', '146', '141', '120', '128', '135', '150', '136'] 671.4814814814815
155 13.42962962962963 ['129', '122', '117', '148', '138', '149', '143', '79', '146', '141', '120', '128', '135', '150', '136'] 671.4814814814815
156 13.42962962962963 ['129', '122', '117', '148', '138', '149', '143', '79', '146', '141', '120', '128', '135', '150', '136'] 671.4814814814815
157 13.42962962962963 ['129', '122', '117', '148', '138', '149', '143', '79', '146', '141', '120', '128', '135', '150', '136'] 671.4814814814815
158 13.42962962962963 ['129', '122', '117', '148', '138', '149', '143', '79', '146', '141', '120', '128', '135', '150', '136'] 671.4814814814815
159 13.42962962962963 ['129', '122', '117', '148', '138', '149', '143', '79', '146', '141', '120', '128', '135', '150', '136'] 671.4814814814815
160 13.42962962962963 ['129', '122', '117', '148', '138', '149', '143', '79', '146', '141', '120', '128', '135', '150', '136'] 671.4814814814815
161 13.42962962962963 ['129', '122', '117', '148', '138', '149', '143', '79', '146', '141', '120', '128', '135', '150', '136'] 671.4814814814815
162 13.42962962962963 ['129', '122', '117', '148', '138', '149', '143', '79', '146', '141', '120', '128', '135', '150', '136'] 671.4814814814815
163 13.42962962962963 ['129', '122', '117', '148', '138', '149', '143', '79', '146', '141', '120', '128', '135', '150', '136'] 671.4814814814815
164 13.42962962962963 ['129', '122', '117', '148', '138', '149', '143', '79', '146', '141', '120', '128', '135', '150', '136'] 671.4814814814815
165 13.42962962962963 ['129', '122', '117', '148', '138', '149', '143', '79', '146', '141', '120', '128', '135', '150', '136'] 671.4814814814815
166 13.42962962962963 ['129', '122', '117', '148', '138', '149', '143', '79', '146', '141', '120', '128', '135', '150', '136'] 671.4814814814815
167 13.42962962962963 ['129', '122', '117', '148', '138', '149', '143', '79', '146', '141', '120', '128', '135', '150', '136'] 671.4814814814815
168 13.42962962962963 ['129', '122', '117', '148', '138', '149', '143', '79', '146', '141', '120', '128', '135', '150', '136'] 671.4814814814815
169 13.42962962962963 ['129', '122', '117', '148', '138', '149', '143', '79', '146', '141', '120', '128', '135', '150', '136'] 671.4814814814815
170 13.42962962962963 ['129', '122', '117', '148', '138', '149', '143', '79', '146', '141', '120', '128', '135', '150', '136'] 671.4814814814815
171 13.42962962962963 ['129', '122', '117', '148', '138', '149', '143', '79', '146', '141', '120', '128', '135', '150', '136'] 671.4814814814815
172 13.42962962962963 ['129', '122', '117', '148', '138', '149', '143', '79', '146', '141', '120', '128', '135', '150', '136'] 671.4814814814815
173 13.42962962962963 ['129', '122', '117', '148', '138', '149', '143', '79', '146', '141', '120', '128', '135', '150', '136'] 671.4814814814815
174 13.42962962962963 ['129', '122', '117', '148', '138', '149', '143', '79', '146', '141', '120', '128', '135', '150', '136'] 671.4814814814815
175 13.42962962962963 ['129', '122', '117', '148', '138', '149', '143', '79', '146', '141', '120', '128', '135', '150', '136'] 671.4814814814815
176 13.42962962962963 ['129', '122', '117', '148', '138', '149', '143', '79', '146', '141', '120', '128', '135', '150', '136'] 671.4814814814815
177 13.42962962962963 ['129', '122', '117', '148', '138', '149', '143', '79', '146', '141', '120', '128', '135', '150', '136'] 671.4814814814815
178 13.42962962962963 ['129', '122', '117', '148', '138', '149', '143', '79', '146', '141', '120', '128', '135', '150', '136'] 671.4814814814815
179 13.42962962962963 ['129', '122', '117', '148', '138', '149', '143', '79', '146', '141', '120', '128', '135', '150', '136'] 671.4814814814815
180 13.42962962962963 ['129', '122', '117', '148', '138', '149', '143', '79', '146', '141', '120', '128', '135', '150', '136'] 671.4814814814815
181 13.42962962962963 ['129', '122', '117', '148', '138', '149', '143', '79', '146', '141', '120', '128', '135', '150', '136'] 671.4814814814815
182 13.42962962962963 ['129', '122', '117', '148', '138', '149', '143', '79', '146', '141', '120', '128', '135', '150', '136'] 671.4814814814815
183 13.42962962962963 ['129', '122', '117', '148', '138', '149', '143', '79', '146', '141', '120', '128', '135', '150', '136'] 671.4814814814815
184 13.42962962962963 ['129', '122', '117', '148', '138', '149', '143', '79', '146', '141', '120', '128', '135', '150', '136'] 671.4814814814815
185 13.42962962962963 ['129', '122', '117', '148', '138', '149', '143', '79', '146', '141', '120', '128', '135', '150', '136'] 671.4814814814815
186 13.42962962962963 ['129', '122', '117', '148', '138', '149', '143', '79', '146', '141', '120', '128', '135', '150', '136'] 671.4814814814815
187 13.42962962962963 ['129', '122', '117', '148', '138', '149', '143', '79', '146', '141', '120', '128', '135', '150', '136'] 671.4814814814815
188 13.42962962962963 ['129', '122', '117', '148', '138', '149', '143', '79', '146', '141', '120', '128', '135', '150', '136'] 671.4814814814815
189 13.42962962962963 ['129', '122', '117', '148', '138', '149', '143', '79', '146', '141', '120', '128', '135', '150', '136'] 671.4814814814815
190 13.42962962962963 ['129', '122', '117', '148', '138', '149', '143', '79', '146', '141', '120', '128', '135', '150', '136'] 671.4814814814815
191 13.42962962962963 ['129', '122', '117', '148', '138', '149', '143', '79', '146', '141', '120', '128', '135', '150', '136'] 671.4814814814815
192 13.42962962962963 ['129', '122', '117', '148', '138', '149', '143', '79', '146', '141', '120', '128', '135', '150', '136'] 671.4814814814815
193 13.42962962962963 ['129', '122', '117', '148', '138', '149', '143', '79', '146', '141', '120', '128', '135', '150', '136'] 671.4814814814815
194 13.42962962962963 ['129', '122', '117', '148', '138', '149', '143', '79', '146', '141', '120', '128', '135', '150', '136'] 671.4814814814815
195 13.42962962962963 ['129', '122', '117', '148', '138', '149', '143', '79', '146', '141', '120', '128', '135', '150', '136'] 671.4814814814815
196 13.42962962962963 ['129', '122', '117', '148', '138', '149', '143', '79', '146', '141', '120', '128', '135', '150', '136'] 671.4814814814815
197 13.42962962962963 ['129', '122', '117', '148', '138', '149', '143', '79', '146', '141', '120', '128', '135', '150', '136'] 671.4814814814815
198 13.42962962962963 ['129', '122', '117', '148', '138', '149', '143', '79', '146', '141', '120', '128', '135', '150', '136'] 671.4814814814815
199 13.42962962962963 ['129', '122', '117', '148', '138', '149', '143', '79', '146', '141', '120', '128', '135', '150', '136'] 671.4814814814815
