0 419.0 ['12', '8', '31', '22'] 22649.488372093023
1 419.0 ['12', '8', '31', '22'] 22151.627906976748
2 416.74418604651163 ['12', '22', '25', '31'] 21738.232558139538
3 397.1162790697674 ['22', '31', '14', '9'] 21221.837209302328
4 397.1162790697674 ['22', '31', '14', '9'] 20915.139534883714
5 397.1162790697674 ['22', '31', '14', '9'] 20554.44186046512
6 396.5813953488372 ['31', '22', '12', '14'] 20161.186046511622
7 396.5813953488372 ['31', '22', '12', '14'] 20018.6976744186
8 396.5813953488372 ['31', '22', '12', '14'] 19908.46511627908
9 396.5813953488372 ['31', '22', '12', '14'] 19844.58139534883
10 396.5813953488372 ['31', '22', '12', '14'] 19829.60465116279
11 396.5813953488372 ['31', '22', '12', '14'] 19829.06976744186
12 396.5813953488372 ['31', '22', '12', '14'] 19829.06976744186
13 396.5813953488372 ['31', '22', '12', '14'] 19829.06976744186
14 396.5813953488372 ['31', '22', '12', '14'] 19829.06976744186
15 396.5813953488372 ['31', '22', '12', '14'] 19829.06976744186
16 396.5813953488372 ['31', '22', '12', '14'] 19829.06976744186
17 396.5813953488372 ['31', '22', '12', '14'] 19829.06976744186
18 396.5813953488372 ['31', '22', '12', '14'] 19829.06976744186
19 396.5813953488372 ['31', '22', '12', '14'] 19829.06976744186
20 396.5813953488372 ['31', '22', '12', '14'] 19829.06976744186
21 396.5813953488372 ['31', '22', '12', '14'] 19829.06976744186
22 396.5813953488372 ['31', '22', '12', '14'] 19829.06976744186
23 396.5813953488372 ['31', '22', '12', '14'] 19829.06976744186
24 396.5813953488372 ['31', '22', '12', '14'] 19829.06976744186
25 396.5813953488372 ['31', '22', '12', '14'] 19829.06976744186
26 396.5813953488372 ['31', '22', '12', '14'] 19829.06976744186
27 396.5813953488372 ['31', '22', '12', '14'] 19829.06976744186
28 396.5813953488372 ['31', '22', '12', '14'] 19829.06976744186
29 396.5813953488372 ['31', '22', '12', '14'] 19829.06976744186
30 396.5813953488372 ['31', '22', '12', '14'] 19829.06976744186
31 396.5813953488372 ['31', '22', '12', '14'] 19829.06976744186
32 396.5813953488372 ['31', '22', '12', '14'] 19829.06976744186
33 396.5813953488372 ['31', '22', '12', '14'] 19829.06976744186
34 396.5813953488372 ['31', '22', '12', '14'] 19829.06976744186
35 396.5813953488372 ['31', '22', '12', '14'] 19829.06976744186
36 396.5813953488372 ['31', '22', '12', '14'] 19829.06976744186
37 396.5813953488372 ['31', '22', '12', '14'] 19829.06976744186
38 396.5813953488372 ['31', '22', '12', '14'] 19829.06976744186
39 396.5813953488372 ['31', '22', '12', '14'] 19829.06976744186
40 396.5813953488372 ['31', '22', '12', '14'] 19829.06976744186
41 396.5813953488372 ['31', '22', '12', '14'] 19829.06976744186
42 396.5813953488372 ['31', '22', '12', '14'] 19829.06976744186
43 396.5813953488372 ['31', '22', '12', '14'] 19829.06976744186
44 396.5813953488372 ['31', '22', '12', '14'] 19829.06976744186
45 396.5813953488372 ['31', '22', '12', '14'] 19829.06976744186
46 396.5813953488372 ['31', '22', '12', '14'] 19829.06976744186
47 396.5813953488372 ['31', '22', '12', '14'] 19829.06976744186
48 396.5813953488372 ['31', '22', '12', '14'] 19829.06976744186
49 396.5813953488372 ['31', '22', '12', '14'] 19829.06976744186
50 396.5813953488372 ['31', '22', '12', '14'] 19829.06976744186
51 396.5813953488372 ['31', '22', '12', '14'] 19829.06976744186
52 396.5813953488372 ['31', '22', '12', '14'] 19829.06976744186
53 396.5813953488372 ['31', '22', '12', '14'] 19829.06976744186
54 396.5813953488372 ['31', '22', '12', '14'] 19829.06976744186
55 396.5813953488372 ['31', '22', '12', '14'] 19829.06976744186
56 396.5813953488372 ['31', '22', '12', '14'] 19829.06976744186
57 396.5813953488372 ['31', '22', '12', '14'] 19829.06976744186
58 396.5813953488372 ['31', '22', '12', '14'] 19829.06976744186
59 396.5813953488372 ['31', '22', '12', '14'] 19829.06976744186
60 396.5813953488372 ['31', '22', '12', '14'] 19829.06976744186
61 396.5813953488372 ['31', '22', '12', '14'] 19829.06976744186
62 396.5813953488372 ['31', '22', '12', '14'] 19829.06976744186
63 396.5813953488372 ['31', '22', '12', '14'] 19829.06976744186
64 396.5813953488372 ['31', '22', '12', '14'] 19829.06976744186
65 396.5813953488372 ['31', '22', '12', '14'] 19829.06976744186
66 396.5813953488372 ['31', '22', '12', '14'] 19829.06976744186
67 396.5813953488372 ['31', '22', '12', '14'] 19829.06976744186
68 396.5813953488372 ['31', '22', '12', '14'] 19829.06976744186
69 396.5813953488372 ['31', '22', '12', '14'] 19829.06976744186
70 396.5813953488372 ['31', '22', '12', '14'] 19829.06976744186
71 396.5813953488372 ['31', '22', '12', '14'] 19829.06976744186
72 396.5813953488372 ['31', '22', '12', '14'] 19829.06976744186
73 396.5813953488372 ['31', '22', '12', '14'] 19829.06976744186
74 396.5813953488372 ['31', '22', '12', '14'] 19829.06976744186
75 396.5813953488372 ['31', '22', '12', '14'] 19829.06976744186
76 396.5813953488372 ['31', '22', '12', '14'] 19829.06976744186
77 396.5813953488372 ['31', '22', '12', '14'] 19829.06976744186
78 396.5813953488372 ['31', '22', '12', '14'] 19829.06976744186
79 396.5813953488372 ['31', '22', '12', '14'] 19829.06976744186
80 396.5813953488372 ['31', '22', '12', '14'] 19829.06976744186
81 396.5813953488372 ['31', '22', '12', '14'] 19829.06976744186
82 396.5813953488372 ['31', '22', '12', '14'] 19829.06976744186
83 396.5813953488372 ['31', '22', '12', '14'] 19829.06976744186
84 396.5813953488372 ['31', '22', '12', '14'] 19829.06976744186
85 396.5813953488372 ['31', '22', '12', '14'] 19829.06976744186
86 396.5813953488372 ['31', '22', '12', '14'] 19829.06976744186
87 396.5813953488372 ['31', '22', '12', '14'] 19829.06976744186
88 396.5813953488372 ['31', '22', '12', '14'] 19829.06976744186
89 396.5813953488372 ['31', '22', '12', '14'] 19829.06976744186
90 396.5813953488372 ['31', '22', '12', '14'] 19829.06976744186
91 396.5813953488372 ['31', '22', '12', '14'] 19829.06976744186
92 396.5813953488372 ['31', '22', '12', '14'] 19829.06976744186
93 396.5813953488372 ['31', '22', '12', '14'] 19829.06976744186
94 396.5813953488372 ['31', '22', '12', '14'] 19829.06976744186
95 396.5813953488372 ['31', '22', '12', '14'] 19829.06976744186
96 396.5813953488372 ['31', '22', '12', '14'] 19829.06976744186
97 396.5813953488372 ['31', '22', '12', '14'] 19829.06976744186
98 396.5813953488372 ['31', '22', '12', '14'] 19829.06976744186
99 396.5813953488372 ['31', '22', '12', '14'] 19829.06976744186
100 396.5813953488372 ['31', '22', '12', '14'] 19829.06976744186
101 396.5813953488372 ['31', '22', '12', '14'] 19829.06976744186
102 396.5813953488372 ['31', '22', '12', '14'] 19829.06976744186
103 396.5813953488372 ['31', '22', '12', '14'] 19829.06976744186
104 396.5813953488372 ['31', '22', '12', '14'] 19829.06976744186
105 396.5813953488372 ['31', '22', '12', '14'] 19829.06976744186
106 396.5813953488372 ['31', '22', '12', '14'] 19829.06976744186
107 396.5813953488372 ['31', '22', '12', '14'] 19829.06976744186
108 396.5813953488372 ['31', '22', '12', '14'] 19829.06976744186
109 396.5813953488372 ['31', '22', '12', '14'] 19829.06976744186
110 396.5813953488372 ['31', '22', '12', '14'] 19829.06976744186
111 396.5813953488372 ['31', '22', '12', '14'] 19829.06976744186
112 396.5813953488372 ['31', '22', '12', '14'] 19829.06976744186
113 396.5813953488372 ['31', '22', '12', '14'] 19829.06976744186
114 396.5813953488372 ['31', '22', '12', '14'] 19829.06976744186
115 396.5813953488372 ['31', '22', '12', '14'] 19829.06976744186
116 396.5813953488372 ['31', '22', '12', '14'] 19829.06976744186
117 396.5813953488372 ['31', '22', '12', '14'] 19829.06976744186
118 396.5813953488372 ['31', '22', '12', '14'] 19829.06976744186
119 396.5813953488372 ['31', '22', '12', '14'] 19829.06976744186
120 396.5813953488372 ['31', '22', '12', '14'] 19829.06976744186
121 396.5813953488372 ['31', '22', '12', '14'] 19829.06976744186
122 396.5813953488372 ['31', '22', '12', '14'] 19829.06976744186
123 396.5813953488372 ['31', '22', '12', '14'] 19829.06976744186
124 396.5813953488372 ['31', '22', '12', '14'] 19829.06976744186
125 396.5813953488372 ['31', '22', '12', '14'] 19829.06976744186
126 396.5813953488372 ['31', '22', '12', '14'] 19829.06976744186
127 396.5813953488372 ['31', '22', '12', '14'] 19829.06976744186
128 396.5813953488372 ['31', '22', '12', '14'] 19829.06976744186
129 396.5813953488372 ['31', '22', '12', '14'] 19829.06976744186
130 396.5813953488372 ['31', '22', '12', '14'] 19829.06976744186
131 396.5813953488372 ['31', '22', '12', '14'] 19829.06976744186
132 396.5813953488372 ['31', '22', '12', '14'] 19829.06976744186
133 396.5813953488372 ['31', '22', '12', '14'] 19829.06976744186
134 396.5813953488372 ['31', '22', '12', '14'] 19829.06976744186
135 396.5813953488372 ['31', '22', '12', '14'] 19829.06976744186
136 396.5813953488372 ['31', '22', '12', '14'] 19829.06976744186
137 396.5813953488372 ['31', '22', '12', '14'] 19829.06976744186
138 396.5813953488372 ['31', '22', '12', '14'] 19829.06976744186
139 396.5813953488372 ['31', '22', '12', '14'] 19829.06976744186
140 396.5813953488372 ['31', '22', '12', '14'] 19829.06976744186
141 396.5813953488372 ['31', '22', '12', '14'] 19829.06976744186
142 396.5813953488372 ['31', '22', '12', '14'] 19829.06976744186
143 396.5813953488372 ['31', '22', '12', '14'] 19829.06976744186
144 396.5813953488372 ['31', '22', '12', '14'] 19829.06976744186
145 396.5813953488372 ['31', '22', '12', '14'] 19829.06976744186
146 396.5813953488372 ['31', '22', '12', '14'] 19829.06976744186
147 396.5813953488372 ['31', '22', '12', '14'] 19829.06976744186
148 396.5813953488372 ['31', '22', '12', '14'] 19829.06976744186
149 396.5813953488372 ['31', '22', '12', '14'] 19829.06976744186
150 396.5813953488372 ['31', '22', '12', '14'] 19829.06976744186
151 396.5813953488372 ['31', '22', '12', '14'] 19829.06976744186
152 396.5813953488372 ['31', '22', '12', '14'] 19829.06976744186
153 396.5813953488372 ['31', '22', '12', '14'] 19829.06976744186
154 396.5813953488372 ['31', '22', '12', '14'] 19829.06976744186
155 396.5813953488372 ['31', '22', '12', '14'] 19829.06976744186
156 396.5813953488372 ['31', '22', '12', '14'] 19829.06976744186
157 396.5813953488372 ['31', '22', '12', '14'] 19829.06976744186
158 396.5813953488372 ['31', '22', '12', '14'] 19829.06976744186
159 396.5813953488372 ['31', '22', '12', '14'] 19829.06976744186
160 396.5813953488372 ['31', '22', '12', '14'] 19829.06976744186
161 396.5813953488372 ['31', '22', '12', '14'] 19829.06976744186
162 396.5813953488372 ['31', '22', '12', '14'] 19829.06976744186
163 396.5813953488372 ['31', '22', '12', '14'] 19829.06976744186
164 396.5813953488372 ['31', '22', '12', '14'] 19829.06976744186
165 396.5813953488372 ['31', '22', '12', '14'] 19829.06976744186
166 396.5813953488372 ['31', '22', '12', '14'] 19829.06976744186
167 396.5813953488372 ['31', '22', '12', '14'] 19829.06976744186
168 396.5813953488372 ['31', '22', '12', '14'] 19829.06976744186
169 396.5813953488372 ['31', '22', '12', '14'] 19829.06976744186
170 396.5813953488372 ['31', '22', '12', '14'] 19829.06976744186
171 396.5813953488372 ['31', '22', '12', '14'] 19829.06976744186
172 396.5813953488372 ['31', '22', '12', '14'] 19829.06976744186
173 396.5813953488372 ['31', '22', '12', '14'] 19829.06976744186
174 396.5813953488372 ['31', '22', '12', '14'] 19829.06976744186
175 396.5813953488372 ['31', '22', '12', '14'] 19829.06976744186
176 396.5813953488372 ['31', '22', '12', '14'] 19829.06976744186
177 396.5813953488372 ['31', '22', '12', '14'] 19829.06976744186
178 396.5813953488372 ['31', '22', '12', '14'] 19829.06976744186
179 396.5813953488372 ['31', '22', '12', '14'] 19829.06976744186
180 396.5813953488372 ['31', '22', '12', '14'] 19829.06976744186
181 396.5813953488372 ['31', '22', '12', '14'] 19829.06976744186
182 396.5813953488372 ['31', '22', '12', '14'] 19829.06976744186
183 396.5813953488372 ['31', '22', '12', '14'] 19829.06976744186
184 396.5813953488372 ['31', '22', '12', '14'] 19829.06976744186
185 396.5813953488372 ['31', '22', '12', '14'] 19829.06976744186
186 396.5813953488372 ['31', '22', '12', '14'] 19829.06976744186
187 396.5813953488372 ['31', '22', '12', '14'] 19829.06976744186
188 396.5813953488372 ['31', '22', '12', '14'] 19829.06976744186
189 396.5813953488372 ['31', '22', '12', '14'] 19829.06976744186
190 396.5813953488372 ['31', '22', '12', '14'] 19829.06976744186
191 396.5813953488372 ['31', '22', '12', '14'] 19829.06976744186
192 396.5813953488372 ['31', '22', '12', '14'] 19829.06976744186
193 396.5813953488372 ['31', '22', '12', '14'] 19829.06976744186
194 396.5813953488372 ['31', '22', '12', '14'] 19829.06976744186
195 396.5813953488372 ['31', '22', '12', '14'] 19829.06976744186
196 396.5813953488372 ['31', '22', '12', '14'] 19829.06976744186
197 396.5813953488372 ['31', '22', '12', '14'] 19829.06976744186
198 396.5813953488372 ['31', '22', '12', '14'] 19829.06976744186
199 396.5813953488372 ['31', '22', '12', '14'] 19829.06976744186
