0 145.68421052631578 ['43', '29', '45', '1', '28', '32'] 7596.0701754385955
1 145.68421052631578 ['43', '29', '45', '1', '28', '32'] 7509.789473684213
2 144.12280701754386 ['40', '43', '32', '54', '24', '53'] 7433.175438596491
3 143.43859649122808 ['17', '11', '26', '29', '1', '36'] 7366.982456140351
4 143.08771929824562 ['53', '24', '45', '54', '40', '11'] 7306.105263157893
5 141.73684210526315 ['11', '26', '36', '29', '40', '54'] 7240.999999999999
6 141.73684210526315 ['11', '26', '36', '29', '40', '54'] 7196.807017543862
7 141.31578947368422 ['36', '24', '40', '29', '54', '11'] 7149.561403508772
8 140.52631578947367 ['32', '43', '29', '11', '40', '54'] 7119.333333333335
9 137.80701754385964 ['11', '40', '17', '29', '43', '54'] 7081.3859649122805
10 137.80701754385964 ['11', '40', '17', '29', '43', '54'] 7041.28070175439
11 137.80701754385964 ['11', '40', '17', '29', '43', '54'] 7004.543859649129
12 137.80701754385964 ['11', '40', '17', '29', '43', '54'] 6961.631578947365
13 137.49122807017545 ['40', '54', '29', '11', '17', '36'] 6917.175438596491
14 137.49122807017545 ['40', '54', '29', '11', '17', '36'] 6890.87719298246
15 137.49122807017545 ['40', '54', '29', '11', '17', '36'] 6887.824561403512
16 137.49122807017545 ['40', '54', '29', '11', '17', '36'] 6884.666666666671
17 137.49122807017545 ['40', '54', '29', '11', '17', '36'] 6879.29824561404
18 137.49122807017545 ['40', '54', '29', '11', '17', '36'] 6874.561403508777
19 137.49122807017545 ['40', '54', '29', '11', '17', '36'] 6874.561403508777
20 137.49122807017545 ['40', '54', '29', '11', '17', '36'] 6874.561403508777
21 137.49122807017545 ['40', '54', '29', '11', '17', '36'] 6874.561403508777
22 137.49122807017545 ['40', '54', '29', '11', '17', '36'] 6874.561403508777
23 137.49122807017545 ['40', '54', '29', '11', '17', '36'] 6874.561403508777
24 137.49122807017545 ['40', '54', '29', '11', '17', '36'] 6874.561403508777
25 137.49122807017545 ['40', '54', '29', '11', '17', '36'] 6874.561403508777
26 137.49122807017545 ['40', '54', '29', '11', '17', '36'] 6874.561403508777
27 137.49122807017545 ['40', '54', '29', '11', '17', '36'] 6874.561403508777
28 137.49122807017545 ['40', '54', '29', '11', '17', '36'] 6874.561403508777
29 137.49122807017545 ['40', '54', '29', '11', '17', '36'] 6874.561403508777
30 137.49122807017545 ['40', '54', '29', '11', '17', '36'] 6874.561403508777
31 137.49122807017545 ['40', '54', '29', '11', '17', '36'] 6874.561403508777
32 137.49122807017545 ['40', '54', '29', '11', '17', '36'] 6874.561403508777
33 137.49122807017545 ['40', '54', '29', '11', '17', '36'] 6874.561403508777
34 137.49122807017545 ['40', '54', '29', '11', '17', '36'] 6874.561403508777
35 137.49122807017545 ['40', '54', '29', '11', '17', '36'] 6874.561403508777
36 137.49122807017545 ['40', '54', '29', '11', '17', '36'] 6874.561403508777
37 137.49122807017545 ['40', '54', '29', '11', '17', '36'] 6874.561403508777
38 137.49122807017545 ['40', '54', '29', '11', '17', '36'] 6874.561403508777
39 137.49122807017545 ['40', '54', '29', '11', '17', '36'] 6874.561403508777
40 137.49122807017545 ['40', '54', '29', '11', '17', '36'] 6874.561403508777
41 137.49122807017545 ['40', '54', '29', '11', '17', '36'] 6874.561403508777
42 137.49122807017545 ['40', '54', '29', '11', '17', '36'] 6874.561403508777
43 137.49122807017545 ['40', '54', '29', '11', '17', '36'] 6874.561403508777
44 137.49122807017545 ['40', '54', '29', '11', '17', '36'] 6874.561403508777
45 137.49122807017545 ['40', '54', '29', '11', '17', '36'] 6874.561403508777
46 137.49122807017545 ['40', '54', '29', '11', '17', '36'] 6874.561403508777
47 137.49122807017545 ['40', '54', '29', '11', '17', '36'] 6874.561403508777
48 137.49122807017545 ['40', '54', '29', '11', '17', '36'] 6874.561403508777
49 137.49122807017545 ['40', '54', '29', '11', '17', '36'] 6874.561403508777
50 137.49122807017545 ['40', '54', '29', '11', '17', '36'] 6874.561403508777
51 137.49122807017545 ['40', '54', '29', '11', '17', '36'] 6874.561403508777
52 137.49122807017545 ['40', '54', '29', '11', '17', '36'] 6874.561403508777
53 137.49122807017545 ['40', '54', '29', '11', '17', '36'] 6874.561403508777
54 137.49122807017545 ['40', '54', '29', '11', '17', '36'] 6874.561403508777
55 137.49122807017545 ['40', '54', '29', '11', '17', '36'] 6874.561403508777
56 137.49122807017545 ['40', '54', '29', '11', '17', '36'] 6874.561403508777
57 137.49122807017545 ['40', '54', '29', '11', '17', '36'] 6874.561403508777
58 137.49122807017545 ['40', '54', '29', '11', '17', '36'] 6874.561403508777
59 137.49122807017545 ['40', '54', '29', '11', '17', '36'] 6874.561403508777
60 137.49122807017545 ['40', '54', '29', '11', '17', '36'] 6874.561403508777
61 137.49122807017545 ['40', '54', '29', '11', '17', '36'] 6874.561403508777
62 137.49122807017545 ['40', '54', '29', '11', '17', '36'] 6874.561403508777
63 137.49122807017545 ['40', '54', '29', '11', '17', '36'] 6874.561403508777
64 137.49122807017545 ['40', '54', '29', '11', '17', '36'] 6874.561403508777
65 137.49122807017545 ['40', '54', '29', '11', '17', '36'] 6874.561403508777
66 137.49122807017545 ['40', '54', '29', '11', '17', '36'] 6874.561403508777
67 137.49122807017545 ['40', '54', '29', '11', '17', '36'] 6874.561403508777
68 137.49122807017545 ['40', '54', '29', '11', '17', '36'] 6874.561403508777
69 137.49122807017545 ['40', '54', '29', '11', '17', '36'] 6874.561403508777
70 137.49122807017545 ['40', '54', '29', '11', '17', '36'] 6874.561403508777
71 137.49122807017545 ['40', '54', '29', '11', '17', '36'] 6874.561403508777
72 137.49122807017545 ['40', '54', '29', '11', '17', '36'] 6874.561403508777
73 137.49122807017545 ['40', '54', '29', '11', '17', '36'] 6874.561403508777
74 137.49122807017545 ['40', '54', '29', '11', '17', '36'] 6874.561403508777
75 137.49122807017545 ['40', '54', '29', '11', '17', '36'] 6874.561403508777
76 137.49122807017545 ['40', '54', '29', '11', '17', '36'] 6874.561403508777
77 137.49122807017545 ['40', '54', '29', '11', '17', '36'] 6874.561403508777
78 137.49122807017545 ['40', '54', '29', '11', '17', '36'] 6874.561403508777
79 137.49122807017545 ['40', '54', '29', '11', '17', '36'] 6874.561403508777
80 137.49122807017545 ['40', '54', '29', '11', '17', '36'] 6874.561403508777
81 137.49122807017545 ['40', '54', '29', '11', '17', '36'] 6874.561403508777
82 137.49122807017545 ['40', '54', '29', '11', '17', '36'] 6874.561403508777
83 137.49122807017545 ['40', '54', '29', '11', '17', '36'] 6874.561403508777
84 137.49122807017545 ['40', '54', '29', '11', '17', '36'] 6874.561403508777
85 137.49122807017545 ['40', '54', '29', '11', '17', '36'] 6874.561403508777
86 137.49122807017545 ['40', '54', '29', '11', '17', '36'] 6874.561403508777
87 137.49122807017545 ['40', '54', '29', '11', '17', '36'] 6874.561403508777
88 137.49122807017545 ['40', '54', '29', '11', '17', '36'] 6874.561403508777
89 137.49122807017545 ['40', '54', '29', '11', '17', '36'] 6874.561403508777
90 137.49122807017545 ['40', '54', '29', '11', '17', '36'] 6874.561403508777
91 137.49122807017545 ['40', '54', '29', '11', '17', '36'] 6874.561403508777
92 137.49122807017545 ['40', '54', '29', '11', '17', '36'] 6874.561403508777
93 137.49122807017545 ['40', '54', '29', '11', '17', '36'] 6874.561403508777
94 137.49122807017545 ['40', '54', '29', '11', '17', '36'] 6874.561403508777
95 137.49122807017545 ['40', '54', '29', '11', '17', '36'] 6874.561403508777
96 137.49122807017545 ['40', '54', '29', '11', '17', '36'] 6874.561403508777
97 137.49122807017545 ['40', '54', '29', '11', '17', '36'] 6874.561403508777
98 137.49122807017545 ['40', '54', '29', '11', '17', '36'] 6874.561403508777
99 137.49122807017545 ['40', '54', '29', '11', '17', '36'] 6874.561403508777
100 137.49122807017545 ['40', '54', '29', '11', '17', '36'] 6874.561403508777
101 137.49122807017545 ['40', '54', '29', '11', '17', '36'] 6874.561403508777
102 137.49122807017545 ['40', '54', '29', '11', '17', '36'] 6874.561403508777
103 137.49122807017545 ['40', '54', '29', '11', '17', '36'] 6874.561403508777
104 137.49122807017545 ['40', '54', '29', '11', '17', '36'] 6874.561403508777
105 137.49122807017545 ['40', '54', '29', '11', '17', '36'] 6874.561403508777
106 137.49122807017545 ['40', '54', '29', '11', '17', '36'] 6874.561403508777
107 137.49122807017545 ['40', '54', '29', '11', '17', '36'] 6874.561403508777
108 137.49122807017545 ['40', '54', '29', '11', '17', '36'] 6874.561403508777
109 137.49122807017545 ['40', '54', '29', '11', '17', '36'] 6874.561403508777
110 137.49122807017545 ['40', '54', '29', '11', '17', '36'] 6874.561403508777
111 137.49122807017545 ['40', '54', '29', '11', '17', '36'] 6874.561403508777
112 137.49122807017545 ['40', '54', '29', '11', '17', '36'] 6874.561403508777
113 137.49122807017545 ['40', '54', '29', '11', '17', '36'] 6874.561403508777
114 137.49122807017545 ['40', '54', '29', '11', '17', '36'] 6874.561403508777
115 137.49122807017545 ['40', '54', '29', '11', '17', '36'] 6874.561403508777
116 137.49122807017545 ['40', '54', '29', '11', '17', '36'] 6874.561403508777
117 137.49122807017545 ['40', '54', '29', '11', '17', '36'] 6874.561403508777
118 137.49122807017545 ['40', '54', '29', '11', '17', '36'] 6874.561403508777
119 137.49122807017545 ['40', '54', '29', '11', '17', '36'] 6874.561403508777
120 137.49122807017545 ['40', '54', '29', '11', '17', '36'] 6874.561403508777
121 137.49122807017545 ['40', '54', '29', '11', '17', '36'] 6874.561403508777
122 137.49122807017545 ['40', '54', '29', '11', '17', '36'] 6874.561403508777
123 137.49122807017545 ['40', '54', '29', '11', '17', '36'] 6874.561403508777
124 137.49122807017545 ['40', '54', '29', '11', '17', '36'] 6874.561403508777
125 137.49122807017545 ['40', '54', '29', '11', '17', '36'] 6874.561403508777
126 137.49122807017545 ['40', '54', '29', '11', '17', '36'] 6874.561403508777
127 137.49122807017545 ['40', '54', '29', '11', '17', '36'] 6874.561403508777
128 137.49122807017545 ['40', '54', '29', '11', '17', '36'] 6874.561403508777
129 137.49122807017545 ['40', '54', '29', '11', '17', '36'] 6874.561403508777
130 137.49122807017545 ['40', '54', '29', '11', '17', '36'] 6874.561403508777
131 137.49122807017545 ['40', '54', '29', '11', '17', '36'] 6874.561403508777
132 137.49122807017545 ['40', '54', '29', '11', '17', '36'] 6874.561403508777
133 137.49122807017545 ['40', '54', '29', '11', '17', '36'] 6874.561403508777
134 137.49122807017545 ['40', '54', '29', '11', '17', '36'] 6874.561403508777
135 137.49122807017545 ['40', '54', '29', '11', '17', '36'] 6874.561403508777
136 137.49122807017545 ['40', '54', '29', '11', '17', '36'] 6874.561403508777
137 137.49122807017545 ['40', '54', '29', '11', '17', '36'] 6874.561403508777
138 137.49122807017545 ['40', '54', '29', '11', '17', '36'] 6874.561403508777
139 137.49122807017545 ['40', '54', '29', '11', '17', '36'] 6874.561403508777
140 137.49122807017545 ['40', '54', '29', '11', '17', '36'] 6874.561403508777
141 137.49122807017545 ['40', '54', '29', '11', '17', '36'] 6874.561403508777
142 137.49122807017545 ['40', '54', '29', '11', '17', '36'] 6874.561403508777
143 137.49122807017545 ['40', '54', '29', '11', '17', '36'] 6874.561403508777
144 137.49122807017545 ['40', '54', '29', '11', '17', '36'] 6874.561403508777
145 137.49122807017545 ['40', '54', '29', '11', '17', '36'] 6874.561403508777
146 137.49122807017545 ['40', '54', '29', '11', '17', '36'] 6874.561403508777
147 137.49122807017545 ['40', '54', '29', '11', '17', '36'] 6874.561403508777
148 137.49122807017545 ['40', '54', '29', '11', '17', '36'] 6874.561403508777
149 137.49122807017545 ['40', '54', '29', '11', '17', '36'] 6874.561403508777
150 137.49122807017545 ['40', '54', '29', '11', '17', '36'] 6874.561403508777
151 137.49122807017545 ['40', '54', '29', '11', '17', '36'] 6874.561403508777
152 137.49122807017545 ['40', '54', '29', '11', '17', '36'] 6874.561403508777
153 137.49122807017545 ['40', '54', '29', '11', '17', '36'] 6874.561403508777
154 137.49122807017545 ['40', '54', '29', '11', '17', '36'] 6874.561403508777
155 137.49122807017545 ['40', '54', '29', '11', '17', '36'] 6874.561403508777
156 137.49122807017545 ['40', '54', '29', '11', '17', '36'] 6874.561403508777
157 137.49122807017545 ['40', '54', '29', '11', '17', '36'] 6874.561403508777
158 137.49122807017545 ['40', '54', '29', '11', '17', '36'] 6874.561403508777
159 137.49122807017545 ['40', '54', '29', '11', '17', '36'] 6874.561403508777
160 137.49122807017545 ['40', '54', '29', '11', '17', '36'] 6874.561403508777
161 137.49122807017545 ['40', '54', '29', '11', '17', '36'] 6874.561403508777
162 137.49122807017545 ['40', '54', '29', '11', '17', '36'] 6874.561403508777
163 137.49122807017545 ['40', '54', '29', '11', '17', '36'] 6874.561403508777
164 137.49122807017545 ['40', '54', '29', '11', '17', '36'] 6874.561403508777
165 137.49122807017545 ['40', '54', '29', '11', '17', '36'] 6874.561403508777
166 137.49122807017545 ['40', '54', '29', '11', '17', '36'] 6874.561403508777
167 137.49122807017545 ['40', '54', '29', '11', '17', '36'] 6874.561403508777
168 137.49122807017545 ['40', '54', '29', '11', '17', '36'] 6874.561403508777
169 137.49122807017545 ['40', '54', '29', '11', '17', '36'] 6874.561403508777
170 137.49122807017545 ['40', '54', '29', '11', '17', '36'] 6874.561403508777
171 137.49122807017545 ['40', '54', '29', '11', '17', '36'] 6874.561403508777
172 137.49122807017545 ['40', '54', '29', '11', '17', '36'] 6874.561403508777
173 137.49122807017545 ['40', '54', '29', '11', '17', '36'] 6874.561403508777
174 137.49122807017545 ['40', '54', '29', '11', '17', '36'] 6874.561403508777
175 137.49122807017545 ['40', '54', '29', '11', '17', '36'] 6874.561403508777
176 137.49122807017545 ['40', '54', '29', '11', '17', '36'] 6874.561403508777
177 137.49122807017545 ['40', '54', '29', '11', '17', '36'] 6874.561403508777
178 137.49122807017545 ['40', '54', '29', '11', '17', '36'] 6874.561403508777
179 137.49122807017545 ['40', '54', '29', '11', '17', '36'] 6874.561403508777
180 137.49122807017545 ['40', '54', '29', '11', '17', '36'] 6874.561403508777
181 137.49122807017545 ['40', '54', '29', '11', '17', '36'] 6874.561403508777
182 137.49122807017545 ['40', '54', '29', '11', '17', '36'] 6874.561403508777
183 137.49122807017545 ['40', '54', '29', '11', '17', '36'] 6874.561403508777
184 137.49122807017545 ['40', '54', '29', '11', '17', '36'] 6874.561403508777
185 137.49122807017545 ['40', '54', '29', '11', '17', '36'] 6874.561403508777
186 137.49122807017545 ['40', '54', '29', '11', '17', '36'] 6874.561403508777
187 137.49122807017545 ['40', '54', '29', '11', '17', '36'] 6874.561403508777
188 137.49122807017545 ['40', '54', '29', '11', '17', '36'] 6874.561403508777
189 137.49122807017545 ['40', '54', '29', '11', '17', '36'] 6874.561403508777
190 137.49122807017545 ['40', '54', '29', '11', '17', '36'] 6874.561403508777
191 137.49122807017545 ['40', '54', '29', '11', '17', '36'] 6874.561403508777
192 137.49122807017545 ['40', '54', '29', '11', '17', '36'] 6874.561403508777
193 137.49122807017545 ['40', '54', '29', '11', '17', '36'] 6874.561403508777
194 137.49122807017545 ['40', '54', '29', '11', '17', '36'] 6874.561403508777
195 137.49122807017545 ['40', '54', '29', '11', '17', '36'] 6874.561403508777
196 137.49122807017545 ['40', '54', '29', '11', '17', '36'] 6874.561403508777
197 137.49122807017545 ['40', '54', '29', '11', '17', '36'] 6874.561403508777
198 137.49122807017545 ['40', '54', '29', '11', '17', '36'] 6874.561403508777
199 137.49122807017545 ['40', '54', '29', '11', '17', '36'] 6874.561403508777
