0 8.093023255813954 ['14', '23', '16', '7'] 496.3720930232558
1 8.093023255813954 ['14', '23', '16', '7'] 465.3023255813952
2 7.906976744186046 ['22', '47', '12', '9'] 444.0930232558139
3 6.511627906976744 ['29', '22', '9', '14'] 421.1162790697675
4 6.325581395348837 ['47', '16', '9', '31'] 402.0465116279072
5 6.046511627906977 ['29', '14', '9', '3'] 377.39534883720944
6 6.046511627906977 ['29', '14', '9', '3'] 347.72093023255826
7 6.046511627906977 ['29', '14', '9', '3'] 325.953488372093
8 6.046511627906977 ['29', '14', '9', '3'] 314.4186046511629
9 6.046511627906977 ['29', '14', '9', '3'] 312.65116279069775
10 6.046511627906977 ['29', '14', '9', '3'] 308.6511627906977
11 6.046511627906977 ['29', '14', '9', '3'] 303.4418604651161
12 6.046511627906977 ['29', '14', '9', '3'] 302.3255813953486
13 6.046511627906977 ['29', '14', '9', '3'] 302.3255813953486
14 6.046511627906977 ['29', '14', '9', '3'] 302.3255813953486
15 6.046511627906977 ['29', '14', '9', '3'] 302.3255813953486
16 6.046511627906977 ['29', '14', '9', '3'] 302.3255813953486
17 6.046511627906977 ['29', '14', '9', '3'] 302.3255813953486
18 6.046511627906977 ['29', '14', '9', '3'] 302.3255813953486
19 6.046511627906977 ['29', '14', '9', '3'] 302.3255813953486
20 6.046511627906977 ['29', '14', '9', '3'] 302.3255813953486
21 6.046511627906977 ['29', '14', '9', '3'] 302.3255813953486
22 6.046511627906977 ['29', '14', '9', '3'] 302.3255813953486
23 6.046511627906977 ['29', '14', '9', '3'] 302.3255813953486
24 6.046511627906977 ['29', '14', '9', '3'] 302.3255813953486
25 6.046511627906977 ['29', '14', '9', '3'] 302.3255813953486
26 6.046511627906977 ['29', '14', '9', '3'] 302.3255813953486
27 6.046511627906977 ['29', '14', '9', '3'] 302.3255813953486
28 6.046511627906977 ['29', '14', '9', '3'] 302.3255813953486
29 6.046511627906977 ['29', '14', '9', '3'] 302.3255813953486
30 6.046511627906977 ['29', '14', '9', '3'] 302.3255813953486
31 6.046511627906977 ['29', '14', '9', '3'] 302.3255813953486
32 6.046511627906977 ['29', '14', '9', '3'] 302.3255813953486
33 6.046511627906977 ['29', '14', '9', '3'] 302.3255813953486
34 6.046511627906977 ['29', '14', '9', '3'] 302.3255813953486
35 6.046511627906977 ['29', '14', '9', '3'] 302.3255813953486
36 6.046511627906977 ['29', '14', '9', '3'] 302.3255813953486
37 6.046511627906977 ['29', '14', '9', '3'] 302.3255813953486
38 6.046511627906977 ['29', '14', '9', '3'] 302.3255813953486
39 6.046511627906977 ['29', '14', '9', '3'] 302.3255813953486
40 6.046511627906977 ['29', '14', '9', '3'] 302.3255813953486
41 6.046511627906977 ['29', '14', '9', '3'] 302.3255813953486
42 6.046511627906977 ['29', '14', '9', '3'] 302.3255813953486
43 6.046511627906977 ['29', '14', '9', '3'] 302.3255813953486
44 6.046511627906977 ['29', '14', '9', '3'] 302.3255813953486
45 6.046511627906977 ['29', '14', '9', '3'] 302.3255813953486
46 6.046511627906977 ['29', '14', '9', '3'] 302.3255813953486
47 6.046511627906977 ['29', '14', '9', '3'] 302.3255813953486
48 6.046511627906977 ['29', '14', '9', '3'] 302.3255813953486
49 6.046511627906977 ['29', '14', '9', '3'] 302.3255813953486
50 6.046511627906977 ['29', '14', '9', '3'] 302.3255813953486
51 6.046511627906977 ['29', '14', '9', '3'] 302.3255813953486
52 6.046511627906977 ['29', '14', '9', '3'] 302.3255813953486
53 6.046511627906977 ['29', '14', '9', '3'] 302.3255813953486
54 6.046511627906977 ['29', '14', '9', '3'] 302.3255813953486
55 6.046511627906977 ['29', '14', '9', '3'] 302.3255813953486
56 6.046511627906977 ['29', '14', '9', '3'] 302.3255813953486
57 6.046511627906977 ['29', '14', '9', '3'] 302.3255813953486
58 6.046511627906977 ['29', '14', '9', '3'] 302.3255813953486
59 6.046511627906977 ['29', '14', '9', '3'] 302.3255813953486
60 6.046511627906977 ['29', '14', '9', '3'] 302.3255813953486
61 6.046511627906977 ['29', '14', '9', '3'] 302.3255813953486
62 6.046511627906977 ['29', '14', '9', '3'] 302.3255813953486
63 6.046511627906977 ['29', '14', '9', '3'] 302.3255813953486
64 6.046511627906977 ['29', '14', '9', '3'] 302.3255813953486
65 6.046511627906977 ['29', '14', '9', '3'] 302.3255813953486
66 6.046511627906977 ['29', '14', '9', '3'] 302.3255813953486
67 6.046511627906977 ['29', '14', '9', '3'] 302.3255813953486
68 6.046511627906977 ['29', '14', '9', '3'] 302.3255813953486
69 6.046511627906977 ['29', '14', '9', '3'] 302.3255813953486
70 6.046511627906977 ['29', '14', '9', '3'] 302.3255813953486
71 6.046511627906977 ['29', '14', '9', '3'] 302.3255813953486
72 6.046511627906977 ['29', '14', '9', '3'] 302.3255813953486
73 6.046511627906977 ['29', '14', '9', '3'] 302.3255813953486
74 6.046511627906977 ['29', '14', '9', '3'] 302.3255813953486
75 6.046511627906977 ['29', '14', '9', '3'] 302.3255813953486
76 6.046511627906977 ['29', '14', '9', '3'] 302.3255813953486
77 6.046511627906977 ['29', '14', '9', '3'] 302.3255813953486
78 6.046511627906977 ['29', '14', '9', '3'] 302.3255813953486
79 6.046511627906977 ['29', '14', '9', '3'] 302.3255813953486
80 6.046511627906977 ['29', '14', '9', '3'] 302.3255813953486
81 6.046511627906977 ['29', '14', '9', '3'] 302.3255813953486
82 6.046511627906977 ['29', '14', '9', '3'] 302.3255813953486
83 6.046511627906977 ['29', '14', '9', '3'] 302.3255813953486
84 6.046511627906977 ['29', '14', '9', '3'] 302.3255813953486
85 6.046511627906977 ['29', '14', '9', '3'] 302.3255813953486
86 6.046511627906977 ['29', '14', '9', '3'] 302.3255813953486
87 6.046511627906977 ['29', '14', '9', '3'] 302.3255813953486
88 6.046511627906977 ['29', '14', '9', '3'] 302.3255813953486
89 6.046511627906977 ['29', '14', '9', '3'] 302.3255813953486
90 6.046511627906977 ['29', '14', '9', '3'] 302.3255813953486
91 6.046511627906977 ['29', '14', '9', '3'] 302.3255813953486
92 6.046511627906977 ['29', '14', '9', '3'] 302.3255813953486
93 6.046511627906977 ['29', '14', '9', '3'] 302.3255813953486
94 6.046511627906977 ['29', '14', '9', '3'] 302.3255813953486
95 6.046511627906977 ['29', '14', '9', '3'] 302.3255813953486
96 6.046511627906977 ['29', '14', '9', '3'] 302.3255813953486
97 6.046511627906977 ['29', '14', '9', '3'] 302.3255813953486
98 6.046511627906977 ['29', '14', '9', '3'] 302.3255813953486
99 6.046511627906977 ['29', '14', '9', '3'] 302.3255813953486
100 6.046511627906977 ['29', '14', '9', '3'] 302.3255813953486
101 6.046511627906977 ['29', '14', '9', '3'] 302.3255813953486
102 6.046511627906977 ['29', '14', '9', '3'] 302.3255813953486
103 6.046511627906977 ['29', '14', '9', '3'] 302.3255813953486
104 6.046511627906977 ['29', '14', '9', '3'] 302.3255813953486
105 6.046511627906977 ['29', '14', '9', '3'] 302.3255813953486
106 6.046511627906977 ['29', '14', '9', '3'] 302.3255813953486
107 6.046511627906977 ['29', '14', '9', '3'] 302.3255813953486
108 6.046511627906977 ['29', '14', '9', '3'] 302.3255813953486
109 6.046511627906977 ['29', '14', '9', '3'] 302.3255813953486
110 6.046511627906977 ['29', '14', '9', '3'] 302.3255813953486
111 6.046511627906977 ['29', '14', '9', '3'] 302.3255813953486
112 6.046511627906977 ['29', '14', '9', '3'] 302.3255813953486
113 6.046511627906977 ['29', '14', '9', '3'] 302.3255813953486
114 6.046511627906977 ['29', '14', '9', '3'] 302.3255813953486
115 6.046511627906977 ['29', '14', '9', '3'] 302.3255813953486
116 6.046511627906977 ['29', '14', '9', '3'] 302.3255813953486
117 6.046511627906977 ['29', '14', '9', '3'] 302.3255813953486
118 6.046511627906977 ['29', '14', '9', '3'] 302.3255813953486
119 6.046511627906977 ['29', '14', '9', '3'] 302.3255813953486
120 6.046511627906977 ['29', '14', '9', '3'] 302.3255813953486
121 6.046511627906977 ['29', '14', '9', '3'] 302.3255813953486
122 6.046511627906977 ['29', '14', '9', '3'] 302.3255813953486
123 6.046511627906977 ['29', '14', '9', '3'] 302.3255813953486
124 6.046511627906977 ['29', '14', '9', '3'] 302.3255813953486
125 6.046511627906977 ['29', '14', '9', '3'] 302.3255813953486
126 6.046511627906977 ['29', '14', '9', '3'] 302.3255813953486
127 6.046511627906977 ['29', '14', '9', '3'] 302.3255813953486
128 6.046511627906977 ['29', '14', '9', '3'] 302.3255813953486
129 6.046511627906977 ['29', '14', '9', '3'] 302.3255813953486
130 6.046511627906977 ['29', '14', '9', '3'] 302.3255813953486
131 6.046511627906977 ['29', '14', '9', '3'] 302.3255813953486
132 6.046511627906977 ['29', '14', '9', '3'] 302.3255813953486
133 6.046511627906977 ['29', '14', '9', '3'] 302.3255813953486
134 6.046511627906977 ['29', '14', '9', '3'] 302.3255813953486
135 6.046511627906977 ['29', '14', '9', '3'] 302.3255813953486
136 6.046511627906977 ['29', '14', '9', '3'] 302.3255813953486
137 6.046511627906977 ['29', '14', '9', '3'] 302.3255813953486
138 6.046511627906977 ['29', '14', '9', '3'] 302.3255813953486
139 6.046511627906977 ['29', '14', '9', '3'] 302.3255813953486
140 6.046511627906977 ['29', '14', '9', '3'] 302.3255813953486
141 6.046511627906977 ['29', '14', '9', '3'] 302.3255813953486
142 6.046511627906977 ['29', '14', '9', '3'] 302.3255813953486
143 6.046511627906977 ['29', '14', '9', '3'] 302.3255813953486
144 6.046511627906977 ['29', '14', '9', '3'] 302.3255813953486
145 6.046511627906977 ['29', '14', '9', '3'] 302.3255813953486
146 6.046511627906977 ['29', '14', '9', '3'] 302.3255813953486
147 6.046511627906977 ['29', '14', '9', '3'] 302.3255813953486
148 6.046511627906977 ['29', '14', '9', '3'] 302.3255813953486
149 6.046511627906977 ['29', '14', '9', '3'] 302.3255813953486
150 6.046511627906977 ['29', '14', '9', '3'] 302.3255813953486
151 6.046511627906977 ['29', '14', '9', '3'] 302.3255813953486
152 6.046511627906977 ['29', '14', '9', '3'] 302.3255813953486
153 6.046511627906977 ['29', '14', '9', '3'] 302.3255813953486
154 6.046511627906977 ['29', '14', '9', '3'] 302.3255813953486
155 6.046511627906977 ['29', '14', '9', '3'] 302.3255813953486
156 6.046511627906977 ['29', '14', '9', '3'] 302.3255813953486
157 6.046511627906977 ['29', '14', '9', '3'] 302.3255813953486
158 6.046511627906977 ['29', '14', '9', '3'] 302.3255813953486
159 6.046511627906977 ['29', '14', '9', '3'] 302.3255813953486
160 6.046511627906977 ['29', '14', '9', '3'] 302.3255813953486
161 6.046511627906977 ['29', '14', '9', '3'] 302.3255813953486
162 6.046511627906977 ['29', '14', '9', '3'] 302.3255813953486
163 6.046511627906977 ['29', '14', '9', '3'] 302.3255813953486
164 6.046511627906977 ['29', '14', '9', '3'] 302.3255813953486
165 6.046511627906977 ['29', '14', '9', '3'] 302.3255813953486
166 6.046511627906977 ['29', '14', '9', '3'] 302.3255813953486
167 6.046511627906977 ['29', '14', '9', '3'] 302.3255813953486
168 6.046511627906977 ['29', '14', '9', '3'] 302.3255813953486
169 6.046511627906977 ['29', '14', '9', '3'] 302.3255813953486
170 6.046511627906977 ['29', '14', '9', '3'] 302.3255813953486
171 6.046511627906977 ['29', '14', '9', '3'] 302.3255813953486
172 6.046511627906977 ['29', '14', '9', '3'] 302.3255813953486
173 6.046511627906977 ['29', '14', '9', '3'] 302.3255813953486
174 6.046511627906977 ['29', '14', '9', '3'] 302.3255813953486
175 6.046511627906977 ['29', '14', '9', '3'] 302.3255813953486
176 6.046511627906977 ['29', '14', '9', '3'] 302.3255813953486
177 6.046511627906977 ['29', '14', '9', '3'] 302.3255813953486
178 6.046511627906977 ['29', '14', '9', '3'] 302.3255813953486
179 6.046511627906977 ['29', '14', '9', '3'] 302.3255813953486
180 6.046511627906977 ['29', '14', '9', '3'] 302.3255813953486
181 6.046511627906977 ['29', '14', '9', '3'] 302.3255813953486
182 6.046511627906977 ['29', '14', '9', '3'] 302.3255813953486
183 6.046511627906977 ['29', '14', '9', '3'] 302.3255813953486
184 6.046511627906977 ['29', '14', '9', '3'] 302.3255813953486
185 6.046511627906977 ['29', '14', '9', '3'] 302.3255813953486
186 6.046511627906977 ['29', '14', '9', '3'] 302.3255813953486
187 6.046511627906977 ['29', '14', '9', '3'] 302.3255813953486
188 6.046511627906977 ['29', '14', '9', '3'] 302.3255813953486
189 6.046511627906977 ['29', '14', '9', '3'] 302.3255813953486
190 6.046511627906977 ['29', '14', '9', '3'] 302.3255813953486
191 6.046511627906977 ['29', '14', '9', '3'] 302.3255813953486
192 6.046511627906977 ['29', '14', '9', '3'] 302.3255813953486
193 6.046511627906977 ['29', '14', '9', '3'] 302.3255813953486
194 6.046511627906977 ['29', '14', '9', '3'] 302.3255813953486
195 6.046511627906977 ['29', '14', '9', '3'] 302.3255813953486
196 6.046511627906977 ['29', '14', '9', '3'] 302.3255813953486
197 6.046511627906977 ['29', '14', '9', '3'] 302.3255813953486
198 6.046511627906977 ['29', '14', '9', '3'] 302.3255813953486
199 6.046511627906977 ['29', '14', '9', '3'] 302.3255813953486
