0 15.251851851851852 ['48', '127', '150', '149', '140', '43', '137', '6', '119', '16', '56', '126', '100', '58', '144'] 794.8814814814814
1 15.251851851851852 ['48', '127', '150', '149', '140', '43', '137', '6', '119', '16', '56', '126', '100', '58', '144'] 786.3407407407408
2 15.177777777777777 ['20', '150', '117', '46', '122', '138', '103', '71', '146', '139', '144', '16', '14', '124', '127'] 779.962962962963
3 15.177777777777777 ['20', '150', '117', '46', '122', '138', '103', '71', '146', '139', '144', '16', '14', '124', '127'] 774.2222222222226
4 15.125925925925927 ['120', '130', '100', '68', '149', '115', '135', '146', '128', '91', '103', '4', '36', '136', '140'] 768.4592592592597
5 15.007407407407408 ['104', '119', '138', '127', '56', '145', '147', '96', '149', '136', '140', '34', '78', '103', '29'] 763.5629629629632
6 14.607407407407408 ['127', '120', '130', '145', '140', '149', '108', '126', '128', '83', '136', '16', '150', '146', '119'] 758.5703703703705
7 14.607407407407408 ['127', '120', '130', '145', '140', '149', '108', '126', '128', '83', '136', '16', '150', '146', '119'] 752.7481481481484
8 14.607407407407408 ['127', '120', '130', '145', '140', '149', '108', '126', '128', '83', '136', '16', '150', '146', '119'] 747.8592592592591
9 14.548148148148147 ['145', '103', '126', '120', '140', '136', '109', '43', '119', '150', '144', '139', '143', '127', '101'] 742.3925925925925
10 14.518518518518519 ['150', '128', '136', '119', '149', '127', '115', '122', '138', '137', '129', '146', '140', '48', '120'] 737.9185185185183
11 14.444444444444445 ['138', '119', '149', '150', '127', '128', '125', '140', '129', '144', '146', '136', '33', '143', '83'] 733.0222222222225
12 14.444444444444445 ['138', '119', '149', '150', '127', '128', '125', '140', '129', '144', '146', '136', '33', '143', '83'] 730.3111111111107
13 14.37037037037037 ['150', '140', '122', '136', '127', '119', '128', '146', '126', '139', '115', '149', '103', '129', '144'] 726.8814814814817
14 14.303703703703704 ['150', '119', '83', '128', '127', '140', '137', '149', '144', '138', '129', '103', '139', '136', '146'] 724.2370370370365
15 14.281481481481482 ['136', '140', '127', '150', '119', '139', '149', '128', '108', '138', '124', '144', '109', '126', '146'] 721.7037037037046
16 14.244444444444444 ['129', '128', '150', '138', '149', '140', '127', '136', '144', '146', '119', '145', '134', '108', '139'] 718.8962962962962
17 14.192592592592593 ['146', '150', '140', '139', '128', '127', '136', '119', '108', '149', '138', '144', '129', '109', '134'] 716.5481481481476
18 14.192592592592593 ['146', '150', '140', '139', '128', '127', '136', '119', '108', '149', '138', '144', '129', '109', '134'] 714.7703703703711
19 14.192592592592593 ['146', '150', '140', '139', '128', '127', '136', '119', '108', '149', '138', '144', '129', '109', '134'] 713.2740740740741
20 14.170370370370371 ['150', '119', '127', '128', '149', '140', '138', '103', '136', '146', '139', '130', '144', '134', '129'] 711.711111111111
21 14.170370370370371 ['150', '119', '127', '128', '149', '140', '138', '103', '136', '146', '139', '130', '144', '134', '129'] 710.5037037037033
22 14.170370370370371 ['150', '119', '127', '128', '149', '140', '138', '103', '136', '146', '139', '130', '144', '134', '129'] 709.5185185185189
23 14.170370370370371 ['150', '119', '127', '128', '149', '140', '138', '103', '136', '146', '139', '130', '144', '134', '129'] 708.9629629629638
24 14.170370370370371 ['150', '119', '127', '128', '149', '140', '138', '103', '136', '146', '139', '130', '144', '134', '129'] 708.7555555555563
25 14.170370370370371 ['150', '119', '127', '128', '149', '140', '138', '103', '136', '146', '139', '130', '144', '134', '129'] 708.6222222222228
26 14.170370370370371 ['150', '119', '127', '128', '149', '140', '138', '103', '136', '146', '139', '130', '144', '134', '129'] 708.518518518519
27 14.170370370370371 ['150', '119', '127', '128', '149', '140', '138', '103', '136', '146', '139', '130', '144', '134', '129'] 708.518518518519
28 14.170370370370371 ['150', '119', '127', '128', '149', '140', '138', '103', '136', '146', '139', '130', '144', '134', '129'] 708.518518518519
29 14.170370370370371 ['150', '119', '127', '128', '149', '140', '138', '103', '136', '146', '139', '130', '144', '134', '129'] 708.518518518519
30 14.170370370370371 ['150', '119', '127', '128', '149', '140', '138', '103', '136', '146', '139', '130', '144', '134', '129'] 708.518518518519
31 14.170370370370371 ['150', '119', '127', '128', '149', '140', '138', '103', '136', '146', '139', '130', '144', '134', '129'] 708.518518518519
32 14.170370370370371 ['150', '119', '127', '128', '149', '140', '138', '103', '136', '146', '139', '130', '144', '134', '129'] 708.518518518519
33 14.170370370370371 ['150', '119', '127', '128', '149', '140', '138', '103', '136', '146', '139', '130', '144', '134', '129'] 708.518518518519
34 14.170370370370371 ['150', '119', '127', '128', '149', '140', '138', '103', '136', '146', '139', '130', '144', '134', '129'] 708.518518518519
35 14.170370370370371 ['150', '119', '127', '128', '149', '140', '138', '103', '136', '146', '139', '130', '144', '134', '129'] 708.518518518519
36 14.170370370370371 ['150', '119', '127', '128', '149', '140', '138', '103', '136', '146', '139', '130', '144', '134', '129'] 708.518518518519
37 14.170370370370371 ['150', '119', '127', '128', '149', '140', '138', '103', '136', '146', '139', '130', '144', '134', '129'] 708.518518518519
38 14.170370370370371 ['150', '119', '127', '128', '149', '140', '138', '103', '136', '146', '139', '130', '144', '134', '129'] 708.518518518519
39 14.170370370370371 ['150', '119', '127', '128', '149', '140', '138', '103', '136', '146', '139', '130', '144', '134', '129'] 708.518518518519
40 14.170370370370371 ['150', '119', '127', '128', '149', '140', '138', '103', '136', '146', '139', '130', '144', '134', '129'] 708.518518518519
41 14.170370370370371 ['150', '119', '127', '128', '149', '140', '138', '103', '136', '146', '139', '130', '144', '134', '129'] 708.518518518519
42 14.170370370370371 ['150', '119', '127', '128', '149', '140', '138', '103', '136', '146', '139', '130', '144', '134', '129'] 708.518518518519
43 14.170370370370371 ['150', '119', '127', '128', '149', '140', '138', '103', '136', '146', '139', '130', '144', '134', '129'] 708.518518518519
44 14.170370370370371 ['150', '119', '127', '128', '149', '140', '138', '103', '136', '146', '139', '130', '144', '134', '129'] 708.518518518519
45 14.170370370370371 ['150', '119', '127', '128', '149', '140', '138', '103', '136', '146', '139', '130', '144', '134', '129'] 708.518518518519
46 14.170370370370371 ['150', '119', '127', '128', '149', '140', '138', '103', '136', '146', '139', '130', '144', '134', '129'] 708.518518518519
47 14.170370370370371 ['150', '119', '127', '128', '149', '140', '138', '103', '136', '146', '139', '130', '144', '134', '129'] 708.518518518519
48 14.170370370370371 ['150', '119', '127', '128', '149', '140', '138', '103', '136', '146', '139', '130', '144', '134', '129'] 708.518518518519
49 14.170370370370371 ['150', '119', '127', '128', '149', '140', '138', '103', '136', '146', '139', '130', '144', '134', '129'] 708.518518518519
50 14.170370370370371 ['150', '119', '127', '128', '149', '140', '138', '103', '136', '146', '139', '130', '144', '134', '129'] 708.518518518519
51 14.170370370370371 ['150', '119', '127', '128', '149', '140', '138', '103', '136', '146', '139', '130', '144', '134', '129'] 708.518518518519
52 14.170370370370371 ['150', '119', '127', '128', '149', '140', '138', '103', '136', '146', '139', '130', '144', '134', '129'] 708.518518518519
53 14.170370370370371 ['150', '119', '127', '128', '149', '140', '138', '103', '136', '146', '139', '130', '144', '134', '129'] 708.518518518519
54 14.170370370370371 ['150', '119', '127', '128', '149', '140', '138', '103', '136', '146', '139', '130', '144', '134', '129'] 708.518518518519
55 14.170370370370371 ['150', '119', '127', '128', '149', '140', '138', '103', '136', '146', '139', '130', '144', '134', '129'] 708.518518518519
56 14.170370370370371 ['150', '119', '127', '128', '149', '140', '138', '103', '136', '146', '139', '130', '144', '134', '129'] 708.518518518519
57 14.170370370370371 ['150', '119', '127', '128', '149', '140', '138', '103', '136', '146', '139', '130', '144', '134', '129'] 708.518518518519
58 14.170370370370371 ['150', '119', '127', '128', '149', '140', '138', '103', '136', '146', '139', '130', '144', '134', '129'] 708.518518518519
59 14.170370370370371 ['150', '119', '127', '128', '149', '140', '138', '103', '136', '146', '139', '130', '144', '134', '129'] 708.518518518519
60 14.170370370370371 ['150', '119', '127', '128', '149', '140', '138', '103', '136', '146', '139', '130', '144', '134', '129'] 708.518518518519
61 14.170370370370371 ['150', '119', '127', '128', '149', '140', '138', '103', '136', '146', '139', '130', '144', '134', '129'] 708.518518518519
62 14.170370370370371 ['150', '119', '127', '128', '149', '140', '138', '103', '136', '146', '139', '130', '144', '134', '129'] 708.518518518519
63 14.170370370370371 ['150', '119', '127', '128', '149', '140', '138', '103', '136', '146', '139', '130', '144', '134', '129'] 708.518518518519
64 14.170370370370371 ['150', '119', '127', '128', '149', '140', '138', '103', '136', '146', '139', '130', '144', '134', '129'] 708.518518518519
65 14.170370370370371 ['150', '119', '127', '128', '149', '140', '138', '103', '136', '146', '139', '130', '144', '134', '129'] 708.518518518519
66 14.170370370370371 ['150', '119', '127', '128', '149', '140', '138', '103', '136', '146', '139', '130', '144', '134', '129'] 708.518518518519
67 14.170370370370371 ['150', '119', '127', '128', '149', '140', '138', '103', '136', '146', '139', '130', '144', '134', '129'] 708.518518518519
68 14.170370370370371 ['150', '119', '127', '128', '149', '140', '138', '103', '136', '146', '139', '130', '144', '134', '129'] 708.518518518519
69 14.170370370370371 ['150', '119', '127', '128', '149', '140', '138', '103', '136', '146', '139', '130', '144', '134', '129'] 708.518518518519
70 14.170370370370371 ['150', '119', '127', '128', '149', '140', '138', '103', '136', '146', '139', '130', '144', '134', '129'] 708.518518518519
71 14.170370370370371 ['150', '119', '127', '128', '149', '140', '138', '103', '136', '146', '139', '130', '144', '134', '129'] 708.518518518519
72 14.170370370370371 ['150', '119', '127', '128', '149', '140', '138', '103', '136', '146', '139', '130', '144', '134', '129'] 708.518518518519
73 14.170370370370371 ['150', '119', '127', '128', '149', '140', '138', '103', '136', '146', '139', '130', '144', '134', '129'] 708.518518518519
74 14.170370370370371 ['150', '119', '127', '128', '149', '140', '138', '103', '136', '146', '139', '130', '144', '134', '129'] 708.518518518519
75 14.170370370370371 ['150', '119', '127', '128', '149', '140', '138', '103', '136', '146', '139', '130', '144', '134', '129'] 708.518518518519
76 14.170370370370371 ['150', '119', '127', '128', '149', '140', '138', '103', '136', '146', '139', '130', '144', '134', '129'] 708.518518518519
77 14.170370370370371 ['150', '119', '127', '128', '149', '140', '138', '103', '136', '146', '139', '130', '144', '134', '129'] 708.518518518519
78 14.170370370370371 ['150', '119', '127', '128', '149', '140', '138', '103', '136', '146', '139', '130', '144', '134', '129'] 708.518518518519
79 14.170370370370371 ['150', '119', '127', '128', '149', '140', '138', '103', '136', '146', '139', '130', '144', '134', '129'] 708.518518518519
80 14.170370370370371 ['150', '119', '127', '128', '149', '140', '138', '103', '136', '146', '139', '130', '144', '134', '129'] 708.518518518519
81 14.170370370370371 ['150', '119', '127', '128', '149', '140', '138', '103', '136', '146', '139', '130', '144', '134', '129'] 708.518518518519
82 14.170370370370371 ['150', '119', '127', '128', '149', '140', '138', '103', '136', '146', '139', '130', '144', '134', '129'] 708.518518518519
83 14.170370370370371 ['150', '119', '127', '128', '149', '140', '138', '103', '136', '146', '139', '130', '144', '134', '129'] 708.518518518519
84 14.170370370370371 ['150', '119', '127', '128', '149', '140', '138', '103', '136', '146', '139', '130', '144', '134', '129'] 708.518518518519
85 14.170370370370371 ['150', '119', '127', '128', '149', '140', '138', '103', '136', '146', '139', '130', '144', '134', '129'] 708.518518518519
86 14.170370370370371 ['150', '119', '127', '128', '149', '140', '138', '103', '136', '146', '139', '130', '144', '134', '129'] 708.518518518519
87 14.170370370370371 ['150', '119', '127', '128', '149', '140', '138', '103', '136', '146', '139', '130', '144', '134', '129'] 708.518518518519
88 14.170370370370371 ['150', '119', '127', '128', '149', '140', '138', '103', '136', '146', '139', '130', '144', '134', '129'] 708.518518518519
89 14.170370370370371 ['150', '119', '127', '128', '149', '140', '138', '103', '136', '146', '139', '130', '144', '134', '129'] 708.518518518519
90 14.170370370370371 ['150', '119', '127', '128', '149', '140', '138', '103', '136', '146', '139', '130', '144', '134', '129'] 708.518518518519
91 14.170370370370371 ['150', '119', '127', '128', '149', '140', '138', '103', '136', '146', '139', '130', '144', '134', '129'] 708.518518518519
92 14.170370370370371 ['150', '119', '127', '128', '149', '140', '138', '103', '136', '146', '139', '130', '144', '134', '129'] 708.518518518519
93 14.170370370370371 ['150', '119', '127', '128', '149', '140', '138', '103', '136', '146', '139', '130', '144', '134', '129'] 708.518518518519
94 14.170370370370371 ['150', '119', '127', '128', '149', '140', '138', '103', '136', '146', '139', '130', '144', '134', '129'] 708.518518518519
95 14.170370370370371 ['150', '119', '127', '128', '149', '140', '138', '103', '136', '146', '139', '130', '144', '134', '129'] 708.518518518519
96 14.170370370370371 ['150', '119', '127', '128', '149', '140', '138', '103', '136', '146', '139', '130', '144', '134', '129'] 708.518518518519
97 14.170370370370371 ['150', '119', '127', '128', '149', '140', '138', '103', '136', '146', '139', '130', '144', '134', '129'] 708.518518518519
98 14.170370370370371 ['150', '119', '127', '128', '149', '140', '138', '103', '136', '146', '139', '130', '144', '134', '129'] 708.518518518519
99 14.170370370370371 ['150', '119', '127', '128', '149', '140', '138', '103', '136', '146', '139', '130', '144', '134', '129'] 708.518518518519
100 14.170370370370371 ['150', '119', '127', '128', '149', '140', '138', '103', '136', '146', '139', '130', '144', '134', '129'] 708.518518518519
101 14.170370370370371 ['150', '119', '127', '128', '149', '140', '138', '103', '136', '146', '139', '130', '144', '134', '129'] 708.518518518519
102 14.170370370370371 ['150', '119', '127', '128', '149', '140', '138', '103', '136', '146', '139', '130', '144', '134', '129'] 708.518518518519
103 14.170370370370371 ['150', '119', '127', '128', '149', '140', '138', '103', '136', '146', '139', '130', '144', '134', '129'] 708.518518518519
104 14.170370370370371 ['150', '119', '127', '128', '149', '140', '138', '103', '136', '146', '139', '130', '144', '134', '129'] 708.518518518519
105 14.170370370370371 ['150', '119', '127', '128', '149', '140', '138', '103', '136', '146', '139', '130', '144', '134', '129'] 708.518518518519
106 14.170370370370371 ['150', '119', '127', '128', '149', '140', '138', '103', '136', '146', '139', '130', '144', '134', '129'] 708.518518518519
107 14.170370370370371 ['150', '119', '127', '128', '149', '140', '138', '103', '136', '146', '139', '130', '144', '134', '129'] 708.518518518519
108 14.170370370370371 ['150', '119', '127', '128', '149', '140', '138', '103', '136', '146', '139', '130', '144', '134', '129'] 708.518518518519
109 14.170370370370371 ['150', '119', '127', '128', '149', '140', '138', '103', '136', '146', '139', '130', '144', '134', '129'] 708.518518518519
110 14.170370370370371 ['150', '119', '127', '128', '149', '140', '138', '103', '136', '146', '139', '130', '144', '134', '129'] 708.518518518519
111 14.170370370370371 ['150', '119', '127', '128', '149', '140', '138', '103', '136', '146', '139', '130', '144', '134', '129'] 708.518518518519
112 14.170370370370371 ['150', '119', '127', '128', '149', '140', '138', '103', '136', '146', '139', '130', '144', '134', '129'] 708.518518518519
113 14.170370370370371 ['150', '119', '127', '128', '149', '140', '138', '103', '136', '146', '139', '130', '144', '134', '129'] 708.518518518519
114 14.170370370370371 ['150', '119', '127', '128', '149', '140', '138', '103', '136', '146', '139', '130', '144', '134', '129'] 708.518518518519
115 14.170370370370371 ['150', '119', '127', '128', '149', '140', '138', '103', '136', '146', '139', '130', '144', '134', '129'] 708.518518518519
116 14.170370370370371 ['150', '119', '127', '128', '149', '140', '138', '103', '136', '146', '139', '130', '144', '134', '129'] 708.518518518519
117 14.170370370370371 ['150', '119', '127', '128', '149', '140', '138', '103', '136', '146', '139', '130', '144', '134', '129'] 708.518518518519
118 14.170370370370371 ['150', '119', '127', '128', '149', '140', '138', '103', '136', '146', '139', '130', '144', '134', '129'] 708.518518518519
119 14.170370370370371 ['150', '119', '127', '128', '149', '140', '138', '103', '136', '146', '139', '130', '144', '134', '129'] 708.518518518519
120 14.170370370370371 ['150', '119', '127', '128', '149', '140', '138', '103', '136', '146', '139', '130', '144', '134', '129'] 708.518518518519
121 14.170370370370371 ['150', '119', '127', '128', '149', '140', '138', '103', '136', '146', '139', '130', '144', '134', '129'] 708.518518518519
122 14.170370370370371 ['150', '119', '127', '128', '149', '140', '138', '103', '136', '146', '139', '130', '144', '134', '129'] 708.518518518519
123 14.170370370370371 ['150', '119', '127', '128', '149', '140', '138', '103', '136', '146', '139', '130', '144', '134', '129'] 708.518518518519
124 14.170370370370371 ['150', '119', '127', '128', '149', '140', '138', '103', '136', '146', '139', '130', '144', '134', '129'] 708.518518518519
125 14.170370370370371 ['150', '119', '127', '128', '149', '140', '138', '103', '136', '146', '139', '130', '144', '134', '129'] 708.518518518519
126 14.170370370370371 ['150', '119', '127', '128', '149', '140', '138', '103', '136', '146', '139', '130', '144', '134', '129'] 708.518518518519
127 14.170370370370371 ['150', '119', '127', '128', '149', '140', '138', '103', '136', '146', '139', '130', '144', '134', '129'] 708.518518518519
128 14.170370370370371 ['150', '119', '127', '128', '149', '140', '138', '103', '136', '146', '139', '130', '144', '134', '129'] 708.518518518519
129 14.170370370370371 ['150', '119', '127', '128', '149', '140', '138', '103', '136', '146', '139', '130', '144', '134', '129'] 708.518518518519
130 14.170370370370371 ['150', '119', '127', '128', '149', '140', '138', '103', '136', '146', '139', '130', '144', '134', '129'] 708.518518518519
131 14.170370370370371 ['150', '119', '127', '128', '149', '140', '138', '103', '136', '146', '139', '130', '144', '134', '129'] 708.518518518519
132 14.170370370370371 ['150', '119', '127', '128', '149', '140', '138', '103', '136', '146', '139', '130', '144', '134', '129'] 708.518518518519
133 14.170370370370371 ['150', '119', '127', '128', '149', '140', '138', '103', '136', '146', '139', '130', '144', '134', '129'] 708.518518518519
134 14.170370370370371 ['150', '119', '127', '128', '149', '140', '138', '103', '136', '146', '139', '130', '144', '134', '129'] 708.518518518519
135 14.170370370370371 ['150', '119', '127', '128', '149', '140', '138', '103', '136', '146', '139', '130', '144', '134', '129'] 708.518518518519
136 14.170370370370371 ['150', '119', '127', '128', '149', '140', '138', '103', '136', '146', '139', '130', '144', '134', '129'] 708.518518518519
137 14.170370370370371 ['150', '119', '127', '128', '149', '140', '138', '103', '136', '146', '139', '130', '144', '134', '129'] 708.518518518519
138 14.170370370370371 ['150', '119', '127', '128', '149', '140', '138', '103', '136', '146', '139', '130', '144', '134', '129'] 708.518518518519
139 14.170370370370371 ['150', '119', '127', '128', '149', '140', '138', '103', '136', '146', '139', '130', '144', '134', '129'] 708.518518518519
140 14.170370370370371 ['150', '119', '127', '128', '149', '140', '138', '103', '136', '146', '139', '130', '144', '134', '129'] 708.518518518519
141 14.170370370370371 ['150', '119', '127', '128', '149', '140', '138', '103', '136', '146', '139', '130', '144', '134', '129'] 708.518518518519
142 14.170370370370371 ['150', '119', '127', '128', '149', '140', '138', '103', '136', '146', '139', '130', '144', '134', '129'] 708.518518518519
143 14.170370370370371 ['150', '119', '127', '128', '149', '140', '138', '103', '136', '146', '139', '130', '144', '134', '129'] 708.518518518519
144 14.170370370370371 ['150', '119', '127', '128', '149', '140', '138', '103', '136', '146', '139', '130', '144', '134', '129'] 708.518518518519
145 14.170370370370371 ['150', '119', '127', '128', '149', '140', '138', '103', '136', '146', '139', '130', '144', '134', '129'] 708.518518518519
146 14.170370370370371 ['150', '119', '127', '128', '149', '140', '138', '103', '136', '146', '139', '130', '144', '134', '129'] 708.518518518519
147 14.170370370370371 ['150', '119', '127', '128', '149', '140', '138', '103', '136', '146', '139', '130', '144', '134', '129'] 708.518518518519
148 14.170370370370371 ['150', '119', '127', '128', '149', '140', '138', '103', '136', '146', '139', '130', '144', '134', '129'] 708.518518518519
149 14.170370370370371 ['150', '119', '127', '128', '149', '140', '138', '103', '136', '146', '139', '130', '144', '134', '129'] 708.518518518519
150 14.170370370370371 ['150', '119', '127', '128', '149', '140', '138', '103', '136', '146', '139', '130', '144', '134', '129'] 708.518518518519
151 14.170370370370371 ['150', '119', '127', '128', '149', '140', '138', '103', '136', '146', '139', '130', '144', '134', '129'] 708.518518518519
152 14.170370370370371 ['150', '119', '127', '128', '149', '140', '138', '103', '136', '146', '139', '130', '144', '134', '129'] 708.518518518519
153 14.170370370370371 ['150', '119', '127', '128', '149', '140', '138', '103', '136', '146', '139', '130', '144', '134', '129'] 708.518518518519
154 14.170370370370371 ['150', '119', '127', '128', '149', '140', '138', '103', '136', '146', '139', '130', '144', '134', '129'] 708.518518518519
155 14.170370370370371 ['150', '119', '127', '128', '149', '140', '138', '103', '136', '146', '139', '130', '144', '134', '129'] 708.518518518519
156 14.170370370370371 ['150', '119', '127', '128', '149', '140', '138', '103', '136', '146', '139', '130', '144', '134', '129'] 708.518518518519
157 14.170370370370371 ['150', '119', '127', '128', '149', '140', '138', '103', '136', '146', '139', '130', '144', '134', '129'] 708.518518518519
158 14.170370370370371 ['150', '119', '127', '128', '149', '140', '138', '103', '136', '146', '139', '130', '144', '134', '129'] 708.518518518519
159 14.170370370370371 ['150', '119', '127', '128', '149', '140', '138', '103', '136', '146', '139', '130', '144', '134', '129'] 708.518518518519
160 14.170370370370371 ['150', '119', '127', '128', '149', '140', '138', '103', '136', '146', '139', '130', '144', '134', '129'] 708.518518518519
161 14.170370370370371 ['150', '119', '127', '128', '149', '140', '138', '103', '136', '146', '139', '130', '144', '134', '129'] 708.518518518519
162 14.170370370370371 ['150', '119', '127', '128', '149', '140', '138', '103', '136', '146', '139', '130', '144', '134', '129'] 708.518518518519
163 14.170370370370371 ['150', '119', '127', '128', '149', '140', '138', '103', '136', '146', '139', '130', '144', '134', '129'] 708.518518518519
164 14.170370370370371 ['150', '119', '127', '128', '149', '140', '138', '103', '136', '146', '139', '130', '144', '134', '129'] 708.518518518519
165 14.170370370370371 ['150', '119', '127', '128', '149', '140', '138', '103', '136', '146', '139', '130', '144', '134', '129'] 708.518518518519
166 14.170370370370371 ['150', '119', '127', '128', '149', '140', '138', '103', '136', '146', '139', '130', '144', '134', '129'] 708.518518518519
167 14.170370370370371 ['150', '119', '127', '128', '149', '140', '138', '103', '136', '146', '139', '130', '144', '134', '129'] 708.518518518519
168 14.162962962962963 ['103', '127', '150', '134', '139', '144', '149', '138', '119', '140', '136', '146', '128', '137', '124'] 708.5111111111117
169 14.162962962962963 ['103', '127', '150', '134', '139', '144', '149', '138', '119', '140', '136', '146', '128', '137', '124'] 708.5111111111117
170 14.162962962962963 ['103', '127', '150', '134', '139', '144', '149', '138', '119', '140', '136', '146', '128', '137', '124'] 708.4888888888895
171 14.162962962962963 ['103', '127', '150', '134', '139', '144', '149', '138', '119', '140', '136', '146', '128', '137', '124'] 708.4592592592599
172 14.162962962962963 ['103', '127', '150', '134', '139', '144', '149', '138', '119', '140', '136', '146', '128', '137', '124'] 708.3777777777783
173 14.162962962962963 ['103', '127', '150', '134', '139', '144', '149', '138', '119', '140', '136', '146', '128', '137', '124'] 708.2370370370375
174 14.162962962962963 ['103', '127', '150', '134', '139', '144', '149', '138', '119', '140', '136', '146', '128', '137', '124'] 708.1481481481485
175 14.162962962962963 ['103', '127', '150', '134', '139', '144', '149', '138', '119', '140', '136', '146', '128', '137', '124'] 708.1481481481485
176 14.162962962962963 ['103', '127', '150', '134', '139', '144', '149', '138', '119', '140', '136', '146', '128', '137', '124'] 708.1481481481485
177 14.162962962962963 ['103', '127', '150', '134', '139', '144', '149', '138', '119', '140', '136', '146', '128', '137', '124'] 708.1481481481485
178 14.162962962962963 ['103', '127', '150', '134', '139', '144', '149', '138', '119', '140', '136', '146', '128', '137', '124'] 708.1481481481485
179 14.162962962962963 ['103', '127', '150', '134', '139', '144', '149', '138', '119', '140', '136', '146', '128', '137', '124'] 708.1481481481485
180 14.162962962962963 ['103', '127', '150', '134', '139', '144', '149', '138', '119', '140', '136', '146', '128', '137', '124'] 708.1481481481485
181 14.162962962962963 ['103', '127', '150', '134', '139', '144', '149', '138', '119', '140', '136', '146', '128', '137', '124'] 708.1481481481485
182 14.162962962962963 ['103', '127', '150', '134', '139', '144', '149', '138', '119', '140', '136', '146', '128', '137', '124'] 708.1481481481485
183 14.162962962962963 ['103', '127', '150', '134', '139', '144', '149', '138', '119', '140', '136', '146', '128', '137', '124'] 708.1481481481485
184 14.162962962962963 ['103', '127', '150', '134', '139', '144', '149', '138', '119', '140', '136', '146', '128', '137', '124'] 708.1481481481485
185 14.162962962962963 ['103', '127', '150', '134', '139', '144', '149', '138', '119', '140', '136', '146', '128', '137', '124'] 708.1481481481485
186 14.162962962962963 ['103', '127', '150', '134', '139', '144', '149', '138', '119', '140', '136', '146', '128', '137', '124'] 708.1481481481485
187 14.162962962962963 ['103', '127', '150', '134', '139', '144', '149', '138', '119', '140', '136', '146', '128', '137', '124'] 708.1481481481485
188 14.162962962962963 ['103', '127', '150', '134', '139', '144', '149', '138', '119', '140', '136', '146', '128', '137', '124'] 708.1481481481485
189 14.162962962962963 ['103', '127', '150', '134', '139', '144', '149', '138', '119', '140', '136', '146', '128', '137', '124'] 708.1481481481485
190 14.162962962962963 ['103', '127', '150', '134', '139', '144', '149', '138', '119', '140', '136', '146', '128', '137', '124'] 708.1481481481485
191 14.162962962962963 ['103', '127', '150', '134', '139', '144', '149', '138', '119', '140', '136', '146', '128', '137', '124'] 708.1481481481485
192 14.162962962962963 ['103', '127', '150', '134', '139', '144', '149', '138', '119', '140', '136', '146', '128', '137', '124'] 708.1481481481485
193 14.162962962962963 ['103', '127', '150', '134', '139', '144', '149', '138', '119', '140', '136', '146', '128', '137', '124'] 708.1481481481485
194 14.162962962962963 ['103', '127', '150', '134', '139', '144', '149', '138', '119', '140', '136', '146', '128', '137', '124'] 708.1481481481485
195 14.162962962962963 ['103', '127', '150', '134', '139', '144', '149', '138', '119', '140', '136', '146', '128', '137', '124'] 708.1481481481485
196 14.162962962962963 ['103', '127', '150', '134', '139', '144', '149', '138', '119', '140', '136', '146', '128', '137', '124'] 708.1481481481485
197 14.162962962962963 ['103', '127', '150', '134', '139', '144', '149', '138', '119', '140', '136', '146', '128', '137', '124'] 708.1481481481485
198 14.162962962962963 ['103', '127', '150', '134', '139', '144', '149', '138', '119', '140', '136', '146', '128', '137', '124'] 708.1481481481485
199 14.162962962962963 ['103', '127', '150', '134', '139', '144', '149', '138', '119', '140', '136', '146', '128', '137', '124'] 708.1481481481485
