0 25.209302325581394 ['14', '35', '9', '7'] 1341.4883720930225
1 25.186046511627907 ['9', '29', '14', '37'] 1320.0930232558142
2 24.86046511627907 ['9', '29', '14', '31'] 1302.302325581395
3 24.86046511627907 ['9', '29', '14', '31'] 1288.3488372093022
4 24.41860465116279 ['31', '9', '40', '14'] 1269.069767441861
5 24.41860465116279 ['31', '9', '40', '14'] 1252.9999999999984
6 24.41860465116279 ['31', '9', '40', '14'] 1239.0930232558144
7 24.41860465116279 ['31', '9', '40', '14'] 1231.9534883720933
8 24.41860465116279 ['31', '9', '40', '14'] 1224.5116279069775
9 24.41860465116279 ['31', '9', '40', '14'] 1221.7674418604665
10 24.41860465116279 ['31', '9', '40', '14'] 1220.9302325581393
11 24.41860465116279 ['31', '9', '40', '14'] 1220.9302325581393
12 24.41860465116279 ['31', '9', '40', '14'] 1220.9302325581393
13 24.41860465116279 ['31', '9', '40', '14'] 1220.9302325581393
14 24.41860465116279 ['31', '9', '40', '14'] 1220.9302325581393
15 24.41860465116279 ['31', '9', '40', '14'] 1220.9302325581393
16 24.41860465116279 ['31', '9', '40', '14'] 1220.9302325581393
17 24.41860465116279 ['31', '9', '40', '14'] 1220.9302325581393
18 24.41860465116279 ['31', '9', '40', '14'] 1220.9302325581393
19 24.41860465116279 ['31', '9', '40', '14'] 1220.9302325581393
20 24.41860465116279 ['31', '9', '40', '14'] 1220.9302325581393
21 24.41860465116279 ['31', '9', '40', '14'] 1220.9302325581393
22 24.41860465116279 ['31', '9', '40', '14'] 1220.9302325581393
23 24.41860465116279 ['31', '9', '40', '14'] 1220.9302325581393
24 24.41860465116279 ['31', '9', '40', '14'] 1220.9302325581393
25 24.41860465116279 ['31', '9', '40', '14'] 1220.9302325581393
26 24.41860465116279 ['31', '9', '40', '14'] 1220.9302325581393
27 24.41860465116279 ['31', '9', '40', '14'] 1220.9302325581393
28 24.41860465116279 ['31', '9', '40', '14'] 1220.9302325581393
29 24.41860465116279 ['31', '9', '40', '14'] 1220.9302325581393
30 24.41860465116279 ['31', '9', '40', '14'] 1220.9302325581393
31 24.41860465116279 ['31', '9', '40', '14'] 1220.9302325581393
32 24.41860465116279 ['31', '9', '40', '14'] 1220.9302325581393
33 24.41860465116279 ['31', '9', '40', '14'] 1220.9302325581393
34 24.41860465116279 ['31', '9', '40', '14'] 1220.9302325581393
35 24.41860465116279 ['31', '9', '40', '14'] 1220.9302325581393
36 24.41860465116279 ['31', '9', '40', '14'] 1220.9302325581393
37 24.41860465116279 ['31', '9', '40', '14'] 1220.9302325581393
38 24.41860465116279 ['31', '9', '40', '14'] 1220.9302325581393
39 24.41860465116279 ['31', '9', '40', '14'] 1220.9302325581393
40 24.41860465116279 ['31', '9', '40', '14'] 1220.9302325581393
41 24.41860465116279 ['31', '9', '40', '14'] 1220.9302325581393
42 24.41860465116279 ['31', '9', '40', '14'] 1220.9302325581393
43 24.41860465116279 ['31', '9', '40', '14'] 1220.9302325581393
44 24.41860465116279 ['31', '9', '40', '14'] 1220.9302325581393
45 24.41860465116279 ['31', '9', '40', '14'] 1220.9302325581393
46 24.41860465116279 ['31', '9', '40', '14'] 1220.9302325581393
47 24.41860465116279 ['31', '9', '40', '14'] 1220.9302325581393
48 24.41860465116279 ['31', '9', '40', '14'] 1220.9302325581393
49 24.41860465116279 ['31', '9', '40', '14'] 1220.9302325581393
50 24.41860465116279 ['31', '9', '40', '14'] 1220.9302325581393
51 24.41860465116279 ['31', '9', '40', '14'] 1220.9302325581393
52 24.41860465116279 ['31', '9', '40', '14'] 1220.9302325581393
53 24.41860465116279 ['31', '9', '40', '14'] 1220.9302325581393
54 24.41860465116279 ['31', '9', '40', '14'] 1220.9302325581393
55 24.41860465116279 ['31', '9', '40', '14'] 1220.9302325581393
56 24.41860465116279 ['31', '9', '40', '14'] 1220.9302325581393
57 24.41860465116279 ['31', '9', '40', '14'] 1220.9302325581393
58 24.41860465116279 ['31', '9', '40', '14'] 1220.9302325581393
59 24.41860465116279 ['31', '9', '40', '14'] 1220.9302325581393
60 24.41860465116279 ['31', '9', '40', '14'] 1220.9302325581393
61 24.41860465116279 ['31', '9', '40', '14'] 1220.9302325581393
62 24.41860465116279 ['31', '9', '40', '14'] 1220.9302325581393
63 24.41860465116279 ['31', '9', '40', '14'] 1220.9302325581393
64 24.41860465116279 ['31', '9', '40', '14'] 1220.9302325581393
65 24.41860465116279 ['31', '9', '40', '14'] 1220.9302325581393
66 24.41860465116279 ['31', '9', '40', '14'] 1220.9302325581393
67 24.41860465116279 ['31', '9', '40', '14'] 1220.9302325581393
68 24.41860465116279 ['31', '9', '40', '14'] 1220.9302325581393
69 24.41860465116279 ['31', '9', '40', '14'] 1220.9302325581393
70 24.41860465116279 ['31', '9', '40', '14'] 1220.9302325581393
71 24.41860465116279 ['31', '9', '40', '14'] 1220.9302325581393
72 24.41860465116279 ['31', '9', '40', '14'] 1220.9302325581393
73 24.41860465116279 ['31', '9', '40', '14'] 1220.9302325581393
74 24.41860465116279 ['31', '9', '40', '14'] 1220.9302325581393
75 24.41860465116279 ['31', '9', '40', '14'] 1220.9302325581393
76 24.41860465116279 ['31', '9', '40', '14'] 1220.9302325581393
77 24.41860465116279 ['31', '9', '40', '14'] 1220.9302325581393
78 24.41860465116279 ['31', '9', '40', '14'] 1220.9302325581393
79 24.41860465116279 ['31', '9', '40', '14'] 1220.9302325581393
80 24.41860465116279 ['31', '9', '40', '14'] 1220.9302325581393
81 24.41860465116279 ['31', '9', '40', '14'] 1220.9302325581393
82 24.41860465116279 ['31', '9', '40', '14'] 1220.9302325581393
83 24.41860465116279 ['31', '9', '40', '14'] 1220.9302325581393
84 24.41860465116279 ['31', '9', '40', '14'] 1220.9302325581393
85 24.41860465116279 ['31', '9', '40', '14'] 1220.9302325581393
86 24.41860465116279 ['31', '9', '40', '14'] 1220.9302325581393
87 24.41860465116279 ['31', '9', '40', '14'] 1220.9302325581393
88 24.41860465116279 ['31', '9', '40', '14'] 1220.9302325581393
89 24.41860465116279 ['31', '9', '40', '14'] 1220.9302325581393
90 24.41860465116279 ['31', '9', '40', '14'] 1220.9302325581393
91 24.41860465116279 ['31', '9', '40', '14'] 1220.9302325581393
92 24.41860465116279 ['31', '9', '40', '14'] 1220.9302325581393
93 24.41860465116279 ['31', '9', '40', '14'] 1220.9302325581393
94 24.41860465116279 ['31', '9', '40', '14'] 1220.9302325581393
95 24.41860465116279 ['31', '9', '40', '14'] 1220.9302325581393
96 24.41860465116279 ['31', '9', '40', '14'] 1220.9302325581393
97 24.41860465116279 ['31', '9', '40', '14'] 1220.9302325581393
98 24.41860465116279 ['31', '9', '40', '14'] 1220.9302325581393
99 24.41860465116279 ['31', '9', '40', '14'] 1220.9302325581393
100 24.41860465116279 ['31', '9', '40', '14'] 1220.9302325581393
101 24.41860465116279 ['31', '9', '40', '14'] 1220.9302325581393
102 24.41860465116279 ['31', '9', '40', '14'] 1220.9302325581393
103 24.41860465116279 ['31', '9', '40', '14'] 1220.9302325581393
104 24.41860465116279 ['31', '9', '40', '14'] 1220.9302325581393
105 24.41860465116279 ['31', '9', '40', '14'] 1220.9302325581393
106 24.41860465116279 ['31', '9', '40', '14'] 1220.9302325581393
107 24.41860465116279 ['31', '9', '40', '14'] 1220.9302325581393
108 24.41860465116279 ['31', '9', '40', '14'] 1220.9302325581393
109 24.41860465116279 ['31', '9', '40', '14'] 1220.9302325581393
110 24.41860465116279 ['31', '9', '40', '14'] 1220.9302325581393
111 24.41860465116279 ['31', '9', '40', '14'] 1220.9302325581393
112 24.41860465116279 ['31', '9', '40', '14'] 1220.9302325581393
113 24.41860465116279 ['31', '9', '40', '14'] 1220.9302325581393
114 24.41860465116279 ['31', '9', '40', '14'] 1220.9302325581393
115 24.41860465116279 ['31', '9', '40', '14'] 1220.9302325581393
116 24.41860465116279 ['31', '9', '40', '14'] 1220.9302325581393
117 24.41860465116279 ['31', '9', '40', '14'] 1220.9302325581393
118 24.41860465116279 ['31', '9', '40', '14'] 1220.9302325581393
119 24.41860465116279 ['31', '9', '40', '14'] 1220.9302325581393
120 24.41860465116279 ['31', '9', '40', '14'] 1220.9302325581393
121 24.41860465116279 ['31', '9', '40', '14'] 1220.9302325581393
122 24.41860465116279 ['31', '9', '40', '14'] 1220.9302325581393
123 24.41860465116279 ['31', '9', '40', '14'] 1220.9302325581393
124 24.41860465116279 ['31', '9', '40', '14'] 1220.9302325581393
125 24.41860465116279 ['31', '9', '40', '14'] 1220.9302325581393
126 24.41860465116279 ['31', '9', '40', '14'] 1220.9302325581393
127 24.41860465116279 ['31', '9', '40', '14'] 1220.9302325581393
128 24.41860465116279 ['31', '9', '40', '14'] 1220.9302325581393
129 24.41860465116279 ['31', '9', '40', '14'] 1220.9302325581393
130 24.41860465116279 ['31', '9', '40', '14'] 1220.9302325581393
131 24.41860465116279 ['31', '9', '40', '14'] 1220.9302325581393
132 24.41860465116279 ['31', '9', '40', '14'] 1220.9302325581393
133 24.41860465116279 ['31', '9', '40', '14'] 1220.9302325581393
134 24.41860465116279 ['31', '9', '40', '14'] 1220.9302325581393
135 24.41860465116279 ['31', '9', '40', '14'] 1220.9302325581393
136 24.41860465116279 ['31', '9', '40', '14'] 1220.9302325581393
137 24.41860465116279 ['31', '9', '40', '14'] 1220.9302325581393
138 24.41860465116279 ['31', '9', '40', '14'] 1220.9302325581393
139 24.41860465116279 ['31', '9', '40', '14'] 1220.9302325581393
140 24.41860465116279 ['31', '9', '40', '14'] 1220.9302325581393
141 24.41860465116279 ['31', '9', '40', '14'] 1220.9302325581393
142 24.41860465116279 ['31', '9', '40', '14'] 1220.9302325581393
143 24.41860465116279 ['31', '9', '40', '14'] 1220.9302325581393
144 24.41860465116279 ['31', '9', '40', '14'] 1220.9302325581393
145 24.41860465116279 ['31', '9', '40', '14'] 1220.9302325581393
146 24.41860465116279 ['31', '9', '40', '14'] 1220.9302325581393
147 24.41860465116279 ['31', '9', '40', '14'] 1220.9302325581393
148 24.41860465116279 ['31', '9', '40', '14'] 1220.9302325581393
149 24.41860465116279 ['31', '9', '40', '14'] 1220.9302325581393
150 24.41860465116279 ['31', '9', '40', '14'] 1220.9302325581393
151 24.41860465116279 ['31', '9', '40', '14'] 1220.9302325581393
152 24.41860465116279 ['31', '9', '40', '14'] 1220.9302325581393
153 24.41860465116279 ['31', '9', '40', '14'] 1220.9302325581393
154 24.41860465116279 ['31', '9', '40', '14'] 1220.9302325581393
155 24.41860465116279 ['31', '9', '40', '14'] 1220.9302325581393
156 24.41860465116279 ['31', '9', '40', '14'] 1220.9302325581393
157 24.41860465116279 ['31', '9', '40', '14'] 1220.9302325581393
158 24.41860465116279 ['31', '9', '40', '14'] 1220.9302325581393
159 24.41860465116279 ['31', '9', '40', '14'] 1220.9302325581393
160 24.41860465116279 ['31', '9', '40', '14'] 1220.9302325581393
161 24.41860465116279 ['31', '9', '40', '14'] 1220.9302325581393
162 24.41860465116279 ['31', '9', '40', '14'] 1220.9302325581393
163 24.41860465116279 ['31', '9', '40', '14'] 1220.9302325581393
164 24.41860465116279 ['31', '9', '40', '14'] 1220.9302325581393
165 24.41860465116279 ['31', '9', '40', '14'] 1220.9302325581393
166 24.41860465116279 ['31', '9', '40', '14'] 1220.9302325581393
167 24.41860465116279 ['31', '9', '40', '14'] 1220.9302325581393
168 24.41860465116279 ['31', '9', '40', '14'] 1220.9302325581393
169 24.41860465116279 ['31', '9', '40', '14'] 1220.9302325581393
170 24.41860465116279 ['31', '9', '40', '14'] 1220.9302325581393
171 24.41860465116279 ['31', '9', '40', '14'] 1220.9302325581393
172 24.41860465116279 ['31', '9', '40', '14'] 1220.9302325581393
173 24.41860465116279 ['31', '9', '40', '14'] 1220.9302325581393
174 24.41860465116279 ['31', '9', '40', '14'] 1220.9302325581393
175 24.41860465116279 ['31', '9', '40', '14'] 1220.9302325581393
176 24.41860465116279 ['31', '9', '40', '14'] 1220.9302325581393
177 24.41860465116279 ['31', '9', '40', '14'] 1220.9302325581393
178 24.41860465116279 ['31', '9', '40', '14'] 1220.9302325581393
179 24.41860465116279 ['31', '9', '40', '14'] 1220.9302325581393
180 24.41860465116279 ['31', '9', '40', '14'] 1220.9302325581393
181 24.41860465116279 ['31', '9', '40', '14'] 1220.9302325581393
182 24.41860465116279 ['31', '9', '40', '14'] 1220.9302325581393
183 24.41860465116279 ['31', '9', '40', '14'] 1220.9302325581393
184 24.41860465116279 ['31', '9', '40', '14'] 1220.9302325581393
185 24.41860465116279 ['31', '9', '40', '14'] 1220.9302325581393
186 24.41860465116279 ['31', '9', '40', '14'] 1220.9302325581393
187 24.41860465116279 ['31', '9', '40', '14'] 1220.9302325581393
188 24.41860465116279 ['31', '9', '40', '14'] 1220.9302325581393
189 24.41860465116279 ['31', '9', '40', '14'] 1220.9302325581393
190 24.41860465116279 ['31', '9', '40', '14'] 1220.9302325581393
191 24.41860465116279 ['31', '9', '40', '14'] 1220.9302325581393
192 24.41860465116279 ['31', '9', '40', '14'] 1220.9302325581393
193 24.41860465116279 ['31', '9', '40', '14'] 1220.9302325581393
194 24.41860465116279 ['31', '9', '40', '14'] 1220.9302325581393
195 24.41860465116279 ['31', '9', '40', '14'] 1220.9302325581393
196 24.41860465116279 ['31', '9', '40', '14'] 1220.9302325581393
197 24.41860465116279 ['31', '9', '40', '14'] 1220.9302325581393
198 24.41860465116279 ['31', '9', '40', '14'] 1220.9302325581393
199 24.41860465116279 ['31', '9', '40', '14'] 1220.9302325581393
