0 14.377777777777778 ['145', '100', '118', '138', '107', '84', '116', '129', '50', '94', '77', '75', '112', '146', '134'] 744.8296296296296
1 14.377777777777778 ['145', '100', '118', '138', '107', '84', '116', '129', '50', '94', '77', '75', '112', '146', '134'] 736.4296296296297
2 14.377777777777778 ['145', '100', '118', '138', '107', '84', '116', '129', '50', '94', '77', '75', '112', '146', '134'] 729.3851851851852
3 14.214814814814815 ['100', '138', '76', '67', '145', '134', '150', '12', '148', '117', '15', '116', '118', '48', '75'] 724.9111111111113
4 14.177777777777777 ['116', '117', '37', '126', '128', '20', '83', '67', '131', '97', '72', '120', '130', '105', '150'] 720.0962962962968
5 14.074074074074074 ['105', '116', '97', '37', '128', '131', '126', '117', '120', '67', '52', '150', '90', '143', '79'] 715.9999999999998
6 13.97037037037037 ['128', '148', '116', '79', '109', '117', '105', '126', '124', '113', '67', '131', '97', '149', '114'] 711.6814814814818
7 13.933333333333334 ['97', '116', '148', '126', '128', '117', '79', '131', '114', '130', '71', '98', '124', '138', '90'] 706.985185185185
8 13.8 ['117', '79', '116', '97', '114', '148', '128', '83', '129', '100', '145', '105', '124', '149', '131'] 703.0370370370372
9 13.755555555555556 ['126', '117', '48', '128', '148', '116', '131', '145', '122', '100', '129', '72', '150', '124', '149'] 698.6962962962965
10 13.733333333333333 ['124', '138', '116', '126', '113', '148', '114', '149', '128', '117', '97', '146', '122', '131', '129'] 695.2962962962962
11 13.681481481481482 ['148', '149', '146', '113', '116', '128', '126', '117', '122', '124', '131', '114', '79', '138', '129'] 691.7851851851858
12 13.637037037037038 ['126', '146', '116', '145', '149', '114', '117', '138', '100', '148', '48', '141', '140', '128', '79'] 688.7185185185182
13 13.592592592592593 ['124', '100', '126', '116', '79', '117', '128', '145', '148', '138', '141', '109', '130', '149', '114'] 686.5481481481487
14 13.503703703703703 ['79', '124', '128', '149', '117', '131', '148', '116', '130', '146', '129', '141', '138', '145', '114'] 683.8148148148148
15 13.503703703703703 ['79', '124', '128', '149', '117', '131', '148', '116', '130', '146', '129', '141', '138', '145', '114'] 681.2888888888884
16 13.503703703703703 ['79', '124', '128', '149', '117', '131', '148', '116', '130', '146', '129', '141', '138', '145', '114'] 679.5259259259266
17 13.488888888888889 ['141', '114', '148', '79', '128', '131', '149', '130', '117', '138', '116', '124', '150', '126', '145'] 677.7481481481482
18 13.488888888888889 ['141', '114', '148', '79', '128', '131', '149', '130', '117', '138', '116', '124', '150', '126', '145'] 676.5037037037035
19 13.481481481481481 ['148', '138', '130', '79', '126', '116', '124', '128', '145', '146', '149', '117', '150', '141', '131'] 675.496296296296
20 13.481481481481481 ['148', '138', '130', '79', '126', '116', '124', '128', '145', '146', '149', '117', '150', '141', '131'] 675.0370370370365
21 13.474074074074075 ['145', '128', '150', '141', '116', '148', '138', '149', '117', '124', '79', '129', '130', '126', '146'] 674.6444444444436
22 13.474074074074075 ['145', '128', '150', '141', '116', '148', '138', '149', '117', '124', '79', '129', '130', '126', '146'] 674.2148148148152
23 13.466666666666667 ['79', '116', '128', '117', '130', '150', '148', '146', '124', '149', '138', '141', '145', '131', '114'] 673.9333333333337
24 13.466666666666667 ['79', '116', '128', '117', '130', '150', '148', '146', '124', '149', '138', '141', '145', '131', '114'] 673.7333333333335
25 13.466666666666667 ['79', '116', '128', '117', '130', '150', '148', '146', '124', '149', '138', '141', '145', '131', '114'] 673.6666666666667
26 13.466666666666667 ['79', '116', '128', '117', '130', '150', '148', '146', '124', '149', '138', '141', '145', '131', '114'] 673.6296296296297
27 13.466666666666667 ['79', '116', '128', '117', '130', '150', '148', '146', '124', '149', '138', '141', '145', '131', '114'] 673.5111111111111
28 13.466666666666667 ['79', '116', '128', '117', '130', '150', '148', '146', '124', '149', '138', '141', '145', '131', '114'] 673.385185185185
29 13.466666666666667 ['79', '116', '128', '117', '130', '150', '148', '146', '124', '149', '138', '141', '145', '131', '114'] 673.3333333333331
30 13.466666666666667 ['79', '116', '128', '117', '130', '150', '148', '146', '124', '149', '138', '141', '145', '131', '114'] 673.3333333333331
31 13.466666666666667 ['79', '116', '128', '117', '130', '150', '148', '146', '124', '149', '138', '141', '145', '131', '114'] 673.3333333333331
32 13.466666666666667 ['79', '116', '128', '117', '130', '150', '148', '146', '124', '149', '138', '141', '145', '131', '114'] 673.3333333333331
33 13.466666666666667 ['79', '116', '128', '117', '130', '150', '148', '146', '124', '149', '138', '141', '145', '131', '114'] 673.3333333333331
34 13.466666666666667 ['79', '116', '128', '117', '130', '150', '148', '146', '124', '149', '138', '141', '145', '131', '114'] 673.3333333333331
35 13.466666666666667 ['79', '116', '128', '117', '130', '150', '148', '146', '124', '149', '138', '141', '145', '131', '114'] 673.3333333333331
36 13.466666666666667 ['79', '116', '128', '117', '130', '150', '148', '146', '124', '149', '138', '141', '145', '131', '114'] 673.3333333333331
37 13.466666666666667 ['79', '116', '128', '117', '130', '150', '148', '146', '124', '149', '138', '141', '145', '131', '114'] 673.3333333333331
38 13.466666666666667 ['79', '116', '128', '117', '130', '150', '148', '146', '124', '149', '138', '141', '145', '131', '114'] 673.3333333333331
39 13.466666666666667 ['79', '116', '128', '117', '130', '150', '148', '146', '124', '149', '138', '141', '145', '131', '114'] 673.3333333333331
40 13.466666666666667 ['79', '116', '128', '117', '130', '150', '148', '146', '124', '149', '138', '141', '145', '131', '114'] 673.3333333333331
41 13.466666666666667 ['79', '116', '128', '117', '130', '150', '148', '146', '124', '149', '138', '141', '145', '131', '114'] 673.3333333333331
42 13.466666666666667 ['79', '116', '128', '117', '130', '150', '148', '146', '124', '149', '138', '141', '145', '131', '114'] 673.3333333333331
43 13.466666666666667 ['79', '116', '128', '117', '130', '150', '148', '146', '124', '149', '138', '141', '145', '131', '114'] 673.3333333333331
44 13.466666666666667 ['79', '116', '128', '117', '130', '150', '148', '146', '124', '149', '138', '141', '145', '131', '114'] 673.3333333333331
45 13.466666666666667 ['79', '116', '128', '117', '130', '150', '148', '146', '124', '149', '138', '141', '145', '131', '114'] 673.3333333333331
46 13.466666666666667 ['79', '116', '128', '117', '130', '150', '148', '146', '124', '149', '138', '141', '145', '131', '114'] 673.3333333333331
47 13.466666666666667 ['79', '116', '128', '117', '130', '150', '148', '146', '124', '149', '138', '141', '145', '131', '114'] 673.3333333333331
48 13.466666666666667 ['79', '116', '128', '117', '130', '150', '148', '146', '124', '149', '138', '141', '145', '131', '114'] 673.3333333333331
49 13.466666666666667 ['79', '116', '128', '117', '130', '150', '148', '146', '124', '149', '138', '141', '145', '131', '114'] 673.3333333333331
50 13.466666666666667 ['79', '116', '128', '117', '130', '150', '148', '146', '124', '149', '138', '141', '145', '131', '114'] 673.3333333333331
51 13.466666666666667 ['79', '116', '128', '117', '130', '150', '148', '146', '124', '149', '138', '141', '145', '131', '114'] 673.3333333333331
52 13.466666666666667 ['79', '116', '128', '117', '130', '150', '148', '146', '124', '149', '138', '141', '145', '131', '114'] 673.3333333333331
53 13.466666666666667 ['79', '116', '128', '117', '130', '150', '148', '146', '124', '149', '138', '141', '145', '131', '114'] 673.3333333333331
54 13.466666666666667 ['79', '116', '128', '117', '130', '150', '148', '146', '124', '149', '138', '141', '145', '131', '114'] 673.3333333333331
55 13.466666666666667 ['79', '116', '128', '117', '130', '150', '148', '146', '124', '149', '138', '141', '145', '131', '114'] 673.3333333333331
56 13.466666666666667 ['79', '116', '128', '117', '130', '150', '148', '146', '124', '149', '138', '141', '145', '131', '114'] 673.3333333333331
57 13.466666666666667 ['79', '116', '128', '117', '130', '150', '148', '146', '124', '149', '138', '141', '145', '131', '114'] 673.3333333333331
58 13.466666666666667 ['79', '116', '128', '117', '130', '150', '148', '146', '124', '149', '138', '141', '145', '131', '114'] 673.3333333333331
59 13.466666666666667 ['79', '116', '128', '117', '130', '150', '148', '146', '124', '149', '138', '141', '145', '131', '114'] 673.3333333333331
60 13.466666666666667 ['79', '116', '128', '117', '130', '150', '148', '146', '124', '149', '138', '141', '145', '131', '114'] 673.3333333333331
61 13.466666666666667 ['79', '116', '128', '117', '130', '150', '148', '146', '124', '149', '138', '141', '145', '131', '114'] 673.3333333333331
62 13.466666666666667 ['79', '116', '128', '117', '130', '150', '148', '146', '124', '149', '138', '141', '145', '131', '114'] 673.3333333333331
63 13.466666666666667 ['79', '116', '128', '117', '130', '150', '148', '146', '124', '149', '138', '141', '145', '131', '114'] 673.3333333333331
64 13.466666666666667 ['79', '116', '128', '117', '130', '150', '148', '146', '124', '149', '138', '141', '145', '131', '114'] 673.3333333333331
65 13.466666666666667 ['79', '116', '128', '117', '130', '150', '148', '146', '124', '149', '138', '141', '145', '131', '114'] 673.3333333333331
66 13.466666666666667 ['79', '116', '128', '117', '130', '150', '148', '146', '124', '149', '138', '141', '145', '131', '114'] 673.3333333333331
67 13.466666666666667 ['79', '116', '128', '117', '130', '150', '148', '146', '124', '149', '138', '141', '145', '131', '114'] 673.3333333333331
68 13.466666666666667 ['79', '116', '128', '117', '130', '150', '148', '146', '124', '149', '138', '141', '145', '131', '114'] 673.3333333333331
69 13.466666666666667 ['79', '116', '128', '117', '130', '150', '148', '146', '124', '149', '138', '141', '145', '131', '114'] 673.3333333333331
70 13.466666666666667 ['79', '116', '128', '117', '130', '150', '148', '146', '124', '149', '138', '141', '145', '131', '114'] 673.3333333333331
71 13.466666666666667 ['79', '116', '128', '117', '130', '150', '148', '146', '124', '149', '138', '141', '145', '131', '114'] 673.3333333333331
72 13.466666666666667 ['79', '116', '128', '117', '130', '150', '148', '146', '124', '149', '138', '141', '145', '131', '114'] 673.3333333333331
73 13.466666666666667 ['79', '116', '128', '117', '130', '150', '148', '146', '124', '149', '138', '141', '145', '131', '114'] 673.3333333333331
74 13.466666666666667 ['79', '116', '128', '117', '130', '150', '148', '146', '124', '149', '138', '141', '145', '131', '114'] 673.3333333333331
75 13.466666666666667 ['79', '116', '128', '117', '130', '150', '148', '146', '124', '149', '138', '141', '145', '131', '114'] 673.3333333333331
76 13.466666666666667 ['79', '116', '128', '117', '130', '150', '148', '146', '124', '149', '138', '141', '145', '131', '114'] 673.3333333333331
77 13.466666666666667 ['79', '116', '128', '117', '130', '150', '148', '146', '124', '149', '138', '141', '145', '131', '114'] 673.3333333333331
78 13.466666666666667 ['79', '116', '128', '117', '130', '150', '148', '146', '124', '149', '138', '141', '145', '131', '114'] 673.3333333333331
79 13.466666666666667 ['79', '116', '128', '117', '130', '150', '148', '146', '124', '149', '138', '141', '145', '131', '114'] 673.3333333333331
80 13.466666666666667 ['79', '116', '128', '117', '130', '150', '148', '146', '124', '149', '138', '141', '145', '131', '114'] 673.3333333333331
81 13.466666666666667 ['79', '116', '128', '117', '130', '150', '148', '146', '124', '149', '138', '141', '145', '131', '114'] 673.3333333333331
82 13.466666666666667 ['79', '116', '128', '117', '130', '150', '148', '146', '124', '149', '138', '141', '145', '131', '114'] 673.3333333333331
83 13.466666666666667 ['79', '116', '128', '117', '130', '150', '148', '146', '124', '149', '138', '141', '145', '131', '114'] 673.3333333333331
84 13.466666666666667 ['79', '116', '128', '117', '130', '150', '148', '146', '124', '149', '138', '141', '145', '131', '114'] 673.3333333333331
85 13.466666666666667 ['79', '116', '128', '117', '130', '150', '148', '146', '124', '149', '138', '141', '145', '131', '114'] 673.3333333333331
86 13.466666666666667 ['79', '116', '128', '117', '130', '150', '148', '146', '124', '149', '138', '141', '145', '131', '114'] 673.3333333333331
87 13.451851851851853 ['117', '79', '124', '148', '141', '149', '138', '131', '146', '145', '150', '128', '130', '114', '122'] 673.3185185185184
88 13.451851851851853 ['117', '79', '124', '148', '141', '149', '138', '131', '146', '145', '150', '128', '130', '114', '122'] 673.3037037037036
89 13.451851851851853 ['117', '79', '124', '148', '141', '149', '138', '131', '146', '145', '150', '128', '130', '114', '122'] 673.274074074074
90 13.451851851851853 ['117', '79', '124', '148', '141', '149', '138', '131', '146', '145', '150', '128', '130', '114', '122'] 673.2296296296295
91 13.451851851851853 ['117', '79', '124', '148', '141', '149', '138', '131', '146', '145', '150', '128', '130', '114', '122'] 673.1407407407406
92 13.451851851851853 ['117', '79', '124', '148', '141', '149', '138', '131', '146', '145', '150', '128', '130', '114', '122'] 672.9185185185187
93 13.451851851851853 ['117', '79', '124', '148', '141', '149', '138', '131', '146', '145', '150', '128', '130', '114', '122'] 672.5925925925931
94 13.451851851851853 ['117', '79', '124', '148', '141', '149', '138', '131', '146', '145', '150', '128', '130', '114', '122'] 672.5925925925931
95 13.451851851851853 ['117', '79', '124', '148', '141', '149', '138', '131', '146', '145', '150', '128', '130', '114', '122'] 672.5925925925931
96 13.451851851851853 ['117', '79', '124', '148', '141', '149', '138', '131', '146', '145', '150', '128', '130', '114', '122'] 672.5925925925931
97 13.451851851851853 ['117', '79', '124', '148', '141', '149', '138', '131', '146', '145', '150', '128', '130', '114', '122'] 672.5925925925931
98 13.451851851851853 ['117', '79', '124', '148', '141', '149', '138', '131', '146', '145', '150', '128', '130', '114', '122'] 672.5925925925931
99 13.451851851851853 ['117', '79', '124', '148', '141', '149', '138', '131', '146', '145', '150', '128', '130', '114', '122'] 672.5925925925931
100 13.451851851851853 ['117', '79', '124', '148', '141', '149', '138', '131', '146', '145', '150', '128', '130', '114', '122'] 672.5925925925931
101 13.451851851851853 ['117', '79', '124', '148', '141', '149', '138', '131', '146', '145', '150', '128', '130', '114', '122'] 672.5925925925931
102 13.451851851851853 ['117', '79', '124', '148', '141', '149', '138', '131', '146', '145', '150', '128', '130', '114', '122'] 672.5925925925931
103 13.451851851851853 ['117', '79', '124', '148', '141', '149', '138', '131', '146', '145', '150', '128', '130', '114', '122'] 672.5925925925931
104 13.451851851851853 ['117', '79', '124', '148', '141', '149', '138', '131', '146', '145', '150', '128', '130', '114', '122'] 672.5925925925931
105 13.451851851851853 ['117', '79', '124', '148', '141', '149', '138', '131', '146', '145', '150', '128', '130', '114', '122'] 672.5925925925931
106 13.451851851851853 ['117', '79', '124', '148', '141', '149', '138', '131', '146', '145', '150', '128', '130', '114', '122'] 672.5925925925931
107 13.451851851851853 ['117', '79', '124', '148', '141', '149', '138', '131', '146', '145', '150', '128', '130', '114', '122'] 672.5925925925931
108 13.451851851851853 ['117', '79', '124', '148', '141', '149', '138', '131', '146', '145', '150', '128', '130', '114', '122'] 672.5925925925931
109 13.451851851851853 ['117', '79', '124', '148', '141', '149', '138', '131', '146', '145', '150', '128', '130', '114', '122'] 672.5925925925931
110 13.451851851851853 ['117', '79', '124', '148', '141', '149', '138', '131', '146', '145', '150', '128', '130', '114', '122'] 672.5925925925931
111 13.451851851851853 ['117', '79', '124', '148', '141', '149', '138', '131', '146', '145', '150', '128', '130', '114', '122'] 672.5925925925931
112 13.451851851851853 ['117', '79', '124', '148', '141', '149', '138', '131', '146', '145', '150', '128', '130', '114', '122'] 672.5925925925931
113 13.451851851851853 ['117', '79', '124', '148', '141', '149', '138', '131', '146', '145', '150', '128', '130', '114', '122'] 672.5925925925931
114 13.451851851851853 ['117', '79', '124', '148', '141', '149', '138', '131', '146', '145', '150', '128', '130', '114', '122'] 672.5925925925931
115 13.451851851851853 ['117', '79', '124', '148', '141', '149', '138', '131', '146', '145', '150', '128', '130', '114', '122'] 672.5925925925931
116 13.451851851851853 ['117', '79', '124', '148', '141', '149', '138', '131', '146', '145', '150', '128', '130', '114', '122'] 672.5925925925931
117 13.451851851851853 ['117', '79', '124', '148', '141', '149', '138', '131', '146', '145', '150', '128', '130', '114', '122'] 672.5925925925931
118 13.451851851851853 ['117', '79', '124', '148', '141', '149', '138', '131', '146', '145', '150', '128', '130', '114', '122'] 672.5925925925931
119 13.451851851851853 ['117', '79', '124', '148', '141', '149', '138', '131', '146', '145', '150', '128', '130', '114', '122'] 672.5925925925931
120 13.451851851851853 ['117', '79', '124', '148', '141', '149', '138', '131', '146', '145', '150', '128', '130', '114', '122'] 672.5925925925931
121 13.451851851851853 ['117', '79', '124', '148', '141', '149', '138', '131', '146', '145', '150', '128', '130', '114', '122'] 672.5925925925931
122 13.451851851851853 ['117', '79', '124', '148', '141', '149', '138', '131', '146', '145', '150', '128', '130', '114', '122'] 672.5925925925931
123 13.451851851851853 ['117', '79', '124', '148', '141', '149', '138', '131', '146', '145', '150', '128', '130', '114', '122'] 672.5925925925931
124 13.451851851851853 ['117', '79', '124', '148', '141', '149', '138', '131', '146', '145', '150', '128', '130', '114', '122'] 672.5925925925931
125 13.451851851851853 ['117', '79', '124', '148', '141', '149', '138', '131', '146', '145', '150', '128', '130', '114', '122'] 672.5925925925931
126 13.451851851851853 ['117', '79', '124', '148', '141', '149', '138', '131', '146', '145', '150', '128', '130', '114', '122'] 672.5925925925931
127 13.451851851851853 ['117', '79', '124', '148', '141', '149', '138', '131', '146', '145', '150', '128', '130', '114', '122'] 672.5925925925931
128 13.451851851851853 ['117', '79', '124', '148', '141', '149', '138', '131', '146', '145', '150', '128', '130', '114', '122'] 672.5925925925931
129 13.451851851851853 ['117', '79', '124', '148', '141', '149', '138', '131', '146', '145', '150', '128', '130', '114', '122'] 672.5925925925931
130 13.451851851851853 ['117', '79', '124', '148', '141', '149', '138', '131', '146', '145', '150', '128', '130', '114', '122'] 672.5925925925931
131 13.451851851851853 ['117', '79', '124', '148', '141', '149', '138', '131', '146', '145', '150', '128', '130', '114', '122'] 672.5925925925931
132 13.451851851851853 ['117', '79', '124', '148', '141', '149', '138', '131', '146', '145', '150', '128', '130', '114', '122'] 672.5925925925931
133 13.451851851851853 ['117', '79', '124', '148', '141', '149', '138', '131', '146', '145', '150', '128', '130', '114', '122'] 672.5925925925931
134 13.451851851851853 ['117', '79', '124', '148', '141', '149', '138', '131', '146', '145', '150', '128', '130', '114', '122'] 672.5925925925931
135 13.451851851851853 ['117', '79', '124', '148', '141', '149', '138', '131', '146', '145', '150', '128', '130', '114', '122'] 672.5925925925931
136 13.451851851851853 ['117', '79', '124', '148', '141', '149', '138', '131', '146', '145', '150', '128', '130', '114', '122'] 672.5925925925931
137 13.451851851851853 ['117', '79', '124', '148', '141', '149', '138', '131', '146', '145', '150', '128', '130', '114', '122'] 672.5925925925931
138 13.451851851851853 ['117', '79', '124', '148', '141', '149', '138', '131', '146', '145', '150', '128', '130', '114', '122'] 672.5925925925931
139 13.451851851851853 ['117', '79', '124', '148', '141', '149', '138', '131', '146', '145', '150', '128', '130', '114', '122'] 672.5925925925931
140 13.451851851851853 ['117', '79', '124', '148', '141', '149', '138', '131', '146', '145', '150', '128', '130', '114', '122'] 672.5925925925931
141 13.451851851851853 ['117', '79', '124', '148', '141', '149', '138', '131', '146', '145', '150', '128', '130', '114', '122'] 672.5925925925931
142 13.451851851851853 ['117', '79', '124', '148', '141', '149', '138', '131', '146', '145', '150', '128', '130', '114', '122'] 672.5925925925931
143 13.451851851851853 ['117', '79', '124', '148', '141', '149', '138', '131', '146', '145', '150', '128', '130', '114', '122'] 672.5925925925931
144 13.451851851851853 ['117', '79', '124', '148', '141', '149', '138', '131', '146', '145', '150', '128', '130', '114', '122'] 672.5925925925931
145 13.451851851851853 ['117', '79', '124', '148', '141', '149', '138', '131', '146', '145', '150', '128', '130', '114', '122'] 672.5925925925931
146 13.451851851851853 ['117', '79', '124', '148', '141', '149', '138', '131', '146', '145', '150', '128', '130', '114', '122'] 672.5925925925931
147 13.451851851851853 ['117', '79', '124', '148', '141', '149', '138', '131', '146', '145', '150', '128', '130', '114', '122'] 672.5925925925931
148 13.451851851851853 ['117', '79', '124', '148', '141', '149', '138', '131', '146', '145', '150', '128', '130', '114', '122'] 672.5925925925931
149 13.451851851851853 ['117', '79', '124', '148', '141', '149', '138', '131', '146', '145', '150', '128', '130', '114', '122'] 672.5925925925931
150 13.451851851851853 ['117', '79', '124', '148', '141', '149', '138', '131', '146', '145', '150', '128', '130', '114', '122'] 672.5925925925931
151 13.451851851851853 ['117', '79', '124', '148', '141', '149', '138', '131', '146', '145', '150', '128', '130', '114', '122'] 672.5925925925931
152 13.451851851851853 ['117', '79', '124', '148', '141', '149', '138', '131', '146', '145', '150', '128', '130', '114', '122'] 672.5925925925931
153 13.451851851851853 ['117', '79', '124', '148', '141', '149', '138', '131', '146', '145', '150', '128', '130', '114', '122'] 672.5925925925931
154 13.451851851851853 ['117', '79', '124', '148', '141', '149', '138', '131', '146', '145', '150', '128', '130', '114', '122'] 672.5925925925931
155 13.451851851851853 ['117', '79', '124', '148', '141', '149', '138', '131', '146', '145', '150', '128', '130', '114', '122'] 672.5925925925931
156 13.451851851851853 ['117', '79', '124', '148', '141', '149', '138', '131', '146', '145', '150', '128', '130', '114', '122'] 672.5925925925931
157 13.451851851851853 ['117', '79', '124', '148', '141', '149', '138', '131', '146', '145', '150', '128', '130', '114', '122'] 672.5925925925931
158 13.451851851851853 ['117', '79', '124', '148', '141', '149', '138', '131', '146', '145', '150', '128', '130', '114', '122'] 672.5925925925931
159 13.451851851851853 ['117', '79', '124', '148', '141', '149', '138', '131', '146', '145', '150', '128', '130', '114', '122'] 672.5925925925931
160 13.451851851851853 ['117', '79', '124', '148', '141', '149', '138', '131', '146', '145', '150', '128', '130', '114', '122'] 672.5925925925931
161 13.451851851851853 ['117', '79', '124', '148', '141', '149', '138', '131', '146', '145', '150', '128', '130', '114', '122'] 672.5925925925931
162 13.451851851851853 ['117', '79', '124', '148', '141', '149', '138', '131', '146', '145', '150', '128', '130', '114', '122'] 672.5925925925931
163 13.451851851851853 ['117', '79', '124', '148', '141', '149', '138', '131', '146', '145', '150', '128', '130', '114', '122'] 672.5925925925931
164 13.451851851851853 ['117', '79', '124', '148', '141', '149', '138', '131', '146', '145', '150', '128', '130', '114', '122'] 672.5925925925931
165 13.451851851851853 ['117', '79', '124', '148', '141', '149', '138', '131', '146', '145', '150', '128', '130', '114', '122'] 672.5925925925931
166 13.451851851851853 ['117', '79', '124', '148', '141', '149', '138', '131', '146', '145', '150', '128', '130', '114', '122'] 672.5925925925931
167 13.451851851851853 ['117', '79', '124', '148', '141', '149', '138', '131', '146', '145', '150', '128', '130', '114', '122'] 672.5925925925931
168 13.451851851851853 ['117', '79', '124', '148', '141', '149', '138', '131', '146', '145', '150', '128', '130', '114', '122'] 672.5925925925931
169 13.451851851851853 ['117', '79', '124', '148', '141', '149', '138', '131', '146', '145', '150', '128', '130', '114', '122'] 672.5925925925931
170 13.451851851851853 ['117', '79', '124', '148', '141', '149', '138', '131', '146', '145', '150', '128', '130', '114', '122'] 672.5925925925931
171 13.451851851851853 ['117', '79', '124', '148', '141', '149', '138', '131', '146', '145', '150', '128', '130', '114', '122'] 672.5925925925931
172 13.451851851851853 ['117', '79', '124', '148', '141', '149', '138', '131', '146', '145', '150', '128', '130', '114', '122'] 672.5925925925931
173 13.451851851851853 ['117', '79', '124', '148', '141', '149', '138', '131', '146', '145', '150', '128', '130', '114', '122'] 672.5925925925931
174 13.451851851851853 ['117', '79', '124', '148', '141', '149', '138', '131', '146', '145', '150', '128', '130', '114', '122'] 672.5925925925931
175 13.451851851851853 ['117', '79', '124', '148', '141', '149', '138', '131', '146', '145', '150', '128', '130', '114', '122'] 672.5925925925931
176 13.451851851851853 ['117', '79', '124', '148', '141', '149', '138', '131', '146', '145', '150', '128', '130', '114', '122'] 672.5925925925931
177 13.451851851851853 ['117', '79', '124', '148', '141', '149', '138', '131', '146', '145', '150', '128', '130', '114', '122'] 672.5925925925931
178 13.451851851851853 ['117', '79', '124', '148', '141', '149', '138', '131', '146', '145', '150', '128', '130', '114', '122'] 672.5925925925931
179 13.451851851851853 ['117', '79', '124', '148', '141', '149', '138', '131', '146', '145', '150', '128', '130', '114', '122'] 672.5925925925931
180 13.451851851851853 ['117', '79', '124', '148', '141', '149', '138', '131', '146', '145', '150', '128', '130', '114', '122'] 672.5925925925931
181 13.451851851851853 ['117', '79', '124', '148', '141', '149', '138', '131', '146', '145', '150', '128', '130', '114', '122'] 672.5925925925931
182 13.451851851851853 ['117', '79', '124', '148', '141', '149', '138', '131', '146', '145', '150', '128', '130', '114', '122'] 672.5925925925931
183 13.451851851851853 ['117', '79', '124', '148', '141', '149', '138', '131', '146', '145', '150', '128', '130', '114', '122'] 672.5925925925931
184 13.451851851851853 ['117', '79', '124', '148', '141', '149', '138', '131', '146', '145', '150', '128', '130', '114', '122'] 672.5925925925931
185 13.451851851851853 ['117', '79', '124', '148', '141', '149', '138', '131', '146', '145', '150', '128', '130', '114', '122'] 672.5925925925931
186 13.451851851851853 ['117', '79', '124', '148', '141', '149', '138', '131', '146', '145', '150', '128', '130', '114', '122'] 672.5925925925931
187 13.451851851851853 ['117', '79', '124', '148', '141', '149', '138', '131', '146', '145', '150', '128', '130', '114', '122'] 672.5925925925931
188 13.451851851851853 ['117', '79', '124', '148', '141', '149', '138', '131', '146', '145', '150', '128', '130', '114', '122'] 672.5925925925931
189 13.451851851851853 ['117', '79', '124', '148', '141', '149', '138', '131', '146', '145', '150', '128', '130', '114', '122'] 672.5925925925931
190 13.451851851851853 ['117', '79', '124', '148', '141', '149', '138', '131', '146', '145', '150', '128', '130', '114', '122'] 672.5925925925931
191 13.451851851851853 ['117', '79', '124', '148', '141', '149', '138', '131', '146', '145', '150', '128', '130', '114', '122'] 672.5925925925931
192 13.451851851851853 ['117', '79', '124', '148', '141', '149', '138', '131', '146', '145', '150', '128', '130', '114', '122'] 672.5925925925931
193 13.451851851851853 ['117', '79', '124', '148', '141', '149', '138', '131', '146', '145', '150', '128', '130', '114', '122'] 672.5925925925931
194 13.451851851851853 ['117', '79', '124', '148', '141', '149', '138', '131', '146', '145', '150', '128', '130', '114', '122'] 672.5925925925931
195 13.451851851851853 ['117', '79', '124', '148', '141', '149', '138', '131', '146', '145', '150', '128', '130', '114', '122'] 672.5925925925931
196 13.451851851851853 ['117', '79', '124', '148', '141', '149', '138', '131', '146', '145', '150', '128', '130', '114', '122'] 672.5925925925931
197 13.451851851851853 ['117', '79', '124', '148', '141', '149', '138', '131', '146', '145', '150', '128', '130', '114', '122'] 672.5925925925931
198 13.451851851851853 ['117', '79', '124', '148', '141', '149', '138', '131', '146', '145', '150', '128', '130', '114', '122'] 672.5925925925931
199 13.451851851851853 ['117', '79', '124', '148', '141', '149', '138', '131', '146', '145', '150', '128', '130', '114', '122'] 672.5925925925931
