0 14.451851851851853 ['135', '106', '104', '118', '145', '70', '31', '87', '11', '128', '120', '124', '110', '54', '134'] 739.8518518518517
1 14.377777777777778 ['104', '124', '113', '52', '120', '50', '106', '110', '58', '145', '141', '70', '135', '35', '118'] 733.1999999999998
2 14.08148148148148 ['91', '51', '131', '149', '145', '92', '142', '146', '120', '80', '141', '112', '110', '103', '95'] 727.0814814814811
3 14.051851851851852 ['91', '95', '141', '51', '149', '92', '146', '131', '124', '112', '78', '143', '120', '145', '142'] 721.4888888888885
4 14.051851851851852 ['91', '95', '141', '51', '149', '92', '146', '131', '124', '112', '78', '143', '120', '145', '142'] 716.3925925925926
5 13.992592592592592 ['132', '141', '145', '104', '83', '73', '120', '149', '147', '58', '146', '71', '113', '103', '135'] 711.7037037037042
6 13.977777777777778 ['149', '146', '145', '120', '131', '132', '109', '141', '124', '143', '78', '85', '115', '128', '83'] 707.0222222222221
7 13.896296296296295 ['135', '113', '145', '134', '120', '141', '149', '118', '146', '110', '80', '103', '127', '39', '73'] 704.0370370370372
8 13.881481481481481 ['141', '115', '143', '120', '145', '149', '132', '118', '147', '103', '130', '112', '65', '81', '128'] 700.37037037037
9 13.718518518518518 ['149', '120', '132', '141', '110', '104', '87', '145', '143', '147', '115', '135', '144', '125', '142'] 697.1851851851852
10 13.651851851851852 ['130', '146', '141', '145', '135', '120', '124', '147', '127', '144', '115', '112', '117', '125', '149'] 693.844444444444
11 13.651851851851852 ['130', '146', '141', '145', '135', '120', '124', '147', '127', '144', '115', '112', '117', '125', '149'] 690.9629629629632
12 13.622222222222222 ['149', '141', '120', '146', '124', '145', '132', '144', '73', '51', '135', '113', '142', '147', '115'] 688.2666666666663
13 13.592592592592593 ['141', '147', '143', '146', '128', '149', '73', '145', '124', '134', '115', '120', '135', '125', '87'] 685.8444444444451
14 13.592592592592593 ['141', '147', '143', '146', '128', '149', '73', '145', '124', '134', '115', '120', '135', '125', '87'] 684.1925925925923
15 13.585185185185185 ['132', '146', '134', '141', '145', '147', '125', '128', '144', '75', '149', '73', '127', '124', '143'] 682.925925925926
16 13.533333333333333 ['149', '146', '120', '135', '141', '145', '124', '147', '144', '132', '134', '130', '125', '115', '112'] 681.392592592592
17 13.525925925925925 ['132', '149', '128', '145', '143', '141', '147', '124', '73', '144', '146', '135', '125', '142', '127'] 680.3111111111116
18 13.511111111111111 ['135', '124', '145', '146', '134', '142', '141', '132', '147', '149', '118', '130', '113', '144', '125'] 679.0740740740747
19 13.511111111111111 ['135', '124', '145', '146', '134', '142', '141', '132', '147', '149', '118', '130', '113', '144', '125'] 678.140740740741
20 13.481481481481481 ['141', '147', '144', '149', '145', '135', '124', '125', '134', '132', '146', '112', '127', '142', '128'] 677.0888888888887
21 13.481481481481481 ['141', '147', '144', '149', '145', '135', '124', '125', '134', '132', '146', '112', '127', '142', '128'] 676.1703703703705
22 13.481481481481481 ['141', '147', '144', '149', '145', '135', '124', '125', '134', '132', '146', '112', '127', '142', '128'] 675.6666666666665
23 13.481481481481481 ['141', '147', '144', '149', '145', '135', '124', '125', '134', '132', '146', '112', '127', '142', '128'] 675.0222222222217
24 13.466666666666667 ['141', '135', '134', '132', '142', '115', '146', '124', '145', '149', '147', '144', '130', '127', '128'] 674.5481481481487
25 13.466666666666667 ['141', '135', '134', '132', '142', '115', '146', '124', '145', '149', '147', '144', '130', '127', '128'] 674.2962962962966
26 13.466666666666667 ['141', '135', '134', '132', '142', '115', '146', '124', '145', '149', '147', '144', '130', '127', '128'] 673.8074074074077
27 13.466666666666667 ['141', '135', '134', '132', '142', '115', '146', '124', '145', '149', '147', '144', '130', '127', '128'] 673.4962962962962
28 13.466666666666667 ['141', '135', '134', '132', '142', '115', '146', '124', '145', '149', '147', '144', '130', '127', '128'] 673.3333333333331
29 13.466666666666667 ['141', '135', '134', '132', '142', '115', '146', '124', '145', '149', '147', '144', '130', '127', '128'] 673.3333333333331
30 13.466666666666667 ['141', '135', '134', '132', '142', '115', '146', '124', '145', '149', '147', '144', '130', '127', '128'] 673.3333333333331
31 13.466666666666667 ['141', '135', '134', '132', '142', '115', '146', '124', '145', '149', '147', '144', '130', '127', '128'] 673.3333333333331
32 13.466666666666667 ['141', '135', '134', '132', '142', '115', '146', '124', '145', '149', '147', '144', '130', '127', '128'] 673.3333333333331
33 13.466666666666667 ['141', '135', '134', '132', '142', '115', '146', '124', '145', '149', '147', '144', '130', '127', '128'] 673.3333333333331
34 13.466666666666667 ['141', '135', '134', '132', '142', '115', '146', '124', '145', '149', '147', '144', '130', '127', '128'] 673.3333333333331
35 13.466666666666667 ['141', '135', '134', '132', '142', '115', '146', '124', '145', '149', '147', '144', '130', '127', '128'] 673.3333333333331
36 13.466666666666667 ['141', '135', '134', '132', '142', '115', '146', '124', '145', '149', '147', '144', '130', '127', '128'] 673.3333333333331
37 13.466666666666667 ['141', '135', '134', '132', '142', '115', '146', '124', '145', '149', '147', '144', '130', '127', '128'] 673.3333333333331
38 13.466666666666667 ['141', '135', '134', '132', '142', '115', '146', '124', '145', '149', '147', '144', '130', '127', '128'] 673.3333333333331
39 13.466666666666667 ['141', '135', '134', '132', '142', '115', '146', '124', '145', '149', '147', '144', '130', '127', '128'] 673.3333333333331
40 13.466666666666667 ['141', '135', '134', '132', '142', '115', '146', '124', '145', '149', '147', '144', '130', '127', '128'] 673.3333333333331
41 13.466666666666667 ['141', '135', '134', '132', '142', '115', '146', '124', '145', '149', '147', '144', '130', '127', '128'] 673.3333333333331
42 13.466666666666667 ['141', '135', '134', '132', '142', '115', '146', '124', '145', '149', '147', '144', '130', '127', '128'] 673.3333333333331
43 13.466666666666667 ['141', '135', '134', '132', '142', '115', '146', '124', '145', '149', '147', '144', '130', '127', '128'] 673.3333333333331
44 13.466666666666667 ['141', '135', '134', '132', '142', '115', '146', '124', '145', '149', '147', '144', '130', '127', '128'] 673.3333333333331
45 13.466666666666667 ['141', '135', '134', '132', '142', '115', '146', '124', '145', '149', '147', '144', '130', '127', '128'] 673.3333333333331
46 13.466666666666667 ['141', '135', '134', '132', '142', '115', '146', '124', '145', '149', '147', '144', '130', '127', '128'] 673.3333333333331
47 13.466666666666667 ['141', '135', '134', '132', '142', '115', '146', '124', '145', '149', '147', '144', '130', '127', '128'] 673.3333333333331
48 13.466666666666667 ['141', '135', '134', '132', '142', '115', '146', '124', '145', '149', '147', '144', '130', '127', '128'] 673.3333333333331
49 13.466666666666667 ['141', '135', '134', '132', '142', '115', '146', '124', '145', '149', '147', '144', '130', '127', '128'] 673.3333333333331
50 13.466666666666667 ['141', '135', '134', '132', '142', '115', '146', '124', '145', '149', '147', '144', '130', '127', '128'] 673.3333333333331
51 13.466666666666667 ['141', '135', '134', '132', '142', '115', '146', '124', '145', '149', '147', '144', '130', '127', '128'] 673.3333333333331
52 13.466666666666667 ['141', '135', '134', '132', '142', '115', '146', '124', '145', '149', '147', '144', '130', '127', '128'] 673.3333333333331
53 13.466666666666667 ['141', '135', '134', '132', '142', '115', '146', '124', '145', '149', '147', '144', '130', '127', '128'] 673.3333333333331
54 13.466666666666667 ['141', '135', '134', '132', '142', '115', '146', '124', '145', '149', '147', '144', '130', '127', '128'] 673.3333333333331
55 13.466666666666667 ['141', '135', '134', '132', '142', '115', '146', '124', '145', '149', '147', '144', '130', '127', '128'] 673.3333333333331
56 13.466666666666667 ['141', '135', '134', '132', '142', '115', '146', '124', '145', '149', '147', '144', '130', '127', '128'] 673.3333333333331
57 13.466666666666667 ['141', '135', '134', '132', '142', '115', '146', '124', '145', '149', '147', '144', '130', '127', '128'] 673.3333333333331
58 13.466666666666667 ['141', '135', '134', '132', '142', '115', '146', '124', '145', '149', '147', '144', '130', '127', '128'] 673.3333333333331
59 13.466666666666667 ['141', '135', '134', '132', '142', '115', '146', '124', '145', '149', '147', '144', '130', '127', '128'] 673.3333333333331
60 13.466666666666667 ['141', '135', '134', '132', '142', '115', '146', '124', '145', '149', '147', '144', '130', '127', '128'] 673.3333333333331
61 13.466666666666667 ['141', '135', '134', '132', '142', '115', '146', '124', '145', '149', '147', '144', '130', '127', '128'] 673.3333333333331
62 13.466666666666667 ['141', '135', '134', '132', '142', '115', '146', '124', '145', '149', '147', '144', '130', '127', '128'] 673.3333333333331
63 13.466666666666667 ['141', '135', '134', '132', '142', '115', '146', '124', '145', '149', '147', '144', '130', '127', '128'] 673.3333333333331
64 13.466666666666667 ['141', '135', '134', '132', '142', '115', '146', '124', '145', '149', '147', '144', '130', '127', '128'] 673.3333333333331
65 13.466666666666667 ['141', '135', '134', '132', '142', '115', '146', '124', '145', '149', '147', '144', '130', '127', '128'] 673.3333333333331
66 13.466666666666667 ['141', '135', '134', '132', '142', '115', '146', '124', '145', '149', '147', '144', '130', '127', '128'] 673.3333333333331
67 13.466666666666667 ['141', '135', '134', '132', '142', '115', '146', '124', '145', '149', '147', '144', '130', '127', '128'] 673.3333333333331
68 13.466666666666667 ['141', '135', '134', '132', '142', '115', '146', '124', '145', '149', '147', '144', '130', '127', '128'] 673.3333333333331
69 13.466666666666667 ['141', '135', '134', '132', '142', '115', '146', '124', '145', '149', '147', '144', '130', '127', '128'] 673.3333333333331
70 13.466666666666667 ['141', '135', '134', '132', '142', '115', '146', '124', '145', '149', '147', '144', '130', '127', '128'] 673.3333333333331
71 13.466666666666667 ['141', '135', '134', '132', '142', '115', '146', '124', '145', '149', '147', '144', '130', '127', '128'] 673.3333333333331
72 13.466666666666667 ['141', '135', '134', '132', '142', '115', '146', '124', '145', '149', '147', '144', '130', '127', '128'] 673.3333333333331
73 13.466666666666667 ['141', '135', '134', '132', '142', '115', '146', '124', '145', '149', '147', '144', '130', '127', '128'] 673.3333333333331
74 13.466666666666667 ['141', '135', '134', '132', '142', '115', '146', '124', '145', '149', '147', '144', '130', '127', '128'] 673.3333333333331
75 13.466666666666667 ['141', '135', '134', '132', '142', '115', '146', '124', '145', '149', '147', '144', '130', '127', '128'] 673.3333333333331
76 13.466666666666667 ['141', '135', '134', '132', '142', '115', '146', '124', '145', '149', '147', '144', '130', '127', '128'] 673.3333333333331
77 13.466666666666667 ['141', '135', '134', '132', '142', '115', '146', '124', '145', '149', '147', '144', '130', '127', '128'] 673.3333333333331
78 13.466666666666667 ['141', '135', '134', '132', '142', '115', '146', '124', '145', '149', '147', '144', '130', '127', '128'] 673.3333333333331
79 13.466666666666667 ['141', '135', '134', '132', '142', '115', '146', '124', '145', '149', '147', '144', '130', '127', '128'] 673.3333333333331
80 13.466666666666667 ['141', '135', '134', '132', '142', '115', '146', '124', '145', '149', '147', '144', '130', '127', '128'] 673.3333333333331
81 13.466666666666667 ['141', '135', '134', '132', '142', '115', '146', '124', '145', '149', '147', '144', '130', '127', '128'] 673.3333333333331
82 13.466666666666667 ['141', '135', '134', '132', '142', '115', '146', '124', '145', '149', '147', '144', '130', '127', '128'] 673.3333333333331
83 13.466666666666667 ['141', '135', '134', '132', '142', '115', '146', '124', '145', '149', '147', '144', '130', '127', '128'] 673.3333333333331
84 13.466666666666667 ['141', '135', '134', '132', '142', '115', '146', '124', '145', '149', '147', '144', '130', '127', '128'] 673.3333333333331
85 13.466666666666667 ['141', '135', '134', '132', '142', '115', '146', '124', '145', '149', '147', '144', '130', '127', '128'] 673.3333333333331
86 13.466666666666667 ['141', '135', '134', '132', '142', '115', '146', '124', '145', '149', '147', '144', '130', '127', '128'] 673.3333333333331
87 13.466666666666667 ['141', '135', '134', '132', '142', '115', '146', '124', '145', '149', '147', '144', '130', '127', '128'] 673.3333333333331
88 13.466666666666667 ['141', '135', '134', '132', '142', '115', '146', '124', '145', '149', '147', '144', '130', '127', '128'] 673.3333333333331
89 13.466666666666667 ['141', '135', '134', '132', '142', '115', '146', '124', '145', '149', '147', '144', '130', '127', '128'] 673.3333333333331
90 13.466666666666667 ['141', '135', '134', '132', '142', '115', '146', '124', '145', '149', '147', '144', '130', '127', '128'] 673.3333333333331
91 13.466666666666667 ['141', '135', '134', '132', '142', '115', '146', '124', '145', '149', '147', '144', '130', '127', '128'] 673.3333333333331
92 13.466666666666667 ['141', '135', '134', '132', '142', '115', '146', '124', '145', '149', '147', '144', '130', '127', '128'] 673.3333333333331
93 13.466666666666667 ['141', '135', '134', '132', '142', '115', '146', '124', '145', '149', '147', '144', '130', '127', '128'] 673.3333333333331
94 13.466666666666667 ['141', '135', '134', '132', '142', '115', '146', '124', '145', '149', '147', '144', '130', '127', '128'] 673.3333333333331
95 13.466666666666667 ['141', '135', '134', '132', '142', '115', '146', '124', '145', '149', '147', '144', '130', '127', '128'] 673.3333333333331
96 13.466666666666667 ['141', '135', '134', '132', '142', '115', '146', '124', '145', '149', '147', '144', '130', '127', '128'] 673.3333333333331
97 13.466666666666667 ['141', '135', '134', '132', '142', '115', '146', '124', '145', '149', '147', '144', '130', '127', '128'] 673.3333333333331
98 13.466666666666667 ['141', '135', '134', '132', '142', '115', '146', '124', '145', '149', '147', '144', '130', '127', '128'] 673.3333333333331
99 13.466666666666667 ['141', '135', '134', '132', '142', '115', '146', '124', '145', '149', '147', '144', '130', '127', '128'] 673.3333333333331
100 13.466666666666667 ['141', '135', '134', '132', '142', '115', '146', '124', '145', '149', '147', '144', '130', '127', '128'] 673.3333333333331
101 13.466666666666667 ['141', '135', '134', '132', '142', '115', '146', '124', '145', '149', '147', '144', '130', '127', '128'] 673.3333333333331
102 13.466666666666667 ['141', '135', '134', '132', '142', '115', '146', '124', '145', '149', '147', '144', '130', '127', '128'] 673.3333333333331
103 13.466666666666667 ['141', '135', '134', '132', '142', '115', '146', '124', '145', '149', '147', '144', '130', '127', '128'] 673.3333333333331
104 13.466666666666667 ['141', '135', '134', '132', '142', '115', '146', '124', '145', '149', '147', '144', '130', '127', '128'] 673.3333333333331
105 13.466666666666667 ['141', '135', '134', '132', '142', '115', '146', '124', '145', '149', '147', '144', '130', '127', '128'] 673.3333333333331
106 13.466666666666667 ['141', '135', '134', '132', '142', '115', '146', '124', '145', '149', '147', '144', '130', '127', '128'] 673.3333333333331
107 13.466666666666667 ['141', '135', '134', '132', '142', '115', '146', '124', '145', '149', '147', '144', '130', '127', '128'] 673.3333333333331
108 13.466666666666667 ['141', '135', '134', '132', '142', '115', '146', '124', '145', '149', '147', '144', '130', '127', '128'] 673.3333333333331
109 13.466666666666667 ['141', '135', '134', '132', '142', '115', '146', '124', '145', '149', '147', '144', '130', '127', '128'] 673.3333333333331
110 13.466666666666667 ['141', '135', '134', '132', '142', '115', '146', '124', '145', '149', '147', '144', '130', '127', '128'] 673.3333333333331
111 13.466666666666667 ['141', '135', '134', '132', '142', '115', '146', '124', '145', '149', '147', '144', '130', '127', '128'] 673.3333333333331
112 13.466666666666667 ['141', '135', '134', '132', '142', '115', '146', '124', '145', '149', '147', '144', '130', '127', '128'] 673.3333333333331
113 13.466666666666667 ['141', '135', '134', '132', '142', '115', '146', '124', '145', '149', '147', '144', '130', '127', '128'] 673.3333333333331
114 13.466666666666667 ['141', '135', '134', '132', '142', '115', '146', '124', '145', '149', '147', '144', '130', '127', '128'] 673.3333333333331
115 13.466666666666667 ['141', '135', '134', '132', '142', '115', '146', '124', '145', '149', '147', '144', '130', '127', '128'] 673.3333333333331
116 13.466666666666667 ['141', '135', '134', '132', '142', '115', '146', '124', '145', '149', '147', '144', '130', '127', '128'] 673.3333333333331
117 13.466666666666667 ['141', '135', '134', '132', '142', '115', '146', '124', '145', '149', '147', '144', '130', '127', '128'] 673.3333333333331
118 13.466666666666667 ['141', '135', '134', '132', '142', '115', '146', '124', '145', '149', '147', '144', '130', '127', '128'] 673.3333333333331
119 13.466666666666667 ['141', '135', '134', '132', '142', '115', '146', '124', '145', '149', '147', '144', '130', '127', '128'] 673.3333333333331
120 13.466666666666667 ['141', '135', '134', '132', '142', '115', '146', '124', '145', '149', '147', '144', '130', '127', '128'] 673.3333333333331
121 13.466666666666667 ['141', '135', '134', '132', '142', '115', '146', '124', '145', '149', '147', '144', '130', '127', '128'] 673.3333333333331
122 13.466666666666667 ['141', '135', '134', '132', '142', '115', '146', '124', '145', '149', '147', '144', '130', '127', '128'] 673.3333333333331
123 13.466666666666667 ['141', '135', '134', '132', '142', '115', '146', '124', '145', '149', '147', '144', '130', '127', '128'] 673.3333333333331
124 13.466666666666667 ['141', '135', '134', '132', '142', '115', '146', '124', '145', '149', '147', '144', '130', '127', '128'] 673.3333333333331
125 13.466666666666667 ['141', '135', '134', '132', '142', '115', '146', '124', '145', '149', '147', '144', '130', '127', '128'] 673.3333333333331
126 13.466666666666667 ['141', '135', '134', '132', '142', '115', '146', '124', '145', '149', '147', '144', '130', '127', '128'] 673.3333333333331
127 13.466666666666667 ['141', '135', '134', '132', '142', '115', '146', '124', '145', '149', '147', '144', '130', '127', '128'] 673.3333333333331
128 13.466666666666667 ['141', '135', '134', '132', '142', '115', '146', '124', '145', '149', '147', '144', '130', '127', '128'] 673.3333333333331
129 13.466666666666667 ['141', '135', '134', '132', '142', '115', '146', '124', '145', '149', '147', '144', '130', '127', '128'] 673.3333333333331
130 13.466666666666667 ['141', '135', '134', '132', '142', '115', '146', '124', '145', '149', '147', '144', '130', '127', '128'] 673.3333333333331
131 13.466666666666667 ['141', '135', '134', '132', '142', '115', '146', '124', '145', '149', '147', '144', '130', '127', '128'] 673.3333333333331
132 13.466666666666667 ['141', '135', '134', '132', '142', '115', '146', '124', '145', '149', '147', '144', '130', '127', '128'] 673.3333333333331
133 13.466666666666667 ['141', '135', '134', '132', '142', '115', '146', '124', '145', '149', '147', '144', '130', '127', '128'] 673.3333333333331
134 13.466666666666667 ['141', '135', '134', '132', '142', '115', '146', '124', '145', '149', '147', '144', '130', '127', '128'] 673.3333333333331
135 13.466666666666667 ['141', '135', '134', '132', '142', '115', '146', '124', '145', '149', '147', '144', '130', '127', '128'] 673.3333333333331
136 13.466666666666667 ['141', '135', '134', '132', '142', '115', '146', '124', '145', '149', '147', '144', '130', '127', '128'] 673.3333333333331
137 13.466666666666667 ['141', '135', '134', '132', '142', '115', '146', '124', '145', '149', '147', '144', '130', '127', '128'] 673.3333333333331
138 13.466666666666667 ['141', '135', '134', '132', '142', '115', '146', '124', '145', '149', '147', '144', '130', '127', '128'] 673.3333333333331
139 13.466666666666667 ['141', '135', '134', '132', '142', '115', '146', '124', '145', '149', '147', '144', '130', '127', '128'] 673.3333333333331
140 13.466666666666667 ['141', '135', '134', '132', '142', '115', '146', '124', '145', '149', '147', '144', '130', '127', '128'] 673.3333333333331
141 13.466666666666667 ['141', '135', '134', '132', '142', '115', '146', '124', '145', '149', '147', '144', '130', '127', '128'] 673.3333333333331
142 13.466666666666667 ['141', '135', '134', '132', '142', '115', '146', '124', '145', '149', '147', '144', '130', '127', '128'] 673.3333333333331
143 13.466666666666667 ['141', '135', '134', '132', '142', '115', '146', '124', '145', '149', '147', '144', '130', '127', '128'] 673.3333333333331
144 13.466666666666667 ['141', '135', '134', '132', '142', '115', '146', '124', '145', '149', '147', '144', '130', '127', '128'] 673.3333333333331
145 13.466666666666667 ['141', '135', '134', '132', '142', '115', '146', '124', '145', '149', '147', '144', '130', '127', '128'] 673.3333333333331
146 13.466666666666667 ['141', '135', '134', '132', '142', '115', '146', '124', '145', '149', '147', '144', '130', '127', '128'] 673.3333333333331
147 13.466666666666667 ['141', '135', '134', '132', '142', '115', '146', '124', '145', '149', '147', '144', '130', '127', '128'] 673.3333333333331
148 13.466666666666667 ['141', '135', '134', '132', '142', '115', '146', '124', '145', '149', '147', '144', '130', '127', '128'] 673.3333333333331
149 13.466666666666667 ['141', '135', '134', '132', '142', '115', '146', '124', '145', '149', '147', '144', '130', '127', '128'] 673.3333333333331
150 13.466666666666667 ['141', '135', '134', '132', '142', '115', '146', '124', '145', '149', '147', '144', '130', '127', '128'] 673.3333333333331
151 13.466666666666667 ['141', '135', '134', '132', '142', '115', '146', '124', '145', '149', '147', '144', '130', '127', '128'] 673.3333333333331
152 13.466666666666667 ['141', '135', '134', '132', '142', '115', '146', '124', '145', '149', '147', '144', '130', '127', '128'] 673.3333333333331
153 13.466666666666667 ['141', '135', '134', '132', '142', '115', '146', '124', '145', '149', '147', '144', '130', '127', '128'] 673.3333333333331
154 13.466666666666667 ['141', '135', '134', '132', '142', '115', '146', '124', '145', '149', '147', '144', '130', '127', '128'] 673.3333333333331
155 13.466666666666667 ['141', '135', '134', '132', '142', '115', '146', '124', '145', '149', '147', '144', '130', '127', '128'] 673.3333333333331
156 13.466666666666667 ['141', '135', '134', '132', '142', '115', '146', '124', '145', '149', '147', '144', '130', '127', '128'] 673.3333333333331
157 13.466666666666667 ['141', '135', '134', '132', '142', '115', '146', '124', '145', '149', '147', '144', '130', '127', '128'] 673.3333333333331
158 13.466666666666667 ['141', '135', '134', '132', '142', '115', '146', '124', '145', '149', '147', '144', '130', '127', '128'] 673.3333333333331
159 13.466666666666667 ['141', '135', '134', '132', '142', '115', '146', '124', '145', '149', '147', '144', '130', '127', '128'] 673.3333333333331
160 13.466666666666667 ['141', '135', '134', '132', '142', '115', '146', '124', '145', '149', '147', '144', '130', '127', '128'] 673.3333333333331
161 13.466666666666667 ['141', '135', '134', '132', '142', '115', '146', '124', '145', '149', '147', '144', '130', '127', '128'] 673.3333333333331
162 13.466666666666667 ['141', '135', '134', '132', '142', '115', '146', '124', '145', '149', '147', '144', '130', '127', '128'] 673.3333333333331
163 13.466666666666667 ['141', '135', '134', '132', '142', '115', '146', '124', '145', '149', '147', '144', '130', '127', '128'] 673.3333333333331
164 13.466666666666667 ['141', '135', '134', '132', '142', '115', '146', '124', '145', '149', '147', '144', '130', '127', '128'] 673.3333333333331
165 13.466666666666667 ['141', '135', '134', '132', '142', '115', '146', '124', '145', '149', '147', '144', '130', '127', '128'] 673.3333333333331
166 13.466666666666667 ['141', '135', '134', '132', '142', '115', '146', '124', '145', '149', '147', '144', '130', '127', '128'] 673.3333333333331
167 13.466666666666667 ['141', '135', '134', '132', '142', '115', '146', '124', '145', '149', '147', '144', '130', '127', '128'] 673.3333333333331
168 13.466666666666667 ['141', '135', '134', '132', '142', '115', '146', '124', '145', '149', '147', '144', '130', '127', '128'] 673.3333333333331
169 13.466666666666667 ['141', '135', '134', '132', '142', '115', '146', '124', '145', '149', '147', '144', '130', '127', '128'] 673.3333333333331
170 13.466666666666667 ['141', '135', '134', '132', '142', '115', '146', '124', '145', '149', '147', '144', '130', '127', '128'] 673.3333333333331
171 13.466666666666667 ['141', '135', '134', '132', '142', '115', '146', '124', '145', '149', '147', '144', '130', '127', '128'] 673.3333333333331
172 13.466666666666667 ['141', '135', '134', '132', '142', '115', '146', '124', '145', '149', '147', '144', '130', '127', '128'] 673.3333333333331
173 13.466666666666667 ['141', '135', '134', '132', '142', '115', '146', '124', '145', '149', '147', '144', '130', '127', '128'] 673.3333333333331
174 13.466666666666667 ['141', '135', '134', '132', '142', '115', '146', '124', '145', '149', '147', '144', '130', '127', '128'] 673.3333333333331
175 13.466666666666667 ['141', '135', '134', '132', '142', '115', '146', '124', '145', '149', '147', '144', '130', '127', '128'] 673.3333333333331
176 13.466666666666667 ['141', '135', '134', '132', '142', '115', '146', '124', '145', '149', '147', '144', '130', '127', '128'] 673.3333333333331
177 13.466666666666667 ['141', '135', '134', '132', '142', '115', '146', '124', '145', '149', '147', '144', '130', '127', '128'] 673.3333333333331
178 13.466666666666667 ['141', '135', '134', '132', '142', '115', '146', '124', '145', '149', '147', '144', '130', '127', '128'] 673.3333333333331
179 13.466666666666667 ['141', '135', '134', '132', '142', '115', '146', '124', '145', '149', '147', '144', '130', '127', '128'] 673.3333333333331
180 13.466666666666667 ['141', '135', '134', '132', '142', '115', '146', '124', '145', '149', '147', '144', '130', '127', '128'] 673.3333333333331
181 13.466666666666667 ['141', '135', '134', '132', '142', '115', '146', '124', '145', '149', '147', '144', '130', '127', '128'] 673.3333333333331
182 13.466666666666667 ['141', '135', '134', '132', '142', '115', '146', '124', '145', '149', '147', '144', '130', '127', '128'] 673.3333333333331
183 13.466666666666667 ['141', '135', '134', '132', '142', '115', '146', '124', '145', '149', '147', '144', '130', '127', '128'] 673.3333333333331
184 13.466666666666667 ['141', '135', '134', '132', '142', '115', '146', '124', '145', '149', '147', '144', '130', '127', '128'] 673.3333333333331
185 13.466666666666667 ['141', '135', '134', '132', '142', '115', '146', '124', '145', '149', '147', '144', '130', '127', '128'] 673.3333333333331
186 13.466666666666667 ['141', '135', '134', '132', '142', '115', '146', '124', '145', '149', '147', '144', '130', '127', '128'] 673.3333333333331
187 13.466666666666667 ['141', '135', '134', '132', '142', '115', '146', '124', '145', '149', '147', '144', '130', '127', '128'] 673.3333333333331
188 13.466666666666667 ['141', '135', '134', '132', '142', '115', '146', '124', '145', '149', '147', '144', '130', '127', '128'] 673.3333333333331
189 13.466666666666667 ['141', '135', '134', '132', '142', '115', '146', '124', '145', '149', '147', '144', '130', '127', '128'] 673.3333333333331
190 13.466666666666667 ['141', '135', '134', '132', '142', '115', '146', '124', '145', '149', '147', '144', '130', '127', '128'] 673.3333333333331
191 13.466666666666667 ['141', '135', '134', '132', '142', '115', '146', '124', '145', '149', '147', '144', '130', '127', '128'] 673.3333333333331
192 13.466666666666667 ['141', '135', '134', '132', '142', '115', '146', '124', '145', '149', '147', '144', '130', '127', '128'] 673.3333333333331
193 13.466666666666667 ['141', '135', '134', '132', '142', '115', '146', '124', '145', '149', '147', '144', '130', '127', '128'] 673.3333333333331
194 13.466666666666667 ['141', '135', '134', '132', '142', '115', '146', '124', '145', '149', '147', '144', '130', '127', '128'] 673.3333333333331
195 13.466666666666667 ['141', '135', '134', '132', '142', '115', '146', '124', '145', '149', '147', '144', '130', '127', '128'] 673.3333333333331
196 13.466666666666667 ['141', '135', '134', '132', '142', '115', '146', '124', '145', '149', '147', '144', '130', '127', '128'] 673.3333333333331
197 13.466666666666667 ['141', '135', '134', '132', '142', '115', '146', '124', '145', '149', '147', '144', '130', '127', '128'] 673.3333333333331
198 13.466666666666667 ['141', '135', '134', '132', '142', '115', '146', '124', '145', '149', '147', '144', '130', '127', '128'] 673.3333333333331
199 13.466666666666667 ['141', '135', '134', '132', '142', '115', '146', '124', '145', '149', '147', '144', '130', '127', '128'] 673.3333333333331
