0 14.207407407407407 ['137', '114', '141', '147', '134', '67', '146', '133', '80', '31', '68', '76', '104', '142', '97'] 735.5185185185187
1 14.207407407407407 ['137', '114', '141', '147', '134', '67', '146', '133', '80', '31', '68', '76', '104', '142', '97'] 729.7925925925924
2 14.207407407407407 ['137', '114', '141', '147', '134', '67', '146', '133', '80', '31', '68', '76', '104', '142', '97'] 724.9481481481484
3 14.133333333333333 ['121', '145', '2', '116', '47', '134', '94', '55', '148', '97', '141', '110', '146', '26', '139'] 718.7851851851856
4 13.97037037037037 ['146', '136', '113', '116', '47', '115', '142', '72', '6', '139', '137', '138', '118', '120', '76'] 713.4148148148145
5 13.874074074074073 ['145', '133', '114', '127', '128', '142', '87', '134', '98', '117', '113', '68', '85', '146', '139'] 707.2518518518517
6 13.814814814814815 ['141', '145', '68', '76', '133', '127', '142', '148', '113', '146', '88', '114', '97', '147', '120'] 700.5555555555552
7 13.651851851851852 ['136', '139', '146', '128', '117', '145', '132', '142', '115', '127', '68', '133', '147', '135', '113'] 695.8370370370372
8 13.607407407407408 ['139', '57', '68', '137', '134', '145', '135', '47', '120', '85', '83', '138', '146', '118', '142'] 691.8962962962967
9 13.518518518518519 ['146', '57', '145', '137', '142', '120', '138', '148', '127', '133', '147', '97', '47', '83', '135'] 687.9111111111107
10 13.518518518518519 ['146', '57', '145', '137', '142', '120', '138', '148', '127', '133', '147', '97', '47', '83', '135'] 684.3851851851857
11 13.422222222222222 ['138', '142', '127', '145', '133', '148', '147', '146', '120', '141', '83', '139', '135', '113', '68'] 680.6444444444442
12 13.414814814814815 ['134', '139', '146', '113', '145', '120', '116', '142', '57', '132', '127', '137', '97', '148', '133'] 677.8888888888894
13 13.414814814814815 ['134', '139', '146', '113', '145', '120', '116', '142', '57', '132', '127', '137', '97', '148', '133'] 675.8888888888889
14 13.348148148148148 ['147', '138', '128', '142', '137', '146', '120', '145', '116', '139', '135', '113', '133', '127', '68'] 673.6222222222216
15 13.311111111111112 ['139', '113', '147', '142', '133', '116', '135', '145', '137', '134', '85', '148', '146', '138', '124'] 671.7629629629636
16 13.281481481481482 ['146', '139', '127', '138', '137', '133', '113', '147', '145', '142', '68', '135', '148', '132', '116'] 669.185185185185
17 13.274074074074074 ['133', '142', '139', '136', '137', '113', '145', '127', '135', '117', '138', '146', '148', '147', '116'] 667.3777777777774
18 13.22962962962963 ['146', '145', '135', '138', '147', '116', '139', '127', '142', '133', '117', '113', '148', '141', '137'] 665.8222222222228
19 13.214814814814815 ['137', '145', '147', '113', '135', '127', '139', '142', '116', '133', '146', '138', '148', '150', '136'] 664.7037037037043
20 13.214814814814815 ['137', '145', '147', '113', '135', '127', '139', '142', '116', '133', '146', '138', '148', '150', '136'] 663.4074074074075
21 13.192592592592593 ['148', '138', '139', '116', '150', '147', '142', '135', '133', '113', '137', '145', '141', '146', '134'] 662.4296296296294
22 13.170370370370371 ['135', '116', '145', '146', '127', '113', '137', '133', '142', '139', '138', '148', '150', '147', '134'] 661.2518518518518
23 13.170370370370371 ['135', '116', '145', '146', '127', '113', '137', '133', '142', '139', '138', '148', '150', '147', '134'] 660.244444444444
24 13.170370370370371 ['135', '116', '145', '146', '127', '113', '137', '133', '142', '139', '138', '148', '150', '147', '134'] 659.4148148148151
25 13.170370370370371 ['135', '116', '145', '146', '127', '113', '137', '133', '142', '139', '138', '148', '150', '147', '134'] 658.7851851851859
26 13.170370370370371 ['135', '116', '145', '146', '127', '113', '137', '133', '142', '139', '138', '148', '150', '147', '134'] 658.5407407407413
27 13.170370370370371 ['135', '116', '145', '146', '127', '113', '137', '133', '142', '139', '138', '148', '150', '147', '134'] 658.518518518519
28 13.170370370370371 ['135', '116', '145', '146', '127', '113', '137', '133', '142', '139', '138', '148', '150', '147', '134'] 658.518518518519
29 13.170370370370371 ['135', '116', '145', '146', '127', '113', '137', '133', '142', '139', '138', '148', '150', '147', '134'] 658.518518518519
30 13.170370370370371 ['135', '116', '145', '146', '127', '113', '137', '133', '142', '139', '138', '148', '150', '147', '134'] 658.518518518519
31 13.170370370370371 ['135', '116', '145', '146', '127', '113', '137', '133', '142', '139', '138', '148', '150', '147', '134'] 658.518518518519
32 13.170370370370371 ['135', '116', '145', '146', '127', '113', '137', '133', '142', '139', '138', '148', '150', '147', '134'] 658.518518518519
33 13.170370370370371 ['135', '116', '145', '146', '127', '113', '137', '133', '142', '139', '138', '148', '150', '147', '134'] 658.518518518519
34 13.170370370370371 ['135', '116', '145', '146', '127', '113', '137', '133', '142', '139', '138', '148', '150', '147', '134'] 658.518518518519
35 13.170370370370371 ['135', '116', '145', '146', '127', '113', '137', '133', '142', '139', '138', '148', '150', '147', '134'] 658.518518518519
36 13.170370370370371 ['135', '116', '145', '146', '127', '113', '137', '133', '142', '139', '138', '148', '150', '147', '134'] 658.518518518519
37 13.170370370370371 ['135', '116', '145', '146', '127', '113', '137', '133', '142', '139', '138', '148', '150', '147', '134'] 658.518518518519
38 13.170370370370371 ['135', '116', '145', '146', '127', '113', '137', '133', '142', '139', '138', '148', '150', '147', '134'] 658.518518518519
39 13.170370370370371 ['135', '116', '145', '146', '127', '113', '137', '133', '142', '139', '138', '148', '150', '147', '134'] 658.518518518519
40 13.170370370370371 ['135', '116', '145', '146', '127', '113', '137', '133', '142', '139', '138', '148', '150', '147', '134'] 658.518518518519
41 13.170370370370371 ['135', '116', '145', '146', '127', '113', '137', '133', '142', '139', '138', '148', '150', '147', '134'] 658.518518518519
42 13.170370370370371 ['135', '116', '145', '146', '127', '113', '137', '133', '142', '139', '138', '148', '150', '147', '134'] 658.518518518519
43 13.170370370370371 ['135', '116', '145', '146', '127', '113', '137', '133', '142', '139', '138', '148', '150', '147', '134'] 658.518518518519
44 13.170370370370371 ['135', '116', '145', '146', '127', '113', '137', '133', '142', '139', '138', '148', '150', '147', '134'] 658.518518518519
45 13.170370370370371 ['135', '116', '145', '146', '127', '113', '137', '133', '142', '139', '138', '148', '150', '147', '134'] 658.518518518519
46 13.170370370370371 ['135', '116', '145', '146', '127', '113', '137', '133', '142', '139', '138', '148', '150', '147', '134'] 658.518518518519
47 13.170370370370371 ['135', '116', '145', '146', '127', '113', '137', '133', '142', '139', '138', '148', '150', '147', '134'] 658.518518518519
48 13.170370370370371 ['135', '116', '145', '146', '127', '113', '137', '133', '142', '139', '138', '148', '150', '147', '134'] 658.518518518519
49 13.170370370370371 ['135', '116', '145', '146', '127', '113', '137', '133', '142', '139', '138', '148', '150', '147', '134'] 658.518518518519
50 13.170370370370371 ['135', '116', '145', '146', '127', '113', '137', '133', '142', '139', '138', '148', '150', '147', '134'] 658.518518518519
51 13.170370370370371 ['135', '116', '145', '146', '127', '113', '137', '133', '142', '139', '138', '148', '150', '147', '134'] 658.518518518519
52 13.170370370370371 ['135', '116', '145', '146', '127', '113', '137', '133', '142', '139', '138', '148', '150', '147', '134'] 658.518518518519
53 13.170370370370371 ['135', '116', '145', '146', '127', '113', '137', '133', '142', '139', '138', '148', '150', '147', '134'] 658.518518518519
54 13.170370370370371 ['135', '116', '145', '146', '127', '113', '137', '133', '142', '139', '138', '148', '150', '147', '134'] 658.518518518519
55 13.170370370370371 ['135', '116', '145', '146', '127', '113', '137', '133', '142', '139', '138', '148', '150', '147', '134'] 658.518518518519
56 13.170370370370371 ['135', '116', '145', '146', '127', '113', '137', '133', '142', '139', '138', '148', '150', '147', '134'] 658.518518518519
57 13.170370370370371 ['135', '116', '145', '146', '127', '113', '137', '133', '142', '139', '138', '148', '150', '147', '134'] 658.518518518519
58 13.170370370370371 ['135', '116', '145', '146', '127', '113', '137', '133', '142', '139', '138', '148', '150', '147', '134'] 658.518518518519
59 13.170370370370371 ['135', '116', '145', '146', '127', '113', '137', '133', '142', '139', '138', '148', '150', '147', '134'] 658.518518518519
60 13.170370370370371 ['135', '116', '145', '146', '127', '113', '137', '133', '142', '139', '138', '148', '150', '147', '134'] 658.518518518519
61 13.170370370370371 ['135', '116', '145', '146', '127', '113', '137', '133', '142', '139', '138', '148', '150', '147', '134'] 658.518518518519
62 13.170370370370371 ['135', '116', '145', '146', '127', '113', '137', '133', '142', '139', '138', '148', '150', '147', '134'] 658.518518518519
63 13.170370370370371 ['135', '116', '145', '146', '127', '113', '137', '133', '142', '139', '138', '148', '150', '147', '134'] 658.518518518519
64 13.170370370370371 ['135', '116', '145', '146', '127', '113', '137', '133', '142', '139', '138', '148', '150', '147', '134'] 658.518518518519
65 13.170370370370371 ['135', '116', '145', '146', '127', '113', '137', '133', '142', '139', '138', '148', '150', '147', '134'] 658.518518518519
66 13.170370370370371 ['135', '116', '145', '146', '127', '113', '137', '133', '142', '139', '138', '148', '150', '147', '134'] 658.518518518519
67 13.170370370370371 ['135', '116', '145', '146', '127', '113', '137', '133', '142', '139', '138', '148', '150', '147', '134'] 658.518518518519
68 13.170370370370371 ['135', '116', '145', '146', '127', '113', '137', '133', '142', '139', '138', '148', '150', '147', '134'] 658.518518518519
69 13.170370370370371 ['135', '116', '145', '146', '127', '113', '137', '133', '142', '139', '138', '148', '150', '147', '134'] 658.518518518519
70 13.170370370370371 ['135', '116', '145', '146', '127', '113', '137', '133', '142', '139', '138', '148', '150', '147', '134'] 658.518518518519
71 13.170370370370371 ['135', '116', '145', '146', '127', '113', '137', '133', '142', '139', '138', '148', '150', '147', '134'] 658.518518518519
72 13.170370370370371 ['135', '116', '145', '146', '127', '113', '137', '133', '142', '139', '138', '148', '150', '147', '134'] 658.518518518519
73 13.170370370370371 ['135', '116', '145', '146', '127', '113', '137', '133', '142', '139', '138', '148', '150', '147', '134'] 658.518518518519
74 13.170370370370371 ['135', '116', '145', '146', '127', '113', '137', '133', '142', '139', '138', '148', '150', '147', '134'] 658.518518518519
75 13.170370370370371 ['135', '116', '145', '146', '127', '113', '137', '133', '142', '139', '138', '148', '150', '147', '134'] 658.518518518519
76 13.170370370370371 ['135', '116', '145', '146', '127', '113', '137', '133', '142', '139', '138', '148', '150', '147', '134'] 658.518518518519
77 13.170370370370371 ['135', '116', '145', '146', '127', '113', '137', '133', '142', '139', '138', '148', '150', '147', '134'] 658.518518518519
78 13.170370370370371 ['135', '116', '145', '146', '127', '113', '137', '133', '142', '139', '138', '148', '150', '147', '134'] 658.518518518519
79 13.170370370370371 ['135', '116', '145', '146', '127', '113', '137', '133', '142', '139', '138', '148', '150', '147', '134'] 658.518518518519
80 13.170370370370371 ['135', '116', '145', '146', '127', '113', '137', '133', '142', '139', '138', '148', '150', '147', '134'] 658.518518518519
81 13.170370370370371 ['135', '116', '145', '146', '127', '113', '137', '133', '142', '139', '138', '148', '150', '147', '134'] 658.518518518519
82 13.170370370370371 ['135', '116', '145', '146', '127', '113', '137', '133', '142', '139', '138', '148', '150', '147', '134'] 658.518518518519
83 13.170370370370371 ['135', '116', '145', '146', '127', '113', '137', '133', '142', '139', '138', '148', '150', '147', '134'] 658.518518518519
84 13.170370370370371 ['135', '116', '145', '146', '127', '113', '137', '133', '142', '139', '138', '148', '150', '147', '134'] 658.518518518519
85 13.170370370370371 ['135', '116', '145', '146', '127', '113', '137', '133', '142', '139', '138', '148', '150', '147', '134'] 658.518518518519
86 13.170370370370371 ['135', '116', '145', '146', '127', '113', '137', '133', '142', '139', '138', '148', '150', '147', '134'] 658.518518518519
87 13.170370370370371 ['135', '116', '145', '146', '127', '113', '137', '133', '142', '139', '138', '148', '150', '147', '134'] 658.518518518519
88 13.170370370370371 ['135', '116', '145', '146', '127', '113', '137', '133', '142', '139', '138', '148', '150', '147', '134'] 658.518518518519
89 13.170370370370371 ['135', '116', '145', '146', '127', '113', '137', '133', '142', '139', '138', '148', '150', '147', '134'] 658.518518518519
90 13.170370370370371 ['135', '116', '145', '146', '127', '113', '137', '133', '142', '139', '138', '148', '150', '147', '134'] 658.518518518519
91 13.170370370370371 ['135', '116', '145', '146', '127', '113', '137', '133', '142', '139', '138', '148', '150', '147', '134'] 658.518518518519
92 13.170370370370371 ['135', '116', '145', '146', '127', '113', '137', '133', '142', '139', '138', '148', '150', '147', '134'] 658.518518518519
93 13.170370370370371 ['135', '116', '145', '146', '127', '113', '137', '133', '142', '139', '138', '148', '150', '147', '134'] 658.518518518519
94 13.170370370370371 ['135', '116', '145', '146', '127', '113', '137', '133', '142', '139', '138', '148', '150', '147', '134'] 658.518518518519
95 13.170370370370371 ['135', '116', '145', '146', '127', '113', '137', '133', '142', '139', '138', '148', '150', '147', '134'] 658.518518518519
96 13.170370370370371 ['135', '116', '145', '146', '127', '113', '137', '133', '142', '139', '138', '148', '150', '147', '134'] 658.518518518519
97 13.170370370370371 ['135', '116', '145', '146', '127', '113', '137', '133', '142', '139', '138', '148', '150', '147', '134'] 658.518518518519
98 13.170370370370371 ['135', '116', '145', '146', '127', '113', '137', '133', '142', '139', '138', '148', '150', '147', '134'] 658.518518518519
99 13.170370370370371 ['135', '116', '145', '146', '127', '113', '137', '133', '142', '139', '138', '148', '150', '147', '134'] 658.518518518519
100 13.170370370370371 ['135', '116', '145', '146', '127', '113', '137', '133', '142', '139', '138', '148', '150', '147', '134'] 658.518518518519
101 13.170370370370371 ['135', '116', '145', '146', '127', '113', '137', '133', '142', '139', '138', '148', '150', '147', '134'] 658.518518518519
102 13.170370370370371 ['135', '116', '145', '146', '127', '113', '137', '133', '142', '139', '138', '148', '150', '147', '134'] 658.518518518519
103 13.170370370370371 ['135', '116', '145', '146', '127', '113', '137', '133', '142', '139', '138', '148', '150', '147', '134'] 658.518518518519
104 13.170370370370371 ['135', '116', '145', '146', '127', '113', '137', '133', '142', '139', '138', '148', '150', '147', '134'] 658.518518518519
105 13.170370370370371 ['135', '116', '145', '146', '127', '113', '137', '133', '142', '139', '138', '148', '150', '147', '134'] 658.518518518519
106 13.170370370370371 ['135', '116', '145', '146', '127', '113', '137', '133', '142', '139', '138', '148', '150', '147', '134'] 658.518518518519
107 13.170370370370371 ['135', '116', '145', '146', '127', '113', '137', '133', '142', '139', '138', '148', '150', '147', '134'] 658.518518518519
108 13.170370370370371 ['135', '116', '145', '146', '127', '113', '137', '133', '142', '139', '138', '148', '150', '147', '134'] 658.518518518519
109 13.170370370370371 ['135', '116', '145', '146', '127', '113', '137', '133', '142', '139', '138', '148', '150', '147', '134'] 658.518518518519
110 13.170370370370371 ['135', '116', '145', '146', '127', '113', '137', '133', '142', '139', '138', '148', '150', '147', '134'] 658.518518518519
111 13.170370370370371 ['135', '116', '145', '146', '127', '113', '137', '133', '142', '139', '138', '148', '150', '147', '134'] 658.518518518519
112 13.170370370370371 ['135', '116', '145', '146', '127', '113', '137', '133', '142', '139', '138', '148', '150', '147', '134'] 658.518518518519
113 13.170370370370371 ['135', '116', '145', '146', '127', '113', '137', '133', '142', '139', '138', '148', '150', '147', '134'] 658.518518518519
114 13.170370370370371 ['135', '116', '145', '146', '127', '113', '137', '133', '142', '139', '138', '148', '150', '147', '134'] 658.518518518519
115 13.170370370370371 ['135', '116', '145', '146', '127', '113', '137', '133', '142', '139', '138', '148', '150', '147', '134'] 658.518518518519
116 13.170370370370371 ['135', '116', '145', '146', '127', '113', '137', '133', '142', '139', '138', '148', '150', '147', '134'] 658.518518518519
117 13.170370370370371 ['135', '116', '145', '146', '127', '113', '137', '133', '142', '139', '138', '148', '150', '147', '134'] 658.518518518519
118 13.170370370370371 ['135', '116', '145', '146', '127', '113', '137', '133', '142', '139', '138', '148', '150', '147', '134'] 658.518518518519
119 13.170370370370371 ['135', '116', '145', '146', '127', '113', '137', '133', '142', '139', '138', '148', '150', '147', '134'] 658.518518518519
120 13.170370370370371 ['135', '116', '145', '146', '127', '113', '137', '133', '142', '139', '138', '148', '150', '147', '134'] 658.518518518519
121 13.170370370370371 ['135', '116', '145', '146', '127', '113', '137', '133', '142', '139', '138', '148', '150', '147', '134'] 658.518518518519
122 13.170370370370371 ['135', '116', '145', '146', '127', '113', '137', '133', '142', '139', '138', '148', '150', '147', '134'] 658.518518518519
123 13.170370370370371 ['135', '116', '145', '146', '127', '113', '137', '133', '142', '139', '138', '148', '150', '147', '134'] 658.518518518519
124 13.170370370370371 ['135', '116', '145', '146', '127', '113', '137', '133', '142', '139', '138', '148', '150', '147', '134'] 658.518518518519
125 13.170370370370371 ['135', '116', '145', '146', '127', '113', '137', '133', '142', '139', '138', '148', '150', '147', '134'] 658.518518518519
126 13.170370370370371 ['135', '116', '145', '146', '127', '113', '137', '133', '142', '139', '138', '148', '150', '147', '134'] 658.518518518519
127 13.170370370370371 ['135', '116', '145', '146', '127', '113', '137', '133', '142', '139', '138', '148', '150', '147', '134'] 658.518518518519
128 13.170370370370371 ['135', '116', '145', '146', '127', '113', '137', '133', '142', '139', '138', '148', '150', '147', '134'] 658.518518518519
129 13.170370370370371 ['135', '116', '145', '146', '127', '113', '137', '133', '142', '139', '138', '148', '150', '147', '134'] 658.518518518519
130 13.170370370370371 ['135', '116', '145', '146', '127', '113', '137', '133', '142', '139', '138', '148', '150', '147', '134'] 658.518518518519
131 13.170370370370371 ['135', '116', '145', '146', '127', '113', '137', '133', '142', '139', '138', '148', '150', '147', '134'] 658.518518518519
132 13.170370370370371 ['135', '116', '145', '146', '127', '113', '137', '133', '142', '139', '138', '148', '150', '147', '134'] 658.518518518519
133 13.170370370370371 ['135', '116', '145', '146', '127', '113', '137', '133', '142', '139', '138', '148', '150', '147', '134'] 658.518518518519
134 13.170370370370371 ['135', '116', '145', '146', '127', '113', '137', '133', '142', '139', '138', '148', '150', '147', '134'] 658.518518518519
135 13.170370370370371 ['135', '116', '145', '146', '127', '113', '137', '133', '142', '139', '138', '148', '150', '147', '134'] 658.518518518519
136 13.170370370370371 ['135', '116', '145', '146', '127', '113', '137', '133', '142', '139', '138', '148', '150', '147', '134'] 658.518518518519
137 13.170370370370371 ['135', '116', '145', '146', '127', '113', '137', '133', '142', '139', '138', '148', '150', '147', '134'] 658.518518518519
138 13.170370370370371 ['135', '116', '145', '146', '127', '113', '137', '133', '142', '139', '138', '148', '150', '147', '134'] 658.518518518519
139 13.170370370370371 ['135', '116', '145', '146', '127', '113', '137', '133', '142', '139', '138', '148', '150', '147', '134'] 658.518518518519
140 13.170370370370371 ['135', '116', '145', '146', '127', '113', '137', '133', '142', '139', '138', '148', '150', '147', '134'] 658.518518518519
141 13.170370370370371 ['135', '116', '145', '146', '127', '113', '137', '133', '142', '139', '138', '148', '150', '147', '134'] 658.518518518519
142 13.170370370370371 ['135', '116', '145', '146', '127', '113', '137', '133', '142', '139', '138', '148', '150', '147', '134'] 658.518518518519
143 13.170370370370371 ['135', '116', '145', '146', '127', '113', '137', '133', '142', '139', '138', '148', '150', '147', '134'] 658.518518518519
144 13.170370370370371 ['135', '116', '145', '146', '127', '113', '137', '133', '142', '139', '138', '148', '150', '147', '134'] 658.518518518519
145 13.170370370370371 ['135', '116', '145', '146', '127', '113', '137', '133', '142', '139', '138', '148', '150', '147', '134'] 658.518518518519
146 13.170370370370371 ['135', '116', '145', '146', '127', '113', '137', '133', '142', '139', '138', '148', '150', '147', '134'] 658.518518518519
147 13.170370370370371 ['135', '116', '145', '146', '127', '113', '137', '133', '142', '139', '138', '148', '150', '147', '134'] 658.518518518519
148 13.170370370370371 ['135', '116', '145', '146', '127', '113', '137', '133', '142', '139', '138', '148', '150', '147', '134'] 658.518518518519
149 13.170370370370371 ['135', '116', '145', '146', '127', '113', '137', '133', '142', '139', '138', '148', '150', '147', '134'] 658.518518518519
150 13.170370370370371 ['135', '116', '145', '146', '127', '113', '137', '133', '142', '139', '138', '148', '150', '147', '134'] 658.518518518519
151 13.170370370370371 ['135', '116', '145', '146', '127', '113', '137', '133', '142', '139', '138', '148', '150', '147', '134'] 658.518518518519
152 13.170370370370371 ['135', '116', '145', '146', '127', '113', '137', '133', '142', '139', '138', '148', '150', '147', '134'] 658.518518518519
153 13.170370370370371 ['135', '116', '145', '146', '127', '113', '137', '133', '142', '139', '138', '148', '150', '147', '134'] 658.518518518519
154 13.170370370370371 ['135', '116', '145', '146', '127', '113', '137', '133', '142', '139', '138', '148', '150', '147', '134'] 658.518518518519
155 13.170370370370371 ['135', '116', '145', '146', '127', '113', '137', '133', '142', '139', '138', '148', '150', '147', '134'] 658.518518518519
156 13.170370370370371 ['135', '116', '145', '146', '127', '113', '137', '133', '142', '139', '138', '148', '150', '147', '134'] 658.518518518519
157 13.170370370370371 ['135', '116', '145', '146', '127', '113', '137', '133', '142', '139', '138', '148', '150', '147', '134'] 658.518518518519
158 13.170370370370371 ['135', '116', '145', '146', '127', '113', '137', '133', '142', '139', '138', '148', '150', '147', '134'] 658.518518518519
159 13.170370370370371 ['135', '116', '145', '146', '127', '113', '137', '133', '142', '139', '138', '148', '150', '147', '134'] 658.518518518519
160 13.170370370370371 ['135', '116', '145', '146', '127', '113', '137', '133', '142', '139', '138', '148', '150', '147', '134'] 658.518518518519
161 13.170370370370371 ['135', '116', '145', '146', '127', '113', '137', '133', '142', '139', '138', '148', '150', '147', '134'] 658.518518518519
162 13.170370370370371 ['135', '116', '145', '146', '127', '113', '137', '133', '142', '139', '138', '148', '150', '147', '134'] 658.518518518519
163 13.170370370370371 ['135', '116', '145', '146', '127', '113', '137', '133', '142', '139', '138', '148', '150', '147', '134'] 658.518518518519
164 13.170370370370371 ['135', '116', '145', '146', '127', '113', '137', '133', '142', '139', '138', '148', '150', '147', '134'] 658.518518518519
165 13.170370370370371 ['135', '116', '145', '146', '127', '113', '137', '133', '142', '139', '138', '148', '150', '147', '134'] 658.518518518519
166 13.170370370370371 ['135', '116', '145', '146', '127', '113', '137', '133', '142', '139', '138', '148', '150', '147', '134'] 658.518518518519
167 13.170370370370371 ['135', '116', '145', '146', '127', '113', '137', '133', '142', '139', '138', '148', '150', '147', '134'] 658.518518518519
168 13.170370370370371 ['135', '116', '145', '146', '127', '113', '137', '133', '142', '139', '138', '148', '150', '147', '134'] 658.518518518519
169 13.170370370370371 ['135', '116', '145', '146', '127', '113', '137', '133', '142', '139', '138', '148', '150', '147', '134'] 658.518518518519
170 13.170370370370371 ['135', '116', '145', '146', '127', '113', '137', '133', '142', '139', '138', '148', '150', '147', '134'] 658.518518518519
171 13.170370370370371 ['135', '116', '145', '146', '127', '113', '137', '133', '142', '139', '138', '148', '150', '147', '134'] 658.518518518519
172 13.170370370370371 ['135', '116', '145', '146', '127', '113', '137', '133', '142', '139', '138', '148', '150', '147', '134'] 658.518518518519
173 13.170370370370371 ['135', '116', '145', '146', '127', '113', '137', '133', '142', '139', '138', '148', '150', '147', '134'] 658.518518518519
174 13.170370370370371 ['135', '116', '145', '146', '127', '113', '137', '133', '142', '139', '138', '148', '150', '147', '134'] 658.518518518519
175 13.170370370370371 ['135', '116', '145', '146', '127', '113', '137', '133', '142', '139', '138', '148', '150', '147', '134'] 658.518518518519
176 13.170370370370371 ['135', '116', '145', '146', '127', '113', '137', '133', '142', '139', '138', '148', '150', '147', '134'] 658.518518518519
177 13.170370370370371 ['135', '116', '145', '146', '127', '113', '137', '133', '142', '139', '138', '148', '150', '147', '134'] 658.518518518519
178 13.170370370370371 ['135', '116', '145', '146', '127', '113', '137', '133', '142', '139', '138', '148', '150', '147', '134'] 658.518518518519
179 13.170370370370371 ['135', '116', '145', '146', '127', '113', '137', '133', '142', '139', '138', '148', '150', '147', '134'] 658.518518518519
180 13.170370370370371 ['135', '116', '145', '146', '127', '113', '137', '133', '142', '139', '138', '148', '150', '147', '134'] 658.518518518519
181 13.170370370370371 ['135', '116', '145', '146', '127', '113', '137', '133', '142', '139', '138', '148', '150', '147', '134'] 658.518518518519
182 13.170370370370371 ['135', '116', '145', '146', '127', '113', '137', '133', '142', '139', '138', '148', '150', '147', '134'] 658.518518518519
183 13.170370370370371 ['135', '116', '145', '146', '127', '113', '137', '133', '142', '139', '138', '148', '150', '147', '134'] 658.518518518519
184 13.170370370370371 ['135', '116', '145', '146', '127', '113', '137', '133', '142', '139', '138', '148', '150', '147', '134'] 658.518518518519
185 13.170370370370371 ['135', '116', '145', '146', '127', '113', '137', '133', '142', '139', '138', '148', '150', '147', '134'] 658.518518518519
186 13.170370370370371 ['135', '116', '145', '146', '127', '113', '137', '133', '142', '139', '138', '148', '150', '147', '134'] 658.518518518519
187 13.170370370370371 ['135', '116', '145', '146', '127', '113', '137', '133', '142', '139', '138', '148', '150', '147', '134'] 658.518518518519
188 13.170370370370371 ['135', '116', '145', '146', '127', '113', '137', '133', '142', '139', '138', '148', '150', '147', '134'] 658.518518518519
189 13.170370370370371 ['135', '116', '145', '146', '127', '113', '137', '133', '142', '139', '138', '148', '150', '147', '134'] 658.518518518519
190 13.170370370370371 ['135', '116', '145', '146', '127', '113', '137', '133', '142', '139', '138', '148', '150', '147', '134'] 658.518518518519
191 13.170370370370371 ['135', '116', '145', '146', '127', '113', '137', '133', '142', '139', '138', '148', '150', '147', '134'] 658.518518518519
192 13.170370370370371 ['135', '116', '145', '146', '127', '113', '137', '133', '142', '139', '138', '148', '150', '147', '134'] 658.518518518519
193 13.170370370370371 ['135', '116', '145', '146', '127', '113', '137', '133', '142', '139', '138', '148', '150', '147', '134'] 658.518518518519
194 13.170370370370371 ['135', '116', '145', '146', '127', '113', '137', '133', '142', '139', '138', '148', '150', '147', '134'] 658.518518518519
195 13.170370370370371 ['135', '116', '145', '146', '127', '113', '137', '133', '142', '139', '138', '148', '150', '147', '134'] 658.518518518519
196 13.170370370370371 ['135', '116', '145', '146', '127', '113', '137', '133', '142', '139', '138', '148', '150', '147', '134'] 658.518518518519
197 13.170370370370371 ['135', '116', '145', '146', '127', '113', '137', '133', '142', '139', '138', '148', '150', '147', '134'] 658.518518518519
198 13.170370370370371 ['135', '116', '145', '146', '127', '113', '137', '133', '142', '139', '138', '148', '150', '147', '134'] 658.518518518519
199 13.170370370370371 ['135', '116', '145', '146', '127', '113', '137', '133', '142', '139', '138', '148', '150', '147', '134'] 658.518518518519
