0 5.525555555555559 ['137', '125', '127', '126', '129', '138', '6', '109', '56', '121', '82', '27', '78', '149', '62'] 279.4476543209878
1 5.460000000000001 ['92', '94', '52', '77', '137', '98', '139', '148', '122', '114', '64', '136', '109', '130', '27'] 278.13765432098774
2 5.460000000000001 ['92', '94', '52', '77', '137', '98', '139', '148', '122', '114', '64', '136', '109', '130', '27'] 277.13716049382725
3 5.458148148148152 ['146', '46', '111', '83', '150', '122', '105', '64', '110', '143', '91', '65', '89', '74', '141'] 276.2765432098766
4 5.458148148148152 ['146', '46', '111', '83', '150', '122', '105', '64', '110', '143', '91', '65', '89', '74', '141'] 275.5146913580247
5 5.458148148148152 ['146', '46', '111', '83', '150', '122', '105', '64', '110', '143', '91', '65', '89', '74', '141'] 275.0851851851852
6 5.429753086419756 ['43', '147', '69', '137', '19', '122', '66', '139', '14', '64', '116', '136', '133', '142', '148'] 274.39358024691376
7 5.411975308641976 ['19', '66', '142', '136', '116', '148', '122', '137', '111', '83', '133', '42', '117', '64', '149'] 273.8281481481483
8 5.394814814814814 ['66', '149', '64', '111', '137', '148', '42', '114', '122', '116', '77', '94', '83', '142', '133'] 273.11259259259265
9 5.37641975308642 ['97', '65', '105', '111', '141', '46', '133', '116', '149', '142', '64', '129', '122', '138', '110'] 272.4314814814815
10 5.37641975308642 ['97', '65', '105', '111', '141', '46', '133', '116', '149', '142', '64', '129', '122', '138', '110'] 271.7545679012346
11 5.37641975308642 ['97', '65', '105', '111', '141', '46', '133', '116', '149', '142', '64', '129', '122', '138', '110'] 271.09530864197535
12 5.352962962962963 ['116', '148', '142', '149', '133', '147', '111', '139', '66', '134', '126', '69', '42', '37', '137'] 270.390987654321
13 5.321975308641975 ['42', '116', '142', '137', '148', '149', '133', '66', '111', '130', '147', '139', '136', '134', '64'] 269.7218518518519
14 5.321975308641975 ['42', '116', '142', '137', '148', '149', '133', '66', '111', '130', '147', '139', '136', '134', '64'] 269.13518518518526
15 5.321975308641975 ['42', '116', '142', '137', '148', '149', '133', '66', '111', '130', '147', '139', '136', '134', '64'] 268.76308641975317
16 5.321975308641975 ['42', '116', '142', '137', '148', '149', '133', '66', '111', '130', '147', '139', '136', '134', '64'] 268.2553086419754
17 5.319382716049384 ['66', '111', '133', '126', '134', '116', '142', '149', '42', '122', '94', '136', '64', '70', '139'] 267.7432098765433
18 5.315185185185185 ['70', '142', '66', '116', '149', '133', '148', '64', '139', '111', '147', '134', '105', '42', '136'] 267.3008641975308
19 5.307777777777779 ['70', '142', '111', '64', '133', '137', '122', '109', '149', '117', '126', '42', '136', '89', '134'] 266.8059259259259
20 5.307777777777779 ['70', '142', '111', '64', '133', '137', '122', '109', '149', '117', '126', '42', '136', '89', '134'] 266.3932098765432
21 5.287901234567902 ['133', '137', '111', '142', '109', '66', '64', '149', '42', '116', '136', '141', '134', '122', '70'] 265.9330864197532
22 5.2646913580246935 ['66', '42', '111', '122', '136', '133', '116', '64', '134', '142', '70', '149', '109', '126', '137'] 265.56790123456784
23 5.2646913580246935 ['66', '42', '111', '122', '136', '133', '116', '64', '134', '142', '70', '149', '109', '126', '137'] 265.2950617283951
24 5.2646913580246935 ['66', '42', '111', '122', '136', '133', '116', '64', '134', '142', '70', '149', '109', '126', '137'] 264.8075308641976
25 5.2576543209876565 ['133', '116', '122', '42', '126', '64', '142', '149', '111', '134', '66', '70', '136', '137', '141'] 264.2606172839507
26 5.2576543209876565 ['133', '116', '122', '42', '126', '64', '142', '149', '111', '134', '66', '70', '136', '137', '141'] 263.97691358024684
27 5.2576543209876565 ['133', '116', '122', '42', '126', '64', '142', '149', '111', '134', '66', '70', '136', '137', '141'] 263.6390123456789
28 5.2576543209876565 ['133', '116', '122', '42', '126', '64', '142', '149', '111', '134', '66', '70', '136', '137', '141'] 263.44049382716065
29 5.2576543209876565 ['133', '116', '122', '42', '126', '64', '142', '149', '111', '134', '66', '70', '136', '137', '141'] 263.0967901234569
30 5.252469135802472 ['137', '122', '134', '142', '105', '116', '133', '66', '111', '42', '136', '64', '149', '126', '141'] 262.9486419753088
31 5.252469135802472 ['137', '122', '134', '142', '105', '116', '133', '66', '111', '42', '136', '64', '149', '126', '141'] 262.87753086419764
32 5.252469135802472 ['137', '122', '134', '142', '105', '116', '133', '66', '111', '42', '136', '64', '149', '126', '141'] 262.8723456790124
33 5.252469135802472 ['137', '122', '134', '142', '105', '116', '133', '66', '111', '42', '136', '64', '149', '126', '141'] 262.86197530864206
34 5.252469135802472 ['137', '122', '134', '142', '105', '116', '133', '66', '111', '42', '136', '64', '149', '126', '141'] 262.83604938271617
35 5.252469135802472 ['137', '122', '134', '142', '105', '116', '133', '66', '111', '42', '136', '64', '149', '126', '141'] 262.7634567901236
36 5.252469135802472 ['137', '122', '134', '142', '105', '116', '133', '66', '111', '42', '136', '64', '149', '126', '141'] 262.6545679012347
37 5.252469135802472 ['137', '122', '134', '142', '105', '116', '133', '66', '111', '42', '136', '64', '149', '126', '141'] 262.6234567901236
38 5.252469135802472 ['137', '122', '134', '142', '105', '116', '133', '66', '111', '42', '136', '64', '149', '126', '141'] 262.6234567901236
39 5.252469135802472 ['137', '122', '134', '142', '105', '116', '133', '66', '111', '42', '136', '64', '149', '126', '141'] 262.6234567901236
40 5.252469135802472 ['137', '122', '134', '142', '105', '116', '133', '66', '111', '42', '136', '64', '149', '126', '141'] 262.6234567901236
41 5.252469135802472 ['137', '122', '134', '142', '105', '116', '133', '66', '111', '42', '136', '64', '149', '126', '141'] 262.6234567901236
42 5.252469135802472 ['137', '122', '134', '142', '105', '116', '133', '66', '111', '42', '136', '64', '149', '126', '141'] 262.6234567901236
43 5.252469135802472 ['137', '122', '134', '142', '105', '116', '133', '66', '111', '42', '136', '64', '149', '126', '141'] 262.6234567901236
44 5.252469135802472 ['137', '122', '134', '142', '105', '116', '133', '66', '111', '42', '136', '64', '149', '126', '141'] 262.6234567901236
45 5.252469135802472 ['137', '122', '134', '142', '105', '116', '133', '66', '111', '42', '136', '64', '149', '126', '141'] 262.6234567901236
46 5.252469135802472 ['137', '122', '134', '142', '105', '116', '133', '66', '111', '42', '136', '64', '149', '126', '141'] 262.6234567901236
47 5.252469135802472 ['137', '122', '134', '142', '105', '116', '133', '66', '111', '42', '136', '64', '149', '126', '141'] 262.6234567901236
48 5.252469135802472 ['137', '122', '134', '142', '105', '116', '133', '66', '111', '42', '136', '64', '149', '126', '141'] 262.6234567901236
49 5.252469135802472 ['137', '122', '134', '142', '105', '116', '133', '66', '111', '42', '136', '64', '149', '126', '141'] 262.6234567901236
50 5.252469135802472 ['137', '122', '134', '142', '105', '116', '133', '66', '111', '42', '136', '64', '149', '126', '141'] 262.6234567901236
51 5.252469135802472 ['137', '122', '134', '142', '105', '116', '133', '66', '111', '42', '136', '64', '149', '126', '141'] 262.6234567901236
52 5.252469135802472 ['137', '122', '134', '142', '105', '116', '133', '66', '111', '42', '136', '64', '149', '126', '141'] 262.6234567901236
53 5.252469135802472 ['137', '122', '134', '142', '105', '116', '133', '66', '111', '42', '136', '64', '149', '126', '141'] 262.6234567901236
54 5.252469135802472 ['137', '122', '134', '142', '105', '116', '133', '66', '111', '42', '136', '64', '149', '126', '141'] 262.6234567901236
55 5.252469135802472 ['137', '122', '134', '142', '105', '116', '133', '66', '111', '42', '136', '64', '149', '126', '141'] 262.6234567901236
56 5.252469135802472 ['137', '122', '134', '142', '105', '116', '133', '66', '111', '42', '136', '64', '149', '126', '141'] 262.6234567901236
57 5.252469135802472 ['137', '122', '134', '142', '105', '116', '133', '66', '111', '42', '136', '64', '149', '126', '141'] 262.6234567901236
58 5.252469135802472 ['137', '122', '134', '142', '105', '116', '133', '66', '111', '42', '136', '64', '149', '126', '141'] 262.6234567901236
59 5.252469135802472 ['137', '122', '134', '142', '105', '116', '133', '66', '111', '42', '136', '64', '149', '126', '141'] 262.6234567901236
60 5.252469135802472 ['137', '122', '134', '142', '105', '116', '133', '66', '111', '42', '136', '64', '149', '126', '141'] 262.6234567901236
61 5.252469135802472 ['137', '122', '134', '142', '105', '116', '133', '66', '111', '42', '136', '64', '149', '126', '141'] 262.6234567901236
62 5.252469135802472 ['137', '122', '134', '142', '105', '116', '133', '66', '111', '42', '136', '64', '149', '126', '141'] 262.6234567901236
63 5.252469135802472 ['137', '122', '134', '142', '105', '116', '133', '66', '111', '42', '136', '64', '149', '126', '141'] 262.6234567901236
64 5.252469135802472 ['137', '122', '134', '142', '105', '116', '133', '66', '111', '42', '136', '64', '149', '126', '141'] 262.6234567901236
65 5.252469135802472 ['137', '122', '134', '142', '105', '116', '133', '66', '111', '42', '136', '64', '149', '126', '141'] 262.6234567901236
66 5.252469135802472 ['137', '122', '134', '142', '105', '116', '133', '66', '111', '42', '136', '64', '149', '126', '141'] 262.6234567901236
67 5.252469135802472 ['137', '122', '134', '142', '105', '116', '133', '66', '111', '42', '136', '64', '149', '126', '141'] 262.6234567901236
68 5.252469135802472 ['137', '122', '134', '142', '105', '116', '133', '66', '111', '42', '136', '64', '149', '126', '141'] 262.6234567901236
69 5.252469135802472 ['137', '122', '134', '142', '105', '116', '133', '66', '111', '42', '136', '64', '149', '126', '141'] 262.6234567901236
70 5.252469135802472 ['137', '122', '134', '142', '105', '116', '133', '66', '111', '42', '136', '64', '149', '126', '141'] 262.6234567901236
71 5.252469135802472 ['137', '122', '134', '142', '105', '116', '133', '66', '111', '42', '136', '64', '149', '126', '141'] 262.6234567901236
72 5.252469135802472 ['137', '122', '134', '142', '105', '116', '133', '66', '111', '42', '136', '64', '149', '126', '141'] 262.6234567901236
73 5.252469135802472 ['137', '122', '134', '142', '105', '116', '133', '66', '111', '42', '136', '64', '149', '126', '141'] 262.6234567901236
74 5.252469135802472 ['137', '122', '134', '142', '105', '116', '133', '66', '111', '42', '136', '64', '149', '126', '141'] 262.6234567901236
75 5.252469135802472 ['137', '122', '134', '142', '105', '116', '133', '66', '111', '42', '136', '64', '149', '126', '141'] 262.6234567901236
76 5.252469135802472 ['137', '122', '134', '142', '105', '116', '133', '66', '111', '42', '136', '64', '149', '126', '141'] 262.6234567901236
77 5.252469135802472 ['137', '122', '134', '142', '105', '116', '133', '66', '111', '42', '136', '64', '149', '126', '141'] 262.6234567901236
78 5.252469135802472 ['137', '122', '134', '142', '105', '116', '133', '66', '111', '42', '136', '64', '149', '126', '141'] 262.6234567901236
79 5.252469135802472 ['137', '122', '134', '142', '105', '116', '133', '66', '111', '42', '136', '64', '149', '126', '141'] 262.6234567901236
80 5.252469135802472 ['137', '122', '134', '142', '105', '116', '133', '66', '111', '42', '136', '64', '149', '126', '141'] 262.6234567901236
81 5.252469135802472 ['137', '122', '134', '142', '105', '116', '133', '66', '111', '42', '136', '64', '149', '126', '141'] 262.6234567901236
82 5.252469135802472 ['137', '122', '134', '142', '105', '116', '133', '66', '111', '42', '136', '64', '149', '126', '141'] 262.6234567901236
83 5.252469135802472 ['137', '122', '134', '142', '105', '116', '133', '66', '111', '42', '136', '64', '149', '126', '141'] 262.6234567901236
84 5.252469135802472 ['137', '122', '134', '142', '105', '116', '133', '66', '111', '42', '136', '64', '149', '126', '141'] 262.6234567901236
85 5.252469135802472 ['137', '122', '134', '142', '105', '116', '133', '66', '111', '42', '136', '64', '149', '126', '141'] 262.6234567901236
86 5.252469135802472 ['137', '122', '134', '142', '105', '116', '133', '66', '111', '42', '136', '64', '149', '126', '141'] 262.6234567901236
87 5.252469135802472 ['137', '122', '134', '142', '105', '116', '133', '66', '111', '42', '136', '64', '149', '126', '141'] 262.6234567901236
88 5.252469135802472 ['137', '122', '134', '142', '105', '116', '133', '66', '111', '42', '136', '64', '149', '126', '141'] 262.6234567901236
89 5.252469135802472 ['137', '122', '134', '142', '105', '116', '133', '66', '111', '42', '136', '64', '149', '126', '141'] 262.6234567901236
90 5.252469135802472 ['137', '122', '134', '142', '105', '116', '133', '66', '111', '42', '136', '64', '149', '126', '141'] 262.6234567901236
91 5.252469135802472 ['137', '122', '134', '142', '105', '116', '133', '66', '111', '42', '136', '64', '149', '126', '141'] 262.6234567901236
92 5.252469135802472 ['137', '122', '134', '142', '105', '116', '133', '66', '111', '42', '136', '64', '149', '126', '141'] 262.6234567901236
93 5.252469135802472 ['137', '122', '134', '142', '105', '116', '133', '66', '111', '42', '136', '64', '149', '126', '141'] 262.6234567901236
94 5.252469135802472 ['137', '122', '134', '142', '105', '116', '133', '66', '111', '42', '136', '64', '149', '126', '141'] 262.6234567901236
95 5.252469135802472 ['137', '122', '134', '142', '105', '116', '133', '66', '111', '42', '136', '64', '149', '126', '141'] 262.6234567901236
96 5.252469135802472 ['137', '122', '134', '142', '105', '116', '133', '66', '111', '42', '136', '64', '149', '126', '141'] 262.6234567901236
97 5.252469135802472 ['137', '122', '134', '142', '105', '116', '133', '66', '111', '42', '136', '64', '149', '126', '141'] 262.6234567901236
98 5.252469135802472 ['137', '122', '134', '142', '105', '116', '133', '66', '111', '42', '136', '64', '149', '126', '141'] 262.6234567901236
99 5.252469135802472 ['137', '122', '134', '142', '105', '116', '133', '66', '111', '42', '136', '64', '149', '126', '141'] 262.6234567901236
100 5.252469135802472 ['137', '122', '134', '142', '105', '116', '133', '66', '111', '42', '136', '64', '149', '126', '141'] 262.6234567901236
101 5.252469135802472 ['137', '122', '134', '142', '105', '116', '133', '66', '111', '42', '136', '64', '149', '126', '141'] 262.6234567901236
102 5.252469135802472 ['137', '122', '134', '142', '105', '116', '133', '66', '111', '42', '136', '64', '149', '126', '141'] 262.6234567901236
103 5.252469135802472 ['137', '122', '134', '142', '105', '116', '133', '66', '111', '42', '136', '64', '149', '126', '141'] 262.6234567901236
104 5.252469135802472 ['137', '122', '134', '142', '105', '116', '133', '66', '111', '42', '136', '64', '149', '126', '141'] 262.6234567901236
105 5.252469135802472 ['137', '122', '134', '142', '105', '116', '133', '66', '111', '42', '136', '64', '149', '126', '141'] 262.6234567901236
106 5.252469135802472 ['137', '122', '134', '142', '105', '116', '133', '66', '111', '42', '136', '64', '149', '126', '141'] 262.6234567901236
107 5.252469135802472 ['137', '122', '134', '142', '105', '116', '133', '66', '111', '42', '136', '64', '149', '126', '141'] 262.6234567901236
108 5.252469135802472 ['137', '122', '134', '142', '105', '116', '133', '66', '111', '42', '136', '64', '149', '126', '141'] 262.6234567901236
109 5.252469135802472 ['137', '122', '134', '142', '105', '116', '133', '66', '111', '42', '136', '64', '149', '126', '141'] 262.6234567901236
110 5.252469135802472 ['137', '122', '134', '142', '105', '116', '133', '66', '111', '42', '136', '64', '149', '126', '141'] 262.6234567901236
111 5.252469135802472 ['137', '122', '134', '142', '105', '116', '133', '66', '111', '42', '136', '64', '149', '126', '141'] 262.6234567901236
112 5.252469135802472 ['137', '122', '134', '142', '105', '116', '133', '66', '111', '42', '136', '64', '149', '126', '141'] 262.6234567901236
113 5.252469135802472 ['137', '122', '134', '142', '105', '116', '133', '66', '111', '42', '136', '64', '149', '126', '141'] 262.6234567901236
114 5.252469135802472 ['137', '122', '134', '142', '105', '116', '133', '66', '111', '42', '136', '64', '149', '126', '141'] 262.6234567901236
115 5.252469135802472 ['137', '122', '134', '142', '105', '116', '133', '66', '111', '42', '136', '64', '149', '126', '141'] 262.6234567901236
116 5.252469135802472 ['137', '122', '134', '142', '105', '116', '133', '66', '111', '42', '136', '64', '149', '126', '141'] 262.6234567901236
117 5.252469135802472 ['137', '122', '134', '142', '105', '116', '133', '66', '111', '42', '136', '64', '149', '126', '141'] 262.6234567901236
118 5.252469135802472 ['137', '122', '134', '142', '105', '116', '133', '66', '111', '42', '136', '64', '149', '126', '141'] 262.6234567901236
119 5.252469135802472 ['137', '122', '134', '142', '105', '116', '133', '66', '111', '42', '136', '64', '149', '126', '141'] 262.6234567901236
120 5.252469135802472 ['137', '122', '134', '142', '105', '116', '133', '66', '111', '42', '136', '64', '149', '126', '141'] 262.6234567901236
121 5.252469135802472 ['137', '122', '134', '142', '105', '116', '133', '66', '111', '42', '136', '64', '149', '126', '141'] 262.6234567901236
122 5.252469135802472 ['137', '122', '134', '142', '105', '116', '133', '66', '111', '42', '136', '64', '149', '126', '141'] 262.6234567901236
123 5.252469135802472 ['137', '122', '134', '142', '105', '116', '133', '66', '111', '42', '136', '64', '149', '126', '141'] 262.6234567901236
124 5.252469135802472 ['137', '122', '134', '142', '105', '116', '133', '66', '111', '42', '136', '64', '149', '126', '141'] 262.6234567901236
125 5.252469135802472 ['137', '122', '134', '142', '105', '116', '133', '66', '111', '42', '136', '64', '149', '126', '141'] 262.6234567901236
126 5.252469135802472 ['137', '122', '134', '142', '105', '116', '133', '66', '111', '42', '136', '64', '149', '126', '141'] 262.6234567901236
127 5.252469135802472 ['137', '122', '134', '142', '105', '116', '133', '66', '111', '42', '136', '64', '149', '126', '141'] 262.6234567901236
128 5.252469135802472 ['137', '122', '134', '142', '105', '116', '133', '66', '111', '42', '136', '64', '149', '126', '141'] 262.6234567901236
129 5.252469135802472 ['137', '122', '134', '142', '105', '116', '133', '66', '111', '42', '136', '64', '149', '126', '141'] 262.6234567901236
130 5.252469135802472 ['137', '122', '134', '142', '105', '116', '133', '66', '111', '42', '136', '64', '149', '126', '141'] 262.6234567901236
131 5.252469135802472 ['137', '122', '134', '142', '105', '116', '133', '66', '111', '42', '136', '64', '149', '126', '141'] 262.6234567901236
132 5.252469135802472 ['137', '122', '134', '142', '105', '116', '133', '66', '111', '42', '136', '64', '149', '126', '141'] 262.6234567901236
133 5.252469135802472 ['137', '122', '134', '142', '105', '116', '133', '66', '111', '42', '136', '64', '149', '126', '141'] 262.6234567901236
134 5.252469135802472 ['137', '122', '134', '142', '105', '116', '133', '66', '111', '42', '136', '64', '149', '126', '141'] 262.6234567901236
135 5.252469135802472 ['137', '122', '134', '142', '105', '116', '133', '66', '111', '42', '136', '64', '149', '126', '141'] 262.6234567901236
136 5.252469135802472 ['137', '122', '134', '142', '105', '116', '133', '66', '111', '42', '136', '64', '149', '126', '141'] 262.6234567901236
137 5.252469135802472 ['137', '122', '134', '142', '105', '116', '133', '66', '111', '42', '136', '64', '149', '126', '141'] 262.6234567901236
138 5.252469135802472 ['137', '122', '134', '142', '105', '116', '133', '66', '111', '42', '136', '64', '149', '126', '141'] 262.6234567901236
139 5.252469135802472 ['137', '122', '134', '142', '105', '116', '133', '66', '111', '42', '136', '64', '149', '126', '141'] 262.6234567901236
140 5.252469135802472 ['137', '122', '134', '142', '105', '116', '133', '66', '111', '42', '136', '64', '149', '126', '141'] 262.6234567901236
141 5.252469135802472 ['137', '122', '134', '142', '105', '116', '133', '66', '111', '42', '136', '64', '149', '126', '141'] 262.6234567901236
142 5.252469135802472 ['137', '122', '134', '142', '105', '116', '133', '66', '111', '42', '136', '64', '149', '126', '141'] 262.6234567901236
143 5.252469135802472 ['137', '122', '134', '142', '105', '116', '133', '66', '111', '42', '136', '64', '149', '126', '141'] 262.6234567901236
144 5.252469135802472 ['137', '122', '134', '142', '105', '116', '133', '66', '111', '42', '136', '64', '149', '126', '141'] 262.6234567901236
145 5.252469135802472 ['137', '122', '134', '142', '105', '116', '133', '66', '111', '42', '136', '64', '149', '126', '141'] 262.6234567901236
146 5.252469135802472 ['137', '122', '134', '142', '105', '116', '133', '66', '111', '42', '136', '64', '149', '126', '141'] 262.6234567901236
147 5.252469135802472 ['137', '122', '134', '142', '105', '116', '133', '66', '111', '42', '136', '64', '149', '126', '141'] 262.6234567901236
148 5.252469135802472 ['137', '122', '134', '142', '105', '116', '133', '66', '111', '42', '136', '64', '149', '126', '141'] 262.6234567901236
149 5.252469135802472 ['137', '122', '134', '142', '105', '116', '133', '66', '111', '42', '136', '64', '149', '126', '141'] 262.6234567901236
150 5.252469135802472 ['137', '122', '134', '142', '105', '116', '133', '66', '111', '42', '136', '64', '149', '126', '141'] 262.6234567901236
151 5.252469135802472 ['137', '122', '134', '142', '105', '116', '133', '66', '111', '42', '136', '64', '149', '126', '141'] 262.6234567901236
152 5.252469135802472 ['137', '122', '134', '142', '105', '116', '133', '66', '111', '42', '136', '64', '149', '126', '141'] 262.6234567901236
153 5.252469135802472 ['137', '122', '134', '142', '105', '116', '133', '66', '111', '42', '136', '64', '149', '126', '141'] 262.6234567901236
154 5.252469135802472 ['137', '122', '134', '142', '105', '116', '133', '66', '111', '42', '136', '64', '149', '126', '141'] 262.6234567901236
155 5.252469135802472 ['137', '122', '134', '142', '105', '116', '133', '66', '111', '42', '136', '64', '149', '126', '141'] 262.6234567901236
156 5.252469135802472 ['137', '122', '134', '142', '105', '116', '133', '66', '111', '42', '136', '64', '149', '126', '141'] 262.6234567901236
157 5.252469135802472 ['137', '122', '134', '142', '105', '116', '133', '66', '111', '42', '136', '64', '149', '126', '141'] 262.6234567901236
158 5.252469135802472 ['137', '122', '134', '142', '105', '116', '133', '66', '111', '42', '136', '64', '149', '126', '141'] 262.6234567901236
159 5.252469135802472 ['137', '122', '134', '142', '105', '116', '133', '66', '111', '42', '136', '64', '149', '126', '141'] 262.6234567901236
160 5.252469135802472 ['137', '122', '134', '142', '105', '116', '133', '66', '111', '42', '136', '64', '149', '126', '141'] 262.6234567901236
161 5.252469135802472 ['137', '122', '134', '142', '105', '116', '133', '66', '111', '42', '136', '64', '149', '126', '141'] 262.6234567901236
162 5.252469135802472 ['137', '122', '134', '142', '105', '116', '133', '66', '111', '42', '136', '64', '149', '126', '141'] 262.6234567901236
163 5.252469135802472 ['137', '122', '134', '142', '105', '116', '133', '66', '111', '42', '136', '64', '149', '126', '141'] 262.6234567901236
164 5.252469135802472 ['137', '122', '134', '142', '105', '116', '133', '66', '111', '42', '136', '64', '149', '126', '141'] 262.6234567901236
165 5.252469135802472 ['137', '122', '134', '142', '105', '116', '133', '66', '111', '42', '136', '64', '149', '126', '141'] 262.6234567901236
166 5.252469135802472 ['137', '122', '134', '142', '105', '116', '133', '66', '111', '42', '136', '64', '149', '126', '141'] 262.6234567901236
167 5.252469135802472 ['137', '122', '134', '142', '105', '116', '133', '66', '111', '42', '136', '64', '149', '126', '141'] 262.6234567901236
168 5.252469135802472 ['137', '122', '134', '142', '105', '116', '133', '66', '111', '42', '136', '64', '149', '126', '141'] 262.6234567901236
169 5.252469135802472 ['137', '122', '134', '142', '105', '116', '133', '66', '111', '42', '136', '64', '149', '126', '141'] 262.6234567901236
170 5.252469135802472 ['137', '122', '134', '142', '105', '116', '133', '66', '111', '42', '136', '64', '149', '126', '141'] 262.6234567901236
171 5.252469135802472 ['137', '122', '134', '142', '105', '116', '133', '66', '111', '42', '136', '64', '149', '126', '141'] 262.6234567901236
172 5.252469135802472 ['137', '122', '134', '142', '105', '116', '133', '66', '111', '42', '136', '64', '149', '126', '141'] 262.6234567901236
173 5.252469135802472 ['137', '122', '134', '142', '105', '116', '133', '66', '111', '42', '136', '64', '149', '126', '141'] 262.6234567901236
174 5.252469135802472 ['137', '122', '134', '142', '105', '116', '133', '66', '111', '42', '136', '64', '149', '126', '141'] 262.6234567901236
175 5.252469135802472 ['137', '122', '134', '142', '105', '116', '133', '66', '111', '42', '136', '64', '149', '126', '141'] 262.6234567901236
176 5.252469135802472 ['137', '122', '134', '142', '105', '116', '133', '66', '111', '42', '136', '64', '149', '126', '141'] 262.6234567901236
177 5.252469135802472 ['137', '122', '134', '142', '105', '116', '133', '66', '111', '42', '136', '64', '149', '126', '141'] 262.6234567901236
178 5.252469135802472 ['137', '122', '134', '142', '105', '116', '133', '66', '111', '42', '136', '64', '149', '126', '141'] 262.6234567901236
179 5.252469135802472 ['137', '122', '134', '142', '105', '116', '133', '66', '111', '42', '136', '64', '149', '126', '141'] 262.6234567901236
180 5.252469135802472 ['137', '122', '134', '142', '105', '116', '133', '66', '111', '42', '136', '64', '149', '126', '141'] 262.6234567901236
181 5.252469135802472 ['137', '122', '134', '142', '105', '116', '133', '66', '111', '42', '136', '64', '149', '126', '141'] 262.6234567901236
182 5.252469135802472 ['137', '122', '134', '142', '105', '116', '133', '66', '111', '42', '136', '64', '149', '126', '141'] 262.6234567901236
183 5.252469135802472 ['137', '122', '134', '142', '105', '116', '133', '66', '111', '42', '136', '64', '149', '126', '141'] 262.6234567901236
184 5.252469135802472 ['137', '122', '134', '142', '105', '116', '133', '66', '111', '42', '136', '64', '149', '126', '141'] 262.6234567901236
185 5.252469135802472 ['137', '122', '134', '142', '105', '116', '133', '66', '111', '42', '136', '64', '149', '126', '141'] 262.6234567901236
186 5.252469135802472 ['137', '122', '134', '142', '105', '116', '133', '66', '111', '42', '136', '64', '149', '126', '141'] 262.6234567901236
187 5.252469135802472 ['137', '122', '134', '142', '105', '116', '133', '66', '111', '42', '136', '64', '149', '126', '141'] 262.6234567901236
188 5.252469135802472 ['137', '122', '134', '142', '105', '116', '133', '66', '111', '42', '136', '64', '149', '126', '141'] 262.6234567901236
189 5.252469135802472 ['137', '122', '134', '142', '105', '116', '133', '66', '111', '42', '136', '64', '149', '126', '141'] 262.6234567901236
190 5.252469135802472 ['137', '122', '134', '142', '105', '116', '133', '66', '111', '42', '136', '64', '149', '126', '141'] 262.6234567901236
191 5.252469135802472 ['137', '122', '134', '142', '105', '116', '133', '66', '111', '42', '136', '64', '149', '126', '141'] 262.6234567901236
192 5.252469135802472 ['137', '122', '134', '142', '105', '116', '133', '66', '111', '42', '136', '64', '149', '126', '141'] 262.6234567901236
193 5.252469135802472 ['137', '122', '134', '142', '105', '116', '133', '66', '111', '42', '136', '64', '149', '126', '141'] 262.6234567901236
194 5.252469135802472 ['137', '122', '134', '142', '105', '116', '133', '66', '111', '42', '136', '64', '149', '126', '141'] 262.6234567901236
195 5.252469135802472 ['137', '122', '134', '142', '105', '116', '133', '66', '111', '42', '136', '64', '149', '126', '141'] 262.6234567901236
196 5.252469135802472 ['137', '122', '134', '142', '105', '116', '133', '66', '111', '42', '136', '64', '149', '126', '141'] 262.6234567901236
197 5.252469135802472 ['137', '122', '134', '142', '105', '116', '133', '66', '111', '42', '136', '64', '149', '126', '141'] 262.6234567901236
198 5.252469135802472 ['137', '122', '134', '142', '105', '116', '133', '66', '111', '42', '136', '64', '149', '126', '141'] 262.6234567901236
199 5.252469135802472 ['137', '122', '134', '142', '105', '116', '133', '66', '111', '42', '136', '64', '149', '126', '141'] 262.6234567901236
