0 5.190740740740742 ['128', '135', '133', '18', '69', '147', '106', '124', '91', '35', '100', '140', '118', '137', '105'] 265.6766666666668
1 5.134444444444446 ['140', '72', '30', '150', '144', '137', '135', '18', '118', '128', '148', '147', '107', '24', '76'] 264.226913580247
2 5.134444444444446 ['140', '72', '30', '150', '144', '137', '135', '18', '118', '128', '148', '147', '107', '24', '76'] 262.73740740740755
3 5.134444444444446 ['140', '72', '30', '150', '144', '137', '135', '18', '118', '128', '148', '147', '107', '24', '76'] 261.40444444444455
4 5.1202469135802495 ['147', '18', '72', '76', '128', '135', '137', '150', '148', '140', '118', '69', '107', '134', '115'] 260.033950617284
5 5.113703703703706 ['118', '35', '36', '28', '88', '135', '122', '142', '76', '128', '138', '150', '144', '101', '86'] 258.6672839506174
6 5.104814814814816 ['118', '128', '150', '135', '147', '124', '60', '132', '30', '61', '148', '137', '76', '133', '115'] 257.80567901234576
7 5.093703703703703 ['147', '135', '118', '128', '140', '50', '150', '137', '148', '88', '133', '144', '62', '125', '57'] 256.8175308641976
8 5.044320987654324 ['142', '128', '147', '140', '135', '118', '138', '148', '127', '115', '134', '60', '86', '35', '101'] 256.0303703703704
9 5.044320987654324 ['142', '128', '147', '140', '135', '118', '138', '148', '127', '115', '134', '60', '86', '35', '101'] 255.31716049382723
10 5.029135802469135 ['147', '142', '140', '118', '150', '135', '128', '76', '138', '60', '101', '86', '132', '137', '88'] 254.63839506172837
11 5.020493827160496 ['150', '147', '135', '137', '118', '128', '148', '133', '76', '122', '140', '132', '35', '51', '60'] 253.9611111111112
12 5.020493827160496 ['150', '147', '135', '137', '118', '128', '148', '133', '76', '122', '140', '132', '35', '51', '60'] 253.35592592592596
13 5.015185185185184 ['150', '137', '148', '118', '147', '128', '76', '135', '134', '138', '144', '115', '60', '125', '132'] 252.78283950617285
14 5.015185185185184 ['150', '137', '148', '118', '147', '128', '76', '135', '134', '138', '144', '115', '60', '125', '132'] 252.3035802469136
15 5.010246913580247 ['137', '135', '76', '128', '35', '62', '148', '147', '125', '118', '132', '150', '144', '133', '138'] 251.9748148148148
16 5.0096296296296305 ['128', '125', '144', '132', '76', '118', '147', '60', '135', '150', '137', '122', '138', '142', '134'] 251.5750617283951
17 4.997037037037039 ['118', '137', '135', '128', '140', '150', '147', '76', '132', '142', '101', '60', '133', '125', '86'] 251.2011111111112
18 4.997037037037039 ['118', '137', '135', '128', '140', '150', '147', '76', '132', '142', '101', '60', '133', '125', '86'] 250.95543209876544
19 4.997037037037039 ['118', '137', '135', '128', '140', '150', '147', '76', '132', '142', '101', '60', '133', '125', '86'] 250.73999999999987
20 4.997037037037039 ['118', '137', '135', '128', '140', '150', '147', '76', '132', '142', '101', '60', '133', '125', '86'] 250.53604938271604
21 4.996790123456792 ['118', '128', '125', '144', '142', '76', '147', '137', '132', '135', '150', '122', '60', '133', '140'] 250.3722222222224
22 4.996790123456792 ['118', '128', '125', '144', '142', '76', '147', '137', '132', '135', '150', '122', '60', '133', '140'] 250.24123456790153
23 4.99641975308642 ['76', '137', '125', '147', '128', '118', '132', '150', '140', '135', '144', '133', '148', '60', '122'] 250.03753086419752
24 4.99641975308642 ['76', '137', '125', '147', '128', '118', '132', '150', '140', '135', '144', '133', '148', '60', '122'] 249.89654320987654
25 4.99641975308642 ['76', '137', '125', '147', '128', '118', '132', '150', '140', '135', '144', '133', '148', '60', '122'] 249.8604938271606
26 4.99641975308642 ['76', '137', '125', '147', '128', '118', '132', '150', '140', '135', '144', '133', '148', '60', '122'] 249.85913580246927
27 4.99641975308642 ['76', '137', '125', '147', '128', '118', '132', '150', '140', '135', '144', '133', '148', '60', '122'] 249.85913580246927
28 4.99641975308642 ['76', '137', '125', '147', '128', '118', '132', '150', '140', '135', '144', '133', '148', '60', '122'] 249.85913580246927
29 4.99641975308642 ['76', '137', '125', '147', '128', '118', '132', '150', '140', '135', '144', '133', '148', '60', '122'] 249.8582716049384
30 4.99641975308642 ['76', '137', '125', '147', '128', '118', '132', '150', '140', '135', '144', '133', '148', '60', '122'] 249.8556790123458
31 4.99641975308642 ['76', '137', '125', '147', '128', '118', '132', '150', '140', '135', '144', '133', '148', '60', '122'] 249.85222222222237
32 4.99641975308642 ['76', '137', '125', '147', '128', '118', '132', '150', '140', '135', '144', '133', '148', '60', '122'] 249.8448148148149
33 4.99641975308642 ['76', '137', '125', '147', '128', '118', '132', '150', '140', '135', '144', '133', '148', '60', '122'] 249.83209876543225
34 4.99641975308642 ['76', '137', '125', '147', '128', '118', '132', '150', '140', '135', '144', '133', '148', '60', '122'] 249.82098765432113
35 4.99641975308642 ['76', '137', '125', '147', '128', '118', '132', '150', '140', '135', '144', '133', '148', '60', '122'] 249.82098765432113
36 4.99641975308642 ['76', '137', '125', '147', '128', '118', '132', '150', '140', '135', '144', '133', '148', '60', '122'] 249.82098765432113
37 4.99641975308642 ['76', '137', '125', '147', '128', '118', '132', '150', '140', '135', '144', '133', '148', '60', '122'] 249.82098765432113
38 4.99641975308642 ['76', '137', '125', '147', '128', '118', '132', '150', '140', '135', '144', '133', '148', '60', '122'] 249.82098765432113
39 4.99641975308642 ['76', '137', '125', '147', '128', '118', '132', '150', '140', '135', '144', '133', '148', '60', '122'] 249.82098765432113
40 4.99641975308642 ['76', '137', '125', '147', '128', '118', '132', '150', '140', '135', '144', '133', '148', '60', '122'] 249.82098765432113
41 4.99641975308642 ['76', '137', '125', '147', '128', '118', '132', '150', '140', '135', '144', '133', '148', '60', '122'] 249.82098765432113
42 4.99641975308642 ['76', '137', '125', '147', '128', '118', '132', '150', '140', '135', '144', '133', '148', '60', '122'] 249.82098765432113
43 4.99641975308642 ['76', '137', '125', '147', '128', '118', '132', '150', '140', '135', '144', '133', '148', '60', '122'] 249.82098765432113
44 4.99641975308642 ['76', '137', '125', '147', '128', '118', '132', '150', '140', '135', '144', '133', '148', '60', '122'] 249.82098765432113
45 4.99641975308642 ['76', '137', '125', '147', '128', '118', '132', '150', '140', '135', '144', '133', '148', '60', '122'] 249.82098765432113
46 4.99641975308642 ['76', '137', '125', '147', '128', '118', '132', '150', '140', '135', '144', '133', '148', '60', '122'] 249.82098765432113
47 4.99641975308642 ['76', '137', '125', '147', '128', '118', '132', '150', '140', '135', '144', '133', '148', '60', '122'] 249.82098765432113
48 4.99641975308642 ['76', '137', '125', '147', '128', '118', '132', '150', '140', '135', '144', '133', '148', '60', '122'] 249.82098765432113
49 4.99641975308642 ['76', '137', '125', '147', '128', '118', '132', '150', '140', '135', '144', '133', '148', '60', '122'] 249.82098765432113
50 4.99641975308642 ['76', '137', '125', '147', '128', '118', '132', '150', '140', '135', '144', '133', '148', '60', '122'] 249.82098765432113
51 4.99641975308642 ['76', '137', '125', '147', '128', '118', '132', '150', '140', '135', '144', '133', '148', '60', '122'] 249.82098765432113
52 4.99641975308642 ['76', '137', '125', '147', '128', '118', '132', '150', '140', '135', '144', '133', '148', '60', '122'] 249.82098765432113
53 4.99641975308642 ['76', '137', '125', '147', '128', '118', '132', '150', '140', '135', '144', '133', '148', '60', '122'] 249.82098765432113
54 4.99641975308642 ['76', '137', '125', '147', '128', '118', '132', '150', '140', '135', '144', '133', '148', '60', '122'] 249.82098765432113
55 4.99641975308642 ['76', '137', '125', '147', '128', '118', '132', '150', '140', '135', '144', '133', '148', '60', '122'] 249.82098765432113
56 4.99641975308642 ['76', '137', '125', '147', '128', '118', '132', '150', '140', '135', '144', '133', '148', '60', '122'] 249.82098765432113
57 4.99641975308642 ['76', '137', '125', '147', '128', '118', '132', '150', '140', '135', '144', '133', '148', '60', '122'] 249.82098765432113
58 4.99641975308642 ['76', '137', '125', '147', '128', '118', '132', '150', '140', '135', '144', '133', '148', '60', '122'] 249.82098765432113
59 4.99641975308642 ['76', '137', '125', '147', '128', '118', '132', '150', '140', '135', '144', '133', '148', '60', '122'] 249.82098765432113
60 4.99641975308642 ['76', '137', '125', '147', '128', '118', '132', '150', '140', '135', '144', '133', '148', '60', '122'] 249.82098765432113
61 4.99641975308642 ['76', '137', '125', '147', '128', '118', '132', '150', '140', '135', '144', '133', '148', '60', '122'] 249.82098765432113
62 4.99641975308642 ['76', '137', '125', '147', '128', '118', '132', '150', '140', '135', '144', '133', '148', '60', '122'] 249.82098765432113
63 4.99641975308642 ['76', '137', '125', '147', '128', '118', '132', '150', '140', '135', '144', '133', '148', '60', '122'] 249.82098765432113
64 4.99641975308642 ['76', '137', '125', '147', '128', '118', '132', '150', '140', '135', '144', '133', '148', '60', '122'] 249.82098765432113
65 4.99641975308642 ['76', '137', '125', '147', '128', '118', '132', '150', '140', '135', '144', '133', '148', '60', '122'] 249.82098765432113
66 4.99641975308642 ['76', '137', '125', '147', '128', '118', '132', '150', '140', '135', '144', '133', '148', '60', '122'] 249.82098765432113
67 4.99641975308642 ['76', '137', '125', '147', '128', '118', '132', '150', '140', '135', '144', '133', '148', '60', '122'] 249.82098765432113
68 4.99641975308642 ['76', '137', '125', '147', '128', '118', '132', '150', '140', '135', '144', '133', '148', '60', '122'] 249.82098765432113
69 4.99641975308642 ['76', '137', '125', '147', '128', '118', '132', '150', '140', '135', '144', '133', '148', '60', '122'] 249.82098765432113
70 4.99641975308642 ['76', '137', '125', '147', '128', '118', '132', '150', '140', '135', '144', '133', '148', '60', '122'] 249.82098765432113
71 4.99641975308642 ['76', '137', '125', '147', '128', '118', '132', '150', '140', '135', '144', '133', '148', '60', '122'] 249.82098765432113
72 4.99641975308642 ['76', '137', '125', '147', '128', '118', '132', '150', '140', '135', '144', '133', '148', '60', '122'] 249.82098765432113
73 4.99641975308642 ['76', '137', '125', '147', '128', '118', '132', '150', '140', '135', '144', '133', '148', '60', '122'] 249.82098765432113
74 4.99641975308642 ['76', '137', '125', '147', '128', '118', '132', '150', '140', '135', '144', '133', '148', '60', '122'] 249.82098765432113
75 4.99641975308642 ['76', '137', '125', '147', '128', '118', '132', '150', '140', '135', '144', '133', '148', '60', '122'] 249.82098765432113
76 4.99641975308642 ['76', '137', '125', '147', '128', '118', '132', '150', '140', '135', '144', '133', '148', '60', '122'] 249.82098765432113
77 4.99641975308642 ['76', '137', '125', '147', '128', '118', '132', '150', '140', '135', '144', '133', '148', '60', '122'] 249.82098765432113
78 4.99641975308642 ['76', '137', '125', '147', '128', '118', '132', '150', '140', '135', '144', '133', '148', '60', '122'] 249.82098765432113
79 4.99641975308642 ['76', '137', '125', '147', '128', '118', '132', '150', '140', '135', '144', '133', '148', '60', '122'] 249.82098765432113
80 4.99641975308642 ['76', '137', '125', '147', '128', '118', '132', '150', '140', '135', '144', '133', '148', '60', '122'] 249.82098765432113
81 4.99641975308642 ['76', '137', '125', '147', '128', '118', '132', '150', '140', '135', '144', '133', '148', '60', '122'] 249.82098765432113
82 4.99641975308642 ['76', '137', '125', '147', '128', '118', '132', '150', '140', '135', '144', '133', '148', '60', '122'] 249.82098765432113
83 4.99641975308642 ['76', '137', '125', '147', '128', '118', '132', '150', '140', '135', '144', '133', '148', '60', '122'] 249.82098765432113
84 4.99641975308642 ['76', '137', '125', '147', '128', '118', '132', '150', '140', '135', '144', '133', '148', '60', '122'] 249.82098765432113
85 4.99641975308642 ['76', '137', '125', '147', '128', '118', '132', '150', '140', '135', '144', '133', '148', '60', '122'] 249.82098765432113
86 4.99641975308642 ['76', '137', '125', '147', '128', '118', '132', '150', '140', '135', '144', '133', '148', '60', '122'] 249.82098765432113
87 4.99641975308642 ['76', '137', '125', '147', '128', '118', '132', '150', '140', '135', '144', '133', '148', '60', '122'] 249.82098765432113
88 4.99641975308642 ['76', '137', '125', '147', '128', '118', '132', '150', '140', '135', '144', '133', '148', '60', '122'] 249.82098765432113
89 4.99641975308642 ['76', '137', '125', '147', '128', '118', '132', '150', '140', '135', '144', '133', '148', '60', '122'] 249.82098765432113
90 4.99641975308642 ['76', '137', '125', '147', '128', '118', '132', '150', '140', '135', '144', '133', '148', '60', '122'] 249.82098765432113
91 4.99641975308642 ['76', '137', '125', '147', '128', '118', '132', '150', '140', '135', '144', '133', '148', '60', '122'] 249.82098765432113
92 4.99641975308642 ['76', '137', '125', '147', '128', '118', '132', '150', '140', '135', '144', '133', '148', '60', '122'] 249.82098765432113
93 4.99641975308642 ['76', '137', '125', '147', '128', '118', '132', '150', '140', '135', '144', '133', '148', '60', '122'] 249.82098765432113
94 4.99641975308642 ['76', '137', '125', '147', '128', '118', '132', '150', '140', '135', '144', '133', '148', '60', '122'] 249.82098765432113
95 4.99641975308642 ['76', '137', '125', '147', '128', '118', '132', '150', '140', '135', '144', '133', '148', '60', '122'] 249.82098765432113
96 4.99641975308642 ['76', '137', '125', '147', '128', '118', '132', '150', '140', '135', '144', '133', '148', '60', '122'] 249.82098765432113
97 4.99641975308642 ['76', '137', '125', '147', '128', '118', '132', '150', '140', '135', '144', '133', '148', '60', '122'] 249.82098765432113
98 4.99641975308642 ['76', '137', '125', '147', '128', '118', '132', '150', '140', '135', '144', '133', '148', '60', '122'] 249.82098765432113
99 4.99641975308642 ['76', '137', '125', '147', '128', '118', '132', '150', '140', '135', '144', '133', '148', '60', '122'] 249.82098765432113
100 4.99641975308642 ['76', '137', '125', '147', '128', '118', '132', '150', '140', '135', '144', '133', '148', '60', '122'] 249.82098765432113
101 4.99641975308642 ['76', '137', '125', '147', '128', '118', '132', '150', '140', '135', '144', '133', '148', '60', '122'] 249.82098765432113
102 4.99641975308642 ['76', '137', '125', '147', '128', '118', '132', '150', '140', '135', '144', '133', '148', '60', '122'] 249.82098765432113
103 4.99641975308642 ['76', '137', '125', '147', '128', '118', '132', '150', '140', '135', '144', '133', '148', '60', '122'] 249.82098765432113
104 4.99641975308642 ['76', '137', '125', '147', '128', '118', '132', '150', '140', '135', '144', '133', '148', '60', '122'] 249.82098765432113
105 4.99641975308642 ['76', '137', '125', '147', '128', '118', '132', '150', '140', '135', '144', '133', '148', '60', '122'] 249.82098765432113
106 4.99641975308642 ['76', '137', '125', '147', '128', '118', '132', '150', '140', '135', '144', '133', '148', '60', '122'] 249.82098765432113
107 4.99641975308642 ['76', '137', '125', '147', '128', '118', '132', '150', '140', '135', '144', '133', '148', '60', '122'] 249.82098765432113
108 4.99641975308642 ['76', '137', '125', '147', '128', '118', '132', '150', '140', '135', '144', '133', '148', '60', '122'] 249.82098765432113
109 4.99641975308642 ['76', '137', '125', '147', '128', '118', '132', '150', '140', '135', '144', '133', '148', '60', '122'] 249.82098765432113
110 4.99641975308642 ['76', '137', '125', '147', '128', '118', '132', '150', '140', '135', '144', '133', '148', '60', '122'] 249.82098765432113
111 4.99641975308642 ['76', '137', '125', '147', '128', '118', '132', '150', '140', '135', '144', '133', '148', '60', '122'] 249.82098765432113
112 4.99641975308642 ['76', '137', '125', '147', '128', '118', '132', '150', '140', '135', '144', '133', '148', '60', '122'] 249.82098765432113
113 4.99641975308642 ['76', '137', '125', '147', '128', '118', '132', '150', '140', '135', '144', '133', '148', '60', '122'] 249.82098765432113
114 4.99641975308642 ['76', '137', '125', '147', '128', '118', '132', '150', '140', '135', '144', '133', '148', '60', '122'] 249.82098765432113
115 4.99641975308642 ['76', '137', '125', '147', '128', '118', '132', '150', '140', '135', '144', '133', '148', '60', '122'] 249.82098765432113
116 4.99641975308642 ['76', '137', '125', '147', '128', '118', '132', '150', '140', '135', '144', '133', '148', '60', '122'] 249.82098765432113
117 4.99641975308642 ['76', '137', '125', '147', '128', '118', '132', '150', '140', '135', '144', '133', '148', '60', '122'] 249.82098765432113
118 4.99641975308642 ['76', '137', '125', '147', '128', '118', '132', '150', '140', '135', '144', '133', '148', '60', '122'] 249.82098765432113
119 4.99641975308642 ['76', '137', '125', '147', '128', '118', '132', '150', '140', '135', '144', '133', '148', '60', '122'] 249.82098765432113
120 4.99641975308642 ['76', '137', '125', '147', '128', '118', '132', '150', '140', '135', '144', '133', '148', '60', '122'] 249.82098765432113
121 4.99641975308642 ['76', '137', '125', '147', '128', '118', '132', '150', '140', '135', '144', '133', '148', '60', '122'] 249.82098765432113
122 4.99641975308642 ['76', '137', '125', '147', '128', '118', '132', '150', '140', '135', '144', '133', '148', '60', '122'] 249.82098765432113
123 4.99641975308642 ['76', '137', '125', '147', '128', '118', '132', '150', '140', '135', '144', '133', '148', '60', '122'] 249.82098765432113
124 4.99641975308642 ['76', '137', '125', '147', '128', '118', '132', '150', '140', '135', '144', '133', '148', '60', '122'] 249.82098765432113
125 4.99641975308642 ['76', '137', '125', '147', '128', '118', '132', '150', '140', '135', '144', '133', '148', '60', '122'] 249.82098765432113
126 4.99641975308642 ['76', '137', '125', '147', '128', '118', '132', '150', '140', '135', '144', '133', '148', '60', '122'] 249.82098765432113
127 4.99641975308642 ['76', '137', '125', '147', '128', '118', '132', '150', '140', '135', '144', '133', '148', '60', '122'] 249.82098765432113
128 4.99641975308642 ['76', '137', '125', '147', '128', '118', '132', '150', '140', '135', '144', '133', '148', '60', '122'] 249.82098765432113
129 4.99641975308642 ['76', '137', '125', '147', '128', '118', '132', '150', '140', '135', '144', '133', '148', '60', '122'] 249.82098765432113
130 4.99641975308642 ['76', '137', '125', '147', '128', '118', '132', '150', '140', '135', '144', '133', '148', '60', '122'] 249.82098765432113
131 4.99641975308642 ['76', '137', '125', '147', '128', '118', '132', '150', '140', '135', '144', '133', '148', '60', '122'] 249.82098765432113
132 4.99641975308642 ['76', '137', '125', '147', '128', '118', '132', '150', '140', '135', '144', '133', '148', '60', '122'] 249.82098765432113
133 4.99641975308642 ['76', '137', '125', '147', '128', '118', '132', '150', '140', '135', '144', '133', '148', '60', '122'] 249.82098765432113
134 4.99641975308642 ['76', '137', '125', '147', '128', '118', '132', '150', '140', '135', '144', '133', '148', '60', '122'] 249.82098765432113
135 4.99641975308642 ['76', '137', '125', '147', '128', '118', '132', '150', '140', '135', '144', '133', '148', '60', '122'] 249.82098765432113
136 4.99641975308642 ['76', '137', '125', '147', '128', '118', '132', '150', '140', '135', '144', '133', '148', '60', '122'] 249.82098765432113
137 4.99641975308642 ['76', '137', '125', '147', '128', '118', '132', '150', '140', '135', '144', '133', '148', '60', '122'] 249.82098765432113
138 4.99641975308642 ['76', '137', '125', '147', '128', '118', '132', '150', '140', '135', '144', '133', '148', '60', '122'] 249.82098765432113
139 4.99641975308642 ['76', '137', '125', '147', '128', '118', '132', '150', '140', '135', '144', '133', '148', '60', '122'] 249.82098765432113
140 4.99641975308642 ['76', '137', '125', '147', '128', '118', '132', '150', '140', '135', '144', '133', '148', '60', '122'] 249.82098765432113
141 4.99641975308642 ['76', '137', '125', '147', '128', '118', '132', '150', '140', '135', '144', '133', '148', '60', '122'] 249.82098765432113
142 4.99641975308642 ['76', '137', '125', '147', '128', '118', '132', '150', '140', '135', '144', '133', '148', '60', '122'] 249.82098765432113
143 4.99641975308642 ['76', '137', '125', '147', '128', '118', '132', '150', '140', '135', '144', '133', '148', '60', '122'] 249.82098765432113
144 4.99641975308642 ['76', '137', '125', '147', '128', '118', '132', '150', '140', '135', '144', '133', '148', '60', '122'] 249.82098765432113
145 4.99641975308642 ['76', '137', '125', '147', '128', '118', '132', '150', '140', '135', '144', '133', '148', '60', '122'] 249.82098765432113
146 4.99641975308642 ['76', '137', '125', '147', '128', '118', '132', '150', '140', '135', '144', '133', '148', '60', '122'] 249.82098765432113
147 4.99641975308642 ['76', '137', '125', '147', '128', '118', '132', '150', '140', '135', '144', '133', '148', '60', '122'] 249.82098765432113
148 4.99641975308642 ['76', '137', '125', '147', '128', '118', '132', '150', '140', '135', '144', '133', '148', '60', '122'] 249.82098765432113
149 4.99641975308642 ['76', '137', '125', '147', '128', '118', '132', '150', '140', '135', '144', '133', '148', '60', '122'] 249.82098765432113
150 4.99641975308642 ['76', '137', '125', '147', '128', '118', '132', '150', '140', '135', '144', '133', '148', '60', '122'] 249.82098765432113
151 4.99641975308642 ['76', '137', '125', '147', '128', '118', '132', '150', '140', '135', '144', '133', '148', '60', '122'] 249.82098765432113
152 4.99641975308642 ['76', '137', '125', '147', '128', '118', '132', '150', '140', '135', '144', '133', '148', '60', '122'] 249.82098765432113
153 4.99641975308642 ['76', '137', '125', '147', '128', '118', '132', '150', '140', '135', '144', '133', '148', '60', '122'] 249.82098765432113
154 4.99641975308642 ['76', '137', '125', '147', '128', '118', '132', '150', '140', '135', '144', '133', '148', '60', '122'] 249.82098765432113
155 4.99641975308642 ['76', '137', '125', '147', '128', '118', '132', '150', '140', '135', '144', '133', '148', '60', '122'] 249.82098765432113
156 4.99641975308642 ['76', '137', '125', '147', '128', '118', '132', '150', '140', '135', '144', '133', '148', '60', '122'] 249.82098765432113
157 4.99641975308642 ['76', '137', '125', '147', '128', '118', '132', '150', '140', '135', '144', '133', '148', '60', '122'] 249.82098765432113
158 4.99641975308642 ['76', '137', '125', '147', '128', '118', '132', '150', '140', '135', '144', '133', '148', '60', '122'] 249.82098765432113
159 4.99641975308642 ['76', '137', '125', '147', '128', '118', '132', '150', '140', '135', '144', '133', '148', '60', '122'] 249.82098765432113
160 4.99641975308642 ['76', '137', '125', '147', '128', '118', '132', '150', '140', '135', '144', '133', '148', '60', '122'] 249.82098765432113
161 4.99641975308642 ['76', '137', '125', '147', '128', '118', '132', '150', '140', '135', '144', '133', '148', '60', '122'] 249.82098765432113
162 4.99641975308642 ['76', '137', '125', '147', '128', '118', '132', '150', '140', '135', '144', '133', '148', '60', '122'] 249.82098765432113
163 4.99641975308642 ['76', '137', '125', '147', '128', '118', '132', '150', '140', '135', '144', '133', '148', '60', '122'] 249.82098765432113
164 4.99641975308642 ['76', '137', '125', '147', '128', '118', '132', '150', '140', '135', '144', '133', '148', '60', '122'] 249.82098765432113
165 4.99641975308642 ['76', '137', '125', '147', '128', '118', '132', '150', '140', '135', '144', '133', '148', '60', '122'] 249.82098765432113
166 4.99641975308642 ['76', '137', '125', '147', '128', '118', '132', '150', '140', '135', '144', '133', '148', '60', '122'] 249.82098765432113
167 4.99641975308642 ['76', '137', '125', '147', '128', '118', '132', '150', '140', '135', '144', '133', '148', '60', '122'] 249.82098765432113
168 4.99641975308642 ['76', '137', '125', '147', '128', '118', '132', '150', '140', '135', '144', '133', '148', '60', '122'] 249.82098765432113
169 4.99641975308642 ['76', '137', '125', '147', '128', '118', '132', '150', '140', '135', '144', '133', '148', '60', '122'] 249.82098765432113
170 4.99641975308642 ['76', '137', '125', '147', '128', '118', '132', '150', '140', '135', '144', '133', '148', '60', '122'] 249.82098765432113
171 4.99641975308642 ['76', '137', '125', '147', '128', '118', '132', '150', '140', '135', '144', '133', '148', '60', '122'] 249.82098765432113
172 4.99641975308642 ['76', '137', '125', '147', '128', '118', '132', '150', '140', '135', '144', '133', '148', '60', '122'] 249.82098765432113
173 4.99641975308642 ['76', '137', '125', '147', '128', '118', '132', '150', '140', '135', '144', '133', '148', '60', '122'] 249.82098765432113
174 4.99641975308642 ['76', '137', '125', '147', '128', '118', '132', '150', '140', '135', '144', '133', '148', '60', '122'] 249.82098765432113
175 4.99641975308642 ['76', '137', '125', '147', '128', '118', '132', '150', '140', '135', '144', '133', '148', '60', '122'] 249.82098765432113
176 4.99641975308642 ['76', '137', '125', '147', '128', '118', '132', '150', '140', '135', '144', '133', '148', '60', '122'] 249.82098765432113
177 4.99641975308642 ['76', '137', '125', '147', '128', '118', '132', '150', '140', '135', '144', '133', '148', '60', '122'] 249.82098765432113
178 4.99641975308642 ['76', '137', '125', '147', '128', '118', '132', '150', '140', '135', '144', '133', '148', '60', '122'] 249.82098765432113
179 4.99641975308642 ['76', '137', '125', '147', '128', '118', '132', '150', '140', '135', '144', '133', '148', '60', '122'] 249.82098765432113
180 4.99641975308642 ['76', '137', '125', '147', '128', '118', '132', '150', '140', '135', '144', '133', '148', '60', '122'] 249.82098765432113
181 4.99641975308642 ['76', '137', '125', '147', '128', '118', '132', '150', '140', '135', '144', '133', '148', '60', '122'] 249.82098765432113
182 4.99641975308642 ['76', '137', '125', '147', '128', '118', '132', '150', '140', '135', '144', '133', '148', '60', '122'] 249.82098765432113
183 4.99641975308642 ['76', '137', '125', '147', '128', '118', '132', '150', '140', '135', '144', '133', '148', '60', '122'] 249.82098765432113
184 4.99641975308642 ['76', '137', '125', '147', '128', '118', '132', '150', '140', '135', '144', '133', '148', '60', '122'] 249.82098765432113
185 4.99641975308642 ['76', '137', '125', '147', '128', '118', '132', '150', '140', '135', '144', '133', '148', '60', '122'] 249.82098765432113
186 4.99641975308642 ['76', '137', '125', '147', '128', '118', '132', '150', '140', '135', '144', '133', '148', '60', '122'] 249.82098765432113
187 4.99641975308642 ['76', '137', '125', '147', '128', '118', '132', '150', '140', '135', '144', '133', '148', '60', '122'] 249.82098765432113
188 4.99641975308642 ['76', '137', '125', '147', '128', '118', '132', '150', '140', '135', '144', '133', '148', '60', '122'] 249.82098765432113
189 4.99641975308642 ['76', '137', '125', '147', '128', '118', '132', '150', '140', '135', '144', '133', '148', '60', '122'] 249.82098765432113
190 4.99641975308642 ['76', '137', '125', '147', '128', '118', '132', '150', '140', '135', '144', '133', '148', '60', '122'] 249.82098765432113
191 4.99641975308642 ['76', '137', '125', '147', '128', '118', '132', '150', '140', '135', '144', '133', '148', '60', '122'] 249.82098765432113
192 4.99641975308642 ['76', '137', '125', '147', '128', '118', '132', '150', '140', '135', '144', '133', '148', '60', '122'] 249.82098765432113
193 4.99641975308642 ['76', '137', '125', '147', '128', '118', '132', '150', '140', '135', '144', '133', '148', '60', '122'] 249.82098765432113
194 4.99641975308642 ['76', '137', '125', '147', '128', '118', '132', '150', '140', '135', '144', '133', '148', '60', '122'] 249.82098765432113
195 4.99641975308642 ['76', '137', '125', '147', '128', '118', '132', '150', '140', '135', '144', '133', '148', '60', '122'] 249.82098765432113
196 4.99641975308642 ['76', '137', '125', '147', '128', '118', '132', '150', '140', '135', '144', '133', '148', '60', '122'] 249.82098765432113
197 4.99641975308642 ['76', '137', '125', '147', '128', '118', '132', '150', '140', '135', '144', '133', '148', '60', '122'] 249.82098765432113
198 4.99641975308642 ['76', '137', '125', '147', '128', '118', '132', '150', '140', '135', '144', '133', '148', '60', '122'] 249.82098765432113
199 4.99641975308642 ['76', '137', '125', '147', '128', '118', '132', '150', '140', '135', '144', '133', '148', '60', '122'] 249.82098765432113
