0 9.25 ['3', '23', '8'] 485.1875
1 9.0 ['23', '33', '3'] 477.09375
2 9.0 ['23', '33', '3'] 470.21875
3 8.9375 ['3', '23', '29'] 464.46875
4 8.9375 ['3', '23', '29'] 459.71875
5 8.9375 ['3', '23', '29'] 454.78125
6 8.9375 ['3', '23', '29'] 451.6875
7 8.9375 ['3', '23', '29'] 449.6875
8 8.9375 ['3', '23', '29'] 448.3125
9 8.9375 ['3', '23', '29'] 446.875
10 8.9375 ['3', '23', '29'] 446.875
11 8.9375 ['3', '23', '29'] 446.875
12 8.9375 ['3', '23', '29'] 446.875
13 8.9375 ['3', '23', '29'] 446.875
14 8.9375 ['3', '23', '29'] 446.875
15 8.9375 ['3', '23', '29'] 446.875
16 8.9375 ['3', '23', '29'] 446.875
17 8.9375 ['3', '23', '29'] 446.875
18 8.9375 ['3', '23', '29'] 446.875
19 8.9375 ['3', '23', '29'] 446.875
20 8.9375 ['3', '23', '29'] 446.875
21 8.9375 ['3', '23', '29'] 446.875
22 8.9375 ['3', '23', '29'] 446.875
23 8.9375 ['3', '23', '29'] 446.875
24 8.9375 ['3', '23', '29'] 446.875
25 8.9375 ['3', '23', '29'] 446.875
26 8.9375 ['3', '23', '29'] 446.875
27 8.9375 ['3', '23', '29'] 446.875
28 8.9375 ['3', '23', '29'] 446.875
29 8.9375 ['3', '23', '29'] 446.875
30 8.9375 ['3', '23', '29'] 446.875
31 8.9375 ['3', '23', '29'] 446.875
32 8.9375 ['3', '23', '29'] 446.875
33 8.9375 ['3', '23', '29'] 446.875
34 8.9375 ['3', '23', '29'] 446.875
35 8.9375 ['3', '23', '29'] 446.875
36 8.9375 ['3', '23', '29'] 446.875
37 8.9375 ['3', '23', '29'] 446.875
38 8.9375 ['3', '23', '29'] 446.875
39 8.9375 ['3', '23', '29'] 446.875
40 8.9375 ['3', '23', '29'] 446.875
41 8.9375 ['3', '23', '29'] 446.875
42 8.9375 ['3', '23', '29'] 446.875
43 8.9375 ['3', '23', '29'] 446.875
44 8.9375 ['3', '23', '29'] 446.875
45 8.9375 ['3', '23', '29'] 446.875
46 8.9375 ['3', '23', '29'] 446.875
47 8.9375 ['3', '23', '29'] 446.875
48 8.9375 ['3', '23', '29'] 446.875
49 8.9375 ['3', '23', '29'] 446.875
50 8.9375 ['3', '23', '29'] 446.875
51 8.9375 ['3', '23', '29'] 446.875
52 8.9375 ['3', '23', '29'] 446.875
53 8.9375 ['3', '23', '29'] 446.875
54 8.9375 ['3', '23', '29'] 446.875
55 8.9375 ['3', '23', '29'] 446.875
56 8.9375 ['3', '23', '29'] 446.875
57 8.9375 ['3', '23', '29'] 446.875
58 8.9375 ['3', '23', '29'] 446.875
59 8.9375 ['3', '23', '29'] 446.875
60 8.9375 ['3', '23', '29'] 446.875
61 8.9375 ['3', '23', '29'] 446.875
62 8.9375 ['3', '23', '29'] 446.875
63 8.9375 ['3', '23', '29'] 446.875
64 8.9375 ['3', '23', '29'] 446.875
65 8.9375 ['3', '23', '29'] 446.875
66 8.9375 ['3', '23', '29'] 446.875
67 8.9375 ['3', '23', '29'] 446.875
68 8.9375 ['3', '23', '29'] 446.875
69 8.9375 ['3', '23', '29'] 446.875
70 8.9375 ['3', '23', '29'] 446.875
71 8.9375 ['3', '23', '29'] 446.875
72 8.9375 ['3', '23', '29'] 446.875
73 8.9375 ['3', '23', '29'] 446.875
74 8.9375 ['3', '23', '29'] 446.875
75 8.9375 ['3', '23', '29'] 446.875
76 8.9375 ['3', '23', '29'] 446.875
77 8.9375 ['3', '23', '29'] 446.875
78 8.9375 ['3', '23', '29'] 446.875
79 8.9375 ['3', '23', '29'] 446.875
80 8.9375 ['3', '23', '29'] 446.875
81 8.9375 ['3', '23', '29'] 446.875
82 8.9375 ['3', '23', '29'] 446.875
83 8.9375 ['3', '23', '29'] 446.875
84 8.9375 ['3', '23', '29'] 446.875
85 8.9375 ['3', '23', '29'] 446.875
86 8.9375 ['3', '23', '29'] 446.875
87 8.9375 ['3', '23', '29'] 446.875
88 8.9375 ['3', '23', '29'] 446.875
89 8.9375 ['3', '23', '29'] 446.875
90 8.9375 ['3', '23', '29'] 446.875
91 8.9375 ['3', '23', '29'] 446.875
92 8.9375 ['3', '23', '29'] 446.875
93 8.9375 ['3', '23', '29'] 446.875
94 8.9375 ['3', '23', '29'] 446.875
95 8.9375 ['3', '23', '29'] 446.875
96 8.9375 ['3', '23', '29'] 446.875
97 8.9375 ['3', '23', '29'] 446.875
98 8.9375 ['3', '23', '29'] 446.875
99 8.9375 ['3', '23', '29'] 446.875
100 8.9375 ['3', '23', '29'] 446.875
101 8.9375 ['3', '23', '29'] 446.875
102 8.9375 ['3', '23', '29'] 446.875
103 8.9375 ['3', '23', '29'] 446.875
104 8.9375 ['3', '23', '29'] 446.875
105 8.9375 ['3', '23', '29'] 446.875
106 8.9375 ['3', '23', '29'] 446.875
107 8.9375 ['3', '23', '29'] 446.875
108 8.9375 ['3', '23', '29'] 446.875
109 8.9375 ['3', '23', '29'] 446.875
110 8.9375 ['3', '23', '29'] 446.875
111 8.9375 ['3', '23', '29'] 446.875
112 8.9375 ['3', '23', '29'] 446.875
113 8.9375 ['3', '23', '29'] 446.875
114 8.9375 ['3', '23', '29'] 446.875
115 8.9375 ['3', '23', '29'] 446.875
116 8.9375 ['3', '23', '29'] 446.875
117 8.9375 ['3', '23', '29'] 446.875
118 8.9375 ['3', '23', '29'] 446.875
119 8.9375 ['3', '23', '29'] 446.875
120 8.9375 ['3', '23', '29'] 446.875
121 8.9375 ['3', '23', '29'] 446.875
122 8.9375 ['3', '23', '29'] 446.875
123 8.9375 ['3', '23', '29'] 446.875
124 8.9375 ['3', '23', '29'] 446.875
125 8.9375 ['3', '23', '29'] 446.875
126 8.9375 ['3', '23', '29'] 446.875
127 8.9375 ['3', '23', '29'] 446.875
128 8.9375 ['3', '23', '29'] 446.875
129 8.9375 ['3', '23', '29'] 446.875
130 8.9375 ['3', '23', '29'] 446.875
131 8.9375 ['3', '23', '29'] 446.875
132 8.9375 ['3', '23', '29'] 446.875
133 8.9375 ['3', '23', '29'] 446.875
134 8.9375 ['3', '23', '29'] 446.875
135 8.9375 ['3', '23', '29'] 446.875
136 8.9375 ['3', '23', '29'] 446.875
137 8.9375 ['3', '23', '29'] 446.875
138 8.9375 ['3', '23', '29'] 446.875
139 8.9375 ['3', '23', '29'] 446.875
140 8.9375 ['3', '23', '29'] 446.875
141 8.9375 ['3', '23', '29'] 446.875
142 8.9375 ['3', '23', '29'] 446.875
143 8.9375 ['3', '23', '29'] 446.875
144 8.9375 ['3', '23', '29'] 446.875
145 8.9375 ['3', '23', '29'] 446.875
146 8.9375 ['3', '23', '29'] 446.875
147 8.9375 ['3', '23', '29'] 446.875
148 8.9375 ['3', '23', '29'] 446.875
149 8.9375 ['3', '23', '29'] 446.875
150 8.9375 ['3', '23', '29'] 446.875
151 8.9375 ['3', '23', '29'] 446.875
152 8.9375 ['3', '23', '29'] 446.875
153 8.9375 ['3', '23', '29'] 446.875
154 8.9375 ['3', '23', '29'] 446.875
155 8.9375 ['3', '23', '29'] 446.875
156 8.9375 ['3', '23', '29'] 446.875
157 8.9375 ['3', '23', '29'] 446.875
158 8.9375 ['3', '23', '29'] 446.875
159 8.9375 ['3', '23', '29'] 446.875
160 8.9375 ['3', '23', '29'] 446.875
161 8.9375 ['3', '23', '29'] 446.875
162 8.9375 ['3', '23', '29'] 446.875
163 8.9375 ['3', '23', '29'] 446.875
164 8.9375 ['3', '23', '29'] 446.875
165 8.9375 ['3', '23', '29'] 446.875
166 8.9375 ['3', '23', '29'] 446.875
167 8.9375 ['3', '23', '29'] 446.875
168 8.9375 ['3', '23', '29'] 446.875
169 8.9375 ['3', '23', '29'] 446.875
170 8.9375 ['3', '23', '29'] 446.875
171 8.9375 ['3', '23', '29'] 446.875
172 8.9375 ['3', '23', '29'] 446.875
173 8.9375 ['3', '23', '29'] 446.875
174 8.9375 ['3', '23', '29'] 446.875
175 8.9375 ['3', '23', '29'] 446.875
176 8.9375 ['3', '23', '29'] 446.875
177 8.9375 ['3', '23', '29'] 446.875
178 8.9375 ['3', '23', '29'] 446.875
179 8.9375 ['3', '23', '29'] 446.875
180 8.9375 ['3', '23', '29'] 446.875
181 8.9375 ['3', '23', '29'] 446.875
182 8.9375 ['3', '23', '29'] 446.875
183 8.9375 ['3', '23', '29'] 446.875
184 8.9375 ['3', '23', '29'] 446.875
185 8.9375 ['3', '23', '29'] 446.875
186 8.9375 ['3', '23', '29'] 446.875
187 8.9375 ['3', '23', '29'] 446.875
188 8.9375 ['3', '23', '29'] 446.875
189 8.9375 ['3', '23', '29'] 446.875
190 8.9375 ['3', '23', '29'] 446.875
191 8.9375 ['3', '23', '29'] 446.875
192 8.9375 ['3', '23', '29'] 446.875
193 8.9375 ['3', '23', '29'] 446.875
194 8.9375 ['3', '23', '29'] 446.875
195 8.9375 ['3', '23', '29'] 446.875
196 8.9375 ['3', '23', '29'] 446.875
197 8.9375 ['3', '23', '29'] 446.875
198 8.9375 ['3', '23', '29'] 446.875
199 8.9375 ['3', '23', '29'] 446.875
