0 5.666666666666667 ['1', '4', '11'] 302.22222222222223
1 5.666666666666667 ['1', '4', '11'] 295.1481481481479
2 5.592592592592593 ['11', '1', '13'] 289.48148148148135
3 5.592592592592593 ['11', '1', '13'] 285.2592592592592
4 5.481481481481482 ['1', '3', '11'] 282.4444444444443
5 5.481481481481482 ['1', '3', '11'] 280.7037037037036
6 5.481481481481482 ['1', '3', '11'] 278.9629629629627
7 5.481481481481482 ['1', '3', '11'] 277.07407407407385
8 5.481481481481482 ['1', '3', '11'] 274.07407407407436
9 5.481481481481482 ['1', '3', '11'] 274.07407407407436
10 5.481481481481482 ['1', '3', '11'] 274.07407407407436
11 5.481481481481482 ['1', '3', '11'] 274.07407407407436
12 5.481481481481482 ['1', '3', '11'] 274.07407407407436
13 5.481481481481482 ['1', '3', '11'] 274.07407407407436
14 5.481481481481482 ['1', '3', '11'] 274.07407407407436
15 5.481481481481482 ['1', '3', '11'] 274.07407407407436
16 5.481481481481482 ['1', '3', '11'] 274.07407407407436
17 5.481481481481482 ['1', '3', '11'] 274.07407407407436
18 5.481481481481482 ['1', '3', '11'] 274.07407407407436
19 5.481481481481482 ['1', '3', '11'] 274.07407407407436
20 5.481481481481482 ['1', '3', '11'] 274.07407407407436
21 5.481481481481482 ['1', '3', '11'] 274.07407407407436
22 5.481481481481482 ['1', '3', '11'] 274.07407407407436
23 5.481481481481482 ['1', '3', '11'] 274.07407407407436
24 5.481481481481482 ['1', '3', '11'] 274.07407407407436
25 5.481481481481482 ['1', '3', '11'] 274.07407407407436
26 5.481481481481482 ['1', '3', '11'] 274.07407407407436
27 5.481481481481482 ['1', '3', '11'] 274.07407407407436
28 5.481481481481482 ['1', '3', '11'] 274.07407407407436
29 5.481481481481482 ['1', '3', '11'] 274.07407407407436
30 5.481481481481482 ['1', '3', '11'] 274.07407407407436
31 5.481481481481482 ['1', '3', '11'] 274.07407407407436
32 5.481481481481482 ['1', '3', '11'] 274.07407407407436
33 5.481481481481482 ['1', '3', '11'] 274.07407407407436
34 5.481481481481482 ['1', '3', '11'] 274.07407407407436
35 5.481481481481482 ['1', '3', '11'] 274.07407407407436
36 5.481481481481482 ['1', '3', '11'] 274.07407407407436
37 5.481481481481482 ['1', '3', '11'] 274.07407407407436
38 5.481481481481482 ['1', '3', '11'] 274.07407407407436
39 5.481481481481482 ['1', '3', '11'] 274.07407407407436
40 5.481481481481482 ['1', '3', '11'] 274.07407407407436
41 5.481481481481482 ['1', '3', '11'] 274.07407407407436
42 5.481481481481482 ['1', '3', '11'] 274.07407407407436
43 5.481481481481482 ['1', '3', '11'] 274.07407407407436
44 5.481481481481482 ['1', '3', '11'] 274.07407407407436
45 5.481481481481482 ['1', '3', '11'] 274.07407407407436
46 5.481481481481482 ['1', '3', '11'] 274.07407407407436
47 5.481481481481482 ['1', '3', '11'] 274.07407407407436
48 5.481481481481482 ['1', '3', '11'] 274.07407407407436
49 5.481481481481482 ['1', '3', '11'] 274.07407407407436
50 5.481481481481482 ['1', '3', '11'] 274.07407407407436
51 5.481481481481482 ['1', '3', '11'] 274.07407407407436
52 5.481481481481482 ['1', '3', '11'] 274.07407407407436
53 5.481481481481482 ['1', '3', '11'] 274.07407407407436
54 5.481481481481482 ['1', '3', '11'] 274.07407407407436
55 5.481481481481482 ['1', '3', '11'] 274.07407407407436
56 5.481481481481482 ['1', '3', '11'] 274.07407407407436
57 5.481481481481482 ['1', '3', '11'] 274.07407407407436
58 5.481481481481482 ['1', '3', '11'] 274.07407407407436
59 5.481481481481482 ['1', '3', '11'] 274.07407407407436
60 5.481481481481482 ['1', '3', '11'] 274.07407407407436
61 5.481481481481482 ['1', '3', '11'] 274.07407407407436
62 5.481481481481482 ['1', '3', '11'] 274.07407407407436
63 5.481481481481482 ['1', '3', '11'] 274.07407407407436
64 5.481481481481482 ['1', '3', '11'] 274.07407407407436
65 5.481481481481482 ['1', '3', '11'] 274.07407407407436
66 5.481481481481482 ['1', '3', '11'] 274.07407407407436
67 5.481481481481482 ['1', '3', '11'] 274.07407407407436
68 5.481481481481482 ['1', '3', '11'] 274.07407407407436
69 5.481481481481482 ['1', '3', '11'] 274.07407407407436
70 5.481481481481482 ['1', '3', '11'] 274.07407407407436
71 5.481481481481482 ['1', '3', '11'] 274.07407407407436
72 5.481481481481482 ['1', '3', '11'] 274.07407407407436
73 5.481481481481482 ['1', '3', '11'] 274.07407407407436
74 5.481481481481482 ['1', '3', '11'] 274.07407407407436
75 5.481481481481482 ['1', '3', '11'] 274.07407407407436
76 5.481481481481482 ['1', '3', '11'] 274.07407407407436
77 5.481481481481482 ['1', '3', '11'] 274.07407407407436
78 5.481481481481482 ['1', '3', '11'] 274.07407407407436
79 5.481481481481482 ['1', '3', '11'] 274.07407407407436
80 5.481481481481482 ['1', '3', '11'] 274.07407407407436
81 5.481481481481482 ['1', '3', '11'] 274.07407407407436
82 5.481481481481482 ['1', '3', '11'] 274.07407407407436
83 5.481481481481482 ['1', '3', '11'] 274.07407407407436
84 5.481481481481482 ['1', '3', '11'] 274.07407407407436
85 5.481481481481482 ['1', '3', '11'] 274.07407407407436
86 5.481481481481482 ['1', '3', '11'] 274.07407407407436
87 5.481481481481482 ['1', '3', '11'] 274.07407407407436
88 5.481481481481482 ['1', '3', '11'] 274.07407407407436
89 5.481481481481482 ['1', '3', '11'] 274.07407407407436
90 5.481481481481482 ['1', '3', '11'] 274.07407407407436
91 5.481481481481482 ['1', '3', '11'] 274.07407407407436
92 5.481481481481482 ['1', '3', '11'] 274.07407407407436
93 5.481481481481482 ['1', '3', '11'] 274.07407407407436
94 5.481481481481482 ['1', '3', '11'] 274.07407407407436
95 5.481481481481482 ['1', '3', '11'] 274.07407407407436
96 5.481481481481482 ['1', '3', '11'] 274.07407407407436
97 5.481481481481482 ['1', '3', '11'] 274.07407407407436
98 5.481481481481482 ['1', '3', '11'] 274.07407407407436
99 5.481481481481482 ['1', '3', '11'] 274.07407407407436
100 5.481481481481482 ['1', '3', '11'] 274.07407407407436
101 5.481481481481482 ['1', '3', '11'] 274.07407407407436
102 5.481481481481482 ['1', '3', '11'] 274.07407407407436
103 5.481481481481482 ['1', '3', '11'] 274.07407407407436
104 5.481481481481482 ['1', '3', '11'] 274.07407407407436
105 5.481481481481482 ['1', '3', '11'] 274.07407407407436
106 5.481481481481482 ['1', '3', '11'] 274.07407407407436
107 5.481481481481482 ['1', '3', '11'] 274.07407407407436
108 5.481481481481482 ['1', '3', '11'] 274.07407407407436
109 5.481481481481482 ['1', '3', '11'] 274.07407407407436
110 5.481481481481482 ['1', '3', '11'] 274.07407407407436
111 5.481481481481482 ['1', '3', '11'] 274.07407407407436
112 5.481481481481482 ['1', '3', '11'] 274.07407407407436
113 5.481481481481482 ['1', '3', '11'] 274.07407407407436
114 5.481481481481482 ['1', '3', '11'] 274.07407407407436
115 5.481481481481482 ['1', '3', '11'] 274.07407407407436
116 5.481481481481482 ['1', '3', '11'] 274.07407407407436
117 5.481481481481482 ['1', '3', '11'] 274.07407407407436
118 5.481481481481482 ['1', '3', '11'] 274.07407407407436
119 5.481481481481482 ['1', '3', '11'] 274.07407407407436
120 5.481481481481482 ['1', '3', '11'] 274.07407407407436
121 5.481481481481482 ['1', '3', '11'] 274.07407407407436
122 5.481481481481482 ['1', '3', '11'] 274.07407407407436
123 5.481481481481482 ['1', '3', '11'] 274.07407407407436
124 5.481481481481482 ['1', '3', '11'] 274.07407407407436
125 5.481481481481482 ['1', '3', '11'] 274.07407407407436
126 5.481481481481482 ['1', '3', '11'] 274.07407407407436
127 5.481481481481482 ['1', '3', '11'] 274.07407407407436
128 5.481481481481482 ['1', '3', '11'] 274.07407407407436
129 5.481481481481482 ['1', '3', '11'] 274.07407407407436
130 5.481481481481482 ['1', '3', '11'] 274.07407407407436
131 5.481481481481482 ['1', '3', '11'] 274.07407407407436
132 5.481481481481482 ['1', '3', '11'] 274.07407407407436
133 5.481481481481482 ['1', '3', '11'] 274.07407407407436
134 5.481481481481482 ['1', '3', '11'] 274.07407407407436
135 5.481481481481482 ['1', '3', '11'] 274.07407407407436
136 5.481481481481482 ['1', '3', '11'] 274.07407407407436
137 5.481481481481482 ['1', '3', '11'] 274.07407407407436
138 5.481481481481482 ['1', '3', '11'] 274.07407407407436
139 5.481481481481482 ['1', '3', '11'] 274.07407407407436
140 5.481481481481482 ['1', '3', '11'] 274.07407407407436
141 5.481481481481482 ['1', '3', '11'] 274.07407407407436
142 5.481481481481482 ['1', '3', '11'] 274.07407407407436
143 5.481481481481482 ['1', '3', '11'] 274.07407407407436
144 5.481481481481482 ['1', '3', '11'] 274.07407407407436
145 5.481481481481482 ['1', '3', '11'] 274.07407407407436
146 5.481481481481482 ['1', '3', '11'] 274.07407407407436
147 5.481481481481482 ['1', '3', '11'] 274.07407407407436
148 5.481481481481482 ['1', '3', '11'] 274.07407407407436
149 5.481481481481482 ['1', '3', '11'] 274.07407407407436
150 5.481481481481482 ['1', '3', '11'] 274.07407407407436
151 5.481481481481482 ['1', '3', '11'] 274.07407407407436
152 5.481481481481482 ['1', '3', '11'] 274.07407407407436
153 5.481481481481482 ['1', '3', '11'] 274.07407407407436
154 5.481481481481482 ['1', '3', '11'] 274.07407407407436
155 5.481481481481482 ['1', '3', '11'] 274.07407407407436
156 5.481481481481482 ['1', '3', '11'] 274.07407407407436
157 5.481481481481482 ['1', '3', '11'] 274.07407407407436
158 5.481481481481482 ['1', '3', '11'] 274.07407407407436
159 5.481481481481482 ['1', '3', '11'] 274.07407407407436
160 5.481481481481482 ['1', '3', '11'] 274.07407407407436
161 5.481481481481482 ['1', '3', '11'] 274.07407407407436
162 5.481481481481482 ['1', '3', '11'] 274.07407407407436
163 5.481481481481482 ['1', '3', '11'] 274.07407407407436
164 5.481481481481482 ['1', '3', '11'] 274.07407407407436
165 5.481481481481482 ['1', '3', '11'] 274.07407407407436
166 5.481481481481482 ['1', '3', '11'] 274.07407407407436
167 5.481481481481482 ['1', '3', '11'] 274.07407407407436
168 5.481481481481482 ['1', '3', '11'] 274.07407407407436
169 5.481481481481482 ['1', '3', '11'] 274.07407407407436
170 5.481481481481482 ['1', '3', '11'] 274.07407407407436
171 5.481481481481482 ['1', '3', '11'] 274.07407407407436
172 5.481481481481482 ['1', '3', '11'] 274.07407407407436
173 5.481481481481482 ['1', '3', '11'] 274.07407407407436
174 5.481481481481482 ['1', '3', '11'] 274.07407407407436
175 5.481481481481482 ['1', '3', '11'] 274.07407407407436
176 5.481481481481482 ['1', '3', '11'] 274.07407407407436
177 5.481481481481482 ['1', '3', '11'] 274.07407407407436
178 5.481481481481482 ['1', '3', '11'] 274.07407407407436
179 5.481481481481482 ['1', '3', '11'] 274.07407407407436
180 5.481481481481482 ['1', '3', '11'] 274.07407407407436
181 5.481481481481482 ['1', '3', '11'] 274.07407407407436
182 5.481481481481482 ['1', '3', '11'] 274.07407407407436
183 5.481481481481482 ['1', '3', '11'] 274.07407407407436
184 5.481481481481482 ['1', '3', '11'] 274.07407407407436
185 5.481481481481482 ['1', '3', '11'] 274.07407407407436
186 5.481481481481482 ['1', '3', '11'] 274.07407407407436
187 5.481481481481482 ['1', '3', '11'] 274.07407407407436
188 5.481481481481482 ['1', '3', '11'] 274.07407407407436
189 5.481481481481482 ['1', '3', '11'] 274.07407407407436
190 5.481481481481482 ['1', '3', '11'] 274.07407407407436
191 5.481481481481482 ['1', '3', '11'] 274.07407407407436
192 5.481481481481482 ['1', '3', '11'] 274.07407407407436
193 5.481481481481482 ['1', '3', '11'] 274.07407407407436
194 5.481481481481482 ['1', '3', '11'] 274.07407407407436
195 5.481481481481482 ['1', '3', '11'] 274.07407407407436
196 5.481481481481482 ['1', '3', '11'] 274.07407407407436
197 5.481481481481482 ['1', '3', '11'] 274.07407407407436
198 5.481481481481482 ['1', '3', '11'] 274.07407407407436
199 5.481481481481482 ['1', '3', '11'] 274.07407407407436
