0 34.3859649122807 ['3', '34', '51', '30', '10', '56'] 1914.1052631578943
1 34.3859649122807 ['3', '34', '51', '30', '10', '56'] 1855.7894736842109
2 33.05263157894737 ['56', '27', '8', '3', '51', '46'] 1796.7719298245604
3 32.70175438596491 ['41', '9', '11', '63', '33', '8'] 1744.0701754385962
4 31.228070175438596 ['41', '63', '46', '3', '8', '51'] 1699.2280701754385
5 30.24561403508772 ['8', '9', '30', '3', '28', '41'] 1650.736842105264
6 29.82456140350877 ['41', '8', '63', '28', '9', '34'] 1600.4210526315785
7 29.68421052631579 ['9', '8', '41', '19', '28', '3'] 1555.4385964912283
8 28.63157894736842 ['41', '3', '8', '19', '34', '46'] 1518.1754385964914
9 28.63157894736842 ['41', '3', '8', '19', '34', '46'] 1491.1578947368428
10 28.140350877192983 ['46', '8', '41', '34', '3', '9'] 1468.5614035087726
11 28.140350877192983 ['46', '8', '41', '34', '3', '9'] 1449.543859649123
12 28.140350877192983 ['46', '8', '41', '34', '3', '9'] 1431.0175438596482
13 28.140350877192983 ['46', '8', '41', '34', '3', '9'] 1419.438596491228
14 28.140350877192983 ['46', '8', '41', '34', '3', '9'] 1408.9824561403505
15 28.140350877192983 ['46', '8', '41', '34', '3', '9'] 1407.017543859649
16 28.140350877192983 ['46', '8', '41', '34', '3', '9'] 1407.017543859649
17 28.140350877192983 ['46', '8', '41', '34', '3', '9'] 1407.017543859649
18 28.140350877192983 ['46', '8', '41', '34', '3', '9'] 1407.017543859649
19 28.140350877192983 ['46', '8', '41', '34', '3', '9'] 1407.017543859649
20 28.140350877192983 ['46', '8', '41', '34', '3', '9'] 1407.017543859649
21 28.140350877192983 ['46', '8', '41', '34', '3', '9'] 1407.017543859649
22 28.140350877192983 ['46', '8', '41', '34', '3', '9'] 1407.017543859649
23 28.140350877192983 ['46', '8', '41', '34', '3', '9'] 1407.017543859649
24 28.140350877192983 ['46', '8', '41', '34', '3', '9'] 1407.017543859649
25 28.140350877192983 ['46', '8', '41', '34', '3', '9'] 1407.017543859649
26 28.140350877192983 ['46', '8', '41', '34', '3', '9'] 1407.017543859649
27 28.140350877192983 ['46', '8', '41', '34', '3', '9'] 1407.017543859649
28 28.140350877192983 ['46', '8', '41', '34', '3', '9'] 1407.017543859649
29 28.140350877192983 ['46', '8', '41', '34', '3', '9'] 1407.017543859649
30 28.140350877192983 ['46', '8', '41', '34', '3', '9'] 1407.017543859649
31 28.140350877192983 ['46', '8', '41', '34', '3', '9'] 1407.017543859649
32 28.140350877192983 ['46', '8', '41', '34', '3', '9'] 1407.017543859649
33 28.140350877192983 ['46', '8', '41', '34', '3', '9'] 1407.017543859649
34 28.140350877192983 ['46', '8', '41', '34', '3', '9'] 1407.017543859649
35 28.140350877192983 ['46', '8', '41', '34', '3', '9'] 1407.017543859649
36 28.140350877192983 ['46', '8', '41', '34', '3', '9'] 1407.017543859649
37 28.140350877192983 ['46', '8', '41', '34', '3', '9'] 1407.017543859649
38 28.140350877192983 ['46', '8', '41', '34', '3', '9'] 1407.017543859649
39 28.140350877192983 ['46', '8', '41', '34', '3', '9'] 1407.017543859649
40 28.140350877192983 ['46', '8', '41', '34', '3', '9'] 1407.017543859649
41 28.140350877192983 ['46', '8', '41', '34', '3', '9'] 1407.017543859649
42 28.140350877192983 ['46', '8', '41', '34', '3', '9'] 1407.017543859649
43 28.140350877192983 ['46', '8', '41', '34', '3', '9'] 1407.017543859649
44 28.140350877192983 ['46', '8', '41', '34', '3', '9'] 1407.017543859649
45 28.140350877192983 ['46', '8', '41', '34', '3', '9'] 1407.017543859649
46 28.140350877192983 ['46', '8', '41', '34', '3', '9'] 1407.017543859649
47 28.140350877192983 ['46', '8', '41', '34', '3', '9'] 1407.017543859649
48 28.140350877192983 ['46', '8', '41', '34', '3', '9'] 1407.017543859649
49 28.140350877192983 ['46', '8', '41', '34', '3', '9'] 1407.017543859649
50 28.140350877192983 ['46', '8', '41', '34', '3', '9'] 1407.017543859649
51 28.140350877192983 ['46', '8', '41', '34', '3', '9'] 1407.017543859649
52 28.140350877192983 ['46', '8', '41', '34', '3', '9'] 1407.017543859649
53 28.140350877192983 ['46', '8', '41', '34', '3', '9'] 1407.017543859649
54 28.140350877192983 ['46', '8', '41', '34', '3', '9'] 1407.017543859649
55 28.140350877192983 ['46', '8', '41', '34', '3', '9'] 1407.017543859649
56 28.140350877192983 ['46', '8', '41', '34', '3', '9'] 1407.017543859649
57 28.140350877192983 ['46', '8', '41', '34', '3', '9'] 1407.017543859649
58 28.140350877192983 ['46', '8', '41', '34', '3', '9'] 1407.017543859649
59 28.140350877192983 ['46', '8', '41', '34', '3', '9'] 1407.017543859649
60 28.140350877192983 ['46', '8', '41', '34', '3', '9'] 1407.017543859649
61 28.140350877192983 ['46', '8', '41', '34', '3', '9'] 1407.017543859649
62 28.140350877192983 ['46', '8', '41', '34', '3', '9'] 1407.017543859649
63 28.140350877192983 ['46', '8', '41', '34', '3', '9'] 1407.017543859649
64 28.140350877192983 ['46', '8', '41', '34', '3', '9'] 1407.017543859649
65 28.140350877192983 ['46', '8', '41', '34', '3', '9'] 1407.017543859649
66 28.140350877192983 ['46', '8', '41', '34', '3', '9'] 1407.017543859649
67 28.140350877192983 ['46', '8', '41', '34', '3', '9'] 1407.017543859649
68 28.140350877192983 ['46', '8', '41', '34', '3', '9'] 1407.017543859649
69 28.140350877192983 ['46', '8', '41', '34', '3', '9'] 1407.017543859649
70 28.140350877192983 ['46', '8', '41', '34', '3', '9'] 1407.017543859649
71 28.140350877192983 ['46', '8', '41', '34', '3', '9'] 1407.017543859649
72 28.140350877192983 ['46', '8', '41', '34', '3', '9'] 1407.017543859649
73 28.140350877192983 ['46', '8', '41', '34', '3', '9'] 1407.017543859649
74 28.140350877192983 ['46', '8', '41', '34', '3', '9'] 1407.017543859649
75 28.140350877192983 ['46', '8', '41', '34', '3', '9'] 1407.017543859649
76 28.140350877192983 ['46', '8', '41', '34', '3', '9'] 1407.017543859649
77 28.140350877192983 ['46', '8', '41', '34', '3', '9'] 1407.017543859649
78 28.140350877192983 ['46', '8', '41', '34', '3', '9'] 1407.017543859649
79 28.140350877192983 ['46', '8', '41', '34', '3', '9'] 1407.017543859649
80 28.140350877192983 ['46', '8', '41', '34', '3', '9'] 1407.017543859649
81 28.140350877192983 ['46', '8', '41', '34', '3', '9'] 1407.017543859649
82 28.140350877192983 ['46', '8', '41', '34', '3', '9'] 1407.017543859649
83 28.140350877192983 ['46', '8', '41', '34', '3', '9'] 1407.017543859649
84 28.140350877192983 ['46', '8', '41', '34', '3', '9'] 1407.017543859649
85 28.140350877192983 ['46', '8', '41', '34', '3', '9'] 1407.017543859649
86 28.140350877192983 ['46', '8', '41', '34', '3', '9'] 1407.017543859649
87 28.140350877192983 ['46', '8', '41', '34', '3', '9'] 1407.017543859649
88 28.140350877192983 ['46', '8', '41', '34', '3', '9'] 1407.017543859649
89 28.140350877192983 ['46', '8', '41', '34', '3', '9'] 1407.017543859649
90 28.140350877192983 ['46', '8', '41', '34', '3', '9'] 1407.017543859649
91 28.140350877192983 ['46', '8', '41', '34', '3', '9'] 1407.017543859649
92 28.140350877192983 ['46', '8', '41', '34', '3', '9'] 1407.017543859649
93 28.140350877192983 ['46', '8', '41', '34', '3', '9'] 1407.017543859649
94 28.140350877192983 ['46', '8', '41', '34', '3', '9'] 1407.017543859649
95 28.140350877192983 ['46', '8', '41', '34', '3', '9'] 1407.017543859649
96 28.140350877192983 ['46', '8', '41', '34', '3', '9'] 1407.017543859649
97 28.140350877192983 ['46', '8', '41', '34', '3', '9'] 1407.017543859649
98 28.140350877192983 ['46', '8', '41', '34', '3', '9'] 1407.017543859649
99 28.140350877192983 ['46', '8', '41', '34', '3', '9'] 1407.017543859649
100 28.140350877192983 ['46', '8', '41', '34', '3', '9'] 1407.017543859649
101 28.140350877192983 ['46', '8', '41', '34', '3', '9'] 1407.017543859649
102 28.140350877192983 ['46', '8', '41', '34', '3', '9'] 1407.017543859649
103 28.140350877192983 ['46', '8', '41', '34', '3', '9'] 1407.017543859649
104 28.140350877192983 ['46', '8', '41', '34', '3', '9'] 1407.017543859649
105 28.140350877192983 ['46', '8', '41', '34', '3', '9'] 1407.017543859649
106 28.140350877192983 ['46', '8', '41', '34', '3', '9'] 1407.017543859649
107 28.140350877192983 ['46', '8', '41', '34', '3', '9'] 1407.017543859649
108 28.140350877192983 ['46', '8', '41', '34', '3', '9'] 1407.017543859649
109 28.140350877192983 ['46', '8', '41', '34', '3', '9'] 1407.017543859649
110 28.140350877192983 ['46', '8', '41', '34', '3', '9'] 1407.017543859649
111 28.140350877192983 ['46', '8', '41', '34', '3', '9'] 1407.017543859649
112 28.140350877192983 ['46', '8', '41', '34', '3', '9'] 1407.017543859649
113 28.140350877192983 ['46', '8', '41', '34', '3', '9'] 1407.017543859649
114 28.140350877192983 ['46', '8', '41', '34', '3', '9'] 1407.017543859649
115 28.140350877192983 ['46', '8', '41', '34', '3', '9'] 1407.017543859649
116 28.140350877192983 ['46', '8', '41', '34', '3', '9'] 1407.017543859649
117 28.140350877192983 ['46', '8', '41', '34', '3', '9'] 1407.017543859649
118 28.140350877192983 ['46', '8', '41', '34', '3', '9'] 1407.017543859649
119 28.140350877192983 ['46', '8', '41', '34', '3', '9'] 1407.017543859649
120 28.140350877192983 ['46', '8', '41', '34', '3', '9'] 1407.017543859649
121 28.140350877192983 ['46', '8', '41', '34', '3', '9'] 1407.017543859649
122 28.140350877192983 ['46', '8', '41', '34', '3', '9'] 1407.017543859649
123 28.140350877192983 ['46', '8', '41', '34', '3', '9'] 1407.017543859649
124 28.140350877192983 ['46', '8', '41', '34', '3', '9'] 1407.017543859649
125 28.140350877192983 ['46', '8', '41', '34', '3', '9'] 1407.017543859649
126 28.140350877192983 ['46', '8', '41', '34', '3', '9'] 1407.017543859649
127 28.140350877192983 ['46', '8', '41', '34', '3', '9'] 1407.017543859649
128 28.140350877192983 ['46', '8', '41', '34', '3', '9'] 1407.017543859649
129 28.140350877192983 ['46', '8', '41', '34', '3', '9'] 1407.017543859649
130 28.140350877192983 ['46', '8', '41', '34', '3', '9'] 1407.017543859649
131 28.140350877192983 ['46', '8', '41', '34', '3', '9'] 1407.017543859649
132 28.140350877192983 ['46', '8', '41', '34', '3', '9'] 1407.017543859649
133 28.140350877192983 ['46', '8', '41', '34', '3', '9'] 1407.017543859649
134 28.140350877192983 ['46', '8', '41', '34', '3', '9'] 1407.017543859649
135 28.140350877192983 ['46', '8', '41', '34', '3', '9'] 1407.017543859649
136 28.140350877192983 ['46', '8', '41', '34', '3', '9'] 1407.017543859649
137 28.140350877192983 ['46', '8', '41', '34', '3', '9'] 1407.017543859649
138 28.140350877192983 ['46', '8', '41', '34', '3', '9'] 1407.017543859649
139 28.140350877192983 ['46', '8', '41', '34', '3', '9'] 1407.017543859649
140 28.140350877192983 ['46', '8', '41', '34', '3', '9'] 1407.017543859649
141 28.140350877192983 ['46', '8', '41', '34', '3', '9'] 1407.017543859649
142 28.140350877192983 ['46', '8', '41', '34', '3', '9'] 1407.017543859649
143 28.140350877192983 ['46', '8', '41', '34', '3', '9'] 1407.017543859649
144 28.140350877192983 ['46', '8', '41', '34', '3', '9'] 1407.017543859649
145 28.140350877192983 ['46', '8', '41', '34', '3', '9'] 1407.017543859649
146 28.140350877192983 ['46', '8', '41', '34', '3', '9'] 1407.017543859649
147 28.140350877192983 ['46', '8', '41', '34', '3', '9'] 1407.017543859649
148 28.140350877192983 ['46', '8', '41', '34', '3', '9'] 1407.017543859649
149 28.140350877192983 ['46', '8', '41', '34', '3', '9'] 1407.017543859649
150 28.140350877192983 ['46', '8', '41', '34', '3', '9'] 1407.017543859649
151 28.140350877192983 ['46', '8', '41', '34', '3', '9'] 1407.017543859649
152 28.140350877192983 ['46', '8', '41', '34', '3', '9'] 1407.017543859649
153 28.140350877192983 ['46', '8', '41', '34', '3', '9'] 1407.017543859649
154 28.140350877192983 ['46', '8', '41', '34', '3', '9'] 1407.017543859649
155 28.140350877192983 ['46', '8', '41', '34', '3', '9'] 1407.017543859649
156 28.140350877192983 ['46', '8', '41', '34', '3', '9'] 1407.017543859649
157 28.140350877192983 ['46', '8', '41', '34', '3', '9'] 1407.017543859649
158 28.140350877192983 ['46', '8', '41', '34', '3', '9'] 1407.017543859649
159 28.140350877192983 ['46', '8', '41', '34', '3', '9'] 1407.017543859649
160 28.140350877192983 ['46', '8', '41', '34', '3', '9'] 1407.017543859649
161 28.140350877192983 ['46', '8', '41', '34', '3', '9'] 1407.017543859649
162 28.140350877192983 ['46', '8', '41', '34', '3', '9'] 1407.017543859649
163 28.140350877192983 ['46', '8', '41', '34', '3', '9'] 1407.017543859649
164 28.140350877192983 ['46', '8', '41', '34', '3', '9'] 1407.017543859649
165 28.140350877192983 ['46', '8', '41', '34', '3', '9'] 1407.017543859649
166 28.140350877192983 ['46', '8', '41', '34', '3', '9'] 1407.017543859649
167 28.140350877192983 ['46', '8', '41', '34', '3', '9'] 1407.017543859649
168 28.140350877192983 ['46', '8', '41', '34', '3', '9'] 1407.017543859649
169 28.140350877192983 ['46', '8', '41', '34', '3', '9'] 1407.017543859649
170 28.140350877192983 ['46', '8', '41', '34', '3', '9'] 1407.017543859649
171 28.140350877192983 ['46', '8', '41', '34', '3', '9'] 1407.017543859649
172 28.140350877192983 ['46', '8', '41', '34', '3', '9'] 1407.017543859649
173 28.140350877192983 ['46', '8', '41', '34', '3', '9'] 1407.017543859649
174 28.140350877192983 ['46', '8', '41', '34', '3', '9'] 1407.017543859649
175 28.140350877192983 ['46', '8', '41', '34', '3', '9'] 1407.017543859649
176 28.140350877192983 ['46', '8', '41', '34', '3', '9'] 1407.017543859649
177 28.140350877192983 ['46', '8', '41', '34', '3', '9'] 1407.017543859649
178 28.140350877192983 ['46', '8', '41', '34', '3', '9'] 1407.017543859649
179 28.140350877192983 ['46', '8', '41', '34', '3', '9'] 1407.017543859649
180 28.140350877192983 ['46', '8', '41', '34', '3', '9'] 1407.017543859649
181 28.140350877192983 ['46', '8', '41', '34', '3', '9'] 1407.017543859649
182 28.140350877192983 ['46', '8', '41', '34', '3', '9'] 1407.017543859649
183 28.140350877192983 ['46', '8', '41', '34', '3', '9'] 1407.017543859649
184 28.140350877192983 ['46', '8', '41', '34', '3', '9'] 1407.017543859649
185 28.140350877192983 ['46', '8', '41', '34', '3', '9'] 1407.017543859649
186 28.140350877192983 ['46', '8', '41', '34', '3', '9'] 1407.017543859649
187 28.140350877192983 ['46', '8', '41', '34', '3', '9'] 1407.017543859649
188 28.140350877192983 ['46', '8', '41', '34', '3', '9'] 1407.017543859649
189 28.140350877192983 ['46', '8', '41', '34', '3', '9'] 1407.017543859649
190 28.140350877192983 ['46', '8', '41', '34', '3', '9'] 1407.017543859649
191 28.140350877192983 ['46', '8', '41', '34', '3', '9'] 1407.017543859649
192 28.140350877192983 ['46', '8', '41', '34', '3', '9'] 1407.017543859649
193 28.140350877192983 ['46', '8', '41', '34', '3', '9'] 1407.017543859649
194 28.140350877192983 ['46', '8', '41', '34', '3', '9'] 1407.017543859649
195 28.140350877192983 ['46', '8', '41', '34', '3', '9'] 1407.017543859649
196 28.140350877192983 ['46', '8', '41', '34', '3', '9'] 1407.017543859649
197 28.140350877192983 ['46', '8', '41', '34', '3', '9'] 1407.017543859649
198 28.140350877192983 ['46', '8', '41', '34', '3', '9'] 1407.017543859649
199 28.140350877192983 ['46', '8', '41', '34', '3', '9'] 1407.017543859649
