0 32.1063829787234 ['12', '22', '19', '15', '6'] 1722.6170212765956
1 32.1063829787234 ['12', '22', '19', '15', '6'] 1691.63829787234
2 32.1063829787234 ['12', '22', '19', '15', '6'] 1665.4042553191491
3 32.1063829787234 ['12', '22', '19', '15', '6'] 1642.2340425531913
4 31.851063829787233 ['12', '22', '8', '23', '6'] 1624.6170212765958
5 31.659574468085108 ['20', '23', '6', '12', '19'] 1612.893617021275
6 31.48936170212766 ['19', '6', '12', '23', '47'] 1602.851063829788
7 31.4468085106383 ['23', '12', '19', '22', '45'] 1590.2127659574464
8 31.425531914893618 ['23', '12', '45', '19', '47'] 1582.893617021276
9 31.425531914893618 ['23', '12', '45', '19', '47'] 1577.0851063829796
10 31.425531914893618 ['23', '12', '45', '19', '47'] 1573.8936170212758
11 31.404255319148938 ['23', '19', '12', '45', '6'] 1573.0638297872326
12 31.404255319148938 ['23', '19', '12', '45', '6'] 1572.3617021276584
13 31.404255319148938 ['23', '19', '12', '45', '6'] 1571.4680851063824
14 31.404255319148938 ['23', '19', '12', '45', '6'] 1570.8510638297867
15 31.404255319148938 ['23', '19', '12', '45', '6'] 1570.4468085106366
16 31.404255319148938 ['23', '19', '12', '45', '6'] 1570.2127659574453
17 31.404255319148938 ['23', '19', '12', '45', '6'] 1570.2127659574453
18 31.404255319148938 ['23', '19', '12', '45', '6'] 1570.2127659574453
19 31.404255319148938 ['23', '19', '12', '45', '6'] 1570.2127659574453
20 31.404255319148938 ['23', '19', '12', '45', '6'] 1570.2127659574453
21 31.404255319148938 ['23', '19', '12', '45', '6'] 1570.2127659574453
22 31.404255319148938 ['23', '19', '12', '45', '6'] 1570.2127659574453
23 31.404255319148938 ['23', '19', '12', '45', '6'] 1570.2127659574453
24 31.404255319148938 ['23', '19', '12', '45', '6'] 1570.2127659574453
25 31.404255319148938 ['23', '19', '12', '45', '6'] 1570.2127659574453
26 31.404255319148938 ['23', '19', '12', '45', '6'] 1570.2127659574453
27 31.404255319148938 ['23', '19', '12', '45', '6'] 1570.2127659574453
28 31.404255319148938 ['23', '19', '12', '45', '6'] 1570.2127659574453
29 31.404255319148938 ['23', '19', '12', '45', '6'] 1570.2127659574453
30 31.404255319148938 ['23', '19', '12', '45', '6'] 1570.2127659574453
31 31.404255319148938 ['23', '19', '12', '45', '6'] 1570.2127659574453
32 31.404255319148938 ['23', '19', '12', '45', '6'] 1570.2127659574453
33 31.404255319148938 ['23', '19', '12', '45', '6'] 1570.2127659574453
34 31.404255319148938 ['23', '19', '12', '45', '6'] 1570.2127659574453
35 31.404255319148938 ['23', '19', '12', '45', '6'] 1570.2127659574453
36 31.404255319148938 ['23', '19', '12', '45', '6'] 1570.2127659574453
37 31.404255319148938 ['23', '19', '12', '45', '6'] 1570.2127659574453
38 31.404255319148938 ['23', '19', '12', '45', '6'] 1570.2127659574453
39 31.404255319148938 ['23', '19', '12', '45', '6'] 1570.2127659574453
40 31.404255319148938 ['23', '19', '12', '45', '6'] 1570.2127659574453
41 31.404255319148938 ['23', '19', '12', '45', '6'] 1570.2127659574453
42 31.404255319148938 ['23', '19', '12', '45', '6'] 1570.2127659574453
43 31.404255319148938 ['23', '19', '12', '45', '6'] 1570.2127659574453
44 31.404255319148938 ['23', '19', '12', '45', '6'] 1570.2127659574453
45 31.404255319148938 ['23', '19', '12', '45', '6'] 1570.2127659574453
46 31.404255319148938 ['23', '19', '12', '45', '6'] 1570.2127659574453
47 31.404255319148938 ['23', '19', '12', '45', '6'] 1570.2127659574453
48 31.404255319148938 ['23', '19', '12', '45', '6'] 1570.2127659574453
49 31.404255319148938 ['23', '19', '12', '45', '6'] 1570.2127659574453
50 31.404255319148938 ['23', '19', '12', '45', '6'] 1570.2127659574453
51 31.404255319148938 ['23', '19', '12', '45', '6'] 1570.2127659574453
52 31.404255319148938 ['23', '19', '12', '45', '6'] 1570.2127659574453
53 31.404255319148938 ['23', '19', '12', '45', '6'] 1570.2127659574453
54 31.404255319148938 ['23', '19', '12', '45', '6'] 1570.2127659574453
55 31.404255319148938 ['23', '19', '12', '45', '6'] 1570.2127659574453
56 31.404255319148938 ['23', '19', '12', '45', '6'] 1570.2127659574453
57 31.404255319148938 ['23', '19', '12', '45', '6'] 1570.2127659574453
58 31.404255319148938 ['23', '19', '12', '45', '6'] 1570.2127659574453
59 31.404255319148938 ['23', '19', '12', '45', '6'] 1570.2127659574453
60 31.404255319148938 ['23', '19', '12', '45', '6'] 1570.2127659574453
61 31.404255319148938 ['23', '19', '12', '45', '6'] 1570.2127659574453
62 31.404255319148938 ['23', '19', '12', '45', '6'] 1570.2127659574453
63 31.404255319148938 ['23', '19', '12', '45', '6'] 1570.2127659574453
64 31.404255319148938 ['23', '19', '12', '45', '6'] 1570.2127659574453
65 31.404255319148938 ['23', '19', '12', '45', '6'] 1570.2127659574453
66 31.404255319148938 ['23', '19', '12', '45', '6'] 1570.2127659574453
67 31.404255319148938 ['23', '19', '12', '45', '6'] 1570.2127659574453
68 31.404255319148938 ['23', '19', '12', '45', '6'] 1570.2127659574453
69 31.404255319148938 ['23', '19', '12', '45', '6'] 1570.2127659574453
70 31.404255319148938 ['23', '19', '12', '45', '6'] 1570.2127659574453
71 31.404255319148938 ['23', '19', '12', '45', '6'] 1570.2127659574453
72 31.404255319148938 ['23', '19', '12', '45', '6'] 1570.2127659574453
73 31.404255319148938 ['23', '19', '12', '45', '6'] 1570.2127659574453
74 31.404255319148938 ['23', '19', '12', '45', '6'] 1570.2127659574453
75 31.404255319148938 ['23', '19', '12', '45', '6'] 1570.2127659574453
76 31.404255319148938 ['23', '19', '12', '45', '6'] 1570.2127659574453
77 31.404255319148938 ['23', '19', '12', '45', '6'] 1570.2127659574453
78 31.404255319148938 ['23', '19', '12', '45', '6'] 1570.2127659574453
79 31.404255319148938 ['23', '19', '12', '45', '6'] 1570.2127659574453
80 31.404255319148938 ['23', '19', '12', '45', '6'] 1570.2127659574453
81 31.404255319148938 ['23', '19', '12', '45', '6'] 1570.2127659574453
82 31.404255319148938 ['23', '19', '12', '45', '6'] 1570.2127659574453
83 31.404255319148938 ['23', '19', '12', '45', '6'] 1570.2127659574453
84 31.404255319148938 ['23', '19', '12', '45', '6'] 1570.2127659574453
85 31.404255319148938 ['23', '19', '12', '45', '6'] 1570.2127659574453
86 31.404255319148938 ['23', '19', '12', '45', '6'] 1570.2127659574453
87 31.404255319148938 ['23', '19', '12', '45', '6'] 1570.2127659574453
88 31.404255319148938 ['23', '19', '12', '45', '6'] 1570.2127659574453
89 31.404255319148938 ['23', '19', '12', '45', '6'] 1570.2127659574453
90 31.404255319148938 ['23', '19', '12', '45', '6'] 1570.2127659574453
91 31.404255319148938 ['23', '19', '12', '45', '6'] 1570.2127659574453
92 31.404255319148938 ['23', '19', '12', '45', '6'] 1570.2127659574453
93 31.404255319148938 ['23', '19', '12', '45', '6'] 1570.2127659574453
94 31.404255319148938 ['23', '19', '12', '45', '6'] 1570.2127659574453
95 31.404255319148938 ['23', '19', '12', '45', '6'] 1570.2127659574453
96 31.404255319148938 ['23', '19', '12', '45', '6'] 1570.2127659574453
97 31.404255319148938 ['23', '19', '12', '45', '6'] 1570.2127659574453
98 31.404255319148938 ['23', '19', '12', '45', '6'] 1570.2127659574453
99 31.404255319148938 ['23', '19', '12', '45', '6'] 1570.2127659574453
100 31.404255319148938 ['23', '19', '12', '45', '6'] 1570.2127659574453
101 31.404255319148938 ['23', '19', '12', '45', '6'] 1570.2127659574453
102 31.404255319148938 ['23', '19', '12', '45', '6'] 1570.2127659574453
103 31.404255319148938 ['23', '19', '12', '45', '6'] 1570.2127659574453
104 31.404255319148938 ['23', '19', '12', '45', '6'] 1570.2127659574453
105 31.404255319148938 ['23', '19', '12', '45', '6'] 1570.2127659574453
106 31.404255319148938 ['23', '19', '12', '45', '6'] 1570.2127659574453
107 31.404255319148938 ['23', '19', '12', '45', '6'] 1570.2127659574453
108 31.404255319148938 ['23', '19', '12', '45', '6'] 1570.2127659574453
109 31.404255319148938 ['23', '19', '12', '45', '6'] 1570.2127659574453
110 31.404255319148938 ['23', '19', '12', '45', '6'] 1570.2127659574453
111 31.404255319148938 ['23', '19', '12', '45', '6'] 1570.2127659574453
112 31.404255319148938 ['23', '19', '12', '45', '6'] 1570.2127659574453
113 31.404255319148938 ['23', '19', '12', '45', '6'] 1570.2127659574453
114 31.404255319148938 ['23', '19', '12', '45', '6'] 1570.2127659574453
115 31.404255319148938 ['23', '19', '12', '45', '6'] 1570.2127659574453
116 31.404255319148938 ['23', '19', '12', '45', '6'] 1570.2127659574453
117 31.404255319148938 ['23', '19', '12', '45', '6'] 1570.2127659574453
118 31.404255319148938 ['23', '19', '12', '45', '6'] 1570.2127659574453
119 31.404255319148938 ['23', '19', '12', '45', '6'] 1570.2127659574453
120 31.404255319148938 ['23', '19', '12', '45', '6'] 1570.2127659574453
121 31.404255319148938 ['23', '19', '12', '45', '6'] 1570.2127659574453
122 31.404255319148938 ['23', '19', '12', '45', '6'] 1570.2127659574453
123 31.404255319148938 ['23', '19', '12', '45', '6'] 1570.2127659574453
124 31.404255319148938 ['23', '19', '12', '45', '6'] 1570.2127659574453
125 31.404255319148938 ['23', '19', '12', '45', '6'] 1570.2127659574453
126 31.404255319148938 ['23', '19', '12', '45', '6'] 1570.2127659574453
127 31.404255319148938 ['23', '19', '12', '45', '6'] 1570.2127659574453
128 31.404255319148938 ['23', '19', '12', '45', '6'] 1570.2127659574453
129 31.404255319148938 ['23', '19', '12', '45', '6'] 1570.2127659574453
130 31.404255319148938 ['23', '19', '12', '45', '6'] 1570.2127659574453
131 31.404255319148938 ['23', '19', '12', '45', '6'] 1570.2127659574453
132 31.404255319148938 ['23', '19', '12', '45', '6'] 1570.2127659574453
133 31.404255319148938 ['23', '19', '12', '45', '6'] 1570.2127659574453
134 31.404255319148938 ['23', '19', '12', '45', '6'] 1570.2127659574453
135 31.404255319148938 ['23', '19', '12', '45', '6'] 1570.2127659574453
136 31.404255319148938 ['23', '19', '12', '45', '6'] 1570.2127659574453
137 31.404255319148938 ['23', '19', '12', '45', '6'] 1570.2127659574453
138 31.404255319148938 ['23', '19', '12', '45', '6'] 1570.2127659574453
139 31.404255319148938 ['23', '19', '12', '45', '6'] 1570.2127659574453
140 31.404255319148938 ['23', '19', '12', '45', '6'] 1570.2127659574453
141 31.404255319148938 ['23', '19', '12', '45', '6'] 1570.2127659574453
142 31.404255319148938 ['23', '19', '12', '45', '6'] 1570.2127659574453
143 31.404255319148938 ['23', '19', '12', '45', '6'] 1570.2127659574453
144 31.404255319148938 ['23', '19', '12', '45', '6'] 1570.2127659574453
145 31.404255319148938 ['23', '19', '12', '45', '6'] 1570.2127659574453
146 31.404255319148938 ['23', '19', '12', '45', '6'] 1570.2127659574453
147 31.404255319148938 ['23', '19', '12', '45', '6'] 1570.2127659574453
148 31.404255319148938 ['23', '19', '12', '45', '6'] 1570.2127659574453
149 31.404255319148938 ['23', '19', '12', '45', '6'] 1570.2127659574453
150 31.404255319148938 ['23', '19', '12', '45', '6'] 1570.2127659574453
151 31.404255319148938 ['23', '19', '12', '45', '6'] 1570.2127659574453
152 31.404255319148938 ['23', '19', '12', '45', '6'] 1570.2127659574453
153 31.404255319148938 ['23', '19', '12', '45', '6'] 1570.2127659574453
154 31.404255319148938 ['23', '19', '12', '45', '6'] 1570.2127659574453
155 31.404255319148938 ['23', '19', '12', '45', '6'] 1570.2127659574453
156 31.404255319148938 ['23', '19', '12', '45', '6'] 1570.2127659574453
157 31.404255319148938 ['23', '19', '12', '45', '6'] 1570.2127659574453
158 31.404255319148938 ['23', '19', '12', '45', '6'] 1570.2127659574453
159 31.404255319148938 ['23', '19', '12', '45', '6'] 1570.2127659574453
160 31.404255319148938 ['23', '19', '12', '45', '6'] 1570.2127659574453
161 31.404255319148938 ['23', '19', '12', '45', '6'] 1570.2127659574453
162 31.404255319148938 ['23', '19', '12', '45', '6'] 1570.2127659574453
163 31.404255319148938 ['23', '19', '12', '45', '6'] 1570.2127659574453
164 31.404255319148938 ['23', '19', '12', '45', '6'] 1570.2127659574453
165 31.404255319148938 ['23', '19', '12', '45', '6'] 1570.2127659574453
166 31.404255319148938 ['23', '19', '12', '45', '6'] 1570.2127659574453
167 31.404255319148938 ['23', '19', '12', '45', '6'] 1570.2127659574453
168 31.404255319148938 ['23', '19', '12', '45', '6'] 1570.2127659574453
169 31.404255319148938 ['23', '19', '12', '45', '6'] 1570.2127659574453
170 31.404255319148938 ['23', '19', '12', '45', '6'] 1570.2127659574453
171 31.404255319148938 ['23', '19', '12', '45', '6'] 1570.2127659574453
172 31.404255319148938 ['23', '19', '12', '45', '6'] 1570.2127659574453
173 31.404255319148938 ['23', '19', '12', '45', '6'] 1570.2127659574453
174 31.404255319148938 ['23', '19', '12', '45', '6'] 1570.2127659574453
175 31.404255319148938 ['23', '19', '12', '45', '6'] 1570.2127659574453
176 31.404255319148938 ['23', '19', '12', '45', '6'] 1570.2127659574453
177 31.404255319148938 ['23', '19', '12', '45', '6'] 1570.2127659574453
178 31.404255319148938 ['23', '19', '12', '45', '6'] 1570.2127659574453
179 31.404255319148938 ['23', '19', '12', '45', '6'] 1570.2127659574453
180 31.404255319148938 ['23', '19', '12', '45', '6'] 1570.2127659574453
181 31.404255319148938 ['23', '19', '12', '45', '6'] 1570.2127659574453
182 31.404255319148938 ['23', '19', '12', '45', '6'] 1570.2127659574453
183 31.404255319148938 ['23', '19', '12', '45', '6'] 1570.2127659574453
184 31.404255319148938 ['23', '19', '12', '45', '6'] 1570.2127659574453
185 31.404255319148938 ['23', '19', '12', '45', '6'] 1570.2127659574453
186 31.404255319148938 ['23', '19', '12', '45', '6'] 1570.2127659574453
187 31.404255319148938 ['23', '19', '12', '45', '6'] 1570.2127659574453
188 31.404255319148938 ['23', '19', '12', '45', '6'] 1570.2127659574453
189 31.404255319148938 ['23', '19', '12', '45', '6'] 1570.2127659574453
190 31.404255319148938 ['23', '19', '12', '45', '6'] 1570.2127659574453
191 31.404255319148938 ['23', '19', '12', '45', '6'] 1570.2127659574453
192 31.404255319148938 ['23', '19', '12', '45', '6'] 1570.2127659574453
193 31.404255319148938 ['23', '19', '12', '45', '6'] 1570.2127659574453
194 31.404255319148938 ['23', '19', '12', '45', '6'] 1570.2127659574453
195 31.404255319148938 ['23', '19', '12', '45', '6'] 1570.2127659574453
196 31.404255319148938 ['23', '19', '12', '45', '6'] 1570.2127659574453
197 31.404255319148938 ['23', '19', '12', '45', '6'] 1570.2127659574453
198 31.404255319148938 ['23', '19', '12', '45', '6'] 1570.2127659574453
199 31.404255319148938 ['23', '19', '12', '45', '6'] 1570.2127659574453
