0 5.237283950617285 ['11', '20', '34', '139', '123', '105', '118', '129', '101', '137', '140', '4', '88', '26', '10'] 266.70098765432107
1 5.228518518518518 ['129', '20', '134', '146', '140', '61', '123', '88', '34', '86', '3', '11', '90', '137', '147'] 265.3193827160494
2 5.189506172839509 ['108', '37', '129', '79', '144', '58', '63', '71', '101', '126', '138', '18', '135', '148', '60'] 264.1766666666668
3 5.158765432098767 ['140', '123', '88', '11', '34', '137', '20', '129', '26', '101', '105', '86', '3', '4', '147'] 263.10172839506185
4 5.153580246913581 ['128', '101', '63', '132', '123', '60', '144', '73', '17', '4', '41', '44', '147', '124', '37'] 262.0897530864199
5 5.075061728395064 ['81', '145', '128', '49', '146', '141', '135', '85', '144', '101', '63', '147', '103', '60', '125'] 261.3043209876544
6 5.075061728395064 ['81', '145', '128', '49', '146', '141', '135', '85', '144', '101', '63', '147', '103', '60', '125'] 260.4416049382717
7 5.075061728395064 ['81', '145', '128', '49', '146', '141', '135', '85', '144', '101', '63', '147', '103', '60', '125'] 259.60555555555567
8 5.075061728395064 ['81', '145', '128', '49', '146', '141', '135', '85', '144', '101', '63', '147', '103', '60', '125'] 258.67679012345695
9 5.035802469135803 ['147', '101', '146', '128', '11', '135', '4', '49', '123', '85', '137', '60', '144', '86', '125'] 257.70864197530875
10 5.035802469135803 ['147', '101', '146', '128', '11', '135', '4', '49', '123', '85', '137', '60', '144', '86', '125'] 256.94222222222237
11 5.035802469135803 ['147', '101', '146', '128', '11', '135', '4', '49', '123', '85', '137', '60', '144', '86', '125'] 256.1540740740741
12 5.035802469135803 ['147', '101', '146', '128', '11', '135', '4', '49', '123', '85', '137', '60', '144', '86', '125'] 255.5853086419753
13 5.035802469135803 ['147', '101', '146', '128', '11', '135', '4', '49', '123', '85', '137', '60', '144', '86', '125'] 255.27592592592603
14 5.035802469135803 ['147', '101', '146', '128', '11', '135', '4', '49', '123', '85', '137', '60', '144', '86', '125'] 254.74358024691372
15 5.0079012345679 ['147', '132', '4', '3', '123', '88', '105', '128', '137', '135', '26', '134', '146', '90', '139'] 254.1232098765432
16 5.00753086419753 ['146', '147', '3', '132', '128', '105', '90', '123', '135', '88', '134', '63', '139', '4', '103'] 253.5728395061729
17 5.0041975308641975 ['146', '132', '123', '105', '90', '134', '135', '4', '128', '88', '3', '139', '147', '26', '103'] 252.81864197530865
18 5.0041975308641975 ['146', '132', '123', '105', '90', '134', '135', '4', '128', '88', '3', '139', '147', '26', '103'] 252.1290123456791
19 4.9964197530864185 ['3', '4', '11', '134', '60', '128', '86', '147', '135', '49', '125', '123', '144', '101', '90'] 251.5700000000001
20 4.969259259259261 ['135', '88', '147', '3', '146', '123', '128', '4', '134', '139', '60', '101', '86', '103', '144'] 250.91987654320994
21 4.969259259259261 ['135', '88', '147', '3', '146', '123', '128', '4', '134', '139', '60', '101', '86', '103', '144'] 250.3907407407408
22 4.969259259259261 ['135', '88', '147', '3', '146', '123', '128', '4', '134', '139', '60', '101', '86', '103', '144'] 250.0193827160494
23 4.969259259259261 ['135', '88', '147', '3', '146', '123', '128', '4', '134', '139', '60', '101', '86', '103', '144'] 249.741975308642
24 4.969259259259261 ['135', '88', '147', '3', '146', '123', '128', '4', '134', '139', '60', '101', '86', '103', '144'] 249.49283950617288
25 4.969259259259261 ['135', '88', '147', '3', '146', '123', '128', '4', '134', '139', '60', '101', '86', '103', '144'] 249.2506172839506
26 4.969259259259261 ['135', '88', '147', '3', '146', '123', '128', '4', '134', '139', '60', '101', '86', '103', '144'] 248.98271604938284
27 4.959382716049385 ['144', '123', '134', '60', '3', '135', '128', '101', '147', '139', '86', '4', '125', '103', '146'] 248.84074074074084
28 4.959382716049385 ['144', '123', '134', '60', '3', '135', '128', '101', '147', '139', '86', '4', '125', '103', '146'] 248.6391358024692
29 4.959382716049385 ['144', '123', '134', '60', '3', '135', '128', '101', '147', '139', '86', '4', '125', '103', '146'] 248.5274074074076
30 4.959382716049385 ['144', '123', '134', '60', '3', '135', '128', '101', '147', '139', '86', '4', '125', '103', '146'] 248.43123456790164
31 4.956172839506171 ['4', '101', '128', '144', '139', '134', '123', '125', '135', '147', '86', '3', '60', '132', '90'] 248.32172839506202
32 4.956172839506171 ['4', '101', '128', '144', '139', '134', '123', '125', '135', '147', '86', '3', '60', '132', '90'] 248.20592592592604
33 4.956172839506171 ['4', '101', '128', '144', '139', '134', '123', '125', '135', '147', '86', '3', '60', '132', '90'] 248.08777777777792
34 4.951975308641977 ['139', '147', '128', '123', '4', '101', '134', '86', '135', '144', '60', '3', '132', '103', '146'] 247.95790123456808
35 4.951975308641977 ['139', '147', '128', '123', '4', '101', '134', '86', '135', '144', '60', '3', '132', '103', '146'] 247.85679012345673
36 4.951975308641977 ['139', '147', '128', '123', '4', '101', '134', '86', '135', '144', '60', '3', '132', '103', '146'] 247.79185185185162
37 4.951975308641977 ['139', '147', '128', '123', '4', '101', '134', '86', '135', '144', '60', '3', '132', '103', '146'] 247.78345679012324
38 4.951975308641977 ['139', '147', '128', '123', '4', '101', '134', '86', '135', '144', '60', '3', '132', '103', '146'] 247.77086419753064
39 4.951975308641977 ['139', '147', '128', '123', '4', '101', '134', '86', '135', '144', '60', '3', '132', '103', '146'] 247.74567901234548
40 4.951975308641977 ['139', '147', '128', '123', '4', '101', '134', '86', '135', '144', '60', '3', '132', '103', '146'] 247.72469135802453
41 4.951975308641977 ['139', '147', '128', '123', '4', '101', '134', '86', '135', '144', '60', '3', '132', '103', '146'] 247.64074074074074
42 4.951975308641977 ['139', '147', '128', '123', '4', '101', '134', '86', '135', '144', '60', '3', '132', '103', '146'] 247.59876543209884
43 4.951975308641977 ['139', '147', '128', '123', '4', '101', '134', '86', '135', '144', '60', '3', '132', '103', '146'] 247.59876543209884
44 4.951975308641977 ['139', '147', '128', '123', '4', '101', '134', '86', '135', '144', '60', '3', '132', '103', '146'] 247.59876543209884
45 4.951975308641977 ['139', '147', '128', '123', '4', '101', '134', '86', '135', '144', '60', '3', '132', '103', '146'] 247.59876543209884
46 4.951975308641977 ['139', '147', '128', '123', '4', '101', '134', '86', '135', '144', '60', '3', '132', '103', '146'] 247.59876543209884
47 4.951975308641977 ['139', '147', '128', '123', '4', '101', '134', '86', '135', '144', '60', '3', '132', '103', '146'] 247.59876543209884
48 4.951975308641977 ['139', '147', '128', '123', '4', '101', '134', '86', '135', '144', '60', '3', '132', '103', '146'] 247.59876543209884
49 4.951975308641977 ['139', '147', '128', '123', '4', '101', '134', '86', '135', '144', '60', '3', '132', '103', '146'] 247.59876543209884
50 4.951975308641977 ['139', '147', '128', '123', '4', '101', '134', '86', '135', '144', '60', '3', '132', '103', '146'] 247.59876543209884
51 4.951975308641977 ['139', '147', '128', '123', '4', '101', '134', '86', '135', '144', '60', '3', '132', '103', '146'] 247.59876543209884
52 4.951975308641977 ['139', '147', '128', '123', '4', '101', '134', '86', '135', '144', '60', '3', '132', '103', '146'] 247.59876543209884
53 4.951975308641977 ['139', '147', '128', '123', '4', '101', '134', '86', '135', '144', '60', '3', '132', '103', '146'] 247.59876543209884
54 4.951975308641977 ['139', '147', '128', '123', '4', '101', '134', '86', '135', '144', '60', '3', '132', '103', '146'] 247.59876543209884
55 4.951975308641977 ['139', '147', '128', '123', '4', '101', '134', '86', '135', '144', '60', '3', '132', '103', '146'] 247.59876543209884
56 4.951975308641977 ['139', '147', '128', '123', '4', '101', '134', '86', '135', '144', '60', '3', '132', '103', '146'] 247.59876543209884
57 4.951975308641977 ['139', '147', '128', '123', '4', '101', '134', '86', '135', '144', '60', '3', '132', '103', '146'] 247.59876543209884
58 4.951975308641977 ['139', '147', '128', '123', '4', '101', '134', '86', '135', '144', '60', '3', '132', '103', '146'] 247.59876543209884
59 4.951975308641977 ['139', '147', '128', '123', '4', '101', '134', '86', '135', '144', '60', '3', '132', '103', '146'] 247.59876543209884
60 4.951975308641977 ['139', '147', '128', '123', '4', '101', '134', '86', '135', '144', '60', '3', '132', '103', '146'] 247.59876543209884
61 4.951975308641977 ['139', '147', '128', '123', '4', '101', '134', '86', '135', '144', '60', '3', '132', '103', '146'] 247.59876543209884
62 4.951975308641977 ['139', '147', '128', '123', '4', '101', '134', '86', '135', '144', '60', '3', '132', '103', '146'] 247.59876543209884
63 4.951975308641977 ['139', '147', '128', '123', '4', '101', '134', '86', '135', '144', '60', '3', '132', '103', '146'] 247.59876543209884
64 4.951975308641977 ['139', '147', '128', '123', '4', '101', '134', '86', '135', '144', '60', '3', '132', '103', '146'] 247.59876543209884
65 4.951975308641977 ['139', '147', '128', '123', '4', '101', '134', '86', '135', '144', '60', '3', '132', '103', '146'] 247.59876543209884
66 4.951975308641977 ['139', '147', '128', '123', '4', '101', '134', '86', '135', '144', '60', '3', '132', '103', '146'] 247.59876543209884
67 4.951975308641977 ['139', '147', '128', '123', '4', '101', '134', '86', '135', '144', '60', '3', '132', '103', '146'] 247.59876543209884
68 4.951975308641977 ['139', '147', '128', '123', '4', '101', '134', '86', '135', '144', '60', '3', '132', '103', '146'] 247.59876543209884
69 4.951975308641977 ['139', '147', '128', '123', '4', '101', '134', '86', '135', '144', '60', '3', '132', '103', '146'] 247.59876543209884
70 4.951975308641977 ['139', '147', '128', '123', '4', '101', '134', '86', '135', '144', '60', '3', '132', '103', '146'] 247.59876543209884
71 4.951975308641977 ['139', '147', '128', '123', '4', '101', '134', '86', '135', '144', '60', '3', '132', '103', '146'] 247.59876543209884
72 4.951975308641977 ['139', '147', '128', '123', '4', '101', '134', '86', '135', '144', '60', '3', '132', '103', '146'] 247.59876543209884
73 4.951975308641977 ['139', '147', '128', '123', '4', '101', '134', '86', '135', '144', '60', '3', '132', '103', '146'] 247.59876543209884
74 4.951975308641977 ['139', '147', '128', '123', '4', '101', '134', '86', '135', '144', '60', '3', '132', '103', '146'] 247.59876543209884
75 4.951975308641977 ['139', '147', '128', '123', '4', '101', '134', '86', '135', '144', '60', '3', '132', '103', '146'] 247.59876543209884
76 4.951975308641977 ['139', '147', '128', '123', '4', '101', '134', '86', '135', '144', '60', '3', '132', '103', '146'] 247.59876543209884
77 4.951975308641977 ['139', '147', '128', '123', '4', '101', '134', '86', '135', '144', '60', '3', '132', '103', '146'] 247.59876543209884
78 4.951975308641977 ['139', '147', '128', '123', '4', '101', '134', '86', '135', '144', '60', '3', '132', '103', '146'] 247.59876543209884
79 4.951975308641977 ['139', '147', '128', '123', '4', '101', '134', '86', '135', '144', '60', '3', '132', '103', '146'] 247.59876543209884
80 4.951975308641977 ['139', '147', '128', '123', '4', '101', '134', '86', '135', '144', '60', '3', '132', '103', '146'] 247.59876543209884
81 4.951975308641977 ['139', '147', '128', '123', '4', '101', '134', '86', '135', '144', '60', '3', '132', '103', '146'] 247.59876543209884
82 4.951975308641977 ['139', '147', '128', '123', '4', '101', '134', '86', '135', '144', '60', '3', '132', '103', '146'] 247.59876543209884
83 4.951975308641977 ['139', '147', '128', '123', '4', '101', '134', '86', '135', '144', '60', '3', '132', '103', '146'] 247.59876543209884
84 4.951975308641977 ['139', '147', '128', '123', '4', '101', '134', '86', '135', '144', '60', '3', '132', '103', '146'] 247.59876543209884
85 4.951975308641977 ['139', '147', '128', '123', '4', '101', '134', '86', '135', '144', '60', '3', '132', '103', '146'] 247.59876543209884
86 4.951975308641977 ['139', '147', '128', '123', '4', '101', '134', '86', '135', '144', '60', '3', '132', '103', '146'] 247.59876543209884
87 4.951975308641977 ['139', '147', '128', '123', '4', '101', '134', '86', '135', '144', '60', '3', '132', '103', '146'] 247.59876543209884
88 4.951975308641977 ['139', '147', '128', '123', '4', '101', '134', '86', '135', '144', '60', '3', '132', '103', '146'] 247.59876543209884
89 4.951975308641977 ['139', '147', '128', '123', '4', '101', '134', '86', '135', '144', '60', '3', '132', '103', '146'] 247.59876543209884
90 4.951975308641977 ['139', '147', '128', '123', '4', '101', '134', '86', '135', '144', '60', '3', '132', '103', '146'] 247.59876543209884
91 4.951975308641977 ['139', '147', '128', '123', '4', '101', '134', '86', '135', '144', '60', '3', '132', '103', '146'] 247.59876543209884
92 4.951975308641977 ['139', '147', '128', '123', '4', '101', '134', '86', '135', '144', '60', '3', '132', '103', '146'] 247.59876543209884
93 4.951975308641977 ['139', '147', '128', '123', '4', '101', '134', '86', '135', '144', '60', '3', '132', '103', '146'] 247.59876543209884
94 4.951975308641977 ['139', '147', '128', '123', '4', '101', '134', '86', '135', '144', '60', '3', '132', '103', '146'] 247.59876543209884
95 4.951975308641977 ['139', '147', '128', '123', '4', '101', '134', '86', '135', '144', '60', '3', '132', '103', '146'] 247.59876543209884
96 4.951975308641977 ['139', '147', '128', '123', '4', '101', '134', '86', '135', '144', '60', '3', '132', '103', '146'] 247.59876543209884
97 4.951975308641977 ['139', '147', '128', '123', '4', '101', '134', '86', '135', '144', '60', '3', '132', '103', '146'] 247.59876543209884
98 4.951975308641977 ['139', '147', '128', '123', '4', '101', '134', '86', '135', '144', '60', '3', '132', '103', '146'] 247.59876543209884
99 4.951975308641977 ['139', '147', '128', '123', '4', '101', '134', '86', '135', '144', '60', '3', '132', '103', '146'] 247.59876543209884
100 4.951975308641977 ['139', '147', '128', '123', '4', '101', '134', '86', '135', '144', '60', '3', '132', '103', '146'] 247.59876543209884
101 4.951975308641977 ['139', '147', '128', '123', '4', '101', '134', '86', '135', '144', '60', '3', '132', '103', '146'] 247.59876543209884
102 4.951975308641977 ['139', '147', '128', '123', '4', '101', '134', '86', '135', '144', '60', '3', '132', '103', '146'] 247.59876543209884
103 4.951975308641977 ['139', '147', '128', '123', '4', '101', '134', '86', '135', '144', '60', '3', '132', '103', '146'] 247.59876543209884
104 4.951975308641977 ['139', '147', '128', '123', '4', '101', '134', '86', '135', '144', '60', '3', '132', '103', '146'] 247.59876543209884
105 4.951975308641977 ['139', '147', '128', '123', '4', '101', '134', '86', '135', '144', '60', '3', '132', '103', '146'] 247.59876543209884
106 4.951975308641977 ['139', '147', '128', '123', '4', '101', '134', '86', '135', '144', '60', '3', '132', '103', '146'] 247.59876543209884
107 4.951975308641977 ['139', '147', '128', '123', '4', '101', '134', '86', '135', '144', '60', '3', '132', '103', '146'] 247.59876543209884
108 4.951975308641977 ['139', '147', '128', '123', '4', '101', '134', '86', '135', '144', '60', '3', '132', '103', '146'] 247.59876543209884
109 4.951975308641977 ['139', '147', '128', '123', '4', '101', '134', '86', '135', '144', '60', '3', '132', '103', '146'] 247.59876543209884
110 4.951975308641977 ['139', '147', '128', '123', '4', '101', '134', '86', '135', '144', '60', '3', '132', '103', '146'] 247.59876543209884
111 4.951975308641977 ['139', '147', '128', '123', '4', '101', '134', '86', '135', '144', '60', '3', '132', '103', '146'] 247.59876543209884
112 4.951975308641977 ['139', '147', '128', '123', '4', '101', '134', '86', '135', '144', '60', '3', '132', '103', '146'] 247.59876543209884
113 4.951975308641977 ['139', '147', '128', '123', '4', '101', '134', '86', '135', '144', '60', '3', '132', '103', '146'] 247.59876543209884
114 4.951975308641977 ['139', '147', '128', '123', '4', '101', '134', '86', '135', '144', '60', '3', '132', '103', '146'] 247.59876543209884
115 4.951975308641977 ['139', '147', '128', '123', '4', '101', '134', '86', '135', '144', '60', '3', '132', '103', '146'] 247.59876543209884
116 4.951975308641977 ['139', '147', '128', '123', '4', '101', '134', '86', '135', '144', '60', '3', '132', '103', '146'] 247.59876543209884
117 4.951975308641977 ['139', '147', '128', '123', '4', '101', '134', '86', '135', '144', '60', '3', '132', '103', '146'] 247.59876543209884
118 4.951975308641977 ['139', '147', '128', '123', '4', '101', '134', '86', '135', '144', '60', '3', '132', '103', '146'] 247.59876543209884
119 4.951975308641977 ['139', '147', '128', '123', '4', '101', '134', '86', '135', '144', '60', '3', '132', '103', '146'] 247.59876543209884
120 4.951975308641977 ['139', '147', '128', '123', '4', '101', '134', '86', '135', '144', '60', '3', '132', '103', '146'] 247.59876543209884
121 4.951975308641977 ['139', '147', '128', '123', '4', '101', '134', '86', '135', '144', '60', '3', '132', '103', '146'] 247.59876543209884
122 4.951975308641977 ['139', '147', '128', '123', '4', '101', '134', '86', '135', '144', '60', '3', '132', '103', '146'] 247.59876543209884
123 4.951975308641977 ['139', '147', '128', '123', '4', '101', '134', '86', '135', '144', '60', '3', '132', '103', '146'] 247.59876543209884
124 4.951975308641977 ['139', '147', '128', '123', '4', '101', '134', '86', '135', '144', '60', '3', '132', '103', '146'] 247.59876543209884
125 4.951975308641977 ['139', '147', '128', '123', '4', '101', '134', '86', '135', '144', '60', '3', '132', '103', '146'] 247.59876543209884
126 4.951975308641977 ['139', '147', '128', '123', '4', '101', '134', '86', '135', '144', '60', '3', '132', '103', '146'] 247.59876543209884
127 4.951975308641977 ['139', '147', '128', '123', '4', '101', '134', '86', '135', '144', '60', '3', '132', '103', '146'] 247.59876543209884
128 4.951975308641977 ['139', '147', '128', '123', '4', '101', '134', '86', '135', '144', '60', '3', '132', '103', '146'] 247.59876543209884
129 4.951975308641977 ['139', '147', '128', '123', '4', '101', '134', '86', '135', '144', '60', '3', '132', '103', '146'] 247.59876543209884
130 4.951975308641977 ['139', '147', '128', '123', '4', '101', '134', '86', '135', '144', '60', '3', '132', '103', '146'] 247.59876543209884
131 4.951975308641977 ['139', '147', '128', '123', '4', '101', '134', '86', '135', '144', '60', '3', '132', '103', '146'] 247.59876543209884
132 4.951975308641977 ['139', '147', '128', '123', '4', '101', '134', '86', '135', '144', '60', '3', '132', '103', '146'] 247.59876543209884
133 4.951975308641977 ['139', '147', '128', '123', '4', '101', '134', '86', '135', '144', '60', '3', '132', '103', '146'] 247.59876543209884
134 4.951975308641977 ['139', '147', '128', '123', '4', '101', '134', '86', '135', '144', '60', '3', '132', '103', '146'] 247.59876543209884
135 4.951975308641977 ['139', '147', '128', '123', '4', '101', '134', '86', '135', '144', '60', '3', '132', '103', '146'] 247.59876543209884
136 4.951975308641977 ['139', '147', '128', '123', '4', '101', '134', '86', '135', '144', '60', '3', '132', '103', '146'] 247.59876543209884
137 4.951975308641977 ['139', '147', '128', '123', '4', '101', '134', '86', '135', '144', '60', '3', '132', '103', '146'] 247.59876543209884
138 4.951975308641977 ['139', '147', '128', '123', '4', '101', '134', '86', '135', '144', '60', '3', '132', '103', '146'] 247.59876543209884
139 4.951975308641977 ['139', '147', '128', '123', '4', '101', '134', '86', '135', '144', '60', '3', '132', '103', '146'] 247.59876543209884
140 4.951975308641977 ['139', '147', '128', '123', '4', '101', '134', '86', '135', '144', '60', '3', '132', '103', '146'] 247.59876543209884
141 4.951975308641977 ['139', '147', '128', '123', '4', '101', '134', '86', '135', '144', '60', '3', '132', '103', '146'] 247.59876543209884
142 4.951975308641977 ['139', '147', '128', '123', '4', '101', '134', '86', '135', '144', '60', '3', '132', '103', '146'] 247.59876543209884
143 4.951975308641977 ['139', '147', '128', '123', '4', '101', '134', '86', '135', '144', '60', '3', '132', '103', '146'] 247.59876543209884
144 4.951975308641977 ['139', '147', '128', '123', '4', '101', '134', '86', '135', '144', '60', '3', '132', '103', '146'] 247.59876543209884
145 4.951975308641977 ['139', '147', '128', '123', '4', '101', '134', '86', '135', '144', '60', '3', '132', '103', '146'] 247.59876543209884
146 4.951975308641977 ['139', '147', '128', '123', '4', '101', '134', '86', '135', '144', '60', '3', '132', '103', '146'] 247.59876543209884
147 4.951975308641977 ['139', '147', '128', '123', '4', '101', '134', '86', '135', '144', '60', '3', '132', '103', '146'] 247.59876543209884
148 4.951975308641977 ['139', '147', '128', '123', '4', '101', '134', '86', '135', '144', '60', '3', '132', '103', '146'] 247.59876543209884
149 4.951975308641977 ['139', '147', '128', '123', '4', '101', '134', '86', '135', '144', '60', '3', '132', '103', '146'] 247.59876543209884
150 4.951975308641977 ['139', '147', '128', '123', '4', '101', '134', '86', '135', '144', '60', '3', '132', '103', '146'] 247.59876543209884
151 4.951975308641977 ['139', '147', '128', '123', '4', '101', '134', '86', '135', '144', '60', '3', '132', '103', '146'] 247.59876543209884
152 4.951975308641977 ['139', '147', '128', '123', '4', '101', '134', '86', '135', '144', '60', '3', '132', '103', '146'] 247.59876543209884
153 4.951975308641977 ['139', '147', '128', '123', '4', '101', '134', '86', '135', '144', '60', '3', '132', '103', '146'] 247.59876543209884
154 4.951975308641977 ['139', '147', '128', '123', '4', '101', '134', '86', '135', '144', '60', '3', '132', '103', '146'] 247.59876543209884
155 4.951975308641977 ['139', '147', '128', '123', '4', '101', '134', '86', '135', '144', '60', '3', '132', '103', '146'] 247.59876543209884
156 4.951975308641977 ['139', '147', '128', '123', '4', '101', '134', '86', '135', '144', '60', '3', '132', '103', '146'] 247.59876543209884
157 4.951975308641977 ['139', '147', '128', '123', '4', '101', '134', '86', '135', '144', '60', '3', '132', '103', '146'] 247.59876543209884
158 4.951975308641977 ['139', '147', '128', '123', '4', '101', '134', '86', '135', '144', '60', '3', '132', '103', '146'] 247.59876543209884
159 4.951975308641977 ['139', '147', '128', '123', '4', '101', '134', '86', '135', '144', '60', '3', '132', '103', '146'] 247.59876543209884
160 4.951975308641977 ['139', '147', '128', '123', '4', '101', '134', '86', '135', '144', '60', '3', '132', '103', '146'] 247.59876543209884
161 4.951975308641977 ['139', '147', '128', '123', '4', '101', '134', '86', '135', '144', '60', '3', '132', '103', '146'] 247.59876543209884
162 4.951975308641977 ['139', '147', '128', '123', '4', '101', '134', '86', '135', '144', '60', '3', '132', '103', '146'] 247.59876543209884
163 4.951975308641977 ['139', '147', '128', '123', '4', '101', '134', '86', '135', '144', '60', '3', '132', '103', '146'] 247.59876543209884
164 4.951975308641977 ['139', '147', '128', '123', '4', '101', '134', '86', '135', '144', '60', '3', '132', '103', '146'] 247.59876543209884
165 4.951975308641977 ['139', '147', '128', '123', '4', '101', '134', '86', '135', '144', '60', '3', '132', '103', '146'] 247.59876543209884
166 4.951975308641977 ['139', '147', '128', '123', '4', '101', '134', '86', '135', '144', '60', '3', '132', '103', '146'] 247.59876543209884
167 4.951975308641977 ['139', '147', '128', '123', '4', '101', '134', '86', '135', '144', '60', '3', '132', '103', '146'] 247.59876543209884
168 4.951975308641977 ['139', '147', '128', '123', '4', '101', '134', '86', '135', '144', '60', '3', '132', '103', '146'] 247.59876543209884
169 4.951975308641977 ['139', '147', '128', '123', '4', '101', '134', '86', '135', '144', '60', '3', '132', '103', '146'] 247.59876543209884
170 4.951975308641977 ['139', '147', '128', '123', '4', '101', '134', '86', '135', '144', '60', '3', '132', '103', '146'] 247.59876543209884
171 4.951975308641977 ['139', '147', '128', '123', '4', '101', '134', '86', '135', '144', '60', '3', '132', '103', '146'] 247.59876543209884
172 4.951975308641977 ['139', '147', '128', '123', '4', '101', '134', '86', '135', '144', '60', '3', '132', '103', '146'] 247.59876543209884
173 4.951975308641977 ['139', '147', '128', '123', '4', '101', '134', '86', '135', '144', '60', '3', '132', '103', '146'] 247.59876543209884
174 4.951975308641977 ['139', '147', '128', '123', '4', '101', '134', '86', '135', '144', '60', '3', '132', '103', '146'] 247.59876543209884
175 4.951975308641977 ['139', '147', '128', '123', '4', '101', '134', '86', '135', '144', '60', '3', '132', '103', '146'] 247.59876543209884
176 4.951975308641977 ['139', '147', '128', '123', '4', '101', '134', '86', '135', '144', '60', '3', '132', '103', '146'] 247.59876543209884
177 4.951975308641977 ['139', '147', '128', '123', '4', '101', '134', '86', '135', '144', '60', '3', '132', '103', '146'] 247.59876543209884
178 4.951975308641977 ['139', '147', '128', '123', '4', '101', '134', '86', '135', '144', '60', '3', '132', '103', '146'] 247.59876543209884
179 4.951975308641977 ['139', '147', '128', '123', '4', '101', '134', '86', '135', '144', '60', '3', '132', '103', '146'] 247.59876543209884
180 4.951975308641977 ['139', '147', '128', '123', '4', '101', '134', '86', '135', '144', '60', '3', '132', '103', '146'] 247.59876543209884
181 4.951975308641977 ['139', '147', '128', '123', '4', '101', '134', '86', '135', '144', '60', '3', '132', '103', '146'] 247.59876543209884
182 4.951975308641977 ['139', '147', '128', '123', '4', '101', '134', '86', '135', '144', '60', '3', '132', '103', '146'] 247.59876543209884
183 4.951975308641977 ['139', '147', '128', '123', '4', '101', '134', '86', '135', '144', '60', '3', '132', '103', '146'] 247.59876543209884
184 4.951975308641977 ['139', '147', '128', '123', '4', '101', '134', '86', '135', '144', '60', '3', '132', '103', '146'] 247.59876543209884
185 4.951975308641977 ['139', '147', '128', '123', '4', '101', '134', '86', '135', '144', '60', '3', '132', '103', '146'] 247.59876543209884
186 4.951975308641977 ['139', '147', '128', '123', '4', '101', '134', '86', '135', '144', '60', '3', '132', '103', '146'] 247.59876543209884
187 4.951975308641977 ['139', '147', '128', '123', '4', '101', '134', '86', '135', '144', '60', '3', '132', '103', '146'] 247.59876543209884
188 4.951975308641977 ['139', '147', '128', '123', '4', '101', '134', '86', '135', '144', '60', '3', '132', '103', '146'] 247.59876543209884
189 4.951975308641977 ['139', '147', '128', '123', '4', '101', '134', '86', '135', '144', '60', '3', '132', '103', '146'] 247.59876543209884
190 4.951975308641977 ['139', '147', '128', '123', '4', '101', '134', '86', '135', '144', '60', '3', '132', '103', '146'] 247.59876543209884
191 4.951975308641977 ['139', '147', '128', '123', '4', '101', '134', '86', '135', '144', '60', '3', '132', '103', '146'] 247.59876543209884
192 4.951975308641977 ['139', '147', '128', '123', '4', '101', '134', '86', '135', '144', '60', '3', '132', '103', '146'] 247.59876543209884
193 4.951975308641977 ['139', '147', '128', '123', '4', '101', '134', '86', '135', '144', '60', '3', '132', '103', '146'] 247.59876543209884
194 4.951975308641977 ['139', '147', '128', '123', '4', '101', '134', '86', '135', '144', '60', '3', '132', '103', '146'] 247.59876543209884
195 4.951975308641977 ['139', '147', '128', '123', '4', '101', '134', '86', '135', '144', '60', '3', '132', '103', '146'] 247.59876543209884
196 4.951975308641977 ['139', '147', '128', '123', '4', '101', '134', '86', '135', '144', '60', '3', '132', '103', '146'] 247.59876543209884
197 4.951975308641977 ['139', '147', '128', '123', '4', '101', '134', '86', '135', '144', '60', '3', '132', '103', '146'] 247.59876543209884
198 4.951975308641977 ['139', '147', '128', '123', '4', '101', '134', '86', '135', '144', '60', '3', '132', '103', '146'] 247.59876543209884
199 4.951975308641977 ['139', '147', '128', '123', '4', '101', '134', '86', '135', '144', '60', '3', '132', '103', '146'] 247.59876543209884
