0 5.4972839506172875 ['132', '76', '118', '111', '126', '37', '34', '60', '134', '49', '145', '24', '71', '46', '143'] 279.33617283950616
1 5.491481481481483 ['30', '123', '45', '148', '116', '92', '142', '73', '150', '85', '140', '80', '132', '98', '91'] 278.15802469135815
2 5.469506172839507 ['101', '140', '92', '132', '44', '38', '146', '79', '148', '61', '45', '100', '133', '123', '117'] 277.03345679012347
3 5.469506172839507 ['101', '140', '92', '132', '44', '38', '146', '79', '148', '61', '45', '100', '133', '123', '117'] 275.9071604938272
4 5.408395061728397 ['146', '140', '115', '116', '126', '130', '137', '24', '56', '150', '133', '6', '70', '93', '125'] 275.14506172839504
5 5.408395061728397 ['146', '140', '115', '116', '126', '130', '137', '24', '56', '150', '133', '6', '70', '93', '125'] 274.33604938271606
6 5.408395061728397 ['146', '140', '115', '116', '126', '130', '137', '24', '56', '150', '133', '6', '70', '93', '125'] 273.63530864197537
7 5.3962962962962955 ['140', '38', '61', '111', '147', '116', '109', '79', '136', '150', '132', '125', '114', '115', '97'] 272.9713580246915
8 5.3962962962962955 ['140', '38', '61', '111', '147', '116', '109', '79', '136', '150', '132', '125', '114', '115', '97'] 272.25629629629634
9 5.369259259259262 ['147', '94', '111', '38', '132', '140', '61', '125', '114', '139', '123', '136', '142', '25', '115'] 271.4364197530865
10 5.369259259259262 ['147', '94', '111', '38', '132', '140', '61', '125', '114', '139', '123', '136', '142', '25', '115'] 270.9787654320989
11 5.338518518518519 ['150', '147', '116', '92', '132', '135', '123', '61', '139', '146', '136', '111', '101', '140', '142'] 270.260987654321
12 5.331604938271606 ['115', '140', '132', '64', '135', '130', '136', '92', '146', '150', '65', '101', '59', '125', '133'] 269.5728395061729
13 5.308641975308641 ['132', '142', '147', '136', '38', '115', '140', '125', '123', '150', '130', '25', '92', '86', '134'] 268.8575308641976
14 5.3053086419753095 ['140', '92', '135', '115', '132', '101', '64', '59', '111', '133', '125', '65', '142', '147', '146'] 267.9435802469136
15 5.262716049382716 ['132', '140', '147', '135', '101', '146', '142', '111', '92', '115', '64', '125', '61', '139', '133'] 267.14407407407407
16 5.262716049382716 ['132', '140', '147', '135', '101', '146', '142', '111', '92', '115', '64', '125', '61', '139', '133'] 266.3385185185185
17 5.262716049382716 ['132', '140', '147', '135', '101', '146', '142', '111', '92', '115', '64', '125', '61', '139', '133'] 265.3653086419754
18 5.224444444444446 ['116', '132', '125', '140', '115', '147', '142', '135', '137', '126', '101', '136', '146', '64', '111'] 264.36901234567915
19 5.224444444444446 ['116', '132', '125', '140', '115', '147', '142', '135', '137', '126', '101', '136', '146', '64', '111'] 263.5428395061729
20 5.221481481481481 ['132', '150', '135', '101', '125', '136', '115', '140', '142', '147', '146', '64', '92', '111', '134'] 263.06518518518516
21 5.221481481481481 ['132', '150', '135', '101', '125', '136', '115', '140', '142', '147', '146', '64', '92', '111', '134'] 262.5817283950617
22 5.216172839506173 ['132', '150', '135', '111', '146', '115', '147', '125', '101', '142', '64', '136', '140', '92', '139'] 262.2283950617284
23 5.216172839506173 ['132', '150', '135', '111', '146', '115', '147', '125', '101', '142', '64', '136', '140', '92', '139'] 261.90925925925933
24 5.200987654320987 ['101', '146', '142', '125', '147', '135', '140', '136', '132', '115', '111', '92', '106', '64', '139'] 261.4461728395061
25 5.19641975308642 ['142', '147', '101', '132', '136', '135', '115', '92', '125', '140', '64', '146', '111', '139', '134'] 261.04580246913565
26 5.19641975308642 ['142', '147', '101', '132', '136', '135', '115', '92', '125', '140', '64', '146', '111', '139', '134'] 260.7997530864197
27 5.19641975308642 ['142', '147', '101', '132', '136', '135', '115', '92', '125', '140', '64', '146', '111', '139', '134'] 260.49382716049394
28 5.19641975308642 ['142', '147', '101', '132', '136', '135', '115', '92', '125', '140', '64', '146', '111', '139', '134'] 260.19938271604946
29 5.19641975308642 ['142', '147', '101', '132', '136', '135', '115', '92', '125', '140', '64', '146', '111', '139', '134'] 260.0269135802469
30 5.19641975308642 ['142', '147', '101', '132', '136', '135', '115', '92', '125', '140', '64', '146', '111', '139', '134'] 259.8209876543209
31 5.19641975308642 ['142', '147', '101', '132', '136', '135', '115', '92', '125', '140', '64', '146', '111', '139', '134'] 259.8209876543209
32 5.19641975308642 ['142', '147', '101', '132', '136', '135', '115', '92', '125', '140', '64', '146', '111', '139', '134'] 259.8209876543209
33 5.19641975308642 ['142', '147', '101', '132', '136', '135', '115', '92', '125', '140', '64', '146', '111', '139', '134'] 259.8209876543209
34 5.19641975308642 ['142', '147', '101', '132', '136', '135', '115', '92', '125', '140', '64', '146', '111', '139', '134'] 259.8209876543209
35 5.19641975308642 ['142', '147', '101', '132', '136', '135', '115', '92', '125', '140', '64', '146', '111', '139', '134'] 259.8209876543209
36 5.19641975308642 ['142', '147', '101', '132', '136', '135', '115', '92', '125', '140', '64', '146', '111', '139', '134'] 259.8209876543209
37 5.19641975308642 ['142', '147', '101', '132', '136', '135', '115', '92', '125', '140', '64', '146', '111', '139', '134'] 259.8209876543209
38 5.19641975308642 ['142', '147', '101', '132', '136', '135', '115', '92', '125', '140', '64', '146', '111', '139', '134'] 259.8209876543209
39 5.19641975308642 ['142', '147', '101', '132', '136', '135', '115', '92', '125', '140', '64', '146', '111', '139', '134'] 259.8209876543209
40 5.19641975308642 ['142', '147', '101', '132', '136', '135', '115', '92', '125', '140', '64', '146', '111', '139', '134'] 259.8209876543209
41 5.19641975308642 ['142', '147', '101', '132', '136', '135', '115', '92', '125', '140', '64', '146', '111', '139', '134'] 259.8209876543209
42 5.19641975308642 ['142', '147', '101', '132', '136', '135', '115', '92', '125', '140', '64', '146', '111', '139', '134'] 259.8209876543209
43 5.19641975308642 ['142', '147', '101', '132', '136', '135', '115', '92', '125', '140', '64', '146', '111', '139', '134'] 259.8209876543209
44 5.19641975308642 ['142', '147', '101', '132', '136', '135', '115', '92', '125', '140', '64', '146', '111', '139', '134'] 259.8209876543209
45 5.19641975308642 ['142', '147', '101', '132', '136', '135', '115', '92', '125', '140', '64', '146', '111', '139', '134'] 259.8209876543209
46 5.19641975308642 ['142', '147', '101', '132', '136', '135', '115', '92', '125', '140', '64', '146', '111', '139', '134'] 259.8209876543209
47 5.19641975308642 ['142', '147', '101', '132', '136', '135', '115', '92', '125', '140', '64', '146', '111', '139', '134'] 259.8209876543209
48 5.19641975308642 ['142', '147', '101', '132', '136', '135', '115', '92', '125', '140', '64', '146', '111', '139', '134'] 259.8209876543209
49 5.19641975308642 ['142', '147', '101', '132', '136', '135', '115', '92', '125', '140', '64', '146', '111', '139', '134'] 259.8209876543209
50 5.19641975308642 ['142', '147', '101', '132', '136', '135', '115', '92', '125', '140', '64', '146', '111', '139', '134'] 259.8209876543209
51 5.19641975308642 ['142', '147', '101', '132', '136', '135', '115', '92', '125', '140', '64', '146', '111', '139', '134'] 259.8209876543209
52 5.19641975308642 ['142', '147', '101', '132', '136', '135', '115', '92', '125', '140', '64', '146', '111', '139', '134'] 259.8209876543209
53 5.19641975308642 ['142', '147', '101', '132', '136', '135', '115', '92', '125', '140', '64', '146', '111', '139', '134'] 259.8209876543209
54 5.19641975308642 ['142', '147', '101', '132', '136', '135', '115', '92', '125', '140', '64', '146', '111', '139', '134'] 259.8209876543209
55 5.19641975308642 ['142', '147', '101', '132', '136', '135', '115', '92', '125', '140', '64', '146', '111', '139', '134'] 259.8209876543209
56 5.19641975308642 ['142', '147', '101', '132', '136', '135', '115', '92', '125', '140', '64', '146', '111', '139', '134'] 259.8209876543209
57 5.19641975308642 ['142', '147', '101', '132', '136', '135', '115', '92', '125', '140', '64', '146', '111', '139', '134'] 259.8209876543209
58 5.19641975308642 ['142', '147', '101', '132', '136', '135', '115', '92', '125', '140', '64', '146', '111', '139', '134'] 259.8209876543209
59 5.19641975308642 ['142', '147', '101', '132', '136', '135', '115', '92', '125', '140', '64', '146', '111', '139', '134'] 259.8209876543209
60 5.19641975308642 ['142', '147', '101', '132', '136', '135', '115', '92', '125', '140', '64', '146', '111', '139', '134'] 259.8209876543209
61 5.19641975308642 ['142', '147', '101', '132', '136', '135', '115', '92', '125', '140', '64', '146', '111', '139', '134'] 259.8209876543209
62 5.19641975308642 ['142', '147', '101', '132', '136', '135', '115', '92', '125', '140', '64', '146', '111', '139', '134'] 259.8209876543209
63 5.19641975308642 ['142', '147', '101', '132', '136', '135', '115', '92', '125', '140', '64', '146', '111', '139', '134'] 259.8209876543209
64 5.19641975308642 ['142', '147', '101', '132', '136', '135', '115', '92', '125', '140', '64', '146', '111', '139', '134'] 259.8209876543209
65 5.19641975308642 ['142', '147', '101', '132', '136', '135', '115', '92', '125', '140', '64', '146', '111', '139', '134'] 259.8209876543209
66 5.19641975308642 ['142', '147', '101', '132', '136', '135', '115', '92', '125', '140', '64', '146', '111', '139', '134'] 259.8209876543209
67 5.19641975308642 ['142', '147', '101', '132', '136', '135', '115', '92', '125', '140', '64', '146', '111', '139', '134'] 259.8209876543209
68 5.19641975308642 ['142', '147', '101', '132', '136', '135', '115', '92', '125', '140', '64', '146', '111', '139', '134'] 259.8209876543209
69 5.19641975308642 ['142', '147', '101', '132', '136', '135', '115', '92', '125', '140', '64', '146', '111', '139', '134'] 259.8209876543209
70 5.19641975308642 ['142', '147', '101', '132', '136', '135', '115', '92', '125', '140', '64', '146', '111', '139', '134'] 259.8209876543209
71 5.19641975308642 ['142', '147', '101', '132', '136', '135', '115', '92', '125', '140', '64', '146', '111', '139', '134'] 259.8209876543209
72 5.19641975308642 ['142', '147', '101', '132', '136', '135', '115', '92', '125', '140', '64', '146', '111', '139', '134'] 259.8209876543209
73 5.19641975308642 ['142', '147', '101', '132', '136', '135', '115', '92', '125', '140', '64', '146', '111', '139', '134'] 259.8209876543209
74 5.19641975308642 ['142', '147', '101', '132', '136', '135', '115', '92', '125', '140', '64', '146', '111', '139', '134'] 259.8209876543209
75 5.19641975308642 ['142', '147', '101', '132', '136', '135', '115', '92', '125', '140', '64', '146', '111', '139', '134'] 259.8209876543209
76 5.19641975308642 ['142', '147', '101', '132', '136', '135', '115', '92', '125', '140', '64', '146', '111', '139', '134'] 259.8209876543209
77 5.19641975308642 ['142', '147', '101', '132', '136', '135', '115', '92', '125', '140', '64', '146', '111', '139', '134'] 259.8209876543209
78 5.19641975308642 ['142', '147', '101', '132', '136', '135', '115', '92', '125', '140', '64', '146', '111', '139', '134'] 259.8209876543209
79 5.19641975308642 ['142', '147', '101', '132', '136', '135', '115', '92', '125', '140', '64', '146', '111', '139', '134'] 259.8209876543209
80 5.19641975308642 ['142', '147', '101', '132', '136', '135', '115', '92', '125', '140', '64', '146', '111', '139', '134'] 259.8209876543209
81 5.19641975308642 ['142', '147', '101', '132', '136', '135', '115', '92', '125', '140', '64', '146', '111', '139', '134'] 259.8209876543209
82 5.19641975308642 ['142', '147', '101', '132', '136', '135', '115', '92', '125', '140', '64', '146', '111', '139', '134'] 259.8209876543209
83 5.19641975308642 ['142', '147', '101', '132', '136', '135', '115', '92', '125', '140', '64', '146', '111', '139', '134'] 259.8209876543209
84 5.19641975308642 ['142', '147', '101', '132', '136', '135', '115', '92', '125', '140', '64', '146', '111', '139', '134'] 259.8209876543209
85 5.19641975308642 ['142', '147', '101', '132', '136', '135', '115', '92', '125', '140', '64', '146', '111', '139', '134'] 259.8209876543209
86 5.19641975308642 ['142', '147', '101', '132', '136', '135', '115', '92', '125', '140', '64', '146', '111', '139', '134'] 259.8209876543209
87 5.19641975308642 ['142', '147', '101', '132', '136', '135', '115', '92', '125', '140', '64', '146', '111', '139', '134'] 259.8209876543209
88 5.19641975308642 ['142', '147', '101', '132', '136', '135', '115', '92', '125', '140', '64', '146', '111', '139', '134'] 259.8209876543209
89 5.19641975308642 ['142', '147', '101', '132', '136', '135', '115', '92', '125', '140', '64', '146', '111', '139', '134'] 259.8209876543209
90 5.19641975308642 ['142', '147', '101', '132', '136', '135', '115', '92', '125', '140', '64', '146', '111', '139', '134'] 259.8209876543209
91 5.19641975308642 ['142', '147', '101', '132', '136', '135', '115', '92', '125', '140', '64', '146', '111', '139', '134'] 259.8209876543209
92 5.19641975308642 ['142', '147', '101', '132', '136', '135', '115', '92', '125', '140', '64', '146', '111', '139', '134'] 259.8209876543209
93 5.19641975308642 ['142', '147', '101', '132', '136', '135', '115', '92', '125', '140', '64', '146', '111', '139', '134'] 259.8209876543209
94 5.19641975308642 ['142', '147', '101', '132', '136', '135', '115', '92', '125', '140', '64', '146', '111', '139', '134'] 259.8209876543209
95 5.19641975308642 ['142', '147', '101', '132', '136', '135', '115', '92', '125', '140', '64', '146', '111', '139', '134'] 259.8209876543209
96 5.19641975308642 ['142', '147', '101', '132', '136', '135', '115', '92', '125', '140', '64', '146', '111', '139', '134'] 259.8209876543209
97 5.19641975308642 ['142', '147', '101', '132', '136', '135', '115', '92', '125', '140', '64', '146', '111', '139', '134'] 259.8209876543209
98 5.19641975308642 ['142', '147', '101', '132', '136', '135', '115', '92', '125', '140', '64', '146', '111', '139', '134'] 259.8209876543209
99 5.19641975308642 ['142', '147', '101', '132', '136', '135', '115', '92', '125', '140', '64', '146', '111', '139', '134'] 259.8209876543209
100 5.19641975308642 ['142', '147', '101', '132', '136', '135', '115', '92', '125', '140', '64', '146', '111', '139', '134'] 259.8209876543209
101 5.19641975308642 ['142', '147', '101', '132', '136', '135', '115', '92', '125', '140', '64', '146', '111', '139', '134'] 259.8209876543209
102 5.19641975308642 ['142', '147', '101', '132', '136', '135', '115', '92', '125', '140', '64', '146', '111', '139', '134'] 259.8209876543209
103 5.19641975308642 ['142', '147', '101', '132', '136', '135', '115', '92', '125', '140', '64', '146', '111', '139', '134'] 259.8209876543209
104 5.19641975308642 ['142', '147', '101', '132', '136', '135', '115', '92', '125', '140', '64', '146', '111', '139', '134'] 259.8209876543209
105 5.19641975308642 ['142', '147', '101', '132', '136', '135', '115', '92', '125', '140', '64', '146', '111', '139', '134'] 259.8209876543209
106 5.19641975308642 ['142', '147', '101', '132', '136', '135', '115', '92', '125', '140', '64', '146', '111', '139', '134'] 259.8209876543209
107 5.19641975308642 ['142', '147', '101', '132', '136', '135', '115', '92', '125', '140', '64', '146', '111', '139', '134'] 259.8209876543209
108 5.19641975308642 ['142', '147', '101', '132', '136', '135', '115', '92', '125', '140', '64', '146', '111', '139', '134'] 259.8209876543209
109 5.19641975308642 ['142', '147', '101', '132', '136', '135', '115', '92', '125', '140', '64', '146', '111', '139', '134'] 259.8209876543209
110 5.19641975308642 ['142', '147', '101', '132', '136', '135', '115', '92', '125', '140', '64', '146', '111', '139', '134'] 259.8209876543209
111 5.19641975308642 ['142', '147', '101', '132', '136', '135', '115', '92', '125', '140', '64', '146', '111', '139', '134'] 259.8209876543209
112 5.19641975308642 ['142', '147', '101', '132', '136', '135', '115', '92', '125', '140', '64', '146', '111', '139', '134'] 259.8209876543209
113 5.19641975308642 ['142', '147', '101', '132', '136', '135', '115', '92', '125', '140', '64', '146', '111', '139', '134'] 259.8209876543209
114 5.19641975308642 ['142', '147', '101', '132', '136', '135', '115', '92', '125', '140', '64', '146', '111', '139', '134'] 259.8209876543209
115 5.19641975308642 ['142', '147', '101', '132', '136', '135', '115', '92', '125', '140', '64', '146', '111', '139', '134'] 259.8209876543209
116 5.19641975308642 ['142', '147', '101', '132', '136', '135', '115', '92', '125', '140', '64', '146', '111', '139', '134'] 259.8209876543209
117 5.19641975308642 ['142', '147', '101', '132', '136', '135', '115', '92', '125', '140', '64', '146', '111', '139', '134'] 259.8209876543209
118 5.19641975308642 ['142', '147', '101', '132', '136', '135', '115', '92', '125', '140', '64', '146', '111', '139', '134'] 259.8209876543209
119 5.19641975308642 ['142', '147', '101', '132', '136', '135', '115', '92', '125', '140', '64', '146', '111', '139', '134'] 259.8209876543209
120 5.19641975308642 ['142', '147', '101', '132', '136', '135', '115', '92', '125', '140', '64', '146', '111', '139', '134'] 259.8209876543209
121 5.19641975308642 ['142', '147', '101', '132', '136', '135', '115', '92', '125', '140', '64', '146', '111', '139', '134'] 259.8209876543209
122 5.19641975308642 ['142', '147', '101', '132', '136', '135', '115', '92', '125', '140', '64', '146', '111', '139', '134'] 259.8209876543209
123 5.19641975308642 ['142', '147', '101', '132', '136', '135', '115', '92', '125', '140', '64', '146', '111', '139', '134'] 259.8209876543209
124 5.19641975308642 ['142', '147', '101', '132', '136', '135', '115', '92', '125', '140', '64', '146', '111', '139', '134'] 259.8209876543209
125 5.19641975308642 ['142', '147', '101', '132', '136', '135', '115', '92', '125', '140', '64', '146', '111', '139', '134'] 259.8209876543209
126 5.19641975308642 ['142', '147', '101', '132', '136', '135', '115', '92', '125', '140', '64', '146', '111', '139', '134'] 259.8209876543209
127 5.19641975308642 ['142', '147', '101', '132', '136', '135', '115', '92', '125', '140', '64', '146', '111', '139', '134'] 259.8209876543209
128 5.19641975308642 ['142', '147', '101', '132', '136', '135', '115', '92', '125', '140', '64', '146', '111', '139', '134'] 259.8209876543209
129 5.19641975308642 ['142', '147', '101', '132', '136', '135', '115', '92', '125', '140', '64', '146', '111', '139', '134'] 259.8209876543209
130 5.19641975308642 ['142', '147', '101', '132', '136', '135', '115', '92', '125', '140', '64', '146', '111', '139', '134'] 259.8209876543209
131 5.19641975308642 ['142', '147', '101', '132', '136', '135', '115', '92', '125', '140', '64', '146', '111', '139', '134'] 259.8209876543209
132 5.19641975308642 ['142', '147', '101', '132', '136', '135', '115', '92', '125', '140', '64', '146', '111', '139', '134'] 259.8209876543209
133 5.19641975308642 ['142', '147', '101', '132', '136', '135', '115', '92', '125', '140', '64', '146', '111', '139', '134'] 259.8209876543209
134 5.19641975308642 ['142', '147', '101', '132', '136', '135', '115', '92', '125', '140', '64', '146', '111', '139', '134'] 259.8209876543209
135 5.19641975308642 ['142', '147', '101', '132', '136', '135', '115', '92', '125', '140', '64', '146', '111', '139', '134'] 259.8209876543209
136 5.19641975308642 ['142', '147', '101', '132', '136', '135', '115', '92', '125', '140', '64', '146', '111', '139', '134'] 259.8209876543209
137 5.19641975308642 ['142', '147', '101', '132', '136', '135', '115', '92', '125', '140', '64', '146', '111', '139', '134'] 259.8209876543209
138 5.19641975308642 ['142', '147', '101', '132', '136', '135', '115', '92', '125', '140', '64', '146', '111', '139', '134'] 259.8209876543209
139 5.19641975308642 ['142', '147', '101', '132', '136', '135', '115', '92', '125', '140', '64', '146', '111', '139', '134'] 259.8209876543209
140 5.19641975308642 ['142', '147', '101', '132', '136', '135', '115', '92', '125', '140', '64', '146', '111', '139', '134'] 259.8209876543209
141 5.19641975308642 ['142', '147', '101', '132', '136', '135', '115', '92', '125', '140', '64', '146', '111', '139', '134'] 259.8209876543209
142 5.19641975308642 ['142', '147', '101', '132', '136', '135', '115', '92', '125', '140', '64', '146', '111', '139', '134'] 259.8209876543209
143 5.19641975308642 ['142', '147', '101', '132', '136', '135', '115', '92', '125', '140', '64', '146', '111', '139', '134'] 259.8209876543209
144 5.19641975308642 ['142', '147', '101', '132', '136', '135', '115', '92', '125', '140', '64', '146', '111', '139', '134'] 259.8209876543209
145 5.19641975308642 ['142', '147', '101', '132', '136', '135', '115', '92', '125', '140', '64', '146', '111', '139', '134'] 259.8209876543209
146 5.19641975308642 ['142', '147', '101', '132', '136', '135', '115', '92', '125', '140', '64', '146', '111', '139', '134'] 259.8209876543209
147 5.19641975308642 ['142', '147', '101', '132', '136', '135', '115', '92', '125', '140', '64', '146', '111', '139', '134'] 259.8209876543209
148 5.19641975308642 ['142', '147', '101', '132', '136', '135', '115', '92', '125', '140', '64', '146', '111', '139', '134'] 259.8209876543209
149 5.19641975308642 ['142', '147', '101', '132', '136', '135', '115', '92', '125', '140', '64', '146', '111', '139', '134'] 259.8209876543209
150 5.19641975308642 ['142', '147', '101', '132', '136', '135', '115', '92', '125', '140', '64', '146', '111', '139', '134'] 259.8209876543209
151 5.19641975308642 ['142', '147', '101', '132', '136', '135', '115', '92', '125', '140', '64', '146', '111', '139', '134'] 259.8209876543209
152 5.19641975308642 ['142', '147', '101', '132', '136', '135', '115', '92', '125', '140', '64', '146', '111', '139', '134'] 259.8209876543209
153 5.19641975308642 ['142', '147', '101', '132', '136', '135', '115', '92', '125', '140', '64', '146', '111', '139', '134'] 259.8209876543209
154 5.19641975308642 ['142', '147', '101', '132', '136', '135', '115', '92', '125', '140', '64', '146', '111', '139', '134'] 259.8209876543209
155 5.19641975308642 ['142', '147', '101', '132', '136', '135', '115', '92', '125', '140', '64', '146', '111', '139', '134'] 259.8209876543209
156 5.19641975308642 ['142', '147', '101', '132', '136', '135', '115', '92', '125', '140', '64', '146', '111', '139', '134'] 259.8209876543209
157 5.19641975308642 ['142', '147', '101', '132', '136', '135', '115', '92', '125', '140', '64', '146', '111', '139', '134'] 259.8209876543209
158 5.19641975308642 ['142', '147', '101', '132', '136', '135', '115', '92', '125', '140', '64', '146', '111', '139', '134'] 259.8209876543209
159 5.19641975308642 ['142', '147', '101', '132', '136', '135', '115', '92', '125', '140', '64', '146', '111', '139', '134'] 259.8209876543209
160 5.19641975308642 ['142', '147', '101', '132', '136', '135', '115', '92', '125', '140', '64', '146', '111', '139', '134'] 259.8209876543209
161 5.19641975308642 ['142', '147', '101', '132', '136', '135', '115', '92', '125', '140', '64', '146', '111', '139', '134'] 259.8209876543209
162 5.19641975308642 ['142', '147', '101', '132', '136', '135', '115', '92', '125', '140', '64', '146', '111', '139', '134'] 259.8209876543209
163 5.19641975308642 ['142', '147', '101', '132', '136', '135', '115', '92', '125', '140', '64', '146', '111', '139', '134'] 259.8209876543209
164 5.19641975308642 ['142', '147', '101', '132', '136', '135', '115', '92', '125', '140', '64', '146', '111', '139', '134'] 259.8209876543209
165 5.19641975308642 ['142', '147', '101', '132', '136', '135', '115', '92', '125', '140', '64', '146', '111', '139', '134'] 259.8209876543209
166 5.19641975308642 ['142', '147', '101', '132', '136', '135', '115', '92', '125', '140', '64', '146', '111', '139', '134'] 259.8209876543209
167 5.19641975308642 ['142', '147', '101', '132', '136', '135', '115', '92', '125', '140', '64', '146', '111', '139', '134'] 259.8209876543209
168 5.19641975308642 ['142', '147', '101', '132', '136', '135', '115', '92', '125', '140', '64', '146', '111', '139', '134'] 259.8209876543209
169 5.19641975308642 ['142', '147', '101', '132', '136', '135', '115', '92', '125', '140', '64', '146', '111', '139', '134'] 259.8209876543209
170 5.19641975308642 ['142', '147', '101', '132', '136', '135', '115', '92', '125', '140', '64', '146', '111', '139', '134'] 259.8209876543209
171 5.19641975308642 ['142', '147', '101', '132', '136', '135', '115', '92', '125', '140', '64', '146', '111', '139', '134'] 259.8209876543209
172 5.19641975308642 ['142', '147', '101', '132', '136', '135', '115', '92', '125', '140', '64', '146', '111', '139', '134'] 259.8209876543209
173 5.19641975308642 ['142', '147', '101', '132', '136', '135', '115', '92', '125', '140', '64', '146', '111', '139', '134'] 259.8209876543209
174 5.19641975308642 ['142', '147', '101', '132', '136', '135', '115', '92', '125', '140', '64', '146', '111', '139', '134'] 259.8209876543209
175 5.19641975308642 ['142', '147', '101', '132', '136', '135', '115', '92', '125', '140', '64', '146', '111', '139', '134'] 259.8209876543209
176 5.19641975308642 ['142', '147', '101', '132', '136', '135', '115', '92', '125', '140', '64', '146', '111', '139', '134'] 259.8209876543209
177 5.19641975308642 ['142', '147', '101', '132', '136', '135', '115', '92', '125', '140', '64', '146', '111', '139', '134'] 259.8209876543209
178 5.19641975308642 ['142', '147', '101', '132', '136', '135', '115', '92', '125', '140', '64', '146', '111', '139', '134'] 259.8209876543209
179 5.19641975308642 ['142', '147', '101', '132', '136', '135', '115', '92', '125', '140', '64', '146', '111', '139', '134'] 259.8209876543209
180 5.19641975308642 ['142', '147', '101', '132', '136', '135', '115', '92', '125', '140', '64', '146', '111', '139', '134'] 259.8209876543209
181 5.19641975308642 ['142', '147', '101', '132', '136', '135', '115', '92', '125', '140', '64', '146', '111', '139', '134'] 259.8209876543209
182 5.19641975308642 ['142', '147', '101', '132', '136', '135', '115', '92', '125', '140', '64', '146', '111', '139', '134'] 259.8209876543209
183 5.19641975308642 ['142', '147', '101', '132', '136', '135', '115', '92', '125', '140', '64', '146', '111', '139', '134'] 259.8209876543209
184 5.19641975308642 ['142', '147', '101', '132', '136', '135', '115', '92', '125', '140', '64', '146', '111', '139', '134'] 259.8209876543209
185 5.19641975308642 ['142', '147', '101', '132', '136', '135', '115', '92', '125', '140', '64', '146', '111', '139', '134'] 259.8209876543209
186 5.19641975308642 ['142', '147', '101', '132', '136', '135', '115', '92', '125', '140', '64', '146', '111', '139', '134'] 259.8209876543209
187 5.19641975308642 ['142', '147', '101', '132', '136', '135', '115', '92', '125', '140', '64', '146', '111', '139', '134'] 259.8209876543209
188 5.19641975308642 ['142', '147', '101', '132', '136', '135', '115', '92', '125', '140', '64', '146', '111', '139', '134'] 259.8209876543209
189 5.19641975308642 ['142', '147', '101', '132', '136', '135', '115', '92', '125', '140', '64', '146', '111', '139', '134'] 259.8209876543209
190 5.19641975308642 ['142', '147', '101', '132', '136', '135', '115', '92', '125', '140', '64', '146', '111', '139', '134'] 259.8209876543209
191 5.19641975308642 ['142', '147', '101', '132', '136', '135', '115', '92', '125', '140', '64', '146', '111', '139', '134'] 259.8209876543209
192 5.19641975308642 ['142', '147', '101', '132', '136', '135', '115', '92', '125', '140', '64', '146', '111', '139', '134'] 259.8209876543209
193 5.19641975308642 ['142', '147', '101', '132', '136', '135', '115', '92', '125', '140', '64', '146', '111', '139', '134'] 259.8209876543209
194 5.19641975308642 ['142', '147', '101', '132', '136', '135', '115', '92', '125', '140', '64', '146', '111', '139', '134'] 259.8209876543209
195 5.19641975308642 ['142', '147', '101', '132', '136', '135', '115', '92', '125', '140', '64', '146', '111', '139', '134'] 259.8209876543209
196 5.19641975308642 ['142', '147', '101', '132', '136', '135', '115', '92', '125', '140', '64', '146', '111', '139', '134'] 259.8209876543209
197 5.19641975308642 ['142', '147', '101', '132', '136', '135', '115', '92', '125', '140', '64', '146', '111', '139', '134'] 259.8209876543209
198 5.19641975308642 ['142', '147', '101', '132', '136', '135', '115', '92', '125', '140', '64', '146', '111', '139', '134'] 259.8209876543209
199 5.19641975308642 ['142', '147', '101', '132', '136', '135', '115', '92', '125', '140', '64', '146', '111', '139', '134'] 259.8209876543209
