0 7.589743589743589 ['40', '14', '10', '27'] 410.1538461538461
1 7.487179487179487 ['8', '18', '40', '27'] 399.5897435897431
2 7.17948717948718 ['38', '18', '28', '8'] 389.23076923076934
3 7.076923076923077 ['19', '40', '14', '18'] 380.51282051282
4 7.076923076923077 ['19', '40', '14', '18'] 371.38461538461524
5 6.9743589743589745 ['8', '14', '18', '10'] 362.25641025640994
6 6.9743589743589745 ['8', '14', '18', '10'] 356.30769230769215
7 6.9743589743589745 ['8', '14', '18', '10'] 352.923076923077
8 6.9743589743589745 ['8', '14', '18', '10'] 352.3076923076924
9 6.871794871794871 ['18', '8', '28', '10'] 350.46153846153874
10 6.871794871794871 ['18', '8', '28', '10'] 348.4102564102562
11 6.871794871794871 ['18', '8', '28', '10'] 348.4102564102562
12 6.871794871794871 ['18', '8', '28', '10'] 348.10256410256386
13 6.871794871794871 ['18', '8', '28', '10'] 347.28205128205104
14 6.871794871794871 ['18', '8', '28', '10'] 346.15384615384585
15 6.871794871794871 ['18', '8', '28', '10'] 344.3076923076919
16 6.871794871794871 ['18', '8', '28', '10'] 343.5897435897433
17 6.871794871794871 ['18', '8', '28', '10'] 343.5897435897433
18 6.871794871794871 ['18', '8', '28', '10'] 343.5897435897433
19 6.871794871794871 ['18', '8', '28', '10'] 343.5897435897433
20 6.871794871794871 ['18', '8', '28', '10'] 343.5897435897433
21 6.871794871794871 ['18', '8', '28', '10'] 343.5897435897433
22 6.871794871794871 ['18', '8', '28', '10'] 343.5897435897433
23 6.871794871794871 ['18', '8', '28', '10'] 343.5897435897433
24 6.871794871794871 ['18', '8', '28', '10'] 343.5897435897433
25 6.871794871794871 ['18', '8', '28', '10'] 343.5897435897433
26 6.871794871794871 ['18', '8', '28', '10'] 343.5897435897433
27 6.871794871794871 ['18', '8', '28', '10'] 343.5897435897433
28 6.871794871794871 ['18', '8', '28', '10'] 343.5897435897433
29 6.871794871794871 ['18', '8', '28', '10'] 343.5897435897433
30 6.871794871794871 ['18', '8', '28', '10'] 343.5897435897433
31 6.871794871794871 ['18', '8', '28', '10'] 343.5897435897433
32 6.871794871794871 ['18', '8', '28', '10'] 343.5897435897433
33 6.871794871794871 ['18', '8', '28', '10'] 343.5897435897433
34 6.871794871794871 ['18', '8', '28', '10'] 343.5897435897433
35 6.871794871794871 ['18', '8', '28', '10'] 343.5897435897433
36 6.871794871794871 ['18', '8', '28', '10'] 343.5897435897433
37 6.871794871794871 ['18', '8', '28', '10'] 343.5897435897433
38 6.871794871794871 ['18', '8', '28', '10'] 343.5897435897433
39 6.871794871794871 ['18', '8', '28', '10'] 343.5897435897433
40 6.871794871794871 ['18', '8', '28', '10'] 343.5897435897433
41 6.871794871794871 ['18', '8', '28', '10'] 343.5897435897433
42 6.871794871794871 ['18', '8', '28', '10'] 343.5897435897433
43 6.871794871794871 ['18', '8', '28', '10'] 343.5897435897433
44 6.871794871794871 ['18', '8', '28', '10'] 343.5897435897433
45 6.871794871794871 ['18', '8', '28', '10'] 343.5897435897433
46 6.871794871794871 ['18', '8', '28', '10'] 343.5897435897433
47 6.871794871794871 ['18', '8', '28', '10'] 343.5897435897433
48 6.871794871794871 ['18', '8', '28', '10'] 343.5897435897433
49 6.871794871794871 ['18', '8', '28', '10'] 343.5897435897433
50 6.871794871794871 ['18', '8', '28', '10'] 343.5897435897433
51 6.871794871794871 ['18', '8', '28', '10'] 343.5897435897433
52 6.871794871794871 ['18', '8', '28', '10'] 343.5897435897433
53 6.871794871794871 ['18', '8', '28', '10'] 343.5897435897433
54 6.871794871794871 ['18', '8', '28', '10'] 343.5897435897433
55 6.871794871794871 ['18', '8', '28', '10'] 343.5897435897433
56 6.871794871794871 ['18', '8', '28', '10'] 343.5897435897433
57 6.871794871794871 ['18', '8', '28', '10'] 343.5897435897433
58 6.871794871794871 ['18', '8', '28', '10'] 343.5897435897433
59 6.871794871794871 ['18', '8', '28', '10'] 343.5897435897433
60 6.871794871794871 ['18', '8', '28', '10'] 343.5897435897433
61 6.871794871794871 ['18', '8', '28', '10'] 343.5897435897433
62 6.871794871794871 ['18', '8', '28', '10'] 343.5897435897433
63 6.871794871794871 ['18', '8', '28', '10'] 343.5897435897433
64 6.871794871794871 ['18', '8', '28', '10'] 343.5897435897433
65 6.871794871794871 ['18', '8', '28', '10'] 343.5897435897433
66 6.871794871794871 ['18', '8', '28', '10'] 343.5897435897433
67 6.871794871794871 ['18', '8', '28', '10'] 343.5897435897433
68 6.871794871794871 ['18', '8', '28', '10'] 343.5897435897433
69 6.871794871794871 ['18', '8', '28', '10'] 343.5897435897433
70 6.871794871794871 ['18', '8', '28', '10'] 343.5897435897433
71 6.871794871794871 ['18', '8', '28', '10'] 343.5897435897433
72 6.871794871794871 ['18', '8', '28', '10'] 343.5897435897433
73 6.871794871794871 ['18', '8', '28', '10'] 343.5897435897433
74 6.871794871794871 ['18', '8', '28', '10'] 343.5897435897433
75 6.871794871794871 ['18', '8', '28', '10'] 343.5897435897433
76 6.871794871794871 ['18', '8', '28', '10'] 343.5897435897433
77 6.871794871794871 ['18', '8', '28', '10'] 343.5897435897433
78 6.871794871794871 ['18', '8', '28', '10'] 343.5897435897433
79 6.871794871794871 ['18', '8', '28', '10'] 343.5897435897433
80 6.871794871794871 ['18', '8', '28', '10'] 343.5897435897433
81 6.871794871794871 ['18', '8', '28', '10'] 343.5897435897433
82 6.871794871794871 ['18', '8', '28', '10'] 343.5897435897433
83 6.871794871794871 ['18', '8', '28', '10'] 343.5897435897433
84 6.871794871794871 ['18', '8', '28', '10'] 343.5897435897433
85 6.871794871794871 ['18', '8', '28', '10'] 343.5897435897433
86 6.871794871794871 ['18', '8', '28', '10'] 343.5897435897433
87 6.871794871794871 ['18', '8', '28', '10'] 343.5897435897433
88 6.871794871794871 ['18', '8', '28', '10'] 343.5897435897433
89 6.871794871794871 ['18', '8', '28', '10'] 343.5897435897433
90 6.871794871794871 ['18', '8', '28', '10'] 343.5897435897433
91 6.871794871794871 ['18', '8', '28', '10'] 343.5897435897433
92 6.871794871794871 ['18', '8', '28', '10'] 343.5897435897433
93 6.871794871794871 ['18', '8', '28', '10'] 343.5897435897433
94 6.871794871794871 ['18', '8', '28', '10'] 343.5897435897433
95 6.871794871794871 ['18', '8', '28', '10'] 343.5897435897433
96 6.871794871794871 ['18', '8', '28', '10'] 343.5897435897433
97 6.871794871794871 ['18', '8', '28', '10'] 343.5897435897433
98 6.871794871794871 ['18', '8', '28', '10'] 343.5897435897433
99 6.871794871794871 ['18', '8', '28', '10'] 343.5897435897433
100 6.871794871794871 ['18', '8', '28', '10'] 343.5897435897433
101 6.871794871794871 ['18', '8', '28', '10'] 343.5897435897433
102 6.871794871794871 ['18', '8', '28', '10'] 343.5897435897433
103 6.871794871794871 ['18', '8', '28', '10'] 343.5897435897433
104 6.871794871794871 ['18', '8', '28', '10'] 343.5897435897433
105 6.871794871794871 ['18', '8', '28', '10'] 343.5897435897433
106 6.871794871794871 ['18', '8', '28', '10'] 343.5897435897433
107 6.871794871794871 ['18', '8', '28', '10'] 343.5897435897433
108 6.871794871794871 ['18', '8', '28', '10'] 343.5897435897433
109 6.871794871794871 ['18', '8', '28', '10'] 343.5897435897433
110 6.871794871794871 ['18', '8', '28', '10'] 343.5897435897433
111 6.871794871794871 ['18', '8', '28', '10'] 343.5897435897433
112 6.871794871794871 ['18', '8', '28', '10'] 343.5897435897433
113 6.871794871794871 ['18', '8', '28', '10'] 343.5897435897433
114 6.871794871794871 ['18', '8', '28', '10'] 343.5897435897433
115 6.871794871794871 ['18', '8', '28', '10'] 343.5897435897433
116 6.871794871794871 ['18', '8', '28', '10'] 343.5897435897433
117 6.871794871794871 ['18', '8', '28', '10'] 343.5897435897433
118 6.871794871794871 ['18', '8', '28', '10'] 343.5897435897433
119 6.871794871794871 ['18', '8', '28', '10'] 343.5897435897433
120 6.871794871794871 ['18', '8', '28', '10'] 343.5897435897433
121 6.871794871794871 ['18', '8', '28', '10'] 343.5897435897433
122 6.871794871794871 ['18', '8', '28', '10'] 343.5897435897433
123 6.871794871794871 ['18', '8', '28', '10'] 343.5897435897433
124 6.871794871794871 ['18', '8', '28', '10'] 343.5897435897433
125 6.871794871794871 ['18', '8', '28', '10'] 343.5897435897433
126 6.871794871794871 ['18', '8', '28', '10'] 343.5897435897433
127 6.871794871794871 ['18', '8', '28', '10'] 343.5897435897433
128 6.871794871794871 ['18', '8', '28', '10'] 343.5897435897433
129 6.871794871794871 ['18', '8', '28', '10'] 343.5897435897433
130 6.871794871794871 ['18', '8', '28', '10'] 343.5897435897433
131 6.871794871794871 ['18', '8', '28', '10'] 343.5897435897433
132 6.871794871794871 ['18', '8', '28', '10'] 343.5897435897433
133 6.871794871794871 ['18', '8', '28', '10'] 343.5897435897433
134 6.871794871794871 ['18', '8', '28', '10'] 343.5897435897433
135 6.871794871794871 ['18', '8', '28', '10'] 343.5897435897433
136 6.871794871794871 ['18', '8', '28', '10'] 343.5897435897433
137 6.871794871794871 ['18', '8', '28', '10'] 343.5897435897433
138 6.871794871794871 ['18', '8', '28', '10'] 343.5897435897433
139 6.871794871794871 ['18', '8', '28', '10'] 343.5897435897433
140 6.871794871794871 ['18', '8', '28', '10'] 343.5897435897433
141 6.871794871794871 ['18', '8', '28', '10'] 343.5897435897433
142 6.871794871794871 ['18', '8', '28', '10'] 343.5897435897433
143 6.871794871794871 ['18', '8', '28', '10'] 343.5897435897433
144 6.871794871794871 ['18', '8', '28', '10'] 343.5897435897433
145 6.871794871794871 ['18', '8', '28', '10'] 343.5897435897433
146 6.871794871794871 ['18', '8', '28', '10'] 343.5897435897433
147 6.871794871794871 ['18', '8', '28', '10'] 343.5897435897433
148 6.871794871794871 ['18', '8', '28', '10'] 343.5897435897433
149 6.871794871794871 ['18', '8', '28', '10'] 343.5897435897433
150 6.871794871794871 ['18', '8', '28', '10'] 343.5897435897433
151 6.871794871794871 ['18', '8', '28', '10'] 343.5897435897433
152 6.871794871794871 ['18', '8', '28', '10'] 343.5897435897433
153 6.871794871794871 ['18', '8', '28', '10'] 343.5897435897433
154 6.871794871794871 ['18', '8', '28', '10'] 343.5897435897433
155 6.871794871794871 ['18', '8', '28', '10'] 343.5897435897433
156 6.871794871794871 ['18', '8', '28', '10'] 343.5897435897433
157 6.871794871794871 ['18', '8', '28', '10'] 343.5897435897433
158 6.871794871794871 ['18', '8', '28', '10'] 343.5897435897433
159 6.871794871794871 ['18', '8', '28', '10'] 343.5897435897433
160 6.871794871794871 ['18', '8', '28', '10'] 343.5897435897433
161 6.871794871794871 ['18', '8', '28', '10'] 343.5897435897433
162 6.871794871794871 ['18', '8', '28', '10'] 343.5897435897433
163 6.871794871794871 ['18', '8', '28', '10'] 343.5897435897433
164 6.871794871794871 ['18', '8', '28', '10'] 343.5897435897433
165 6.871794871794871 ['18', '8', '28', '10'] 343.5897435897433
166 6.871794871794871 ['18', '8', '28', '10'] 343.5897435897433
167 6.871794871794871 ['18', '8', '28', '10'] 343.5897435897433
168 6.871794871794871 ['18', '8', '28', '10'] 343.5897435897433
169 6.871794871794871 ['18', '8', '28', '10'] 343.5897435897433
170 6.871794871794871 ['18', '8', '28', '10'] 343.5897435897433
171 6.871794871794871 ['18', '8', '28', '10'] 343.5897435897433
172 6.871794871794871 ['18', '8', '28', '10'] 343.5897435897433
173 6.871794871794871 ['18', '8', '28', '10'] 343.5897435897433
174 6.871794871794871 ['18', '8', '28', '10'] 343.5897435897433
175 6.871794871794871 ['18', '8', '28', '10'] 343.5897435897433
176 6.871794871794871 ['18', '8', '28', '10'] 343.5897435897433
177 6.871794871794871 ['18', '8', '28', '10'] 343.5897435897433
178 6.871794871794871 ['18', '8', '28', '10'] 343.5897435897433
179 6.871794871794871 ['18', '8', '28', '10'] 343.5897435897433
180 6.871794871794871 ['18', '8', '28', '10'] 343.5897435897433
181 6.871794871794871 ['18', '8', '28', '10'] 343.5897435897433
182 6.871794871794871 ['18', '8', '28', '10'] 343.5897435897433
183 6.871794871794871 ['18', '8', '28', '10'] 343.5897435897433
184 6.871794871794871 ['18', '8', '28', '10'] 343.5897435897433
185 6.871794871794871 ['18', '8', '28', '10'] 343.5897435897433
186 6.871794871794871 ['18', '8', '28', '10'] 343.5897435897433
187 6.871794871794871 ['18', '8', '28', '10'] 343.5897435897433
188 6.871794871794871 ['18', '8', '28', '10'] 343.5897435897433
189 6.871794871794871 ['18', '8', '28', '10'] 343.5897435897433
190 6.871794871794871 ['18', '8', '28', '10'] 343.5897435897433
191 6.871794871794871 ['18', '8', '28', '10'] 343.5897435897433
192 6.871794871794871 ['18', '8', '28', '10'] 343.5897435897433
193 6.871794871794871 ['18', '8', '28', '10'] 343.5897435897433
194 6.871794871794871 ['18', '8', '28', '10'] 343.5897435897433
195 6.871794871794871 ['18', '8', '28', '10'] 343.5897435897433
196 6.871794871794871 ['18', '8', '28', '10'] 343.5897435897433
197 6.871794871794871 ['18', '8', '28', '10'] 343.5897435897433
198 6.871794871794871 ['18', '8', '28', '10'] 343.5897435897433
199 6.871794871794871 ['18', '8', '28', '10'] 343.5897435897433
