0 146.28571428571428 ['24', '51', '5', '41', '50', '21'] 7715.214285714286
1 146.28571428571428 ['24', '51', '5', '41', '50', '21'] 7589.124999999999
2 146.28571428571428 ['24', '51', '5', '41', '50', '21'] 7524.32142857143
3 144.35714285714286 ['50', '62', '24', '21', '36', '41'] 7454.482142857143
4 143.32142857142858 ['41', '3', '5', '17', '24', '12'] 7395.30357142857
5 143.32142857142858 ['41', '3', '5', '17', '24', '12'] 7331.8214285714275
6 143.23214285714286 ['17', '25', '24', '12', '45', '41'] 7288.571428571432
7 142.85714285714286 ['24', '41', '17', '45', '51', '62'] 7240.32142857143
8 142.625 ['13', '41', '24', '60', '51', '45'] 7200.25
9 142.46428571428572 ['17', '41', '45', '24', '51', '3'] 7173.982142857141
10 142.35714285714286 ['45', '41', '24', '17', '50', '36'] 7150.428571428567
11 142.35714285714286 ['45', '41', '24', '17', '50', '36'] 7136.51785714286
12 141.73214285714286 ['24', '41', '45', '58', '36', '13'] 7126.607142857145
13 141.73214285714286 ['24', '41', '45', '58', '36', '13'] 7118.267857142852
14 141.73214285714286 ['24', '41', '45', '58', '36', '13'] 7112.625000000002
15 141.5 ['41', '24', '36', '45', '50', '51'] 7107.410714285715
16 141.5 ['41', '24', '36', '45', '50', '51'] 7096.160714285712
17 141.5 ['41', '24', '36', '45', '50', '51'] 7086.053571428575
18 141.5 ['41', '24', '36', '45', '50', '51'] 7083.589285714289
19 141.5 ['41', '24', '36', '45', '50', '51'] 7080.803571428576
20 141.5 ['41', '24', '36', '45', '50', '51'] 7075.0
21 141.5 ['41', '24', '36', '45', '50', '51'] 7075.0
22 141.5 ['41', '24', '36', '45', '50', '51'] 7075.0
23 141.5 ['41', '24', '36', '45', '50', '51'] 7075.0
24 141.5 ['41', '24', '36', '45', '50', '51'] 7075.0
25 141.5 ['41', '24', '36', '45', '50', '51'] 7075.0
26 141.5 ['41', '24', '36', '45', '50', '51'] 7075.0
27 141.5 ['41', '24', '36', '45', '50', '51'] 7075.0
28 141.5 ['41', '24', '36', '45', '50', '51'] 7075.0
29 141.5 ['41', '24', '36', '45', '50', '51'] 7075.0
30 141.5 ['41', '24', '36', '45', '50', '51'] 7075.0
31 141.5 ['41', '24', '36', '45', '50', '51'] 7075.0
32 141.5 ['41', '24', '36', '45', '50', '51'] 7075.0
33 141.5 ['41', '24', '36', '45', '50', '51'] 7075.0
34 141.5 ['41', '24', '36', '45', '50', '51'] 7075.0
35 141.5 ['41', '24', '36', '45', '50', '51'] 7075.0
36 141.5 ['41', '24', '36', '45', '50', '51'] 7075.0
37 141.5 ['41', '24', '36', '45', '50', '51'] 7075.0
38 141.5 ['41', '24', '36', '45', '50', '51'] 7075.0
39 141.5 ['41', '24', '36', '45', '50', '51'] 7075.0
40 141.5 ['41', '24', '36', '45', '50', '51'] 7075.0
41 141.5 ['41', '24', '36', '45', '50', '51'] 7075.0
42 141.5 ['41', '24', '36', '45', '50', '51'] 7075.0
43 141.5 ['41', '24', '36', '45', '50', '51'] 7075.0
44 141.5 ['41', '24', '36', '45', '50', '51'] 7075.0
45 141.5 ['41', '24', '36', '45', '50', '51'] 7075.0
46 141.5 ['41', '24', '36', '45', '50', '51'] 7075.0
47 141.5 ['41', '24', '36', '45', '50', '51'] 7075.0
48 141.5 ['41', '24', '36', '45', '50', '51'] 7075.0
49 141.5 ['41', '24', '36', '45', '50', '51'] 7075.0
50 141.5 ['41', '24', '36', '45', '50', '51'] 7075.0
51 141.5 ['41', '24', '36', '45', '50', '51'] 7075.0
52 141.5 ['41', '24', '36', '45', '50', '51'] 7075.0
53 141.5 ['41', '24', '36', '45', '50', '51'] 7075.0
54 141.5 ['41', '24', '36', '45', '50', '51'] 7075.0
55 141.5 ['41', '24', '36', '45', '50', '51'] 7075.0
56 141.5 ['41', '24', '36', '45', '50', '51'] 7075.0
57 141.5 ['41', '24', '36', '45', '50', '51'] 7075.0
58 141.5 ['41', '24', '36', '45', '50', '51'] 7075.0
59 141.5 ['41', '24', '36', '45', '50', '51'] 7075.0
60 141.5 ['41', '24', '36', '45', '50', '51'] 7075.0
61 141.5 ['41', '24', '36', '45', '50', '51'] 7075.0
62 141.5 ['41', '24', '36', '45', '50', '51'] 7075.0
63 141.5 ['41', '24', '36', '45', '50', '51'] 7075.0
64 141.5 ['41', '24', '36', '45', '50', '51'] 7075.0
65 141.5 ['41', '24', '36', '45', '50', '51'] 7075.0
66 141.5 ['41', '24', '36', '45', '50', '51'] 7075.0
67 141.5 ['41', '24', '36', '45', '50', '51'] 7075.0
68 141.5 ['41', '24', '36', '45', '50', '51'] 7075.0
69 141.5 ['41', '24', '36', '45', '50', '51'] 7075.0
70 141.5 ['41', '24', '36', '45', '50', '51'] 7075.0
71 141.5 ['41', '24', '36', '45', '50', '51'] 7075.0
72 141.5 ['41', '24', '36', '45', '50', '51'] 7075.0
73 141.5 ['41', '24', '36', '45', '50', '51'] 7075.0
74 141.5 ['41', '24', '36', '45', '50', '51'] 7075.0
75 141.5 ['41', '24', '36', '45', '50', '51'] 7075.0
76 141.5 ['41', '24', '36', '45', '50', '51'] 7075.0
77 141.5 ['41', '24', '36', '45', '50', '51'] 7075.0
78 141.5 ['41', '24', '36', '45', '50', '51'] 7075.0
79 141.5 ['41', '24', '36', '45', '50', '51'] 7075.0
80 141.5 ['41', '24', '36', '45', '50', '51'] 7075.0
81 141.5 ['41', '24', '36', '45', '50', '51'] 7075.0
82 141.5 ['41', '24', '36', '45', '50', '51'] 7075.0
83 141.5 ['41', '24', '36', '45', '50', '51'] 7075.0
84 141.5 ['41', '24', '36', '45', '50', '51'] 7075.0
85 141.5 ['41', '24', '36', '45', '50', '51'] 7075.0
86 141.5 ['41', '24', '36', '45', '50', '51'] 7075.0
87 141.5 ['41', '24', '36', '45', '50', '51'] 7075.0
88 141.5 ['41', '24', '36', '45', '50', '51'] 7075.0
89 141.5 ['41', '24', '36', '45', '50', '51'] 7075.0
90 141.5 ['41', '24', '36', '45', '50', '51'] 7075.0
91 141.5 ['41', '24', '36', '45', '50', '51'] 7075.0
92 141.5 ['41', '24', '36', '45', '50', '51'] 7075.0
93 141.5 ['41', '24', '36', '45', '50', '51'] 7075.0
94 141.5 ['41', '24', '36', '45', '50', '51'] 7075.0
95 141.5 ['41', '24', '36', '45', '50', '51'] 7075.0
96 141.5 ['41', '24', '36', '45', '50', '51'] 7075.0
97 141.5 ['41', '24', '36', '45', '50', '51'] 7075.0
98 141.5 ['41', '24', '36', '45', '50', '51'] 7075.0
99 141.5 ['41', '24', '36', '45', '50', '51'] 7075.0
100 141.5 ['41', '24', '36', '45', '50', '51'] 7075.0
101 141.5 ['41', '24', '36', '45', '50', '51'] 7075.0
102 141.5 ['41', '24', '36', '45', '50', '51'] 7075.0
103 141.5 ['41', '24', '36', '45', '50', '51'] 7075.0
104 141.5 ['41', '24', '36', '45', '50', '51'] 7075.0
105 141.5 ['41', '24', '36', '45', '50', '51'] 7075.0
106 141.5 ['41', '24', '36', '45', '50', '51'] 7075.0
107 141.5 ['41', '24', '36', '45', '50', '51'] 7075.0
108 141.5 ['41', '24', '36', '45', '50', '51'] 7075.0
109 141.5 ['41', '24', '36', '45', '50', '51'] 7075.0
110 141.5 ['41', '24', '36', '45', '50', '51'] 7075.0
111 141.5 ['41', '24', '36', '45', '50', '51'] 7075.0
112 141.5 ['41', '24', '36', '45', '50', '51'] 7075.0
113 141.5 ['41', '24', '36', '45', '50', '51'] 7075.0
114 141.5 ['41', '24', '36', '45', '50', '51'] 7075.0
115 141.5 ['41', '24', '36', '45', '50', '51'] 7075.0
116 141.5 ['41', '24', '36', '45', '50', '51'] 7075.0
117 141.5 ['41', '24', '36', '45', '50', '51'] 7075.0
118 141.5 ['41', '24', '36', '45', '50', '51'] 7075.0
119 141.5 ['41', '24', '36', '45', '50', '51'] 7075.0
120 141.5 ['41', '24', '36', '45', '50', '51'] 7075.0
121 141.5 ['41', '24', '36', '45', '50', '51'] 7075.0
122 141.5 ['41', '24', '36', '45', '50', '51'] 7075.0
123 141.5 ['41', '24', '36', '45', '50', '51'] 7075.0
124 141.5 ['41', '24', '36', '45', '50', '51'] 7075.0
125 141.5 ['41', '24', '36', '45', '50', '51'] 7075.0
126 141.5 ['41', '24', '36', '45', '50', '51'] 7075.0
127 141.5 ['41', '24', '36', '45', '50', '51'] 7075.0
128 141.5 ['41', '24', '36', '45', '50', '51'] 7075.0
129 141.5 ['41', '24', '36', '45', '50', '51'] 7075.0
130 141.5 ['41', '24', '36', '45', '50', '51'] 7075.0
131 141.5 ['41', '24', '36', '45', '50', '51'] 7075.0
132 141.5 ['41', '24', '36', '45', '50', '51'] 7075.0
133 141.5 ['41', '24', '36', '45', '50', '51'] 7075.0
134 141.5 ['41', '24', '36', '45', '50', '51'] 7075.0
135 141.5 ['41', '24', '36', '45', '50', '51'] 7075.0
136 141.5 ['41', '24', '36', '45', '50', '51'] 7075.0
137 141.5 ['41', '24', '36', '45', '50', '51'] 7075.0
138 141.5 ['41', '24', '36', '45', '50', '51'] 7075.0
139 141.5 ['41', '24', '36', '45', '50', '51'] 7075.0
140 141.5 ['41', '24', '36', '45', '50', '51'] 7075.0
141 141.5 ['41', '24', '36', '45', '50', '51'] 7075.0
142 141.5 ['41', '24', '36', '45', '50', '51'] 7075.0
143 141.5 ['41', '24', '36', '45', '50', '51'] 7075.0
144 141.5 ['41', '24', '36', '45', '50', '51'] 7075.0
145 141.5 ['41', '24', '36', '45', '50', '51'] 7075.0
146 141.5 ['41', '24', '36', '45', '50', '51'] 7075.0
147 141.5 ['41', '24', '36', '45', '50', '51'] 7075.0
148 141.5 ['41', '24', '36', '45', '50', '51'] 7075.0
149 141.5 ['41', '24', '36', '45', '50', '51'] 7075.0
150 141.5 ['41', '24', '36', '45', '50', '51'] 7075.0
151 141.5 ['41', '24', '36', '45', '50', '51'] 7075.0
152 141.5 ['41', '24', '36', '45', '50', '51'] 7075.0
153 141.5 ['41', '24', '36', '45', '50', '51'] 7075.0
154 141.5 ['41', '24', '36', '45', '50', '51'] 7075.0
155 141.5 ['41', '24', '36', '45', '50', '51'] 7075.0
156 141.5 ['41', '24', '36', '45', '50', '51'] 7075.0
157 141.5 ['41', '24', '36', '45', '50', '51'] 7075.0
158 141.5 ['41', '24', '36', '45', '50', '51'] 7075.0
159 141.5 ['41', '24', '36', '45', '50', '51'] 7075.0
160 141.5 ['41', '24', '36', '45', '50', '51'] 7075.0
161 141.5 ['41', '24', '36', '45', '50', '51'] 7075.0
162 141.5 ['41', '24', '36', '45', '50', '51'] 7075.0
163 141.5 ['41', '24', '36', '45', '50', '51'] 7075.0
164 141.5 ['41', '24', '36', '45', '50', '51'] 7075.0
165 141.5 ['41', '24', '36', '45', '50', '51'] 7075.0
166 141.5 ['41', '24', '36', '45', '50', '51'] 7075.0
167 141.5 ['41', '24', '36', '45', '50', '51'] 7075.0
168 141.5 ['41', '24', '36', '45', '50', '51'] 7075.0
169 141.5 ['41', '24', '36', '45', '50', '51'] 7075.0
170 141.5 ['41', '24', '36', '45', '50', '51'] 7075.0
171 141.5 ['41', '24', '36', '45', '50', '51'] 7075.0
172 141.5 ['41', '24', '36', '45', '50', '51'] 7075.0
173 141.5 ['41', '24', '36', '45', '50', '51'] 7075.0
174 141.5 ['41', '24', '36', '45', '50', '51'] 7075.0
175 141.5 ['41', '24', '36', '45', '50', '51'] 7075.0
176 141.5 ['41', '24', '36', '45', '50', '51'] 7075.0
177 141.5 ['41', '24', '36', '45', '50', '51'] 7075.0
178 141.5 ['41', '24', '36', '45', '50', '51'] 7075.0
179 141.5 ['41', '24', '36', '45', '50', '51'] 7075.0
180 141.5 ['41', '24', '36', '45', '50', '51'] 7075.0
181 141.5 ['41', '24', '36', '45', '50', '51'] 7075.0
182 141.5 ['41', '24', '36', '45', '50', '51'] 7075.0
183 141.5 ['41', '24', '36', '45', '50', '51'] 7075.0
184 141.5 ['41', '24', '36', '45', '50', '51'] 7075.0
185 141.5 ['41', '24', '36', '45', '50', '51'] 7075.0
186 141.5 ['41', '24', '36', '45', '50', '51'] 7075.0
187 141.5 ['41', '24', '36', '45', '50', '51'] 7075.0
188 141.5 ['41', '24', '36', '45', '50', '51'] 7075.0
189 141.5 ['41', '24', '36', '45', '50', '51'] 7075.0
190 141.5 ['41', '24', '36', '45', '50', '51'] 7075.0
191 141.5 ['41', '24', '36', '45', '50', '51'] 7075.0
192 141.5 ['41', '24', '36', '45', '50', '51'] 7075.0
193 141.5 ['41', '24', '36', '45', '50', '51'] 7075.0
194 141.5 ['41', '24', '36', '45', '50', '51'] 7075.0
195 141.5 ['41', '24', '36', '45', '50', '51'] 7075.0
196 141.5 ['41', '24', '36', '45', '50', '51'] 7075.0
197 141.5 ['41', '24', '36', '45', '50', '51'] 7075.0
198 141.5 ['41', '24', '36', '45', '50', '51'] 7075.0
199 141.5 ['41', '24', '36', '45', '50', '51'] 7075.0
