0 14.548148148148147 ['34', '147', '116', '94', '48', '134', '51', '146', '142', '81', '131', '68', '148', '38', '30'] 745.911111111111
1 14.34074074074074 ['120', '139', '146', '31', '130', '106', '142', '89', '91', '100', '96', '116', '134', '147', '79'] 739.0370370370374
2 14.34074074074074 ['120', '139', '146', '31', '130', '106', '142', '89', '91', '100', '96', '116', '134', '147', '79'] 733.9333333333329
3 14.34074074074074 ['120', '139', '146', '31', '130', '106', '142', '89', '91', '100', '96', '116', '134', '147', '79'] 728.6370370370371
4 14.22962962962963 ['63', '100', '149', '124', '77', '134', '147', '90', '140', '37', '69', '145', '150', '141', '96'] 724.3111111111112
5 14.155555555555555 ['142', '89', '91', '134', '116', '106', '80', '146', '48', '150', '149', '129', '147', '130', '139'] 719.9629629629629
6 14.155555555555555 ['142', '89', '91', '134', '116', '106', '80', '146', '48', '150', '149', '129', '147', '130', '139'] 716.0074074074072
7 13.896296296296295 ['134', '142', '139', '149', '124', '80', '129', '79', '91', '147', '145', '120', '116', '106', '150'] 711.5111111111115
8 13.896296296296295 ['134', '142', '139', '149', '124', '80', '129', '79', '91', '147', '145', '120', '116', '106', '150'] 707.5851851851846
9 13.829629629629629 ['142', '145', '147', '146', '149', '89', '134', '117', '79', '124', '130', '148', '141', '103', '106'] 702.8962962962966
10 13.814814814814815 ['142', '145', '79', '146', '149', '147', '134', '124', '148', '117', '125', '150', '130', '139', '48'] 698.2000000000005
11 13.8 ['141', '149', '145', '147', '124', '134', '142', '116', '69', '148', '89', '139', '130', '79', '146'] 695.1259259259253
12 13.718518518518518 ['91', '142', '147', '124', '116', '100', '134', '145', '149', '139', '120', '148', '135', '141', '143'] 692.2814814814819
13 13.666666666666666 ['149', '147', '145', '135', '139', '100', '124', '142', '141', '148', '116', '125', '129', '79', '146'] 689.3407407407408
14 13.585185185185185 ['145', '141', '146', '147', '135', '124', '142', '149', '148', '80', '116', '150', '106', '129', '79'] 686.6962962962962
15 13.585185185185185 ['145', '141', '146', '147', '135', '124', '142', '149', '148', '80', '116', '150', '106', '129', '79'] 684.8592592592594
16 13.555555555555555 ['142', '145', '148', '106', '79', '147', '116', '124', '141', '135', '149', '146', '150', '134', '100'] 682.637037037037
17 13.555555555555555 ['142', '145', '148', '106', '79', '147', '116', '124', '141', '135', '149', '146', '150', '134', '100'] 680.9481481481473
18 13.533333333333333 ['147', '100', '149', '79', '146', '141', '145', '135', '142', '124', '120', '148', '150', '116', '117'] 679.6444444444452
19 13.525925925925925 ['124', '135', '141', '146', '145', '149', '147', '148', '79', '100', '120', '142', '150', '116', '106'] 678.777777777778
20 13.525925925925925 ['124', '135', '141', '146', '145', '149', '147', '148', '79', '100', '120', '142', '150', '116', '106'] 677.8888888888888
21 13.496296296296297 ['106', '79', '148', '147', '120', '135', '116', '145', '142', '124', '149', '141', '146', '150', '143'] 677.2370370370365
22 13.496296296296297 ['106', '79', '148', '147', '120', '135', '116', '145', '142', '124', '149', '141', '146', '150', '143'] 676.6222222222221
23 13.496296296296297 ['106', '79', '148', '147', '120', '135', '116', '145', '142', '124', '149', '141', '146', '150', '143'] 676.1037037037037
24 13.496296296296297 ['106', '79', '148', '147', '120', '135', '116', '145', '142', '124', '149', '141', '146', '150', '143'] 675.8962962962963
25 13.496296296296297 ['106', '79', '148', '147', '120', '135', '116', '145', '142', '124', '149', '141', '146', '150', '143'] 675.4666666666664
26 13.496296296296297 ['106', '79', '148', '147', '120', '135', '116', '145', '142', '124', '149', '141', '146', '150', '143'] 674.8888888888891
27 13.496296296296297 ['106', '79', '148', '147', '120', '135', '116', '145', '142', '124', '149', '141', '146', '150', '143'] 674.8148148148155
28 13.496296296296297 ['106', '79', '148', '147', '120', '135', '116', '145', '142', '124', '149', '141', '146', '150', '143'] 674.8148148148155
29 13.496296296296297 ['106', '79', '148', '147', '120', '135', '116', '145', '142', '124', '149', '141', '146', '150', '143'] 674.8148148148155
30 13.496296296296297 ['106', '79', '148', '147', '120', '135', '116', '145', '142', '124', '149', '141', '146', '150', '143'] 674.8148148148155
31 13.496296296296297 ['106', '79', '148', '147', '120', '135', '116', '145', '142', '124', '149', '141', '146', '150', '143'] 674.8148148148155
32 13.496296296296297 ['106', '79', '148', '147', '120', '135', '116', '145', '142', '124', '149', '141', '146', '150', '143'] 674.8148148148155
33 13.496296296296297 ['106', '79', '148', '147', '120', '135', '116', '145', '142', '124', '149', '141', '146', '150', '143'] 674.8148148148155
34 13.496296296296297 ['106', '79', '148', '147', '120', '135', '116', '145', '142', '124', '149', '141', '146', '150', '143'] 674.8148148148155
35 13.496296296296297 ['106', '79', '148', '147', '120', '135', '116', '145', '142', '124', '149', '141', '146', '150', '143'] 674.8148148148155
36 13.496296296296297 ['106', '79', '148', '147', '120', '135', '116', '145', '142', '124', '149', '141', '146', '150', '143'] 674.8148148148155
37 13.496296296296297 ['106', '79', '148', '147', '120', '135', '116', '145', '142', '124', '149', '141', '146', '150', '143'] 674.8148148148155
38 13.496296296296297 ['106', '79', '148', '147', '120', '135', '116', '145', '142', '124', '149', '141', '146', '150', '143'] 674.8148148148155
39 13.496296296296297 ['106', '79', '148', '147', '120', '135', '116', '145', '142', '124', '149', '141', '146', '150', '143'] 674.8148148148155
40 13.496296296296297 ['106', '79', '148', '147', '120', '135', '116', '145', '142', '124', '149', '141', '146', '150', '143'] 674.8148148148155
41 13.496296296296297 ['106', '79', '148', '147', '120', '135', '116', '145', '142', '124', '149', '141', '146', '150', '143'] 674.8148148148155
42 13.496296296296297 ['106', '79', '148', '147', '120', '135', '116', '145', '142', '124', '149', '141', '146', '150', '143'] 674.8148148148155
43 13.496296296296297 ['106', '79', '148', '147', '120', '135', '116', '145', '142', '124', '149', '141', '146', '150', '143'] 674.8148148148155
44 13.496296296296297 ['106', '79', '148', '147', '120', '135', '116', '145', '142', '124', '149', '141', '146', '150', '143'] 674.8148148148155
45 13.496296296296297 ['106', '79', '148', '147', '120', '135', '116', '145', '142', '124', '149', '141', '146', '150', '143'] 674.8148148148155
46 13.496296296296297 ['106', '79', '148', '147', '120', '135', '116', '145', '142', '124', '149', '141', '146', '150', '143'] 674.8148148148155
47 13.496296296296297 ['106', '79', '148', '147', '120', '135', '116', '145', '142', '124', '149', '141', '146', '150', '143'] 674.8148148148155
48 13.496296296296297 ['106', '79', '148', '147', '120', '135', '116', '145', '142', '124', '149', '141', '146', '150', '143'] 674.8148148148155
49 13.496296296296297 ['106', '79', '148', '147', '120', '135', '116', '145', '142', '124', '149', '141', '146', '150', '143'] 674.8148148148155
50 13.496296296296297 ['106', '79', '148', '147', '120', '135', '116', '145', '142', '124', '149', '141', '146', '150', '143'] 674.8148148148155
51 13.496296296296297 ['106', '79', '148', '147', '120', '135', '116', '145', '142', '124', '149', '141', '146', '150', '143'] 674.8148148148155
52 13.496296296296297 ['106', '79', '148', '147', '120', '135', '116', '145', '142', '124', '149', '141', '146', '150', '143'] 674.8148148148155
53 13.496296296296297 ['106', '79', '148', '147', '120', '135', '116', '145', '142', '124', '149', '141', '146', '150', '143'] 674.8148148148155
54 13.496296296296297 ['106', '79', '148', '147', '120', '135', '116', '145', '142', '124', '149', '141', '146', '150', '143'] 674.8148148148155
55 13.496296296296297 ['106', '79', '148', '147', '120', '135', '116', '145', '142', '124', '149', '141', '146', '150', '143'] 674.8148148148155
56 13.496296296296297 ['106', '79', '148', '147', '120', '135', '116', '145', '142', '124', '149', '141', '146', '150', '143'] 674.8148148148155
57 13.496296296296297 ['106', '79', '148', '147', '120', '135', '116', '145', '142', '124', '149', '141', '146', '150', '143'] 674.8148148148155
58 13.496296296296297 ['106', '79', '148', '147', '120', '135', '116', '145', '142', '124', '149', '141', '146', '150', '143'] 674.8148148148155
59 13.496296296296297 ['106', '79', '148', '147', '120', '135', '116', '145', '142', '124', '149', '141', '146', '150', '143'] 674.8148148148155
60 13.496296296296297 ['106', '79', '148', '147', '120', '135', '116', '145', '142', '124', '149', '141', '146', '150', '143'] 674.8148148148155
61 13.496296296296297 ['106', '79', '148', '147', '120', '135', '116', '145', '142', '124', '149', '141', '146', '150', '143'] 674.8148148148155
62 13.496296296296297 ['106', '79', '148', '147', '120', '135', '116', '145', '142', '124', '149', '141', '146', '150', '143'] 674.8148148148155
63 13.496296296296297 ['106', '79', '148', '147', '120', '135', '116', '145', '142', '124', '149', '141', '146', '150', '143'] 674.8148148148155
64 13.496296296296297 ['106', '79', '148', '147', '120', '135', '116', '145', '142', '124', '149', '141', '146', '150', '143'] 674.8148148148155
65 13.496296296296297 ['106', '79', '148', '147', '120', '135', '116', '145', '142', '124', '149', '141', '146', '150', '143'] 674.8148148148155
66 13.496296296296297 ['106', '79', '148', '147', '120', '135', '116', '145', '142', '124', '149', '141', '146', '150', '143'] 674.8148148148155
67 13.496296296296297 ['106', '79', '148', '147', '120', '135', '116', '145', '142', '124', '149', '141', '146', '150', '143'] 674.8148148148155
68 13.496296296296297 ['106', '79', '148', '147', '120', '135', '116', '145', '142', '124', '149', '141', '146', '150', '143'] 674.8148148148155
69 13.496296296296297 ['106', '79', '148', '147', '120', '135', '116', '145', '142', '124', '149', '141', '146', '150', '143'] 674.8148148148155
70 13.496296296296297 ['106', '79', '148', '147', '120', '135', '116', '145', '142', '124', '149', '141', '146', '150', '143'] 674.8148148148155
71 13.496296296296297 ['106', '79', '148', '147', '120', '135', '116', '145', '142', '124', '149', '141', '146', '150', '143'] 674.8148148148155
72 13.496296296296297 ['106', '79', '148', '147', '120', '135', '116', '145', '142', '124', '149', '141', '146', '150', '143'] 674.8148148148155
73 13.496296296296297 ['106', '79', '148', '147', '120', '135', '116', '145', '142', '124', '149', '141', '146', '150', '143'] 674.8148148148155
74 13.496296296296297 ['106', '79', '148', '147', '120', '135', '116', '145', '142', '124', '149', '141', '146', '150', '143'] 674.8148148148155
75 13.496296296296297 ['106', '79', '148', '147', '120', '135', '116', '145', '142', '124', '149', '141', '146', '150', '143'] 674.8148148148155
76 13.496296296296297 ['106', '79', '148', '147', '120', '135', '116', '145', '142', '124', '149', '141', '146', '150', '143'] 674.8148148148155
77 13.496296296296297 ['106', '79', '148', '147', '120', '135', '116', '145', '142', '124', '149', '141', '146', '150', '143'] 674.8148148148155
78 13.496296296296297 ['106', '79', '148', '147', '120', '135', '116', '145', '142', '124', '149', '141', '146', '150', '143'] 674.8148148148155
79 13.496296296296297 ['106', '79', '148', '147', '120', '135', '116', '145', '142', '124', '149', '141', '146', '150', '143'] 674.8148148148155
80 13.496296296296297 ['106', '79', '148', '147', '120', '135', '116', '145', '142', '124', '149', '141', '146', '150', '143'] 674.8148148148155
81 13.496296296296297 ['106', '79', '148', '147', '120', '135', '116', '145', '142', '124', '149', '141', '146', '150', '143'] 674.8148148148155
82 13.496296296296297 ['106', '79', '148', '147', '120', '135', '116', '145', '142', '124', '149', '141', '146', '150', '143'] 674.8148148148155
83 13.496296296296297 ['106', '79', '148', '147', '120', '135', '116', '145', '142', '124', '149', '141', '146', '150', '143'] 674.8148148148155
84 13.496296296296297 ['106', '79', '148', '147', '120', '135', '116', '145', '142', '124', '149', '141', '146', '150', '143'] 674.8148148148155
85 13.496296296296297 ['106', '79', '148', '147', '120', '135', '116', '145', '142', '124', '149', '141', '146', '150', '143'] 674.8148148148155
86 13.496296296296297 ['106', '79', '148', '147', '120', '135', '116', '145', '142', '124', '149', '141', '146', '150', '143'] 674.8148148148155
87 13.496296296296297 ['106', '79', '148', '147', '120', '135', '116', '145', '142', '124', '149', '141', '146', '150', '143'] 674.8148148148155
88 13.496296296296297 ['106', '79', '148', '147', '120', '135', '116', '145', '142', '124', '149', '141', '146', '150', '143'] 674.8148148148155
89 13.496296296296297 ['106', '79', '148', '147', '120', '135', '116', '145', '142', '124', '149', '141', '146', '150', '143'] 674.8148148148155
90 13.496296296296297 ['106', '79', '148', '147', '120', '135', '116', '145', '142', '124', '149', '141', '146', '150', '143'] 674.8148148148155
91 13.496296296296297 ['106', '79', '148', '147', '120', '135', '116', '145', '142', '124', '149', '141', '146', '150', '143'] 674.8148148148155
92 13.496296296296297 ['106', '79', '148', '147', '120', '135', '116', '145', '142', '124', '149', '141', '146', '150', '143'] 674.8148148148155
93 13.496296296296297 ['106', '79', '148', '147', '120', '135', '116', '145', '142', '124', '149', '141', '146', '150', '143'] 674.8148148148155
94 13.496296296296297 ['106', '79', '148', '147', '120', '135', '116', '145', '142', '124', '149', '141', '146', '150', '143'] 674.8148148148155
95 13.496296296296297 ['106', '79', '148', '147', '120', '135', '116', '145', '142', '124', '149', '141', '146', '150', '143'] 674.8148148148155
96 13.496296296296297 ['106', '79', '148', '147', '120', '135', '116', '145', '142', '124', '149', '141', '146', '150', '143'] 674.8148148148155
97 13.496296296296297 ['106', '79', '148', '147', '120', '135', '116', '145', '142', '124', '149', '141', '146', '150', '143'] 674.8148148148155
98 13.496296296296297 ['106', '79', '148', '147', '120', '135', '116', '145', '142', '124', '149', '141', '146', '150', '143'] 674.8148148148155
99 13.496296296296297 ['106', '79', '148', '147', '120', '135', '116', '145', '142', '124', '149', '141', '146', '150', '143'] 674.8148148148155
100 13.496296296296297 ['106', '79', '148', '147', '120', '135', '116', '145', '142', '124', '149', '141', '146', '150', '143'] 674.8148148148155
101 13.496296296296297 ['106', '79', '148', '147', '120', '135', '116', '145', '142', '124', '149', '141', '146', '150', '143'] 674.8148148148155
102 13.496296296296297 ['106', '79', '148', '147', '120', '135', '116', '145', '142', '124', '149', '141', '146', '150', '143'] 674.8148148148155
103 13.496296296296297 ['106', '79', '148', '147', '120', '135', '116', '145', '142', '124', '149', '141', '146', '150', '143'] 674.8148148148155
104 13.496296296296297 ['106', '79', '148', '147', '120', '135', '116', '145', '142', '124', '149', '141', '146', '150', '143'] 674.8148148148155
105 13.496296296296297 ['106', '79', '148', '147', '120', '135', '116', '145', '142', '124', '149', '141', '146', '150', '143'] 674.8148148148155
106 13.496296296296297 ['106', '79', '148', '147', '120', '135', '116', '145', '142', '124', '149', '141', '146', '150', '143'] 674.8148148148155
107 13.496296296296297 ['106', '79', '148', '147', '120', '135', '116', '145', '142', '124', '149', '141', '146', '150', '143'] 674.8148148148155
108 13.496296296296297 ['106', '79', '148', '147', '120', '135', '116', '145', '142', '124', '149', '141', '146', '150', '143'] 674.8148148148155
109 13.496296296296297 ['106', '79', '148', '147', '120', '135', '116', '145', '142', '124', '149', '141', '146', '150', '143'] 674.8148148148155
110 13.496296296296297 ['106', '79', '148', '147', '120', '135', '116', '145', '142', '124', '149', '141', '146', '150', '143'] 674.8148148148155
111 13.496296296296297 ['106', '79', '148', '147', '120', '135', '116', '145', '142', '124', '149', '141', '146', '150', '143'] 674.8148148148155
112 13.496296296296297 ['106', '79', '148', '147', '120', '135', '116', '145', '142', '124', '149', '141', '146', '150', '143'] 674.8148148148155
113 13.496296296296297 ['106', '79', '148', '147', '120', '135', '116', '145', '142', '124', '149', '141', '146', '150', '143'] 674.8148148148155
114 13.496296296296297 ['106', '79', '148', '147', '120', '135', '116', '145', '142', '124', '149', '141', '146', '150', '143'] 674.8148148148155
115 13.496296296296297 ['106', '79', '148', '147', '120', '135', '116', '145', '142', '124', '149', '141', '146', '150', '143'] 674.8148148148155
116 13.496296296296297 ['106', '79', '148', '147', '120', '135', '116', '145', '142', '124', '149', '141', '146', '150', '143'] 674.8148148148155
117 13.496296296296297 ['106', '79', '148', '147', '120', '135', '116', '145', '142', '124', '149', '141', '146', '150', '143'] 674.8148148148155
118 13.496296296296297 ['106', '79', '148', '147', '120', '135', '116', '145', '142', '124', '149', '141', '146', '150', '143'] 674.8148148148155
119 13.496296296296297 ['106', '79', '148', '147', '120', '135', '116', '145', '142', '124', '149', '141', '146', '150', '143'] 674.8148148148155
120 13.496296296296297 ['106', '79', '148', '147', '120', '135', '116', '145', '142', '124', '149', '141', '146', '150', '143'] 674.8148148148155
121 13.496296296296297 ['106', '79', '148', '147', '120', '135', '116', '145', '142', '124', '149', '141', '146', '150', '143'] 674.8148148148155
122 13.496296296296297 ['106', '79', '148', '147', '120', '135', '116', '145', '142', '124', '149', '141', '146', '150', '143'] 674.8148148148155
123 13.496296296296297 ['106', '79', '148', '147', '120', '135', '116', '145', '142', '124', '149', '141', '146', '150', '143'] 674.8148148148155
124 13.496296296296297 ['106', '79', '148', '147', '120', '135', '116', '145', '142', '124', '149', '141', '146', '150', '143'] 674.8148148148155
125 13.496296296296297 ['106', '79', '148', '147', '120', '135', '116', '145', '142', '124', '149', '141', '146', '150', '143'] 674.8148148148155
126 13.496296296296297 ['106', '79', '148', '147', '120', '135', '116', '145', '142', '124', '149', '141', '146', '150', '143'] 674.8148148148155
127 13.496296296296297 ['106', '79', '148', '147', '120', '135', '116', '145', '142', '124', '149', '141', '146', '150', '143'] 674.8148148148155
128 13.496296296296297 ['106', '79', '148', '147', '120', '135', '116', '145', '142', '124', '149', '141', '146', '150', '143'] 674.8148148148155
129 13.496296296296297 ['106', '79', '148', '147', '120', '135', '116', '145', '142', '124', '149', '141', '146', '150', '143'] 674.8148148148155
130 13.496296296296297 ['106', '79', '148', '147', '120', '135', '116', '145', '142', '124', '149', '141', '146', '150', '143'] 674.8148148148155
131 13.496296296296297 ['106', '79', '148', '147', '120', '135', '116', '145', '142', '124', '149', '141', '146', '150', '143'] 674.8148148148155
132 13.496296296296297 ['106', '79', '148', '147', '120', '135', '116', '145', '142', '124', '149', '141', '146', '150', '143'] 674.8148148148155
133 13.496296296296297 ['106', '79', '148', '147', '120', '135', '116', '145', '142', '124', '149', '141', '146', '150', '143'] 674.8148148148155
134 13.496296296296297 ['106', '79', '148', '147', '120', '135', '116', '145', '142', '124', '149', '141', '146', '150', '143'] 674.8148148148155
135 13.496296296296297 ['106', '79', '148', '147', '120', '135', '116', '145', '142', '124', '149', '141', '146', '150', '143'] 674.8148148148155
136 13.496296296296297 ['106', '79', '148', '147', '120', '135', '116', '145', '142', '124', '149', '141', '146', '150', '143'] 674.8148148148155
137 13.496296296296297 ['106', '79', '148', '147', '120', '135', '116', '145', '142', '124', '149', '141', '146', '150', '143'] 674.8148148148155
138 13.496296296296297 ['106', '79', '148', '147', '120', '135', '116', '145', '142', '124', '149', '141', '146', '150', '143'] 674.8148148148155
139 13.496296296296297 ['106', '79', '148', '147', '120', '135', '116', '145', '142', '124', '149', '141', '146', '150', '143'] 674.8148148148155
140 13.496296296296297 ['106', '79', '148', '147', '120', '135', '116', '145', '142', '124', '149', '141', '146', '150', '143'] 674.8148148148155
141 13.496296296296297 ['106', '79', '148', '147', '120', '135', '116', '145', '142', '124', '149', '141', '146', '150', '143'] 674.8148148148155
142 13.496296296296297 ['106', '79', '148', '147', '120', '135', '116', '145', '142', '124', '149', '141', '146', '150', '143'] 674.8148148148155
143 13.496296296296297 ['106', '79', '148', '147', '120', '135', '116', '145', '142', '124', '149', '141', '146', '150', '143'] 674.8148148148155
144 13.496296296296297 ['106', '79', '148', '147', '120', '135', '116', '145', '142', '124', '149', '141', '146', '150', '143'] 674.8148148148155
145 13.496296296296297 ['106', '79', '148', '147', '120', '135', '116', '145', '142', '124', '149', '141', '146', '150', '143'] 674.8148148148155
146 13.496296296296297 ['106', '79', '148', '147', '120', '135', '116', '145', '142', '124', '149', '141', '146', '150', '143'] 674.8148148148155
147 13.496296296296297 ['106', '79', '148', '147', '120', '135', '116', '145', '142', '124', '149', '141', '146', '150', '143'] 674.8148148148155
148 13.496296296296297 ['106', '79', '148', '147', '120', '135', '116', '145', '142', '124', '149', '141', '146', '150', '143'] 674.8148148148155
149 13.496296296296297 ['106', '79', '148', '147', '120', '135', '116', '145', '142', '124', '149', '141', '146', '150', '143'] 674.8148148148155
150 13.496296296296297 ['106', '79', '148', '147', '120', '135', '116', '145', '142', '124', '149', '141', '146', '150', '143'] 674.8148148148155
151 13.496296296296297 ['106', '79', '148', '147', '120', '135', '116', '145', '142', '124', '149', '141', '146', '150', '143'] 674.8148148148155
152 13.496296296296297 ['106', '79', '148', '147', '120', '135', '116', '145', '142', '124', '149', '141', '146', '150', '143'] 674.8148148148155
153 13.496296296296297 ['106', '79', '148', '147', '120', '135', '116', '145', '142', '124', '149', '141', '146', '150', '143'] 674.8148148148155
154 13.496296296296297 ['106', '79', '148', '147', '120', '135', '116', '145', '142', '124', '149', '141', '146', '150', '143'] 674.8148148148155
155 13.496296296296297 ['106', '79', '148', '147', '120', '135', '116', '145', '142', '124', '149', '141', '146', '150', '143'] 674.8148148148155
156 13.496296296296297 ['106', '79', '148', '147', '120', '135', '116', '145', '142', '124', '149', '141', '146', '150', '143'] 674.8148148148155
157 13.496296296296297 ['106', '79', '148', '147', '120', '135', '116', '145', '142', '124', '149', '141', '146', '150', '143'] 674.8148148148155
158 13.496296296296297 ['106', '79', '148', '147', '120', '135', '116', '145', '142', '124', '149', '141', '146', '150', '143'] 674.8148148148155
159 13.496296296296297 ['106', '79', '148', '147', '120', '135', '116', '145', '142', '124', '149', '141', '146', '150', '143'] 674.8148148148155
160 13.496296296296297 ['106', '79', '148', '147', '120', '135', '116', '145', '142', '124', '149', '141', '146', '150', '143'] 674.8148148148155
161 13.496296296296297 ['106', '79', '148', '147', '120', '135', '116', '145', '142', '124', '149', '141', '146', '150', '143'] 674.8148148148155
162 13.496296296296297 ['106', '79', '148', '147', '120', '135', '116', '145', '142', '124', '149', '141', '146', '150', '143'] 674.8148148148155
163 13.496296296296297 ['106', '79', '148', '147', '120', '135', '116', '145', '142', '124', '149', '141', '146', '150', '143'] 674.8148148148155
164 13.496296296296297 ['106', '79', '148', '147', '120', '135', '116', '145', '142', '124', '149', '141', '146', '150', '143'] 674.8148148148155
165 13.496296296296297 ['106', '79', '148', '147', '120', '135', '116', '145', '142', '124', '149', '141', '146', '150', '143'] 674.8148148148155
166 13.496296296296297 ['106', '79', '148', '147', '120', '135', '116', '145', '142', '124', '149', '141', '146', '150', '143'] 674.8148148148155
167 13.496296296296297 ['106', '79', '148', '147', '120', '135', '116', '145', '142', '124', '149', '141', '146', '150', '143'] 674.8148148148155
168 13.496296296296297 ['106', '79', '148', '147', '120', '135', '116', '145', '142', '124', '149', '141', '146', '150', '143'] 674.8148148148155
169 13.496296296296297 ['106', '79', '148', '147', '120', '135', '116', '145', '142', '124', '149', '141', '146', '150', '143'] 674.8148148148155
170 13.496296296296297 ['106', '79', '148', '147', '120', '135', '116', '145', '142', '124', '149', '141', '146', '150', '143'] 674.8148148148155
171 13.496296296296297 ['106', '79', '148', '147', '120', '135', '116', '145', '142', '124', '149', '141', '146', '150', '143'] 674.8148148148155
172 13.496296296296297 ['106', '79', '148', '147', '120', '135', '116', '145', '142', '124', '149', '141', '146', '150', '143'] 674.8148148148155
173 13.496296296296297 ['106', '79', '148', '147', '120', '135', '116', '145', '142', '124', '149', '141', '146', '150', '143'] 674.8148148148155
174 13.496296296296297 ['106', '79', '148', '147', '120', '135', '116', '145', '142', '124', '149', '141', '146', '150', '143'] 674.8148148148155
175 13.496296296296297 ['106', '79', '148', '147', '120', '135', '116', '145', '142', '124', '149', '141', '146', '150', '143'] 674.8148148148155
176 13.496296296296297 ['106', '79', '148', '147', '120', '135', '116', '145', '142', '124', '149', '141', '146', '150', '143'] 674.8148148148155
177 13.496296296296297 ['106', '79', '148', '147', '120', '135', '116', '145', '142', '124', '149', '141', '146', '150', '143'] 674.8148148148155
178 13.496296296296297 ['106', '79', '148', '147', '120', '135', '116', '145', '142', '124', '149', '141', '146', '150', '143'] 674.8148148148155
179 13.496296296296297 ['106', '79', '148', '147', '120', '135', '116', '145', '142', '124', '149', '141', '146', '150', '143'] 674.8148148148155
180 13.496296296296297 ['106', '79', '148', '147', '120', '135', '116', '145', '142', '124', '149', '141', '146', '150', '143'] 674.8148148148155
181 13.496296296296297 ['106', '79', '148', '147', '120', '135', '116', '145', '142', '124', '149', '141', '146', '150', '143'] 674.8148148148155
182 13.496296296296297 ['106', '79', '148', '147', '120', '135', '116', '145', '142', '124', '149', '141', '146', '150', '143'] 674.8148148148155
183 13.496296296296297 ['106', '79', '148', '147', '120', '135', '116', '145', '142', '124', '149', '141', '146', '150', '143'] 674.8148148148155
184 13.496296296296297 ['106', '79', '148', '147', '120', '135', '116', '145', '142', '124', '149', '141', '146', '150', '143'] 674.8148148148155
185 13.496296296296297 ['106', '79', '148', '147', '120', '135', '116', '145', '142', '124', '149', '141', '146', '150', '143'] 674.8148148148155
186 13.496296296296297 ['106', '79', '148', '147', '120', '135', '116', '145', '142', '124', '149', '141', '146', '150', '143'] 674.8148148148155
187 13.496296296296297 ['106', '79', '148', '147', '120', '135', '116', '145', '142', '124', '149', '141', '146', '150', '143'] 674.8148148148155
188 13.496296296296297 ['106', '79', '148', '147', '120', '135', '116', '145', '142', '124', '149', '141', '146', '150', '143'] 674.8148148148155
189 13.496296296296297 ['106', '79', '148', '147', '120', '135', '116', '145', '142', '124', '149', '141', '146', '150', '143'] 674.8148148148155
190 13.496296296296297 ['106', '79', '148', '147', '120', '135', '116', '145', '142', '124', '149', '141', '146', '150', '143'] 674.8148148148155
191 13.496296296296297 ['106', '79', '148', '147', '120', '135', '116', '145', '142', '124', '149', '141', '146', '150', '143'] 674.8148148148155
192 13.496296296296297 ['106', '79', '148', '147', '120', '135', '116', '145', '142', '124', '149', '141', '146', '150', '143'] 674.8148148148155
193 13.496296296296297 ['106', '79', '148', '147', '120', '135', '116', '145', '142', '124', '149', '141', '146', '150', '143'] 674.8148148148155
194 13.496296296296297 ['106', '79', '148', '147', '120', '135', '116', '145', '142', '124', '149', '141', '146', '150', '143'] 674.8148148148155
195 13.496296296296297 ['106', '79', '148', '147', '120', '135', '116', '145', '142', '124', '149', '141', '146', '150', '143'] 674.8148148148155
196 13.496296296296297 ['106', '79', '148', '147', '120', '135', '116', '145', '142', '124', '149', '141', '146', '150', '143'] 674.8148148148155
197 13.496296296296297 ['106', '79', '148', '147', '120', '135', '116', '145', '142', '124', '149', '141', '146', '150', '143'] 674.8148148148155
198 13.496296296296297 ['106', '79', '148', '147', '120', '135', '116', '145', '142', '124', '149', '141', '146', '150', '143'] 674.8148148148155
199 13.496296296296297 ['106', '79', '148', '147', '120', '135', '116', '145', '142', '124', '149', '141', '146', '150', '143'] 674.8148148148155
