0 7.794871794871795 ['33', '26', '40', '18'] 432.30769230769226
1 7.487179487179487 ['16', '18', '8', '40'] 419.6923076923082
2 7.487179487179487 ['16', '18', '8', '40'] 406.35897435897454
3 7.282051282051282 ['40', '19', '23', '18'] 397.435897435897
4 6.9743589743589745 ['19', '40', '28', '18'] 385.43589743589746
5 6.9743589743589745 ['19', '40', '28', '18'] 375.9999999999995
6 6.9743589743589745 ['19', '40', '28', '18'] 367.79487179487205
7 6.9743589743589745 ['19', '40', '28', '18'] 360.82051282051236
8 6.9743589743589745 ['19', '40', '28', '18'] 354.1538461538459
9 6.9743589743589745 ['19', '40', '28', '18'] 348.9230769230768
10 6.9743589743589745 ['19', '40', '28', '18'] 348.7179487179485
11 6.9743589743589745 ['19', '40', '28', '18'] 348.7179487179485
12 6.9743589743589745 ['19', '40', '28', '18'] 348.7179487179485
13 6.9743589743589745 ['19', '40', '28', '18'] 348.7179487179485
14 6.9743589743589745 ['19', '40', '28', '18'] 348.7179487179485
15 6.9743589743589745 ['19', '40', '28', '18'] 348.7179487179485
16 6.9743589743589745 ['19', '40', '28', '18'] 348.7179487179485
17 6.9743589743589745 ['19', '40', '28', '18'] 348.7179487179485
18 6.9743589743589745 ['19', '40', '28', '18'] 348.7179487179485
19 6.9743589743589745 ['19', '40', '28', '18'] 348.7179487179485
20 6.9743589743589745 ['19', '40', '28', '18'] 348.7179487179485
21 6.9743589743589745 ['19', '40', '28', '18'] 348.7179487179485
22 6.9743589743589745 ['19', '40', '28', '18'] 348.7179487179485
23 6.9743589743589745 ['19', '40', '28', '18'] 348.7179487179485
24 6.9743589743589745 ['19', '40', '28', '18'] 348.7179487179485
25 6.9743589743589745 ['19', '40', '28', '18'] 348.7179487179485
26 6.9743589743589745 ['19', '40', '28', '18'] 348.7179487179485
27 6.9743589743589745 ['19', '40', '28', '18'] 348.7179487179485
28 6.9743589743589745 ['19', '40', '28', '18'] 348.7179487179485
29 6.9743589743589745 ['19', '40', '28', '18'] 348.7179487179485
30 6.9743589743589745 ['19', '40', '28', '18'] 348.7179487179485
31 6.9743589743589745 ['19', '40', '28', '18'] 348.7179487179485
32 6.9743589743589745 ['19', '40', '28', '18'] 348.7179487179485
33 6.9743589743589745 ['19', '40', '28', '18'] 348.7179487179485
34 6.9743589743589745 ['19', '40', '28', '18'] 348.7179487179485
35 6.9743589743589745 ['19', '40', '28', '18'] 348.7179487179485
36 6.9743589743589745 ['19', '40', '28', '18'] 348.7179487179485
37 6.9743589743589745 ['19', '40', '28', '18'] 348.7179487179485
38 6.9743589743589745 ['19', '40', '28', '18'] 348.7179487179485
39 6.9743589743589745 ['19', '40', '28', '18'] 348.7179487179485
40 6.9743589743589745 ['19', '40', '28', '18'] 348.7179487179485
41 6.9743589743589745 ['19', '40', '28', '18'] 348.7179487179485
42 6.9743589743589745 ['19', '40', '28', '18'] 348.7179487179485
43 6.9743589743589745 ['19', '40', '28', '18'] 348.7179487179485
44 6.9743589743589745 ['19', '40', '28', '18'] 348.7179487179485
45 6.9743589743589745 ['19', '40', '28', '18'] 348.7179487179485
46 6.9743589743589745 ['19', '40', '28', '18'] 348.7179487179485
47 6.9743589743589745 ['19', '40', '28', '18'] 348.7179487179485
48 6.9743589743589745 ['19', '40', '28', '18'] 348.7179487179485
49 6.9743589743589745 ['19', '40', '28', '18'] 348.7179487179485
50 6.9743589743589745 ['19', '40', '28', '18'] 348.7179487179485
51 6.9743589743589745 ['19', '40', '28', '18'] 348.7179487179485
52 6.9743589743589745 ['19', '40', '28', '18'] 348.7179487179485
53 6.9743589743589745 ['19', '40', '28', '18'] 348.7179487179485
54 6.9743589743589745 ['19', '40', '28', '18'] 348.7179487179485
55 6.9743589743589745 ['19', '40', '28', '18'] 348.7179487179485
56 6.9743589743589745 ['19', '40', '28', '18'] 348.7179487179485
57 6.9743589743589745 ['19', '40', '28', '18'] 348.7179487179485
58 6.9743589743589745 ['19', '40', '28', '18'] 348.7179487179485
59 6.9743589743589745 ['19', '40', '28', '18'] 348.7179487179485
60 6.9743589743589745 ['19', '40', '28', '18'] 348.7179487179485
61 6.9743589743589745 ['19', '40', '28', '18'] 348.7179487179485
62 6.9743589743589745 ['19', '40', '28', '18'] 348.7179487179485
63 6.9743589743589745 ['19', '40', '28', '18'] 348.7179487179485
64 6.9743589743589745 ['19', '40', '28', '18'] 348.7179487179485
65 6.9743589743589745 ['19', '40', '28', '18'] 348.7179487179485
66 6.9743589743589745 ['19', '40', '28', '18'] 348.7179487179485
67 6.9743589743589745 ['19', '40', '28', '18'] 348.7179487179485
68 6.9743589743589745 ['19', '40', '28', '18'] 348.7179487179485
69 6.9743589743589745 ['19', '40', '28', '18'] 348.7179487179485
70 6.9743589743589745 ['19', '40', '28', '18'] 348.7179487179485
71 6.9743589743589745 ['19', '40', '28', '18'] 348.7179487179485
72 6.9743589743589745 ['19', '40', '28', '18'] 348.7179487179485
73 6.9743589743589745 ['19', '40', '28', '18'] 348.7179487179485
74 6.9743589743589745 ['19', '40', '28', '18'] 348.7179487179485
75 6.9743589743589745 ['19', '40', '28', '18'] 348.7179487179485
76 6.9743589743589745 ['19', '40', '28', '18'] 348.7179487179485
77 6.9743589743589745 ['19', '40', '28', '18'] 348.7179487179485
78 6.9743589743589745 ['19', '40', '28', '18'] 348.7179487179485
79 6.9743589743589745 ['19', '40', '28', '18'] 348.7179487179485
80 6.9743589743589745 ['19', '40', '28', '18'] 348.7179487179485
81 6.9743589743589745 ['19', '40', '28', '18'] 348.7179487179485
82 6.9743589743589745 ['19', '40', '28', '18'] 348.7179487179485
83 6.9743589743589745 ['19', '40', '28', '18'] 348.7179487179485
84 6.9743589743589745 ['19', '40', '28', '18'] 348.7179487179485
85 6.9743589743589745 ['19', '40', '28', '18'] 348.7179487179485
86 6.9743589743589745 ['19', '40', '28', '18'] 348.7179487179485
87 6.9743589743589745 ['19', '40', '28', '18'] 348.7179487179485
88 6.9743589743589745 ['19', '40', '28', '18'] 348.7179487179485
89 6.9743589743589745 ['19', '40', '28', '18'] 348.7179487179485
90 6.9743589743589745 ['19', '40', '28', '18'] 348.7179487179485
91 6.9743589743589745 ['19', '40', '28', '18'] 348.7179487179485
92 6.9743589743589745 ['19', '40', '28', '18'] 348.7179487179485
93 6.9743589743589745 ['19', '40', '28', '18'] 348.7179487179485
94 6.9743589743589745 ['19', '40', '28', '18'] 348.7179487179485
95 6.9743589743589745 ['19', '40', '28', '18'] 348.7179487179485
96 6.9743589743589745 ['19', '40', '28', '18'] 348.7179487179485
97 6.9743589743589745 ['19', '40', '28', '18'] 348.7179487179485
98 6.9743589743589745 ['19', '40', '28', '18'] 348.7179487179485
99 6.9743589743589745 ['19', '40', '28', '18'] 348.7179487179485
100 6.9743589743589745 ['19', '40', '28', '18'] 348.7179487179485
101 6.9743589743589745 ['19', '40', '28', '18'] 348.7179487179485
102 6.9743589743589745 ['19', '40', '28', '18'] 348.7179487179485
103 6.9743589743589745 ['19', '40', '28', '18'] 348.7179487179485
104 6.9743589743589745 ['19', '40', '28', '18'] 348.7179487179485
105 6.9743589743589745 ['19', '40', '28', '18'] 348.7179487179485
106 6.9743589743589745 ['19', '40', '28', '18'] 348.7179487179485
107 6.9743589743589745 ['19', '40', '28', '18'] 348.7179487179485
108 6.9743589743589745 ['19', '40', '28', '18'] 348.7179487179485
109 6.9743589743589745 ['19', '40', '28', '18'] 348.7179487179485
110 6.9743589743589745 ['19', '40', '28', '18'] 348.7179487179485
111 6.9743589743589745 ['19', '40', '28', '18'] 348.7179487179485
112 6.9743589743589745 ['19', '40', '28', '18'] 348.7179487179485
113 6.9743589743589745 ['19', '40', '28', '18'] 348.7179487179485
114 6.9743589743589745 ['19', '40', '28', '18'] 348.7179487179485
115 6.9743589743589745 ['19', '40', '28', '18'] 348.7179487179485
116 6.9743589743589745 ['19', '40', '28', '18'] 348.7179487179485
117 6.9743589743589745 ['19', '40', '28', '18'] 348.7179487179485
118 6.9743589743589745 ['19', '40', '28', '18'] 348.7179487179485
119 6.9743589743589745 ['19', '40', '28', '18'] 348.7179487179485
120 6.9743589743589745 ['19', '40', '28', '18'] 348.7179487179485
121 6.9743589743589745 ['19', '40', '28', '18'] 348.7179487179485
122 6.9743589743589745 ['19', '40', '28', '18'] 348.7179487179485
123 6.9743589743589745 ['19', '40', '28', '18'] 348.7179487179485
124 6.9743589743589745 ['19', '40', '28', '18'] 348.7179487179485
125 6.9743589743589745 ['19', '40', '28', '18'] 348.7179487179485
126 6.9743589743589745 ['19', '40', '28', '18'] 348.7179487179485
127 6.9743589743589745 ['19', '40', '28', '18'] 348.7179487179485
128 6.9743589743589745 ['19', '40', '28', '18'] 348.7179487179485
129 6.9743589743589745 ['19', '40', '28', '18'] 348.7179487179485
130 6.9743589743589745 ['19', '40', '28', '18'] 348.7179487179485
131 6.9743589743589745 ['19', '40', '28', '18'] 348.7179487179485
132 6.9743589743589745 ['19', '40', '28', '18'] 348.7179487179485
133 6.9743589743589745 ['19', '40', '28', '18'] 348.7179487179485
134 6.9743589743589745 ['19', '40', '28', '18'] 348.7179487179485
135 6.9743589743589745 ['19', '40', '28', '18'] 348.7179487179485
136 6.9743589743589745 ['19', '40', '28', '18'] 348.7179487179485
137 6.9743589743589745 ['19', '40', '28', '18'] 348.7179487179485
138 6.9743589743589745 ['19', '40', '28', '18'] 348.7179487179485
139 6.9743589743589745 ['19', '40', '28', '18'] 348.7179487179485
140 6.9743589743589745 ['19', '40', '28', '18'] 348.7179487179485
141 6.9743589743589745 ['19', '40', '28', '18'] 348.7179487179485
142 6.9743589743589745 ['19', '40', '28', '18'] 348.7179487179485
143 6.9743589743589745 ['19', '40', '28', '18'] 348.7179487179485
144 6.9743589743589745 ['19', '40', '28', '18'] 348.7179487179485
145 6.9743589743589745 ['19', '40', '28', '18'] 348.7179487179485
146 6.9743589743589745 ['19', '40', '28', '18'] 348.7179487179485
147 6.9743589743589745 ['19', '40', '28', '18'] 348.7179487179485
148 6.9743589743589745 ['19', '40', '28', '18'] 348.7179487179485
149 6.9743589743589745 ['19', '40', '28', '18'] 348.7179487179485
150 6.9743589743589745 ['19', '40', '28', '18'] 348.7179487179485
151 6.9743589743589745 ['19', '40', '28', '18'] 348.7179487179485
152 6.9743589743589745 ['19', '40', '28', '18'] 348.7179487179485
153 6.9743589743589745 ['19', '40', '28', '18'] 348.7179487179485
154 6.9743589743589745 ['19', '40', '28', '18'] 348.7179487179485
155 6.9743589743589745 ['19', '40', '28', '18'] 348.7179487179485
156 6.9743589743589745 ['19', '40', '28', '18'] 348.7179487179485
157 6.9743589743589745 ['19', '40', '28', '18'] 348.7179487179485
158 6.9743589743589745 ['19', '40', '28', '18'] 348.7179487179485
159 6.9743589743589745 ['19', '40', '28', '18'] 348.7179487179485
160 6.9743589743589745 ['19', '40', '28', '18'] 348.7179487179485
161 6.9743589743589745 ['19', '40', '28', '18'] 348.7179487179485
162 6.9743589743589745 ['19', '40', '28', '18'] 348.7179487179485
163 6.9743589743589745 ['19', '40', '28', '18'] 348.7179487179485
164 6.9743589743589745 ['19', '40', '28', '18'] 348.7179487179485
165 6.9743589743589745 ['19', '40', '28', '18'] 348.7179487179485
166 6.9743589743589745 ['19', '40', '28', '18'] 348.7179487179485
167 6.9743589743589745 ['19', '40', '28', '18'] 348.7179487179485
168 6.9743589743589745 ['19', '40', '28', '18'] 348.7179487179485
169 6.9743589743589745 ['19', '40', '28', '18'] 348.7179487179485
170 6.9743589743589745 ['19', '40', '28', '18'] 348.7179487179485
171 6.9743589743589745 ['19', '40', '28', '18'] 348.7179487179485
172 6.9743589743589745 ['19', '40', '28', '18'] 348.7179487179485
173 6.9743589743589745 ['19', '40', '28', '18'] 348.7179487179485
174 6.9743589743589745 ['19', '40', '28', '18'] 348.7179487179485
175 6.9743589743589745 ['19', '40', '28', '18'] 348.7179487179485
176 6.9743589743589745 ['19', '40', '28', '18'] 348.7179487179485
177 6.9743589743589745 ['19', '40', '28', '18'] 348.7179487179485
178 6.9743589743589745 ['19', '40', '28', '18'] 348.7179487179485
179 6.9743589743589745 ['19', '40', '28', '18'] 348.7179487179485
180 6.9743589743589745 ['19', '40', '28', '18'] 348.7179487179485
181 6.9743589743589745 ['19', '40', '28', '18'] 348.7179487179485
182 6.9743589743589745 ['19', '40', '28', '18'] 348.7179487179485
183 6.9743589743589745 ['19', '40', '28', '18'] 348.7179487179485
184 6.9743589743589745 ['19', '40', '28', '18'] 348.7179487179485
185 6.9743589743589745 ['19', '40', '28', '18'] 348.7179487179485
186 6.9743589743589745 ['19', '40', '28', '18'] 348.7179487179485
187 6.9743589743589745 ['19', '40', '28', '18'] 348.7179487179485
188 6.9743589743589745 ['19', '40', '28', '18'] 348.7179487179485
189 6.9743589743589745 ['19', '40', '28', '18'] 348.7179487179485
190 6.9743589743589745 ['19', '40', '28', '18'] 348.7179487179485
191 6.9743589743589745 ['19', '40', '28', '18'] 348.7179487179485
192 6.9743589743589745 ['19', '40', '28', '18'] 348.7179487179485
193 6.9743589743589745 ['19', '40', '28', '18'] 348.7179487179485
194 6.9743589743589745 ['19', '40', '28', '18'] 348.7179487179485
195 6.9743589743589745 ['19', '40', '28', '18'] 348.7179487179485
196 6.9743589743589745 ['19', '40', '28', '18'] 348.7179487179485
197 6.9743589743589745 ['19', '40', '28', '18'] 348.7179487179485
198 6.9743589743589745 ['19', '40', '28', '18'] 348.7179487179485
199 6.9743589743589745 ['19', '40', '28', '18'] 348.7179487179485
