0 5.395061728395062 ['149', '68', '137', '24', '125', '121', '31', '88', '117', '119', '17', '94', '74', '126', '100'] 273.73543209876556
1 5.375432098765432 ['31', '94', '125', '103', '68', '128', '17', '20', '55', '121', '127', '16', '149', '24', '86'] 272.67407407407416
2 5.346419753086423 ['40', '70', '145', '134', '94', '105', '66', '69', '22', '80', '25', '63', '75', '96', '31'] 271.51049382716064
3 5.326666666666668 ['119', '96', '55', '145', '134', '94', '127', '128', '113', '25', '17', '31', '126', '123', '149'] 270.3355555555557
4 5.326666666666668 ['119', '96', '55', '145', '134', '94', '127', '128', '113', '25', '17', '31', '126', '123', '149'] 269.39641975308655
5 5.322716049382717 ['17', '137', '114', '105', '149', '24', '119', '100', '117', '133', '113', '94', '57', '56', '144'] 268.5970370370371
6 5.294444444444446 ['137', '94', '149', '17', '100', '117', '119', '121', '77', '126', '57', '113', '68', '133', '56'] 268.1071604938273
7 5.279506172839507 ['137', '57', '105', '69', '125', '149', '68', '113', '100', '119', '133', '145', '40', '117', '31'] 267.3880246913582
8 5.269753086419757 ['94', '119', '113', '149', '17', '133', '128', '117', '134', '145', '25', '55', '57', '137', '24'] 266.7687654320989
9 5.2659259259259255 ['17', '119', '113', '94', '149', '134', '56', '137', '96', '127', '128', '126', '133', '105', '57'] 266.0340740740741
10 5.237037037037039 ['113', '117', '150', '127', '17', '132', '100', '94', '137', '134', '73', '104', '126', '123', '108'] 265.198888888889
11 5.198765432098767 ['127', '137', '117', '17', '126', '113', '56', '94', '139', '121', '68', '63', '74', '100', '143'] 264.2891358024692
12 5.198765432098767 ['127', '137', '117', '17', '126', '113', '56', '94', '139', '121', '68', '63', '74', '100', '143'] 263.39456790123467
13 5.198765432098767 ['127', '137', '117', '17', '126', '113', '56', '94', '139', '121', '68', '63', '74', '100', '143'] 262.56839506172855
14 5.184567901234573 ['134', '133', '149', '68', '113', '137', '105', '57', '127', '94', '17', '117', '56', '128', '121'] 261.6127160493828
15 5.184567901234573 ['134', '133', '149', '68', '113', '137', '105', '57', '127', '94', '17', '117', '56', '128', '121'] 261.1469135802471
16 5.170123456790124 ['133', '127', '113', '57', '94', '68', '105', '17', '137', '100', '117', '119', '126', '121', '134'] 260.3925925925927
17 5.157160493827161 ['121', '133', '105', '68', '17', '137', '94', '117', '57', '127', '126', '113', '134', '128', '119'] 259.68530864197527
18 5.153456790123461 ['68', '94', '137', '133', '17', '105', '113', '127', '128', '57', '117', '121', '146', '144', '134'] 258.97555555555573
19 5.1518518518518555 ['105', '94', '133', '127', '134', '17', '57', '121', '117', '68', '113', '137', '126', '149', '145'] 258.58098765432106
20 5.150000000000003 ['117', '68', '121', '57', '17', '134', '105', '137', '113', '127', '128', '133', '55', '94', '69'] 258.17432098765437
21 5.141111111111115 ['149', '117', '137', '57', '105', '133', '121', '68', '127', '128', '113', '134', '94', '126', '69'] 257.8433333333334
22 5.136790123456792 ['133', '68', '126', '128', '117', '113', '121', '127', '94', '134', '57', '105', '137', '69', '17'] 257.64580246913596
23 5.136790123456792 ['133', '68', '126', '128', '117', '113', '121', '127', '94', '134', '57', '105', '137', '69', '17'] 257.403827160494
24 5.136790123456792 ['133', '68', '126', '128', '117', '113', '121', '127', '94', '134', '57', '105', '137', '69', '17'] 257.1730864197533
25 5.136790123456792 ['133', '68', '126', '128', '117', '113', '121', '127', '94', '134', '57', '105', '137', '69', '17'] 256.8974074074075
26 5.136790123456792 ['133', '68', '126', '128', '117', '113', '121', '127', '94', '134', '57', '105', '137', '69', '17'] 256.8395061728396
27 5.136790123456792 ['133', '68', '126', '128', '117', '113', '121', '127', '94', '134', '57', '105', '137', '69', '17'] 256.8395061728396
28 5.136790123456792 ['133', '68', '126', '128', '117', '113', '121', '127', '94', '134', '57', '105', '137', '69', '17'] 256.8395061728396
29 5.136790123456792 ['133', '68', '126', '128', '117', '113', '121', '127', '94', '134', '57', '105', '137', '69', '17'] 256.8395061728396
30 5.136790123456792 ['133', '68', '126', '128', '117', '113', '121', '127', '94', '134', '57', '105', '137', '69', '17'] 256.8395061728396
31 5.136790123456792 ['133', '68', '126', '128', '117', '113', '121', '127', '94', '134', '57', '105', '137', '69', '17'] 256.8395061728396
32 5.136790123456792 ['133', '68', '126', '128', '117', '113', '121', '127', '94', '134', '57', '105', '137', '69', '17'] 256.8395061728396
33 5.136790123456792 ['133', '68', '126', '128', '117', '113', '121', '127', '94', '134', '57', '105', '137', '69', '17'] 256.8395061728396
34 5.136790123456792 ['133', '68', '126', '128', '117', '113', '121', '127', '94', '134', '57', '105', '137', '69', '17'] 256.8395061728396
35 5.136790123456792 ['133', '68', '126', '128', '117', '113', '121', '127', '94', '134', '57', '105', '137', '69', '17'] 256.8395061728396
36 5.136790123456792 ['133', '68', '126', '128', '117', '113', '121', '127', '94', '134', '57', '105', '137', '69', '17'] 256.8395061728396
37 5.136790123456792 ['133', '68', '126', '128', '117', '113', '121', '127', '94', '134', '57', '105', '137', '69', '17'] 256.8395061728396
38 5.136790123456792 ['133', '68', '126', '128', '117', '113', '121', '127', '94', '134', '57', '105', '137', '69', '17'] 256.8395061728396
39 5.136790123456792 ['133', '68', '126', '128', '117', '113', '121', '127', '94', '134', '57', '105', '137', '69', '17'] 256.8395061728396
40 5.136790123456792 ['133', '68', '126', '128', '117', '113', '121', '127', '94', '134', '57', '105', '137', '69', '17'] 256.8395061728396
41 5.136790123456792 ['133', '68', '126', '128', '117', '113', '121', '127', '94', '134', '57', '105', '137', '69', '17'] 256.8395061728396
42 5.136790123456792 ['133', '68', '126', '128', '117', '113', '121', '127', '94', '134', '57', '105', '137', '69', '17'] 256.8395061728396
43 5.136790123456792 ['133', '68', '126', '128', '117', '113', '121', '127', '94', '134', '57', '105', '137', '69', '17'] 256.8395061728396
44 5.136790123456792 ['133', '68', '126', '128', '117', '113', '121', '127', '94', '134', '57', '105', '137', '69', '17'] 256.8395061728396
45 5.136790123456792 ['133', '68', '126', '128', '117', '113', '121', '127', '94', '134', '57', '105', '137', '69', '17'] 256.8395061728396
46 5.136790123456792 ['133', '68', '126', '128', '117', '113', '121', '127', '94', '134', '57', '105', '137', '69', '17'] 256.8395061728396
47 5.136790123456792 ['133', '68', '126', '128', '117', '113', '121', '127', '94', '134', '57', '105', '137', '69', '17'] 256.8395061728396
48 5.136790123456792 ['133', '68', '126', '128', '117', '113', '121', '127', '94', '134', '57', '105', '137', '69', '17'] 256.8395061728396
49 5.136790123456792 ['133', '68', '126', '128', '117', '113', '121', '127', '94', '134', '57', '105', '137', '69', '17'] 256.8395061728396
50 5.136790123456792 ['133', '68', '126', '128', '117', '113', '121', '127', '94', '134', '57', '105', '137', '69', '17'] 256.8395061728396
51 5.136790123456792 ['133', '68', '126', '128', '117', '113', '121', '127', '94', '134', '57', '105', '137', '69', '17'] 256.8395061728396
52 5.136790123456792 ['133', '68', '126', '128', '117', '113', '121', '127', '94', '134', '57', '105', '137', '69', '17'] 256.8395061728396
53 5.136790123456792 ['133', '68', '126', '128', '117', '113', '121', '127', '94', '134', '57', '105', '137', '69', '17'] 256.8395061728396
54 5.136790123456792 ['133', '68', '126', '128', '117', '113', '121', '127', '94', '134', '57', '105', '137', '69', '17'] 256.8395061728396
55 5.136790123456792 ['133', '68', '126', '128', '117', '113', '121', '127', '94', '134', '57', '105', '137', '69', '17'] 256.8395061728396
56 5.136790123456792 ['133', '68', '126', '128', '117', '113', '121', '127', '94', '134', '57', '105', '137', '69', '17'] 256.8395061728396
57 5.136790123456792 ['133', '68', '126', '128', '117', '113', '121', '127', '94', '134', '57', '105', '137', '69', '17'] 256.8395061728396
58 5.136790123456792 ['133', '68', '126', '128', '117', '113', '121', '127', '94', '134', '57', '105', '137', '69', '17'] 256.8395061728396
59 5.136790123456792 ['133', '68', '126', '128', '117', '113', '121', '127', '94', '134', '57', '105', '137', '69', '17'] 256.8395061728396
60 5.136790123456792 ['133', '68', '126', '128', '117', '113', '121', '127', '94', '134', '57', '105', '137', '69', '17'] 256.8395061728396
61 5.136790123456792 ['133', '68', '126', '128', '117', '113', '121', '127', '94', '134', '57', '105', '137', '69', '17'] 256.8395061728396
62 5.136790123456792 ['133', '68', '126', '128', '117', '113', '121', '127', '94', '134', '57', '105', '137', '69', '17'] 256.8395061728396
63 5.136790123456792 ['133', '68', '126', '128', '117', '113', '121', '127', '94', '134', '57', '105', '137', '69', '17'] 256.8395061728396
64 5.136790123456792 ['133', '68', '126', '128', '117', '113', '121', '127', '94', '134', '57', '105', '137', '69', '17'] 256.8395061728396
65 5.136790123456792 ['133', '68', '126', '128', '117', '113', '121', '127', '94', '134', '57', '105', '137', '69', '17'] 256.8395061728396
66 5.136790123456792 ['133', '68', '126', '128', '117', '113', '121', '127', '94', '134', '57', '105', '137', '69', '17'] 256.8395061728396
67 5.136790123456792 ['133', '68', '126', '128', '117', '113', '121', '127', '94', '134', '57', '105', '137', '69', '17'] 256.8395061728396
68 5.136790123456792 ['133', '68', '126', '128', '117', '113', '121', '127', '94', '134', '57', '105', '137', '69', '17'] 256.8395061728396
69 5.136790123456792 ['133', '68', '126', '128', '117', '113', '121', '127', '94', '134', '57', '105', '137', '69', '17'] 256.8395061728396
70 5.136790123456792 ['133', '68', '126', '128', '117', '113', '121', '127', '94', '134', '57', '105', '137', '69', '17'] 256.8395061728396
71 5.136790123456792 ['133', '68', '126', '128', '117', '113', '121', '127', '94', '134', '57', '105', '137', '69', '17'] 256.8395061728396
72 5.136790123456792 ['133', '68', '126', '128', '117', '113', '121', '127', '94', '134', '57', '105', '137', '69', '17'] 256.8395061728396
73 5.136790123456792 ['133', '68', '126', '128', '117', '113', '121', '127', '94', '134', '57', '105', '137', '69', '17'] 256.8395061728396
74 5.136790123456792 ['133', '68', '126', '128', '117', '113', '121', '127', '94', '134', '57', '105', '137', '69', '17'] 256.8395061728396
75 5.136790123456792 ['133', '68', '126', '128', '117', '113', '121', '127', '94', '134', '57', '105', '137', '69', '17'] 256.8395061728396
76 5.136790123456792 ['133', '68', '126', '128', '117', '113', '121', '127', '94', '134', '57', '105', '137', '69', '17'] 256.8395061728396
77 5.136790123456792 ['133', '68', '126', '128', '117', '113', '121', '127', '94', '134', '57', '105', '137', '69', '17'] 256.8395061728396
78 5.136790123456792 ['133', '68', '126', '128', '117', '113', '121', '127', '94', '134', '57', '105', '137', '69', '17'] 256.8395061728396
79 5.136790123456792 ['133', '68', '126', '128', '117', '113', '121', '127', '94', '134', '57', '105', '137', '69', '17'] 256.8395061728396
80 5.136790123456792 ['133', '68', '126', '128', '117', '113', '121', '127', '94', '134', '57', '105', '137', '69', '17'] 256.8395061728396
81 5.136790123456792 ['133', '68', '126', '128', '117', '113', '121', '127', '94', '134', '57', '105', '137', '69', '17'] 256.8395061728396
82 5.136790123456792 ['133', '68', '126', '128', '117', '113', '121', '127', '94', '134', '57', '105', '137', '69', '17'] 256.8395061728396
83 5.136790123456792 ['133', '68', '126', '128', '117', '113', '121', '127', '94', '134', '57', '105', '137', '69', '17'] 256.8395061728396
84 5.136790123456792 ['133', '68', '126', '128', '117', '113', '121', '127', '94', '134', '57', '105', '137', '69', '17'] 256.8395061728396
85 5.136790123456792 ['133', '68', '126', '128', '117', '113', '121', '127', '94', '134', '57', '105', '137', '69', '17'] 256.8395061728396
86 5.136790123456792 ['133', '68', '126', '128', '117', '113', '121', '127', '94', '134', '57', '105', '137', '69', '17'] 256.8395061728396
87 5.136790123456792 ['133', '68', '126', '128', '117', '113', '121', '127', '94', '134', '57', '105', '137', '69', '17'] 256.8395061728396
88 5.136790123456792 ['133', '68', '126', '128', '117', '113', '121', '127', '94', '134', '57', '105', '137', '69', '17'] 256.8395061728396
89 5.136790123456792 ['133', '68', '126', '128', '117', '113', '121', '127', '94', '134', '57', '105', '137', '69', '17'] 256.8395061728396
90 5.136790123456792 ['133', '68', '126', '128', '117', '113', '121', '127', '94', '134', '57', '105', '137', '69', '17'] 256.8395061728396
91 5.136790123456792 ['133', '68', '126', '128', '117', '113', '121', '127', '94', '134', '57', '105', '137', '69', '17'] 256.8395061728396
92 5.136790123456792 ['133', '68', '126', '128', '117', '113', '121', '127', '94', '134', '57', '105', '137', '69', '17'] 256.8395061728396
93 5.136790123456792 ['133', '68', '126', '128', '117', '113', '121', '127', '94', '134', '57', '105', '137', '69', '17'] 256.8395061728396
94 5.136790123456792 ['133', '68', '126', '128', '117', '113', '121', '127', '94', '134', '57', '105', '137', '69', '17'] 256.8395061728396
95 5.136790123456792 ['133', '68', '126', '128', '117', '113', '121', '127', '94', '134', '57', '105', '137', '69', '17'] 256.8395061728396
96 5.136790123456792 ['133', '68', '126', '128', '117', '113', '121', '127', '94', '134', '57', '105', '137', '69', '17'] 256.8395061728396
97 5.136790123456792 ['133', '68', '126', '128', '117', '113', '121', '127', '94', '134', '57', '105', '137', '69', '17'] 256.8395061728396
98 5.136790123456792 ['133', '68', '126', '128', '117', '113', '121', '127', '94', '134', '57', '105', '137', '69', '17'] 256.8395061728396
99 5.136790123456792 ['133', '68', '126', '128', '117', '113', '121', '127', '94', '134', '57', '105', '137', '69', '17'] 256.8395061728396
100 5.136790123456792 ['133', '68', '126', '128', '117', '113', '121', '127', '94', '134', '57', '105', '137', '69', '17'] 256.8395061728396
101 5.136790123456792 ['133', '68', '126', '128', '117', '113', '121', '127', '94', '134', '57', '105', '137', '69', '17'] 256.8395061728396
102 5.136790123456792 ['133', '68', '126', '128', '117', '113', '121', '127', '94', '134', '57', '105', '137', '69', '17'] 256.8395061728396
103 5.136790123456792 ['133', '68', '126', '128', '117', '113', '121', '127', '94', '134', '57', '105', '137', '69', '17'] 256.8395061728396
104 5.136790123456792 ['133', '68', '126', '128', '117', '113', '121', '127', '94', '134', '57', '105', '137', '69', '17'] 256.8395061728396
105 5.136790123456792 ['133', '68', '126', '128', '117', '113', '121', '127', '94', '134', '57', '105', '137', '69', '17'] 256.8395061728396
106 5.136790123456792 ['133', '68', '126', '128', '117', '113', '121', '127', '94', '134', '57', '105', '137', '69', '17'] 256.8395061728396
107 5.136790123456792 ['133', '68', '126', '128', '117', '113', '121', '127', '94', '134', '57', '105', '137', '69', '17'] 256.8395061728396
108 5.136790123456792 ['133', '68', '126', '128', '117', '113', '121', '127', '94', '134', '57', '105', '137', '69', '17'] 256.8395061728396
109 5.136790123456792 ['133', '68', '126', '128', '117', '113', '121', '127', '94', '134', '57', '105', '137', '69', '17'] 256.8395061728396
110 5.136790123456792 ['133', '68', '126', '128', '117', '113', '121', '127', '94', '134', '57', '105', '137', '69', '17'] 256.8395061728396
111 5.136790123456792 ['133', '68', '126', '128', '117', '113', '121', '127', '94', '134', '57', '105', '137', '69', '17'] 256.8395061728396
112 5.136790123456792 ['133', '68', '126', '128', '117', '113', '121', '127', '94', '134', '57', '105', '137', '69', '17'] 256.8395061728396
113 5.136790123456792 ['133', '68', '126', '128', '117', '113', '121', '127', '94', '134', '57', '105', '137', '69', '17'] 256.8395061728396
114 5.136790123456792 ['133', '68', '126', '128', '117', '113', '121', '127', '94', '134', '57', '105', '137', '69', '17'] 256.8395061728396
115 5.136790123456792 ['133', '68', '126', '128', '117', '113', '121', '127', '94', '134', '57', '105', '137', '69', '17'] 256.8395061728396
116 5.136790123456792 ['133', '68', '126', '128', '117', '113', '121', '127', '94', '134', '57', '105', '137', '69', '17'] 256.8395061728396
117 5.136790123456792 ['133', '68', '126', '128', '117', '113', '121', '127', '94', '134', '57', '105', '137', '69', '17'] 256.8395061728396
118 5.136790123456792 ['133', '68', '126', '128', '117', '113', '121', '127', '94', '134', '57', '105', '137', '69', '17'] 256.8395061728396
119 5.136790123456792 ['133', '68', '126', '128', '117', '113', '121', '127', '94', '134', '57', '105', '137', '69', '17'] 256.8395061728396
120 5.136790123456792 ['133', '68', '126', '128', '117', '113', '121', '127', '94', '134', '57', '105', '137', '69', '17'] 256.8395061728396
121 5.136790123456792 ['133', '68', '126', '128', '117', '113', '121', '127', '94', '134', '57', '105', '137', '69', '17'] 256.8395061728396
122 5.136790123456792 ['133', '68', '126', '128', '117', '113', '121', '127', '94', '134', '57', '105', '137', '69', '17'] 256.8395061728396
123 5.136790123456792 ['133', '68', '126', '128', '117', '113', '121', '127', '94', '134', '57', '105', '137', '69', '17'] 256.8395061728396
124 5.136790123456792 ['133', '68', '126', '128', '117', '113', '121', '127', '94', '134', '57', '105', '137', '69', '17'] 256.8395061728396
125 5.136790123456792 ['133', '68', '126', '128', '117', '113', '121', '127', '94', '134', '57', '105', '137', '69', '17'] 256.8395061728396
126 5.136790123456792 ['133', '68', '126', '128', '117', '113', '121', '127', '94', '134', '57', '105', '137', '69', '17'] 256.8395061728396
127 5.136790123456792 ['133', '68', '126', '128', '117', '113', '121', '127', '94', '134', '57', '105', '137', '69', '17'] 256.8395061728396
128 5.136790123456792 ['133', '68', '126', '128', '117', '113', '121', '127', '94', '134', '57', '105', '137', '69', '17'] 256.8395061728396
129 5.136790123456792 ['133', '68', '126', '128', '117', '113', '121', '127', '94', '134', '57', '105', '137', '69', '17'] 256.8395061728396
130 5.136790123456792 ['133', '68', '126', '128', '117', '113', '121', '127', '94', '134', '57', '105', '137', '69', '17'] 256.8395061728396
131 5.136790123456792 ['133', '68', '126', '128', '117', '113', '121', '127', '94', '134', '57', '105', '137', '69', '17'] 256.8395061728396
132 5.136790123456792 ['133', '68', '126', '128', '117', '113', '121', '127', '94', '134', '57', '105', '137', '69', '17'] 256.8395061728396
133 5.136790123456792 ['133', '68', '126', '128', '117', '113', '121', '127', '94', '134', '57', '105', '137', '69', '17'] 256.8395061728396
134 5.136790123456792 ['133', '68', '126', '128', '117', '113', '121', '127', '94', '134', '57', '105', '137', '69', '17'] 256.8395061728396
135 5.136790123456792 ['133', '68', '126', '128', '117', '113', '121', '127', '94', '134', '57', '105', '137', '69', '17'] 256.8395061728396
136 5.136790123456792 ['133', '68', '126', '128', '117', '113', '121', '127', '94', '134', '57', '105', '137', '69', '17'] 256.8395061728396
137 5.136790123456792 ['133', '68', '126', '128', '117', '113', '121', '127', '94', '134', '57', '105', '137', '69', '17'] 256.8395061728396
138 5.136790123456792 ['133', '68', '126', '128', '117', '113', '121', '127', '94', '134', '57', '105', '137', '69', '17'] 256.8395061728396
139 5.136790123456792 ['133', '68', '126', '128', '117', '113', '121', '127', '94', '134', '57', '105', '137', '69', '17'] 256.8395061728396
140 5.136790123456792 ['133', '68', '126', '128', '117', '113', '121', '127', '94', '134', '57', '105', '137', '69', '17'] 256.8395061728396
141 5.136790123456792 ['133', '68', '126', '128', '117', '113', '121', '127', '94', '134', '57', '105', '137', '69', '17'] 256.8395061728396
142 5.136790123456792 ['133', '68', '126', '128', '117', '113', '121', '127', '94', '134', '57', '105', '137', '69', '17'] 256.8395061728396
143 5.136790123456792 ['133', '68', '126', '128', '117', '113', '121', '127', '94', '134', '57', '105', '137', '69', '17'] 256.8395061728396
144 5.136790123456792 ['133', '68', '126', '128', '117', '113', '121', '127', '94', '134', '57', '105', '137', '69', '17'] 256.8395061728396
145 5.136790123456792 ['133', '68', '126', '128', '117', '113', '121', '127', '94', '134', '57', '105', '137', '69', '17'] 256.8395061728396
146 5.136790123456792 ['133', '68', '126', '128', '117', '113', '121', '127', '94', '134', '57', '105', '137', '69', '17'] 256.8395061728396
147 5.136790123456792 ['133', '68', '126', '128', '117', '113', '121', '127', '94', '134', '57', '105', '137', '69', '17'] 256.8395061728396
148 5.136790123456792 ['133', '68', '126', '128', '117', '113', '121', '127', '94', '134', '57', '105', '137', '69', '17'] 256.8395061728396
149 5.136790123456792 ['133', '68', '126', '128', '117', '113', '121', '127', '94', '134', '57', '105', '137', '69', '17'] 256.8395061728396
150 5.136790123456792 ['133', '68', '126', '128', '117', '113', '121', '127', '94', '134', '57', '105', '137', '69', '17'] 256.8395061728396
151 5.136790123456792 ['133', '68', '126', '128', '117', '113', '121', '127', '94', '134', '57', '105', '137', '69', '17'] 256.8395061728396
152 5.136790123456792 ['133', '68', '126', '128', '117', '113', '121', '127', '94', '134', '57', '105', '137', '69', '17'] 256.8395061728396
153 5.136790123456792 ['133', '68', '126', '128', '117', '113', '121', '127', '94', '134', '57', '105', '137', '69', '17'] 256.8395061728396
154 5.136790123456792 ['133', '68', '126', '128', '117', '113', '121', '127', '94', '134', '57', '105', '137', '69', '17'] 256.8395061728396
155 5.136790123456792 ['133', '68', '126', '128', '117', '113', '121', '127', '94', '134', '57', '105', '137', '69', '17'] 256.8395061728396
156 5.136790123456792 ['133', '68', '126', '128', '117', '113', '121', '127', '94', '134', '57', '105', '137', '69', '17'] 256.8395061728396
157 5.136790123456792 ['133', '68', '126', '128', '117', '113', '121', '127', '94', '134', '57', '105', '137', '69', '17'] 256.8395061728396
158 5.136790123456792 ['133', '68', '126', '128', '117', '113', '121', '127', '94', '134', '57', '105', '137', '69', '17'] 256.8395061728396
159 5.136790123456792 ['133', '68', '126', '128', '117', '113', '121', '127', '94', '134', '57', '105', '137', '69', '17'] 256.8395061728396
160 5.136790123456792 ['133', '68', '126', '128', '117', '113', '121', '127', '94', '134', '57', '105', '137', '69', '17'] 256.8395061728396
161 5.136790123456792 ['133', '68', '126', '128', '117', '113', '121', '127', '94', '134', '57', '105', '137', '69', '17'] 256.8395061728396
162 5.136790123456792 ['133', '68', '126', '128', '117', '113', '121', '127', '94', '134', '57', '105', '137', '69', '17'] 256.8395061728396
163 5.136790123456792 ['133', '68', '126', '128', '117', '113', '121', '127', '94', '134', '57', '105', '137', '69', '17'] 256.8395061728396
164 5.136790123456792 ['133', '68', '126', '128', '117', '113', '121', '127', '94', '134', '57', '105', '137', '69', '17'] 256.8395061728396
165 5.136790123456792 ['133', '68', '126', '128', '117', '113', '121', '127', '94', '134', '57', '105', '137', '69', '17'] 256.8395061728396
166 5.136790123456792 ['133', '68', '126', '128', '117', '113', '121', '127', '94', '134', '57', '105', '137', '69', '17'] 256.8395061728396
167 5.136790123456792 ['133', '68', '126', '128', '117', '113', '121', '127', '94', '134', '57', '105', '137', '69', '17'] 256.8395061728396
168 5.136790123456792 ['133', '68', '126', '128', '117', '113', '121', '127', '94', '134', '57', '105', '137', '69', '17'] 256.8395061728396
169 5.136790123456792 ['133', '68', '126', '128', '117', '113', '121', '127', '94', '134', '57', '105', '137', '69', '17'] 256.8395061728396
170 5.136790123456792 ['133', '68', '126', '128', '117', '113', '121', '127', '94', '134', '57', '105', '137', '69', '17'] 256.8395061728396
171 5.136790123456792 ['133', '68', '126', '128', '117', '113', '121', '127', '94', '134', '57', '105', '137', '69', '17'] 256.8395061728396
172 5.136790123456792 ['133', '68', '126', '128', '117', '113', '121', '127', '94', '134', '57', '105', '137', '69', '17'] 256.8395061728396
173 5.136790123456792 ['133', '68', '126', '128', '117', '113', '121', '127', '94', '134', '57', '105', '137', '69', '17'] 256.8395061728396
174 5.136790123456792 ['133', '68', '126', '128', '117', '113', '121', '127', '94', '134', '57', '105', '137', '69', '17'] 256.8395061728396
175 5.136790123456792 ['133', '68', '126', '128', '117', '113', '121', '127', '94', '134', '57', '105', '137', '69', '17'] 256.8395061728396
176 5.136790123456792 ['133', '68', '126', '128', '117', '113', '121', '127', '94', '134', '57', '105', '137', '69', '17'] 256.8395061728396
177 5.136790123456792 ['133', '68', '126', '128', '117', '113', '121', '127', '94', '134', '57', '105', '137', '69', '17'] 256.8395061728396
178 5.136790123456792 ['133', '68', '126', '128', '117', '113', '121', '127', '94', '134', '57', '105', '137', '69', '17'] 256.8395061728396
179 5.136790123456792 ['133', '68', '126', '128', '117', '113', '121', '127', '94', '134', '57', '105', '137', '69', '17'] 256.8395061728396
180 5.136790123456792 ['133', '68', '126', '128', '117', '113', '121', '127', '94', '134', '57', '105', '137', '69', '17'] 256.8395061728396
181 5.136790123456792 ['133', '68', '126', '128', '117', '113', '121', '127', '94', '134', '57', '105', '137', '69', '17'] 256.8395061728396
182 5.136790123456792 ['133', '68', '126', '128', '117', '113', '121', '127', '94', '134', '57', '105', '137', '69', '17'] 256.8395061728396
183 5.136790123456792 ['133', '68', '126', '128', '117', '113', '121', '127', '94', '134', '57', '105', '137', '69', '17'] 256.8395061728396
184 5.136790123456792 ['133', '68', '126', '128', '117', '113', '121', '127', '94', '134', '57', '105', '137', '69', '17'] 256.8395061728396
185 5.136790123456792 ['133', '68', '126', '128', '117', '113', '121', '127', '94', '134', '57', '105', '137', '69', '17'] 256.8395061728396
186 5.136790123456792 ['133', '68', '126', '128', '117', '113', '121', '127', '94', '134', '57', '105', '137', '69', '17'] 256.8395061728396
187 5.136790123456792 ['133', '68', '126', '128', '117', '113', '121', '127', '94', '134', '57', '105', '137', '69', '17'] 256.8395061728396
188 5.136790123456792 ['133', '68', '126', '128', '117', '113', '121', '127', '94', '134', '57', '105', '137', '69', '17'] 256.8395061728396
189 5.136790123456792 ['133', '68', '126', '128', '117', '113', '121', '127', '94', '134', '57', '105', '137', '69', '17'] 256.8395061728396
190 5.136790123456792 ['133', '68', '126', '128', '117', '113', '121', '127', '94', '134', '57', '105', '137', '69', '17'] 256.8395061728396
191 5.136790123456792 ['133', '68', '126', '128', '117', '113', '121', '127', '94', '134', '57', '105', '137', '69', '17'] 256.8395061728396
192 5.136790123456792 ['133', '68', '126', '128', '117', '113', '121', '127', '94', '134', '57', '105', '137', '69', '17'] 256.8395061728396
193 5.136790123456792 ['133', '68', '126', '128', '117', '113', '121', '127', '94', '134', '57', '105', '137', '69', '17'] 256.8395061728396
194 5.136790123456792 ['133', '68', '126', '128', '117', '113', '121', '127', '94', '134', '57', '105', '137', '69', '17'] 256.8395061728396
195 5.136790123456792 ['133', '68', '126', '128', '117', '113', '121', '127', '94', '134', '57', '105', '137', '69', '17'] 256.8395061728396
196 5.136790123456792 ['133', '68', '126', '128', '117', '113', '121', '127', '94', '134', '57', '105', '137', '69', '17'] 256.8395061728396
197 5.136790123456792 ['133', '68', '126', '128', '117', '113', '121', '127', '94', '134', '57', '105', '137', '69', '17'] 256.8395061728396
198 5.136790123456792 ['133', '68', '126', '128', '117', '113', '121', '127', '94', '134', '57', '105', '137', '69', '17'] 256.8395061728396
199 5.136790123456792 ['133', '68', '126', '128', '117', '113', '121', '127', '94', '134', '57', '105', '137', '69', '17'] 256.8395061728396
