0 33.19298245614035 ['46', '8', '30', '14', '48', '63'] 1929.2631578947367
1 32.8421052631579 ['11', '19', '63', '46', '60', '8'] 1862.5263157894744
2 32.280701754385966 ['8', '26', '34', '46', '51', '41'] 1796.0701754385962
3 32.280701754385966 ['8', '26', '34', '46', '51', '41'] 1732.4912280701747
4 30.526315789473685 ['45', '8', '3', '41', '14', '34'] 1676.140350877194
5 30.526315789473685 ['45', '8', '3', '41', '14', '34'] 1627.508771929825
6 29.964912280701753 ['8', '34', '41', '45', '46', '3'] 1582.666666666666
7 28.63157894736842 ['3', '46', '34', '8', '41', '19'] 1531.8596491228072
8 28.350877192982455 ['41', '3', '8', '19', '40', '34'] 1495.7894736842109
9 27.92982456140351 ['34', '8', '3', '46', '40', '41'] 1466.5964912280715
10 27.92982456140351 ['34', '8', '3', '46', '40', '41'] 1440.1403508771941
11 27.92982456140351 ['34', '8', '3', '46', '40', '41'] 1421.3333333333323
12 27.92982456140351 ['34', '8', '3', '46', '40', '41'] 1408.4210526315778
13 27.92982456140351 ['34', '8', '3', '46', '40', '41'] 1396.491228070177
14 27.92982456140351 ['34', '8', '3', '46', '40', '41'] 1396.491228070177
15 27.92982456140351 ['34', '8', '3', '46', '40', '41'] 1396.491228070177
16 27.92982456140351 ['34', '8', '3', '46', '40', '41'] 1396.491228070177
17 27.92982456140351 ['34', '8', '3', '46', '40', '41'] 1396.491228070177
18 27.92982456140351 ['34', '8', '3', '46', '40', '41'] 1396.491228070177
19 27.92982456140351 ['34', '8', '3', '46', '40', '41'] 1396.491228070177
20 27.92982456140351 ['34', '8', '3', '46', '40', '41'] 1396.491228070177
21 27.92982456140351 ['34', '8', '3', '46', '40', '41'] 1396.491228070177
22 27.92982456140351 ['34', '8', '3', '46', '40', '41'] 1396.491228070177
23 27.92982456140351 ['34', '8', '3', '46', '40', '41'] 1396.491228070177
24 27.92982456140351 ['34', '8', '3', '46', '40', '41'] 1396.491228070177
25 27.92982456140351 ['34', '8', '3', '46', '40', '41'] 1396.491228070177
26 27.92982456140351 ['34', '8', '3', '46', '40', '41'] 1396.491228070177
27 27.92982456140351 ['34', '8', '3', '46', '40', '41'] 1396.491228070177
28 27.92982456140351 ['34', '8', '3', '46', '40', '41'] 1396.491228070177
29 27.92982456140351 ['34', '8', '3', '46', '40', '41'] 1396.491228070177
30 27.92982456140351 ['34', '8', '3', '46', '40', '41'] 1396.491228070177
31 27.92982456140351 ['34', '8', '3', '46', '40', '41'] 1396.491228070177
32 27.92982456140351 ['34', '8', '3', '46', '40', '41'] 1396.491228070177
33 27.92982456140351 ['34', '8', '3', '46', '40', '41'] 1396.491228070177
34 27.92982456140351 ['34', '8', '3', '46', '40', '41'] 1396.491228070177
35 27.92982456140351 ['34', '8', '3', '46', '40', '41'] 1396.491228070177
36 27.92982456140351 ['34', '8', '3', '46', '40', '41'] 1396.491228070177
37 27.92982456140351 ['34', '8', '3', '46', '40', '41'] 1396.491228070177
38 27.92982456140351 ['34', '8', '3', '46', '40', '41'] 1396.491228070177
39 27.92982456140351 ['34', '8', '3', '46', '40', '41'] 1396.491228070177
40 27.92982456140351 ['34', '8', '3', '46', '40', '41'] 1396.491228070177
41 27.92982456140351 ['34', '8', '3', '46', '40', '41'] 1396.491228070177
42 27.92982456140351 ['34', '8', '3', '46', '40', '41'] 1396.491228070177
43 27.92982456140351 ['34', '8', '3', '46', '40', '41'] 1396.491228070177
44 27.92982456140351 ['34', '8', '3', '46', '40', '41'] 1396.491228070177
45 27.92982456140351 ['34', '8', '3', '46', '40', '41'] 1396.491228070177
46 27.92982456140351 ['34', '8', '3', '46', '40', '41'] 1396.491228070177
47 27.92982456140351 ['34', '8', '3', '46', '40', '41'] 1396.491228070177
48 27.92982456140351 ['34', '8', '3', '46', '40', '41'] 1396.491228070177
49 27.92982456140351 ['34', '8', '3', '46', '40', '41'] 1396.491228070177
50 27.92982456140351 ['34', '8', '3', '46', '40', '41'] 1396.491228070177
51 27.92982456140351 ['34', '8', '3', '46', '40', '41'] 1396.491228070177
52 27.92982456140351 ['34', '8', '3', '46', '40', '41'] 1396.491228070177
53 27.92982456140351 ['34', '8', '3', '46', '40', '41'] 1396.491228070177
54 27.92982456140351 ['34', '8', '3', '46', '40', '41'] 1396.491228070177
55 27.92982456140351 ['34', '8', '3', '46', '40', '41'] 1396.491228070177
56 27.92982456140351 ['34', '8', '3', '46', '40', '41'] 1396.491228070177
57 27.92982456140351 ['34', '8', '3', '46', '40', '41'] 1396.491228070177
58 27.92982456140351 ['34', '8', '3', '46', '40', '41'] 1396.491228070177
59 27.92982456140351 ['34', '8', '3', '46', '40', '41'] 1396.491228070177
60 27.92982456140351 ['34', '8', '3', '46', '40', '41'] 1396.491228070177
61 27.92982456140351 ['34', '8', '3', '46', '40', '41'] 1396.491228070177
62 27.92982456140351 ['34', '8', '3', '46', '40', '41'] 1396.491228070177
63 27.92982456140351 ['34', '8', '3', '46', '40', '41'] 1396.491228070177
64 27.92982456140351 ['34', '8', '3', '46', '40', '41'] 1396.491228070177
65 27.92982456140351 ['34', '8', '3', '46', '40', '41'] 1396.491228070177
66 27.92982456140351 ['34', '8', '3', '46', '40', '41'] 1396.491228070177
67 27.92982456140351 ['34', '8', '3', '46', '40', '41'] 1396.491228070177
68 27.92982456140351 ['34', '8', '3', '46', '40', '41'] 1396.491228070177
69 27.92982456140351 ['34', '8', '3', '46', '40', '41'] 1396.491228070177
70 27.92982456140351 ['34', '8', '3', '46', '40', '41'] 1396.491228070177
71 27.92982456140351 ['34', '8', '3', '46', '40', '41'] 1396.491228070177
72 27.92982456140351 ['34', '8', '3', '46', '40', '41'] 1396.491228070177
73 27.92982456140351 ['34', '8', '3', '46', '40', '41'] 1396.491228070177
74 27.92982456140351 ['34', '8', '3', '46', '40', '41'] 1396.491228070177
75 27.92982456140351 ['34', '8', '3', '46', '40', '41'] 1396.491228070177
76 27.92982456140351 ['34', '8', '3', '46', '40', '41'] 1396.491228070177
77 27.92982456140351 ['34', '8', '3', '46', '40', '41'] 1396.491228070177
78 27.92982456140351 ['34', '8', '3', '46', '40', '41'] 1396.491228070177
79 27.92982456140351 ['34', '8', '3', '46', '40', '41'] 1396.491228070177
80 27.92982456140351 ['34', '8', '3', '46', '40', '41'] 1396.491228070177
81 27.92982456140351 ['34', '8', '3', '46', '40', '41'] 1396.491228070177
82 27.92982456140351 ['34', '8', '3', '46', '40', '41'] 1396.491228070177
83 27.92982456140351 ['34', '8', '3', '46', '40', '41'] 1396.491228070177
84 27.92982456140351 ['34', '8', '3', '46', '40', '41'] 1396.491228070177
85 27.92982456140351 ['34', '8', '3', '46', '40', '41'] 1396.491228070177
86 27.92982456140351 ['34', '8', '3', '46', '40', '41'] 1396.491228070177
87 27.92982456140351 ['34', '8', '3', '46', '40', '41'] 1396.491228070177
88 27.92982456140351 ['34', '8', '3', '46', '40', '41'] 1396.491228070177
89 27.92982456140351 ['34', '8', '3', '46', '40', '41'] 1396.491228070177
90 27.92982456140351 ['34', '8', '3', '46', '40', '41'] 1396.491228070177
91 27.92982456140351 ['34', '8', '3', '46', '40', '41'] 1396.491228070177
92 27.92982456140351 ['34', '8', '3', '46', '40', '41'] 1396.491228070177
93 27.92982456140351 ['34', '8', '3', '46', '40', '41'] 1396.491228070177
94 27.92982456140351 ['34', '8', '3', '46', '40', '41'] 1396.491228070177
95 27.92982456140351 ['34', '8', '3', '46', '40', '41'] 1396.491228070177
96 27.92982456140351 ['34', '8', '3', '46', '40', '41'] 1396.491228070177
97 27.92982456140351 ['34', '8', '3', '46', '40', '41'] 1396.491228070177
98 27.92982456140351 ['34', '8', '3', '46', '40', '41'] 1396.491228070177
99 27.92982456140351 ['34', '8', '3', '46', '40', '41'] 1396.491228070177
100 27.92982456140351 ['34', '8', '3', '46', '40', '41'] 1396.491228070177
101 27.92982456140351 ['34', '8', '3', '46', '40', '41'] 1396.491228070177
102 27.92982456140351 ['34', '8', '3', '46', '40', '41'] 1396.491228070177
103 27.92982456140351 ['34', '8', '3', '46', '40', '41'] 1396.491228070177
104 27.92982456140351 ['34', '8', '3', '46', '40', '41'] 1396.491228070177
105 27.92982456140351 ['34', '8', '3', '46', '40', '41'] 1396.491228070177
106 27.92982456140351 ['34', '8', '3', '46', '40', '41'] 1396.491228070177
107 27.92982456140351 ['34', '8', '3', '46', '40', '41'] 1396.491228070177
108 27.92982456140351 ['34', '8', '3', '46', '40', '41'] 1396.491228070177
109 27.92982456140351 ['34', '8', '3', '46', '40', '41'] 1396.491228070177
110 27.92982456140351 ['34', '8', '3', '46', '40', '41'] 1396.491228070177
111 27.92982456140351 ['34', '8', '3', '46', '40', '41'] 1396.491228070177
112 27.92982456140351 ['34', '8', '3', '46', '40', '41'] 1396.491228070177
113 27.92982456140351 ['34', '8', '3', '46', '40', '41'] 1396.491228070177
114 27.92982456140351 ['34', '8', '3', '46', '40', '41'] 1396.491228070177
115 27.92982456140351 ['34', '8', '3', '46', '40', '41'] 1396.491228070177
116 27.92982456140351 ['34', '8', '3', '46', '40', '41'] 1396.491228070177
117 27.92982456140351 ['34', '8', '3', '46', '40', '41'] 1396.491228070177
118 27.92982456140351 ['34', '8', '3', '46', '40', '41'] 1396.491228070177
119 27.92982456140351 ['34', '8', '3', '46', '40', '41'] 1396.491228070177
120 27.92982456140351 ['34', '8', '3', '46', '40', '41'] 1396.491228070177
121 27.92982456140351 ['34', '8', '3', '46', '40', '41'] 1396.491228070177
122 27.92982456140351 ['34', '8', '3', '46', '40', '41'] 1396.491228070177
123 27.92982456140351 ['34', '8', '3', '46', '40', '41'] 1396.491228070177
124 27.92982456140351 ['34', '8', '3', '46', '40', '41'] 1396.491228070177
125 27.92982456140351 ['34', '8', '3', '46', '40', '41'] 1396.491228070177
126 27.92982456140351 ['34', '8', '3', '46', '40', '41'] 1396.491228070177
127 27.92982456140351 ['34', '8', '3', '46', '40', '41'] 1396.491228070177
128 27.92982456140351 ['34', '8', '3', '46', '40', '41'] 1396.491228070177
129 27.92982456140351 ['34', '8', '3', '46', '40', '41'] 1396.491228070177
130 27.92982456140351 ['34', '8', '3', '46', '40', '41'] 1396.491228070177
131 27.92982456140351 ['34', '8', '3', '46', '40', '41'] 1396.491228070177
132 27.92982456140351 ['34', '8', '3', '46', '40', '41'] 1396.491228070177
133 27.92982456140351 ['34', '8', '3', '46', '40', '41'] 1396.491228070177
134 27.92982456140351 ['34', '8', '3', '46', '40', '41'] 1396.491228070177
135 27.92982456140351 ['34', '8', '3', '46', '40', '41'] 1396.491228070177
136 27.92982456140351 ['34', '8', '3', '46', '40', '41'] 1396.491228070177
137 27.92982456140351 ['34', '8', '3', '46', '40', '41'] 1396.491228070177
138 27.92982456140351 ['34', '8', '3', '46', '40', '41'] 1396.491228070177
139 27.92982456140351 ['34', '8', '3', '46', '40', '41'] 1396.491228070177
140 27.92982456140351 ['34', '8', '3', '46', '40', '41'] 1396.491228070177
141 27.92982456140351 ['34', '8', '3', '46', '40', '41'] 1396.491228070177
142 27.92982456140351 ['34', '8', '3', '46', '40', '41'] 1396.491228070177
143 27.92982456140351 ['34', '8', '3', '46', '40', '41'] 1396.491228070177
144 27.92982456140351 ['34', '8', '3', '46', '40', '41'] 1396.491228070177
145 27.92982456140351 ['34', '8', '3', '46', '40', '41'] 1396.491228070177
146 27.92982456140351 ['34', '8', '3', '46', '40', '41'] 1396.491228070177
147 27.92982456140351 ['34', '8', '3', '46', '40', '41'] 1396.491228070177
148 27.92982456140351 ['34', '8', '3', '46', '40', '41'] 1396.491228070177
149 27.92982456140351 ['34', '8', '3', '46', '40', '41'] 1396.491228070177
150 27.92982456140351 ['34', '8', '3', '46', '40', '41'] 1396.491228070177
151 27.92982456140351 ['34', '8', '3', '46', '40', '41'] 1396.491228070177
152 27.92982456140351 ['34', '8', '3', '46', '40', '41'] 1396.491228070177
153 27.92982456140351 ['34', '8', '3', '46', '40', '41'] 1396.491228070177
154 27.92982456140351 ['34', '8', '3', '46', '40', '41'] 1396.491228070177
155 27.92982456140351 ['34', '8', '3', '46', '40', '41'] 1396.491228070177
156 27.92982456140351 ['34', '8', '3', '46', '40', '41'] 1396.491228070177
157 27.92982456140351 ['34', '8', '3', '46', '40', '41'] 1396.491228070177
158 27.92982456140351 ['34', '8', '3', '46', '40', '41'] 1396.491228070177
159 27.92982456140351 ['34', '8', '3', '46', '40', '41'] 1396.491228070177
160 27.92982456140351 ['34', '8', '3', '46', '40', '41'] 1396.491228070177
161 27.92982456140351 ['34', '8', '3', '46', '40', '41'] 1396.491228070177
162 27.92982456140351 ['34', '8', '3', '46', '40', '41'] 1396.491228070177
163 27.92982456140351 ['34', '8', '3', '46', '40', '41'] 1396.491228070177
164 27.92982456140351 ['34', '8', '3', '46', '40', '41'] 1396.491228070177
165 27.92982456140351 ['34', '8', '3', '46', '40', '41'] 1396.491228070177
166 27.92982456140351 ['34', '8', '3', '46', '40', '41'] 1396.491228070177
167 27.92982456140351 ['34', '8', '3', '46', '40', '41'] 1396.491228070177
168 27.92982456140351 ['34', '8', '3', '46', '40', '41'] 1396.491228070177
169 27.92982456140351 ['34', '8', '3', '46', '40', '41'] 1396.491228070177
170 27.92982456140351 ['34', '8', '3', '46', '40', '41'] 1396.491228070177
171 27.92982456140351 ['34', '8', '3', '46', '40', '41'] 1396.491228070177
172 27.92982456140351 ['34', '8', '3', '46', '40', '41'] 1396.491228070177
173 27.92982456140351 ['34', '8', '3', '46', '40', '41'] 1396.491228070177
174 27.92982456140351 ['34', '8', '3', '46', '40', '41'] 1396.491228070177
175 27.92982456140351 ['34', '8', '3', '46', '40', '41'] 1396.491228070177
176 27.92982456140351 ['34', '8', '3', '46', '40', '41'] 1396.491228070177
177 27.92982456140351 ['34', '8', '3', '46', '40', '41'] 1396.491228070177
178 27.92982456140351 ['34', '8', '3', '46', '40', '41'] 1396.491228070177
179 27.92982456140351 ['34', '8', '3', '46', '40', '41'] 1396.491228070177
180 27.92982456140351 ['34', '8', '3', '46', '40', '41'] 1396.491228070177
181 27.92982456140351 ['34', '8', '3', '46', '40', '41'] 1396.491228070177
182 27.92982456140351 ['34', '8', '3', '46', '40', '41'] 1396.491228070177
183 27.92982456140351 ['34', '8', '3', '46', '40', '41'] 1396.491228070177
184 27.92982456140351 ['34', '8', '3', '46', '40', '41'] 1396.491228070177
185 27.92982456140351 ['34', '8', '3', '46', '40', '41'] 1396.491228070177
186 27.92982456140351 ['34', '8', '3', '46', '40', '41'] 1396.491228070177
187 27.92982456140351 ['34', '8', '3', '46', '40', '41'] 1396.491228070177
188 27.92982456140351 ['34', '8', '3', '46', '40', '41'] 1396.491228070177
189 27.92982456140351 ['34', '8', '3', '46', '40', '41'] 1396.491228070177
190 27.92982456140351 ['34', '8', '3', '46', '40', '41'] 1396.491228070177
191 27.92982456140351 ['34', '8', '3', '46', '40', '41'] 1396.491228070177
192 27.92982456140351 ['34', '8', '3', '46', '40', '41'] 1396.491228070177
193 27.92982456140351 ['34', '8', '3', '46', '40', '41'] 1396.491228070177
194 27.92982456140351 ['34', '8', '3', '46', '40', '41'] 1396.491228070177
195 27.92982456140351 ['34', '8', '3', '46', '40', '41'] 1396.491228070177
196 27.92982456140351 ['34', '8', '3', '46', '40', '41'] 1396.491228070177
197 27.92982456140351 ['34', '8', '3', '46', '40', '41'] 1396.491228070177
198 27.92982456140351 ['34', '8', '3', '46', '40', '41'] 1396.491228070177
199 27.92982456140351 ['34', '8', '3', '46', '40', '41'] 1396.491228070177
