0 14.6 ['116', '117', '91', '110', '90', '75', '99', '126', '140', '131', '113', '98', '88', '123', '11'] 747.8962962962959
1 14.503703703703703 ['116', '136', '38', '118', '82', '144', '141', '45', '8', '90', '135', '117', '32', '11', '120'] 741.4962962962962
2 14.466666666666667 ['136', '81', '135', '94', '66', '10', '63', '42', '147', '106', '73', '142', '143', '105', '145'] 736.1037037037034
3 14.28888888888889 ['127', '136', '117', '48', '149', '135', '105', '126', '66', '63', '89', '106', '11', '130', '143'] 729.3777777777776
4 14.185185185185185 ['48', '105', '11', '142', '148', '116', '147', '86', '141', '136', '95', '125', '127', '135', '118'] 724.2888888888891
5 14.148148148148149 ['123', '48', '130', '95', '11', '56', '96', '117', '87', '141', '145', '136', '126', '116', '149'] 719.5037037037038
6 14.096296296296297 ['136', '147', '142', '135', '86', '11', '120', '98', '117', '95', '66', '148', '141', '145', '48'] 714.9481481481478
7 13.962962962962964 ['136', '105', '127', '48', '95', '148', '117', '143', '142', '141', '116', '120', '147', '126', '89'] 710.0666666666666
8 13.948148148148148 ['142', '117', '120', '128', '148', '140', '127', '90', '149', '98', '38', '141', '147', '136', '27'] 705.9925925925927
9 13.844444444444445 ['141', '117', '149', '135', '145', '128', '96', '120', '122', '32', '33', '126', '48', '130', '148'] 702.1037037037032
10 13.807407407407407 ['136', '105', '148', '120', '142', '128', '117', '126', '121', '88', '135', '149', '48', '141', '147'] 698.9407407407415
11 13.807407407407407 ['136', '105', '148', '120', '142', '128', '117', '126', '121', '88', '135', '149', '48', '141', '147'] 695.6074074074071
12 13.688888888888888 ['117', '135', '148', '136', '120', '141', '128', '149', '142', '88', '33', '145', '121', '140', '86'] 693.0370370370376
13 13.688888888888888 ['117', '135', '148', '136', '120', '141', '128', '149', '142', '88', '33', '145', '121', '140', '86'] 690.5703703703705
14 13.65925925925926 ['148', '120', '128', '145', '135', '117', '33', '149', '141', '143', '121', '130', '122', '140', '86'] 688.3259259259253
15 13.651851851851852 ['117', '149', '141', '128', '145', '135', '48', '148', '126', '143', '130', '120', '142', '147', '33'] 686.1925925925933
16 13.548148148148147 ['148', '149', '120', '143', '128', '141', '86', '117', '145', '135', '142', '136', '147', '33', '122'] 683.7333333333333
17 13.548148148148147 ['148', '149', '120', '143', '128', '141', '86', '117', '145', '135', '142', '136', '147', '33', '122'] 682.2222222222221
18 13.533333333333333 ['143', '149', '33', '128', '147', '148', '135', '120', '141', '142', '136', '117', '145', '88', '122'] 680.7407407407401
19 13.533333333333333 ['143', '149', '33', '128', '147', '148', '135', '120', '141', '142', '136', '117', '145', '88', '122'] 679.4000000000007
20 13.511111111111111 ['135', '143', '117', '148', '128', '142', '141', '147', '122', '149', '136', '145', '33', '140', '120'] 678.5555555555558
21 13.511111111111111 ['135', '143', '117', '148', '128', '142', '141', '147', '122', '149', '136', '145', '33', '140', '120'] 677.6814814814813
22 13.511111111111111 ['135', '143', '117', '148', '128', '142', '141', '147', '122', '149', '136', '145', '33', '140', '120'] 677.1481481481477
23 13.511111111111111 ['135', '143', '117', '148', '128', '142', '141', '147', '122', '149', '136', '145', '33', '140', '120'] 676.7037037037034
24 13.511111111111111 ['135', '143', '117', '148', '128', '142', '141', '147', '122', '149', '136', '145', '33', '140', '120'] 676.0592592592593
25 13.511111111111111 ['135', '143', '117', '148', '128', '142', '141', '147', '122', '149', '136', '145', '33', '140', '120'] 675.5777777777774
26 13.511111111111111 ['135', '143', '117', '148', '128', '142', '141', '147', '122', '149', '136', '145', '33', '140', '120'] 675.5555555555552
27 13.511111111111111 ['135', '143', '117', '148', '128', '142', '141', '147', '122', '149', '136', '145', '33', '140', '120'] 675.5555555555552
28 13.511111111111111 ['135', '143', '117', '148', '128', '142', '141', '147', '122', '149', '136', '145', '33', '140', '120'] 675.5555555555552
29 13.511111111111111 ['135', '143', '117', '148', '128', '142', '141', '147', '122', '149', '136', '145', '33', '140', '120'] 675.5555555555552
30 13.511111111111111 ['135', '143', '117', '148', '128', '142', '141', '147', '122', '149', '136', '145', '33', '140', '120'] 675.5555555555552
31 13.511111111111111 ['135', '143', '117', '148', '128', '142', '141', '147', '122', '149', '136', '145', '33', '140', '120'] 675.5555555555552
32 13.511111111111111 ['135', '143', '117', '148', '128', '142', '141', '147', '122', '149', '136', '145', '33', '140', '120'] 675.5555555555552
33 13.511111111111111 ['135', '143', '117', '148', '128', '142', '141', '147', '122', '149', '136', '145', '33', '140', '120'] 675.5555555555552
34 13.511111111111111 ['135', '143', '117', '148', '128', '142', '141', '147', '122', '149', '136', '145', '33', '140', '120'] 675.5555555555552
35 13.511111111111111 ['135', '143', '117', '148', '128', '142', '141', '147', '122', '149', '136', '145', '33', '140', '120'] 675.5555555555552
36 13.511111111111111 ['135', '143', '117', '148', '128', '142', '141', '147', '122', '149', '136', '145', '33', '140', '120'] 675.5555555555552
37 13.511111111111111 ['135', '143', '117', '148', '128', '142', '141', '147', '122', '149', '136', '145', '33', '140', '120'] 675.5555555555552
38 13.511111111111111 ['135', '143', '117', '148', '128', '142', '141', '147', '122', '149', '136', '145', '33', '140', '120'] 675.5555555555552
39 13.511111111111111 ['135', '143', '117', '148', '128', '142', '141', '147', '122', '149', '136', '145', '33', '140', '120'] 675.5555555555552
40 13.511111111111111 ['135', '143', '117', '148', '128', '142', '141', '147', '122', '149', '136', '145', '33', '140', '120'] 675.5555555555552
41 13.511111111111111 ['135', '143', '117', '148', '128', '142', '141', '147', '122', '149', '136', '145', '33', '140', '120'] 675.5555555555552
42 13.511111111111111 ['135', '143', '117', '148', '128', '142', '141', '147', '122', '149', '136', '145', '33', '140', '120'] 675.5555555555552
43 13.511111111111111 ['135', '143', '117', '148', '128', '142', '141', '147', '122', '149', '136', '145', '33', '140', '120'] 675.5555555555552
44 13.511111111111111 ['135', '143', '117', '148', '128', '142', '141', '147', '122', '149', '136', '145', '33', '140', '120'] 675.5555555555552
45 13.511111111111111 ['135', '143', '117', '148', '128', '142', '141', '147', '122', '149', '136', '145', '33', '140', '120'] 675.5555555555552
46 13.511111111111111 ['135', '143', '117', '148', '128', '142', '141', '147', '122', '149', '136', '145', '33', '140', '120'] 675.5555555555552
47 13.511111111111111 ['135', '143', '117', '148', '128', '142', '141', '147', '122', '149', '136', '145', '33', '140', '120'] 675.5555555555552
48 13.511111111111111 ['135', '143', '117', '148', '128', '142', '141', '147', '122', '149', '136', '145', '33', '140', '120'] 675.5555555555552
49 13.511111111111111 ['135', '143', '117', '148', '128', '142', '141', '147', '122', '149', '136', '145', '33', '140', '120'] 675.5555555555552
50 13.511111111111111 ['135', '143', '117', '148', '128', '142', '141', '147', '122', '149', '136', '145', '33', '140', '120'] 675.5555555555552
51 13.511111111111111 ['135', '143', '117', '148', '128', '142', '141', '147', '122', '149', '136', '145', '33', '140', '120'] 675.5555555555552
52 13.511111111111111 ['135', '143', '117', '148', '128', '142', '141', '147', '122', '149', '136', '145', '33', '140', '120'] 675.5555555555552
53 13.511111111111111 ['135', '143', '117', '148', '128', '142', '141', '147', '122', '149', '136', '145', '33', '140', '120'] 675.5555555555552
54 13.511111111111111 ['135', '143', '117', '148', '128', '142', '141', '147', '122', '149', '136', '145', '33', '140', '120'] 675.5555555555552
55 13.511111111111111 ['135', '143', '117', '148', '128', '142', '141', '147', '122', '149', '136', '145', '33', '140', '120'] 675.5555555555552
56 13.511111111111111 ['135', '143', '117', '148', '128', '142', '141', '147', '122', '149', '136', '145', '33', '140', '120'] 675.5555555555552
57 13.511111111111111 ['135', '143', '117', '148', '128', '142', '141', '147', '122', '149', '136', '145', '33', '140', '120'] 675.5555555555552
58 13.511111111111111 ['135', '143', '117', '148', '128', '142', '141', '147', '122', '149', '136', '145', '33', '140', '120'] 675.5555555555552
59 13.511111111111111 ['135', '143', '117', '148', '128', '142', '141', '147', '122', '149', '136', '145', '33', '140', '120'] 675.5555555555552
60 13.511111111111111 ['135', '143', '117', '148', '128', '142', '141', '147', '122', '149', '136', '145', '33', '140', '120'] 675.5555555555552
61 13.511111111111111 ['135', '143', '117', '148', '128', '142', '141', '147', '122', '149', '136', '145', '33', '140', '120'] 675.5555555555552
62 13.511111111111111 ['135', '143', '117', '148', '128', '142', '141', '147', '122', '149', '136', '145', '33', '140', '120'] 675.5555555555552
63 13.511111111111111 ['135', '143', '117', '148', '128', '142', '141', '147', '122', '149', '136', '145', '33', '140', '120'] 675.5555555555552
64 13.511111111111111 ['135', '143', '117', '148', '128', '142', '141', '147', '122', '149', '136', '145', '33', '140', '120'] 675.5555555555552
65 13.511111111111111 ['135', '143', '117', '148', '128', '142', '141', '147', '122', '149', '136', '145', '33', '140', '120'] 675.5555555555552
66 13.511111111111111 ['135', '143', '117', '148', '128', '142', '141', '147', '122', '149', '136', '145', '33', '140', '120'] 675.5555555555552
67 13.511111111111111 ['135', '143', '117', '148', '128', '142', '141', '147', '122', '149', '136', '145', '33', '140', '120'] 675.5555555555552
68 13.511111111111111 ['135', '143', '117', '148', '128', '142', '141', '147', '122', '149', '136', '145', '33', '140', '120'] 675.5555555555552
69 13.511111111111111 ['135', '143', '117', '148', '128', '142', '141', '147', '122', '149', '136', '145', '33', '140', '120'] 675.5555555555552
70 13.511111111111111 ['135', '143', '117', '148', '128', '142', '141', '147', '122', '149', '136', '145', '33', '140', '120'] 675.5555555555552
71 13.511111111111111 ['135', '143', '117', '148', '128', '142', '141', '147', '122', '149', '136', '145', '33', '140', '120'] 675.5555555555552
72 13.511111111111111 ['135', '143', '117', '148', '128', '142', '141', '147', '122', '149', '136', '145', '33', '140', '120'] 675.5555555555552
73 13.511111111111111 ['135', '143', '117', '148', '128', '142', '141', '147', '122', '149', '136', '145', '33', '140', '120'] 675.5555555555552
74 13.511111111111111 ['135', '143', '117', '148', '128', '142', '141', '147', '122', '149', '136', '145', '33', '140', '120'] 675.5555555555552
75 13.511111111111111 ['135', '143', '117', '148', '128', '142', '141', '147', '122', '149', '136', '145', '33', '140', '120'] 675.5555555555552
76 13.511111111111111 ['135', '143', '117', '148', '128', '142', '141', '147', '122', '149', '136', '145', '33', '140', '120'] 675.5555555555552
77 13.511111111111111 ['135', '143', '117', '148', '128', '142', '141', '147', '122', '149', '136', '145', '33', '140', '120'] 675.5555555555552
78 13.511111111111111 ['135', '143', '117', '148', '128', '142', '141', '147', '122', '149', '136', '145', '33', '140', '120'] 675.5555555555552
79 13.511111111111111 ['135', '143', '117', '148', '128', '142', '141', '147', '122', '149', '136', '145', '33', '140', '120'] 675.5555555555552
80 13.511111111111111 ['135', '143', '117', '148', '128', '142', '141', '147', '122', '149', '136', '145', '33', '140', '120'] 675.5555555555552
81 13.511111111111111 ['135', '143', '117', '148', '128', '142', '141', '147', '122', '149', '136', '145', '33', '140', '120'] 675.5555555555552
82 13.511111111111111 ['135', '143', '117', '148', '128', '142', '141', '147', '122', '149', '136', '145', '33', '140', '120'] 675.5555555555552
83 13.511111111111111 ['135', '143', '117', '148', '128', '142', '141', '147', '122', '149', '136', '145', '33', '140', '120'] 675.5555555555552
84 13.511111111111111 ['135', '143', '117', '148', '128', '142', '141', '147', '122', '149', '136', '145', '33', '140', '120'] 675.5555555555552
85 13.511111111111111 ['135', '143', '117', '148', '128', '142', '141', '147', '122', '149', '136', '145', '33', '140', '120'] 675.5555555555552
86 13.511111111111111 ['135', '143', '117', '148', '128', '142', '141', '147', '122', '149', '136', '145', '33', '140', '120'] 675.5555555555552
87 13.511111111111111 ['135', '143', '117', '148', '128', '142', '141', '147', '122', '149', '136', '145', '33', '140', '120'] 675.5555555555552
88 13.511111111111111 ['135', '143', '117', '148', '128', '142', '141', '147', '122', '149', '136', '145', '33', '140', '120'] 675.5555555555552
89 13.511111111111111 ['135', '143', '117', '148', '128', '142', '141', '147', '122', '149', '136', '145', '33', '140', '120'] 675.5555555555552
90 13.511111111111111 ['135', '143', '117', '148', '128', '142', '141', '147', '122', '149', '136', '145', '33', '140', '120'] 675.5555555555552
91 13.511111111111111 ['135', '143', '117', '148', '128', '142', '141', '147', '122', '149', '136', '145', '33', '140', '120'] 675.5555555555552
92 13.511111111111111 ['135', '143', '117', '148', '128', '142', '141', '147', '122', '149', '136', '145', '33', '140', '120'] 675.5555555555552
93 13.511111111111111 ['135', '143', '117', '148', '128', '142', '141', '147', '122', '149', '136', '145', '33', '140', '120'] 675.5555555555552
94 13.511111111111111 ['135', '143', '117', '148', '128', '142', '141', '147', '122', '149', '136', '145', '33', '140', '120'] 675.5555555555552
95 13.511111111111111 ['135', '143', '117', '148', '128', '142', '141', '147', '122', '149', '136', '145', '33', '140', '120'] 675.5555555555552
96 13.511111111111111 ['135', '143', '117', '148', '128', '142', '141', '147', '122', '149', '136', '145', '33', '140', '120'] 675.5555555555552
97 13.511111111111111 ['135', '143', '117', '148', '128', '142', '141', '147', '122', '149', '136', '145', '33', '140', '120'] 675.5555555555552
98 13.511111111111111 ['135', '143', '117', '148', '128', '142', '141', '147', '122', '149', '136', '145', '33', '140', '120'] 675.5555555555552
99 13.511111111111111 ['135', '143', '117', '148', '128', '142', '141', '147', '122', '149', '136', '145', '33', '140', '120'] 675.5555555555552
100 13.511111111111111 ['135', '143', '117', '148', '128', '142', '141', '147', '122', '149', '136', '145', '33', '140', '120'] 675.5555555555552
101 13.511111111111111 ['135', '143', '117', '148', '128', '142', '141', '147', '122', '149', '136', '145', '33', '140', '120'] 675.5555555555552
102 13.511111111111111 ['135', '143', '117', '148', '128', '142', '141', '147', '122', '149', '136', '145', '33', '140', '120'] 675.5555555555552
103 13.511111111111111 ['135', '143', '117', '148', '128', '142', '141', '147', '122', '149', '136', '145', '33', '140', '120'] 675.5555555555552
104 13.511111111111111 ['135', '143', '117', '148', '128', '142', '141', '147', '122', '149', '136', '145', '33', '140', '120'] 675.5555555555552
105 13.511111111111111 ['135', '143', '117', '148', '128', '142', '141', '147', '122', '149', '136', '145', '33', '140', '120'] 675.5555555555552
106 13.511111111111111 ['135', '143', '117', '148', '128', '142', '141', '147', '122', '149', '136', '145', '33', '140', '120'] 675.5555555555552
107 13.511111111111111 ['135', '143', '117', '148', '128', '142', '141', '147', '122', '149', '136', '145', '33', '140', '120'] 675.5555555555552
108 13.511111111111111 ['135', '143', '117', '148', '128', '142', '141', '147', '122', '149', '136', '145', '33', '140', '120'] 675.5555555555552
109 13.511111111111111 ['135', '143', '117', '148', '128', '142', '141', '147', '122', '149', '136', '145', '33', '140', '120'] 675.5555555555552
110 13.511111111111111 ['135', '143', '117', '148', '128', '142', '141', '147', '122', '149', '136', '145', '33', '140', '120'] 675.5555555555552
111 13.511111111111111 ['135', '143', '117', '148', '128', '142', '141', '147', '122', '149', '136', '145', '33', '140', '120'] 675.5555555555552
112 13.511111111111111 ['135', '143', '117', '148', '128', '142', '141', '147', '122', '149', '136', '145', '33', '140', '120'] 675.5555555555552
113 13.511111111111111 ['135', '143', '117', '148', '128', '142', '141', '147', '122', '149', '136', '145', '33', '140', '120'] 675.5555555555552
114 13.511111111111111 ['135', '143', '117', '148', '128', '142', '141', '147', '122', '149', '136', '145', '33', '140', '120'] 675.5555555555552
115 13.511111111111111 ['135', '143', '117', '148', '128', '142', '141', '147', '122', '149', '136', '145', '33', '140', '120'] 675.5555555555552
116 13.511111111111111 ['135', '143', '117', '148', '128', '142', '141', '147', '122', '149', '136', '145', '33', '140', '120'] 675.5555555555552
117 13.511111111111111 ['135', '143', '117', '148', '128', '142', '141', '147', '122', '149', '136', '145', '33', '140', '120'] 675.5555555555552
118 13.511111111111111 ['135', '143', '117', '148', '128', '142', '141', '147', '122', '149', '136', '145', '33', '140', '120'] 675.5555555555552
119 13.511111111111111 ['135', '143', '117', '148', '128', '142', '141', '147', '122', '149', '136', '145', '33', '140', '120'] 675.5555555555552
120 13.511111111111111 ['135', '143', '117', '148', '128', '142', '141', '147', '122', '149', '136', '145', '33', '140', '120'] 675.5555555555552
121 13.511111111111111 ['135', '143', '117', '148', '128', '142', '141', '147', '122', '149', '136', '145', '33', '140', '120'] 675.5555555555552
122 13.511111111111111 ['135', '143', '117', '148', '128', '142', '141', '147', '122', '149', '136', '145', '33', '140', '120'] 675.5555555555552
123 13.511111111111111 ['135', '143', '117', '148', '128', '142', '141', '147', '122', '149', '136', '145', '33', '140', '120'] 675.5555555555552
124 13.511111111111111 ['135', '143', '117', '148', '128', '142', '141', '147', '122', '149', '136', '145', '33', '140', '120'] 675.5555555555552
125 13.511111111111111 ['135', '143', '117', '148', '128', '142', '141', '147', '122', '149', '136', '145', '33', '140', '120'] 675.5555555555552
126 13.511111111111111 ['135', '143', '117', '148', '128', '142', '141', '147', '122', '149', '136', '145', '33', '140', '120'] 675.5555555555552
127 13.511111111111111 ['135', '143', '117', '148', '128', '142', '141', '147', '122', '149', '136', '145', '33', '140', '120'] 675.5555555555552
128 13.511111111111111 ['135', '143', '117', '148', '128', '142', '141', '147', '122', '149', '136', '145', '33', '140', '120'] 675.5555555555552
129 13.511111111111111 ['135', '143', '117', '148', '128', '142', '141', '147', '122', '149', '136', '145', '33', '140', '120'] 675.5555555555552
130 13.511111111111111 ['135', '143', '117', '148', '128', '142', '141', '147', '122', '149', '136', '145', '33', '140', '120'] 675.5555555555552
131 13.511111111111111 ['135', '143', '117', '148', '128', '142', '141', '147', '122', '149', '136', '145', '33', '140', '120'] 675.5555555555552
132 13.511111111111111 ['135', '143', '117', '148', '128', '142', '141', '147', '122', '149', '136', '145', '33', '140', '120'] 675.5555555555552
133 13.511111111111111 ['135', '143', '117', '148', '128', '142', '141', '147', '122', '149', '136', '145', '33', '140', '120'] 675.5555555555552
134 13.511111111111111 ['135', '143', '117', '148', '128', '142', '141', '147', '122', '149', '136', '145', '33', '140', '120'] 675.5555555555552
135 13.511111111111111 ['135', '143', '117', '148', '128', '142', '141', '147', '122', '149', '136', '145', '33', '140', '120'] 675.5555555555552
136 13.511111111111111 ['135', '143', '117', '148', '128', '142', '141', '147', '122', '149', '136', '145', '33', '140', '120'] 675.5555555555552
137 13.511111111111111 ['135', '143', '117', '148', '128', '142', '141', '147', '122', '149', '136', '145', '33', '140', '120'] 675.5555555555552
138 13.511111111111111 ['135', '143', '117', '148', '128', '142', '141', '147', '122', '149', '136', '145', '33', '140', '120'] 675.5555555555552
139 13.511111111111111 ['135', '143', '117', '148', '128', '142', '141', '147', '122', '149', '136', '145', '33', '140', '120'] 675.5555555555552
140 13.511111111111111 ['135', '143', '117', '148', '128', '142', '141', '147', '122', '149', '136', '145', '33', '140', '120'] 675.5555555555552
141 13.511111111111111 ['135', '143', '117', '148', '128', '142', '141', '147', '122', '149', '136', '145', '33', '140', '120'] 675.5555555555552
142 13.511111111111111 ['135', '143', '117', '148', '128', '142', '141', '147', '122', '149', '136', '145', '33', '140', '120'] 675.5555555555552
143 13.511111111111111 ['135', '143', '117', '148', '128', '142', '141', '147', '122', '149', '136', '145', '33', '140', '120'] 675.5555555555552
144 13.511111111111111 ['135', '143', '117', '148', '128', '142', '141', '147', '122', '149', '136', '145', '33', '140', '120'] 675.5555555555552
145 13.511111111111111 ['135', '143', '117', '148', '128', '142', '141', '147', '122', '149', '136', '145', '33', '140', '120'] 675.5555555555552
146 13.511111111111111 ['135', '143', '117', '148', '128', '142', '141', '147', '122', '149', '136', '145', '33', '140', '120'] 675.5555555555552
147 13.511111111111111 ['135', '143', '117', '148', '128', '142', '141', '147', '122', '149', '136', '145', '33', '140', '120'] 675.5555555555552
148 13.511111111111111 ['135', '143', '117', '148', '128', '142', '141', '147', '122', '149', '136', '145', '33', '140', '120'] 675.5555555555552
149 13.511111111111111 ['135', '143', '117', '148', '128', '142', '141', '147', '122', '149', '136', '145', '33', '140', '120'] 675.5555555555552
150 13.511111111111111 ['135', '143', '117', '148', '128', '142', '141', '147', '122', '149', '136', '145', '33', '140', '120'] 675.5555555555552
151 13.511111111111111 ['135', '143', '117', '148', '128', '142', '141', '147', '122', '149', '136', '145', '33', '140', '120'] 675.5555555555552
152 13.511111111111111 ['135', '143', '117', '148', '128', '142', '141', '147', '122', '149', '136', '145', '33', '140', '120'] 675.5555555555552
153 13.511111111111111 ['135', '143', '117', '148', '128', '142', '141', '147', '122', '149', '136', '145', '33', '140', '120'] 675.5555555555552
154 13.511111111111111 ['135', '143', '117', '148', '128', '142', '141', '147', '122', '149', '136', '145', '33', '140', '120'] 675.5555555555552
155 13.511111111111111 ['135', '143', '117', '148', '128', '142', '141', '147', '122', '149', '136', '145', '33', '140', '120'] 675.5555555555552
156 13.511111111111111 ['135', '143', '117', '148', '128', '142', '141', '147', '122', '149', '136', '145', '33', '140', '120'] 675.5555555555552
157 13.511111111111111 ['135', '143', '117', '148', '128', '142', '141', '147', '122', '149', '136', '145', '33', '140', '120'] 675.5555555555552
158 13.511111111111111 ['135', '143', '117', '148', '128', '142', '141', '147', '122', '149', '136', '145', '33', '140', '120'] 675.5555555555552
159 13.511111111111111 ['135', '143', '117', '148', '128', '142', '141', '147', '122', '149', '136', '145', '33', '140', '120'] 675.5555555555552
160 13.511111111111111 ['135', '143', '117', '148', '128', '142', '141', '147', '122', '149', '136', '145', '33', '140', '120'] 675.5555555555552
161 13.511111111111111 ['135', '143', '117', '148', '128', '142', '141', '147', '122', '149', '136', '145', '33', '140', '120'] 675.5555555555552
162 13.511111111111111 ['135', '143', '117', '148', '128', '142', '141', '147', '122', '149', '136', '145', '33', '140', '120'] 675.5555555555552
163 13.511111111111111 ['135', '143', '117', '148', '128', '142', '141', '147', '122', '149', '136', '145', '33', '140', '120'] 675.5555555555552
164 13.511111111111111 ['135', '143', '117', '148', '128', '142', '141', '147', '122', '149', '136', '145', '33', '140', '120'] 675.5555555555552
165 13.511111111111111 ['135', '143', '117', '148', '128', '142', '141', '147', '122', '149', '136', '145', '33', '140', '120'] 675.5555555555552
166 13.511111111111111 ['135', '143', '117', '148', '128', '142', '141', '147', '122', '149', '136', '145', '33', '140', '120'] 675.5555555555552
167 13.511111111111111 ['135', '143', '117', '148', '128', '142', '141', '147', '122', '149', '136', '145', '33', '140', '120'] 675.5555555555552
168 13.511111111111111 ['135', '143', '117', '148', '128', '142', '141', '147', '122', '149', '136', '145', '33', '140', '120'] 675.5555555555552
169 13.511111111111111 ['135', '143', '117', '148', '128', '142', '141', '147', '122', '149', '136', '145', '33', '140', '120'] 675.5555555555552
170 13.511111111111111 ['135', '143', '117', '148', '128', '142', '141', '147', '122', '149', '136', '145', '33', '140', '120'] 675.5555555555552
171 13.511111111111111 ['135', '143', '117', '148', '128', '142', '141', '147', '122', '149', '136', '145', '33', '140', '120'] 675.5555555555552
172 13.511111111111111 ['135', '143', '117', '148', '128', '142', '141', '147', '122', '149', '136', '145', '33', '140', '120'] 675.5555555555552
173 13.511111111111111 ['135', '143', '117', '148', '128', '142', '141', '147', '122', '149', '136', '145', '33', '140', '120'] 675.5555555555552
174 13.511111111111111 ['135', '143', '117', '148', '128', '142', '141', '147', '122', '149', '136', '145', '33', '140', '120'] 675.5555555555552
175 13.511111111111111 ['135', '143', '117', '148', '128', '142', '141', '147', '122', '149', '136', '145', '33', '140', '120'] 675.5555555555552
176 13.511111111111111 ['135', '143', '117', '148', '128', '142', '141', '147', '122', '149', '136', '145', '33', '140', '120'] 675.5555555555552
177 13.511111111111111 ['135', '143', '117', '148', '128', '142', '141', '147', '122', '149', '136', '145', '33', '140', '120'] 675.5555555555552
178 13.511111111111111 ['135', '143', '117', '148', '128', '142', '141', '147', '122', '149', '136', '145', '33', '140', '120'] 675.5555555555552
179 13.511111111111111 ['135', '143', '117', '148', '128', '142', '141', '147', '122', '149', '136', '145', '33', '140', '120'] 675.5555555555552
180 13.511111111111111 ['135', '143', '117', '148', '128', '142', '141', '147', '122', '149', '136', '145', '33', '140', '120'] 675.5555555555552
181 13.511111111111111 ['135', '143', '117', '148', '128', '142', '141', '147', '122', '149', '136', '145', '33', '140', '120'] 675.5555555555552
182 13.511111111111111 ['135', '143', '117', '148', '128', '142', '141', '147', '122', '149', '136', '145', '33', '140', '120'] 675.5555555555552
183 13.511111111111111 ['135', '143', '117', '148', '128', '142', '141', '147', '122', '149', '136', '145', '33', '140', '120'] 675.5555555555552
184 13.511111111111111 ['135', '143', '117', '148', '128', '142', '141', '147', '122', '149', '136', '145', '33', '140', '120'] 675.5555555555552
185 13.511111111111111 ['135', '143', '117', '148', '128', '142', '141', '147', '122', '149', '136', '145', '33', '140', '120'] 675.5555555555552
186 13.511111111111111 ['135', '143', '117', '148', '128', '142', '141', '147', '122', '149', '136', '145', '33', '140', '120'] 675.5555555555552
187 13.511111111111111 ['135', '143', '117', '148', '128', '142', '141', '147', '122', '149', '136', '145', '33', '140', '120'] 675.5555555555552
188 13.511111111111111 ['135', '143', '117', '148', '128', '142', '141', '147', '122', '149', '136', '145', '33', '140', '120'] 675.5555555555552
189 13.511111111111111 ['135', '143', '117', '148', '128', '142', '141', '147', '122', '149', '136', '145', '33', '140', '120'] 675.5555555555552
190 13.511111111111111 ['135', '143', '117', '148', '128', '142', '141', '147', '122', '149', '136', '145', '33', '140', '120'] 675.5555555555552
191 13.511111111111111 ['135', '143', '117', '148', '128', '142', '141', '147', '122', '149', '136', '145', '33', '140', '120'] 675.5555555555552
192 13.511111111111111 ['135', '143', '117', '148', '128', '142', '141', '147', '122', '149', '136', '145', '33', '140', '120'] 675.5555555555552
193 13.511111111111111 ['135', '143', '117', '148', '128', '142', '141', '147', '122', '149', '136', '145', '33', '140', '120'] 675.5555555555552
194 13.511111111111111 ['135', '143', '117', '148', '128', '142', '141', '147', '122', '149', '136', '145', '33', '140', '120'] 675.5555555555552
195 13.511111111111111 ['135', '143', '117', '148', '128', '142', '141', '147', '122', '149', '136', '145', '33', '140', '120'] 675.5555555555552
196 13.511111111111111 ['135', '143', '117', '148', '128', '142', '141', '147', '122', '149', '136', '145', '33', '140', '120'] 675.5555555555552
197 13.511111111111111 ['135', '143', '117', '148', '128', '142', '141', '147', '122', '149', '136', '145', '33', '140', '120'] 675.5555555555552
198 13.511111111111111 ['135', '143', '117', '148', '128', '142', '141', '147', '122', '149', '136', '145', '33', '140', '120'] 675.5555555555552
199 13.511111111111111 ['135', '143', '117', '148', '128', '142', '141', '147', '122', '149', '136', '145', '33', '140', '120'] 675.5555555555552
