0 5.356666666666669 ['147', '48', '1', '116', '5', '148', '77', '45', '99', '110', '142', '115', '76', '149', '94'] 273.4524691358027
1 5.332098765432099 ['138', '148', '121', '69', '118', '115', '2', '143', '105', '96', '35', '87', '149', '110', '67'] 272.2265432098767
2 5.332098765432099 ['138', '148', '121', '69', '118', '115', '2', '143', '105', '96', '35', '87', '149', '110', '67'] 270.80259259259276
3 5.306543209876546 ['69', '115', '138', '61', '9', '137', '71', '148', '109', '146', '90', '139', '121', '105', '149'] 269.9245679012346
4 5.306543209876546 ['69', '115', '138', '61', '9', '137', '71', '148', '109', '146', '90', '139', '121', '105', '149'] 269.1225925925927
5 5.306543209876546 ['69', '115', '138', '61', '9', '137', '71', '148', '109', '146', '90', '139', '121', '105', '149'] 268.4162962962964
6 5.269012345679016 ['147', '142', '139', '138', '114', '146', '9', '99', '135', '1', '128', '94', '117', '115', '45'] 267.4095061728396
7 5.269012345679016 ['147', '142', '139', '138', '114', '146', '9', '99', '135', '1', '128', '94', '117', '115', '45'] 266.59012345679014
8 5.240123456790128 ['148', '1', '149', '115', '110', '48', '118', '2', '5', '96', '101', '142', '138', '94', '77'] 265.8360493827162
9 5.240123456790128 ['148', '1', '149', '115', '110', '48', '118', '2', '5', '96', '101', '142', '138', '94', '77'] 265.300864197531
10 5.199382716049387 ['142', '96', '121', '136', '79', '149', '124', '101', '42', '148', '117', '114', '143', '45', '126'] 264.6751851851852
11 5.199382716049387 ['142', '96', '121', '136', '79', '149', '124', '101', '42', '148', '117', '114', '143', '45', '126'] 263.97037037037046
12 5.199382716049387 ['142', '96', '121', '136', '79', '149', '124', '101', '42', '148', '117', '114', '143', '45', '126'] 263.38444444444457
13 5.199382716049387 ['142', '96', '121', '136', '79', '149', '124', '101', '42', '148', '117', '114', '143', '45', '126'] 262.97209876543224
14 5.192469135802473 ['114', '117', '143', '149', '79', '96', '126', '148', '124', '9', '142', '121', '101', '115', '2'] 262.32358024691376
15 5.181975308641981 ['2', '121', '149', '101', '126', '114', '143', '142', '148', '124', '110', '45', '36', '96', '79'] 261.6966666666669
16 5.121728395061734 ['45', '101', '114', '142', '143', '121', '149', '126', '148', '138', '137', '96', '79', '124', '5'] 260.97716049382734
17 5.112592592592596 ['121', '101', '126', '114', '149', '2', '148', '45', '143', '142', '136', '96', '79', '137', '67'] 260.13148148148156
18 5.112592592592596 ['121', '101', '126', '114', '149', '2', '148', '45', '143', '142', '136', '96', '79', '137', '67'] 259.21160493827193
19 5.112592592592596 ['121', '101', '126', '114', '149', '2', '148', '45', '143', '142', '136', '96', '79', '137', '67'] 258.43592592592614
20 5.1112345679012385 ['142', '77', '121', '149', '96', '114', '143', '148', '126', '124', '79', '136', '146', '101', '61'] 257.49098765432126
21 5.098148148148153 ['137', '136', '148', '149', '142', '101', '121', '79', '96', '114', '143', '2', '126', '45', '146'] 256.6245679012348
22 5.071358024691363 ['121', '149', '96', '142', '143', '101', '124', '77', '126', '79', '148', '114', '136', '146', '137'] 256.0171604938275
23 5.071358024691363 ['121', '149', '96', '142', '143', '101', '124', '77', '126', '79', '148', '114', '136', '146', '137'] 255.6483950617285
24 5.071358024691363 ['121', '149', '96', '142', '143', '101', '124', '77', '126', '79', '148', '114', '136', '146', '137'] 255.31209876543218
25 5.071358024691363 ['121', '149', '96', '142', '143', '101', '124', '77', '126', '79', '148', '114', '136', '146', '137'] 254.92753086419754
26 5.071358024691363 ['121', '149', '96', '142', '143', '101', '124', '77', '126', '79', '148', '114', '136', '146', '137'] 254.56185185185214
27 5.071358024691363 ['121', '149', '96', '142', '143', '101', '124', '77', '126', '79', '148', '114', '136', '146', '137'] 254.24728395061763
28 5.071358024691363 ['121', '149', '96', '142', '143', '101', '124', '77', '126', '79', '148', '114', '136', '146', '137'] 253.9954320987658
29 5.071358024691363 ['121', '149', '96', '142', '143', '101', '124', '77', '126', '79', '148', '114', '136', '146', '137'] 253.70617283950654
30 5.071358024691363 ['121', '149', '96', '142', '143', '101', '124', '77', '126', '79', '148', '114', '136', '146', '137'] 253.56790123456815
31 5.071358024691363 ['121', '149', '96', '142', '143', '101', '124', '77', '126', '79', '148', '114', '136', '146', '137'] 253.56790123456815
32 5.071358024691363 ['121', '149', '96', '142', '143', '101', '124', '77', '126', '79', '148', '114', '136', '146', '137'] 253.56790123456815
33 5.071358024691363 ['121', '149', '96', '142', '143', '101', '124', '77', '126', '79', '148', '114', '136', '146', '137'] 253.56790123456815
34 5.071358024691363 ['121', '149', '96', '142', '143', '101', '124', '77', '126', '79', '148', '114', '136', '146', '137'] 253.56790123456815
35 5.071358024691363 ['121', '149', '96', '142', '143', '101', '124', '77', '126', '79', '148', '114', '136', '146', '137'] 253.56790123456815
36 5.071358024691363 ['121', '149', '96', '142', '143', '101', '124', '77', '126', '79', '148', '114', '136', '146', '137'] 253.56790123456815
37 5.071358024691363 ['121', '149', '96', '142', '143', '101', '124', '77', '126', '79', '148', '114', '136', '146', '137'] 253.56790123456815
38 5.071358024691363 ['121', '149', '96', '142', '143', '101', '124', '77', '126', '79', '148', '114', '136', '146', '137'] 253.56790123456815
39 5.071358024691363 ['121', '149', '96', '142', '143', '101', '124', '77', '126', '79', '148', '114', '136', '146', '137'] 253.56790123456815
40 5.071358024691363 ['121', '149', '96', '142', '143', '101', '124', '77', '126', '79', '148', '114', '136', '146', '137'] 253.56790123456815
41 5.071358024691363 ['121', '149', '96', '142', '143', '101', '124', '77', '126', '79', '148', '114', '136', '146', '137'] 253.56790123456815
42 5.071358024691363 ['121', '149', '96', '142', '143', '101', '124', '77', '126', '79', '148', '114', '136', '146', '137'] 253.56790123456815
43 5.071358024691363 ['121', '149', '96', '142', '143', '101', '124', '77', '126', '79', '148', '114', '136', '146', '137'] 253.56790123456815
44 5.071358024691363 ['121', '149', '96', '142', '143', '101', '124', '77', '126', '79', '148', '114', '136', '146', '137'] 253.56790123456815
45 5.071358024691363 ['121', '149', '96', '142', '143', '101', '124', '77', '126', '79', '148', '114', '136', '146', '137'] 253.56790123456815
46 5.071358024691363 ['121', '149', '96', '142', '143', '101', '124', '77', '126', '79', '148', '114', '136', '146', '137'] 253.56790123456815
47 5.071358024691363 ['121', '149', '96', '142', '143', '101', '124', '77', '126', '79', '148', '114', '136', '146', '137'] 253.56790123456815
48 5.071358024691363 ['121', '149', '96', '142', '143', '101', '124', '77', '126', '79', '148', '114', '136', '146', '137'] 253.56790123456815
49 5.071358024691363 ['121', '149', '96', '142', '143', '101', '124', '77', '126', '79', '148', '114', '136', '146', '137'] 253.56790123456815
50 5.071358024691363 ['121', '149', '96', '142', '143', '101', '124', '77', '126', '79', '148', '114', '136', '146', '137'] 253.56790123456815
51 5.071358024691363 ['121', '149', '96', '142', '143', '101', '124', '77', '126', '79', '148', '114', '136', '146', '137'] 253.56790123456815
52 5.071358024691363 ['121', '149', '96', '142', '143', '101', '124', '77', '126', '79', '148', '114', '136', '146', '137'] 253.56790123456815
53 5.071358024691363 ['121', '149', '96', '142', '143', '101', '124', '77', '126', '79', '148', '114', '136', '146', '137'] 253.56790123456815
54 5.071358024691363 ['121', '149', '96', '142', '143', '101', '124', '77', '126', '79', '148', '114', '136', '146', '137'] 253.56790123456815
55 5.071358024691363 ['121', '149', '96', '142', '143', '101', '124', '77', '126', '79', '148', '114', '136', '146', '137'] 253.56790123456815
56 5.071358024691363 ['121', '149', '96', '142', '143', '101', '124', '77', '126', '79', '148', '114', '136', '146', '137'] 253.56790123456815
57 5.071358024691363 ['121', '149', '96', '142', '143', '101', '124', '77', '126', '79', '148', '114', '136', '146', '137'] 253.56790123456815
58 5.071358024691363 ['121', '149', '96', '142', '143', '101', '124', '77', '126', '79', '148', '114', '136', '146', '137'] 253.56790123456815
59 5.071358024691363 ['121', '149', '96', '142', '143', '101', '124', '77', '126', '79', '148', '114', '136', '146', '137'] 253.56790123456815
60 5.071358024691363 ['121', '149', '96', '142', '143', '101', '124', '77', '126', '79', '148', '114', '136', '146', '137'] 253.56790123456815
61 5.071358024691363 ['121', '149', '96', '142', '143', '101', '124', '77', '126', '79', '148', '114', '136', '146', '137'] 253.56790123456815
62 5.071358024691363 ['121', '149', '96', '142', '143', '101', '124', '77', '126', '79', '148', '114', '136', '146', '137'] 253.56790123456815
63 5.071358024691363 ['121', '149', '96', '142', '143', '101', '124', '77', '126', '79', '148', '114', '136', '146', '137'] 253.56790123456815
64 5.071358024691363 ['121', '149', '96', '142', '143', '101', '124', '77', '126', '79', '148', '114', '136', '146', '137'] 253.56790123456815
65 5.071358024691363 ['121', '149', '96', '142', '143', '101', '124', '77', '126', '79', '148', '114', '136', '146', '137'] 253.56790123456815
66 5.071358024691363 ['121', '149', '96', '142', '143', '101', '124', '77', '126', '79', '148', '114', '136', '146', '137'] 253.56790123456815
67 5.071358024691363 ['121', '149', '96', '142', '143', '101', '124', '77', '126', '79', '148', '114', '136', '146', '137'] 253.56790123456815
68 5.071358024691363 ['121', '149', '96', '142', '143', '101', '124', '77', '126', '79', '148', '114', '136', '146', '137'] 253.56790123456815
69 5.071358024691363 ['121', '149', '96', '142', '143', '101', '124', '77', '126', '79', '148', '114', '136', '146', '137'] 253.56790123456815
70 5.071358024691363 ['121', '149', '96', '142', '143', '101', '124', '77', '126', '79', '148', '114', '136', '146', '137'] 253.56790123456815
71 5.071358024691363 ['121', '149', '96', '142', '143', '101', '124', '77', '126', '79', '148', '114', '136', '146', '137'] 253.56790123456815
72 5.071358024691363 ['121', '149', '96', '142', '143', '101', '124', '77', '126', '79', '148', '114', '136', '146', '137'] 253.56790123456815
73 5.071358024691363 ['121', '149', '96', '142', '143', '101', '124', '77', '126', '79', '148', '114', '136', '146', '137'] 253.56790123456815
74 5.071358024691363 ['121', '149', '96', '142', '143', '101', '124', '77', '126', '79', '148', '114', '136', '146', '137'] 253.56790123456815
75 5.071358024691363 ['121', '149', '96', '142', '143', '101', '124', '77', '126', '79', '148', '114', '136', '146', '137'] 253.56790123456815
76 5.071358024691363 ['121', '149', '96', '142', '143', '101', '124', '77', '126', '79', '148', '114', '136', '146', '137'] 253.56790123456815
77 5.071358024691363 ['121', '149', '96', '142', '143', '101', '124', '77', '126', '79', '148', '114', '136', '146', '137'] 253.56790123456815
78 5.071358024691363 ['121', '149', '96', '142', '143', '101', '124', '77', '126', '79', '148', '114', '136', '146', '137'] 253.56790123456815
79 5.071358024691363 ['121', '149', '96', '142', '143', '101', '124', '77', '126', '79', '148', '114', '136', '146', '137'] 253.56790123456815
80 5.071358024691363 ['121', '149', '96', '142', '143', '101', '124', '77', '126', '79', '148', '114', '136', '146', '137'] 253.56790123456815
81 5.071358024691363 ['121', '149', '96', '142', '143', '101', '124', '77', '126', '79', '148', '114', '136', '146', '137'] 253.56790123456815
82 5.071358024691363 ['121', '149', '96', '142', '143', '101', '124', '77', '126', '79', '148', '114', '136', '146', '137'] 253.56790123456815
83 5.071358024691363 ['121', '149', '96', '142', '143', '101', '124', '77', '126', '79', '148', '114', '136', '146', '137'] 253.56790123456815
84 5.071358024691363 ['121', '149', '96', '142', '143', '101', '124', '77', '126', '79', '148', '114', '136', '146', '137'] 253.56790123456815
85 5.071358024691363 ['121', '149', '96', '142', '143', '101', '124', '77', '126', '79', '148', '114', '136', '146', '137'] 253.56790123456815
86 5.071358024691363 ['121', '149', '96', '142', '143', '101', '124', '77', '126', '79', '148', '114', '136', '146', '137'] 253.56790123456815
87 5.071358024691363 ['121', '149', '96', '142', '143', '101', '124', '77', '126', '79', '148', '114', '136', '146', '137'] 253.56790123456815
88 5.071358024691363 ['121', '149', '96', '142', '143', '101', '124', '77', '126', '79', '148', '114', '136', '146', '137'] 253.56790123456815
89 5.071358024691363 ['121', '149', '96', '142', '143', '101', '124', '77', '126', '79', '148', '114', '136', '146', '137'] 253.56790123456815
90 5.071358024691363 ['121', '149', '96', '142', '143', '101', '124', '77', '126', '79', '148', '114', '136', '146', '137'] 253.56790123456815
91 5.071358024691363 ['121', '149', '96', '142', '143', '101', '124', '77', '126', '79', '148', '114', '136', '146', '137'] 253.56790123456815
92 5.071358024691363 ['121', '149', '96', '142', '143', '101', '124', '77', '126', '79', '148', '114', '136', '146', '137'] 253.56790123456815
93 5.071358024691363 ['121', '149', '96', '142', '143', '101', '124', '77', '126', '79', '148', '114', '136', '146', '137'] 253.56790123456815
94 5.071358024691363 ['121', '149', '96', '142', '143', '101', '124', '77', '126', '79', '148', '114', '136', '146', '137'] 253.56790123456815
95 5.071358024691363 ['121', '149', '96', '142', '143', '101', '124', '77', '126', '79', '148', '114', '136', '146', '137'] 253.56790123456815
96 5.071358024691363 ['121', '149', '96', '142', '143', '101', '124', '77', '126', '79', '148', '114', '136', '146', '137'] 253.56790123456815
97 5.071358024691363 ['121', '149', '96', '142', '143', '101', '124', '77', '126', '79', '148', '114', '136', '146', '137'] 253.56790123456815
98 5.071358024691363 ['121', '149', '96', '142', '143', '101', '124', '77', '126', '79', '148', '114', '136', '146', '137'] 253.56790123456815
99 5.071358024691363 ['121', '149', '96', '142', '143', '101', '124', '77', '126', '79', '148', '114', '136', '146', '137'] 253.56790123456815
100 5.071358024691363 ['121', '149', '96', '142', '143', '101', '124', '77', '126', '79', '148', '114', '136', '146', '137'] 253.56790123456815
101 5.071358024691363 ['121', '149', '96', '142', '143', '101', '124', '77', '126', '79', '148', '114', '136', '146', '137'] 253.56790123456815
102 5.071358024691363 ['121', '149', '96', '142', '143', '101', '124', '77', '126', '79', '148', '114', '136', '146', '137'] 253.56790123456815
103 5.071358024691363 ['121', '149', '96', '142', '143', '101', '124', '77', '126', '79', '148', '114', '136', '146', '137'] 253.56790123456815
104 5.071358024691363 ['121', '149', '96', '142', '143', '101', '124', '77', '126', '79', '148', '114', '136', '146', '137'] 253.56790123456815
105 5.071358024691363 ['121', '149', '96', '142', '143', '101', '124', '77', '126', '79', '148', '114', '136', '146', '137'] 253.56790123456815
106 5.071358024691363 ['121', '149', '96', '142', '143', '101', '124', '77', '126', '79', '148', '114', '136', '146', '137'] 253.56790123456815
107 5.071358024691363 ['121', '149', '96', '142', '143', '101', '124', '77', '126', '79', '148', '114', '136', '146', '137'] 253.56790123456815
108 5.071358024691363 ['121', '149', '96', '142', '143', '101', '124', '77', '126', '79', '148', '114', '136', '146', '137'] 253.56790123456815
109 5.071358024691363 ['121', '149', '96', '142', '143', '101', '124', '77', '126', '79', '148', '114', '136', '146', '137'] 253.56790123456815
110 5.071358024691363 ['121', '149', '96', '142', '143', '101', '124', '77', '126', '79', '148', '114', '136', '146', '137'] 253.56790123456815
111 5.071358024691363 ['121', '149', '96', '142', '143', '101', '124', '77', '126', '79', '148', '114', '136', '146', '137'] 253.56790123456815
112 5.071358024691363 ['121', '149', '96', '142', '143', '101', '124', '77', '126', '79', '148', '114', '136', '146', '137'] 253.56790123456815
113 5.071358024691363 ['121', '149', '96', '142', '143', '101', '124', '77', '126', '79', '148', '114', '136', '146', '137'] 253.56790123456815
114 5.071358024691363 ['121', '149', '96', '142', '143', '101', '124', '77', '126', '79', '148', '114', '136', '146', '137'] 253.56790123456815
115 5.071358024691363 ['121', '149', '96', '142', '143', '101', '124', '77', '126', '79', '148', '114', '136', '146', '137'] 253.56790123456815
116 5.071358024691363 ['121', '149', '96', '142', '143', '101', '124', '77', '126', '79', '148', '114', '136', '146', '137'] 253.56790123456815
117 5.071358024691363 ['121', '149', '96', '142', '143', '101', '124', '77', '126', '79', '148', '114', '136', '146', '137'] 253.56790123456815
118 5.071358024691363 ['121', '149', '96', '142', '143', '101', '124', '77', '126', '79', '148', '114', '136', '146', '137'] 253.56790123456815
119 5.071358024691363 ['121', '149', '96', '142', '143', '101', '124', '77', '126', '79', '148', '114', '136', '146', '137'] 253.56790123456815
120 5.071358024691363 ['121', '149', '96', '142', '143', '101', '124', '77', '126', '79', '148', '114', '136', '146', '137'] 253.56790123456815
121 5.071358024691363 ['121', '149', '96', '142', '143', '101', '124', '77', '126', '79', '148', '114', '136', '146', '137'] 253.56790123456815
122 5.071358024691363 ['121', '149', '96', '142', '143', '101', '124', '77', '126', '79', '148', '114', '136', '146', '137'] 253.56790123456815
123 5.071358024691363 ['121', '149', '96', '142', '143', '101', '124', '77', '126', '79', '148', '114', '136', '146', '137'] 253.56790123456815
124 5.071358024691363 ['121', '149', '96', '142', '143', '101', '124', '77', '126', '79', '148', '114', '136', '146', '137'] 253.56790123456815
125 5.071358024691363 ['121', '149', '96', '142', '143', '101', '124', '77', '126', '79', '148', '114', '136', '146', '137'] 253.56790123456815
126 5.071358024691363 ['121', '149', '96', '142', '143', '101', '124', '77', '126', '79', '148', '114', '136', '146', '137'] 253.56790123456815
127 5.071358024691363 ['121', '149', '96', '142', '143', '101', '124', '77', '126', '79', '148', '114', '136', '146', '137'] 253.56790123456815
128 5.071358024691363 ['121', '149', '96', '142', '143', '101', '124', '77', '126', '79', '148', '114', '136', '146', '137'] 253.56790123456815
129 5.071358024691363 ['121', '149', '96', '142', '143', '101', '124', '77', '126', '79', '148', '114', '136', '146', '137'] 253.56790123456815
130 5.071358024691363 ['121', '149', '96', '142', '143', '101', '124', '77', '126', '79', '148', '114', '136', '146', '137'] 253.56790123456815
131 5.071358024691363 ['121', '149', '96', '142', '143', '101', '124', '77', '126', '79', '148', '114', '136', '146', '137'] 253.56790123456815
132 5.071358024691363 ['121', '149', '96', '142', '143', '101', '124', '77', '126', '79', '148', '114', '136', '146', '137'] 253.56790123456815
133 5.071358024691363 ['121', '149', '96', '142', '143', '101', '124', '77', '126', '79', '148', '114', '136', '146', '137'] 253.56790123456815
134 5.071358024691363 ['121', '149', '96', '142', '143', '101', '124', '77', '126', '79', '148', '114', '136', '146', '137'] 253.56790123456815
135 5.071358024691363 ['121', '149', '96', '142', '143', '101', '124', '77', '126', '79', '148', '114', '136', '146', '137'] 253.56790123456815
136 5.071358024691363 ['121', '149', '96', '142', '143', '101', '124', '77', '126', '79', '148', '114', '136', '146', '137'] 253.56790123456815
137 5.071358024691363 ['121', '149', '96', '142', '143', '101', '124', '77', '126', '79', '148', '114', '136', '146', '137'] 253.56790123456815
138 5.071358024691363 ['121', '149', '96', '142', '143', '101', '124', '77', '126', '79', '148', '114', '136', '146', '137'] 253.56790123456815
139 5.071358024691363 ['121', '149', '96', '142', '143', '101', '124', '77', '126', '79', '148', '114', '136', '146', '137'] 253.56790123456815
140 5.071358024691363 ['121', '149', '96', '142', '143', '101', '124', '77', '126', '79', '148', '114', '136', '146', '137'] 253.56790123456815
141 5.071358024691363 ['121', '149', '96', '142', '143', '101', '124', '77', '126', '79', '148', '114', '136', '146', '137'] 253.56790123456815
142 5.071358024691363 ['121', '149', '96', '142', '143', '101', '124', '77', '126', '79', '148', '114', '136', '146', '137'] 253.56790123456815
143 5.071358024691363 ['121', '149', '96', '142', '143', '101', '124', '77', '126', '79', '148', '114', '136', '146', '137'] 253.56790123456815
144 5.071358024691363 ['121', '149', '96', '142', '143', '101', '124', '77', '126', '79', '148', '114', '136', '146', '137'] 253.56790123456815
145 5.071358024691363 ['121', '149', '96', '142', '143', '101', '124', '77', '126', '79', '148', '114', '136', '146', '137'] 253.56790123456815
146 5.071358024691363 ['121', '149', '96', '142', '143', '101', '124', '77', '126', '79', '148', '114', '136', '146', '137'] 253.56790123456815
147 5.071358024691363 ['121', '149', '96', '142', '143', '101', '124', '77', '126', '79', '148', '114', '136', '146', '137'] 253.56790123456815
148 5.071358024691363 ['121', '149', '96', '142', '143', '101', '124', '77', '126', '79', '148', '114', '136', '146', '137'] 253.56790123456815
149 5.071358024691363 ['121', '149', '96', '142', '143', '101', '124', '77', '126', '79', '148', '114', '136', '146', '137'] 253.56790123456815
150 5.071358024691363 ['121', '149', '96', '142', '143', '101', '124', '77', '126', '79', '148', '114', '136', '146', '137'] 253.56790123456815
151 5.071358024691363 ['121', '149', '96', '142', '143', '101', '124', '77', '126', '79', '148', '114', '136', '146', '137'] 253.56790123456815
152 5.071358024691363 ['121', '149', '96', '142', '143', '101', '124', '77', '126', '79', '148', '114', '136', '146', '137'] 253.56790123456815
153 5.071358024691363 ['121', '149', '96', '142', '143', '101', '124', '77', '126', '79', '148', '114', '136', '146', '137'] 253.56790123456815
154 5.071358024691363 ['121', '149', '96', '142', '143', '101', '124', '77', '126', '79', '148', '114', '136', '146', '137'] 253.56790123456815
155 5.071358024691363 ['121', '149', '96', '142', '143', '101', '124', '77', '126', '79', '148', '114', '136', '146', '137'] 253.56790123456815
156 5.071358024691363 ['121', '149', '96', '142', '143', '101', '124', '77', '126', '79', '148', '114', '136', '146', '137'] 253.56790123456815
157 5.071358024691363 ['121', '149', '96', '142', '143', '101', '124', '77', '126', '79', '148', '114', '136', '146', '137'] 253.56790123456815
158 5.071358024691363 ['121', '149', '96', '142', '143', '101', '124', '77', '126', '79', '148', '114', '136', '146', '137'] 253.56790123456815
159 5.071358024691363 ['121', '149', '96', '142', '143', '101', '124', '77', '126', '79', '148', '114', '136', '146', '137'] 253.56790123456815
160 5.071358024691363 ['121', '149', '96', '142', '143', '101', '124', '77', '126', '79', '148', '114', '136', '146', '137'] 253.56790123456815
161 5.071358024691363 ['121', '149', '96', '142', '143', '101', '124', '77', '126', '79', '148', '114', '136', '146', '137'] 253.56790123456815
162 5.071358024691363 ['121', '149', '96', '142', '143', '101', '124', '77', '126', '79', '148', '114', '136', '146', '137'] 253.56790123456815
163 5.071358024691363 ['121', '149', '96', '142', '143', '101', '124', '77', '126', '79', '148', '114', '136', '146', '137'] 253.56790123456815
164 5.071358024691363 ['121', '149', '96', '142', '143', '101', '124', '77', '126', '79', '148', '114', '136', '146', '137'] 253.56790123456815
165 5.071358024691363 ['121', '149', '96', '142', '143', '101', '124', '77', '126', '79', '148', '114', '136', '146', '137'] 253.56790123456815
166 5.071358024691363 ['121', '149', '96', '142', '143', '101', '124', '77', '126', '79', '148', '114', '136', '146', '137'] 253.56790123456815
167 5.071358024691363 ['121', '149', '96', '142', '143', '101', '124', '77', '126', '79', '148', '114', '136', '146', '137'] 253.56790123456815
168 5.071358024691363 ['121', '149', '96', '142', '143', '101', '124', '77', '126', '79', '148', '114', '136', '146', '137'] 253.56790123456815
169 5.071358024691363 ['121', '149', '96', '142', '143', '101', '124', '77', '126', '79', '148', '114', '136', '146', '137'] 253.56790123456815
170 5.071358024691363 ['121', '149', '96', '142', '143', '101', '124', '77', '126', '79', '148', '114', '136', '146', '137'] 253.56790123456815
171 5.071358024691363 ['121', '149', '96', '142', '143', '101', '124', '77', '126', '79', '148', '114', '136', '146', '137'] 253.56790123456815
172 5.071358024691363 ['121', '149', '96', '142', '143', '101', '124', '77', '126', '79', '148', '114', '136', '146', '137'] 253.56790123456815
173 5.071358024691363 ['121', '149', '96', '142', '143', '101', '124', '77', '126', '79', '148', '114', '136', '146', '137'] 253.56790123456815
174 5.071358024691363 ['121', '149', '96', '142', '143', '101', '124', '77', '126', '79', '148', '114', '136', '146', '137'] 253.56790123456815
175 5.071358024691363 ['121', '149', '96', '142', '143', '101', '124', '77', '126', '79', '148', '114', '136', '146', '137'] 253.56790123456815
176 5.071358024691363 ['121', '149', '96', '142', '143', '101', '124', '77', '126', '79', '148', '114', '136', '146', '137'] 253.56790123456815
177 5.071358024691363 ['121', '149', '96', '142', '143', '101', '124', '77', '126', '79', '148', '114', '136', '146', '137'] 253.56790123456815
178 5.071358024691363 ['121', '149', '96', '142', '143', '101', '124', '77', '126', '79', '148', '114', '136', '146', '137'] 253.56790123456815
179 5.071358024691363 ['121', '149', '96', '142', '143', '101', '124', '77', '126', '79', '148', '114', '136', '146', '137'] 253.56790123456815
180 5.071358024691363 ['121', '149', '96', '142', '143', '101', '124', '77', '126', '79', '148', '114', '136', '146', '137'] 253.56790123456815
181 5.071358024691363 ['121', '149', '96', '142', '143', '101', '124', '77', '126', '79', '148', '114', '136', '146', '137'] 253.56790123456815
182 5.071358024691363 ['121', '149', '96', '142', '143', '101', '124', '77', '126', '79', '148', '114', '136', '146', '137'] 253.56790123456815
183 5.071358024691363 ['121', '149', '96', '142', '143', '101', '124', '77', '126', '79', '148', '114', '136', '146', '137'] 253.56790123456815
184 5.071358024691363 ['121', '149', '96', '142', '143', '101', '124', '77', '126', '79', '148', '114', '136', '146', '137'] 253.56790123456815
185 5.071358024691363 ['121', '149', '96', '142', '143', '101', '124', '77', '126', '79', '148', '114', '136', '146', '137'] 253.56790123456815
186 5.071358024691363 ['121', '149', '96', '142', '143', '101', '124', '77', '126', '79', '148', '114', '136', '146', '137'] 253.56790123456815
187 5.071358024691363 ['121', '149', '96', '142', '143', '101', '124', '77', '126', '79', '148', '114', '136', '146', '137'] 253.56790123456815
188 5.071358024691363 ['121', '149', '96', '142', '143', '101', '124', '77', '126', '79', '148', '114', '136', '146', '137'] 253.56790123456815
189 5.071358024691363 ['121', '149', '96', '142', '143', '101', '124', '77', '126', '79', '148', '114', '136', '146', '137'] 253.56790123456815
190 5.071358024691363 ['121', '149', '96', '142', '143', '101', '124', '77', '126', '79', '148', '114', '136', '146', '137'] 253.56790123456815
191 5.071358024691363 ['121', '149', '96', '142', '143', '101', '124', '77', '126', '79', '148', '114', '136', '146', '137'] 253.56790123456815
192 5.071358024691363 ['121', '149', '96', '142', '143', '101', '124', '77', '126', '79', '148', '114', '136', '146', '137'] 253.56790123456815
193 5.071358024691363 ['121', '149', '96', '142', '143', '101', '124', '77', '126', '79', '148', '114', '136', '146', '137'] 253.56790123456815
194 5.071358024691363 ['121', '149', '96', '142', '143', '101', '124', '77', '126', '79', '148', '114', '136', '146', '137'] 253.56790123456815
195 5.071358024691363 ['121', '149', '96', '142', '143', '101', '124', '77', '126', '79', '148', '114', '136', '146', '137'] 253.56790123456815
196 5.071358024691363 ['121', '149', '96', '142', '143', '101', '124', '77', '126', '79', '148', '114', '136', '146', '137'] 253.56790123456815
197 5.071358024691363 ['121', '149', '96', '142', '143', '101', '124', '77', '126', '79', '148', '114', '136', '146', '137'] 253.56790123456815
198 5.071358024691363 ['121', '149', '96', '142', '143', '101', '124', '77', '126', '79', '148', '114', '136', '146', '137'] 253.56790123456815
199 5.071358024691363 ['121', '149', '96', '142', '143', '101', '124', '77', '126', '79', '148', '114', '136', '146', '137'] 253.56790123456815
