0 36.732142857142854 ['14', '36', '2', '7', '6', '25'] 1897.339285714286
1 35.75 ['7', '39', '40', '33', '60', '6'] 1870.660714285714
2 35.392857142857146 ['15', '36', '6', '55', '25', '26'] 1848.8928571428569
3 35.017857142857146 ['26', '36', '55', '15', '33', '25'] 1824.0178571428569
4 34.55357142857143 ['33', '25', '26', '36', '18', '61'] 1793.410714285715
5 34.107142857142854 ['6', '17', '39', '33', '18', '15'] 1767.4107142857142
6 33.607142857142854 ['33', '6', '36', '24', '61', '15'] 1746.0357142857135
7 33.607142857142854 ['33', '6', '36', '24', '61', '15'] 1726.392857142857
8 33.607142857142854 ['33', '6', '36', '24', '61', '15'] 1711.8392857142858
9 33.607142857142854 ['33', '6', '36', '24', '61', '15'] 1699.2499999999993
10 33.375 ['15', '6', '33', '61', '39', '36'] 1687.9821428571424
11 33.375 ['15', '6', '33', '61', '39', '36'] 1681.3571428571427
12 33.375 ['15', '6', '33', '61', '39', '36'] 1675.803571428572
13 33.375 ['15', '6', '33', '61', '39', '36'] 1670.5000000000007
14 33.375 ['15', '6', '33', '61', '39', '36'] 1668.75
15 33.375 ['15', '6', '33', '61', '39', '36'] 1668.75
16 33.375 ['15', '6', '33', '61', '39', '36'] 1668.75
17 33.375 ['15', '6', '33', '61', '39', '36'] 1668.75
18 33.375 ['15', '6', '33', '61', '39', '36'] 1668.75
19 33.375 ['15', '6', '33', '61', '39', '36'] 1668.75
20 33.375 ['15', '6', '33', '61', '39', '36'] 1668.75
21 33.375 ['15', '6', '33', '61', '39', '36'] 1668.75
22 33.375 ['15', '6', '33', '61', '39', '36'] 1668.75
23 33.375 ['15', '6', '33', '61', '39', '36'] 1668.75
24 33.375 ['15', '6', '33', '61', '39', '36'] 1668.75
25 33.375 ['15', '6', '33', '61', '39', '36'] 1668.75
26 33.375 ['15', '6', '33', '61', '39', '36'] 1668.75
27 33.375 ['15', '6', '33', '61', '39', '36'] 1668.75
28 33.375 ['15', '6', '33', '61', '39', '36'] 1668.75
29 33.375 ['15', '6', '33', '61', '39', '36'] 1668.75
30 33.375 ['15', '6', '33', '61', '39', '36'] 1668.75
31 33.375 ['15', '6', '33', '61', '39', '36'] 1668.75
32 33.375 ['15', '6', '33', '61', '39', '36'] 1668.75
33 33.375 ['15', '6', '33', '61', '39', '36'] 1668.75
34 33.375 ['15', '6', '33', '61', '39', '36'] 1668.75
35 33.375 ['15', '6', '33', '61', '39', '36'] 1668.75
36 33.375 ['15', '6', '33', '61', '39', '36'] 1668.75
37 33.375 ['15', '6', '33', '61', '39', '36'] 1668.75
38 33.375 ['15', '6', '33', '61', '39', '36'] 1668.75
39 33.375 ['15', '6', '33', '61', '39', '36'] 1668.75
40 33.375 ['15', '6', '33', '61', '39', '36'] 1668.75
41 33.375 ['15', '6', '33', '61', '39', '36'] 1668.75
42 33.375 ['15', '6', '33', '61', '39', '36'] 1668.75
43 33.375 ['15', '6', '33', '61', '39', '36'] 1668.75
44 33.375 ['15', '6', '33', '61', '39', '36'] 1668.75
45 33.375 ['15', '6', '33', '61', '39', '36'] 1668.75
46 33.375 ['15', '6', '33', '61', '39', '36'] 1668.75
47 33.375 ['15', '6', '33', '61', '39', '36'] 1668.75
48 33.375 ['15', '6', '33', '61', '39', '36'] 1668.75
49 33.375 ['15', '6', '33', '61', '39', '36'] 1668.75
50 33.375 ['15', '6', '33', '61', '39', '36'] 1668.75
51 33.375 ['15', '6', '33', '61', '39', '36'] 1668.75
52 33.375 ['15', '6', '33', '61', '39', '36'] 1668.75
53 33.375 ['15', '6', '33', '61', '39', '36'] 1668.75
54 33.375 ['15', '6', '33', '61', '39', '36'] 1668.75
55 33.375 ['15', '6', '33', '61', '39', '36'] 1668.75
56 33.375 ['15', '6', '33', '61', '39', '36'] 1668.75
57 33.375 ['15', '6', '33', '61', '39', '36'] 1668.75
58 33.375 ['15', '6', '33', '61', '39', '36'] 1668.75
59 33.375 ['15', '6', '33', '61', '39', '36'] 1668.75
60 33.375 ['15', '6', '33', '61', '39', '36'] 1668.75
61 33.375 ['15', '6', '33', '61', '39', '36'] 1668.75
62 33.375 ['15', '6', '33', '61', '39', '36'] 1668.75
63 33.375 ['15', '6', '33', '61', '39', '36'] 1668.75
64 33.375 ['15', '6', '33', '61', '39', '36'] 1668.75
65 33.375 ['15', '6', '33', '61', '39', '36'] 1668.75
66 33.375 ['15', '6', '33', '61', '39', '36'] 1668.75
67 33.375 ['15', '6', '33', '61', '39', '36'] 1668.75
68 33.375 ['15', '6', '33', '61', '39', '36'] 1668.75
69 33.375 ['15', '6', '33', '61', '39', '36'] 1668.75
70 33.375 ['15', '6', '33', '61', '39', '36'] 1668.75
71 33.375 ['15', '6', '33', '61', '39', '36'] 1668.75
72 33.375 ['15', '6', '33', '61', '39', '36'] 1668.75
73 33.375 ['15', '6', '33', '61', '39', '36'] 1668.75
74 33.375 ['15', '6', '33', '61', '39', '36'] 1668.75
75 33.375 ['15', '6', '33', '61', '39', '36'] 1668.75
76 33.375 ['15', '6', '33', '61', '39', '36'] 1668.75
77 33.375 ['15', '6', '33', '61', '39', '36'] 1668.75
78 33.375 ['15', '6', '33', '61', '39', '36'] 1668.75
79 33.375 ['15', '6', '33', '61', '39', '36'] 1668.75
80 33.375 ['15', '6', '33', '61', '39', '36'] 1668.75
81 33.375 ['15', '6', '33', '61', '39', '36'] 1668.75
82 33.375 ['15', '6', '33', '61', '39', '36'] 1668.75
83 33.375 ['15', '6', '33', '61', '39', '36'] 1668.75
84 33.375 ['15', '6', '33', '61', '39', '36'] 1668.75
85 33.375 ['15', '6', '33', '61', '39', '36'] 1668.75
86 33.375 ['15', '6', '33', '61', '39', '36'] 1668.75
87 33.375 ['15', '6', '33', '61', '39', '36'] 1668.75
88 33.375 ['15', '6', '33', '61', '39', '36'] 1668.75
89 33.375 ['15', '6', '33', '61', '39', '36'] 1668.75
90 33.375 ['15', '6', '33', '61', '39', '36'] 1668.75
91 33.375 ['15', '6', '33', '61', '39', '36'] 1668.75
92 33.375 ['15', '6', '33', '61', '39', '36'] 1668.75
93 33.375 ['15', '6', '33', '61', '39', '36'] 1668.75
94 33.375 ['15', '6', '33', '61', '39', '36'] 1668.75
95 33.375 ['15', '6', '33', '61', '39', '36'] 1668.75
96 33.375 ['15', '6', '33', '61', '39', '36'] 1668.75
97 33.375 ['15', '6', '33', '61', '39', '36'] 1668.75
98 33.375 ['15', '6', '33', '61', '39', '36'] 1668.75
99 33.375 ['15', '6', '33', '61', '39', '36'] 1668.75
100 33.375 ['15', '6', '33', '61', '39', '36'] 1668.75
101 33.375 ['15', '6', '33', '61', '39', '36'] 1668.75
102 33.375 ['15', '6', '33', '61', '39', '36'] 1668.75
103 33.375 ['15', '6', '33', '61', '39', '36'] 1668.75
104 33.375 ['15', '6', '33', '61', '39', '36'] 1668.75
105 33.375 ['15', '6', '33', '61', '39', '36'] 1668.75
106 33.375 ['15', '6', '33', '61', '39', '36'] 1668.75
107 33.375 ['15', '6', '33', '61', '39', '36'] 1668.75
108 33.375 ['15', '6', '33', '61', '39', '36'] 1668.75
109 33.375 ['15', '6', '33', '61', '39', '36'] 1668.75
110 33.375 ['15', '6', '33', '61', '39', '36'] 1668.75
111 33.375 ['15', '6', '33', '61', '39', '36'] 1668.75
112 33.375 ['15', '6', '33', '61', '39', '36'] 1668.75
113 33.375 ['15', '6', '33', '61', '39', '36'] 1668.75
114 33.375 ['15', '6', '33', '61', '39', '36'] 1668.75
115 33.375 ['15', '6', '33', '61', '39', '36'] 1668.75
116 33.375 ['15', '6', '33', '61', '39', '36'] 1668.75
117 33.375 ['15', '6', '33', '61', '39', '36'] 1668.75
118 33.375 ['15', '6', '33', '61', '39', '36'] 1668.75
119 33.375 ['15', '6', '33', '61', '39', '36'] 1668.75
120 33.375 ['15', '6', '33', '61', '39', '36'] 1668.75
121 33.375 ['15', '6', '33', '61', '39', '36'] 1668.75
122 33.375 ['15', '6', '33', '61', '39', '36'] 1668.75
123 33.375 ['15', '6', '33', '61', '39', '36'] 1668.75
124 33.375 ['15', '6', '33', '61', '39', '36'] 1668.75
125 33.375 ['15', '6', '33', '61', '39', '36'] 1668.75
126 33.375 ['15', '6', '33', '61', '39', '36'] 1668.75
127 33.375 ['15', '6', '33', '61', '39', '36'] 1668.75
128 33.375 ['15', '6', '33', '61', '39', '36'] 1668.75
129 33.375 ['15', '6', '33', '61', '39', '36'] 1668.75
130 33.375 ['15', '6', '33', '61', '39', '36'] 1668.75
131 33.375 ['15', '6', '33', '61', '39', '36'] 1668.75
132 33.375 ['15', '6', '33', '61', '39', '36'] 1668.75
133 33.375 ['15', '6', '33', '61', '39', '36'] 1668.75
134 33.375 ['15', '6', '33', '61', '39', '36'] 1668.75
135 33.375 ['15', '6', '33', '61', '39', '36'] 1668.75
136 33.375 ['15', '6', '33', '61', '39', '36'] 1668.75
137 33.375 ['15', '6', '33', '61', '39', '36'] 1668.75
138 33.375 ['15', '6', '33', '61', '39', '36'] 1668.75
139 33.375 ['15', '6', '33', '61', '39', '36'] 1668.75
140 33.375 ['15', '6', '33', '61', '39', '36'] 1668.75
141 33.375 ['15', '6', '33', '61', '39', '36'] 1668.75
142 33.375 ['15', '6', '33', '61', '39', '36'] 1668.75
143 33.375 ['15', '6', '33', '61', '39', '36'] 1668.75
144 33.375 ['15', '6', '33', '61', '39', '36'] 1668.75
145 33.375 ['15', '6', '33', '61', '39', '36'] 1668.75
146 33.375 ['15', '6', '33', '61', '39', '36'] 1668.75
147 33.375 ['15', '6', '33', '61', '39', '36'] 1668.75
148 33.375 ['15', '6', '33', '61', '39', '36'] 1668.75
149 33.375 ['15', '6', '33', '61', '39', '36'] 1668.75
150 33.375 ['15', '6', '33', '61', '39', '36'] 1668.75
151 33.375 ['15', '6', '33', '61', '39', '36'] 1668.75
152 33.375 ['15', '6', '33', '61', '39', '36'] 1668.75
153 33.375 ['15', '6', '33', '61', '39', '36'] 1668.75
154 33.375 ['15', '6', '33', '61', '39', '36'] 1668.75
155 33.375 ['15', '6', '33', '61', '39', '36'] 1668.75
156 33.375 ['15', '6', '33', '61', '39', '36'] 1668.75
157 33.375 ['15', '6', '33', '61', '39', '36'] 1668.75
158 33.375 ['15', '6', '33', '61', '39', '36'] 1668.75
159 33.375 ['15', '6', '33', '61', '39', '36'] 1668.75
160 33.375 ['15', '6', '33', '61', '39', '36'] 1668.75
161 33.375 ['15', '6', '33', '61', '39', '36'] 1668.75
162 33.375 ['15', '6', '33', '61', '39', '36'] 1668.75
163 33.375 ['15', '6', '33', '61', '39', '36'] 1668.75
164 33.375 ['15', '6', '33', '61', '39', '36'] 1668.75
165 33.375 ['15', '6', '33', '61', '39', '36'] 1668.75
166 33.375 ['15', '6', '33', '61', '39', '36'] 1668.75
167 33.375 ['15', '6', '33', '61', '39', '36'] 1668.75
168 33.375 ['15', '6', '33', '61', '39', '36'] 1668.75
169 33.375 ['15', '6', '33', '61', '39', '36'] 1668.75
170 33.375 ['15', '6', '33', '61', '39', '36'] 1668.75
171 33.375 ['15', '6', '33', '61', '39', '36'] 1668.75
172 33.375 ['15', '6', '33', '61', '39', '36'] 1668.75
173 33.375 ['15', '6', '33', '61', '39', '36'] 1668.75
174 33.375 ['15', '6', '33', '61', '39', '36'] 1668.75
175 33.375 ['15', '6', '33', '61', '39', '36'] 1668.75
176 33.375 ['15', '6', '33', '61', '39', '36'] 1668.75
177 33.375 ['15', '6', '33', '61', '39', '36'] 1668.75
178 33.375 ['15', '6', '33', '61', '39', '36'] 1668.75
179 33.375 ['15', '6', '33', '61', '39', '36'] 1668.75
180 33.375 ['15', '6', '33', '61', '39', '36'] 1668.75
181 33.375 ['15', '6', '33', '61', '39', '36'] 1668.75
182 33.375 ['15', '6', '33', '61', '39', '36'] 1668.75
183 33.375 ['15', '6', '33', '61', '39', '36'] 1668.75
184 33.375 ['15', '6', '33', '61', '39', '36'] 1668.75
185 33.375 ['15', '6', '33', '61', '39', '36'] 1668.75
186 33.375 ['15', '6', '33', '61', '39', '36'] 1668.75
187 33.375 ['15', '6', '33', '61', '39', '36'] 1668.75
188 33.375 ['15', '6', '33', '61', '39', '36'] 1668.75
189 33.375 ['15', '6', '33', '61', '39', '36'] 1668.75
190 33.375 ['15', '6', '33', '61', '39', '36'] 1668.75
191 33.375 ['15', '6', '33', '61', '39', '36'] 1668.75
192 33.375 ['15', '6', '33', '61', '39', '36'] 1668.75
193 33.375 ['15', '6', '33', '61', '39', '36'] 1668.75
194 33.375 ['15', '6', '33', '61', '39', '36'] 1668.75
195 33.375 ['15', '6', '33', '61', '39', '36'] 1668.75
196 33.375 ['15', '6', '33', '61', '39', '36'] 1668.75
197 33.375 ['15', '6', '33', '61', '39', '36'] 1668.75
198 33.375 ['15', '6', '33', '61', '39', '36'] 1668.75
199 33.375 ['15', '6', '33', '61', '39', '36'] 1668.75
