0 4.8 ['2', '9', '20'] 261.73333333333346
1 4.8 ['2', '9', '20'] 254.5333333333331
2 4.8 ['2', '9', '20'] 248.66666666666663
3 4.666666666666667 ['33', '9', '28'] 244.26666666666677
4 4.666666666666667 ['33', '9', '28'] 240.2666666666668
5 4.666666666666667 ['33', '9', '28'] 237.8666666666669
6 4.666666666666667 ['33', '9', '28'] 236.1333333333336
7 4.666666666666667 ['33', '9', '28'] 233.33333333333317
8 4.666666666666667 ['33', '9', '28'] 233.33333333333317
9 4.666666666666667 ['33', '9', '28'] 233.33333333333317
10 4.666666666666667 ['33', '9', '28'] 233.33333333333317
11 4.666666666666667 ['33', '9', '28'] 233.33333333333317
12 4.666666666666667 ['33', '9', '28'] 233.33333333333317
13 4.666666666666667 ['33', '9', '28'] 233.33333333333317
14 4.666666666666667 ['33', '9', '28'] 233.33333333333317
15 4.666666666666667 ['33', '9', '28'] 233.33333333333317
16 4.666666666666667 ['33', '9', '28'] 233.33333333333317
17 4.666666666666667 ['33', '9', '28'] 233.33333333333317
18 4.666666666666667 ['33', '9', '28'] 233.33333333333317
19 4.666666666666667 ['33', '9', '28'] 233.33333333333317
20 4.666666666666667 ['33', '9', '28'] 233.33333333333317
21 4.666666666666667 ['33', '9', '28'] 233.33333333333317
22 4.666666666666667 ['33', '9', '28'] 233.33333333333317
23 4.666666666666667 ['33', '9', '28'] 233.33333333333317
24 4.666666666666667 ['33', '9', '28'] 233.33333333333317
25 4.666666666666667 ['33', '9', '28'] 233.33333333333317
26 4.666666666666667 ['33', '9', '28'] 233.33333333333317
27 4.666666666666667 ['33', '9', '28'] 233.33333333333317
28 4.666666666666667 ['33', '9', '28'] 233.33333333333317
29 4.666666666666667 ['33', '9', '28'] 233.33333333333317
30 4.666666666666667 ['33', '9', '28'] 233.33333333333317
31 4.666666666666667 ['33', '9', '28'] 233.33333333333317
32 4.666666666666667 ['33', '9', '28'] 233.33333333333317
33 4.666666666666667 ['33', '9', '28'] 233.33333333333317
34 4.666666666666667 ['33', '9', '28'] 233.33333333333317
35 4.666666666666667 ['33', '9', '28'] 233.33333333333317
36 4.666666666666667 ['33', '9', '28'] 233.33333333333317
37 4.666666666666667 ['33', '9', '28'] 233.33333333333317
38 4.666666666666667 ['33', '9', '28'] 233.33333333333317
39 4.666666666666667 ['33', '9', '28'] 233.33333333333317
40 4.666666666666667 ['33', '9', '28'] 233.33333333333317
41 4.666666666666667 ['33', '9', '28'] 233.33333333333317
42 4.666666666666667 ['33', '9', '28'] 233.33333333333317
43 4.666666666666667 ['33', '9', '28'] 233.33333333333317
44 4.666666666666667 ['33', '9', '28'] 233.33333333333317
45 4.666666666666667 ['33', '9', '28'] 233.33333333333317
46 4.666666666666667 ['33', '9', '28'] 233.33333333333317
47 4.666666666666667 ['33', '9', '28'] 233.33333333333317
48 4.666666666666667 ['33', '9', '28'] 233.33333333333317
49 4.666666666666667 ['33', '9', '28'] 233.33333333333317
50 4.666666666666667 ['33', '9', '28'] 233.33333333333317
51 4.666666666666667 ['33', '9', '28'] 233.33333333333317
52 4.666666666666667 ['33', '9', '28'] 233.33333333333317
53 4.666666666666667 ['33', '9', '28'] 233.33333333333317
54 4.666666666666667 ['33', '9', '28'] 233.33333333333317
55 4.666666666666667 ['33', '9', '28'] 233.33333333333317
56 4.666666666666667 ['33', '9', '28'] 233.33333333333317
57 4.666666666666667 ['33', '9', '28'] 233.33333333333317
58 4.666666666666667 ['33', '9', '28'] 233.33333333333317
59 4.666666666666667 ['33', '9', '28'] 233.33333333333317
60 4.666666666666667 ['33', '9', '28'] 233.33333333333317
61 4.666666666666667 ['33', '9', '28'] 233.33333333333317
62 4.666666666666667 ['33', '9', '28'] 233.33333333333317
63 4.666666666666667 ['33', '9', '28'] 233.33333333333317
64 4.666666666666667 ['33', '9', '28'] 233.33333333333317
65 4.666666666666667 ['33', '9', '28'] 233.33333333333317
66 4.666666666666667 ['33', '9', '28'] 233.33333333333317
67 4.666666666666667 ['33', '9', '28'] 233.33333333333317
68 4.666666666666667 ['33', '9', '28'] 233.33333333333317
69 4.666666666666667 ['33', '9', '28'] 233.33333333333317
70 4.666666666666667 ['33', '9', '28'] 233.33333333333317
71 4.666666666666667 ['33', '9', '28'] 233.33333333333317
72 4.666666666666667 ['33', '9', '28'] 233.33333333333317
73 4.666666666666667 ['33', '9', '28'] 233.33333333333317
74 4.666666666666667 ['33', '9', '28'] 233.33333333333317
75 4.666666666666667 ['33', '9', '28'] 233.33333333333317
76 4.666666666666667 ['33', '9', '28'] 233.33333333333317
77 4.666666666666667 ['33', '9', '28'] 233.33333333333317
78 4.666666666666667 ['33', '9', '28'] 233.33333333333317
79 4.666666666666667 ['33', '9', '28'] 233.33333333333317
80 4.666666666666667 ['33', '9', '28'] 233.33333333333317
81 4.666666666666667 ['33', '9', '28'] 233.33333333333317
82 4.666666666666667 ['33', '9', '28'] 233.33333333333317
83 4.666666666666667 ['33', '9', '28'] 233.33333333333317
84 4.666666666666667 ['33', '9', '28'] 233.33333333333317
85 4.666666666666667 ['33', '9', '28'] 233.33333333333317
86 4.666666666666667 ['33', '9', '28'] 233.33333333333317
87 4.666666666666667 ['33', '9', '28'] 233.33333333333317
88 4.666666666666667 ['33', '9', '28'] 233.33333333333317
89 4.666666666666667 ['33', '9', '28'] 233.33333333333317
90 4.666666666666667 ['33', '9', '28'] 233.33333333333317
91 4.666666666666667 ['33', '9', '28'] 233.33333333333317
92 4.666666666666667 ['33', '9', '28'] 233.33333333333317
93 4.666666666666667 ['33', '9', '28'] 233.33333333333317
94 4.666666666666667 ['33', '9', '28'] 233.33333333333317
95 4.666666666666667 ['33', '9', '28'] 233.33333333333317
96 4.666666666666667 ['33', '9', '28'] 233.33333333333317
97 4.666666666666667 ['33', '9', '28'] 233.33333333333317
98 4.666666666666667 ['33', '9', '28'] 233.33333333333317
99 4.666666666666667 ['33', '9', '28'] 233.33333333333317
100 4.666666666666667 ['33', '9', '28'] 233.33333333333317
101 4.666666666666667 ['33', '9', '28'] 233.33333333333317
102 4.666666666666667 ['33', '9', '28'] 233.33333333333317
103 4.666666666666667 ['33', '9', '28'] 233.33333333333317
104 4.666666666666667 ['33', '9', '28'] 233.33333333333317
105 4.666666666666667 ['33', '9', '28'] 233.33333333333317
106 4.666666666666667 ['33', '9', '28'] 233.33333333333317
107 4.666666666666667 ['33', '9', '28'] 233.33333333333317
108 4.666666666666667 ['33', '9', '28'] 233.33333333333317
109 4.666666666666667 ['33', '9', '28'] 233.33333333333317
110 4.666666666666667 ['33', '9', '28'] 233.33333333333317
111 4.666666666666667 ['33', '9', '28'] 233.33333333333317
112 4.666666666666667 ['33', '9', '28'] 233.33333333333317
113 4.666666666666667 ['33', '9', '28'] 233.33333333333317
114 4.666666666666667 ['33', '9', '28'] 233.33333333333317
115 4.666666666666667 ['33', '9', '28'] 233.33333333333317
116 4.666666666666667 ['33', '9', '28'] 233.33333333333317
117 4.666666666666667 ['33', '9', '28'] 233.33333333333317
118 4.666666666666667 ['33', '9', '28'] 233.33333333333317
119 4.666666666666667 ['33', '9', '28'] 233.33333333333317
120 4.666666666666667 ['33', '9', '28'] 233.33333333333317
121 4.666666666666667 ['33', '9', '28'] 233.33333333333317
122 4.666666666666667 ['33', '9', '28'] 233.33333333333317
123 4.666666666666667 ['33', '9', '28'] 233.33333333333317
124 4.666666666666667 ['33', '9', '28'] 233.33333333333317
125 4.666666666666667 ['33', '9', '28'] 233.33333333333317
126 4.666666666666667 ['33', '9', '28'] 233.33333333333317
127 4.666666666666667 ['33', '9', '28'] 233.33333333333317
128 4.666666666666667 ['33', '9', '28'] 233.33333333333317
129 4.666666666666667 ['33', '9', '28'] 233.33333333333317
130 4.666666666666667 ['33', '9', '28'] 233.33333333333317
131 4.666666666666667 ['33', '9', '28'] 233.33333333333317
132 4.666666666666667 ['33', '9', '28'] 233.33333333333317
133 4.666666666666667 ['33', '9', '28'] 233.33333333333317
134 4.666666666666667 ['33', '9', '28'] 233.33333333333317
135 4.666666666666667 ['33', '9', '28'] 233.33333333333317
136 4.666666666666667 ['33', '9', '28'] 233.33333333333317
137 4.666666666666667 ['33', '9', '28'] 233.33333333333317
138 4.666666666666667 ['33', '9', '28'] 233.33333333333317
139 4.666666666666667 ['33', '9', '28'] 233.33333333333317
140 4.666666666666667 ['33', '9', '28'] 233.33333333333317
141 4.666666666666667 ['33', '9', '28'] 233.33333333333317
142 4.666666666666667 ['33', '9', '28'] 233.33333333333317
143 4.666666666666667 ['33', '9', '28'] 233.33333333333317
144 4.666666666666667 ['33', '9', '28'] 233.33333333333317
145 4.666666666666667 ['33', '9', '28'] 233.33333333333317
146 4.666666666666667 ['33', '9', '28'] 233.33333333333317
147 4.666666666666667 ['33', '9', '28'] 233.33333333333317
148 4.666666666666667 ['33', '9', '28'] 233.33333333333317
149 4.666666666666667 ['33', '9', '28'] 233.33333333333317
150 4.666666666666667 ['33', '9', '28'] 233.33333333333317
151 4.666666666666667 ['33', '9', '28'] 233.33333333333317
152 4.666666666666667 ['33', '9', '28'] 233.33333333333317
153 4.666666666666667 ['33', '9', '28'] 233.33333333333317
154 4.666666666666667 ['33', '9', '28'] 233.33333333333317
155 4.666666666666667 ['33', '9', '28'] 233.33333333333317
156 4.666666666666667 ['33', '9', '28'] 233.33333333333317
157 4.666666666666667 ['33', '9', '28'] 233.33333333333317
158 4.666666666666667 ['33', '9', '28'] 233.33333333333317
159 4.666666666666667 ['33', '9', '28'] 233.33333333333317
160 4.666666666666667 ['33', '9', '28'] 233.33333333333317
161 4.666666666666667 ['33', '9', '28'] 233.33333333333317
162 4.666666666666667 ['33', '9', '28'] 233.33333333333317
163 4.666666666666667 ['33', '9', '28'] 233.33333333333317
164 4.666666666666667 ['33', '9', '28'] 233.33333333333317
165 4.666666666666667 ['33', '9', '28'] 233.33333333333317
166 4.666666666666667 ['33', '9', '28'] 233.33333333333317
167 4.666666666666667 ['33', '9', '28'] 233.33333333333317
168 4.666666666666667 ['33', '9', '28'] 233.33333333333317
169 4.666666666666667 ['33', '9', '28'] 233.33333333333317
170 4.666666666666667 ['33', '9', '28'] 233.33333333333317
171 4.666666666666667 ['33', '9', '28'] 233.33333333333317
172 4.666666666666667 ['33', '9', '28'] 233.33333333333317
173 4.666666666666667 ['33', '9', '28'] 233.33333333333317
174 4.666666666666667 ['33', '9', '28'] 233.33333333333317
175 4.666666666666667 ['33', '9', '28'] 233.33333333333317
176 4.666666666666667 ['33', '9', '28'] 233.33333333333317
177 4.666666666666667 ['33', '9', '28'] 233.33333333333317
178 4.666666666666667 ['33', '9', '28'] 233.33333333333317
179 4.666666666666667 ['33', '9', '28'] 233.33333333333317
180 4.666666666666667 ['33', '9', '28'] 233.33333333333317
181 4.666666666666667 ['33', '9', '28'] 233.33333333333317
182 4.666666666666667 ['33', '9', '28'] 233.33333333333317
183 4.666666666666667 ['33', '9', '28'] 233.33333333333317
184 4.666666666666667 ['33', '9', '28'] 233.33333333333317
185 4.666666666666667 ['33', '9', '28'] 233.33333333333317
186 4.666666666666667 ['33', '9', '28'] 233.33333333333317
187 4.666666666666667 ['33', '9', '28'] 233.33333333333317
188 4.666666666666667 ['33', '9', '28'] 233.33333333333317
189 4.666666666666667 ['33', '9', '28'] 233.33333333333317
190 4.666666666666667 ['33', '9', '28'] 233.33333333333317
191 4.666666666666667 ['33', '9', '28'] 233.33333333333317
192 4.666666666666667 ['33', '9', '28'] 233.33333333333317
193 4.666666666666667 ['33', '9', '28'] 233.33333333333317
194 4.666666666666667 ['33', '9', '28'] 233.33333333333317
195 4.666666666666667 ['33', '9', '28'] 233.33333333333317
196 4.666666666666667 ['33', '9', '28'] 233.33333333333317
197 4.666666666666667 ['33', '9', '28'] 233.33333333333317
198 4.666666666666667 ['33', '9', '28'] 233.33333333333317
199 4.666666666666667 ['33', '9', '28'] 233.33333333333317
