0 416.7674418604651 ['41', '18', '9', '40'] 22485.488372093027
1 409.5581395348837 ['40', '41', '31', '18'] 21889.16279069768
2 405.3720930232558 ['40', '41', '31', '9'] 21371.83720930232
3 399.5813953488372 ['31', '41', '40', '14'] 20864.23255813953
4 393.25581395348837 ['41', '14', '31', '22'] 20548.09302325582
5 393.25581395348837 ['41', '14', '31', '22'] 20287.20930232557
6 393.25581395348837 ['41', '14', '31', '22'] 20092.46511627907
7 393.1860465116279 ['31', '14', '22', '40'] 19933.069767441855
8 393.1860465116279 ['31', '14', '22', '40'] 19866.186046511633
9 393.1860465116279 ['31', '14', '22', '40'] 19769.418604651168
10 393.1860465116279 ['31', '14', '22', '40'] 19691.11627906977
11 393.1860465116279 ['31', '14', '22', '40'] 19659.37209302327
12 393.1860465116279 ['31', '14', '22', '40'] 19659.30232558141
13 393.1860465116279 ['31', '14', '22', '40'] 19659.30232558141
14 393.1860465116279 ['31', '14', '22', '40'] 19659.30232558141
15 393.1860465116279 ['31', '14', '22', '40'] 19659.30232558141
16 393.1860465116279 ['31', '14', '22', '40'] 19659.30232558141
17 393.1860465116279 ['31', '14', '22', '40'] 19659.30232558141
18 393.1860465116279 ['31', '14', '22', '40'] 19659.30232558141
19 393.1860465116279 ['31', '14', '22', '40'] 19659.30232558141
20 393.1860465116279 ['31', '14', '22', '40'] 19659.30232558141
21 393.1860465116279 ['31', '14', '22', '40'] 19659.30232558141
22 393.1860465116279 ['31', '14', '22', '40'] 19659.30232558141
23 393.1860465116279 ['31', '14', '22', '40'] 19659.30232558141
24 393.1860465116279 ['31', '14', '22', '40'] 19659.30232558141
25 393.1860465116279 ['31', '14', '22', '40'] 19659.30232558141
26 393.1860465116279 ['31', '14', '22', '40'] 19659.30232558141
27 393.1860465116279 ['31', '14', '22', '40'] 19659.30232558141
28 393.1860465116279 ['31', '14', '22', '40'] 19659.30232558141
29 393.1860465116279 ['31', '14', '22', '40'] 19659.30232558141
30 393.1860465116279 ['31', '14', '22', '40'] 19659.30232558141
31 393.1860465116279 ['31', '14', '22', '40'] 19659.30232558141
32 393.1860465116279 ['31', '14', '22', '40'] 19659.30232558141
33 393.1860465116279 ['31', '14', '22', '40'] 19659.30232558141
34 393.1860465116279 ['31', '14', '22', '40'] 19659.30232558141
35 393.1860465116279 ['31', '14', '22', '40'] 19659.30232558141
36 393.1860465116279 ['31', '14', '22', '40'] 19659.30232558141
37 393.1860465116279 ['31', '14', '22', '40'] 19659.30232558141
38 393.1860465116279 ['31', '14', '22', '40'] 19659.30232558141
39 393.1860465116279 ['31', '14', '22', '40'] 19659.30232558141
40 393.1860465116279 ['31', '14', '22', '40'] 19659.30232558141
41 393.1860465116279 ['31', '14', '22', '40'] 19659.30232558141
42 393.1860465116279 ['31', '14', '22', '40'] 19659.30232558141
43 393.1860465116279 ['31', '14', '22', '40'] 19659.30232558141
44 393.1860465116279 ['31', '14', '22', '40'] 19659.30232558141
45 393.1860465116279 ['31', '14', '22', '40'] 19659.30232558141
46 393.1860465116279 ['31', '14', '22', '40'] 19659.30232558141
47 393.1860465116279 ['31', '14', '22', '40'] 19659.30232558141
48 393.1860465116279 ['31', '14', '22', '40'] 19659.30232558141
49 393.1860465116279 ['31', '14', '22', '40'] 19659.30232558141
50 393.1860465116279 ['31', '14', '22', '40'] 19659.30232558141
51 393.1860465116279 ['31', '14', '22', '40'] 19659.30232558141
52 393.1860465116279 ['31', '14', '22', '40'] 19659.30232558141
53 393.1860465116279 ['31', '14', '22', '40'] 19659.30232558141
54 393.1860465116279 ['31', '14', '22', '40'] 19659.30232558141
55 393.1860465116279 ['31', '14', '22', '40'] 19659.30232558141
56 393.1860465116279 ['31', '14', '22', '40'] 19659.30232558141
57 393.1860465116279 ['31', '14', '22', '40'] 19659.30232558141
58 393.1860465116279 ['31', '14', '22', '40'] 19659.30232558141
59 393.1860465116279 ['31', '14', '22', '40'] 19659.30232558141
60 393.1860465116279 ['31', '14', '22', '40'] 19659.30232558141
61 393.1860465116279 ['31', '14', '22', '40'] 19659.30232558141
62 393.1860465116279 ['31', '14', '22', '40'] 19659.30232558141
63 393.1860465116279 ['31', '14', '22', '40'] 19659.30232558141
64 393.1860465116279 ['31', '14', '22', '40'] 19659.30232558141
65 393.1860465116279 ['31', '14', '22', '40'] 19659.30232558141
66 393.1860465116279 ['31', '14', '22', '40'] 19659.30232558141
67 393.1860465116279 ['31', '14', '22', '40'] 19659.30232558141
68 393.1860465116279 ['31', '14', '22', '40'] 19659.30232558141
69 393.1860465116279 ['31', '14', '22', '40'] 19659.30232558141
70 393.1860465116279 ['31', '14', '22', '40'] 19659.30232558141
71 393.1860465116279 ['31', '14', '22', '40'] 19659.30232558141
72 393.1860465116279 ['31', '14', '22', '40'] 19659.30232558141
73 393.1860465116279 ['31', '14', '22', '40'] 19659.30232558141
74 393.1860465116279 ['31', '14', '22', '40'] 19659.30232558141
75 393.1860465116279 ['31', '14', '22', '40'] 19659.30232558141
76 393.1860465116279 ['31', '14', '22', '40'] 19659.30232558141
77 393.1860465116279 ['31', '14', '22', '40'] 19659.30232558141
78 393.1860465116279 ['31', '14', '22', '40'] 19659.30232558141
79 393.1860465116279 ['31', '14', '22', '40'] 19659.30232558141
80 393.1860465116279 ['31', '14', '22', '40'] 19659.30232558141
81 393.1860465116279 ['31', '14', '22', '40'] 19659.30232558141
82 393.1860465116279 ['31', '14', '22', '40'] 19659.30232558141
83 393.1860465116279 ['31', '14', '22', '40'] 19659.30232558141
84 393.1860465116279 ['31', '14', '22', '40'] 19659.30232558141
85 393.1860465116279 ['31', '14', '22', '40'] 19659.30232558141
86 393.1860465116279 ['31', '14', '22', '40'] 19659.30232558141
87 393.1860465116279 ['31', '14', '22', '40'] 19659.30232558141
88 393.1860465116279 ['31', '14', '22', '40'] 19659.30232558141
89 393.1860465116279 ['31', '14', '22', '40'] 19659.30232558141
90 393.1860465116279 ['31', '14', '22', '40'] 19659.30232558141
91 393.1860465116279 ['31', '14', '22', '40'] 19659.30232558141
92 393.1860465116279 ['31', '14', '22', '40'] 19659.30232558141
93 393.1860465116279 ['31', '14', '22', '40'] 19659.30232558141
94 393.1860465116279 ['31', '14', '22', '40'] 19659.30232558141
95 393.1860465116279 ['31', '14', '22', '40'] 19659.30232558141
96 393.1860465116279 ['31', '14', '22', '40'] 19659.30232558141
97 393.1860465116279 ['31', '14', '22', '40'] 19659.30232558141
98 393.1860465116279 ['31', '14', '22', '40'] 19659.30232558141
99 393.1860465116279 ['31', '14', '22', '40'] 19659.30232558141
100 393.1860465116279 ['31', '14', '22', '40'] 19659.30232558141
101 393.1860465116279 ['31', '14', '22', '40'] 19659.30232558141
102 393.1860465116279 ['31', '14', '22', '40'] 19659.30232558141
103 393.1860465116279 ['31', '14', '22', '40'] 19659.30232558141
104 393.1860465116279 ['31', '14', '22', '40'] 19659.30232558141
105 393.1860465116279 ['31', '14', '22', '40'] 19659.30232558141
106 393.1860465116279 ['31', '14', '22', '40'] 19659.30232558141
107 393.1860465116279 ['31', '14', '22', '40'] 19659.30232558141
108 393.1860465116279 ['31', '14', '22', '40'] 19659.30232558141
109 393.1860465116279 ['31', '14', '22', '40'] 19659.30232558141
110 393.1860465116279 ['31', '14', '22', '40'] 19659.30232558141
111 393.1860465116279 ['31', '14', '22', '40'] 19659.30232558141
112 393.1860465116279 ['31', '14', '22', '40'] 19659.30232558141
113 393.1860465116279 ['31', '14', '22', '40'] 19659.30232558141
114 393.1860465116279 ['31', '14', '22', '40'] 19659.30232558141
115 393.1860465116279 ['31', '14', '22', '40'] 19659.30232558141
116 393.1860465116279 ['31', '14', '22', '40'] 19659.30232558141
117 393.1860465116279 ['31', '14', '22', '40'] 19659.30232558141
118 393.1860465116279 ['31', '14', '22', '40'] 19659.30232558141
119 393.1860465116279 ['31', '14', '22', '40'] 19659.30232558141
120 393.1860465116279 ['31', '14', '22', '40'] 19659.30232558141
121 393.1860465116279 ['31', '14', '22', '40'] 19659.30232558141
122 393.1860465116279 ['31', '14', '22', '40'] 19659.30232558141
123 393.1860465116279 ['31', '14', '22', '40'] 19659.30232558141
124 393.1860465116279 ['31', '14', '22', '40'] 19659.30232558141
125 393.1860465116279 ['31', '14', '22', '40'] 19659.30232558141
126 393.1860465116279 ['31', '14', '22', '40'] 19659.30232558141
127 393.1860465116279 ['31', '14', '22', '40'] 19659.30232558141
128 393.1860465116279 ['31', '14', '22', '40'] 19659.30232558141
129 393.1860465116279 ['31', '14', '22', '40'] 19659.30232558141
130 393.1860465116279 ['31', '14', '22', '40'] 19659.30232558141
131 393.1860465116279 ['31', '14', '22', '40'] 19659.30232558141
132 393.1860465116279 ['31', '14', '22', '40'] 19659.30232558141
133 393.1860465116279 ['31', '14', '22', '40'] 19659.30232558141
134 393.1860465116279 ['31', '14', '22', '40'] 19659.30232558141
135 393.1860465116279 ['31', '14', '22', '40'] 19659.30232558141
136 393.1860465116279 ['31', '14', '22', '40'] 19659.30232558141
137 393.1860465116279 ['31', '14', '22', '40'] 19659.30232558141
138 393.1860465116279 ['31', '14', '22', '40'] 19659.30232558141
139 393.1860465116279 ['31', '14', '22', '40'] 19659.30232558141
140 393.1860465116279 ['31', '14', '22', '40'] 19659.30232558141
141 393.1860465116279 ['31', '14', '22', '40'] 19659.30232558141
142 393.1860465116279 ['31', '14', '22', '40'] 19659.30232558141
143 393.1860465116279 ['31', '14', '22', '40'] 19659.30232558141
144 393.1860465116279 ['31', '14', '22', '40'] 19659.30232558141
145 393.1860465116279 ['31', '14', '22', '40'] 19659.30232558141
146 393.1860465116279 ['31', '14', '22', '40'] 19659.30232558141
147 393.1860465116279 ['31', '14', '22', '40'] 19659.30232558141
148 393.1860465116279 ['31', '14', '22', '40'] 19659.30232558141
149 393.1860465116279 ['31', '14', '22', '40'] 19659.30232558141
150 393.1860465116279 ['31', '14', '22', '40'] 19659.30232558141
151 393.1860465116279 ['31', '14', '22', '40'] 19659.30232558141
152 393.1860465116279 ['31', '14', '22', '40'] 19659.30232558141
153 393.1860465116279 ['31', '14', '22', '40'] 19659.30232558141
154 393.1860465116279 ['31', '14', '22', '40'] 19659.30232558141
155 393.1860465116279 ['31', '14', '22', '40'] 19659.30232558141
156 393.1860465116279 ['31', '14', '22', '40'] 19659.30232558141
157 393.1860465116279 ['31', '14', '22', '40'] 19659.30232558141
158 393.1860465116279 ['31', '14', '22', '40'] 19659.30232558141
159 393.1860465116279 ['31', '14', '22', '40'] 19659.30232558141
160 393.1860465116279 ['31', '14', '22', '40'] 19659.30232558141
161 393.1860465116279 ['31', '14', '22', '40'] 19659.30232558141
162 393.1860465116279 ['31', '14', '22', '40'] 19659.30232558141
163 393.1860465116279 ['31', '14', '22', '40'] 19659.30232558141
164 393.1860465116279 ['31', '14', '22', '40'] 19659.30232558141
165 393.1860465116279 ['31', '14', '22', '40'] 19659.30232558141
166 393.1860465116279 ['31', '14', '22', '40'] 19659.30232558141
167 393.1860465116279 ['31', '14', '22', '40'] 19659.30232558141
168 393.1860465116279 ['31', '14', '22', '40'] 19659.30232558141
169 393.1860465116279 ['31', '14', '22', '40'] 19659.30232558141
170 393.1860465116279 ['31', '14', '22', '40'] 19659.30232558141
171 393.1860465116279 ['31', '14', '22', '40'] 19659.30232558141
172 393.1860465116279 ['31', '14', '22', '40'] 19659.30232558141
173 393.1860465116279 ['31', '14', '22', '40'] 19659.30232558141
174 393.1860465116279 ['31', '14', '22', '40'] 19659.30232558141
175 393.1860465116279 ['31', '14', '22', '40'] 19659.30232558141
176 393.1860465116279 ['31', '14', '22', '40'] 19659.30232558141
177 393.1860465116279 ['31', '14', '22', '40'] 19659.30232558141
178 393.1860465116279 ['31', '14', '22', '40'] 19659.30232558141
179 393.1860465116279 ['31', '14', '22', '40'] 19659.30232558141
180 393.1860465116279 ['31', '14', '22', '40'] 19659.30232558141
181 393.1860465116279 ['31', '14', '22', '40'] 19659.30232558141
182 393.1860465116279 ['31', '14', '22', '40'] 19659.30232558141
183 393.1860465116279 ['31', '14', '22', '40'] 19659.30232558141
184 393.1860465116279 ['31', '14', '22', '40'] 19659.30232558141
185 393.1860465116279 ['31', '14', '22', '40'] 19659.30232558141
186 393.1860465116279 ['31', '14', '22', '40'] 19659.30232558141
187 393.1860465116279 ['31', '14', '22', '40'] 19659.30232558141
188 393.1860465116279 ['31', '14', '22', '40'] 19659.30232558141
189 393.1860465116279 ['31', '14', '22', '40'] 19659.30232558141
190 393.1860465116279 ['31', '14', '22', '40'] 19659.30232558141
191 393.1860465116279 ['31', '14', '22', '40'] 19659.30232558141
192 393.1860465116279 ['31', '14', '22', '40'] 19659.30232558141
193 393.1860465116279 ['31', '14', '22', '40'] 19659.30232558141
194 393.1860465116279 ['31', '14', '22', '40'] 19659.30232558141
195 393.1860465116279 ['31', '14', '22', '40'] 19659.30232558141
196 393.1860465116279 ['31', '14', '22', '40'] 19659.30232558141
197 393.1860465116279 ['31', '14', '22', '40'] 19659.30232558141
198 393.1860465116279 ['31', '14', '22', '40'] 19659.30232558141
199 393.1860465116279 ['31', '14', '22', '40'] 19659.30232558141
