0 13.177777777777777 ['140', '142', '136', '55', '33', '138', '129', '88', '42', '104', '28', '22', '135', '98', '119'] 682.6666666666667
1 13.177777777777777 ['140', '142', '136', '55', '33', '138', '129', '88', '42', '104', '28', '22', '135', '98', '119'] 676.9037037037033
2 13.133333333333333 ['142', '129', '104', '130', '132', '148', '123', '40', '55', '65', '5', '97', '140', '46', '134'] 670.9555555555553
3 12.992592592592592 ['5', '99', '134', '125', '148', '131', '117', '65', '129', '130', '128', '40', '142', '71', '115'] 664.3703703703702
4 12.91851851851852 ['5', '97', '55', '134', '129', '131', '132', '46', '125', '65', '123', '142', '117', '99', '148'] 658.7259259259262
5 12.74074074074074 ['5', '134', '117', '62', '128', '51', '136', '113', '99', '137', '119', '95', '135', '33', '125'] 652.4666666666669
6 12.725925925925926 ['149', '62', '135', '122', '134', '146', '68', '24', '138', '36', '55', '148', '119', '115', '136'] 647.0592592592595
7 12.614814814814816 ['134', '135', '142', '115', '61', '122', '125', '149', '138', '106', '19', '133', '97', '119', '68'] 642.0888888888886
8 12.496296296296297 ['136', '135', '98', '55', '138', '125', '106', '128', '17', '51', '142', '134', '148', '113', '119'] 637.6518518518518
9 12.42962962962963 ['138', '125', '134', '135', '19', '115', '142', '97', '149', '129', '133', '148', '61', '122', '143'] 633.3851851851857
10 12.4 ['142', '138', '119', '147', '105', '123', '135', '68', '148', '98', '134', '97', '149', '140', '133'] 628.9629629629626
11 12.355555555555556 ['97', '122', '134', '142', '149', '135', '138', '104', '136', '61', '137', '147', '148', '117', '146'] 625.125925925926
12 12.251851851851852 ['128', '134', '123', '136', '138', '135', '119', '104', '148', '113', '125', '51', '99', '137', '142'] 621.6222222222219
13 12.192592592592593 ['138', '148', '134', '135', '142', '97', '123', '122', '129', '146', '98', '113', '125', '137', '51'] 618.3259259259258
14 12.11111111111111 ['125', '148', '123', '51', '129', '142', '135', '134', '138', '98', '113', '146', '149', '122', '119'] 615.1407407407403
15 12.11111111111111 ['125', '148', '123', '51', '129', '142', '135', '134', '138', '98', '113', '146', '149', '122', '119'] 612.3185185185185
16 12.066666666666666 ['135', '123', '138', '125', '142', '148', '119', '134', '136', '130', '122', '113', '132', '128', '149'] 609.8592592592593
17 11.992592592592592 ['148', '134', '125', '123', '136', '142', '135', '119', '113', '128', '138', '129', '132', '130', '149'] 607.3851851851856
18 11.992592592592592 ['148', '134', '125', '123', '136', '142', '135', '119', '113', '128', '138', '129', '132', '130', '149'] 605.2666666666664
19 11.985185185185186 ['119', '134', '138', '143', '123', '148', '113', '125', '142', '149', '135', '129', '97', '136', '147'] 603.0962962962961
20 11.97037037037037 ['125', '129', '113', '138', '134', '123', '148', '135', '142', '149', '128', '119', '132', '137', '147'] 601.7037037037037
21 11.97037037037037 ['125', '129', '113', '138', '134', '123', '148', '135', '142', '149', '128', '119', '132', '137', '147'] 600.6000000000001
22 11.962962962962964 ['149', '147', '136', '119', '148', '123', '142', '113', '97', '138', '134', '135', '125', '132', '129'] 599.5925925925926
23 11.948148148148148 ['129', '113', '123', '135', '138', '119', '142', '149', '125', '134', '136', '148', '132', '97', '143'] 598.9259259259256
24 11.948148148148148 ['129', '113', '123', '135', '138', '119', '142', '149', '125', '134', '136', '148', '132', '97', '143'] 598.5777777777773
25 11.948148148148148 ['129', '113', '123', '135', '138', '119', '142', '149', '125', '134', '136', '148', '132', '97', '143'] 598.3999999999994
26 11.948148148148148 ['129', '113', '123', '135', '138', '119', '142', '149', '125', '134', '136', '148', '132', '97', '143'] 598.2592592592586
27 11.948148148148148 ['129', '113', '123', '135', '138', '119', '142', '149', '125', '134', '136', '148', '132', '97', '143'] 598.096296296296
28 11.948148148148148 ['129', '113', '123', '135', '138', '119', '142', '149', '125', '134', '136', '148', '132', '97', '143'] 597.7703703703705
29 11.948148148148148 ['129', '113', '123', '135', '138', '119', '142', '149', '125', '134', '136', '148', '132', '97', '143'] 597.5851851851852
30 11.948148148148148 ['129', '113', '123', '135', '138', '119', '142', '149', '125', '134', '136', '148', '132', '97', '143'] 597.4148148148147
31 11.948148148148148 ['129', '113', '123', '135', '138', '119', '142', '149', '125', '134', '136', '148', '132', '97', '143'] 597.4074074074073
32 11.948148148148148 ['129', '113', '123', '135', '138', '119', '142', '149', '125', '134', '136', '148', '132', '97', '143'] 597.4074074074073
33 11.948148148148148 ['129', '113', '123', '135', '138', '119', '142', '149', '125', '134', '136', '148', '132', '97', '143'] 597.4074074074073
34 11.948148148148148 ['129', '113', '123', '135', '138', '119', '142', '149', '125', '134', '136', '148', '132', '97', '143'] 597.4074074074073
35 11.948148148148148 ['129', '113', '123', '135', '138', '119', '142', '149', '125', '134', '136', '148', '132', '97', '143'] 597.4074074074073
36 11.948148148148148 ['129', '113', '123', '135', '138', '119', '142', '149', '125', '134', '136', '148', '132', '97', '143'] 597.4074074074073
37 11.948148148148148 ['129', '113', '123', '135', '138', '119', '142', '149', '125', '134', '136', '148', '132', '97', '143'] 597.4074074074073
38 11.948148148148148 ['129', '113', '123', '135', '138', '119', '142', '149', '125', '134', '136', '148', '132', '97', '143'] 597.4074074074073
39 11.948148148148148 ['129', '113', '123', '135', '138', '119', '142', '149', '125', '134', '136', '148', '132', '97', '143'] 597.4074074074073
40 11.948148148148148 ['129', '113', '123', '135', '138', '119', '142', '149', '125', '134', '136', '148', '132', '97', '143'] 597.4074074074073
41 11.948148148148148 ['129', '113', '123', '135', '138', '119', '142', '149', '125', '134', '136', '148', '132', '97', '143'] 597.4074074074073
42 11.948148148148148 ['129', '113', '123', '135', '138', '119', '142', '149', '125', '134', '136', '148', '132', '97', '143'] 597.4074074074073
43 11.948148148148148 ['129', '113', '123', '135', '138', '119', '142', '149', '125', '134', '136', '148', '132', '97', '143'] 597.4074074074073
44 11.948148148148148 ['129', '113', '123', '135', '138', '119', '142', '149', '125', '134', '136', '148', '132', '97', '143'] 597.4074074074073
45 11.948148148148148 ['129', '113', '123', '135', '138', '119', '142', '149', '125', '134', '136', '148', '132', '97', '143'] 597.4074074074073
46 11.948148148148148 ['129', '113', '123', '135', '138', '119', '142', '149', '125', '134', '136', '148', '132', '97', '143'] 597.4074074074073
47 11.948148148148148 ['129', '113', '123', '135', '138', '119', '142', '149', '125', '134', '136', '148', '132', '97', '143'] 597.4074074074073
48 11.948148148148148 ['129', '113', '123', '135', '138', '119', '142', '149', '125', '134', '136', '148', '132', '97', '143'] 597.4074074074073
49 11.948148148148148 ['129', '113', '123', '135', '138', '119', '142', '149', '125', '134', '136', '148', '132', '97', '143'] 597.4074074074073
50 11.948148148148148 ['129', '113', '123', '135', '138', '119', '142', '149', '125', '134', '136', '148', '132', '97', '143'] 597.4074074074073
51 11.948148148148148 ['129', '113', '123', '135', '138', '119', '142', '149', '125', '134', '136', '148', '132', '97', '143'] 597.4074074074073
52 11.948148148148148 ['129', '113', '123', '135', '138', '119', '142', '149', '125', '134', '136', '148', '132', '97', '143'] 597.4074074074073
53 11.948148148148148 ['129', '113', '123', '135', '138', '119', '142', '149', '125', '134', '136', '148', '132', '97', '143'] 597.4074074074073
54 11.948148148148148 ['129', '113', '123', '135', '138', '119', '142', '149', '125', '134', '136', '148', '132', '97', '143'] 597.4074074074073
55 11.948148148148148 ['129', '113', '123', '135', '138', '119', '142', '149', '125', '134', '136', '148', '132', '97', '143'] 597.4074074074073
56 11.948148148148148 ['129', '113', '123', '135', '138', '119', '142', '149', '125', '134', '136', '148', '132', '97', '143'] 597.4074074074073
57 11.948148148148148 ['129', '113', '123', '135', '138', '119', '142', '149', '125', '134', '136', '148', '132', '97', '143'] 597.4074074074073
58 11.948148148148148 ['129', '113', '123', '135', '138', '119', '142', '149', '125', '134', '136', '148', '132', '97', '143'] 597.4074074074073
59 11.948148148148148 ['129', '113', '123', '135', '138', '119', '142', '149', '125', '134', '136', '148', '132', '97', '143'] 597.4074074074073
60 11.948148148148148 ['129', '113', '123', '135', '138', '119', '142', '149', '125', '134', '136', '148', '132', '97', '143'] 597.4074074074073
61 11.948148148148148 ['129', '113', '123', '135', '138', '119', '142', '149', '125', '134', '136', '148', '132', '97', '143'] 597.4074074074073
62 11.948148148148148 ['129', '113', '123', '135', '138', '119', '142', '149', '125', '134', '136', '148', '132', '97', '143'] 597.4074074074073
63 11.948148148148148 ['129', '113', '123', '135', '138', '119', '142', '149', '125', '134', '136', '148', '132', '97', '143'] 597.4074074074073
64 11.948148148148148 ['129', '113', '123', '135', '138', '119', '142', '149', '125', '134', '136', '148', '132', '97', '143'] 597.4074074074073
65 11.948148148148148 ['129', '113', '123', '135', '138', '119', '142', '149', '125', '134', '136', '148', '132', '97', '143'] 597.4074074074073
66 11.948148148148148 ['129', '113', '123', '135', '138', '119', '142', '149', '125', '134', '136', '148', '132', '97', '143'] 597.4074074074073
67 11.948148148148148 ['129', '113', '123', '135', '138', '119', '142', '149', '125', '134', '136', '148', '132', '97', '143'] 597.4074074074073
68 11.948148148148148 ['129', '113', '123', '135', '138', '119', '142', '149', '125', '134', '136', '148', '132', '97', '143'] 597.4074074074073
69 11.948148148148148 ['129', '113', '123', '135', '138', '119', '142', '149', '125', '134', '136', '148', '132', '97', '143'] 597.4074074074073
70 11.948148148148148 ['129', '113', '123', '135', '138', '119', '142', '149', '125', '134', '136', '148', '132', '97', '143'] 597.4074074074073
71 11.948148148148148 ['129', '113', '123', '135', '138', '119', '142', '149', '125', '134', '136', '148', '132', '97', '143'] 597.4074074074073
72 11.948148148148148 ['129', '113', '123', '135', '138', '119', '142', '149', '125', '134', '136', '148', '132', '97', '143'] 597.4074074074073
73 11.948148148148148 ['129', '113', '123', '135', '138', '119', '142', '149', '125', '134', '136', '148', '132', '97', '143'] 597.4074074074073
74 11.948148148148148 ['129', '113', '123', '135', '138', '119', '142', '149', '125', '134', '136', '148', '132', '97', '143'] 597.4074074074073
75 11.948148148148148 ['129', '113', '123', '135', '138', '119', '142', '149', '125', '134', '136', '148', '132', '97', '143'] 597.4074074074073
76 11.948148148148148 ['129', '113', '123', '135', '138', '119', '142', '149', '125', '134', '136', '148', '132', '97', '143'] 597.4074074074073
77 11.948148148148148 ['129', '113', '123', '135', '138', '119', '142', '149', '125', '134', '136', '148', '132', '97', '143'] 597.4074074074073
78 11.948148148148148 ['129', '113', '123', '135', '138', '119', '142', '149', '125', '134', '136', '148', '132', '97', '143'] 597.4074074074073
79 11.948148148148148 ['129', '113', '123', '135', '138', '119', '142', '149', '125', '134', '136', '148', '132', '97', '143'] 597.4074074074073
80 11.948148148148148 ['129', '113', '123', '135', '138', '119', '142', '149', '125', '134', '136', '148', '132', '97', '143'] 597.4074074074073
81 11.948148148148148 ['129', '113', '123', '135', '138', '119', '142', '149', '125', '134', '136', '148', '132', '97', '143'] 597.4074074074073
82 11.948148148148148 ['129', '113', '123', '135', '138', '119', '142', '149', '125', '134', '136', '148', '132', '97', '143'] 597.4074074074073
83 11.948148148148148 ['129', '113', '123', '135', '138', '119', '142', '149', '125', '134', '136', '148', '132', '97', '143'] 597.4074074074073
84 11.948148148148148 ['129', '113', '123', '135', '138', '119', '142', '149', '125', '134', '136', '148', '132', '97', '143'] 597.4074074074073
85 11.948148148148148 ['129', '113', '123', '135', '138', '119', '142', '149', '125', '134', '136', '148', '132', '97', '143'] 597.4074074074073
86 11.948148148148148 ['129', '113', '123', '135', '138', '119', '142', '149', '125', '134', '136', '148', '132', '97', '143'] 597.4074074074073
87 11.948148148148148 ['129', '113', '123', '135', '138', '119', '142', '149', '125', '134', '136', '148', '132', '97', '143'] 597.4074074074073
88 11.948148148148148 ['129', '113', '123', '135', '138', '119', '142', '149', '125', '134', '136', '148', '132', '97', '143'] 597.4074074074073
89 11.948148148148148 ['129', '113', '123', '135', '138', '119', '142', '149', '125', '134', '136', '148', '132', '97', '143'] 597.4074074074073
90 11.948148148148148 ['129', '113', '123', '135', '138', '119', '142', '149', '125', '134', '136', '148', '132', '97', '143'] 597.4074074074073
91 11.948148148148148 ['129', '113', '123', '135', '138', '119', '142', '149', '125', '134', '136', '148', '132', '97', '143'] 597.4074074074073
92 11.948148148148148 ['129', '113', '123', '135', '138', '119', '142', '149', '125', '134', '136', '148', '132', '97', '143'] 597.4074074074073
93 11.948148148148148 ['129', '113', '123', '135', '138', '119', '142', '149', '125', '134', '136', '148', '132', '97', '143'] 597.4074074074073
94 11.948148148148148 ['129', '113', '123', '135', '138', '119', '142', '149', '125', '134', '136', '148', '132', '97', '143'] 597.4074074074073
95 11.948148148148148 ['129', '113', '123', '135', '138', '119', '142', '149', '125', '134', '136', '148', '132', '97', '143'] 597.4074074074073
96 11.948148148148148 ['129', '113', '123', '135', '138', '119', '142', '149', '125', '134', '136', '148', '132', '97', '143'] 597.4074074074073
97 11.948148148148148 ['129', '113', '123', '135', '138', '119', '142', '149', '125', '134', '136', '148', '132', '97', '143'] 597.4074074074073
98 11.948148148148148 ['129', '113', '123', '135', '138', '119', '142', '149', '125', '134', '136', '148', '132', '97', '143'] 597.4074074074073
99 11.948148148148148 ['129', '113', '123', '135', '138', '119', '142', '149', '125', '134', '136', '148', '132', '97', '143'] 597.4074074074073
100 11.948148148148148 ['129', '113', '123', '135', '138', '119', '142', '149', '125', '134', '136', '148', '132', '97', '143'] 597.4074074074073
101 11.948148148148148 ['129', '113', '123', '135', '138', '119', '142', '149', '125', '134', '136', '148', '132', '97', '143'] 597.4074074074073
102 11.948148148148148 ['129', '113', '123', '135', '138', '119', '142', '149', '125', '134', '136', '148', '132', '97', '143'] 597.4074074074073
103 11.948148148148148 ['129', '113', '123', '135', '138', '119', '142', '149', '125', '134', '136', '148', '132', '97', '143'] 597.4074074074073
104 11.948148148148148 ['129', '113', '123', '135', '138', '119', '142', '149', '125', '134', '136', '148', '132', '97', '143'] 597.4074074074073
105 11.948148148148148 ['129', '113', '123', '135', '138', '119', '142', '149', '125', '134', '136', '148', '132', '97', '143'] 597.4074074074073
106 11.948148148148148 ['129', '113', '123', '135', '138', '119', '142', '149', '125', '134', '136', '148', '132', '97', '143'] 597.4074074074073
107 11.948148148148148 ['129', '113', '123', '135', '138', '119', '142', '149', '125', '134', '136', '148', '132', '97', '143'] 597.4074074074073
108 11.948148148148148 ['129', '113', '123', '135', '138', '119', '142', '149', '125', '134', '136', '148', '132', '97', '143'] 597.4074074074073
109 11.948148148148148 ['129', '113', '123', '135', '138', '119', '142', '149', '125', '134', '136', '148', '132', '97', '143'] 597.4074074074073
110 11.948148148148148 ['129', '113', '123', '135', '138', '119', '142', '149', '125', '134', '136', '148', '132', '97', '143'] 597.4074074074073
111 11.948148148148148 ['129', '113', '123', '135', '138', '119', '142', '149', '125', '134', '136', '148', '132', '97', '143'] 597.4074074074073
112 11.948148148148148 ['129', '113', '123', '135', '138', '119', '142', '149', '125', '134', '136', '148', '132', '97', '143'] 597.4074074074073
113 11.948148148148148 ['129', '113', '123', '135', '138', '119', '142', '149', '125', '134', '136', '148', '132', '97', '143'] 597.4074074074073
114 11.948148148148148 ['129', '113', '123', '135', '138', '119', '142', '149', '125', '134', '136', '148', '132', '97', '143'] 597.4074074074073
115 11.948148148148148 ['129', '113', '123', '135', '138', '119', '142', '149', '125', '134', '136', '148', '132', '97', '143'] 597.4074074074073
116 11.948148148148148 ['129', '113', '123', '135', '138', '119', '142', '149', '125', '134', '136', '148', '132', '97', '143'] 597.4074074074073
117 11.948148148148148 ['129', '113', '123', '135', '138', '119', '142', '149', '125', '134', '136', '148', '132', '97', '143'] 597.4074074074073
118 11.948148148148148 ['129', '113', '123', '135', '138', '119', '142', '149', '125', '134', '136', '148', '132', '97', '143'] 597.4074074074073
119 11.948148148148148 ['129', '113', '123', '135', '138', '119', '142', '149', '125', '134', '136', '148', '132', '97', '143'] 597.4074074074073
120 11.948148148148148 ['129', '113', '123', '135', '138', '119', '142', '149', '125', '134', '136', '148', '132', '97', '143'] 597.4074074074073
121 11.948148148148148 ['129', '113', '123', '135', '138', '119', '142', '149', '125', '134', '136', '148', '132', '97', '143'] 597.4074074074073
122 11.948148148148148 ['129', '113', '123', '135', '138', '119', '142', '149', '125', '134', '136', '148', '132', '97', '143'] 597.4074074074073
123 11.948148148148148 ['129', '113', '123', '135', '138', '119', '142', '149', '125', '134', '136', '148', '132', '97', '143'] 597.4074074074073
124 11.948148148148148 ['129', '113', '123', '135', '138', '119', '142', '149', '125', '134', '136', '148', '132', '97', '143'] 597.4074074074073
125 11.948148148148148 ['129', '113', '123', '135', '138', '119', '142', '149', '125', '134', '136', '148', '132', '97', '143'] 597.4074074074073
126 11.948148148148148 ['129', '113', '123', '135', '138', '119', '142', '149', '125', '134', '136', '148', '132', '97', '143'] 597.4074074074073
127 11.948148148148148 ['129', '113', '123', '135', '138', '119', '142', '149', '125', '134', '136', '148', '132', '97', '143'] 597.4074074074073
128 11.948148148148148 ['129', '113', '123', '135', '138', '119', '142', '149', '125', '134', '136', '148', '132', '97', '143'] 597.4074074074073
129 11.948148148148148 ['129', '113', '123', '135', '138', '119', '142', '149', '125', '134', '136', '148', '132', '97', '143'] 597.4074074074073
130 11.948148148148148 ['129', '113', '123', '135', '138', '119', '142', '149', '125', '134', '136', '148', '132', '97', '143'] 597.4074074074073
131 11.948148148148148 ['129', '113', '123', '135', '138', '119', '142', '149', '125', '134', '136', '148', '132', '97', '143'] 597.4074074074073
132 11.948148148148148 ['129', '113', '123', '135', '138', '119', '142', '149', '125', '134', '136', '148', '132', '97', '143'] 597.4074074074073
133 11.948148148148148 ['129', '113', '123', '135', '138', '119', '142', '149', '125', '134', '136', '148', '132', '97', '143'] 597.4074074074073
134 11.948148148148148 ['129', '113', '123', '135', '138', '119', '142', '149', '125', '134', '136', '148', '132', '97', '143'] 597.4074074074073
135 11.948148148148148 ['129', '113', '123', '135', '138', '119', '142', '149', '125', '134', '136', '148', '132', '97', '143'] 597.4074074074073
136 11.948148148148148 ['129', '113', '123', '135', '138', '119', '142', '149', '125', '134', '136', '148', '132', '97', '143'] 597.4074074074073
137 11.948148148148148 ['129', '113', '123', '135', '138', '119', '142', '149', '125', '134', '136', '148', '132', '97', '143'] 597.4074074074073
138 11.948148148148148 ['129', '113', '123', '135', '138', '119', '142', '149', '125', '134', '136', '148', '132', '97', '143'] 597.4074074074073
139 11.948148148148148 ['129', '113', '123', '135', '138', '119', '142', '149', '125', '134', '136', '148', '132', '97', '143'] 597.4074074074073
140 11.948148148148148 ['129', '113', '123', '135', '138', '119', '142', '149', '125', '134', '136', '148', '132', '97', '143'] 597.4074074074073
141 11.948148148148148 ['129', '113', '123', '135', '138', '119', '142', '149', '125', '134', '136', '148', '132', '97', '143'] 597.4074074074073
142 11.948148148148148 ['129', '113', '123', '135', '138', '119', '142', '149', '125', '134', '136', '148', '132', '97', '143'] 597.4074074074073
143 11.948148148148148 ['129', '113', '123', '135', '138', '119', '142', '149', '125', '134', '136', '148', '132', '97', '143'] 597.4074074074073
144 11.948148148148148 ['129', '113', '123', '135', '138', '119', '142', '149', '125', '134', '136', '148', '132', '97', '143'] 597.4074074074073
145 11.948148148148148 ['129', '113', '123', '135', '138', '119', '142', '149', '125', '134', '136', '148', '132', '97', '143'] 597.4074074074073
146 11.948148148148148 ['129', '113', '123', '135', '138', '119', '142', '149', '125', '134', '136', '148', '132', '97', '143'] 597.4074074074073
147 11.948148148148148 ['129', '113', '123', '135', '138', '119', '142', '149', '125', '134', '136', '148', '132', '97', '143'] 597.4074074074073
148 11.948148148148148 ['129', '113', '123', '135', '138', '119', '142', '149', '125', '134', '136', '148', '132', '97', '143'] 597.4074074074073
149 11.948148148148148 ['129', '113', '123', '135', '138', '119', '142', '149', '125', '134', '136', '148', '132', '97', '143'] 597.4074074074073
150 11.948148148148148 ['129', '113', '123', '135', '138', '119', '142', '149', '125', '134', '136', '148', '132', '97', '143'] 597.4074074074073
151 11.948148148148148 ['129', '113', '123', '135', '138', '119', '142', '149', '125', '134', '136', '148', '132', '97', '143'] 597.4074074074073
152 11.948148148148148 ['129', '113', '123', '135', '138', '119', '142', '149', '125', '134', '136', '148', '132', '97', '143'] 597.4074074074073
153 11.948148148148148 ['129', '113', '123', '135', '138', '119', '142', '149', '125', '134', '136', '148', '132', '97', '143'] 597.4074074074073
154 11.948148148148148 ['129', '113', '123', '135', '138', '119', '142', '149', '125', '134', '136', '148', '132', '97', '143'] 597.4074074074073
155 11.948148148148148 ['129', '113', '123', '135', '138', '119', '142', '149', '125', '134', '136', '148', '132', '97', '143'] 597.4074074074073
156 11.948148148148148 ['129', '113', '123', '135', '138', '119', '142', '149', '125', '134', '136', '148', '132', '97', '143'] 597.4074074074073
157 11.948148148148148 ['129', '113', '123', '135', '138', '119', '142', '149', '125', '134', '136', '148', '132', '97', '143'] 597.4074074074073
158 11.948148148148148 ['129', '113', '123', '135', '138', '119', '142', '149', '125', '134', '136', '148', '132', '97', '143'] 597.4074074074073
159 11.948148148148148 ['129', '113', '123', '135', '138', '119', '142', '149', '125', '134', '136', '148', '132', '97', '143'] 597.4074074074073
160 11.948148148148148 ['129', '113', '123', '135', '138', '119', '142', '149', '125', '134', '136', '148', '132', '97', '143'] 597.4074074074073
161 11.948148148148148 ['129', '113', '123', '135', '138', '119', '142', '149', '125', '134', '136', '148', '132', '97', '143'] 597.4074074074073
162 11.948148148148148 ['129', '113', '123', '135', '138', '119', '142', '149', '125', '134', '136', '148', '132', '97', '143'] 597.4074074074073
163 11.948148148148148 ['129', '113', '123', '135', '138', '119', '142', '149', '125', '134', '136', '148', '132', '97', '143'] 597.4074074074073
164 11.948148148148148 ['129', '113', '123', '135', '138', '119', '142', '149', '125', '134', '136', '148', '132', '97', '143'] 597.4074074074073
165 11.948148148148148 ['129', '113', '123', '135', '138', '119', '142', '149', '125', '134', '136', '148', '132', '97', '143'] 597.4074074074073
166 11.948148148148148 ['129', '113', '123', '135', '138', '119', '142', '149', '125', '134', '136', '148', '132', '97', '143'] 597.4074074074073
167 11.948148148148148 ['129', '113', '123', '135', '138', '119', '142', '149', '125', '134', '136', '148', '132', '97', '143'] 597.4074074074073
168 11.948148148148148 ['129', '113', '123', '135', '138', '119', '142', '149', '125', '134', '136', '148', '132', '97', '143'] 597.4074074074073
169 11.948148148148148 ['129', '113', '123', '135', '138', '119', '142', '149', '125', '134', '136', '148', '132', '97', '143'] 597.4074074074073
170 11.948148148148148 ['129', '113', '123', '135', '138', '119', '142', '149', '125', '134', '136', '148', '132', '97', '143'] 597.4074074074073
171 11.948148148148148 ['129', '113', '123', '135', '138', '119', '142', '149', '125', '134', '136', '148', '132', '97', '143'] 597.4074074074073
172 11.948148148148148 ['129', '113', '123', '135', '138', '119', '142', '149', '125', '134', '136', '148', '132', '97', '143'] 597.4074074074073
173 11.948148148148148 ['129', '113', '123', '135', '138', '119', '142', '149', '125', '134', '136', '148', '132', '97', '143'] 597.4074074074073
174 11.948148148148148 ['129', '113', '123', '135', '138', '119', '142', '149', '125', '134', '136', '148', '132', '97', '143'] 597.4074074074073
175 11.948148148148148 ['129', '113', '123', '135', '138', '119', '142', '149', '125', '134', '136', '148', '132', '97', '143'] 597.4074074074073
176 11.948148148148148 ['129', '113', '123', '135', '138', '119', '142', '149', '125', '134', '136', '148', '132', '97', '143'] 597.4074074074073
177 11.948148148148148 ['129', '113', '123', '135', '138', '119', '142', '149', '125', '134', '136', '148', '132', '97', '143'] 597.4074074074073
178 11.948148148148148 ['129', '113', '123', '135', '138', '119', '142', '149', '125', '134', '136', '148', '132', '97', '143'] 597.4074074074073
179 11.948148148148148 ['129', '113', '123', '135', '138', '119', '142', '149', '125', '134', '136', '148', '132', '97', '143'] 597.4074074074073
180 11.948148148148148 ['129', '113', '123', '135', '138', '119', '142', '149', '125', '134', '136', '148', '132', '97', '143'] 597.4074074074073
181 11.948148148148148 ['129', '113', '123', '135', '138', '119', '142', '149', '125', '134', '136', '148', '132', '97', '143'] 597.4074074074073
182 11.948148148148148 ['129', '113', '123', '135', '138', '119', '142', '149', '125', '134', '136', '148', '132', '97', '143'] 597.4074074074073
183 11.948148148148148 ['129', '113', '123', '135', '138', '119', '142', '149', '125', '134', '136', '148', '132', '97', '143'] 597.4074074074073
184 11.948148148148148 ['129', '113', '123', '135', '138', '119', '142', '149', '125', '134', '136', '148', '132', '97', '143'] 597.4074074074073
185 11.948148148148148 ['129', '113', '123', '135', '138', '119', '142', '149', '125', '134', '136', '148', '132', '97', '143'] 597.4074074074073
186 11.948148148148148 ['129', '113', '123', '135', '138', '119', '142', '149', '125', '134', '136', '148', '132', '97', '143'] 597.4074074074073
187 11.948148148148148 ['129', '113', '123', '135', '138', '119', '142', '149', '125', '134', '136', '148', '132', '97', '143'] 597.4074074074073
188 11.948148148148148 ['129', '113', '123', '135', '138', '119', '142', '149', '125', '134', '136', '148', '132', '97', '143'] 597.4074074074073
189 11.948148148148148 ['129', '113', '123', '135', '138', '119', '142', '149', '125', '134', '136', '148', '132', '97', '143'] 597.4074074074073
190 11.948148148148148 ['129', '113', '123', '135', '138', '119', '142', '149', '125', '134', '136', '148', '132', '97', '143'] 597.4074074074073
191 11.948148148148148 ['129', '113', '123', '135', '138', '119', '142', '149', '125', '134', '136', '148', '132', '97', '143'] 597.4074074074073
192 11.948148148148148 ['129', '113', '123', '135', '138', '119', '142', '149', '125', '134', '136', '148', '132', '97', '143'] 597.4074074074073
193 11.948148148148148 ['129', '113', '123', '135', '138', '119', '142', '149', '125', '134', '136', '148', '132', '97', '143'] 597.4074074074073
194 11.948148148148148 ['129', '113', '123', '135', '138', '119', '142', '149', '125', '134', '136', '148', '132', '97', '143'] 597.4074074074073
195 11.948148148148148 ['129', '113', '123', '135', '138', '119', '142', '149', '125', '134', '136', '148', '132', '97', '143'] 597.4074074074073
196 11.948148148148148 ['129', '113', '123', '135', '138', '119', '142', '149', '125', '134', '136', '148', '132', '97', '143'] 597.4074074074073
197 11.948148148148148 ['129', '113', '123', '135', '138', '119', '142', '149', '125', '134', '136', '148', '132', '97', '143'] 597.4074074074073
198 11.948148148148148 ['129', '113', '123', '135', '138', '119', '142', '149', '125', '134', '136', '148', '132', '97', '143'] 597.4074074074073
199 11.948148148148148 ['129', '113', '123', '135', '138', '119', '142', '149', '125', '134', '136', '148', '132', '97', '143'] 597.4074074074073
