0 5.226790123456793 ['21', '79', '66', '147', '73', '128', '133', '11', '90', '46', '122', '117', '71', '97', '43'] 265.60432098765443
1 5.176172839506175 ['82', '125', '135', '146', '133', '147', '137', '123', '143', '58', '126', '117', '53', '96', '85'] 264.3658024691359
2 5.176172839506175 ['82', '125', '135', '146', '133', '147', '137', '123', '143', '58', '126', '117', '53', '96', '85'] 263.1971604938273
3 5.176172839506175 ['82', '125', '135', '146', '133', '147', '137', '123', '143', '58', '126', '117', '53', '96', '85'] 261.92444444444453
4 5.164320987654325 ['88', '3', '25', '143', '72', '149', '139', '141', '112', '145', '15', '56', '134', '108', '131'] 260.9664197530866
5 5.133086419753089 ['145', '125', '3', '128', '134', '141', '88', '106', '147', '72', '67', '108', '146', '122', '113'] 260.1065432098766
6 5.133086419753089 ['145', '125', '3', '128', '134', '141', '88', '106', '147', '72', '67', '108', '146', '122', '113'] 259.59753086419767
7 5.125061728395064 ['125', '146', '108', '145', '147', '141', '134', '72', '122', '131', '128', '3', '139', '89', '15'] 258.91456790123476
8 5.125061728395064 ['125', '146', '108', '145', '147', '141', '134', '72', '122', '131', '128', '3', '139', '89', '15'] 258.3362962962963
9 5.064814814814816 ['146', '108', '147', '125', '145', '72', '126', '89', '143', '134', '138', '128', '135', '122', '88'] 257.52493827160504
10 5.064814814814816 ['146', '108', '147', '125', '145', '72', '126', '89', '143', '134', '138', '128', '135', '122', '88'] 256.73481481481497
11 5.053333333333335 ['141', '146', '126', '147', '138', '134', '71', '143', '137', '88', '145', '82', '132', '72', '120'] 255.92506172839518
12 5.053333333333335 ['141', '146', '126', '147', '138', '134', '71', '143', '137', '88', '145', '82', '132', '72', '120'] 255.21876543209885
13 5.003456790123457 ['138', '125', '146', '148', '128', '134', '116', '147', '126', '145', '67', '90', '135', '143', '141'] 254.2825925925928
14 5.00037037037037 ['128', '143', '134', '146', '126', '125', '147', '135', '138', '145', '67', '137', '90', '141', '68'] 253.46333333333342
15 4.998888888888887 ['128', '134', '108', '148', '138', '126', '125', '132', '145', '147', '143', '146', '141', '135', '66'] 252.5908641975309
16 4.9960493827160475 ['141', '138', '145', '135', '126', '147', '134', '108', '128', '143', '25', '146', '148', '132', '125'] 251.9180246913581
17 4.9772839506172835 ['147', '134', '135', '143', '141', '145', '126', '138', '128', '125', '146', '66', '90', '137', '67'] 251.11543209876547
18 4.9772839506172835 ['147', '134', '135', '143', '141', '145', '126', '138', '128', '125', '146', '66', '90', '137', '67'] 250.34691358024685
19 4.96 ['128', '145', '125', '135', '138', '143', '126', '147', '146', '134', '141', '72', '137', '148', '90'] 249.7211111111112
20 4.96 ['128', '145', '125', '135', '138', '143', '126', '147', '146', '134', '141', '72', '137', '148', '90'] 249.24851851851852
21 4.943580246913579 ['141', '146', '126', '148', '135', '138', '132', '125', '143', '128', '147', '145', '134', '90', '72'] 248.79012345679013
22 4.943580246913579 ['141', '146', '126', '148', '135', '138', '132', '125', '143', '128', '147', '145', '134', '90', '72'] 248.2428395061728
23 4.9279012345679 ['134', '147', '143', '90', '145', '125', '138', '135', '146', '141', '126', '128', '132', '72', '93'] 247.7872839506174
24 4.9279012345679 ['134', '147', '143', '90', '145', '125', '138', '135', '146', '141', '126', '128', '132', '72', '93'] 247.39506172839498
25 4.9279012345679 ['134', '147', '143', '90', '145', '125', '138', '135', '146', '141', '126', '128', '132', '72', '93'] 247.1225925925925
26 4.9279012345679 ['134', '147', '143', '90', '145', '125', '138', '135', '146', '141', '126', '128', '132', '72', '93'] 246.90925925925893
27 4.9279012345679 ['134', '147', '143', '90', '145', '125', '138', '135', '146', '141', '126', '128', '132', '72', '93'] 246.7797530864194
28 4.9279012345679 ['134', '147', '143', '90', '145', '125', '138', '135', '146', '141', '126', '128', '132', '72', '93'] 246.6019753086417
29 4.9279012345679 ['134', '147', '143', '90', '145', '125', '138', '135', '146', '141', '126', '128', '132', '72', '93'] 246.39506172839526
30 4.9279012345679 ['134', '147', '143', '90', '145', '125', '138', '135', '146', '141', '126', '128', '132', '72', '93'] 246.39506172839526
31 4.9279012345679 ['134', '147', '143', '90', '145', '125', '138', '135', '146', '141', '126', '128', '132', '72', '93'] 246.39506172839526
32 4.9279012345679 ['134', '147', '143', '90', '145', '125', '138', '135', '146', '141', '126', '128', '132', '72', '93'] 246.39506172839526
33 4.9279012345679 ['134', '147', '143', '90', '145', '125', '138', '135', '146', '141', '126', '128', '132', '72', '93'] 246.39506172839526
34 4.9279012345679 ['134', '147', '143', '90', '145', '125', '138', '135', '146', '141', '126', '128', '132', '72', '93'] 246.39506172839526
35 4.9279012345679 ['134', '147', '143', '90', '145', '125', '138', '135', '146', '141', '126', '128', '132', '72', '93'] 246.39506172839526
36 4.9279012345679 ['134', '147', '143', '90', '145', '125', '138', '135', '146', '141', '126', '128', '132', '72', '93'] 246.39506172839526
37 4.9279012345679 ['134', '147', '143', '90', '145', '125', '138', '135', '146', '141', '126', '128', '132', '72', '93'] 246.39506172839526
38 4.9279012345679 ['134', '147', '143', '90', '145', '125', '138', '135', '146', '141', '126', '128', '132', '72', '93'] 246.39506172839526
39 4.9279012345679 ['134', '147', '143', '90', '145', '125', '138', '135', '146', '141', '126', '128', '132', '72', '93'] 246.39506172839526
40 4.9279012345679 ['134', '147', '143', '90', '145', '125', '138', '135', '146', '141', '126', '128', '132', '72', '93'] 246.39506172839526
41 4.9279012345679 ['134', '147', '143', '90', '145', '125', '138', '135', '146', '141', '126', '128', '132', '72', '93'] 246.39506172839526
42 4.9279012345679 ['134', '147', '143', '90', '145', '125', '138', '135', '146', '141', '126', '128', '132', '72', '93'] 246.39506172839526
43 4.9279012345679 ['134', '147', '143', '90', '145', '125', '138', '135', '146', '141', '126', '128', '132', '72', '93'] 246.39506172839526
44 4.9279012345679 ['134', '147', '143', '90', '145', '125', '138', '135', '146', '141', '126', '128', '132', '72', '93'] 246.39506172839526
45 4.9279012345679 ['134', '147', '143', '90', '145', '125', '138', '135', '146', '141', '126', '128', '132', '72', '93'] 246.39506172839526
46 4.9279012345679 ['134', '147', '143', '90', '145', '125', '138', '135', '146', '141', '126', '128', '132', '72', '93'] 246.39506172839526
47 4.9279012345679 ['134', '147', '143', '90', '145', '125', '138', '135', '146', '141', '126', '128', '132', '72', '93'] 246.39506172839526
48 4.9279012345679 ['134', '147', '143', '90', '145', '125', '138', '135', '146', '141', '126', '128', '132', '72', '93'] 246.39506172839526
49 4.9279012345679 ['134', '147', '143', '90', '145', '125', '138', '135', '146', '141', '126', '128', '132', '72', '93'] 246.39506172839526
50 4.9279012345679 ['134', '147', '143', '90', '145', '125', '138', '135', '146', '141', '126', '128', '132', '72', '93'] 246.39506172839526
51 4.9279012345679 ['134', '147', '143', '90', '145', '125', '138', '135', '146', '141', '126', '128', '132', '72', '93'] 246.39506172839526
52 4.9279012345679 ['134', '147', '143', '90', '145', '125', '138', '135', '146', '141', '126', '128', '132', '72', '93'] 246.39506172839526
53 4.9279012345679 ['134', '147', '143', '90', '145', '125', '138', '135', '146', '141', '126', '128', '132', '72', '93'] 246.39506172839526
54 4.9279012345679 ['134', '147', '143', '90', '145', '125', '138', '135', '146', '141', '126', '128', '132', '72', '93'] 246.39506172839526
55 4.9279012345679 ['134', '147', '143', '90', '145', '125', '138', '135', '146', '141', '126', '128', '132', '72', '93'] 246.39506172839526
56 4.9279012345679 ['134', '147', '143', '90', '145', '125', '138', '135', '146', '141', '126', '128', '132', '72', '93'] 246.39506172839526
57 4.9279012345679 ['134', '147', '143', '90', '145', '125', '138', '135', '146', '141', '126', '128', '132', '72', '93'] 246.39506172839526
58 4.9279012345679 ['134', '147', '143', '90', '145', '125', '138', '135', '146', '141', '126', '128', '132', '72', '93'] 246.39506172839526
59 4.9279012345679 ['134', '147', '143', '90', '145', '125', '138', '135', '146', '141', '126', '128', '132', '72', '93'] 246.39506172839526
60 4.9279012345679 ['134', '147', '143', '90', '145', '125', '138', '135', '146', '141', '126', '128', '132', '72', '93'] 246.39506172839526
61 4.9279012345679 ['134', '147', '143', '90', '145', '125', '138', '135', '146', '141', '126', '128', '132', '72', '93'] 246.39506172839526
62 4.9279012345679 ['134', '147', '143', '90', '145', '125', '138', '135', '146', '141', '126', '128', '132', '72', '93'] 246.39506172839526
63 4.9279012345679 ['134', '147', '143', '90', '145', '125', '138', '135', '146', '141', '126', '128', '132', '72', '93'] 246.39506172839526
64 4.9279012345679 ['134', '147', '143', '90', '145', '125', '138', '135', '146', '141', '126', '128', '132', '72', '93'] 246.39506172839526
65 4.9279012345679 ['134', '147', '143', '90', '145', '125', '138', '135', '146', '141', '126', '128', '132', '72', '93'] 246.39506172839526
66 4.9279012345679 ['134', '147', '143', '90', '145', '125', '138', '135', '146', '141', '126', '128', '132', '72', '93'] 246.39506172839526
67 4.9279012345679 ['134', '147', '143', '90', '145', '125', '138', '135', '146', '141', '126', '128', '132', '72', '93'] 246.39506172839526
68 4.9279012345679 ['134', '147', '143', '90', '145', '125', '138', '135', '146', '141', '126', '128', '132', '72', '93'] 246.39506172839526
69 4.9279012345679 ['134', '147', '143', '90', '145', '125', '138', '135', '146', '141', '126', '128', '132', '72', '93'] 246.39506172839526
70 4.9279012345679 ['134', '147', '143', '90', '145', '125', '138', '135', '146', '141', '126', '128', '132', '72', '93'] 246.39506172839526
71 4.9279012345679 ['134', '147', '143', '90', '145', '125', '138', '135', '146', '141', '126', '128', '132', '72', '93'] 246.39506172839526
72 4.9279012345679 ['134', '147', '143', '90', '145', '125', '138', '135', '146', '141', '126', '128', '132', '72', '93'] 246.39506172839526
73 4.9279012345679 ['134', '147', '143', '90', '145', '125', '138', '135', '146', '141', '126', '128', '132', '72', '93'] 246.39506172839526
74 4.9279012345679 ['134', '147', '143', '90', '145', '125', '138', '135', '146', '141', '126', '128', '132', '72', '93'] 246.39506172839526
75 4.9279012345679 ['134', '147', '143', '90', '145', '125', '138', '135', '146', '141', '126', '128', '132', '72', '93'] 246.39506172839526
76 4.9279012345679 ['134', '147', '143', '90', '145', '125', '138', '135', '146', '141', '126', '128', '132', '72', '93'] 246.39506172839526
77 4.9279012345679 ['134', '147', '143', '90', '145', '125', '138', '135', '146', '141', '126', '128', '132', '72', '93'] 246.39506172839526
78 4.9279012345679 ['134', '147', '143', '90', '145', '125', '138', '135', '146', '141', '126', '128', '132', '72', '93'] 246.39506172839526
79 4.9279012345679 ['134', '147', '143', '90', '145', '125', '138', '135', '146', '141', '126', '128', '132', '72', '93'] 246.39506172839526
80 4.9279012345679 ['134', '147', '143', '90', '145', '125', '138', '135', '146', '141', '126', '128', '132', '72', '93'] 246.39506172839526
81 4.9279012345679 ['134', '147', '143', '90', '145', '125', '138', '135', '146', '141', '126', '128', '132', '72', '93'] 246.39506172839526
82 4.9279012345679 ['134', '147', '143', '90', '145', '125', '138', '135', '146', '141', '126', '128', '132', '72', '93'] 246.39506172839526
83 4.9279012345679 ['134', '147', '143', '90', '145', '125', '138', '135', '146', '141', '126', '128', '132', '72', '93'] 246.39506172839526
84 4.9279012345679 ['134', '147', '143', '90', '145', '125', '138', '135', '146', '141', '126', '128', '132', '72', '93'] 246.39506172839526
85 4.9279012345679 ['134', '147', '143', '90', '145', '125', '138', '135', '146', '141', '126', '128', '132', '72', '93'] 246.39506172839526
86 4.9279012345679 ['134', '147', '143', '90', '145', '125', '138', '135', '146', '141', '126', '128', '132', '72', '93'] 246.39506172839526
87 4.9279012345679 ['134', '147', '143', '90', '145', '125', '138', '135', '146', '141', '126', '128', '132', '72', '93'] 246.39506172839526
88 4.9279012345679 ['134', '147', '143', '90', '145', '125', '138', '135', '146', '141', '126', '128', '132', '72', '93'] 246.39506172839526
89 4.9279012345679 ['134', '147', '143', '90', '145', '125', '138', '135', '146', '141', '126', '128', '132', '72', '93'] 246.39506172839526
90 4.9279012345679 ['134', '147', '143', '90', '145', '125', '138', '135', '146', '141', '126', '128', '132', '72', '93'] 246.39506172839526
91 4.9279012345679 ['134', '147', '143', '90', '145', '125', '138', '135', '146', '141', '126', '128', '132', '72', '93'] 246.39506172839526
92 4.9279012345679 ['134', '147', '143', '90', '145', '125', '138', '135', '146', '141', '126', '128', '132', '72', '93'] 246.39506172839526
93 4.9279012345679 ['134', '147', '143', '90', '145', '125', '138', '135', '146', '141', '126', '128', '132', '72', '93'] 246.39506172839526
94 4.9279012345679 ['134', '147', '143', '90', '145', '125', '138', '135', '146', '141', '126', '128', '132', '72', '93'] 246.39506172839526
95 4.9279012345679 ['134', '147', '143', '90', '145', '125', '138', '135', '146', '141', '126', '128', '132', '72', '93'] 246.39506172839526
96 4.9279012345679 ['134', '147', '143', '90', '145', '125', '138', '135', '146', '141', '126', '128', '132', '72', '93'] 246.39506172839526
97 4.9279012345679 ['134', '147', '143', '90', '145', '125', '138', '135', '146', '141', '126', '128', '132', '72', '93'] 246.39506172839526
98 4.9279012345679 ['134', '147', '143', '90', '145', '125', '138', '135', '146', '141', '126', '128', '132', '72', '93'] 246.39506172839526
99 4.9279012345679 ['134', '147', '143', '90', '145', '125', '138', '135', '146', '141', '126', '128', '132', '72', '93'] 246.39506172839526
100 4.9279012345679 ['134', '147', '143', '90', '145', '125', '138', '135', '146', '141', '126', '128', '132', '72', '93'] 246.39506172839526
101 4.9279012345679 ['134', '147', '143', '90', '145', '125', '138', '135', '146', '141', '126', '128', '132', '72', '93'] 246.39506172839526
102 4.9279012345679 ['134', '147', '143', '90', '145', '125', '138', '135', '146', '141', '126', '128', '132', '72', '93'] 246.39506172839526
103 4.9279012345679 ['134', '147', '143', '90', '145', '125', '138', '135', '146', '141', '126', '128', '132', '72', '93'] 246.39506172839526
104 4.9279012345679 ['134', '147', '143', '90', '145', '125', '138', '135', '146', '141', '126', '128', '132', '72', '93'] 246.39506172839526
105 4.9279012345679 ['134', '147', '143', '90', '145', '125', '138', '135', '146', '141', '126', '128', '132', '72', '93'] 246.39506172839526
106 4.9279012345679 ['134', '147', '143', '90', '145', '125', '138', '135', '146', '141', '126', '128', '132', '72', '93'] 246.39506172839526
107 4.9279012345679 ['134', '147', '143', '90', '145', '125', '138', '135', '146', '141', '126', '128', '132', '72', '93'] 246.39506172839526
108 4.9279012345679 ['134', '147', '143', '90', '145', '125', '138', '135', '146', '141', '126', '128', '132', '72', '93'] 246.39506172839526
109 4.9279012345679 ['134', '147', '143', '90', '145', '125', '138', '135', '146', '141', '126', '128', '132', '72', '93'] 246.39506172839526
110 4.9279012345679 ['134', '147', '143', '90', '145', '125', '138', '135', '146', '141', '126', '128', '132', '72', '93'] 246.39506172839526
111 4.9279012345679 ['134', '147', '143', '90', '145', '125', '138', '135', '146', '141', '126', '128', '132', '72', '93'] 246.39506172839526
112 4.9279012345679 ['134', '147', '143', '90', '145', '125', '138', '135', '146', '141', '126', '128', '132', '72', '93'] 246.39506172839526
113 4.9279012345679 ['134', '147', '143', '90', '145', '125', '138', '135', '146', '141', '126', '128', '132', '72', '93'] 246.39506172839526
114 4.9279012345679 ['134', '147', '143', '90', '145', '125', '138', '135', '146', '141', '126', '128', '132', '72', '93'] 246.39506172839526
115 4.9279012345679 ['134', '147', '143', '90', '145', '125', '138', '135', '146', '141', '126', '128', '132', '72', '93'] 246.39506172839526
116 4.9279012345679 ['134', '147', '143', '90', '145', '125', '138', '135', '146', '141', '126', '128', '132', '72', '93'] 246.39506172839526
117 4.9279012345679 ['134', '147', '143', '90', '145', '125', '138', '135', '146', '141', '126', '128', '132', '72', '93'] 246.39506172839526
118 4.9279012345679 ['134', '147', '143', '90', '145', '125', '138', '135', '146', '141', '126', '128', '132', '72', '93'] 246.39506172839526
119 4.9279012345679 ['134', '147', '143', '90', '145', '125', '138', '135', '146', '141', '126', '128', '132', '72', '93'] 246.39506172839526
120 4.9279012345679 ['134', '147', '143', '90', '145', '125', '138', '135', '146', '141', '126', '128', '132', '72', '93'] 246.39506172839526
121 4.9279012345679 ['134', '147', '143', '90', '145', '125', '138', '135', '146', '141', '126', '128', '132', '72', '93'] 246.39506172839526
122 4.9279012345679 ['134', '147', '143', '90', '145', '125', '138', '135', '146', '141', '126', '128', '132', '72', '93'] 246.39506172839526
123 4.9279012345679 ['134', '147', '143', '90', '145', '125', '138', '135', '146', '141', '126', '128', '132', '72', '93'] 246.39506172839526
124 4.9279012345679 ['134', '147', '143', '90', '145', '125', '138', '135', '146', '141', '126', '128', '132', '72', '93'] 246.39506172839526
125 4.9279012345679 ['134', '147', '143', '90', '145', '125', '138', '135', '146', '141', '126', '128', '132', '72', '93'] 246.39506172839526
126 4.9279012345679 ['134', '147', '143', '90', '145', '125', '138', '135', '146', '141', '126', '128', '132', '72', '93'] 246.39506172839526
127 4.9279012345679 ['134', '147', '143', '90', '145', '125', '138', '135', '146', '141', '126', '128', '132', '72', '93'] 246.39506172839526
128 4.9279012345679 ['134', '147', '143', '90', '145', '125', '138', '135', '146', '141', '126', '128', '132', '72', '93'] 246.39506172839526
129 4.9279012345679 ['134', '147', '143', '90', '145', '125', '138', '135', '146', '141', '126', '128', '132', '72', '93'] 246.39506172839526
130 4.9279012345679 ['134', '147', '143', '90', '145', '125', '138', '135', '146', '141', '126', '128', '132', '72', '93'] 246.39506172839526
131 4.9279012345679 ['134', '147', '143', '90', '145', '125', '138', '135', '146', '141', '126', '128', '132', '72', '93'] 246.39506172839526
132 4.9279012345679 ['134', '147', '143', '90', '145', '125', '138', '135', '146', '141', '126', '128', '132', '72', '93'] 246.39506172839526
133 4.9279012345679 ['134', '147', '143', '90', '145', '125', '138', '135', '146', '141', '126', '128', '132', '72', '93'] 246.39506172839526
134 4.9279012345679 ['134', '147', '143', '90', '145', '125', '138', '135', '146', '141', '126', '128', '132', '72', '93'] 246.39506172839526
135 4.9279012345679 ['134', '147', '143', '90', '145', '125', '138', '135', '146', '141', '126', '128', '132', '72', '93'] 246.39506172839526
136 4.9279012345679 ['134', '147', '143', '90', '145', '125', '138', '135', '146', '141', '126', '128', '132', '72', '93'] 246.39506172839526
137 4.9279012345679 ['134', '147', '143', '90', '145', '125', '138', '135', '146', '141', '126', '128', '132', '72', '93'] 246.39506172839526
138 4.9279012345679 ['134', '147', '143', '90', '145', '125', '138', '135', '146', '141', '126', '128', '132', '72', '93'] 246.39506172839526
139 4.9279012345679 ['134', '147', '143', '90', '145', '125', '138', '135', '146', '141', '126', '128', '132', '72', '93'] 246.39506172839526
140 4.9279012345679 ['134', '147', '143', '90', '145', '125', '138', '135', '146', '141', '126', '128', '132', '72', '93'] 246.39506172839526
141 4.9279012345679 ['134', '147', '143', '90', '145', '125', '138', '135', '146', '141', '126', '128', '132', '72', '93'] 246.39506172839526
142 4.9279012345679 ['134', '147', '143', '90', '145', '125', '138', '135', '146', '141', '126', '128', '132', '72', '93'] 246.39506172839526
143 4.9279012345679 ['134', '147', '143', '90', '145', '125', '138', '135', '146', '141', '126', '128', '132', '72', '93'] 246.39506172839526
144 4.9279012345679 ['134', '147', '143', '90', '145', '125', '138', '135', '146', '141', '126', '128', '132', '72', '93'] 246.39506172839526
145 4.9279012345679 ['134', '147', '143', '90', '145', '125', '138', '135', '146', '141', '126', '128', '132', '72', '93'] 246.39506172839526
146 4.9279012345679 ['134', '147', '143', '90', '145', '125', '138', '135', '146', '141', '126', '128', '132', '72', '93'] 246.39506172839526
147 4.9279012345679 ['134', '147', '143', '90', '145', '125', '138', '135', '146', '141', '126', '128', '132', '72', '93'] 246.39506172839526
148 4.9279012345679 ['134', '147', '143', '90', '145', '125', '138', '135', '146', '141', '126', '128', '132', '72', '93'] 246.39506172839526
149 4.9279012345679 ['134', '147', '143', '90', '145', '125', '138', '135', '146', '141', '126', '128', '132', '72', '93'] 246.39506172839526
150 4.9279012345679 ['134', '147', '143', '90', '145', '125', '138', '135', '146', '141', '126', '128', '132', '72', '93'] 246.39506172839526
151 4.9279012345679 ['134', '147', '143', '90', '145', '125', '138', '135', '146', '141', '126', '128', '132', '72', '93'] 246.39506172839526
152 4.9279012345679 ['134', '147', '143', '90', '145', '125', '138', '135', '146', '141', '126', '128', '132', '72', '93'] 246.39506172839526
153 4.9279012345679 ['134', '147', '143', '90', '145', '125', '138', '135', '146', '141', '126', '128', '132', '72', '93'] 246.39506172839526
154 4.9279012345679 ['134', '147', '143', '90', '145', '125', '138', '135', '146', '141', '126', '128', '132', '72', '93'] 246.39506172839526
155 4.9279012345679 ['134', '147', '143', '90', '145', '125', '138', '135', '146', '141', '126', '128', '132', '72', '93'] 246.39506172839526
156 4.9279012345679 ['134', '147', '143', '90', '145', '125', '138', '135', '146', '141', '126', '128', '132', '72', '93'] 246.39506172839526
157 4.9279012345679 ['134', '147', '143', '90', '145', '125', '138', '135', '146', '141', '126', '128', '132', '72', '93'] 246.39506172839526
158 4.9279012345679 ['134', '147', '143', '90', '145', '125', '138', '135', '146', '141', '126', '128', '132', '72', '93'] 246.39506172839526
159 4.9279012345679 ['134', '147', '143', '90', '145', '125', '138', '135', '146', '141', '126', '128', '132', '72', '93'] 246.39506172839526
160 4.9279012345679 ['134', '147', '143', '90', '145', '125', '138', '135', '146', '141', '126', '128', '132', '72', '93'] 246.39506172839526
161 4.9279012345679 ['134', '147', '143', '90', '145', '125', '138', '135', '146', '141', '126', '128', '132', '72', '93'] 246.39506172839526
162 4.9279012345679 ['134', '147', '143', '90', '145', '125', '138', '135', '146', '141', '126', '128', '132', '72', '93'] 246.39506172839526
163 4.9279012345679 ['134', '147', '143', '90', '145', '125', '138', '135', '146', '141', '126', '128', '132', '72', '93'] 246.39506172839526
164 4.9279012345679 ['134', '147', '143', '90', '145', '125', '138', '135', '146', '141', '126', '128', '132', '72', '93'] 246.39506172839526
165 4.9279012345679 ['134', '147', '143', '90', '145', '125', '138', '135', '146', '141', '126', '128', '132', '72', '93'] 246.39506172839526
166 4.9279012345679 ['134', '147', '143', '90', '145', '125', '138', '135', '146', '141', '126', '128', '132', '72', '93'] 246.39506172839526
167 4.9279012345679 ['134', '147', '143', '90', '145', '125', '138', '135', '146', '141', '126', '128', '132', '72', '93'] 246.39506172839526
168 4.9279012345679 ['134', '147', '143', '90', '145', '125', '138', '135', '146', '141', '126', '128', '132', '72', '93'] 246.39506172839526
169 4.9279012345679 ['134', '147', '143', '90', '145', '125', '138', '135', '146', '141', '126', '128', '132', '72', '93'] 246.39506172839526
170 4.9279012345679 ['134', '147', '143', '90', '145', '125', '138', '135', '146', '141', '126', '128', '132', '72', '93'] 246.39506172839526
171 4.9279012345679 ['134', '147', '143', '90', '145', '125', '138', '135', '146', '141', '126', '128', '132', '72', '93'] 246.39506172839526
172 4.9279012345679 ['134', '147', '143', '90', '145', '125', '138', '135', '146', '141', '126', '128', '132', '72', '93'] 246.39506172839526
173 4.9279012345679 ['134', '147', '143', '90', '145', '125', '138', '135', '146', '141', '126', '128', '132', '72', '93'] 246.39506172839526
174 4.9279012345679 ['134', '147', '143', '90', '145', '125', '138', '135', '146', '141', '126', '128', '132', '72', '93'] 246.39506172839526
175 4.9279012345679 ['134', '147', '143', '90', '145', '125', '138', '135', '146', '141', '126', '128', '132', '72', '93'] 246.39506172839526
176 4.9279012345679 ['134', '147', '143', '90', '145', '125', '138', '135', '146', '141', '126', '128', '132', '72', '93'] 246.39506172839526
177 4.9279012345679 ['134', '147', '143', '90', '145', '125', '138', '135', '146', '141', '126', '128', '132', '72', '93'] 246.39506172839526
178 4.9279012345679 ['134', '147', '143', '90', '145', '125', '138', '135', '146', '141', '126', '128', '132', '72', '93'] 246.39506172839526
179 4.9279012345679 ['134', '147', '143', '90', '145', '125', '138', '135', '146', '141', '126', '128', '132', '72', '93'] 246.39506172839526
180 4.9279012345679 ['134', '147', '143', '90', '145', '125', '138', '135', '146', '141', '126', '128', '132', '72', '93'] 246.39506172839526
181 4.9279012345679 ['134', '147', '143', '90', '145', '125', '138', '135', '146', '141', '126', '128', '132', '72', '93'] 246.39506172839526
182 4.9279012345679 ['134', '147', '143', '90', '145', '125', '138', '135', '146', '141', '126', '128', '132', '72', '93'] 246.39506172839526
183 4.9279012345679 ['134', '147', '143', '90', '145', '125', '138', '135', '146', '141', '126', '128', '132', '72', '93'] 246.39506172839526
184 4.9279012345679 ['134', '147', '143', '90', '145', '125', '138', '135', '146', '141', '126', '128', '132', '72', '93'] 246.39506172839526
185 4.9279012345679 ['134', '147', '143', '90', '145', '125', '138', '135', '146', '141', '126', '128', '132', '72', '93'] 246.39506172839526
186 4.9279012345679 ['134', '147', '143', '90', '145', '125', '138', '135', '146', '141', '126', '128', '132', '72', '93'] 246.39506172839526
187 4.9279012345679 ['134', '147', '143', '90', '145', '125', '138', '135', '146', '141', '126', '128', '132', '72', '93'] 246.39506172839526
188 4.9279012345679 ['134', '147', '143', '90', '145', '125', '138', '135', '146', '141', '126', '128', '132', '72', '93'] 246.39506172839526
189 4.9279012345679 ['134', '147', '143', '90', '145', '125', '138', '135', '146', '141', '126', '128', '132', '72', '93'] 246.39506172839526
190 4.9279012345679 ['134', '147', '143', '90', '145', '125', '138', '135', '146', '141', '126', '128', '132', '72', '93'] 246.39506172839526
191 4.9279012345679 ['134', '147', '143', '90', '145', '125', '138', '135', '146', '141', '126', '128', '132', '72', '93'] 246.39506172839526
192 4.9279012345679 ['134', '147', '143', '90', '145', '125', '138', '135', '146', '141', '126', '128', '132', '72', '93'] 246.39506172839526
193 4.9279012345679 ['134', '147', '143', '90', '145', '125', '138', '135', '146', '141', '126', '128', '132', '72', '93'] 246.39506172839526
194 4.9279012345679 ['134', '147', '143', '90', '145', '125', '138', '135', '146', '141', '126', '128', '132', '72', '93'] 246.39506172839526
195 4.9279012345679 ['134', '147', '143', '90', '145', '125', '138', '135', '146', '141', '126', '128', '132', '72', '93'] 246.39506172839526
196 4.9279012345679 ['134', '147', '143', '90', '145', '125', '138', '135', '146', '141', '126', '128', '132', '72', '93'] 246.39506172839526
197 4.9279012345679 ['134', '147', '143', '90', '145', '125', '138', '135', '146', '141', '126', '128', '132', '72', '93'] 246.39506172839526
198 4.9279012345679 ['134', '147', '143', '90', '145', '125', '138', '135', '146', '141', '126', '128', '132', '72', '93'] 246.39506172839526
199 4.9279012345679 ['134', '147', '143', '90', '145', '125', '138', '135', '146', '141', '126', '128', '132', '72', '93'] 246.39506172839526
