0 5.348148148148146 ['43', '70', '3', '55', '146', '79', '53', '76', '41', '92', '72', '115', '118', '133', '149'] 271.08234567901246
1 5.334814814814815 ['70', '111', '26', '142', '96', '109', '146', '39', '59', '126', '3', '46', '144', '79', '131'] 269.78530864197546
2 5.300246913580251 ['105', '126', '16', '75', '134', '39', '146', '142', '131', '79', '96', '111', '150', '113', '40'] 268.8218518518519
3 5.285308641975312 ['119', '143', '70', '65', '132', '126', '39', '146', '79', '142', '137', '131', '141', '130', '113'] 268.0190123456791
4 5.273209876543212 ['95', '59', '114', '113', '26', '79', '39', '142', '112', '12', '144', '46', '29', '141', '131'] 267.143950617284
5 5.234691358024691 ['146', '114', '113', '141', '90', '42', '116', '112', '37', '39', '105', '137', '126', '150', '134'] 266.181851851852
6 5.234691358024691 ['146', '114', '113', '141', '90', '42', '116', '112', '37', '39', '105', '137', '126', '150', '134'] 264.986913580247
7 5.17135802469136 ['79', '39', '142', '141', '113', '131', '150', '144', '126', '114', '105', '146', '112', '29', '96'] 264.12456790123474
8 5.17135802469136 ['79', '39', '142', '141', '113', '131', '150', '144', '126', '114', '105', '146', '112', '29', '96'] 263.10370370370373
9 5.17135802469136 ['79', '39', '142', '141', '113', '131', '150', '144', '126', '114', '105', '146', '112', '29', '96'] 262.21728395061734
10 5.17135802469136 ['79', '39', '142', '141', '113', '131', '150', '144', '126', '114', '105', '146', '112', '29', '96'] 261.2176543209876
11 5.136172839506174 ['79', '131', '113', '126', '146', '150', '39', '105', '109', '76', '141', '112', '124', '143', '16'] 260.1456790123457
12 5.088271604938272 ['139', '141', '131', '146', '16', '126', '143', '79', '113', '124', '134', '149', '90', '114', '76'] 259.16950617283953
13 5.088271604938272 ['139', '141', '131', '146', '16', '126', '143', '79', '113', '124', '134', '149', '90', '114', '76'] 258.2783950617284
14 5.088271604938272 ['139', '141', '131', '146', '16', '126', '143', '79', '113', '124', '134', '149', '90', '114', '76'] 257.4793827160495
15 5.088271604938272 ['139', '141', '131', '146', '16', '126', '143', '79', '113', '124', '134', '149', '90', '114', '76'] 256.9767901234569
16 5.08098765432099 ['146', '131', '149', '150', '113', '39', '105', '79', '126', '143', '142', '112', '141', '109', '114'] 256.1843209876543
17 5.073950617283953 ['79', '113', '143', '39', '150', '146', '126', '141', '131', '105', '149', '109', '144', '112', '114'] 255.49864197530863
18 5.073950617283953 ['79', '113', '143', '39', '150', '146', '126', '141', '131', '105', '149', '109', '144', '112', '114'] 254.97259259259266
19 5.073950617283953 ['79', '113', '143', '39', '150', '146', '126', '141', '131', '105', '149', '109', '144', '112', '114'] 254.63641975308647
20 5.0730864197530865 ['126', '143', '39', '105', '146', '79', '141', '150', '113', '131', '114', '142', '76', '149', '144'] 254.3645679012347
21 5.0730864197530865 ['126', '143', '39', '105', '146', '79', '141', '150', '113', '131', '114', '142', '76', '149', '144'] 254.127901234568
22 5.0730864197530865 ['126', '143', '39', '105', '146', '79', '141', '150', '113', '131', '114', '142', '76', '149', '144'] 253.9134567901234
23 5.067160493827161 ['79', '39', '114', '150', '131', '144', '141', '143', '146', '113', '105', '126', '149', '142', '112'] 253.74617283950607
24 5.067160493827161 ['79', '39', '114', '150', '131', '144', '141', '143', '146', '113', '105', '126', '149', '142', '112'] 253.65703703703718
25 5.067160493827161 ['79', '39', '114', '150', '131', '144', '141', '143', '146', '113', '105', '126', '149', '142', '112'] 253.56395061728372
26 5.067160493827161 ['79', '39', '114', '150', '131', '144', '141', '143', '146', '113', '105', '126', '149', '142', '112'] 253.44197530864204
27 5.067160493827161 ['79', '39', '114', '150', '131', '144', '141', '143', '146', '113', '105', '126', '149', '142', '112'] 253.35802469135837
28 5.067160493827161 ['79', '39', '114', '150', '131', '144', '141', '143', '146', '113', '105', '126', '149', '142', '112'] 253.35802469135837
29 5.067160493827161 ['79', '39', '114', '150', '131', '144', '141', '143', '146', '113', '105', '126', '149', '142', '112'] 253.35802469135837
30 5.067160493827161 ['79', '39', '114', '150', '131', '144', '141', '143', '146', '113', '105', '126', '149', '142', '112'] 253.35802469135837
31 5.067160493827161 ['79', '39', '114', '150', '131', '144', '141', '143', '146', '113', '105', '126', '149', '142', '112'] 253.35802469135837
32 5.067160493827161 ['79', '39', '114', '150', '131', '144', '141', '143', '146', '113', '105', '126', '149', '142', '112'] 253.35802469135837
33 5.067160493827161 ['79', '39', '114', '150', '131', '144', '141', '143', '146', '113', '105', '126', '149', '142', '112'] 253.35802469135837
34 5.067160493827161 ['79', '39', '114', '150', '131', '144', '141', '143', '146', '113', '105', '126', '149', '142', '112'] 253.35802469135837
35 5.067160493827161 ['79', '39', '114', '150', '131', '144', '141', '143', '146', '113', '105', '126', '149', '142', '112'] 253.35802469135837
36 5.067160493827161 ['79', '39', '114', '150', '131', '144', '141', '143', '146', '113', '105', '126', '149', '142', '112'] 253.35802469135837
37 5.067160493827161 ['79', '39', '114', '150', '131', '144', '141', '143', '146', '113', '105', '126', '149', '142', '112'] 253.35802469135837
38 5.067160493827161 ['79', '39', '114', '150', '131', '144', '141', '143', '146', '113', '105', '126', '149', '142', '112'] 253.35802469135837
39 5.067160493827161 ['79', '39', '114', '150', '131', '144', '141', '143', '146', '113', '105', '126', '149', '142', '112'] 253.35802469135837
40 5.067160493827161 ['79', '39', '114', '150', '131', '144', '141', '143', '146', '113', '105', '126', '149', '142', '112'] 253.35802469135837
41 5.067160493827161 ['79', '39', '114', '150', '131', '144', '141', '143', '146', '113', '105', '126', '149', '142', '112'] 253.35802469135837
42 5.067160493827161 ['79', '39', '114', '150', '131', '144', '141', '143', '146', '113', '105', '126', '149', '142', '112'] 253.35802469135837
43 5.067160493827161 ['79', '39', '114', '150', '131', '144', '141', '143', '146', '113', '105', '126', '149', '142', '112'] 253.35802469135837
44 5.067160493827161 ['79', '39', '114', '150', '131', '144', '141', '143', '146', '113', '105', '126', '149', '142', '112'] 253.35802469135837
45 5.067160493827161 ['79', '39', '114', '150', '131', '144', '141', '143', '146', '113', '105', '126', '149', '142', '112'] 253.35802469135837
46 5.067160493827161 ['79', '39', '114', '150', '131', '144', '141', '143', '146', '113', '105', '126', '149', '142', '112'] 253.35802469135837
47 5.067160493827161 ['79', '39', '114', '150', '131', '144', '141', '143', '146', '113', '105', '126', '149', '142', '112'] 253.35802469135837
48 5.067160493827161 ['79', '39', '114', '150', '131', '144', '141', '143', '146', '113', '105', '126', '149', '142', '112'] 253.35802469135837
49 5.067160493827161 ['79', '39', '114', '150', '131', '144', '141', '143', '146', '113', '105', '126', '149', '142', '112'] 253.35802469135837
50 5.067160493827161 ['79', '39', '114', '150', '131', '144', '141', '143', '146', '113', '105', '126', '149', '142', '112'] 253.35802469135837
51 5.067160493827161 ['79', '39', '114', '150', '131', '144', '141', '143', '146', '113', '105', '126', '149', '142', '112'] 253.35802469135837
52 5.067160493827161 ['79', '39', '114', '150', '131', '144', '141', '143', '146', '113', '105', '126', '149', '142', '112'] 253.35802469135837
53 5.067160493827161 ['79', '39', '114', '150', '131', '144', '141', '143', '146', '113', '105', '126', '149', '142', '112'] 253.35802469135837
54 5.067160493827161 ['79', '39', '114', '150', '131', '144', '141', '143', '146', '113', '105', '126', '149', '142', '112'] 253.35802469135837
55 5.067160493827161 ['79', '39', '114', '150', '131', '144', '141', '143', '146', '113', '105', '126', '149', '142', '112'] 253.35802469135837
56 5.067160493827161 ['79', '39', '114', '150', '131', '144', '141', '143', '146', '113', '105', '126', '149', '142', '112'] 253.35802469135837
57 5.067160493827161 ['79', '39', '114', '150', '131', '144', '141', '143', '146', '113', '105', '126', '149', '142', '112'] 253.35802469135837
58 5.067160493827161 ['79', '39', '114', '150', '131', '144', '141', '143', '146', '113', '105', '126', '149', '142', '112'] 253.35802469135837
59 5.067160493827161 ['79', '39', '114', '150', '131', '144', '141', '143', '146', '113', '105', '126', '149', '142', '112'] 253.35802469135837
60 5.067160493827161 ['79', '39', '114', '150', '131', '144', '141', '143', '146', '113', '105', '126', '149', '142', '112'] 253.35802469135837
61 5.067160493827161 ['79', '39', '114', '150', '131', '144', '141', '143', '146', '113', '105', '126', '149', '142', '112'] 253.35802469135837
62 5.067160493827161 ['79', '39', '114', '150', '131', '144', '141', '143', '146', '113', '105', '126', '149', '142', '112'] 253.35802469135837
63 5.067160493827161 ['79', '39', '114', '150', '131', '144', '141', '143', '146', '113', '105', '126', '149', '142', '112'] 253.35802469135837
64 5.067160493827161 ['79', '39', '114', '150', '131', '144', '141', '143', '146', '113', '105', '126', '149', '142', '112'] 253.35802469135837
65 5.067160493827161 ['79', '39', '114', '150', '131', '144', '141', '143', '146', '113', '105', '126', '149', '142', '112'] 253.35802469135837
66 5.067160493827161 ['79', '39', '114', '150', '131', '144', '141', '143', '146', '113', '105', '126', '149', '142', '112'] 253.35802469135837
67 5.067160493827161 ['79', '39', '114', '150', '131', '144', '141', '143', '146', '113', '105', '126', '149', '142', '112'] 253.35802469135837
68 5.067160493827161 ['79', '39', '114', '150', '131', '144', '141', '143', '146', '113', '105', '126', '149', '142', '112'] 253.35802469135837
69 5.067160493827161 ['79', '39', '114', '150', '131', '144', '141', '143', '146', '113', '105', '126', '149', '142', '112'] 253.35802469135837
70 5.067160493827161 ['79', '39', '114', '150', '131', '144', '141', '143', '146', '113', '105', '126', '149', '142', '112'] 253.35802469135837
71 5.067160493827161 ['79', '39', '114', '150', '131', '144', '141', '143', '146', '113', '105', '126', '149', '142', '112'] 253.35802469135837
72 5.067160493827161 ['79', '39', '114', '150', '131', '144', '141', '143', '146', '113', '105', '126', '149', '142', '112'] 253.35802469135837
73 5.067160493827161 ['79', '39', '114', '150', '131', '144', '141', '143', '146', '113', '105', '126', '149', '142', '112'] 253.35802469135837
74 5.067160493827161 ['79', '39', '114', '150', '131', '144', '141', '143', '146', '113', '105', '126', '149', '142', '112'] 253.35802469135837
75 5.067160493827161 ['79', '39', '114', '150', '131', '144', '141', '143', '146', '113', '105', '126', '149', '142', '112'] 253.35802469135837
76 5.067160493827161 ['79', '39', '114', '150', '131', '144', '141', '143', '146', '113', '105', '126', '149', '142', '112'] 253.35802469135837
77 5.067160493827161 ['79', '39', '114', '150', '131', '144', '141', '143', '146', '113', '105', '126', '149', '142', '112'] 253.35802469135837
78 5.067160493827161 ['79', '39', '114', '150', '131', '144', '141', '143', '146', '113', '105', '126', '149', '142', '112'] 253.35802469135837
79 5.067160493827161 ['79', '39', '114', '150', '131', '144', '141', '143', '146', '113', '105', '126', '149', '142', '112'] 253.35802469135837
80 5.067160493827161 ['79', '39', '114', '150', '131', '144', '141', '143', '146', '113', '105', '126', '149', '142', '112'] 253.35802469135837
81 5.067160493827161 ['79', '39', '114', '150', '131', '144', '141', '143', '146', '113', '105', '126', '149', '142', '112'] 253.35802469135837
82 5.067160493827161 ['79', '39', '114', '150', '131', '144', '141', '143', '146', '113', '105', '126', '149', '142', '112'] 253.35802469135837
83 5.067160493827161 ['79', '39', '114', '150', '131', '144', '141', '143', '146', '113', '105', '126', '149', '142', '112'] 253.35802469135837
84 5.067160493827161 ['79', '39', '114', '150', '131', '144', '141', '143', '146', '113', '105', '126', '149', '142', '112'] 253.35802469135837
85 5.067160493827161 ['79', '39', '114', '150', '131', '144', '141', '143', '146', '113', '105', '126', '149', '142', '112'] 253.35802469135837
86 5.067160493827161 ['79', '39', '114', '150', '131', '144', '141', '143', '146', '113', '105', '126', '149', '142', '112'] 253.35802469135837
87 5.067160493827161 ['79', '39', '114', '150', '131', '144', '141', '143', '146', '113', '105', '126', '149', '142', '112'] 253.35802469135837
88 5.067160493827161 ['79', '39', '114', '150', '131', '144', '141', '143', '146', '113', '105', '126', '149', '142', '112'] 253.35802469135837
89 5.067160493827161 ['79', '39', '114', '150', '131', '144', '141', '143', '146', '113', '105', '126', '149', '142', '112'] 253.35802469135837
90 5.067160493827161 ['79', '39', '114', '150', '131', '144', '141', '143', '146', '113', '105', '126', '149', '142', '112'] 253.35802469135837
91 5.067160493827161 ['79', '39', '114', '150', '131', '144', '141', '143', '146', '113', '105', '126', '149', '142', '112'] 253.35802469135837
92 5.067160493827161 ['79', '39', '114', '150', '131', '144', '141', '143', '146', '113', '105', '126', '149', '142', '112'] 253.35802469135837
93 5.067160493827161 ['79', '39', '114', '150', '131', '144', '141', '143', '146', '113', '105', '126', '149', '142', '112'] 253.35802469135837
94 5.067160493827161 ['79', '39', '114', '150', '131', '144', '141', '143', '146', '113', '105', '126', '149', '142', '112'] 253.35802469135837
95 5.067160493827161 ['79', '39', '114', '150', '131', '144', '141', '143', '146', '113', '105', '126', '149', '142', '112'] 253.35802469135837
96 5.067160493827161 ['79', '39', '114', '150', '131', '144', '141', '143', '146', '113', '105', '126', '149', '142', '112'] 253.35802469135837
97 5.067160493827161 ['79', '39', '114', '150', '131', '144', '141', '143', '146', '113', '105', '126', '149', '142', '112'] 253.35802469135837
98 5.067160493827161 ['79', '39', '114', '150', '131', '144', '141', '143', '146', '113', '105', '126', '149', '142', '112'] 253.35802469135837
99 5.067160493827161 ['79', '39', '114', '150', '131', '144', '141', '143', '146', '113', '105', '126', '149', '142', '112'] 253.35802469135837
100 5.067160493827161 ['79', '39', '114', '150', '131', '144', '141', '143', '146', '113', '105', '126', '149', '142', '112'] 253.35802469135837
101 5.067160493827161 ['79', '39', '114', '150', '131', '144', '141', '143', '146', '113', '105', '126', '149', '142', '112'] 253.35802469135837
102 5.067160493827161 ['79', '39', '114', '150', '131', '144', '141', '143', '146', '113', '105', '126', '149', '142', '112'] 253.35802469135837
103 5.067160493827161 ['79', '39', '114', '150', '131', '144', '141', '143', '146', '113', '105', '126', '149', '142', '112'] 253.35802469135837
104 5.067160493827161 ['79', '39', '114', '150', '131', '144', '141', '143', '146', '113', '105', '126', '149', '142', '112'] 253.35802469135837
105 5.067160493827161 ['79', '39', '114', '150', '131', '144', '141', '143', '146', '113', '105', '126', '149', '142', '112'] 253.35802469135837
106 5.067160493827161 ['79', '39', '114', '150', '131', '144', '141', '143', '146', '113', '105', '126', '149', '142', '112'] 253.35802469135837
107 5.067160493827161 ['79', '39', '114', '150', '131', '144', '141', '143', '146', '113', '105', '126', '149', '142', '112'] 253.35802469135837
108 5.067160493827161 ['79', '39', '114', '150', '131', '144', '141', '143', '146', '113', '105', '126', '149', '142', '112'] 253.35802469135837
109 5.067160493827161 ['79', '39', '114', '150', '131', '144', '141', '143', '146', '113', '105', '126', '149', '142', '112'] 253.35802469135837
110 5.067160493827161 ['79', '39', '114', '150', '131', '144', '141', '143', '146', '113', '105', '126', '149', '142', '112'] 253.35802469135837
111 5.067160493827161 ['79', '39', '114', '150', '131', '144', '141', '143', '146', '113', '105', '126', '149', '142', '112'] 253.35802469135837
112 5.067160493827161 ['79', '39', '114', '150', '131', '144', '141', '143', '146', '113', '105', '126', '149', '142', '112'] 253.35802469135837
113 5.067160493827161 ['79', '39', '114', '150', '131', '144', '141', '143', '146', '113', '105', '126', '149', '142', '112'] 253.35802469135837
114 5.067160493827161 ['79', '39', '114', '150', '131', '144', '141', '143', '146', '113', '105', '126', '149', '142', '112'] 253.35802469135837
115 5.067160493827161 ['79', '39', '114', '150', '131', '144', '141', '143', '146', '113', '105', '126', '149', '142', '112'] 253.35802469135837
116 5.067160493827161 ['79', '39', '114', '150', '131', '144', '141', '143', '146', '113', '105', '126', '149', '142', '112'] 253.35802469135837
117 5.067160493827161 ['79', '39', '114', '150', '131', '144', '141', '143', '146', '113', '105', '126', '149', '142', '112'] 253.35802469135837
118 5.067160493827161 ['79', '39', '114', '150', '131', '144', '141', '143', '146', '113', '105', '126', '149', '142', '112'] 253.35802469135837
119 5.067160493827161 ['79', '39', '114', '150', '131', '144', '141', '143', '146', '113', '105', '126', '149', '142', '112'] 253.35802469135837
120 5.067160493827161 ['79', '39', '114', '150', '131', '144', '141', '143', '146', '113', '105', '126', '149', '142', '112'] 253.35802469135837
121 5.067160493827161 ['79', '39', '114', '150', '131', '144', '141', '143', '146', '113', '105', '126', '149', '142', '112'] 253.35802469135837
122 5.067160493827161 ['79', '39', '114', '150', '131', '144', '141', '143', '146', '113', '105', '126', '149', '142', '112'] 253.35802469135837
123 5.067160493827161 ['79', '39', '114', '150', '131', '144', '141', '143', '146', '113', '105', '126', '149', '142', '112'] 253.35802469135837
124 5.067160493827161 ['79', '39', '114', '150', '131', '144', '141', '143', '146', '113', '105', '126', '149', '142', '112'] 253.35802469135837
125 5.067160493827161 ['79', '39', '114', '150', '131', '144', '141', '143', '146', '113', '105', '126', '149', '142', '112'] 253.35802469135837
126 5.067160493827161 ['79', '39', '114', '150', '131', '144', '141', '143', '146', '113', '105', '126', '149', '142', '112'] 253.35802469135837
127 5.067160493827161 ['79', '39', '114', '150', '131', '144', '141', '143', '146', '113', '105', '126', '149', '142', '112'] 253.35802469135837
128 5.067160493827161 ['79', '39', '114', '150', '131', '144', '141', '143', '146', '113', '105', '126', '149', '142', '112'] 253.35802469135837
129 5.067160493827161 ['79', '39', '114', '150', '131', '144', '141', '143', '146', '113', '105', '126', '149', '142', '112'] 253.35802469135837
130 5.067160493827161 ['79', '39', '114', '150', '131', '144', '141', '143', '146', '113', '105', '126', '149', '142', '112'] 253.35802469135837
131 5.067160493827161 ['79', '39', '114', '150', '131', '144', '141', '143', '146', '113', '105', '126', '149', '142', '112'] 253.35802469135837
132 5.067160493827161 ['79', '39', '114', '150', '131', '144', '141', '143', '146', '113', '105', '126', '149', '142', '112'] 253.35802469135837
133 5.067160493827161 ['79', '39', '114', '150', '131', '144', '141', '143', '146', '113', '105', '126', '149', '142', '112'] 253.35802469135837
134 5.067160493827161 ['79', '39', '114', '150', '131', '144', '141', '143', '146', '113', '105', '126', '149', '142', '112'] 253.35802469135837
135 5.067160493827161 ['79', '39', '114', '150', '131', '144', '141', '143', '146', '113', '105', '126', '149', '142', '112'] 253.35802469135837
136 5.067160493827161 ['79', '39', '114', '150', '131', '144', '141', '143', '146', '113', '105', '126', '149', '142', '112'] 253.35802469135837
137 5.067160493827161 ['79', '39', '114', '150', '131', '144', '141', '143', '146', '113', '105', '126', '149', '142', '112'] 253.35802469135837
138 5.067160493827161 ['79', '39', '114', '150', '131', '144', '141', '143', '146', '113', '105', '126', '149', '142', '112'] 253.35802469135837
139 5.067160493827161 ['79', '39', '114', '150', '131', '144', '141', '143', '146', '113', '105', '126', '149', '142', '112'] 253.35802469135837
140 5.067160493827161 ['79', '39', '114', '150', '131', '144', '141', '143', '146', '113', '105', '126', '149', '142', '112'] 253.35802469135837
141 5.067160493827161 ['79', '39', '114', '150', '131', '144', '141', '143', '146', '113', '105', '126', '149', '142', '112'] 253.35802469135837
142 5.067160493827161 ['79', '39', '114', '150', '131', '144', '141', '143', '146', '113', '105', '126', '149', '142', '112'] 253.35802469135837
143 5.067160493827161 ['79', '39', '114', '150', '131', '144', '141', '143', '146', '113', '105', '126', '149', '142', '112'] 253.35802469135837
144 5.067160493827161 ['79', '39', '114', '150', '131', '144', '141', '143', '146', '113', '105', '126', '149', '142', '112'] 253.35802469135837
145 5.067160493827161 ['79', '39', '114', '150', '131', '144', '141', '143', '146', '113', '105', '126', '149', '142', '112'] 253.35802469135837
146 5.067160493827161 ['79', '39', '114', '150', '131', '144', '141', '143', '146', '113', '105', '126', '149', '142', '112'] 253.35802469135837
147 5.067160493827161 ['79', '39', '114', '150', '131', '144', '141', '143', '146', '113', '105', '126', '149', '142', '112'] 253.35802469135837
148 5.067160493827161 ['79', '39', '114', '150', '131', '144', '141', '143', '146', '113', '105', '126', '149', '142', '112'] 253.35802469135837
149 5.067160493827161 ['79', '39', '114', '150', '131', '144', '141', '143', '146', '113', '105', '126', '149', '142', '112'] 253.35802469135837
150 5.067160493827161 ['79', '39', '114', '150', '131', '144', '141', '143', '146', '113', '105', '126', '149', '142', '112'] 253.35802469135837
151 5.067160493827161 ['79', '39', '114', '150', '131', '144', '141', '143', '146', '113', '105', '126', '149', '142', '112'] 253.35802469135837
152 5.067160493827161 ['79', '39', '114', '150', '131', '144', '141', '143', '146', '113', '105', '126', '149', '142', '112'] 253.35802469135837
153 5.067160493827161 ['79', '39', '114', '150', '131', '144', '141', '143', '146', '113', '105', '126', '149', '142', '112'] 253.35802469135837
154 5.067160493827161 ['79', '39', '114', '150', '131', '144', '141', '143', '146', '113', '105', '126', '149', '142', '112'] 253.35802469135837
155 5.067160493827161 ['79', '39', '114', '150', '131', '144', '141', '143', '146', '113', '105', '126', '149', '142', '112'] 253.35802469135837
156 5.067160493827161 ['79', '39', '114', '150', '131', '144', '141', '143', '146', '113', '105', '126', '149', '142', '112'] 253.35802469135837
157 5.067160493827161 ['79', '39', '114', '150', '131', '144', '141', '143', '146', '113', '105', '126', '149', '142', '112'] 253.35802469135837
158 5.067160493827161 ['79', '39', '114', '150', '131', '144', '141', '143', '146', '113', '105', '126', '149', '142', '112'] 253.35802469135837
159 5.067160493827161 ['79', '39', '114', '150', '131', '144', '141', '143', '146', '113', '105', '126', '149', '142', '112'] 253.35802469135837
160 5.067160493827161 ['79', '39', '114', '150', '131', '144', '141', '143', '146', '113', '105', '126', '149', '142', '112'] 253.35802469135837
161 5.067160493827161 ['79', '39', '114', '150', '131', '144', '141', '143', '146', '113', '105', '126', '149', '142', '112'] 253.35802469135837
162 5.067160493827161 ['79', '39', '114', '150', '131', '144', '141', '143', '146', '113', '105', '126', '149', '142', '112'] 253.35802469135837
163 5.067160493827161 ['79', '39', '114', '150', '131', '144', '141', '143', '146', '113', '105', '126', '149', '142', '112'] 253.35802469135837
164 5.067160493827161 ['79', '39', '114', '150', '131', '144', '141', '143', '146', '113', '105', '126', '149', '142', '112'] 253.35802469135837
165 5.067160493827161 ['79', '39', '114', '150', '131', '144', '141', '143', '146', '113', '105', '126', '149', '142', '112'] 253.35802469135837
166 5.067160493827161 ['79', '39', '114', '150', '131', '144', '141', '143', '146', '113', '105', '126', '149', '142', '112'] 253.35802469135837
167 5.067160493827161 ['79', '39', '114', '150', '131', '144', '141', '143', '146', '113', '105', '126', '149', '142', '112'] 253.35802469135837
168 5.067160493827161 ['79', '39', '114', '150', '131', '144', '141', '143', '146', '113', '105', '126', '149', '142', '112'] 253.35802469135837
169 5.067160493827161 ['79', '39', '114', '150', '131', '144', '141', '143', '146', '113', '105', '126', '149', '142', '112'] 253.35802469135837
170 5.067160493827161 ['79', '39', '114', '150', '131', '144', '141', '143', '146', '113', '105', '126', '149', '142', '112'] 253.35802469135837
171 5.067160493827161 ['79', '39', '114', '150', '131', '144', '141', '143', '146', '113', '105', '126', '149', '142', '112'] 253.35802469135837
172 5.067160493827161 ['79', '39', '114', '150', '131', '144', '141', '143', '146', '113', '105', '126', '149', '142', '112'] 253.35802469135837
173 5.067160493827161 ['79', '39', '114', '150', '131', '144', '141', '143', '146', '113', '105', '126', '149', '142', '112'] 253.35802469135837
174 5.067160493827161 ['79', '39', '114', '150', '131', '144', '141', '143', '146', '113', '105', '126', '149', '142', '112'] 253.35802469135837
175 5.067160493827161 ['79', '39', '114', '150', '131', '144', '141', '143', '146', '113', '105', '126', '149', '142', '112'] 253.35802469135837
176 5.067160493827161 ['79', '39', '114', '150', '131', '144', '141', '143', '146', '113', '105', '126', '149', '142', '112'] 253.35802469135837
177 5.067160493827161 ['79', '39', '114', '150', '131', '144', '141', '143', '146', '113', '105', '126', '149', '142', '112'] 253.35802469135837
178 5.067160493827161 ['79', '39', '114', '150', '131', '144', '141', '143', '146', '113', '105', '126', '149', '142', '112'] 253.35802469135837
179 5.067160493827161 ['79', '39', '114', '150', '131', '144', '141', '143', '146', '113', '105', '126', '149', '142', '112'] 253.35802469135837
180 5.067160493827161 ['79', '39', '114', '150', '131', '144', '141', '143', '146', '113', '105', '126', '149', '142', '112'] 253.35802469135837
181 5.067160493827161 ['79', '39', '114', '150', '131', '144', '141', '143', '146', '113', '105', '126', '149', '142', '112'] 253.35802469135837
182 5.067160493827161 ['79', '39', '114', '150', '131', '144', '141', '143', '146', '113', '105', '126', '149', '142', '112'] 253.35802469135837
183 5.067160493827161 ['79', '39', '114', '150', '131', '144', '141', '143', '146', '113', '105', '126', '149', '142', '112'] 253.35802469135837
184 5.067160493827161 ['79', '39', '114', '150', '131', '144', '141', '143', '146', '113', '105', '126', '149', '142', '112'] 253.35802469135837
185 5.067160493827161 ['79', '39', '114', '150', '131', '144', '141', '143', '146', '113', '105', '126', '149', '142', '112'] 253.35802469135837
186 5.067160493827161 ['79', '39', '114', '150', '131', '144', '141', '143', '146', '113', '105', '126', '149', '142', '112'] 253.35802469135837
187 5.067160493827161 ['79', '39', '114', '150', '131', '144', '141', '143', '146', '113', '105', '126', '149', '142', '112'] 253.35802469135837
188 5.067160493827161 ['79', '39', '114', '150', '131', '144', '141', '143', '146', '113', '105', '126', '149', '142', '112'] 253.35802469135837
189 5.067160493827161 ['79', '39', '114', '150', '131', '144', '141', '143', '146', '113', '105', '126', '149', '142', '112'] 253.35802469135837
190 5.067160493827161 ['79', '39', '114', '150', '131', '144', '141', '143', '146', '113', '105', '126', '149', '142', '112'] 253.35802469135837
191 5.067160493827161 ['79', '39', '114', '150', '131', '144', '141', '143', '146', '113', '105', '126', '149', '142', '112'] 253.35802469135837
192 5.067160493827161 ['79', '39', '114', '150', '131', '144', '141', '143', '146', '113', '105', '126', '149', '142', '112'] 253.35802469135837
193 5.067160493827161 ['79', '39', '114', '150', '131', '144', '141', '143', '146', '113', '105', '126', '149', '142', '112'] 253.35802469135837
194 5.067160493827161 ['79', '39', '114', '150', '131', '144', '141', '143', '146', '113', '105', '126', '149', '142', '112'] 253.35802469135837
195 5.067160493827161 ['79', '39', '114', '150', '131', '144', '141', '143', '146', '113', '105', '126', '149', '142', '112'] 253.35802469135837
196 5.067160493827161 ['79', '39', '114', '150', '131', '144', '141', '143', '146', '113', '105', '126', '149', '142', '112'] 253.35802469135837
197 5.067160493827161 ['79', '39', '114', '150', '131', '144', '141', '143', '146', '113', '105', '126', '149', '142', '112'] 253.35802469135837
198 5.067160493827161 ['79', '39', '114', '150', '131', '144', '141', '143', '146', '113', '105', '126', '149', '142', '112'] 253.35802469135837
199 5.067160493827161 ['79', '39', '114', '150', '131', '144', '141', '143', '146', '113', '105', '126', '149', '142', '112'] 253.35802469135837
