0 5.388518518518522 ['118', '144', '40', '142', '101', '106', '42', '127', '63', '123', '82', '149', '147', '54', '86'] 273.98691358024706
1 5.38172839506173 ['88', '89', '77', '113', '43', '76', '140', '115', '122', '81', '14', '39', '80', '148', '110'] 272.67160493827157
2 5.38172839506173 ['88', '89', '77', '113', '43', '76', '140', '115', '122', '81', '14', '39', '80', '148', '110'] 271.8950617283952
3 5.3523456790123465 ['150', '116', '111', '19', '45', '129', '86', '136', '110', '132', '74', '33', '83', '43', '96'] 270.9413580246914
4 5.3523456790123465 ['150', '116', '111', '19', '45', '129', '86', '136', '110', '132', '74', '33', '83', '43', '96'] 270.371975308642
5 5.331481481481485 ['110', '33', '150', '96', '19', '111', '48', '95', '148', '79', '136', '74', '43', '142', '38'] 269.47777777777776
6 5.294074074074076 ['150', '74', '79', '142', '136', '38', '111', '132', '110', '90', '123', '43', '10', '63', '48'] 268.61629629629635
7 5.2461728395061735 ['142', '150', '19', '139', '48', '76', '74', '109', '136', '33', '148', '43', '111', '127', '123'] 267.868888888889
8 5.2461728395061735 ['142', '150', '19', '139', '48', '76', '74', '109', '136', '33', '148', '43', '111', '127', '123'] 266.8808641975309
9 5.2461728395061735 ['142', '150', '19', '139', '48', '76', '74', '109', '136', '33', '148', '43', '111', '127', '123'] 265.99530864197527
10 5.240740740740744 ['110', '136', '123', '142', '150', '148', '109', '33', '19', '76', '134', '147', '111', '89', '139'] 265.2240740740741
11 5.236666666666668 ['76', '147', '33', '150', '109', '142', '111', '127', '19', '132', '89', '134', '110', '123', '86'] 264.4475308641977
12 5.196543209876546 ['106', '142', '123', '117', '48', '150', '109', '74', '79', '19', '111', '129', '110', '115', '127'] 263.37111111111113
13 5.196543209876546 ['106', '142', '123', '117', '48', '150', '109', '74', '79', '19', '111', '129', '110', '115', '127'] 262.46530864197547
14 5.196543209876546 ['106', '142', '123', '117', '48', '150', '109', '74', '79', '19', '111', '129', '110', '115', '127'] 261.89259259259256
15 5.179876543209876 ['123', '150', '148', '109', '136', '127', '142', '48', '131', '139', '76', '110', '118', '129', '147'] 261.2414814814816
16 5.177530864197532 ['111', '74', '150', '136', '147', '109', '123', '110', '142', '139', '134', '127', '106', '56', '48'] 260.59518518518524
17 5.135679012345679 ['109', '48', '136', '123', '142', '74', '127', '129', '110', '150', '147', '43', '131', '118', '111'] 260.0248148148148
18 5.135679012345679 ['109', '48', '136', '123', '142', '74', '127', '129', '110', '150', '147', '43', '131', '118', '111'] 259.59012345679014
19 5.135679012345679 ['109', '48', '136', '123', '142', '74', '127', '129', '110', '150', '147', '43', '131', '118', '111'] 259.17950617283964
20 5.135679012345679 ['109', '48', '136', '123', '142', '74', '127', '129', '110', '150', '147', '43', '131', '118', '111'] 258.6944444444445
21 5.135679012345679 ['109', '48', '136', '123', '142', '74', '127', '129', '110', '150', '147', '43', '131', '118', '111'] 258.16679012345674
22 5.135679012345678 ['48', '150', '111', '136', '118', '123', '127', '74', '109', '142', '110', '147', '131', '88', '129'] 257.6995061728396
23 5.125185185185186 ['118', '88', '148', '48', '142', '109', '150', '136', '123', '117', '111', '127', '43', '129', '70'] 257.3379012345679
24 5.116913580246914 ['88', '48', '117', '136', '148', '127', '150', '111', '129', '142', '118', '109', '123', '43', '147'] 257.0453086419752
25 5.116913580246914 ['88', '48', '117', '136', '148', '127', '150', '111', '129', '142', '118', '109', '123', '43', '147'] 256.8359259259257
26 5.116913580246914 ['88', '48', '117', '136', '148', '127', '150', '111', '129', '142', '118', '109', '123', '43', '147'] 256.7334567901237
27 5.116913580246914 ['88', '48', '117', '136', '148', '127', '150', '111', '129', '142', '118', '109', '123', '43', '147'] 256.6866666666669
28 5.104197530864197 ['118', '127', '150', '147', '48', '131', '136', '142', '109', '111', '129', '123', '117', '88', '70'] 256.61444444444464
29 5.104197530864197 ['118', '127', '150', '147', '48', '131', '136', '142', '109', '111', '129', '123', '117', '88', '70'] 256.5895061728397
30 5.104197530864197 ['118', '127', '150', '147', '48', '131', '136', '142', '109', '111', '129', '123', '117', '88', '70'] 256.45703703703725
31 5.104197530864197 ['118', '127', '150', '147', '48', '131', '136', '142', '109', '111', '129', '123', '117', '88', '70'] 256.1433333333336
32 5.104197530864197 ['118', '127', '150', '147', '48', '131', '136', '142', '109', '111', '129', '123', '117', '88', '70'] 255.55049382716052
33 5.104197530864197 ['118', '127', '150', '147', '48', '131', '136', '142', '109', '111', '129', '123', '117', '88', '70'] 255.37283950617262
34 5.104197530864197 ['118', '127', '150', '147', '48', '131', '136', '142', '109', '111', '129', '123', '117', '88', '70'] 255.31358024691332
35 5.104197530864197 ['118', '127', '150', '147', '48', '131', '136', '142', '109', '111', '129', '123', '117', '88', '70'] 255.29135802469108
36 5.104197530864197 ['118', '127', '150', '147', '48', '131', '136', '142', '109', '111', '129', '123', '117', '88', '70'] 255.23456790123424
37 5.104197530864197 ['118', '127', '150', '147', '48', '131', '136', '142', '109', '111', '129', '123', '117', '88', '70'] 255.20987654320953
38 5.104197530864197 ['118', '127', '150', '147', '48', '131', '136', '142', '109', '111', '129', '123', '117', '88', '70'] 255.20987654320953
39 5.104197530864197 ['118', '127', '150', '147', '48', '131', '136', '142', '109', '111', '129', '123', '117', '88', '70'] 255.20987654320953
40 5.104197530864197 ['118', '127', '150', '147', '48', '131', '136', '142', '109', '111', '129', '123', '117', '88', '70'] 255.20987654320953
41 5.104197530864197 ['118', '127', '150', '147', '48', '131', '136', '142', '109', '111', '129', '123', '117', '88', '70'] 255.20987654320953
42 5.104197530864197 ['118', '127', '150', '147', '48', '131', '136', '142', '109', '111', '129', '123', '117', '88', '70'] 255.20987654320953
43 5.104197530864197 ['118', '127', '150', '147', '48', '131', '136', '142', '109', '111', '129', '123', '117', '88', '70'] 255.20987654320953
44 5.104197530864197 ['118', '127', '150', '147', '48', '131', '136', '142', '109', '111', '129', '123', '117', '88', '70'] 255.20987654320953
45 5.104197530864197 ['118', '127', '150', '147', '48', '131', '136', '142', '109', '111', '129', '123', '117', '88', '70'] 255.20987654320953
46 5.104197530864197 ['118', '127', '150', '147', '48', '131', '136', '142', '109', '111', '129', '123', '117', '88', '70'] 255.20987654320953
47 5.104197530864197 ['118', '127', '150', '147', '48', '131', '136', '142', '109', '111', '129', '123', '117', '88', '70'] 255.20987654320953
48 5.104197530864197 ['118', '127', '150', '147', '48', '131', '136', '142', '109', '111', '129', '123', '117', '88', '70'] 255.20987654320953
49 5.104197530864197 ['118', '127', '150', '147', '48', '131', '136', '142', '109', '111', '129', '123', '117', '88', '70'] 255.20987654320953
50 5.104197530864197 ['118', '127', '150', '147', '48', '131', '136', '142', '109', '111', '129', '123', '117', '88', '70'] 255.20987654320953
51 5.104197530864197 ['118', '127', '150', '147', '48', '131', '136', '142', '109', '111', '129', '123', '117', '88', '70'] 255.20987654320953
52 5.104197530864197 ['118', '127', '150', '147', '48', '131', '136', '142', '109', '111', '129', '123', '117', '88', '70'] 255.20987654320953
53 5.104197530864197 ['118', '127', '150', '147', '48', '131', '136', '142', '109', '111', '129', '123', '117', '88', '70'] 255.20987654320953
54 5.104197530864197 ['118', '127', '150', '147', '48', '131', '136', '142', '109', '111', '129', '123', '117', '88', '70'] 255.20987654320953
55 5.104197530864197 ['118', '127', '150', '147', '48', '131', '136', '142', '109', '111', '129', '123', '117', '88', '70'] 255.20987654320953
56 5.104197530864197 ['118', '127', '150', '147', '48', '131', '136', '142', '109', '111', '129', '123', '117', '88', '70'] 255.20987654320953
57 5.104197530864197 ['118', '127', '150', '147', '48', '131', '136', '142', '109', '111', '129', '123', '117', '88', '70'] 255.20987654320953
58 5.104197530864197 ['118', '127', '150', '147', '48', '131', '136', '142', '109', '111', '129', '123', '117', '88', '70'] 255.20987654320953
59 5.104197530864197 ['118', '127', '150', '147', '48', '131', '136', '142', '109', '111', '129', '123', '117', '88', '70'] 255.20987654320953
60 5.104197530864197 ['118', '127', '150', '147', '48', '131', '136', '142', '109', '111', '129', '123', '117', '88', '70'] 255.20987654320953
61 5.104197530864197 ['118', '127', '150', '147', '48', '131', '136', '142', '109', '111', '129', '123', '117', '88', '70'] 255.20987654320953
62 5.104197530864197 ['118', '127', '150', '147', '48', '131', '136', '142', '109', '111', '129', '123', '117', '88', '70'] 255.20987654320953
63 5.104197530864197 ['118', '127', '150', '147', '48', '131', '136', '142', '109', '111', '129', '123', '117', '88', '70'] 255.20987654320953
64 5.104197530864197 ['118', '127', '150', '147', '48', '131', '136', '142', '109', '111', '129', '123', '117', '88', '70'] 255.20987654320953
65 5.104197530864197 ['118', '127', '150', '147', '48', '131', '136', '142', '109', '111', '129', '123', '117', '88', '70'] 255.20987654320953
66 5.104197530864197 ['118', '127', '150', '147', '48', '131', '136', '142', '109', '111', '129', '123', '117', '88', '70'] 255.20987654320953
67 5.104197530864197 ['118', '127', '150', '147', '48', '131', '136', '142', '109', '111', '129', '123', '117', '88', '70'] 255.20987654320953
68 5.104197530864197 ['118', '127', '150', '147', '48', '131', '136', '142', '109', '111', '129', '123', '117', '88', '70'] 255.20987654320953
69 5.104197530864197 ['118', '127', '150', '147', '48', '131', '136', '142', '109', '111', '129', '123', '117', '88', '70'] 255.20987654320953
70 5.104197530864197 ['118', '127', '150', '147', '48', '131', '136', '142', '109', '111', '129', '123', '117', '88', '70'] 255.20987654320953
71 5.104197530864197 ['118', '127', '150', '147', '48', '131', '136', '142', '109', '111', '129', '123', '117', '88', '70'] 255.20987654320953
72 5.104197530864197 ['118', '127', '150', '147', '48', '131', '136', '142', '109', '111', '129', '123', '117', '88', '70'] 255.20987654320953
73 5.104197530864197 ['118', '127', '150', '147', '48', '131', '136', '142', '109', '111', '129', '123', '117', '88', '70'] 255.20987654320953
74 5.104197530864197 ['118', '127', '150', '147', '48', '131', '136', '142', '109', '111', '129', '123', '117', '88', '70'] 255.20987654320953
75 5.104197530864197 ['118', '127', '150', '147', '48', '131', '136', '142', '109', '111', '129', '123', '117', '88', '70'] 255.20987654320953
76 5.104197530864197 ['118', '127', '150', '147', '48', '131', '136', '142', '109', '111', '129', '123', '117', '88', '70'] 255.20987654320953
77 5.104197530864197 ['118', '127', '150', '147', '48', '131', '136', '142', '109', '111', '129', '123', '117', '88', '70'] 255.20987654320953
78 5.104197530864197 ['118', '127', '150', '147', '48', '131', '136', '142', '109', '111', '129', '123', '117', '88', '70'] 255.20987654320953
79 5.104197530864197 ['118', '127', '150', '147', '48', '131', '136', '142', '109', '111', '129', '123', '117', '88', '70'] 255.20987654320953
80 5.104197530864197 ['118', '127', '150', '147', '48', '131', '136', '142', '109', '111', '129', '123', '117', '88', '70'] 255.20987654320953
81 5.104197530864197 ['118', '127', '150', '147', '48', '131', '136', '142', '109', '111', '129', '123', '117', '88', '70'] 255.20987654320953
82 5.104197530864197 ['118', '127', '150', '147', '48', '131', '136', '142', '109', '111', '129', '123', '117', '88', '70'] 255.20987654320953
83 5.104197530864197 ['118', '127', '150', '147', '48', '131', '136', '142', '109', '111', '129', '123', '117', '88', '70'] 255.20987654320953
84 5.104197530864197 ['118', '127', '150', '147', '48', '131', '136', '142', '109', '111', '129', '123', '117', '88', '70'] 255.20987654320953
85 5.104197530864197 ['118', '127', '150', '147', '48', '131', '136', '142', '109', '111', '129', '123', '117', '88', '70'] 255.20987654320953
86 5.104197530864197 ['118', '127', '150', '147', '48', '131', '136', '142', '109', '111', '129', '123', '117', '88', '70'] 255.20987654320953
87 5.104197530864197 ['118', '127', '150', '147', '48', '131', '136', '142', '109', '111', '129', '123', '117', '88', '70'] 255.20987654320953
88 5.104197530864197 ['118', '127', '150', '147', '48', '131', '136', '142', '109', '111', '129', '123', '117', '88', '70'] 255.20987654320953
89 5.104197530864197 ['118', '127', '150', '147', '48', '131', '136', '142', '109', '111', '129', '123', '117', '88', '70'] 255.20987654320953
90 5.104197530864197 ['118', '127', '150', '147', '48', '131', '136', '142', '109', '111', '129', '123', '117', '88', '70'] 255.20987654320953
91 5.104197530864197 ['118', '127', '150', '147', '48', '131', '136', '142', '109', '111', '129', '123', '117', '88', '70'] 255.20987654320953
92 5.104197530864197 ['118', '127', '150', '147', '48', '131', '136', '142', '109', '111', '129', '123', '117', '88', '70'] 255.20987654320953
93 5.104197530864197 ['118', '127', '150', '147', '48', '131', '136', '142', '109', '111', '129', '123', '117', '88', '70'] 255.20987654320953
94 5.104197530864197 ['118', '127', '150', '147', '48', '131', '136', '142', '109', '111', '129', '123', '117', '88', '70'] 255.20987654320953
95 5.104197530864197 ['118', '127', '150', '147', '48', '131', '136', '142', '109', '111', '129', '123', '117', '88', '70'] 255.20987654320953
96 5.104197530864197 ['118', '127', '150', '147', '48', '131', '136', '142', '109', '111', '129', '123', '117', '88', '70'] 255.20987654320953
97 5.104197530864197 ['118', '127', '150', '147', '48', '131', '136', '142', '109', '111', '129', '123', '117', '88', '70'] 255.20987654320953
98 5.104197530864197 ['118', '127', '150', '147', '48', '131', '136', '142', '109', '111', '129', '123', '117', '88', '70'] 255.20987654320953
99 5.104197530864197 ['118', '127', '150', '147', '48', '131', '136', '142', '109', '111', '129', '123', '117', '88', '70'] 255.20987654320953
100 5.104197530864197 ['118', '127', '150', '147', '48', '131', '136', '142', '109', '111', '129', '123', '117', '88', '70'] 255.20987654320953
101 5.104197530864197 ['118', '127', '150', '147', '48', '131', '136', '142', '109', '111', '129', '123', '117', '88', '70'] 255.20987654320953
102 5.104197530864197 ['118', '127', '150', '147', '48', '131', '136', '142', '109', '111', '129', '123', '117', '88', '70'] 255.20987654320953
103 5.104197530864197 ['118', '127', '150', '147', '48', '131', '136', '142', '109', '111', '129', '123', '117', '88', '70'] 255.20987654320953
104 5.104197530864197 ['118', '127', '150', '147', '48', '131', '136', '142', '109', '111', '129', '123', '117', '88', '70'] 255.20987654320953
105 5.104197530864197 ['118', '127', '150', '147', '48', '131', '136', '142', '109', '111', '129', '123', '117', '88', '70'] 255.20987654320953
106 5.104197530864197 ['118', '127', '150', '147', '48', '131', '136', '142', '109', '111', '129', '123', '117', '88', '70'] 255.20987654320953
107 5.104197530864197 ['118', '127', '150', '147', '48', '131', '136', '142', '109', '111', '129', '123', '117', '88', '70'] 255.20987654320953
108 5.104197530864197 ['118', '127', '150', '147', '48', '131', '136', '142', '109', '111', '129', '123', '117', '88', '70'] 255.20987654320953
109 5.104197530864197 ['118', '127', '150', '147', '48', '131', '136', '142', '109', '111', '129', '123', '117', '88', '70'] 255.20987654320953
110 5.104197530864197 ['118', '127', '150', '147', '48', '131', '136', '142', '109', '111', '129', '123', '117', '88', '70'] 255.20987654320953
111 5.104197530864197 ['118', '127', '150', '147', '48', '131', '136', '142', '109', '111', '129', '123', '117', '88', '70'] 255.20987654320953
112 5.104197530864197 ['118', '127', '150', '147', '48', '131', '136', '142', '109', '111', '129', '123', '117', '88', '70'] 255.20987654320953
113 5.104197530864197 ['118', '127', '150', '147', '48', '131', '136', '142', '109', '111', '129', '123', '117', '88', '70'] 255.20987654320953
114 5.104197530864197 ['118', '127', '150', '147', '48', '131', '136', '142', '109', '111', '129', '123', '117', '88', '70'] 255.20987654320953
115 5.104197530864197 ['118', '127', '150', '147', '48', '131', '136', '142', '109', '111', '129', '123', '117', '88', '70'] 255.20987654320953
116 5.104197530864197 ['118', '127', '150', '147', '48', '131', '136', '142', '109', '111', '129', '123', '117', '88', '70'] 255.20987654320953
117 5.104197530864197 ['118', '127', '150', '147', '48', '131', '136', '142', '109', '111', '129', '123', '117', '88', '70'] 255.20987654320953
118 5.104197530864197 ['118', '127', '150', '147', '48', '131', '136', '142', '109', '111', '129', '123', '117', '88', '70'] 255.20987654320953
119 5.104197530864197 ['118', '127', '150', '147', '48', '131', '136', '142', '109', '111', '129', '123', '117', '88', '70'] 255.20987654320953
120 5.104197530864197 ['118', '127', '150', '147', '48', '131', '136', '142', '109', '111', '129', '123', '117', '88', '70'] 255.20987654320953
121 5.104197530864197 ['118', '127', '150', '147', '48', '131', '136', '142', '109', '111', '129', '123', '117', '88', '70'] 255.20987654320953
122 5.104197530864197 ['118', '127', '150', '147', '48', '131', '136', '142', '109', '111', '129', '123', '117', '88', '70'] 255.20987654320953
123 5.104197530864197 ['118', '127', '150', '147', '48', '131', '136', '142', '109', '111', '129', '123', '117', '88', '70'] 255.20987654320953
124 5.104197530864197 ['118', '127', '150', '147', '48', '131', '136', '142', '109', '111', '129', '123', '117', '88', '70'] 255.20987654320953
125 5.104197530864197 ['118', '127', '150', '147', '48', '131', '136', '142', '109', '111', '129', '123', '117', '88', '70'] 255.20987654320953
126 5.104197530864197 ['118', '127', '150', '147', '48', '131', '136', '142', '109', '111', '129', '123', '117', '88', '70'] 255.20987654320953
127 5.104197530864197 ['118', '127', '150', '147', '48', '131', '136', '142', '109', '111', '129', '123', '117', '88', '70'] 255.20987654320953
128 5.104197530864197 ['118', '127', '150', '147', '48', '131', '136', '142', '109', '111', '129', '123', '117', '88', '70'] 255.20987654320953
129 5.104197530864197 ['118', '127', '150', '147', '48', '131', '136', '142', '109', '111', '129', '123', '117', '88', '70'] 255.20987654320953
130 5.104197530864197 ['118', '127', '150', '147', '48', '131', '136', '142', '109', '111', '129', '123', '117', '88', '70'] 255.20987654320953
131 5.104197530864197 ['118', '127', '150', '147', '48', '131', '136', '142', '109', '111', '129', '123', '117', '88', '70'] 255.20987654320953
132 5.104197530864197 ['118', '127', '150', '147', '48', '131', '136', '142', '109', '111', '129', '123', '117', '88', '70'] 255.20987654320953
133 5.104197530864197 ['118', '127', '150', '147', '48', '131', '136', '142', '109', '111', '129', '123', '117', '88', '70'] 255.20987654320953
134 5.104197530864197 ['118', '127', '150', '147', '48', '131', '136', '142', '109', '111', '129', '123', '117', '88', '70'] 255.20987654320953
135 5.104197530864197 ['118', '127', '150', '147', '48', '131', '136', '142', '109', '111', '129', '123', '117', '88', '70'] 255.20987654320953
136 5.104197530864197 ['118', '127', '150', '147', '48', '131', '136', '142', '109', '111', '129', '123', '117', '88', '70'] 255.20987654320953
137 5.104197530864197 ['118', '127', '150', '147', '48', '131', '136', '142', '109', '111', '129', '123', '117', '88', '70'] 255.20987654320953
138 5.104197530864197 ['118', '127', '150', '147', '48', '131', '136', '142', '109', '111', '129', '123', '117', '88', '70'] 255.20987654320953
139 5.104197530864197 ['118', '127', '150', '147', '48', '131', '136', '142', '109', '111', '129', '123', '117', '88', '70'] 255.20987654320953
140 5.104197530864197 ['118', '127', '150', '147', '48', '131', '136', '142', '109', '111', '129', '123', '117', '88', '70'] 255.20987654320953
141 5.104197530864197 ['118', '127', '150', '147', '48', '131', '136', '142', '109', '111', '129', '123', '117', '88', '70'] 255.20987654320953
142 5.104197530864197 ['118', '127', '150', '147', '48', '131', '136', '142', '109', '111', '129', '123', '117', '88', '70'] 255.20987654320953
143 5.104197530864197 ['118', '127', '150', '147', '48', '131', '136', '142', '109', '111', '129', '123', '117', '88', '70'] 255.20987654320953
144 5.104197530864197 ['118', '127', '150', '147', '48', '131', '136', '142', '109', '111', '129', '123', '117', '88', '70'] 255.20987654320953
145 5.104197530864197 ['118', '127', '150', '147', '48', '131', '136', '142', '109', '111', '129', '123', '117', '88', '70'] 255.20987654320953
146 5.104197530864197 ['118', '127', '150', '147', '48', '131', '136', '142', '109', '111', '129', '123', '117', '88', '70'] 255.20987654320953
147 5.104197530864197 ['118', '127', '150', '147', '48', '131', '136', '142', '109', '111', '129', '123', '117', '88', '70'] 255.20987654320953
148 5.104197530864197 ['118', '127', '150', '147', '48', '131', '136', '142', '109', '111', '129', '123', '117', '88', '70'] 255.20987654320953
149 5.104197530864197 ['118', '127', '150', '147', '48', '131', '136', '142', '109', '111', '129', '123', '117', '88', '70'] 255.20987654320953
150 5.104197530864197 ['118', '127', '150', '147', '48', '131', '136', '142', '109', '111', '129', '123', '117', '88', '70'] 255.20987654320953
151 5.104197530864197 ['118', '127', '150', '147', '48', '131', '136', '142', '109', '111', '129', '123', '117', '88', '70'] 255.20987654320953
152 5.104197530864197 ['118', '127', '150', '147', '48', '131', '136', '142', '109', '111', '129', '123', '117', '88', '70'] 255.20987654320953
153 5.104197530864197 ['118', '127', '150', '147', '48', '131', '136', '142', '109', '111', '129', '123', '117', '88', '70'] 255.20987654320953
154 5.104197530864197 ['118', '127', '150', '147', '48', '131', '136', '142', '109', '111', '129', '123', '117', '88', '70'] 255.20987654320953
155 5.104197530864197 ['118', '127', '150', '147', '48', '131', '136', '142', '109', '111', '129', '123', '117', '88', '70'] 255.20987654320953
156 5.104197530864197 ['118', '127', '150', '147', '48', '131', '136', '142', '109', '111', '129', '123', '117', '88', '70'] 255.20987654320953
157 5.104197530864197 ['118', '127', '150', '147', '48', '131', '136', '142', '109', '111', '129', '123', '117', '88', '70'] 255.20987654320953
158 5.104197530864197 ['118', '127', '150', '147', '48', '131', '136', '142', '109', '111', '129', '123', '117', '88', '70'] 255.20987654320953
159 5.104197530864197 ['118', '127', '150', '147', '48', '131', '136', '142', '109', '111', '129', '123', '117', '88', '70'] 255.20987654320953
160 5.104197530864197 ['118', '127', '150', '147', '48', '131', '136', '142', '109', '111', '129', '123', '117', '88', '70'] 255.20987654320953
161 5.104197530864197 ['118', '127', '150', '147', '48', '131', '136', '142', '109', '111', '129', '123', '117', '88', '70'] 255.20987654320953
162 5.104197530864197 ['118', '127', '150', '147', '48', '131', '136', '142', '109', '111', '129', '123', '117', '88', '70'] 255.20987654320953
163 5.104197530864197 ['118', '127', '150', '147', '48', '131', '136', '142', '109', '111', '129', '123', '117', '88', '70'] 255.20987654320953
164 5.104197530864197 ['118', '127', '150', '147', '48', '131', '136', '142', '109', '111', '129', '123', '117', '88', '70'] 255.20987654320953
165 5.104197530864197 ['118', '127', '150', '147', '48', '131', '136', '142', '109', '111', '129', '123', '117', '88', '70'] 255.20987654320953
166 5.104197530864197 ['118', '127', '150', '147', '48', '131', '136', '142', '109', '111', '129', '123', '117', '88', '70'] 255.20987654320953
167 5.104197530864197 ['118', '127', '150', '147', '48', '131', '136', '142', '109', '111', '129', '123', '117', '88', '70'] 255.20987654320953
168 5.104197530864197 ['118', '127', '150', '147', '48', '131', '136', '142', '109', '111', '129', '123', '117', '88', '70'] 255.20987654320953
169 5.104197530864197 ['118', '127', '150', '147', '48', '131', '136', '142', '109', '111', '129', '123', '117', '88', '70'] 255.20987654320953
170 5.104197530864197 ['118', '127', '150', '147', '48', '131', '136', '142', '109', '111', '129', '123', '117', '88', '70'] 255.20987654320953
171 5.104197530864197 ['118', '127', '150', '147', '48', '131', '136', '142', '109', '111', '129', '123', '117', '88', '70'] 255.20987654320953
172 5.104197530864197 ['118', '127', '150', '147', '48', '131', '136', '142', '109', '111', '129', '123', '117', '88', '70'] 255.20987654320953
173 5.104197530864197 ['118', '127', '150', '147', '48', '131', '136', '142', '109', '111', '129', '123', '117', '88', '70'] 255.20987654320953
174 5.104197530864197 ['118', '127', '150', '147', '48', '131', '136', '142', '109', '111', '129', '123', '117', '88', '70'] 255.20987654320953
175 5.104197530864197 ['118', '127', '150', '147', '48', '131', '136', '142', '109', '111', '129', '123', '117', '88', '70'] 255.20987654320953
176 5.104197530864197 ['118', '127', '150', '147', '48', '131', '136', '142', '109', '111', '129', '123', '117', '88', '70'] 255.20987654320953
177 5.104197530864197 ['118', '127', '150', '147', '48', '131', '136', '142', '109', '111', '129', '123', '117', '88', '70'] 255.20987654320953
178 5.104197530864197 ['118', '127', '150', '147', '48', '131', '136', '142', '109', '111', '129', '123', '117', '88', '70'] 255.20987654320953
179 5.104197530864197 ['118', '127', '150', '147', '48', '131', '136', '142', '109', '111', '129', '123', '117', '88', '70'] 255.20987654320953
180 5.104197530864197 ['118', '127', '150', '147', '48', '131', '136', '142', '109', '111', '129', '123', '117', '88', '70'] 255.20987654320953
181 5.104197530864197 ['118', '127', '150', '147', '48', '131', '136', '142', '109', '111', '129', '123', '117', '88', '70'] 255.20987654320953
182 5.104197530864197 ['118', '127', '150', '147', '48', '131', '136', '142', '109', '111', '129', '123', '117', '88', '70'] 255.20987654320953
183 5.104197530864197 ['118', '127', '150', '147', '48', '131', '136', '142', '109', '111', '129', '123', '117', '88', '70'] 255.20987654320953
184 5.104197530864197 ['118', '127', '150', '147', '48', '131', '136', '142', '109', '111', '129', '123', '117', '88', '70'] 255.20987654320953
185 5.104197530864197 ['118', '127', '150', '147', '48', '131', '136', '142', '109', '111', '129', '123', '117', '88', '70'] 255.20987654320953
186 5.104197530864197 ['118', '127', '150', '147', '48', '131', '136', '142', '109', '111', '129', '123', '117', '88', '70'] 255.20987654320953
187 5.104197530864197 ['118', '127', '150', '147', '48', '131', '136', '142', '109', '111', '129', '123', '117', '88', '70'] 255.20987654320953
188 5.104197530864197 ['118', '127', '150', '147', '48', '131', '136', '142', '109', '111', '129', '123', '117', '88', '70'] 255.20987654320953
189 5.104197530864197 ['118', '127', '150', '147', '48', '131', '136', '142', '109', '111', '129', '123', '117', '88', '70'] 255.20987654320953
190 5.104197530864197 ['118', '127', '150', '147', '48', '131', '136', '142', '109', '111', '129', '123', '117', '88', '70'] 255.20987654320953
191 5.104197530864197 ['118', '127', '150', '147', '48', '131', '136', '142', '109', '111', '129', '123', '117', '88', '70'] 255.20987654320953
192 5.104197530864197 ['118', '127', '150', '147', '48', '131', '136', '142', '109', '111', '129', '123', '117', '88', '70'] 255.20987654320953
193 5.104197530864197 ['118', '127', '150', '147', '48', '131', '136', '142', '109', '111', '129', '123', '117', '88', '70'] 255.20987654320953
194 5.104197530864197 ['118', '127', '150', '147', '48', '131', '136', '142', '109', '111', '129', '123', '117', '88', '70'] 255.20987654320953
195 5.104197530864197 ['118', '127', '150', '147', '48', '131', '136', '142', '109', '111', '129', '123', '117', '88', '70'] 255.20987654320953
196 5.104197530864197 ['118', '127', '150', '147', '48', '131', '136', '142', '109', '111', '129', '123', '117', '88', '70'] 255.20987654320953
197 5.104197530864197 ['118', '127', '150', '147', '48', '131', '136', '142', '109', '111', '129', '123', '117', '88', '70'] 255.20987654320953
198 5.104197530864197 ['118', '127', '150', '147', '48', '131', '136', '142', '109', '111', '129', '123', '117', '88', '70'] 255.20987654320953
199 5.104197530864197 ['118', '127', '150', '147', '48', '131', '136', '142', '109', '111', '129', '123', '117', '88', '70'] 255.20987654320953
