0 5.363827160493827 ['21', '32', '113', '104', '114', '25', '80', '10', '14', '19', '130', '3', '117', '63', '6'] 272.6718518518519
1 5.363827160493827 ['21', '32', '113', '104', '114', '25', '80', '10', '14', '19', '130', '3', '117', '63', '6'] 271.91382716049395
2 5.3417283950617245 ['36', '150', '73', '88', '105', '26', '70', '138', '137', '43', '148', '134', '69', '114', '123'] 270.94382716049387
3 5.330864197530863 ['62', '69', '105', '137', '121', '126', '142', '140', '136', '1', '86', '41', '131', '94', '148'] 270.185061728395
4 5.330864197530863 ['62', '69', '105', '137', '121', '126', '142', '140', '136', '1', '86', '41', '131', '94', '148'] 269.55703703703705
5 5.317654320987654 ['145', '126', '25', '139', '9', '117', '125', '132', '116', '141', '49', '148', '10', '131', '63'] 268.93
6 5.282098765432098 ['105', '137', '148', '69', '73', '1', '138', '136', '86', '142', '94', '123', '114', '41', '121'] 268.1037037037037
7 5.282098765432098 ['105', '137', '148', '69', '73', '1', '138', '136', '86', '142', '94', '123', '114', '41', '121'] 267.37950617283957
8 5.282098765432098 ['105', '137', '148', '69', '73', '1', '138', '136', '86', '142', '94', '123', '114', '41', '121'] 266.9183950617284
9 5.266666666666665 ['111', '126', '134', '130', '45', '139', '143', '117', '114', '25', '123', '75', '41', '94', '131'] 266.0355555555556
10 5.2595061728395045 ['131', '25', '41', '126', '111', '62', '114', '142', '141', '148', '143', '117', '123', '134', '75'] 265.1456790123457
11 5.223580246913579 ['143', '132', '145', '126', '43', '149', '131', '148', '125', '47', '130', '144', '103', '114', '139'] 264.4335802469135
12 5.204197530864197 ['143', '126', '148', '139', '131', '145', '114', '103', '111', '86', '2', '121', '149', '130', '123'] 263.6508641975308
13 5.191111111111111 ['103', '139', '125', '131', '148', '145', '130', '141', '25', '63', '126', '143', '117', '92', '114'] 262.72888888888883
14 5.186049382716049 ['145', '103', '143', '131', '130', '139', '117', '126', '97', '132', '137', '92', '148', '123', '125'] 262.0466666666667
15 5.14148148148148 ['92', '130', '145', '148', '117', '131', '125', '143', '126', '103', '139', '123', '25', '114', '97'] 261.15580246913584
16 5.118024691358023 ['143', '139', '131', '114', '103', '92', '148', '130', '126', '63', '125', '123', '145', '25', '117'] 260.15543209876535
17 5.118024691358023 ['143', '139', '131', '114', '103', '92', '148', '130', '126', '63', '125', '123', '145', '25', '117'] 259.36481481481474
18 5.118024691358023 ['143', '139', '131', '114', '103', '92', '148', '130', '126', '63', '125', '123', '145', '25', '117'] 258.6237037037036
19 5.113456790123455 ['114', '130', '126', '145', '103', '121', '123', '131', '143', '139', '148', '142', '137', '117', '97'] 257.8158024691358
20 5.1129629629629605 ['114', '143', '123', '125', '130', '126', '103', '145', '139', '148', '117', '131', '97', '121', '137'] 257.2480246913579
21 5.111234567901235 ['139', '123', '103', '126', '130', '117', '145', '143', '148', '114', '131', '125', '132', '142', '97'] 256.7987654320987
22 5.101975308641975 ['145', '123', '139', '131', '125', '114', '130', '148', '103', '117', '143', '126', '141', '96', '97'] 256.3143209876543
23 5.101975308641975 ['145', '123', '139', '131', '125', '114', '130', '148', '103', '117', '143', '126', '141', '96', '97'] 255.8979012345678
24 5.101975308641975 ['145', '123', '139', '131', '125', '114', '130', '148', '103', '117', '143', '126', '141', '96', '97'] 255.6528395061726
25 5.0912345679012345 ['97', '103', '139', '148', '145', '123', '142', '126', '143', '130', '131', '117', '114', '125', '121'] 255.57518518518506
26 5.0912345679012345 ['97', '103', '139', '148', '145', '123', '142', '126', '143', '130', '131', '117', '114', '125', '121'] 255.48432098765443
27 5.0912345679012345 ['97', '103', '139', '148', '145', '123', '142', '126', '143', '130', '131', '117', '114', '125', '121'] 255.41580246913543
28 5.0912345679012345 ['97', '103', '139', '148', '145', '123', '142', '126', '143', '130', '131', '117', '114', '125', '121'] 255.3870370370367
29 5.0912345679012345 ['97', '103', '139', '148', '145', '123', '142', '126', '143', '130', '131', '117', '114', '125', '121'] 255.36703703703688
30 5.0912345679012345 ['97', '103', '139', '148', '145', '123', '142', '126', '143', '130', '131', '117', '114', '125', '121'] 255.3613580246912
31 5.0912345679012345 ['97', '103', '139', '148', '145', '123', '142', '126', '143', '130', '131', '117', '114', '125', '121'] 255.34308641975295
32 5.0912345679012345 ['97', '103', '139', '148', '145', '123', '142', '126', '143', '130', '131', '117', '114', '125', '121'] 255.31728395061714
33 5.0912345679012345 ['97', '103', '139', '148', '145', '123', '142', '126', '143', '130', '131', '117', '114', '125', '121'] 255.2807407407406
34 5.0912345679012345 ['97', '103', '139', '148', '145', '123', '142', '126', '143', '130', '131', '117', '114', '125', '121'] 255.17111111111097
35 5.0912345679012345 ['97', '103', '139', '148', '145', '123', '142', '126', '143', '130', '131', '117', '114', '125', '121'] 255.09802469135792
36 5.0912345679012345 ['97', '103', '139', '148', '145', '123', '142', '126', '143', '130', '131', '117', '114', '125', '121'] 254.85617283950623
37 5.0912345679012345 ['97', '103', '139', '148', '145', '123', '142', '126', '143', '130', '131', '117', '114', '125', '121'] 254.62617283950632
38 5.0912345679012345 ['97', '103', '139', '148', '145', '123', '142', '126', '143', '130', '131', '117', '114', '125', '121'] 254.56172839506186
39 5.0912345679012345 ['97', '103', '139', '148', '145', '123', '142', '126', '143', '130', '131', '117', '114', '125', '121'] 254.56172839506186
40 5.0912345679012345 ['97', '103', '139', '148', '145', '123', '142', '126', '143', '130', '131', '117', '114', '125', '121'] 254.56172839506186
41 5.0912345679012345 ['97', '103', '139', '148', '145', '123', '142', '126', '143', '130', '131', '117', '114', '125', '121'] 254.56172839506186
42 5.0912345679012345 ['97', '103', '139', '148', '145', '123', '142', '126', '143', '130', '131', '117', '114', '125', '121'] 254.56172839506186
43 5.0912345679012345 ['97', '103', '139', '148', '145', '123', '142', '126', '143', '130', '131', '117', '114', '125', '121'] 254.56172839506186
44 5.0912345679012345 ['97', '103', '139', '148', '145', '123', '142', '126', '143', '130', '131', '117', '114', '125', '121'] 254.56172839506186
45 5.0912345679012345 ['97', '103', '139', '148', '145', '123', '142', '126', '143', '130', '131', '117', '114', '125', '121'] 254.56172839506186
46 5.0912345679012345 ['97', '103', '139', '148', '145', '123', '142', '126', '143', '130', '131', '117', '114', '125', '121'] 254.56172839506186
47 5.0912345679012345 ['97', '103', '139', '148', '145', '123', '142', '126', '143', '130', '131', '117', '114', '125', '121'] 254.56172839506186
48 5.0912345679012345 ['97', '103', '139', '148', '145', '123', '142', '126', '143', '130', '131', '117', '114', '125', '121'] 254.56172839506186
49 5.0912345679012345 ['97', '103', '139', '148', '145', '123', '142', '126', '143', '130', '131', '117', '114', '125', '121'] 254.56172839506186
50 5.0912345679012345 ['97', '103', '139', '148', '145', '123', '142', '126', '143', '130', '131', '117', '114', '125', '121'] 254.56172839506186
51 5.0912345679012345 ['97', '103', '139', '148', '145', '123', '142', '126', '143', '130', '131', '117', '114', '125', '121'] 254.56172839506186
52 5.0912345679012345 ['97', '103', '139', '148', '145', '123', '142', '126', '143', '130', '131', '117', '114', '125', '121'] 254.56172839506186
53 5.0912345679012345 ['97', '103', '139', '148', '145', '123', '142', '126', '143', '130', '131', '117', '114', '125', '121'] 254.56172839506186
54 5.0912345679012345 ['97', '103', '139', '148', '145', '123', '142', '126', '143', '130', '131', '117', '114', '125', '121'] 254.56172839506186
55 5.0912345679012345 ['97', '103', '139', '148', '145', '123', '142', '126', '143', '130', '131', '117', '114', '125', '121'] 254.56172839506186
56 5.0912345679012345 ['97', '103', '139', '148', '145', '123', '142', '126', '143', '130', '131', '117', '114', '125', '121'] 254.56172839506186
57 5.0912345679012345 ['97', '103', '139', '148', '145', '123', '142', '126', '143', '130', '131', '117', '114', '125', '121'] 254.56172839506186
58 5.0912345679012345 ['97', '103', '139', '148', '145', '123', '142', '126', '143', '130', '131', '117', '114', '125', '121'] 254.56172839506186
59 5.0912345679012345 ['97', '103', '139', '148', '145', '123', '142', '126', '143', '130', '131', '117', '114', '125', '121'] 254.56172839506186
60 5.0912345679012345 ['97', '103', '139', '148', '145', '123', '142', '126', '143', '130', '131', '117', '114', '125', '121'] 254.56172839506186
61 5.0912345679012345 ['97', '103', '139', '148', '145', '123', '142', '126', '143', '130', '131', '117', '114', '125', '121'] 254.56172839506186
62 5.0912345679012345 ['97', '103', '139', '148', '145', '123', '142', '126', '143', '130', '131', '117', '114', '125', '121'] 254.56172839506186
63 5.0912345679012345 ['97', '103', '139', '148', '145', '123', '142', '126', '143', '130', '131', '117', '114', '125', '121'] 254.56172839506186
64 5.0912345679012345 ['97', '103', '139', '148', '145', '123', '142', '126', '143', '130', '131', '117', '114', '125', '121'] 254.56172839506186
65 5.0912345679012345 ['97', '103', '139', '148', '145', '123', '142', '126', '143', '130', '131', '117', '114', '125', '121'] 254.56172839506186
66 5.0912345679012345 ['97', '103', '139', '148', '145', '123', '142', '126', '143', '130', '131', '117', '114', '125', '121'] 254.56172839506186
67 5.0912345679012345 ['97', '103', '139', '148', '145', '123', '142', '126', '143', '130', '131', '117', '114', '125', '121'] 254.56172839506186
68 5.0912345679012345 ['97', '103', '139', '148', '145', '123', '142', '126', '143', '130', '131', '117', '114', '125', '121'] 254.56172839506186
69 5.0912345679012345 ['97', '103', '139', '148', '145', '123', '142', '126', '143', '130', '131', '117', '114', '125', '121'] 254.56172839506186
70 5.0912345679012345 ['97', '103', '139', '148', '145', '123', '142', '126', '143', '130', '131', '117', '114', '125', '121'] 254.56172839506186
71 5.0912345679012345 ['97', '103', '139', '148', '145', '123', '142', '126', '143', '130', '131', '117', '114', '125', '121'] 254.56172839506186
72 5.0912345679012345 ['97', '103', '139', '148', '145', '123', '142', '126', '143', '130', '131', '117', '114', '125', '121'] 254.56172839506186
73 5.0912345679012345 ['97', '103', '139', '148', '145', '123', '142', '126', '143', '130', '131', '117', '114', '125', '121'] 254.56172839506186
74 5.0912345679012345 ['97', '103', '139', '148', '145', '123', '142', '126', '143', '130', '131', '117', '114', '125', '121'] 254.56172839506186
75 5.0912345679012345 ['97', '103', '139', '148', '145', '123', '142', '126', '143', '130', '131', '117', '114', '125', '121'] 254.56172839506186
76 5.0912345679012345 ['97', '103', '139', '148', '145', '123', '142', '126', '143', '130', '131', '117', '114', '125', '121'] 254.56172839506186
77 5.0912345679012345 ['97', '103', '139', '148', '145', '123', '142', '126', '143', '130', '131', '117', '114', '125', '121'] 254.56172839506186
78 5.0912345679012345 ['97', '103', '139', '148', '145', '123', '142', '126', '143', '130', '131', '117', '114', '125', '121'] 254.56172839506186
79 5.0912345679012345 ['97', '103', '139', '148', '145', '123', '142', '126', '143', '130', '131', '117', '114', '125', '121'] 254.56172839506186
80 5.0912345679012345 ['97', '103', '139', '148', '145', '123', '142', '126', '143', '130', '131', '117', '114', '125', '121'] 254.56172839506186
81 5.0912345679012345 ['97', '103', '139', '148', '145', '123', '142', '126', '143', '130', '131', '117', '114', '125', '121'] 254.56172839506186
82 5.0912345679012345 ['97', '103', '139', '148', '145', '123', '142', '126', '143', '130', '131', '117', '114', '125', '121'] 254.56172839506186
83 5.0912345679012345 ['97', '103', '139', '148', '145', '123', '142', '126', '143', '130', '131', '117', '114', '125', '121'] 254.56172839506186
84 5.0912345679012345 ['97', '103', '139', '148', '145', '123', '142', '126', '143', '130', '131', '117', '114', '125', '121'] 254.56172839506186
85 5.0912345679012345 ['97', '103', '139', '148', '145', '123', '142', '126', '143', '130', '131', '117', '114', '125', '121'] 254.56172839506186
86 5.0912345679012345 ['97', '103', '139', '148', '145', '123', '142', '126', '143', '130', '131', '117', '114', '125', '121'] 254.56172839506186
87 5.0912345679012345 ['97', '103', '139', '148', '145', '123', '142', '126', '143', '130', '131', '117', '114', '125', '121'] 254.56172839506186
88 5.0912345679012345 ['97', '103', '139', '148', '145', '123', '142', '126', '143', '130', '131', '117', '114', '125', '121'] 254.56172839506186
89 5.0912345679012345 ['97', '103', '139', '148', '145', '123', '142', '126', '143', '130', '131', '117', '114', '125', '121'] 254.56172839506186
90 5.0912345679012345 ['97', '103', '139', '148', '145', '123', '142', '126', '143', '130', '131', '117', '114', '125', '121'] 254.56172839506186
91 5.0912345679012345 ['97', '103', '139', '148', '145', '123', '142', '126', '143', '130', '131', '117', '114', '125', '121'] 254.56172839506186
92 5.0912345679012345 ['97', '103', '139', '148', '145', '123', '142', '126', '143', '130', '131', '117', '114', '125', '121'] 254.56172839506186
93 5.0912345679012345 ['97', '103', '139', '148', '145', '123', '142', '126', '143', '130', '131', '117', '114', '125', '121'] 254.56172839506186
94 5.0912345679012345 ['97', '103', '139', '148', '145', '123', '142', '126', '143', '130', '131', '117', '114', '125', '121'] 254.56172839506186
95 5.0912345679012345 ['97', '103', '139', '148', '145', '123', '142', '126', '143', '130', '131', '117', '114', '125', '121'] 254.56172839506186
96 5.0912345679012345 ['97', '103', '139', '148', '145', '123', '142', '126', '143', '130', '131', '117', '114', '125', '121'] 254.56172839506186
97 5.0912345679012345 ['97', '103', '139', '148', '145', '123', '142', '126', '143', '130', '131', '117', '114', '125', '121'] 254.56172839506186
98 5.0912345679012345 ['97', '103', '139', '148', '145', '123', '142', '126', '143', '130', '131', '117', '114', '125', '121'] 254.56172839506186
99 5.0912345679012345 ['97', '103', '139', '148', '145', '123', '142', '126', '143', '130', '131', '117', '114', '125', '121'] 254.56172839506186
100 5.0912345679012345 ['97', '103', '139', '148', '145', '123', '142', '126', '143', '130', '131', '117', '114', '125', '121'] 254.56172839506186
101 5.0912345679012345 ['97', '103', '139', '148', '145', '123', '142', '126', '143', '130', '131', '117', '114', '125', '121'] 254.56172839506186
102 5.0912345679012345 ['97', '103', '139', '148', '145', '123', '142', '126', '143', '130', '131', '117', '114', '125', '121'] 254.56172839506186
103 5.0912345679012345 ['97', '103', '139', '148', '145', '123', '142', '126', '143', '130', '131', '117', '114', '125', '121'] 254.56172839506186
104 5.0912345679012345 ['97', '103', '139', '148', '145', '123', '142', '126', '143', '130', '131', '117', '114', '125', '121'] 254.56172839506186
105 5.0912345679012345 ['97', '103', '139', '148', '145', '123', '142', '126', '143', '130', '131', '117', '114', '125', '121'] 254.56172839506186
106 5.0912345679012345 ['97', '103', '139', '148', '145', '123', '142', '126', '143', '130', '131', '117', '114', '125', '121'] 254.56172839506186
107 5.0912345679012345 ['97', '103', '139', '148', '145', '123', '142', '126', '143', '130', '131', '117', '114', '125', '121'] 254.56172839506186
108 5.0912345679012345 ['97', '103', '139', '148', '145', '123', '142', '126', '143', '130', '131', '117', '114', '125', '121'] 254.56172839506186
109 5.0912345679012345 ['97', '103', '139', '148', '145', '123', '142', '126', '143', '130', '131', '117', '114', '125', '121'] 254.56172839506186
110 5.0912345679012345 ['97', '103', '139', '148', '145', '123', '142', '126', '143', '130', '131', '117', '114', '125', '121'] 254.56172839506186
111 5.0912345679012345 ['97', '103', '139', '148', '145', '123', '142', '126', '143', '130', '131', '117', '114', '125', '121'] 254.56172839506186
112 5.0912345679012345 ['97', '103', '139', '148', '145', '123', '142', '126', '143', '130', '131', '117', '114', '125', '121'] 254.56172839506186
113 5.0912345679012345 ['97', '103', '139', '148', '145', '123', '142', '126', '143', '130', '131', '117', '114', '125', '121'] 254.56172839506186
114 5.0912345679012345 ['97', '103', '139', '148', '145', '123', '142', '126', '143', '130', '131', '117', '114', '125', '121'] 254.56172839506186
115 5.0912345679012345 ['97', '103', '139', '148', '145', '123', '142', '126', '143', '130', '131', '117', '114', '125', '121'] 254.56172839506186
116 5.0912345679012345 ['97', '103', '139', '148', '145', '123', '142', '126', '143', '130', '131', '117', '114', '125', '121'] 254.56172839506186
117 5.0912345679012345 ['97', '103', '139', '148', '145', '123', '142', '126', '143', '130', '131', '117', '114', '125', '121'] 254.56172839506186
118 5.0912345679012345 ['97', '103', '139', '148', '145', '123', '142', '126', '143', '130', '131', '117', '114', '125', '121'] 254.56172839506186
119 5.0912345679012345 ['97', '103', '139', '148', '145', '123', '142', '126', '143', '130', '131', '117', '114', '125', '121'] 254.56172839506186
120 5.0912345679012345 ['97', '103', '139', '148', '145', '123', '142', '126', '143', '130', '131', '117', '114', '125', '121'] 254.56172839506186
121 5.0912345679012345 ['97', '103', '139', '148', '145', '123', '142', '126', '143', '130', '131', '117', '114', '125', '121'] 254.56172839506186
122 5.0912345679012345 ['97', '103', '139', '148', '145', '123', '142', '126', '143', '130', '131', '117', '114', '125', '121'] 254.56172839506186
123 5.0912345679012345 ['97', '103', '139', '148', '145', '123', '142', '126', '143', '130', '131', '117', '114', '125', '121'] 254.56172839506186
124 5.0912345679012345 ['97', '103', '139', '148', '145', '123', '142', '126', '143', '130', '131', '117', '114', '125', '121'] 254.56172839506186
125 5.0912345679012345 ['97', '103', '139', '148', '145', '123', '142', '126', '143', '130', '131', '117', '114', '125', '121'] 254.56172839506186
126 5.0912345679012345 ['97', '103', '139', '148', '145', '123', '142', '126', '143', '130', '131', '117', '114', '125', '121'] 254.56172839506186
127 5.0912345679012345 ['97', '103', '139', '148', '145', '123', '142', '126', '143', '130', '131', '117', '114', '125', '121'] 254.56172839506186
128 5.0912345679012345 ['97', '103', '139', '148', '145', '123', '142', '126', '143', '130', '131', '117', '114', '125', '121'] 254.56172839506186
129 5.0912345679012345 ['97', '103', '139', '148', '145', '123', '142', '126', '143', '130', '131', '117', '114', '125', '121'] 254.56172839506186
130 5.0912345679012345 ['97', '103', '139', '148', '145', '123', '142', '126', '143', '130', '131', '117', '114', '125', '121'] 254.56172839506186
131 5.0912345679012345 ['97', '103', '139', '148', '145', '123', '142', '126', '143', '130', '131', '117', '114', '125', '121'] 254.56172839506186
132 5.0912345679012345 ['97', '103', '139', '148', '145', '123', '142', '126', '143', '130', '131', '117', '114', '125', '121'] 254.56172839506186
133 5.0912345679012345 ['97', '103', '139', '148', '145', '123', '142', '126', '143', '130', '131', '117', '114', '125', '121'] 254.56172839506186
134 5.0912345679012345 ['97', '103', '139', '148', '145', '123', '142', '126', '143', '130', '131', '117', '114', '125', '121'] 254.56172839506186
135 5.0912345679012345 ['97', '103', '139', '148', '145', '123', '142', '126', '143', '130', '131', '117', '114', '125', '121'] 254.56172839506186
136 5.0912345679012345 ['97', '103', '139', '148', '145', '123', '142', '126', '143', '130', '131', '117', '114', '125', '121'] 254.56172839506186
137 5.0912345679012345 ['97', '103', '139', '148', '145', '123', '142', '126', '143', '130', '131', '117', '114', '125', '121'] 254.56172839506186
138 5.0912345679012345 ['97', '103', '139', '148', '145', '123', '142', '126', '143', '130', '131', '117', '114', '125', '121'] 254.56172839506186
139 5.0912345679012345 ['97', '103', '139', '148', '145', '123', '142', '126', '143', '130', '131', '117', '114', '125', '121'] 254.56172839506186
140 5.0912345679012345 ['97', '103', '139', '148', '145', '123', '142', '126', '143', '130', '131', '117', '114', '125', '121'] 254.56172839506186
141 5.0912345679012345 ['97', '103', '139', '148', '145', '123', '142', '126', '143', '130', '131', '117', '114', '125', '121'] 254.56172839506186
142 5.0912345679012345 ['97', '103', '139', '148', '145', '123', '142', '126', '143', '130', '131', '117', '114', '125', '121'] 254.56172839506186
143 5.0912345679012345 ['97', '103', '139', '148', '145', '123', '142', '126', '143', '130', '131', '117', '114', '125', '121'] 254.56172839506186
144 5.0912345679012345 ['97', '103', '139', '148', '145', '123', '142', '126', '143', '130', '131', '117', '114', '125', '121'] 254.56172839506186
145 5.0912345679012345 ['97', '103', '139', '148', '145', '123', '142', '126', '143', '130', '131', '117', '114', '125', '121'] 254.56172839506186
146 5.0912345679012345 ['97', '103', '139', '148', '145', '123', '142', '126', '143', '130', '131', '117', '114', '125', '121'] 254.56172839506186
147 5.0912345679012345 ['97', '103', '139', '148', '145', '123', '142', '126', '143', '130', '131', '117', '114', '125', '121'] 254.56172839506186
148 5.0912345679012345 ['97', '103', '139', '148', '145', '123', '142', '126', '143', '130', '131', '117', '114', '125', '121'] 254.56172839506186
149 5.0912345679012345 ['97', '103', '139', '148', '145', '123', '142', '126', '143', '130', '131', '117', '114', '125', '121'] 254.56172839506186
150 5.0912345679012345 ['97', '103', '139', '148', '145', '123', '142', '126', '143', '130', '131', '117', '114', '125', '121'] 254.56172839506186
151 5.0912345679012345 ['97', '103', '139', '148', '145', '123', '142', '126', '143', '130', '131', '117', '114', '125', '121'] 254.56172839506186
152 5.0912345679012345 ['97', '103', '139', '148', '145', '123', '142', '126', '143', '130', '131', '117', '114', '125', '121'] 254.56172839506186
153 5.0912345679012345 ['97', '103', '139', '148', '145', '123', '142', '126', '143', '130', '131', '117', '114', '125', '121'] 254.56172839506186
154 5.0912345679012345 ['97', '103', '139', '148', '145', '123', '142', '126', '143', '130', '131', '117', '114', '125', '121'] 254.56172839506186
155 5.0912345679012345 ['97', '103', '139', '148', '145', '123', '142', '126', '143', '130', '131', '117', '114', '125', '121'] 254.56172839506186
156 5.0912345679012345 ['97', '103', '139', '148', '145', '123', '142', '126', '143', '130', '131', '117', '114', '125', '121'] 254.56172839506186
157 5.0912345679012345 ['97', '103', '139', '148', '145', '123', '142', '126', '143', '130', '131', '117', '114', '125', '121'] 254.56172839506186
158 5.0912345679012345 ['97', '103', '139', '148', '145', '123', '142', '126', '143', '130', '131', '117', '114', '125', '121'] 254.56172839506186
159 5.0912345679012345 ['97', '103', '139', '148', '145', '123', '142', '126', '143', '130', '131', '117', '114', '125', '121'] 254.56172839506186
160 5.0912345679012345 ['97', '103', '139', '148', '145', '123', '142', '126', '143', '130', '131', '117', '114', '125', '121'] 254.56172839506186
161 5.0912345679012345 ['97', '103', '139', '148', '145', '123', '142', '126', '143', '130', '131', '117', '114', '125', '121'] 254.56172839506186
162 5.0912345679012345 ['97', '103', '139', '148', '145', '123', '142', '126', '143', '130', '131', '117', '114', '125', '121'] 254.56172839506186
163 5.0912345679012345 ['97', '103', '139', '148', '145', '123', '142', '126', '143', '130', '131', '117', '114', '125', '121'] 254.56172839506186
164 5.0912345679012345 ['97', '103', '139', '148', '145', '123', '142', '126', '143', '130', '131', '117', '114', '125', '121'] 254.56172839506186
165 5.0912345679012345 ['97', '103', '139', '148', '145', '123', '142', '126', '143', '130', '131', '117', '114', '125', '121'] 254.56172839506186
166 5.0912345679012345 ['97', '103', '139', '148', '145', '123', '142', '126', '143', '130', '131', '117', '114', '125', '121'] 254.56172839506186
167 5.0912345679012345 ['97', '103', '139', '148', '145', '123', '142', '126', '143', '130', '131', '117', '114', '125', '121'] 254.56172839506186
168 5.0912345679012345 ['97', '103', '139', '148', '145', '123', '142', '126', '143', '130', '131', '117', '114', '125', '121'] 254.56172839506186
169 5.0912345679012345 ['97', '103', '139', '148', '145', '123', '142', '126', '143', '130', '131', '117', '114', '125', '121'] 254.56172839506186
170 5.0912345679012345 ['97', '103', '139', '148', '145', '123', '142', '126', '143', '130', '131', '117', '114', '125', '121'] 254.56172839506186
171 5.0912345679012345 ['97', '103', '139', '148', '145', '123', '142', '126', '143', '130', '131', '117', '114', '125', '121'] 254.56172839506186
172 5.0912345679012345 ['97', '103', '139', '148', '145', '123', '142', '126', '143', '130', '131', '117', '114', '125', '121'] 254.56172839506186
173 5.0912345679012345 ['97', '103', '139', '148', '145', '123', '142', '126', '143', '130', '131', '117', '114', '125', '121'] 254.56172839506186
174 5.0912345679012345 ['97', '103', '139', '148', '145', '123', '142', '126', '143', '130', '131', '117', '114', '125', '121'] 254.56172839506186
175 5.0912345679012345 ['97', '103', '139', '148', '145', '123', '142', '126', '143', '130', '131', '117', '114', '125', '121'] 254.56172839506186
176 5.0912345679012345 ['97', '103', '139', '148', '145', '123', '142', '126', '143', '130', '131', '117', '114', '125', '121'] 254.56172839506186
177 5.0912345679012345 ['97', '103', '139', '148', '145', '123', '142', '126', '143', '130', '131', '117', '114', '125', '121'] 254.56172839506186
178 5.0912345679012345 ['97', '103', '139', '148', '145', '123', '142', '126', '143', '130', '131', '117', '114', '125', '121'] 254.56172839506186
179 5.0912345679012345 ['97', '103', '139', '148', '145', '123', '142', '126', '143', '130', '131', '117', '114', '125', '121'] 254.56172839506186
180 5.0912345679012345 ['97', '103', '139', '148', '145', '123', '142', '126', '143', '130', '131', '117', '114', '125', '121'] 254.56172839506186
181 5.0912345679012345 ['97', '103', '139', '148', '145', '123', '142', '126', '143', '130', '131', '117', '114', '125', '121'] 254.56172839506186
182 5.0912345679012345 ['97', '103', '139', '148', '145', '123', '142', '126', '143', '130', '131', '117', '114', '125', '121'] 254.56172839506186
183 5.0912345679012345 ['97', '103', '139', '148', '145', '123', '142', '126', '143', '130', '131', '117', '114', '125', '121'] 254.56172839506186
184 5.0912345679012345 ['97', '103', '139', '148', '145', '123', '142', '126', '143', '130', '131', '117', '114', '125', '121'] 254.56172839506186
185 5.0912345679012345 ['97', '103', '139', '148', '145', '123', '142', '126', '143', '130', '131', '117', '114', '125', '121'] 254.56172839506186
186 5.0912345679012345 ['97', '103', '139', '148', '145', '123', '142', '126', '143', '130', '131', '117', '114', '125', '121'] 254.56172839506186
187 5.0912345679012345 ['97', '103', '139', '148', '145', '123', '142', '126', '143', '130', '131', '117', '114', '125', '121'] 254.56172839506186
188 5.0912345679012345 ['97', '103', '139', '148', '145', '123', '142', '126', '143', '130', '131', '117', '114', '125', '121'] 254.56172839506186
189 5.0912345679012345 ['97', '103', '139', '148', '145', '123', '142', '126', '143', '130', '131', '117', '114', '125', '121'] 254.56172839506186
190 5.0912345679012345 ['97', '103', '139', '148', '145', '123', '142', '126', '143', '130', '131', '117', '114', '125', '121'] 254.56172839506186
191 5.0912345679012345 ['97', '103', '139', '148', '145', '123', '142', '126', '143', '130', '131', '117', '114', '125', '121'] 254.56172839506186
192 5.0912345679012345 ['97', '103', '139', '148', '145', '123', '142', '126', '143', '130', '131', '117', '114', '125', '121'] 254.56172839506186
193 5.0912345679012345 ['97', '103', '139', '148', '145', '123', '142', '126', '143', '130', '131', '117', '114', '125', '121'] 254.56172839506186
194 5.0912345679012345 ['97', '103', '139', '148', '145', '123', '142', '126', '143', '130', '131', '117', '114', '125', '121'] 254.56172839506186
195 5.0912345679012345 ['97', '103', '139', '148', '145', '123', '142', '126', '143', '130', '131', '117', '114', '125', '121'] 254.56172839506186
196 5.0912345679012345 ['97', '103', '139', '148', '145', '123', '142', '126', '143', '130', '131', '117', '114', '125', '121'] 254.56172839506186
197 5.0912345679012345 ['97', '103', '139', '148', '145', '123', '142', '126', '143', '130', '131', '117', '114', '125', '121'] 254.56172839506186
198 5.0912345679012345 ['97', '103', '139', '148', '145', '123', '142', '126', '143', '130', '131', '117', '114', '125', '121'] 254.56172839506186
199 5.0912345679012345 ['97', '103', '139', '148', '145', '123', '142', '126', '143', '130', '131', '117', '114', '125', '121'] 254.56172839506186
