0 14.577777777777778 ['75', '137', '127', '143', '119', '90', '108', '4', '77', '136', '23', '129', '141', '16', '112'] 746.5111111111111
1 14.533333333333333 ['137', '145', '81', '75', '124', '74', '131', '54', '86', '79', '119', '34', '63', '143', '72'] 740.2074074074075
2 14.392592592592592 ['87', '122', '75', '147', '145', '136', '146', '115', '36', '90', '20', '72', '120', '119', '59'] 734.6444444444444
3 14.318518518518518 ['71', '138', '35', '39', '136', '146', '145', '93', '28', '131', '79', '147', '142', '90', '67'] 729.4888888888886
4 14.177777777777777 ['136', '147', '145', '28', '142', '108', '95', '131', '93', '79', '67', '105', '106', '132', '138'] 724.4814814814818
5 14.051851851851852 ['119', '137', '136', '127', '90', '146', '86', '141', '129', '148', '36', '77', '145', '124', '88'] 719.0296296296301
6 14.02962962962963 ['79', '136', '145', '28', '147', '75', '90', '67', '112', '138', '142', '141', '71', '86', '146'] 713.6666666666667
7 13.91851851851852 ['136', '129', '145', '86', '143', '79', '138', '137', '93', '141', '146', '147', '148', '35', '63'] 709.074074074074
8 13.881481481481481 ['124', '136', '145', '90', '79', '11', '86', '142', '112', '138', '119', '143', '141', '75', '146'] 704.3777777777782
9 13.718518518518518 ['147', '136', '143', '145', '79', '86', '146', '148', '98', '119', '129', '141', '88', '138', '122'] 700.2666666666661
10 13.696296296296296 ['148', '145', '136', '86', '72', '79', '141', '131', '149', '122', '119', '143', '138', '137', '106'] 696.540740740741
11 13.666666666666666 ['145', '90', '86', '136', '146', '79', '143', '124', '147', '148', '81', '138', '140', '137', '128'] 692.9333333333329
12 13.637037037037038 ['141', '137', '145', '136', '143', '148', '79', '138', '124', '131', '122', '72', '147', '106', '146'] 689.2962962962964
13 13.57037037037037 ['137', '129', '145', '90', '141', '136', '148', '128', '143', '124', '79', '142', '138', '147', '140'] 686.0888888888886
14 13.511111111111111 ['146', '79', '145', '148', '141', '143', '122', '138', '136', '147', '131', '128', '149', '86', '106'] 683.2888888888889
15 13.496296296296297 ['141', '143', '129', '145', '146', '138', '136', '106', '86', '148', '79', '128', '149', '124', '122'] 680.6740740740736
16 13.488888888888889 ['148', '138', '136', '147', '79', '137', '145', '141', '143', '67', '149', '124', '140', '128', '146'] 678.7629629629635
17 13.459259259259259 ['124', '141', '143', '138', '148', '106', '145', '146', '79', '136', '86', '147', '149', '128', '129'] 677.4
18 13.451851851851853 ['149', '128', '138', '146', '145', '141', '79', '148', '143', '136', '124', '129', '147', '140', '137'] 675.7851851851852
19 13.444444444444445 ['146', '147', '124', '149', '145', '148', '79', '136', '88', '141', '143', '128', '138', '137', '122'] 674.5703703703697
20 13.422222222222222 ['146', '124', '143', '141', '145', '138', '128', '79', '136', '147', '148', '122', '106', '149', '119'] 673.6518518518521
21 13.422222222222222 ['146', '124', '143', '141', '145', '138', '128', '79', '136', '147', '148', '122', '106', '149', '119'] 672.6888888888897
22 13.422222222222222 ['146', '124', '143', '141', '145', '138', '128', '79', '136', '147', '148', '122', '106', '149', '119'] 672.0148148148153
23 13.414814814814815 ['147', '141', '122', '138', '149', '143', '79', '128', '145', '148', '124', '146', '136', '119', '129'] 671.6888888888891
24 13.414814814814815 ['147', '141', '122', '138', '149', '143', '79', '128', '145', '148', '124', '146', '136', '119', '129'] 671.4222222222222
25 13.4 ['128', '143', '141', '148', '138', '124', '136', '146', '149', '79', '145', '119', '106', '147', '142'] 671.0444444444443
26 13.4 ['128', '143', '141', '148', '138', '124', '136', '146', '149', '79', '145', '119', '106', '147', '142'] 670.9925925925925
27 13.4 ['128', '143', '141', '148', '138', '124', '136', '146', '149', '79', '145', '119', '106', '147', '142'] 670.8888888888887
28 13.4 ['128', '143', '141', '148', '138', '124', '136', '146', '149', '79', '145', '119', '106', '147', '142'] 670.7259259259256
29 13.392592592592592 ['148', '146', '141', '149', '143', '136', '124', '128', '147', '145', '119', '138', '79', '129', '142'] 670.7037037037034
30 13.392592592592592 ['148', '146', '141', '149', '143', '136', '124', '128', '147', '145', '119', '138', '79', '129', '142'] 670.644444444444
31 13.392592592592592 ['148', '146', '141', '149', '143', '136', '124', '128', '147', '145', '119', '138', '79', '129', '142'] 670.5555555555552
32 13.392592592592592 ['148', '146', '141', '149', '143', '136', '124', '128', '147', '145', '119', '138', '79', '129', '142'] 670.3185185185182
33 13.392592592592592 ['148', '146', '141', '149', '143', '136', '124', '128', '147', '145', '119', '138', '79', '129', '142'] 669.9111111111105
34 13.392592592592592 ['148', '146', '141', '149', '143', '136', '124', '128', '147', '145', '119', '138', '79', '129', '142'] 669.6296296296288
35 13.392592592592592 ['148', '146', '141', '149', '143', '136', '124', '128', '147', '145', '119', '138', '79', '129', '142'] 669.6296296296288
36 13.392592592592592 ['148', '146', '141', '149', '143', '136', '124', '128', '147', '145', '119', '138', '79', '129', '142'] 669.6296296296288
37 13.392592592592592 ['148', '146', '141', '149', '143', '136', '124', '128', '147', '145', '119', '138', '79', '129', '142'] 669.6296296296288
38 13.392592592592592 ['148', '146', '141', '149', '143', '136', '124', '128', '147', '145', '119', '138', '79', '129', '142'] 669.6296296296288
39 13.392592592592592 ['148', '146', '141', '149', '143', '136', '124', '128', '147', '145', '119', '138', '79', '129', '142'] 669.6296296296288
40 13.392592592592592 ['148', '146', '141', '149', '143', '136', '124', '128', '147', '145', '119', '138', '79', '129', '142'] 669.6296296296288
41 13.392592592592592 ['148', '146', '141', '149', '143', '136', '124', '128', '147', '145', '119', '138', '79', '129', '142'] 669.6296296296288
42 13.392592592592592 ['148', '146', '141', '149', '143', '136', '124', '128', '147', '145', '119', '138', '79', '129', '142'] 669.6296296296288
43 13.392592592592592 ['148', '146', '141', '149', '143', '136', '124', '128', '147', '145', '119', '138', '79', '129', '142'] 669.6296296296288
44 13.392592592592592 ['148', '146', '141', '149', '143', '136', '124', '128', '147', '145', '119', '138', '79', '129', '142'] 669.6296296296288
45 13.392592592592592 ['148', '146', '141', '149', '143', '136', '124', '128', '147', '145', '119', '138', '79', '129', '142'] 669.6296296296288
46 13.392592592592592 ['148', '146', '141', '149', '143', '136', '124', '128', '147', '145', '119', '138', '79', '129', '142'] 669.6296296296288
47 13.392592592592592 ['148', '146', '141', '149', '143', '136', '124', '128', '147', '145', '119', '138', '79', '129', '142'] 669.6296296296288
48 13.392592592592592 ['148', '146', '141', '149', '143', '136', '124', '128', '147', '145', '119', '138', '79', '129', '142'] 669.6296296296288
49 13.392592592592592 ['148', '146', '141', '149', '143', '136', '124', '128', '147', '145', '119', '138', '79', '129', '142'] 669.6296296296288
50 13.392592592592592 ['148', '146', '141', '149', '143', '136', '124', '128', '147', '145', '119', '138', '79', '129', '142'] 669.6296296296288
51 13.392592592592592 ['148', '146', '141', '149', '143', '136', '124', '128', '147', '145', '119', '138', '79', '129', '142'] 669.6296296296288
52 13.392592592592592 ['148', '146', '141', '149', '143', '136', '124', '128', '147', '145', '119', '138', '79', '129', '142'] 669.6296296296288
53 13.392592592592592 ['148', '146', '141', '149', '143', '136', '124', '128', '147', '145', '119', '138', '79', '129', '142'] 669.6296296296288
54 13.392592592592592 ['148', '146', '141', '149', '143', '136', '124', '128', '147', '145', '119', '138', '79', '129', '142'] 669.6296296296288
55 13.392592592592592 ['148', '146', '141', '149', '143', '136', '124', '128', '147', '145', '119', '138', '79', '129', '142'] 669.6296296296288
56 13.392592592592592 ['148', '146', '141', '149', '143', '136', '124', '128', '147', '145', '119', '138', '79', '129', '142'] 669.6296296296288
57 13.392592592592592 ['148', '146', '141', '149', '143', '136', '124', '128', '147', '145', '119', '138', '79', '129', '142'] 669.6296296296288
58 13.392592592592592 ['148', '146', '141', '149', '143', '136', '124', '128', '147', '145', '119', '138', '79', '129', '142'] 669.6296296296288
59 13.392592592592592 ['148', '146', '141', '149', '143', '136', '124', '128', '147', '145', '119', '138', '79', '129', '142'] 669.6296296296288
60 13.392592592592592 ['148', '146', '141', '149', '143', '136', '124', '128', '147', '145', '119', '138', '79', '129', '142'] 669.6296296296288
61 13.392592592592592 ['148', '146', '141', '149', '143', '136', '124', '128', '147', '145', '119', '138', '79', '129', '142'] 669.6296296296288
62 13.392592592592592 ['148', '146', '141', '149', '143', '136', '124', '128', '147', '145', '119', '138', '79', '129', '142'] 669.6296296296288
63 13.392592592592592 ['148', '146', '141', '149', '143', '136', '124', '128', '147', '145', '119', '138', '79', '129', '142'] 669.6296296296288
64 13.392592592592592 ['148', '146', '141', '149', '143', '136', '124', '128', '147', '145', '119', '138', '79', '129', '142'] 669.6296296296288
65 13.392592592592592 ['148', '146', '141', '149', '143', '136', '124', '128', '147', '145', '119', '138', '79', '129', '142'] 669.6296296296288
66 13.392592592592592 ['148', '146', '141', '149', '143', '136', '124', '128', '147', '145', '119', '138', '79', '129', '142'] 669.6296296296288
67 13.392592592592592 ['148', '146', '141', '149', '143', '136', '124', '128', '147', '145', '119', '138', '79', '129', '142'] 669.6296296296288
68 13.392592592592592 ['148', '146', '141', '149', '143', '136', '124', '128', '147', '145', '119', '138', '79', '129', '142'] 669.6296296296288
69 13.392592592592592 ['148', '146', '141', '149', '143', '136', '124', '128', '147', '145', '119', '138', '79', '129', '142'] 669.6296296296288
70 13.392592592592592 ['148', '146', '141', '149', '143', '136', '124', '128', '147', '145', '119', '138', '79', '129', '142'] 669.6296296296288
71 13.392592592592592 ['148', '146', '141', '149', '143', '136', '124', '128', '147', '145', '119', '138', '79', '129', '142'] 669.6296296296288
72 13.392592592592592 ['148', '146', '141', '149', '143', '136', '124', '128', '147', '145', '119', '138', '79', '129', '142'] 669.6296296296288
73 13.392592592592592 ['148', '146', '141', '149', '143', '136', '124', '128', '147', '145', '119', '138', '79', '129', '142'] 669.6296296296288
74 13.392592592592592 ['148', '146', '141', '149', '143', '136', '124', '128', '147', '145', '119', '138', '79', '129', '142'] 669.6296296296288
75 13.392592592592592 ['148', '146', '141', '149', '143', '136', '124', '128', '147', '145', '119', '138', '79', '129', '142'] 669.6296296296288
76 13.392592592592592 ['148', '146', '141', '149', '143', '136', '124', '128', '147', '145', '119', '138', '79', '129', '142'] 669.6296296296288
77 13.392592592592592 ['148', '146', '141', '149', '143', '136', '124', '128', '147', '145', '119', '138', '79', '129', '142'] 669.6296296296288
78 13.392592592592592 ['148', '146', '141', '149', '143', '136', '124', '128', '147', '145', '119', '138', '79', '129', '142'] 669.6296296296288
79 13.392592592592592 ['148', '146', '141', '149', '143', '136', '124', '128', '147', '145', '119', '138', '79', '129', '142'] 669.6296296296288
80 13.392592592592592 ['148', '146', '141', '149', '143', '136', '124', '128', '147', '145', '119', '138', '79', '129', '142'] 669.6296296296288
81 13.392592592592592 ['148', '146', '141', '149', '143', '136', '124', '128', '147', '145', '119', '138', '79', '129', '142'] 669.6296296296288
82 13.392592592592592 ['148', '146', '141', '149', '143', '136', '124', '128', '147', '145', '119', '138', '79', '129', '142'] 669.6296296296288
83 13.392592592592592 ['148', '146', '141', '149', '143', '136', '124', '128', '147', '145', '119', '138', '79', '129', '142'] 669.6296296296288
84 13.392592592592592 ['148', '146', '141', '149', '143', '136', '124', '128', '147', '145', '119', '138', '79', '129', '142'] 669.6296296296288
85 13.392592592592592 ['148', '146', '141', '149', '143', '136', '124', '128', '147', '145', '119', '138', '79', '129', '142'] 669.6296296296288
86 13.392592592592592 ['148', '146', '141', '149', '143', '136', '124', '128', '147', '145', '119', '138', '79', '129', '142'] 669.6296296296288
87 13.392592592592592 ['148', '146', '141', '149', '143', '136', '124', '128', '147', '145', '119', '138', '79', '129', '142'] 669.6296296296288
88 13.392592592592592 ['148', '146', '141', '149', '143', '136', '124', '128', '147', '145', '119', '138', '79', '129', '142'] 669.6296296296288
89 13.392592592592592 ['148', '146', '141', '149', '143', '136', '124', '128', '147', '145', '119', '138', '79', '129', '142'] 669.6296296296288
90 13.392592592592592 ['148', '146', '141', '149', '143', '136', '124', '128', '147', '145', '119', '138', '79', '129', '142'] 669.6296296296288
91 13.392592592592592 ['148', '146', '141', '149', '143', '136', '124', '128', '147', '145', '119', '138', '79', '129', '142'] 669.6296296296288
92 13.392592592592592 ['148', '146', '141', '149', '143', '136', '124', '128', '147', '145', '119', '138', '79', '129', '142'] 669.6296296296288
93 13.392592592592592 ['148', '146', '141', '149', '143', '136', '124', '128', '147', '145', '119', '138', '79', '129', '142'] 669.6296296296288
94 13.392592592592592 ['148', '146', '141', '149', '143', '136', '124', '128', '147', '145', '119', '138', '79', '129', '142'] 669.6296296296288
95 13.392592592592592 ['148', '146', '141', '149', '143', '136', '124', '128', '147', '145', '119', '138', '79', '129', '142'] 669.6296296296288
96 13.392592592592592 ['148', '146', '141', '149', '143', '136', '124', '128', '147', '145', '119', '138', '79', '129', '142'] 669.6296296296288
97 13.392592592592592 ['148', '146', '141', '149', '143', '136', '124', '128', '147', '145', '119', '138', '79', '129', '142'] 669.6296296296288
98 13.392592592592592 ['148', '146', '141', '149', '143', '136', '124', '128', '147', '145', '119', '138', '79', '129', '142'] 669.6296296296288
99 13.392592592592592 ['148', '146', '141', '149', '143', '136', '124', '128', '147', '145', '119', '138', '79', '129', '142'] 669.6296296296288
100 13.392592592592592 ['148', '146', '141', '149', '143', '136', '124', '128', '147', '145', '119', '138', '79', '129', '142'] 669.6296296296288
101 13.392592592592592 ['148', '146', '141', '149', '143', '136', '124', '128', '147', '145', '119', '138', '79', '129', '142'] 669.6296296296288
102 13.392592592592592 ['148', '146', '141', '149', '143', '136', '124', '128', '147', '145', '119', '138', '79', '129', '142'] 669.6296296296288
103 13.392592592592592 ['148', '146', '141', '149', '143', '136', '124', '128', '147', '145', '119', '138', '79', '129', '142'] 669.6296296296288
104 13.392592592592592 ['148', '146', '141', '149', '143', '136', '124', '128', '147', '145', '119', '138', '79', '129', '142'] 669.6296296296288
105 13.392592592592592 ['148', '146', '141', '149', '143', '136', '124', '128', '147', '145', '119', '138', '79', '129', '142'] 669.6296296296288
106 13.392592592592592 ['148', '146', '141', '149', '143', '136', '124', '128', '147', '145', '119', '138', '79', '129', '142'] 669.6296296296288
107 13.392592592592592 ['148', '146', '141', '149', '143', '136', '124', '128', '147', '145', '119', '138', '79', '129', '142'] 669.6296296296288
108 13.392592592592592 ['148', '146', '141', '149', '143', '136', '124', '128', '147', '145', '119', '138', '79', '129', '142'] 669.6296296296288
109 13.392592592592592 ['148', '146', '141', '149', '143', '136', '124', '128', '147', '145', '119', '138', '79', '129', '142'] 669.6296296296288
110 13.392592592592592 ['148', '146', '141', '149', '143', '136', '124', '128', '147', '145', '119', '138', '79', '129', '142'] 669.6296296296288
111 13.392592592592592 ['148', '146', '141', '149', '143', '136', '124', '128', '147', '145', '119', '138', '79', '129', '142'] 669.6296296296288
112 13.392592592592592 ['148', '146', '141', '149', '143', '136', '124', '128', '147', '145', '119', '138', '79', '129', '142'] 669.6296296296288
113 13.392592592592592 ['148', '146', '141', '149', '143', '136', '124', '128', '147', '145', '119', '138', '79', '129', '142'] 669.6296296296288
114 13.392592592592592 ['148', '146', '141', '149', '143', '136', '124', '128', '147', '145', '119', '138', '79', '129', '142'] 669.6296296296288
115 13.392592592592592 ['148', '146', '141', '149', '143', '136', '124', '128', '147', '145', '119', '138', '79', '129', '142'] 669.6296296296288
116 13.392592592592592 ['148', '146', '141', '149', '143', '136', '124', '128', '147', '145', '119', '138', '79', '129', '142'] 669.6296296296288
117 13.392592592592592 ['148', '146', '141', '149', '143', '136', '124', '128', '147', '145', '119', '138', '79', '129', '142'] 669.6296296296288
118 13.392592592592592 ['148', '146', '141', '149', '143', '136', '124', '128', '147', '145', '119', '138', '79', '129', '142'] 669.6296296296288
119 13.392592592592592 ['148', '146', '141', '149', '143', '136', '124', '128', '147', '145', '119', '138', '79', '129', '142'] 669.6296296296288
120 13.392592592592592 ['148', '146', '141', '149', '143', '136', '124', '128', '147', '145', '119', '138', '79', '129', '142'] 669.6296296296288
121 13.392592592592592 ['148', '146', '141', '149', '143', '136', '124', '128', '147', '145', '119', '138', '79', '129', '142'] 669.6296296296288
122 13.392592592592592 ['148', '146', '141', '149', '143', '136', '124', '128', '147', '145', '119', '138', '79', '129', '142'] 669.6296296296288
123 13.392592592592592 ['148', '146', '141', '149', '143', '136', '124', '128', '147', '145', '119', '138', '79', '129', '142'] 669.6296296296288
124 13.392592592592592 ['148', '146', '141', '149', '143', '136', '124', '128', '147', '145', '119', '138', '79', '129', '142'] 669.6296296296288
125 13.392592592592592 ['148', '146', '141', '149', '143', '136', '124', '128', '147', '145', '119', '138', '79', '129', '142'] 669.6296296296288
126 13.392592592592592 ['148', '146', '141', '149', '143', '136', '124', '128', '147', '145', '119', '138', '79', '129', '142'] 669.6296296296288
127 13.392592592592592 ['148', '146', '141', '149', '143', '136', '124', '128', '147', '145', '119', '138', '79', '129', '142'] 669.6296296296288
128 13.392592592592592 ['148', '146', '141', '149', '143', '136', '124', '128', '147', '145', '119', '138', '79', '129', '142'] 669.6296296296288
129 13.392592592592592 ['148', '146', '141', '149', '143', '136', '124', '128', '147', '145', '119', '138', '79', '129', '142'] 669.6296296296288
130 13.392592592592592 ['148', '146', '141', '149', '143', '136', '124', '128', '147', '145', '119', '138', '79', '129', '142'] 669.6296296296288
131 13.392592592592592 ['148', '146', '141', '149', '143', '136', '124', '128', '147', '145', '119', '138', '79', '129', '142'] 669.6296296296288
132 13.392592592592592 ['148', '146', '141', '149', '143', '136', '124', '128', '147', '145', '119', '138', '79', '129', '142'] 669.6296296296288
133 13.392592592592592 ['148', '146', '141', '149', '143', '136', '124', '128', '147', '145', '119', '138', '79', '129', '142'] 669.6296296296288
134 13.392592592592592 ['148', '146', '141', '149', '143', '136', '124', '128', '147', '145', '119', '138', '79', '129', '142'] 669.6296296296288
135 13.392592592592592 ['148', '146', '141', '149', '143', '136', '124', '128', '147', '145', '119', '138', '79', '129', '142'] 669.6296296296288
136 13.392592592592592 ['148', '146', '141', '149', '143', '136', '124', '128', '147', '145', '119', '138', '79', '129', '142'] 669.6296296296288
137 13.392592592592592 ['148', '146', '141', '149', '143', '136', '124', '128', '147', '145', '119', '138', '79', '129', '142'] 669.6296296296288
138 13.392592592592592 ['148', '146', '141', '149', '143', '136', '124', '128', '147', '145', '119', '138', '79', '129', '142'] 669.6296296296288
139 13.392592592592592 ['148', '146', '141', '149', '143', '136', '124', '128', '147', '145', '119', '138', '79', '129', '142'] 669.6296296296288
140 13.392592592592592 ['148', '146', '141', '149', '143', '136', '124', '128', '147', '145', '119', '138', '79', '129', '142'] 669.6296296296288
141 13.392592592592592 ['148', '146', '141', '149', '143', '136', '124', '128', '147', '145', '119', '138', '79', '129', '142'] 669.6296296296288
142 13.392592592592592 ['148', '146', '141', '149', '143', '136', '124', '128', '147', '145', '119', '138', '79', '129', '142'] 669.6296296296288
143 13.392592592592592 ['148', '146', '141', '149', '143', '136', '124', '128', '147', '145', '119', '138', '79', '129', '142'] 669.6296296296288
144 13.392592592592592 ['148', '146', '141', '149', '143', '136', '124', '128', '147', '145', '119', '138', '79', '129', '142'] 669.6296296296288
145 13.392592592592592 ['148', '146', '141', '149', '143', '136', '124', '128', '147', '145', '119', '138', '79', '129', '142'] 669.6296296296288
146 13.392592592592592 ['148', '146', '141', '149', '143', '136', '124', '128', '147', '145', '119', '138', '79', '129', '142'] 669.6296296296288
147 13.392592592592592 ['148', '146', '141', '149', '143', '136', '124', '128', '147', '145', '119', '138', '79', '129', '142'] 669.6296296296288
148 13.392592592592592 ['148', '146', '141', '149', '143', '136', '124', '128', '147', '145', '119', '138', '79', '129', '142'] 669.6296296296288
149 13.392592592592592 ['148', '146', '141', '149', '143', '136', '124', '128', '147', '145', '119', '138', '79', '129', '142'] 669.6296296296288
150 13.392592592592592 ['148', '146', '141', '149', '143', '136', '124', '128', '147', '145', '119', '138', '79', '129', '142'] 669.6296296296288
151 13.392592592592592 ['148', '146', '141', '149', '143', '136', '124', '128', '147', '145', '119', '138', '79', '129', '142'] 669.6296296296288
152 13.392592592592592 ['148', '146', '141', '149', '143', '136', '124', '128', '147', '145', '119', '138', '79', '129', '142'] 669.6296296296288
153 13.392592592592592 ['148', '146', '141', '149', '143', '136', '124', '128', '147', '145', '119', '138', '79', '129', '142'] 669.6296296296288
154 13.392592592592592 ['148', '146', '141', '149', '143', '136', '124', '128', '147', '145', '119', '138', '79', '129', '142'] 669.6296296296288
155 13.392592592592592 ['148', '146', '141', '149', '143', '136', '124', '128', '147', '145', '119', '138', '79', '129', '142'] 669.6296296296288
156 13.392592592592592 ['148', '146', '141', '149', '143', '136', '124', '128', '147', '145', '119', '138', '79', '129', '142'] 669.6296296296288
157 13.392592592592592 ['148', '146', '141', '149', '143', '136', '124', '128', '147', '145', '119', '138', '79', '129', '142'] 669.6296296296288
158 13.392592592592592 ['148', '146', '141', '149', '143', '136', '124', '128', '147', '145', '119', '138', '79', '129', '142'] 669.6296296296288
159 13.392592592592592 ['148', '146', '141', '149', '143', '136', '124', '128', '147', '145', '119', '138', '79', '129', '142'] 669.6296296296288
160 13.392592592592592 ['148', '146', '141', '149', '143', '136', '124', '128', '147', '145', '119', '138', '79', '129', '142'] 669.6296296296288
161 13.392592592592592 ['148', '146', '141', '149', '143', '136', '124', '128', '147', '145', '119', '138', '79', '129', '142'] 669.6296296296288
162 13.392592592592592 ['148', '146', '141', '149', '143', '136', '124', '128', '147', '145', '119', '138', '79', '129', '142'] 669.6296296296288
163 13.392592592592592 ['148', '146', '141', '149', '143', '136', '124', '128', '147', '145', '119', '138', '79', '129', '142'] 669.6296296296288
164 13.392592592592592 ['148', '146', '141', '149', '143', '136', '124', '128', '147', '145', '119', '138', '79', '129', '142'] 669.6296296296288
165 13.392592592592592 ['148', '146', '141', '149', '143', '136', '124', '128', '147', '145', '119', '138', '79', '129', '142'] 669.6296296296288
166 13.392592592592592 ['148', '146', '141', '149', '143', '136', '124', '128', '147', '145', '119', '138', '79', '129', '142'] 669.6296296296288
167 13.392592592592592 ['148', '146', '141', '149', '143', '136', '124', '128', '147', '145', '119', '138', '79', '129', '142'] 669.6296296296288
168 13.392592592592592 ['148', '146', '141', '149', '143', '136', '124', '128', '147', '145', '119', '138', '79', '129', '142'] 669.6296296296288
169 13.392592592592592 ['148', '146', '141', '149', '143', '136', '124', '128', '147', '145', '119', '138', '79', '129', '142'] 669.6296296296288
170 13.392592592592592 ['148', '146', '141', '149', '143', '136', '124', '128', '147', '145', '119', '138', '79', '129', '142'] 669.6296296296288
171 13.392592592592592 ['148', '146', '141', '149', '143', '136', '124', '128', '147', '145', '119', '138', '79', '129', '142'] 669.6296296296288
172 13.392592592592592 ['148', '146', '141', '149', '143', '136', '124', '128', '147', '145', '119', '138', '79', '129', '142'] 669.6296296296288
173 13.392592592592592 ['148', '146', '141', '149', '143', '136', '124', '128', '147', '145', '119', '138', '79', '129', '142'] 669.6296296296288
174 13.392592592592592 ['148', '146', '141', '149', '143', '136', '124', '128', '147', '145', '119', '138', '79', '129', '142'] 669.6296296296288
175 13.392592592592592 ['148', '146', '141', '149', '143', '136', '124', '128', '147', '145', '119', '138', '79', '129', '142'] 669.6296296296288
176 13.392592592592592 ['148', '146', '141', '149', '143', '136', '124', '128', '147', '145', '119', '138', '79', '129', '142'] 669.6296296296288
177 13.392592592592592 ['148', '146', '141', '149', '143', '136', '124', '128', '147', '145', '119', '138', '79', '129', '142'] 669.6296296296288
178 13.392592592592592 ['148', '146', '141', '149', '143', '136', '124', '128', '147', '145', '119', '138', '79', '129', '142'] 669.6296296296288
179 13.392592592592592 ['148', '146', '141', '149', '143', '136', '124', '128', '147', '145', '119', '138', '79', '129', '142'] 669.6296296296288
180 13.392592592592592 ['148', '146', '141', '149', '143', '136', '124', '128', '147', '145', '119', '138', '79', '129', '142'] 669.6296296296288
181 13.392592592592592 ['148', '146', '141', '149', '143', '136', '124', '128', '147', '145', '119', '138', '79', '129', '142'] 669.6296296296288
182 13.392592592592592 ['148', '146', '141', '149', '143', '136', '124', '128', '147', '145', '119', '138', '79', '129', '142'] 669.6296296296288
183 13.392592592592592 ['148', '146', '141', '149', '143', '136', '124', '128', '147', '145', '119', '138', '79', '129', '142'] 669.6296296296288
184 13.392592592592592 ['148', '146', '141', '149', '143', '136', '124', '128', '147', '145', '119', '138', '79', '129', '142'] 669.6296296296288
185 13.392592592592592 ['148', '146', '141', '149', '143', '136', '124', '128', '147', '145', '119', '138', '79', '129', '142'] 669.6296296296288
186 13.392592592592592 ['148', '146', '141', '149', '143', '136', '124', '128', '147', '145', '119', '138', '79', '129', '142'] 669.6296296296288
187 13.392592592592592 ['148', '146', '141', '149', '143', '136', '124', '128', '147', '145', '119', '138', '79', '129', '142'] 669.6296296296288
188 13.392592592592592 ['148', '146', '141', '149', '143', '136', '124', '128', '147', '145', '119', '138', '79', '129', '142'] 669.6296296296288
189 13.392592592592592 ['148', '146', '141', '149', '143', '136', '124', '128', '147', '145', '119', '138', '79', '129', '142'] 669.6296296296288
190 13.392592592592592 ['148', '146', '141', '149', '143', '136', '124', '128', '147', '145', '119', '138', '79', '129', '142'] 669.6296296296288
191 13.392592592592592 ['148', '146', '141', '149', '143', '136', '124', '128', '147', '145', '119', '138', '79', '129', '142'] 669.6296296296288
192 13.392592592592592 ['148', '146', '141', '149', '143', '136', '124', '128', '147', '145', '119', '138', '79', '129', '142'] 669.6296296296288
193 13.392592592592592 ['148', '146', '141', '149', '143', '136', '124', '128', '147', '145', '119', '138', '79', '129', '142'] 669.6296296296288
194 13.392592592592592 ['148', '146', '141', '149', '143', '136', '124', '128', '147', '145', '119', '138', '79', '129', '142'] 669.6296296296288
195 13.392592592592592 ['148', '146', '141', '149', '143', '136', '124', '128', '147', '145', '119', '138', '79', '129', '142'] 669.6296296296288
196 13.392592592592592 ['148', '146', '141', '149', '143', '136', '124', '128', '147', '145', '119', '138', '79', '129', '142'] 669.6296296296288
197 13.392592592592592 ['148', '146', '141', '149', '143', '136', '124', '128', '147', '145', '119', '138', '79', '129', '142'] 669.6296296296288
198 13.392592592592592 ['148', '146', '141', '149', '143', '136', '124', '128', '147', '145', '119', '138', '79', '129', '142'] 669.6296296296288
199 13.392592592592592 ['148', '146', '141', '149', '143', '136', '124', '128', '147', '145', '119', '138', '79', '129', '142'] 669.6296296296288
