0 5.150987654320989 ['29', '84', '97', '120', '79', '51', '44', '105', '127', '101', '38', '102', '47', '5', '30'] 261.91506172839513
1 5.123209876543214 ['116', '142', '97', '7', '21', '105', '143', '102', '24', '130', '88', '100', '148', '60', '117'] 260.2375308641977
2 5.123209876543214 ['116', '142', '97', '7', '21', '105', '143', '102', '24', '130', '88', '100', '148', '60', '117'] 258.9711111111112
3 5.108765432098767 ['14', '141', '70', '78', '148', '102', '116', '127', '142', '65', '80', '76', '43', '64', '10'] 257.85444444444454
4 5.085679012345683 ['51', '102', '113', '27', '74', '111', '8', '117', '135', '25', '49', '26', '126', '129', '33'] 257.18617283950636
5 5.078641975308643 ['102', '126', '25', '26', '33', '49', '83', '140', '99', '111', '117', '135', '147', '138', '129'] 256.6641975308644
6 5.04925925925926 ['33', '102', '99', '25', '140', '147', '26', '83', '138', '126', '129', '7', '36', '135', '111'] 255.93839506172853
7 5.043703703703706 ['127', '126', '102', '27', '141', '80', '36', '147', '113', '8', '135', '25', '142', '138', '26'] 255.41753086419777
8 5.043703703703706 ['127', '126', '102', '27', '141', '80', '36', '147', '113', '8', '135', '25', '142', '138', '26'] 254.8616049382718
9 5.012962962962966 ['102', '49', '142', '116', '78', '7', '148', '93', '144', '132', '140', '47', '134', '101', '75'] 254.00876543209893
10 5.003456790123462 ['116', '142', '7', '148', '80', '49', '8', '102', '51', '127', '86', '78', '140', '111', '147'] 253.22320987654334
11 5.003456790123462 ['116', '142', '7', '148', '80', '49', '8', '102', '51', '127', '86', '78', '140', '111', '147'] 252.5771604938273
12 4.9832098765432145 ['78', '8', '142', '148', '7', '49', '116', '134', '102', '47', '144', '145', '127', '80', '140'] 251.9324691358027
13 4.971481481481485 ['116', '147', '127', '70', '80', '65', '142', '145', '148', '102', '76', '49', '8', '134', '141'] 251.21604938271622
14 4.964814814814817 ['116', '7', '78', '47', '142', '102', '148', '134', '8', '80', '140', '96', '141', '145', '43'] 250.497777777778
15 4.918765432098768 ['140', '7', '134', '142', '116', '144', '49', '102', '47', '147', '101', '80', '78', '148', '141'] 249.7374074074076
16 4.918765432098768 ['140', '7', '134', '142', '116', '144', '49', '102', '47', '147', '101', '80', '78', '148', '141'] 249.04790123456797
17 4.918765432098768 ['140', '7', '134', '142', '116', '144', '49', '102', '47', '147', '101', '80', '78', '148', '141'] 248.47839506172852
18 4.918765432098768 ['140', '7', '134', '142', '116', '144', '49', '102', '47', '147', '101', '80', '78', '148', '141'] 247.9211111111112
19 4.918765432098768 ['140', '7', '134', '142', '116', '144', '49', '102', '47', '147', '101', '80', '78', '148', '141'] 247.33259259259276
20 4.899259259259262 ['116', '141', '144', '148', '147', '134', '145', '142', '102', '140', '7', '80', '49', '47', '111'] 246.62666666666684
21 4.899259259259262 ['116', '141', '144', '148', '147', '134', '145', '142', '102', '140', '7', '80', '49', '47', '111'] 246.1382716049383
22 4.887654320987656 ['7', '47', '78', '141', '80', '148', '142', '140', '49', '116', '102', '134', '135', '145', '96'] 245.62716049382738
23 4.887654320987656 ['7', '47', '78', '141', '80', '148', '142', '140', '49', '116', '102', '134', '135', '145', '96'] 245.2709876543212
24 4.887654320987656 ['7', '47', '78', '141', '80', '148', '142', '140', '49', '116', '102', '134', '135', '145', '96'] 245.0307407407408
25 4.887654320987656 ['7', '47', '78', '141', '80', '148', '142', '140', '49', '116', '102', '134', '135', '145', '96'] 245.00271604938274
26 4.887654320987656 ['7', '47', '78', '141', '80', '148', '142', '140', '49', '116', '102', '134', '135', '145', '96'] 244.96506172839523
27 4.886419753086421 ['140', '102', '80', '145', '142', '134', '148', '47', '141', '78', '49', '116', '135', '101', '96'] 244.87999999999994
28 4.886419753086421 ['140', '102', '80', '145', '142', '134', '148', '47', '141', '78', '49', '116', '135', '101', '96'] 244.81950617283945
29 4.886419753086421 ['140', '102', '80', '145', '142', '134', '148', '47', '141', '78', '49', '116', '135', '101', '96'] 244.76333333333324
30 4.886419753086421 ['140', '102', '80', '145', '142', '134', '148', '47', '141', '78', '49', '116', '135', '101', '96'] 244.75345679012338
31 4.886419753086421 ['140', '102', '80', '145', '142', '134', '148', '47', '141', '78', '49', '116', '135', '101', '96'] 244.73641975308632
32 4.881481481481483 ['134', '148', '116', '49', '145', '78', '142', '80', '141', '102', '140', '96', '111', '47', '135'] 244.6870370370369
33 4.881481481481483 ['134', '148', '116', '49', '145', '78', '142', '80', '141', '102', '140', '96', '111', '47', '135'] 244.68333333333322
34 4.881481481481483 ['134', '148', '116', '49', '145', '78', '142', '80', '141', '102', '140', '96', '111', '47', '135'] 244.67839506172828
35 4.881481481481483 ['134', '148', '116', '49', '145', '78', '142', '80', '141', '102', '140', '96', '111', '47', '135'] 244.66518518518507
36 4.881481481481483 ['134', '148', '116', '49', '145', '78', '142', '80', '141', '102', '140', '96', '111', '47', '135'] 244.6371604938271
37 4.881481481481483 ['134', '148', '116', '49', '145', '78', '142', '80', '141', '102', '140', '96', '111', '47', '135'] 244.5967901234568
38 4.881481481481483 ['134', '148', '116', '49', '145', '78', '142', '80', '141', '102', '140', '96', '111', '47', '135'] 244.549012345679
39 4.881481481481483 ['134', '148', '116', '49', '145', '78', '142', '80', '141', '102', '140', '96', '111', '47', '135'] 244.5374074074074
40 4.881481481481483 ['134', '148', '116', '49', '145', '78', '142', '80', '141', '102', '140', '96', '111', '47', '135'] 244.5175308641975
41 4.881481481481483 ['134', '148', '116', '49', '145', '78', '142', '80', '141', '102', '140', '96', '111', '47', '135'] 244.4819753086419
42 4.881481481481483 ['134', '148', '116', '49', '145', '78', '142', '80', '141', '102', '140', '96', '111', '47', '135'] 244.41246913580227
43 4.881481481481483 ['134', '148', '116', '49', '145', '78', '142', '80', '141', '102', '140', '96', '111', '47', '135'] 244.259012345679
44 4.881481481481483 ['134', '148', '116', '49', '145', '78', '142', '80', '141', '102', '140', '96', '111', '47', '135'] 244.17530864197528
45 4.881481481481483 ['134', '148', '116', '49', '145', '78', '142', '80', '141', '102', '140', '96', '111', '47', '135'] 244.11111111111103
46 4.881481481481483 ['134', '148', '116', '49', '145', '78', '142', '80', '141', '102', '140', '96', '111', '47', '135'] 244.07407407407396
47 4.881481481481483 ['134', '148', '116', '49', '145', '78', '142', '80', '141', '102', '140', '96', '111', '47', '135'] 244.07407407407396
48 4.881481481481483 ['134', '148', '116', '49', '145', '78', '142', '80', '141', '102', '140', '96', '111', '47', '135'] 244.07407407407396
49 4.881481481481483 ['134', '148', '116', '49', '145', '78', '142', '80', '141', '102', '140', '96', '111', '47', '135'] 244.07407407407396
50 4.881481481481483 ['134', '148', '116', '49', '145', '78', '142', '80', '141', '102', '140', '96', '111', '47', '135'] 244.07407407407396
51 4.881481481481483 ['134', '148', '116', '49', '145', '78', '142', '80', '141', '102', '140', '96', '111', '47', '135'] 244.07407407407396
52 4.881481481481483 ['134', '148', '116', '49', '145', '78', '142', '80', '141', '102', '140', '96', '111', '47', '135'] 244.07407407407396
53 4.881481481481483 ['134', '148', '116', '49', '145', '78', '142', '80', '141', '102', '140', '96', '111', '47', '135'] 244.07407407407396
54 4.881481481481483 ['134', '148', '116', '49', '145', '78', '142', '80', '141', '102', '140', '96', '111', '47', '135'] 244.07407407407396
55 4.881481481481483 ['134', '148', '116', '49', '145', '78', '142', '80', '141', '102', '140', '96', '111', '47', '135'] 244.07407407407396
56 4.881481481481483 ['134', '148', '116', '49', '145', '78', '142', '80', '141', '102', '140', '96', '111', '47', '135'] 244.07407407407396
57 4.881481481481483 ['134', '148', '116', '49', '145', '78', '142', '80', '141', '102', '140', '96', '111', '47', '135'] 244.07407407407396
58 4.881481481481483 ['134', '148', '116', '49', '145', '78', '142', '80', '141', '102', '140', '96', '111', '47', '135'] 244.07407407407396
59 4.881481481481483 ['134', '148', '116', '49', '145', '78', '142', '80', '141', '102', '140', '96', '111', '47', '135'] 244.07407407407396
60 4.881481481481483 ['134', '148', '116', '49', '145', '78', '142', '80', '141', '102', '140', '96', '111', '47', '135'] 244.07407407407396
61 4.881481481481483 ['134', '148', '116', '49', '145', '78', '142', '80', '141', '102', '140', '96', '111', '47', '135'] 244.07407407407396
62 4.881481481481483 ['134', '148', '116', '49', '145', '78', '142', '80', '141', '102', '140', '96', '111', '47', '135'] 244.07407407407396
63 4.881481481481483 ['134', '148', '116', '49', '145', '78', '142', '80', '141', '102', '140', '96', '111', '47', '135'] 244.07407407407396
64 4.881481481481483 ['134', '148', '116', '49', '145', '78', '142', '80', '141', '102', '140', '96', '111', '47', '135'] 244.07407407407396
65 4.881481481481483 ['134', '148', '116', '49', '145', '78', '142', '80', '141', '102', '140', '96', '111', '47', '135'] 244.07407407407396
66 4.881481481481483 ['134', '148', '116', '49', '145', '78', '142', '80', '141', '102', '140', '96', '111', '47', '135'] 244.07407407407396
67 4.881481481481483 ['134', '148', '116', '49', '145', '78', '142', '80', '141', '102', '140', '96', '111', '47', '135'] 244.07407407407396
68 4.881481481481483 ['134', '148', '116', '49', '145', '78', '142', '80', '141', '102', '140', '96', '111', '47', '135'] 244.07407407407396
69 4.881481481481483 ['134', '148', '116', '49', '145', '78', '142', '80', '141', '102', '140', '96', '111', '47', '135'] 244.07407407407396
70 4.881481481481483 ['134', '148', '116', '49', '145', '78', '142', '80', '141', '102', '140', '96', '111', '47', '135'] 244.07407407407396
71 4.881481481481483 ['134', '148', '116', '49', '145', '78', '142', '80', '141', '102', '140', '96', '111', '47', '135'] 244.07407407407396
72 4.881481481481483 ['134', '148', '116', '49', '145', '78', '142', '80', '141', '102', '140', '96', '111', '47', '135'] 244.07407407407396
73 4.881481481481483 ['134', '148', '116', '49', '145', '78', '142', '80', '141', '102', '140', '96', '111', '47', '135'] 244.07407407407396
74 4.881481481481483 ['134', '148', '116', '49', '145', '78', '142', '80', '141', '102', '140', '96', '111', '47', '135'] 244.07407407407396
75 4.881481481481483 ['134', '148', '116', '49', '145', '78', '142', '80', '141', '102', '140', '96', '111', '47', '135'] 244.07407407407396
76 4.881481481481483 ['134', '148', '116', '49', '145', '78', '142', '80', '141', '102', '140', '96', '111', '47', '135'] 244.07407407407396
77 4.881481481481483 ['134', '148', '116', '49', '145', '78', '142', '80', '141', '102', '140', '96', '111', '47', '135'] 244.07407407407396
78 4.881481481481483 ['134', '148', '116', '49', '145', '78', '142', '80', '141', '102', '140', '96', '111', '47', '135'] 244.07407407407396
79 4.881481481481483 ['134', '148', '116', '49', '145', '78', '142', '80', '141', '102', '140', '96', '111', '47', '135'] 244.07407407407396
80 4.881481481481483 ['134', '148', '116', '49', '145', '78', '142', '80', '141', '102', '140', '96', '111', '47', '135'] 244.07407407407396
81 4.881481481481483 ['134', '148', '116', '49', '145', '78', '142', '80', '141', '102', '140', '96', '111', '47', '135'] 244.07407407407396
82 4.881481481481483 ['134', '148', '116', '49', '145', '78', '142', '80', '141', '102', '140', '96', '111', '47', '135'] 244.07407407407396
83 4.881481481481483 ['134', '148', '116', '49', '145', '78', '142', '80', '141', '102', '140', '96', '111', '47', '135'] 244.07407407407396
84 4.881481481481483 ['134', '148', '116', '49', '145', '78', '142', '80', '141', '102', '140', '96', '111', '47', '135'] 244.07407407407396
85 4.881481481481483 ['134', '148', '116', '49', '145', '78', '142', '80', '141', '102', '140', '96', '111', '47', '135'] 244.07407407407396
86 4.881481481481483 ['134', '148', '116', '49', '145', '78', '142', '80', '141', '102', '140', '96', '111', '47', '135'] 244.07407407407396
87 4.881481481481483 ['134', '148', '116', '49', '145', '78', '142', '80', '141', '102', '140', '96', '111', '47', '135'] 244.07407407407396
88 4.881481481481483 ['134', '148', '116', '49', '145', '78', '142', '80', '141', '102', '140', '96', '111', '47', '135'] 244.07407407407396
89 4.881481481481483 ['134', '148', '116', '49', '145', '78', '142', '80', '141', '102', '140', '96', '111', '47', '135'] 244.07407407407396
90 4.881481481481483 ['134', '148', '116', '49', '145', '78', '142', '80', '141', '102', '140', '96', '111', '47', '135'] 244.07407407407396
91 4.881481481481483 ['134', '148', '116', '49', '145', '78', '142', '80', '141', '102', '140', '96', '111', '47', '135'] 244.07407407407396
92 4.881481481481483 ['134', '148', '116', '49', '145', '78', '142', '80', '141', '102', '140', '96', '111', '47', '135'] 244.07407407407396
93 4.881481481481483 ['134', '148', '116', '49', '145', '78', '142', '80', '141', '102', '140', '96', '111', '47', '135'] 244.07407407407396
94 4.881481481481483 ['134', '148', '116', '49', '145', '78', '142', '80', '141', '102', '140', '96', '111', '47', '135'] 244.07407407407396
95 4.881481481481483 ['134', '148', '116', '49', '145', '78', '142', '80', '141', '102', '140', '96', '111', '47', '135'] 244.07407407407396
96 4.881481481481483 ['134', '148', '116', '49', '145', '78', '142', '80', '141', '102', '140', '96', '111', '47', '135'] 244.07407407407396
97 4.881481481481483 ['134', '148', '116', '49', '145', '78', '142', '80', '141', '102', '140', '96', '111', '47', '135'] 244.07407407407396
98 4.881481481481483 ['134', '148', '116', '49', '145', '78', '142', '80', '141', '102', '140', '96', '111', '47', '135'] 244.07407407407396
99 4.881481481481483 ['134', '148', '116', '49', '145', '78', '142', '80', '141', '102', '140', '96', '111', '47', '135'] 244.07407407407396
100 4.881481481481483 ['134', '148', '116', '49', '145', '78', '142', '80', '141', '102', '140', '96', '111', '47', '135'] 244.07407407407396
101 4.881481481481483 ['134', '148', '116', '49', '145', '78', '142', '80', '141', '102', '140', '96', '111', '47', '135'] 244.07407407407396
102 4.881481481481483 ['134', '148', '116', '49', '145', '78', '142', '80', '141', '102', '140', '96', '111', '47', '135'] 244.07407407407396
103 4.881481481481483 ['134', '148', '116', '49', '145', '78', '142', '80', '141', '102', '140', '96', '111', '47', '135'] 244.07407407407396
104 4.881481481481483 ['134', '148', '116', '49', '145', '78', '142', '80', '141', '102', '140', '96', '111', '47', '135'] 244.07407407407396
105 4.881481481481483 ['134', '148', '116', '49', '145', '78', '142', '80', '141', '102', '140', '96', '111', '47', '135'] 244.07407407407396
106 4.881481481481483 ['134', '148', '116', '49', '145', '78', '142', '80', '141', '102', '140', '96', '111', '47', '135'] 244.07407407407396
107 4.881481481481483 ['134', '148', '116', '49', '145', '78', '142', '80', '141', '102', '140', '96', '111', '47', '135'] 244.07407407407396
108 4.881481481481483 ['134', '148', '116', '49', '145', '78', '142', '80', '141', '102', '140', '96', '111', '47', '135'] 244.07407407407396
109 4.881481481481483 ['134', '148', '116', '49', '145', '78', '142', '80', '141', '102', '140', '96', '111', '47', '135'] 244.07407407407396
110 4.881481481481483 ['134', '148', '116', '49', '145', '78', '142', '80', '141', '102', '140', '96', '111', '47', '135'] 244.07407407407396
111 4.881481481481483 ['134', '148', '116', '49', '145', '78', '142', '80', '141', '102', '140', '96', '111', '47', '135'] 244.07407407407396
112 4.881481481481483 ['134', '148', '116', '49', '145', '78', '142', '80', '141', '102', '140', '96', '111', '47', '135'] 244.07407407407396
113 4.881481481481483 ['134', '148', '116', '49', '145', '78', '142', '80', '141', '102', '140', '96', '111', '47', '135'] 244.07407407407396
114 4.881481481481483 ['134', '148', '116', '49', '145', '78', '142', '80', '141', '102', '140', '96', '111', '47', '135'] 244.07407407407396
115 4.881481481481483 ['134', '148', '116', '49', '145', '78', '142', '80', '141', '102', '140', '96', '111', '47', '135'] 244.07407407407396
116 4.881481481481483 ['134', '148', '116', '49', '145', '78', '142', '80', '141', '102', '140', '96', '111', '47', '135'] 244.07407407407396
117 4.881481481481483 ['134', '148', '116', '49', '145', '78', '142', '80', '141', '102', '140', '96', '111', '47', '135'] 244.07407407407396
118 4.881481481481483 ['134', '148', '116', '49', '145', '78', '142', '80', '141', '102', '140', '96', '111', '47', '135'] 244.07407407407396
119 4.881481481481483 ['134', '148', '116', '49', '145', '78', '142', '80', '141', '102', '140', '96', '111', '47', '135'] 244.07407407407396
120 4.881481481481483 ['134', '148', '116', '49', '145', '78', '142', '80', '141', '102', '140', '96', '111', '47', '135'] 244.07407407407396
121 4.881481481481483 ['134', '148', '116', '49', '145', '78', '142', '80', '141', '102', '140', '96', '111', '47', '135'] 244.07407407407396
122 4.881481481481483 ['134', '148', '116', '49', '145', '78', '142', '80', '141', '102', '140', '96', '111', '47', '135'] 244.07407407407396
123 4.881481481481483 ['134', '148', '116', '49', '145', '78', '142', '80', '141', '102', '140', '96', '111', '47', '135'] 244.07407407407396
124 4.881481481481483 ['134', '148', '116', '49', '145', '78', '142', '80', '141', '102', '140', '96', '111', '47', '135'] 244.07407407407396
125 4.881481481481483 ['134', '148', '116', '49', '145', '78', '142', '80', '141', '102', '140', '96', '111', '47', '135'] 244.07407407407396
126 4.881481481481483 ['134', '148', '116', '49', '145', '78', '142', '80', '141', '102', '140', '96', '111', '47', '135'] 244.07407407407396
127 4.881481481481483 ['134', '148', '116', '49', '145', '78', '142', '80', '141', '102', '140', '96', '111', '47', '135'] 244.07407407407396
128 4.881481481481483 ['134', '148', '116', '49', '145', '78', '142', '80', '141', '102', '140', '96', '111', '47', '135'] 244.07407407407396
129 4.881481481481483 ['134', '148', '116', '49', '145', '78', '142', '80', '141', '102', '140', '96', '111', '47', '135'] 244.07407407407396
130 4.881481481481483 ['134', '148', '116', '49', '145', '78', '142', '80', '141', '102', '140', '96', '111', '47', '135'] 244.07407407407396
131 4.881481481481483 ['134', '148', '116', '49', '145', '78', '142', '80', '141', '102', '140', '96', '111', '47', '135'] 244.07407407407396
132 4.881481481481483 ['134', '148', '116', '49', '145', '78', '142', '80', '141', '102', '140', '96', '111', '47', '135'] 244.07407407407396
133 4.881481481481483 ['134', '148', '116', '49', '145', '78', '142', '80', '141', '102', '140', '96', '111', '47', '135'] 244.07407407407396
134 4.881481481481483 ['134', '148', '116', '49', '145', '78', '142', '80', '141', '102', '140', '96', '111', '47', '135'] 244.07407407407396
135 4.881481481481483 ['134', '148', '116', '49', '145', '78', '142', '80', '141', '102', '140', '96', '111', '47', '135'] 244.07407407407396
136 4.881481481481483 ['134', '148', '116', '49', '145', '78', '142', '80', '141', '102', '140', '96', '111', '47', '135'] 244.07407407407396
137 4.881481481481483 ['134', '148', '116', '49', '145', '78', '142', '80', '141', '102', '140', '96', '111', '47', '135'] 244.07407407407396
138 4.881481481481483 ['134', '148', '116', '49', '145', '78', '142', '80', '141', '102', '140', '96', '111', '47', '135'] 244.07407407407396
139 4.881481481481483 ['134', '148', '116', '49', '145', '78', '142', '80', '141', '102', '140', '96', '111', '47', '135'] 244.07407407407396
140 4.881481481481483 ['134', '148', '116', '49', '145', '78', '142', '80', '141', '102', '140', '96', '111', '47', '135'] 244.07407407407396
141 4.881481481481483 ['134', '148', '116', '49', '145', '78', '142', '80', '141', '102', '140', '96', '111', '47', '135'] 244.07407407407396
142 4.881481481481483 ['134', '148', '116', '49', '145', '78', '142', '80', '141', '102', '140', '96', '111', '47', '135'] 244.07407407407396
143 4.881481481481483 ['134', '148', '116', '49', '145', '78', '142', '80', '141', '102', '140', '96', '111', '47', '135'] 244.07407407407396
144 4.881481481481483 ['134', '148', '116', '49', '145', '78', '142', '80', '141', '102', '140', '96', '111', '47', '135'] 244.07407407407396
145 4.881481481481483 ['134', '148', '116', '49', '145', '78', '142', '80', '141', '102', '140', '96', '111', '47', '135'] 244.07407407407396
146 4.881481481481483 ['134', '148', '116', '49', '145', '78', '142', '80', '141', '102', '140', '96', '111', '47', '135'] 244.07407407407396
147 4.881481481481483 ['134', '148', '116', '49', '145', '78', '142', '80', '141', '102', '140', '96', '111', '47', '135'] 244.07407407407396
148 4.881481481481483 ['134', '148', '116', '49', '145', '78', '142', '80', '141', '102', '140', '96', '111', '47', '135'] 244.07407407407396
149 4.881481481481483 ['134', '148', '116', '49', '145', '78', '142', '80', '141', '102', '140', '96', '111', '47', '135'] 244.07407407407396
150 4.881481481481483 ['134', '148', '116', '49', '145', '78', '142', '80', '141', '102', '140', '96', '111', '47', '135'] 244.07407407407396
151 4.881481481481483 ['134', '148', '116', '49', '145', '78', '142', '80', '141', '102', '140', '96', '111', '47', '135'] 244.07407407407396
152 4.881481481481483 ['134', '148', '116', '49', '145', '78', '142', '80', '141', '102', '140', '96', '111', '47', '135'] 244.07407407407396
153 4.881481481481483 ['134', '148', '116', '49', '145', '78', '142', '80', '141', '102', '140', '96', '111', '47', '135'] 244.07407407407396
154 4.881481481481483 ['134', '148', '116', '49', '145', '78', '142', '80', '141', '102', '140', '96', '111', '47', '135'] 244.07407407407396
155 4.881481481481483 ['134', '148', '116', '49', '145', '78', '142', '80', '141', '102', '140', '96', '111', '47', '135'] 244.07407407407396
156 4.881481481481483 ['134', '148', '116', '49', '145', '78', '142', '80', '141', '102', '140', '96', '111', '47', '135'] 244.07407407407396
157 4.881481481481483 ['134', '148', '116', '49', '145', '78', '142', '80', '141', '102', '140', '96', '111', '47', '135'] 244.07407407407396
158 4.881481481481483 ['134', '148', '116', '49', '145', '78', '142', '80', '141', '102', '140', '96', '111', '47', '135'] 244.07407407407396
159 4.881481481481483 ['134', '148', '116', '49', '145', '78', '142', '80', '141', '102', '140', '96', '111', '47', '135'] 244.07407407407396
160 4.881481481481483 ['134', '148', '116', '49', '145', '78', '142', '80', '141', '102', '140', '96', '111', '47', '135'] 244.07407407407396
161 4.881481481481483 ['134', '148', '116', '49', '145', '78', '142', '80', '141', '102', '140', '96', '111', '47', '135'] 244.07407407407396
162 4.881481481481483 ['134', '148', '116', '49', '145', '78', '142', '80', '141', '102', '140', '96', '111', '47', '135'] 244.07407407407396
163 4.881481481481483 ['134', '148', '116', '49', '145', '78', '142', '80', '141', '102', '140', '96', '111', '47', '135'] 244.07407407407396
164 4.881481481481483 ['134', '148', '116', '49', '145', '78', '142', '80', '141', '102', '140', '96', '111', '47', '135'] 244.07407407407396
165 4.881481481481483 ['134', '148', '116', '49', '145', '78', '142', '80', '141', '102', '140', '96', '111', '47', '135'] 244.07407407407396
166 4.881481481481483 ['134', '148', '116', '49', '145', '78', '142', '80', '141', '102', '140', '96', '111', '47', '135'] 244.07407407407396
167 4.881481481481483 ['134', '148', '116', '49', '145', '78', '142', '80', '141', '102', '140', '96', '111', '47', '135'] 244.07407407407396
168 4.881481481481483 ['134', '148', '116', '49', '145', '78', '142', '80', '141', '102', '140', '96', '111', '47', '135'] 244.07407407407396
169 4.881481481481483 ['134', '148', '116', '49', '145', '78', '142', '80', '141', '102', '140', '96', '111', '47', '135'] 244.07407407407396
170 4.881481481481483 ['134', '148', '116', '49', '145', '78', '142', '80', '141', '102', '140', '96', '111', '47', '135'] 244.07407407407396
171 4.881481481481483 ['134', '148', '116', '49', '145', '78', '142', '80', '141', '102', '140', '96', '111', '47', '135'] 244.07407407407396
172 4.881481481481483 ['134', '148', '116', '49', '145', '78', '142', '80', '141', '102', '140', '96', '111', '47', '135'] 244.07407407407396
173 4.881481481481483 ['134', '148', '116', '49', '145', '78', '142', '80', '141', '102', '140', '96', '111', '47', '135'] 244.07407407407396
174 4.881481481481483 ['134', '148', '116', '49', '145', '78', '142', '80', '141', '102', '140', '96', '111', '47', '135'] 244.07407407407396
175 4.881481481481483 ['134', '148', '116', '49', '145', '78', '142', '80', '141', '102', '140', '96', '111', '47', '135'] 244.07407407407396
176 4.881481481481483 ['134', '148', '116', '49', '145', '78', '142', '80', '141', '102', '140', '96', '111', '47', '135'] 244.07407407407396
177 4.881481481481483 ['134', '148', '116', '49', '145', '78', '142', '80', '141', '102', '140', '96', '111', '47', '135'] 244.07407407407396
178 4.881481481481483 ['134', '148', '116', '49', '145', '78', '142', '80', '141', '102', '140', '96', '111', '47', '135'] 244.07407407407396
179 4.881481481481483 ['134', '148', '116', '49', '145', '78', '142', '80', '141', '102', '140', '96', '111', '47', '135'] 244.07407407407396
180 4.881481481481483 ['134', '148', '116', '49', '145', '78', '142', '80', '141', '102', '140', '96', '111', '47', '135'] 244.07407407407396
181 4.881481481481483 ['134', '148', '116', '49', '145', '78', '142', '80', '141', '102', '140', '96', '111', '47', '135'] 244.07407407407396
182 4.881481481481483 ['134', '148', '116', '49', '145', '78', '142', '80', '141', '102', '140', '96', '111', '47', '135'] 244.07407407407396
183 4.881481481481483 ['134', '148', '116', '49', '145', '78', '142', '80', '141', '102', '140', '96', '111', '47', '135'] 244.07407407407396
184 4.881481481481483 ['134', '148', '116', '49', '145', '78', '142', '80', '141', '102', '140', '96', '111', '47', '135'] 244.07407407407396
185 4.881481481481483 ['134', '148', '116', '49', '145', '78', '142', '80', '141', '102', '140', '96', '111', '47', '135'] 244.07407407407396
186 4.881481481481483 ['134', '148', '116', '49', '145', '78', '142', '80', '141', '102', '140', '96', '111', '47', '135'] 244.07407407407396
187 4.881481481481483 ['134', '148', '116', '49', '145', '78', '142', '80', '141', '102', '140', '96', '111', '47', '135'] 244.07407407407396
188 4.881481481481483 ['134', '148', '116', '49', '145', '78', '142', '80', '141', '102', '140', '96', '111', '47', '135'] 244.07407407407396
189 4.881481481481483 ['134', '148', '116', '49', '145', '78', '142', '80', '141', '102', '140', '96', '111', '47', '135'] 244.07407407407396
190 4.881481481481483 ['134', '148', '116', '49', '145', '78', '142', '80', '141', '102', '140', '96', '111', '47', '135'] 244.07407407407396
191 4.881481481481483 ['134', '148', '116', '49', '145', '78', '142', '80', '141', '102', '140', '96', '111', '47', '135'] 244.07407407407396
192 4.881481481481483 ['134', '148', '116', '49', '145', '78', '142', '80', '141', '102', '140', '96', '111', '47', '135'] 244.07407407407396
193 4.881481481481483 ['134', '148', '116', '49', '145', '78', '142', '80', '141', '102', '140', '96', '111', '47', '135'] 244.07407407407396
194 4.881481481481483 ['134', '148', '116', '49', '145', '78', '142', '80', '141', '102', '140', '96', '111', '47', '135'] 244.07407407407396
195 4.881481481481483 ['134', '148', '116', '49', '145', '78', '142', '80', '141', '102', '140', '96', '111', '47', '135'] 244.07407407407396
196 4.881481481481483 ['134', '148', '116', '49', '145', '78', '142', '80', '141', '102', '140', '96', '111', '47', '135'] 244.07407407407396
197 4.881481481481483 ['134', '148', '116', '49', '145', '78', '142', '80', '141', '102', '140', '96', '111', '47', '135'] 244.07407407407396
198 4.881481481481483 ['134', '148', '116', '49', '145', '78', '142', '80', '141', '102', '140', '96', '111', '47', '135'] 244.07407407407396
199 4.881481481481483 ['134', '148', '116', '49', '145', '78', '142', '80', '141', '102', '140', '96', '111', '47', '135'] 244.07407407407396
