0 13.496296296296297 ['129', '144', '124', '55', '89', '148', '149', '64', '125', '79', '62', '78', '107', '20', '112'] 696.8740740740737
1 13.281481481481482 ['142', '148', '144', '62', '133', '85', '102', '59', '86', '80', '138', '107', '129', '137', '52'] 689.5407407407408
2 13.281481481481482 ['142', '148', '144', '62', '133', '85', '102', '59', '86', '80', '138', '107', '129', '137', '52'] 682.7185185185186
3 13.02962962962963 ['144', '142', '129', '107', '52', '133', '123', '150', '149', '137', '86', '7', '148', '145', '110'] 676.8444444444441
4 13.02962962962963 ['144', '142', '129', '107', '52', '133', '123', '150', '149', '137', '86', '7', '148', '145', '110'] 669.5925925925923
5 12.977777777777778 ['90', '129', '149', '142', '137', '148', '138', '46', '123', '133', '143', '34', '98', '150', '38'] 662.925925925926
6 12.896296296296295 ['137', '107', '133', '79', '53', '131', '122', '132', '148', '136', '50', '145', '138', '125', '149'] 657.281481481481
7 12.881481481481481 ['129', '138', '7', '137', '148', '85', '107', '133', '150', '119', '149', '124', '50', '130', '90'] 652.8000000000002
8 12.792592592592593 ['129', '38', '34', '142', '123', '137', '143', '149', '133', '136', '144', '150', '114', '131', '138'] 649.2000000000004
9 12.65925925925926 ['133', '144', '123', '131', '150', '142', '149', '129', '137', '52', '148', '138', '86', '145', '136'] 645.7185185185186
10 12.592592592592593 ['150', '144', '123', '137', '142', '133', '107', '129', '125', '149', '145', '136', '148', '98', '138'] 641.8592592592593
11 12.57037037037037 ['129', '148', '137', '150', '144', '142', '125', '145', '143', '133', '136', '85', '139', '131', '122'] 637.2
12 12.555555555555555 ['149', '136', '145', '129', '137', '148', '150', '85', '138', '125', '133', '144', '140', '98', '142'] 633.5629629629631
13 12.548148148148147 ['125', '129', '144', '148', '145', '142', '137', '150', '107', '141', '131', '122', '85', '149', '136'] 630.8370370370367
14 12.496296296296297 ['138', '148', '150', '137', '142', '136', '149', '133', '144', '145', '129', '98', '131', '140', '86'] 628.7111111111116
15 12.459259259259259 ['131', '133', '148', '150', '136', '142', '145', '137', '143', '129', '85', '138', '122', '144', '140'] 627.1185185185184
16 12.392592592592592 ['148', '145', '98', '136', '142', '129', '149', '150', '137', '138', '131', '144', '133', '140', '139'] 625.385185185185
17 12.362962962962962 ['150', '129', '136', '144', '142', '148', '149', '133', '137', '123', '138', '124', '131', '145', '140'] 622.8222222222222
18 12.362962962962962 ['150', '129', '136', '144', '142', '148', '149', '133', '137', '123', '138', '124', '131', '145', '140'] 620.740740740741
19 12.325925925925926 ['144', '136', '137', '129', '138', '149', '145', '148', '142', '140', '141', '124', '150', '123', '122'] 619.2666666666665
20 12.325925925925926 ['144', '136', '137', '129', '138', '149', '145', '148', '142', '140', '141', '124', '150', '123', '122'] 618.5037037037038
21 12.325925925925926 ['144', '136', '137', '129', '138', '149', '145', '148', '142', '140', '141', '124', '150', '123', '122'] 617.9999999999998
22 12.311111111111112 ['140', '137', '148', '149', '136', '142', '144', '133', '145', '138', '129', '139', '124', '122', '141'] 617.7037037037034
23 12.296296296296296 ['139', '122', '145', '148', '140', '142', '129', '149', '138', '137', '144', '141', '136', '124', '123'] 617.1259259259264
24 12.296296296296296 ['139', '122', '145', '148', '140', '142', '129', '149', '138', '137', '144', '141', '136', '124', '123'] 616.488888888889
25 12.296296296296296 ['139', '122', '145', '148', '140', '142', '129', '149', '138', '137', '144', '141', '136', '124', '123'] 615.8740740740743
26 12.281481481481482 ['148', '129', '149', '138', '137', '140', '145', '136', '124', '123', '144', '141', '142', '139', '131'] 615.444444444445
27 12.281481481481482 ['148', '129', '149', '138', '137', '140', '145', '136', '124', '123', '144', '141', '142', '139', '131'] 615.1481481481487
28 12.281481481481482 ['148', '129', '149', '138', '137', '140', '145', '136', '124', '123', '144', '141', '142', '139', '131'] 614.6518518518521
29 12.281481481481482 ['148', '129', '149', '138', '137', '140', '145', '136', '124', '123', '144', '141', '142', '139', '131'] 614.2444444444444
30 12.281481481481482 ['148', '129', '149', '138', '137', '140', '145', '136', '124', '123', '144', '141', '142', '139', '131'] 614.074074074074
31 12.281481481481482 ['148', '129', '149', '138', '137', '140', '145', '136', '124', '123', '144', '141', '142', '139', '131'] 614.074074074074
32 12.281481481481482 ['148', '129', '149', '138', '137', '140', '145', '136', '124', '123', '144', '141', '142', '139', '131'] 614.074074074074
33 12.281481481481482 ['148', '129', '149', '138', '137', '140', '145', '136', '124', '123', '144', '141', '142', '139', '131'] 614.074074074074
34 12.281481481481482 ['148', '129', '149', '138', '137', '140', '145', '136', '124', '123', '144', '141', '142', '139', '131'] 614.074074074074
35 12.281481481481482 ['148', '129', '149', '138', '137', '140', '145', '136', '124', '123', '144', '141', '142', '139', '131'] 614.074074074074
36 12.281481481481482 ['148', '129', '149', '138', '137', '140', '145', '136', '124', '123', '144', '141', '142', '139', '131'] 614.074074074074
37 12.281481481481482 ['148', '129', '149', '138', '137', '140', '145', '136', '124', '123', '144', '141', '142', '139', '131'] 614.074074074074
38 12.281481481481482 ['148', '129', '149', '138', '137', '140', '145', '136', '124', '123', '144', '141', '142', '139', '131'] 614.074074074074
39 12.281481481481482 ['148', '129', '149', '138', '137', '140', '145', '136', '124', '123', '144', '141', '142', '139', '131'] 614.074074074074
40 12.281481481481482 ['148', '129', '149', '138', '137', '140', '145', '136', '124', '123', '144', '141', '142', '139', '131'] 614.074074074074
41 12.281481481481482 ['148', '129', '149', '138', '137', '140', '145', '136', '124', '123', '144', '141', '142', '139', '131'] 614.074074074074
42 12.281481481481482 ['148', '129', '149', '138', '137', '140', '145', '136', '124', '123', '144', '141', '142', '139', '131'] 614.074074074074
43 12.281481481481482 ['148', '129', '149', '138', '137', '140', '145', '136', '124', '123', '144', '141', '142', '139', '131'] 614.074074074074
44 12.281481481481482 ['148', '129', '149', '138', '137', '140', '145', '136', '124', '123', '144', '141', '142', '139', '131'] 614.074074074074
45 12.281481481481482 ['148', '129', '149', '138', '137', '140', '145', '136', '124', '123', '144', '141', '142', '139', '131'] 614.074074074074
46 12.281481481481482 ['148', '129', '149', '138', '137', '140', '145', '136', '124', '123', '144', '141', '142', '139', '131'] 614.074074074074
47 12.281481481481482 ['148', '129', '149', '138', '137', '140', '145', '136', '124', '123', '144', '141', '142', '139', '131'] 614.074074074074
48 12.281481481481482 ['148', '129', '149', '138', '137', '140', '145', '136', '124', '123', '144', '141', '142', '139', '131'] 614.074074074074
49 12.281481481481482 ['148', '129', '149', '138', '137', '140', '145', '136', '124', '123', '144', '141', '142', '139', '131'] 614.074074074074
50 12.281481481481482 ['148', '129', '149', '138', '137', '140', '145', '136', '124', '123', '144', '141', '142', '139', '131'] 614.074074074074
51 12.281481481481482 ['148', '129', '149', '138', '137', '140', '145', '136', '124', '123', '144', '141', '142', '139', '131'] 614.074074074074
52 12.281481481481482 ['148', '129', '149', '138', '137', '140', '145', '136', '124', '123', '144', '141', '142', '139', '131'] 614.074074074074
53 12.281481481481482 ['148', '129', '149', '138', '137', '140', '145', '136', '124', '123', '144', '141', '142', '139', '131'] 614.074074074074
54 12.281481481481482 ['148', '129', '149', '138', '137', '140', '145', '136', '124', '123', '144', '141', '142', '139', '131'] 614.074074074074
55 12.281481481481482 ['148', '129', '149', '138', '137', '140', '145', '136', '124', '123', '144', '141', '142', '139', '131'] 614.074074074074
56 12.281481481481482 ['148', '129', '149', '138', '137', '140', '145', '136', '124', '123', '144', '141', '142', '139', '131'] 614.074074074074
57 12.281481481481482 ['148', '129', '149', '138', '137', '140', '145', '136', '124', '123', '144', '141', '142', '139', '131'] 614.074074074074
58 12.281481481481482 ['148', '129', '149', '138', '137', '140', '145', '136', '124', '123', '144', '141', '142', '139', '131'] 614.074074074074
59 12.281481481481482 ['148', '129', '149', '138', '137', '140', '145', '136', '124', '123', '144', '141', '142', '139', '131'] 614.074074074074
60 12.281481481481482 ['148', '129', '149', '138', '137', '140', '145', '136', '124', '123', '144', '141', '142', '139', '131'] 614.074074074074
61 12.281481481481482 ['148', '129', '149', '138', '137', '140', '145', '136', '124', '123', '144', '141', '142', '139', '131'] 614.074074074074
62 12.281481481481482 ['148', '129', '149', '138', '137', '140', '145', '136', '124', '123', '144', '141', '142', '139', '131'] 614.074074074074
63 12.281481481481482 ['148', '129', '149', '138', '137', '140', '145', '136', '124', '123', '144', '141', '142', '139', '131'] 614.074074074074
64 12.281481481481482 ['148', '129', '149', '138', '137', '140', '145', '136', '124', '123', '144', '141', '142', '139', '131'] 614.074074074074
65 12.281481481481482 ['148', '129', '149', '138', '137', '140', '145', '136', '124', '123', '144', '141', '142', '139', '131'] 614.074074074074
66 12.281481481481482 ['148', '129', '149', '138', '137', '140', '145', '136', '124', '123', '144', '141', '142', '139', '131'] 614.074074074074
67 12.281481481481482 ['148', '129', '149', '138', '137', '140', '145', '136', '124', '123', '144', '141', '142', '139', '131'] 614.074074074074
68 12.281481481481482 ['148', '129', '149', '138', '137', '140', '145', '136', '124', '123', '144', '141', '142', '139', '131'] 614.074074074074
69 12.281481481481482 ['148', '129', '149', '138', '137', '140', '145', '136', '124', '123', '144', '141', '142', '139', '131'] 614.074074074074
70 12.281481481481482 ['148', '129', '149', '138', '137', '140', '145', '136', '124', '123', '144', '141', '142', '139', '131'] 614.074074074074
71 12.281481481481482 ['148', '129', '149', '138', '137', '140', '145', '136', '124', '123', '144', '141', '142', '139', '131'] 614.074074074074
72 12.281481481481482 ['148', '129', '149', '138', '137', '140', '145', '136', '124', '123', '144', '141', '142', '139', '131'] 614.074074074074
73 12.281481481481482 ['148', '129', '149', '138', '137', '140', '145', '136', '124', '123', '144', '141', '142', '139', '131'] 614.074074074074
74 12.281481481481482 ['148', '129', '149', '138', '137', '140', '145', '136', '124', '123', '144', '141', '142', '139', '131'] 614.074074074074
75 12.281481481481482 ['148', '129', '149', '138', '137', '140', '145', '136', '124', '123', '144', '141', '142', '139', '131'] 614.074074074074
76 12.281481481481482 ['148', '129', '149', '138', '137', '140', '145', '136', '124', '123', '144', '141', '142', '139', '131'] 614.074074074074
77 12.281481481481482 ['148', '129', '149', '138', '137', '140', '145', '136', '124', '123', '144', '141', '142', '139', '131'] 614.074074074074
78 12.281481481481482 ['148', '129', '149', '138', '137', '140', '145', '136', '124', '123', '144', '141', '142', '139', '131'] 614.074074074074
79 12.281481481481482 ['148', '129', '149', '138', '137', '140', '145', '136', '124', '123', '144', '141', '142', '139', '131'] 614.074074074074
80 12.281481481481482 ['148', '129', '149', '138', '137', '140', '145', '136', '124', '123', '144', '141', '142', '139', '131'] 614.074074074074
81 12.281481481481482 ['148', '129', '149', '138', '137', '140', '145', '136', '124', '123', '144', '141', '142', '139', '131'] 614.074074074074
82 12.281481481481482 ['148', '129', '149', '138', '137', '140', '145', '136', '124', '123', '144', '141', '142', '139', '131'] 614.074074074074
83 12.281481481481482 ['148', '129', '149', '138', '137', '140', '145', '136', '124', '123', '144', '141', '142', '139', '131'] 614.074074074074
84 12.281481481481482 ['148', '129', '149', '138', '137', '140', '145', '136', '124', '123', '144', '141', '142', '139', '131'] 614.074074074074
85 12.281481481481482 ['148', '129', '149', '138', '137', '140', '145', '136', '124', '123', '144', '141', '142', '139', '131'] 614.074074074074
86 12.281481481481482 ['148', '129', '149', '138', '137', '140', '145', '136', '124', '123', '144', '141', '142', '139', '131'] 614.074074074074
87 12.281481481481482 ['148', '129', '149', '138', '137', '140', '145', '136', '124', '123', '144', '141', '142', '139', '131'] 614.074074074074
88 12.281481481481482 ['148', '129', '149', '138', '137', '140', '145', '136', '124', '123', '144', '141', '142', '139', '131'] 614.074074074074
89 12.281481481481482 ['148', '129', '149', '138', '137', '140', '145', '136', '124', '123', '144', '141', '142', '139', '131'] 614.074074074074
90 12.281481481481482 ['148', '129', '149', '138', '137', '140', '145', '136', '124', '123', '144', '141', '142', '139', '131'] 614.074074074074
91 12.281481481481482 ['148', '129', '149', '138', '137', '140', '145', '136', '124', '123', '144', '141', '142', '139', '131'] 614.074074074074
92 12.281481481481482 ['148', '129', '149', '138', '137', '140', '145', '136', '124', '123', '144', '141', '142', '139', '131'] 614.074074074074
93 12.281481481481482 ['148', '129', '149', '138', '137', '140', '145', '136', '124', '123', '144', '141', '142', '139', '131'] 614.074074074074
94 12.281481481481482 ['148', '129', '149', '138', '137', '140', '145', '136', '124', '123', '144', '141', '142', '139', '131'] 614.074074074074
95 12.281481481481482 ['148', '129', '149', '138', '137', '140', '145', '136', '124', '123', '144', '141', '142', '139', '131'] 614.074074074074
96 12.281481481481482 ['148', '129', '149', '138', '137', '140', '145', '136', '124', '123', '144', '141', '142', '139', '131'] 614.074074074074
97 12.281481481481482 ['148', '129', '149', '138', '137', '140', '145', '136', '124', '123', '144', '141', '142', '139', '131'] 614.074074074074
98 12.281481481481482 ['148', '129', '149', '138', '137', '140', '145', '136', '124', '123', '144', '141', '142', '139', '131'] 614.074074074074
99 12.281481481481482 ['148', '129', '149', '138', '137', '140', '145', '136', '124', '123', '144', '141', '142', '139', '131'] 614.074074074074
100 12.281481481481482 ['148', '129', '149', '138', '137', '140', '145', '136', '124', '123', '144', '141', '142', '139', '131'] 614.074074074074
101 12.281481481481482 ['148', '129', '149', '138', '137', '140', '145', '136', '124', '123', '144', '141', '142', '139', '131'] 614.074074074074
102 12.281481481481482 ['148', '129', '149', '138', '137', '140', '145', '136', '124', '123', '144', '141', '142', '139', '131'] 614.074074074074
103 12.281481481481482 ['148', '129', '149', '138', '137', '140', '145', '136', '124', '123', '144', '141', '142', '139', '131'] 614.074074074074
104 12.281481481481482 ['148', '129', '149', '138', '137', '140', '145', '136', '124', '123', '144', '141', '142', '139', '131'] 614.074074074074
105 12.281481481481482 ['148', '129', '149', '138', '137', '140', '145', '136', '124', '123', '144', '141', '142', '139', '131'] 614.074074074074
106 12.281481481481482 ['148', '129', '149', '138', '137', '140', '145', '136', '124', '123', '144', '141', '142', '139', '131'] 614.074074074074
107 12.281481481481482 ['148', '129', '149', '138', '137', '140', '145', '136', '124', '123', '144', '141', '142', '139', '131'] 614.074074074074
108 12.281481481481482 ['148', '129', '149', '138', '137', '140', '145', '136', '124', '123', '144', '141', '142', '139', '131'] 614.074074074074
109 12.281481481481482 ['148', '129', '149', '138', '137', '140', '145', '136', '124', '123', '144', '141', '142', '139', '131'] 614.074074074074
110 12.281481481481482 ['148', '129', '149', '138', '137', '140', '145', '136', '124', '123', '144', '141', '142', '139', '131'] 614.074074074074
111 12.281481481481482 ['148', '129', '149', '138', '137', '140', '145', '136', '124', '123', '144', '141', '142', '139', '131'] 614.074074074074
112 12.281481481481482 ['148', '129', '149', '138', '137', '140', '145', '136', '124', '123', '144', '141', '142', '139', '131'] 614.074074074074
113 12.281481481481482 ['148', '129', '149', '138', '137', '140', '145', '136', '124', '123', '144', '141', '142', '139', '131'] 614.074074074074
114 12.281481481481482 ['148', '129', '149', '138', '137', '140', '145', '136', '124', '123', '144', '141', '142', '139', '131'] 614.074074074074
115 12.281481481481482 ['148', '129', '149', '138', '137', '140', '145', '136', '124', '123', '144', '141', '142', '139', '131'] 614.074074074074
116 12.281481481481482 ['148', '129', '149', '138', '137', '140', '145', '136', '124', '123', '144', '141', '142', '139', '131'] 614.074074074074
117 12.281481481481482 ['148', '129', '149', '138', '137', '140', '145', '136', '124', '123', '144', '141', '142', '139', '131'] 614.074074074074
118 12.281481481481482 ['148', '129', '149', '138', '137', '140', '145', '136', '124', '123', '144', '141', '142', '139', '131'] 614.074074074074
119 12.281481481481482 ['148', '129', '149', '138', '137', '140', '145', '136', '124', '123', '144', '141', '142', '139', '131'] 614.074074074074
120 12.281481481481482 ['148', '129', '149', '138', '137', '140', '145', '136', '124', '123', '144', '141', '142', '139', '131'] 614.074074074074
121 12.281481481481482 ['148', '129', '149', '138', '137', '140', '145', '136', '124', '123', '144', '141', '142', '139', '131'] 614.074074074074
122 12.281481481481482 ['148', '129', '149', '138', '137', '140', '145', '136', '124', '123', '144', '141', '142', '139', '131'] 614.074074074074
123 12.281481481481482 ['148', '129', '149', '138', '137', '140', '145', '136', '124', '123', '144', '141', '142', '139', '131'] 614.074074074074
124 12.281481481481482 ['148', '129', '149', '138', '137', '140', '145', '136', '124', '123', '144', '141', '142', '139', '131'] 614.074074074074
125 12.281481481481482 ['148', '129', '149', '138', '137', '140', '145', '136', '124', '123', '144', '141', '142', '139', '131'] 614.074074074074
126 12.281481481481482 ['148', '129', '149', '138', '137', '140', '145', '136', '124', '123', '144', '141', '142', '139', '131'] 614.074074074074
127 12.281481481481482 ['148', '129', '149', '138', '137', '140', '145', '136', '124', '123', '144', '141', '142', '139', '131'] 614.074074074074
128 12.281481481481482 ['148', '129', '149', '138', '137', '140', '145', '136', '124', '123', '144', '141', '142', '139', '131'] 614.074074074074
129 12.281481481481482 ['148', '129', '149', '138', '137', '140', '145', '136', '124', '123', '144', '141', '142', '139', '131'] 614.074074074074
130 12.281481481481482 ['148', '129', '149', '138', '137', '140', '145', '136', '124', '123', '144', '141', '142', '139', '131'] 614.074074074074
131 12.281481481481482 ['148', '129', '149', '138', '137', '140', '145', '136', '124', '123', '144', '141', '142', '139', '131'] 614.074074074074
132 12.281481481481482 ['148', '129', '149', '138', '137', '140', '145', '136', '124', '123', '144', '141', '142', '139', '131'] 614.074074074074
133 12.281481481481482 ['148', '129', '149', '138', '137', '140', '145', '136', '124', '123', '144', '141', '142', '139', '131'] 614.074074074074
134 12.281481481481482 ['148', '129', '149', '138', '137', '140', '145', '136', '124', '123', '144', '141', '142', '139', '131'] 614.074074074074
135 12.281481481481482 ['148', '129', '149', '138', '137', '140', '145', '136', '124', '123', '144', '141', '142', '139', '131'] 614.074074074074
136 12.281481481481482 ['148', '129', '149', '138', '137', '140', '145', '136', '124', '123', '144', '141', '142', '139', '131'] 614.074074074074
137 12.281481481481482 ['148', '129', '149', '138', '137', '140', '145', '136', '124', '123', '144', '141', '142', '139', '131'] 614.074074074074
138 12.281481481481482 ['148', '129', '149', '138', '137', '140', '145', '136', '124', '123', '144', '141', '142', '139', '131'] 614.074074074074
139 12.281481481481482 ['148', '129', '149', '138', '137', '140', '145', '136', '124', '123', '144', '141', '142', '139', '131'] 614.074074074074
140 12.281481481481482 ['148', '129', '149', '138', '137', '140', '145', '136', '124', '123', '144', '141', '142', '139', '131'] 614.074074074074
141 12.281481481481482 ['148', '129', '149', '138', '137', '140', '145', '136', '124', '123', '144', '141', '142', '139', '131'] 614.074074074074
142 12.281481481481482 ['148', '129', '149', '138', '137', '140', '145', '136', '124', '123', '144', '141', '142', '139', '131'] 614.074074074074
143 12.281481481481482 ['148', '129', '149', '138', '137', '140', '145', '136', '124', '123', '144', '141', '142', '139', '131'] 614.074074074074
144 12.281481481481482 ['148', '129', '149', '138', '137', '140', '145', '136', '124', '123', '144', '141', '142', '139', '131'] 614.074074074074
145 12.281481481481482 ['148', '129', '149', '138', '137', '140', '145', '136', '124', '123', '144', '141', '142', '139', '131'] 614.074074074074
146 12.281481481481482 ['148', '129', '149', '138', '137', '140', '145', '136', '124', '123', '144', '141', '142', '139', '131'] 614.074074074074
147 12.281481481481482 ['148', '129', '149', '138', '137', '140', '145', '136', '124', '123', '144', '141', '142', '139', '131'] 614.074074074074
148 12.281481481481482 ['148', '129', '149', '138', '137', '140', '145', '136', '124', '123', '144', '141', '142', '139', '131'] 614.074074074074
149 12.281481481481482 ['148', '129', '149', '138', '137', '140', '145', '136', '124', '123', '144', '141', '142', '139', '131'] 614.074074074074
150 12.281481481481482 ['148', '129', '149', '138', '137', '140', '145', '136', '124', '123', '144', '141', '142', '139', '131'] 614.074074074074
151 12.281481481481482 ['148', '129', '149', '138', '137', '140', '145', '136', '124', '123', '144', '141', '142', '139', '131'] 614.074074074074
152 12.281481481481482 ['148', '129', '149', '138', '137', '140', '145', '136', '124', '123', '144', '141', '142', '139', '131'] 614.074074074074
153 12.281481481481482 ['148', '129', '149', '138', '137', '140', '145', '136', '124', '123', '144', '141', '142', '139', '131'] 614.074074074074
154 12.281481481481482 ['148', '129', '149', '138', '137', '140', '145', '136', '124', '123', '144', '141', '142', '139', '131'] 614.074074074074
155 12.281481481481482 ['148', '129', '149', '138', '137', '140', '145', '136', '124', '123', '144', '141', '142', '139', '131'] 614.074074074074
156 12.281481481481482 ['148', '129', '149', '138', '137', '140', '145', '136', '124', '123', '144', '141', '142', '139', '131'] 614.074074074074
157 12.281481481481482 ['148', '129', '149', '138', '137', '140', '145', '136', '124', '123', '144', '141', '142', '139', '131'] 614.074074074074
158 12.281481481481482 ['148', '129', '149', '138', '137', '140', '145', '136', '124', '123', '144', '141', '142', '139', '131'] 614.074074074074
159 12.281481481481482 ['148', '129', '149', '138', '137', '140', '145', '136', '124', '123', '144', '141', '142', '139', '131'] 614.074074074074
160 12.281481481481482 ['148', '129', '149', '138', '137', '140', '145', '136', '124', '123', '144', '141', '142', '139', '131'] 614.074074074074
161 12.281481481481482 ['148', '129', '149', '138', '137', '140', '145', '136', '124', '123', '144', '141', '142', '139', '131'] 614.074074074074
162 12.281481481481482 ['148', '129', '149', '138', '137', '140', '145', '136', '124', '123', '144', '141', '142', '139', '131'] 614.074074074074
163 12.281481481481482 ['148', '129', '149', '138', '137', '140', '145', '136', '124', '123', '144', '141', '142', '139', '131'] 614.074074074074
164 12.281481481481482 ['148', '129', '149', '138', '137', '140', '145', '136', '124', '123', '144', '141', '142', '139', '131'] 614.074074074074
165 12.281481481481482 ['148', '129', '149', '138', '137', '140', '145', '136', '124', '123', '144', '141', '142', '139', '131'] 614.074074074074
166 12.281481481481482 ['148', '129', '149', '138', '137', '140', '145', '136', '124', '123', '144', '141', '142', '139', '131'] 614.074074074074
167 12.281481481481482 ['148', '129', '149', '138', '137', '140', '145', '136', '124', '123', '144', '141', '142', '139', '131'] 614.074074074074
168 12.281481481481482 ['148', '129', '149', '138', '137', '140', '145', '136', '124', '123', '144', '141', '142', '139', '131'] 614.074074074074
169 12.281481481481482 ['148', '129', '149', '138', '137', '140', '145', '136', '124', '123', '144', '141', '142', '139', '131'] 614.074074074074
170 12.281481481481482 ['148', '129', '149', '138', '137', '140', '145', '136', '124', '123', '144', '141', '142', '139', '131'] 614.074074074074
171 12.281481481481482 ['148', '129', '149', '138', '137', '140', '145', '136', '124', '123', '144', '141', '142', '139', '131'] 614.074074074074
172 12.281481481481482 ['148', '129', '149', '138', '137', '140', '145', '136', '124', '123', '144', '141', '142', '139', '131'] 614.074074074074
173 12.281481481481482 ['148', '129', '149', '138', '137', '140', '145', '136', '124', '123', '144', '141', '142', '139', '131'] 614.074074074074
174 12.281481481481482 ['148', '129', '149', '138', '137', '140', '145', '136', '124', '123', '144', '141', '142', '139', '131'] 614.074074074074
175 12.281481481481482 ['148', '129', '149', '138', '137', '140', '145', '136', '124', '123', '144', '141', '142', '139', '131'] 614.074074074074
176 12.281481481481482 ['148', '129', '149', '138', '137', '140', '145', '136', '124', '123', '144', '141', '142', '139', '131'] 614.074074074074
177 12.281481481481482 ['148', '129', '149', '138', '137', '140', '145', '136', '124', '123', '144', '141', '142', '139', '131'] 614.074074074074
178 12.281481481481482 ['148', '129', '149', '138', '137', '140', '145', '136', '124', '123', '144', '141', '142', '139', '131'] 614.074074074074
179 12.281481481481482 ['148', '129', '149', '138', '137', '140', '145', '136', '124', '123', '144', '141', '142', '139', '131'] 614.074074074074
180 12.281481481481482 ['148', '129', '149', '138', '137', '140', '145', '136', '124', '123', '144', '141', '142', '139', '131'] 614.074074074074
181 12.281481481481482 ['148', '129', '149', '138', '137', '140', '145', '136', '124', '123', '144', '141', '142', '139', '131'] 614.074074074074
182 12.281481481481482 ['148', '129', '149', '138', '137', '140', '145', '136', '124', '123', '144', '141', '142', '139', '131'] 614.074074074074
183 12.281481481481482 ['148', '129', '149', '138', '137', '140', '145', '136', '124', '123', '144', '141', '142', '139', '131'] 614.074074074074
184 12.281481481481482 ['148', '129', '149', '138', '137', '140', '145', '136', '124', '123', '144', '141', '142', '139', '131'] 614.074074074074
185 12.281481481481482 ['148', '129', '149', '138', '137', '140', '145', '136', '124', '123', '144', '141', '142', '139', '131'] 614.074074074074
186 12.281481481481482 ['148', '129', '149', '138', '137', '140', '145', '136', '124', '123', '144', '141', '142', '139', '131'] 614.074074074074
187 12.281481481481482 ['148', '129', '149', '138', '137', '140', '145', '136', '124', '123', '144', '141', '142', '139', '131'] 614.074074074074
188 12.281481481481482 ['148', '129', '149', '138', '137', '140', '145', '136', '124', '123', '144', '141', '142', '139', '131'] 614.074074074074
189 12.281481481481482 ['148', '129', '149', '138', '137', '140', '145', '136', '124', '123', '144', '141', '142', '139', '131'] 614.074074074074
190 12.281481481481482 ['148', '129', '149', '138', '137', '140', '145', '136', '124', '123', '144', '141', '142', '139', '131'] 614.074074074074
191 12.281481481481482 ['148', '129', '149', '138', '137', '140', '145', '136', '124', '123', '144', '141', '142', '139', '131'] 614.074074074074
192 12.281481481481482 ['148', '129', '149', '138', '137', '140', '145', '136', '124', '123', '144', '141', '142', '139', '131'] 614.074074074074
193 12.281481481481482 ['148', '129', '149', '138', '137', '140', '145', '136', '124', '123', '144', '141', '142', '139', '131'] 614.074074074074
194 12.281481481481482 ['148', '129', '149', '138', '137', '140', '145', '136', '124', '123', '144', '141', '142', '139', '131'] 614.074074074074
195 12.281481481481482 ['148', '129', '149', '138', '137', '140', '145', '136', '124', '123', '144', '141', '142', '139', '131'] 614.074074074074
196 12.281481481481482 ['148', '129', '149', '138', '137', '140', '145', '136', '124', '123', '144', '141', '142', '139', '131'] 614.074074074074
197 12.281481481481482 ['148', '129', '149', '138', '137', '140', '145', '136', '124', '123', '144', '141', '142', '139', '131'] 614.074074074074
198 12.281481481481482 ['148', '129', '149', '138', '137', '140', '145', '136', '124', '123', '144', '141', '142', '139', '131'] 614.074074074074
199 12.281481481481482 ['148', '129', '149', '138', '137', '140', '145', '136', '124', '123', '144', '141', '142', '139', '131'] 614.074074074074
