0 8.2 ['14', '7', '27'] 428.4666666666667
1 8.066666666666666 ['21', '8', '10'] 422.56666666666695
2 7.966666666666667 ['8', '27', '21'] 417.8666666666666
3 7.966666666666667 ['8', '27', '21'] 413.83333333333354
4 7.966666666666667 ['8', '27', '21'] 408.633333333333
5 7.966666666666667 ['8', '27', '21'] 403.2666666666667
6 7.966666666666667 ['8', '27', '21'] 400.1333333333337
7 7.966666666666667 ['8', '27', '21'] 398.433333333333
8 7.966666666666667 ['8', '27', '21'] 398.3333333333329
9 7.966666666666667 ['8', '27', '21'] 398.3333333333329
10 7.966666666666667 ['8', '27', '21'] 398.3333333333329
11 7.966666666666667 ['8', '27', '21'] 398.3333333333329
12 7.966666666666667 ['8', '27', '21'] 398.3333333333329
13 7.966666666666667 ['8', '27', '21'] 398.3333333333329
14 7.966666666666667 ['8', '27', '21'] 398.3333333333329
15 7.966666666666667 ['8', '27', '21'] 398.3333333333329
16 7.966666666666667 ['8', '27', '21'] 398.3333333333329
17 7.966666666666667 ['8', '27', '21'] 398.3333333333329
18 7.966666666666667 ['8', '27', '21'] 398.3333333333329
19 7.966666666666667 ['8', '27', '21'] 398.3333333333329
20 7.966666666666667 ['8', '27', '21'] 398.3333333333329
21 7.966666666666667 ['8', '27', '21'] 398.3333333333329
22 7.966666666666667 ['8', '27', '21'] 398.3333333333329
23 7.966666666666667 ['8', '27', '21'] 398.3333333333329
24 7.966666666666667 ['8', '27', '21'] 398.3333333333329
25 7.966666666666667 ['8', '27', '21'] 398.3333333333329
26 7.966666666666667 ['8', '27', '21'] 398.3333333333329
27 7.966666666666667 ['8', '27', '21'] 398.3333333333329
28 7.966666666666667 ['8', '27', '21'] 398.3333333333329
29 7.966666666666667 ['8', '27', '21'] 398.3333333333329
30 7.966666666666667 ['8', '27', '21'] 398.3333333333329
31 7.966666666666667 ['8', '27', '21'] 398.3333333333329
32 7.966666666666667 ['8', '27', '21'] 398.3333333333329
33 7.966666666666667 ['8', '27', '21'] 398.3333333333329
34 7.966666666666667 ['8', '27', '21'] 398.3333333333329
35 7.966666666666667 ['8', '27', '21'] 398.3333333333329
36 7.966666666666667 ['8', '27', '21'] 398.3333333333329
37 7.966666666666667 ['8', '27', '21'] 398.3333333333329
38 7.966666666666667 ['8', '27', '21'] 398.3333333333329
39 7.966666666666667 ['8', '27', '21'] 398.3333333333329
40 7.966666666666667 ['8', '27', '21'] 398.3333333333329
41 7.966666666666667 ['8', '27', '21'] 398.3333333333329
42 7.966666666666667 ['8', '27', '21'] 398.3333333333329
43 7.966666666666667 ['8', '27', '21'] 398.3333333333329
44 7.966666666666667 ['8', '27', '21'] 398.3333333333329
45 7.966666666666667 ['8', '27', '21'] 398.3333333333329
46 7.966666666666667 ['8', '27', '21'] 398.3333333333329
47 7.966666666666667 ['8', '27', '21'] 398.3333333333329
48 7.966666666666667 ['8', '27', '21'] 398.3333333333329
49 7.966666666666667 ['8', '27', '21'] 398.3333333333329
50 7.966666666666667 ['8', '27', '21'] 398.3333333333329
51 7.966666666666667 ['8', '27', '21'] 398.3333333333329
52 7.966666666666667 ['8', '27', '21'] 398.3333333333329
53 7.966666666666667 ['8', '27', '21'] 398.3333333333329
54 7.966666666666667 ['8', '27', '21'] 398.3333333333329
55 7.966666666666667 ['8', '27', '21'] 398.3333333333329
56 7.966666666666667 ['8', '27', '21'] 398.3333333333329
57 7.966666666666667 ['8', '27', '21'] 398.3333333333329
58 7.966666666666667 ['8', '27', '21'] 398.3333333333329
59 7.966666666666667 ['8', '27', '21'] 398.3333333333329
60 7.966666666666667 ['8', '27', '21'] 398.3333333333329
61 7.966666666666667 ['8', '27', '21'] 398.3333333333329
62 7.966666666666667 ['8', '27', '21'] 398.3333333333329
63 7.966666666666667 ['8', '27', '21'] 398.3333333333329
64 7.966666666666667 ['8', '27', '21'] 398.3333333333329
65 7.966666666666667 ['8', '27', '21'] 398.3333333333329
66 7.966666666666667 ['8', '27', '21'] 398.3333333333329
67 7.966666666666667 ['8', '27', '21'] 398.3333333333329
68 7.966666666666667 ['8', '27', '21'] 398.3333333333329
69 7.966666666666667 ['8', '27', '21'] 398.3333333333329
70 7.966666666666667 ['8', '27', '21'] 398.3333333333329
71 7.966666666666667 ['8', '27', '21'] 398.3333333333329
72 7.966666666666667 ['8', '27', '21'] 398.3333333333329
73 7.966666666666667 ['8', '27', '21'] 398.3333333333329
74 7.966666666666667 ['8', '27', '21'] 398.3333333333329
75 7.966666666666667 ['8', '27', '21'] 398.3333333333329
76 7.966666666666667 ['8', '27', '21'] 398.3333333333329
77 7.966666666666667 ['8', '27', '21'] 398.3333333333329
78 7.966666666666667 ['8', '27', '21'] 398.3333333333329
79 7.966666666666667 ['8', '27', '21'] 398.3333333333329
80 7.966666666666667 ['8', '27', '21'] 398.3333333333329
81 7.966666666666667 ['8', '27', '21'] 398.3333333333329
82 7.966666666666667 ['8', '27', '21'] 398.3333333333329
83 7.966666666666667 ['8', '27', '21'] 398.3333333333329
84 7.966666666666667 ['8', '27', '21'] 398.3333333333329
85 7.966666666666667 ['8', '27', '21'] 398.3333333333329
86 7.966666666666667 ['8', '27', '21'] 398.3333333333329
87 7.966666666666667 ['8', '27', '21'] 398.3333333333329
88 7.966666666666667 ['8', '27', '21'] 398.3333333333329
89 7.966666666666667 ['8', '27', '21'] 398.3333333333329
90 7.966666666666667 ['8', '27', '21'] 398.3333333333329
91 7.966666666666667 ['8', '27', '21'] 398.3333333333329
92 7.966666666666667 ['8', '27', '21'] 398.3333333333329
93 7.966666666666667 ['8', '27', '21'] 398.3333333333329
94 7.966666666666667 ['8', '27', '21'] 398.3333333333329
95 7.966666666666667 ['8', '27', '21'] 398.3333333333329
96 7.966666666666667 ['8', '27', '21'] 398.3333333333329
97 7.966666666666667 ['8', '27', '21'] 398.3333333333329
98 7.966666666666667 ['8', '27', '21'] 398.3333333333329
99 7.966666666666667 ['8', '27', '21'] 398.3333333333329
100 7.966666666666667 ['8', '27', '21'] 398.3333333333329
101 7.966666666666667 ['8', '27', '21'] 398.3333333333329
102 7.966666666666667 ['8', '27', '21'] 398.3333333333329
103 7.966666666666667 ['8', '27', '21'] 398.3333333333329
104 7.966666666666667 ['8', '27', '21'] 398.3333333333329
105 7.966666666666667 ['8', '27', '21'] 398.3333333333329
106 7.966666666666667 ['8', '27', '21'] 398.3333333333329
107 7.966666666666667 ['8', '27', '21'] 398.3333333333329
108 7.966666666666667 ['8', '27', '21'] 398.3333333333329
109 7.966666666666667 ['8', '27', '21'] 398.3333333333329
110 7.966666666666667 ['8', '27', '21'] 398.3333333333329
111 7.966666666666667 ['8', '27', '21'] 398.3333333333329
112 7.966666666666667 ['8', '27', '21'] 398.3333333333329
113 7.966666666666667 ['8', '27', '21'] 398.3333333333329
114 7.966666666666667 ['8', '27', '21'] 398.3333333333329
115 7.966666666666667 ['8', '27', '21'] 398.3333333333329
116 7.966666666666667 ['8', '27', '21'] 398.3333333333329
117 7.966666666666667 ['8', '27', '21'] 398.3333333333329
118 7.966666666666667 ['8', '27', '21'] 398.3333333333329
119 7.966666666666667 ['8', '27', '21'] 398.3333333333329
120 7.966666666666667 ['8', '27', '21'] 398.3333333333329
121 7.966666666666667 ['8', '27', '21'] 398.3333333333329
122 7.966666666666667 ['8', '27', '21'] 398.3333333333329
123 7.966666666666667 ['8', '27', '21'] 398.3333333333329
124 7.966666666666667 ['8', '27', '21'] 398.3333333333329
125 7.966666666666667 ['8', '27', '21'] 398.3333333333329
126 7.966666666666667 ['8', '27', '21'] 398.3333333333329
127 7.966666666666667 ['8', '27', '21'] 398.3333333333329
128 7.966666666666667 ['8', '27', '21'] 398.3333333333329
129 7.966666666666667 ['8', '27', '21'] 398.3333333333329
130 7.966666666666667 ['8', '27', '21'] 398.3333333333329
131 7.966666666666667 ['8', '27', '21'] 398.3333333333329
132 7.966666666666667 ['8', '27', '21'] 398.3333333333329
133 7.966666666666667 ['8', '27', '21'] 398.3333333333329
134 7.966666666666667 ['8', '27', '21'] 398.3333333333329
135 7.966666666666667 ['8', '27', '21'] 398.3333333333329
136 7.966666666666667 ['8', '27', '21'] 398.3333333333329
137 7.966666666666667 ['8', '27', '21'] 398.3333333333329
138 7.966666666666667 ['8', '27', '21'] 398.3333333333329
139 7.966666666666667 ['8', '27', '21'] 398.3333333333329
140 7.966666666666667 ['8', '27', '21'] 398.3333333333329
141 7.966666666666667 ['8', '27', '21'] 398.3333333333329
142 7.966666666666667 ['8', '27', '21'] 398.3333333333329
143 7.966666666666667 ['8', '27', '21'] 398.3333333333329
144 7.966666666666667 ['8', '27', '21'] 398.3333333333329
145 7.966666666666667 ['8', '27', '21'] 398.3333333333329
146 7.966666666666667 ['8', '27', '21'] 398.3333333333329
147 7.966666666666667 ['8', '27', '21'] 398.3333333333329
148 7.966666666666667 ['8', '27', '21'] 398.3333333333329
149 7.966666666666667 ['8', '27', '21'] 398.3333333333329
150 7.966666666666667 ['8', '27', '21'] 398.3333333333329
151 7.966666666666667 ['8', '27', '21'] 398.3333333333329
152 7.966666666666667 ['8', '27', '21'] 398.3333333333329
153 7.966666666666667 ['8', '27', '21'] 398.3333333333329
154 7.966666666666667 ['8', '27', '21'] 398.3333333333329
155 7.966666666666667 ['8', '27', '21'] 398.3333333333329
156 7.966666666666667 ['8', '27', '21'] 398.3333333333329
157 7.966666666666667 ['8', '27', '21'] 398.3333333333329
158 7.966666666666667 ['8', '27', '21'] 398.3333333333329
159 7.966666666666667 ['8', '27', '21'] 398.3333333333329
160 7.966666666666667 ['8', '27', '21'] 398.3333333333329
161 7.966666666666667 ['8', '27', '21'] 398.3333333333329
162 7.966666666666667 ['8', '27', '21'] 398.3333333333329
163 7.966666666666667 ['8', '27', '21'] 398.3333333333329
164 7.966666666666667 ['8', '27', '21'] 398.3333333333329
165 7.966666666666667 ['8', '27', '21'] 398.3333333333329
166 7.966666666666667 ['8', '27', '21'] 398.3333333333329
167 7.966666666666667 ['8', '27', '21'] 398.3333333333329
168 7.966666666666667 ['8', '27', '21'] 398.3333333333329
169 7.966666666666667 ['8', '27', '21'] 398.3333333333329
170 7.966666666666667 ['8', '27', '21'] 398.3333333333329
171 7.966666666666667 ['8', '27', '21'] 398.3333333333329
172 7.966666666666667 ['8', '27', '21'] 398.3333333333329
173 7.966666666666667 ['8', '27', '21'] 398.3333333333329
174 7.966666666666667 ['8', '27', '21'] 398.3333333333329
175 7.966666666666667 ['8', '27', '21'] 398.3333333333329
176 7.966666666666667 ['8', '27', '21'] 398.3333333333329
177 7.966666666666667 ['8', '27', '21'] 398.3333333333329
178 7.966666666666667 ['8', '27', '21'] 398.3333333333329
179 7.966666666666667 ['8', '27', '21'] 398.3333333333329
180 7.966666666666667 ['8', '27', '21'] 398.3333333333329
181 7.966666666666667 ['8', '27', '21'] 398.3333333333329
182 7.966666666666667 ['8', '27', '21'] 398.3333333333329
183 7.966666666666667 ['8', '27', '21'] 398.3333333333329
184 7.966666666666667 ['8', '27', '21'] 398.3333333333329
185 7.966666666666667 ['8', '27', '21'] 398.3333333333329
186 7.966666666666667 ['8', '27', '21'] 398.3333333333329
187 7.966666666666667 ['8', '27', '21'] 398.3333333333329
188 7.966666666666667 ['8', '27', '21'] 398.3333333333329
189 7.966666666666667 ['8', '27', '21'] 398.3333333333329
190 7.966666666666667 ['8', '27', '21'] 398.3333333333329
191 7.966666666666667 ['8', '27', '21'] 398.3333333333329
192 7.966666666666667 ['8', '27', '21'] 398.3333333333329
193 7.966666666666667 ['8', '27', '21'] 398.3333333333329
194 7.966666666666667 ['8', '27', '21'] 398.3333333333329
195 7.966666666666667 ['8', '27', '21'] 398.3333333333329
196 7.966666666666667 ['8', '27', '21'] 398.3333333333329
197 7.966666666666667 ['8', '27', '21'] 398.3333333333329
198 7.966666666666667 ['8', '27', '21'] 398.3333333333329
199 7.966666666666667 ['8', '27', '21'] 398.3333333333329
