0 5.388395061728398 ['73', '112', '63', '140', '130', '148', '117', '48', '1', '9', '102', '103', '142', '79', '126'] 273.0206172839506
1 5.37024691358025 ['100', '90', '140', '63', '125', '31', '112', '75', '58', '67', '80', '139', '38', '76', '62'] 272.0033333333335
2 5.348641975308644 ['150', '107', '146', '123', '91', '4', '67', '144', '14', '130', '117', '36', '87', '126', '3'] 271.1235802469137
3 5.348641975308644 ['150', '107', '146', '123', '91', '4', '67', '144', '14', '130', '117', '36', '87', '126', '3'] 270.4730864197532
4 5.346419753086423 ['130', '27', '150', '67', '41', '5', '144', '123', '142', '57', '78', '46', '107', '146', '115'] 269.621851851852
5 5.321481481481484 ['150', '123', '144', '78', '146', '126', '101', '130', '4', '117', '3', '120', '87', '91', '135'] 268.90222222222235
6 5.316419753086422 ['150', '112', '144', '46', '142', '57', '146', '67', '120', '31', '148', '63', '56', '58', '128'] 268.2714814814816
7 5.297530864197531 ['130', '67', '150', '27', '128', '78', '57', '125', '146', '86', '3', '46', '144', '76', '124'] 267.7806172839506
8 5.295555555555557 ['27', '128', '67', '144', '57', '150', '130', '76', '86', '146', '46', '117', '125', '78', '123'] 266.94617283950635
9 5.282222222222223 ['144', '67', '123', '57', '146', '150', '117', '130', '27', '46', '86', '87', '78', '125', '128'] 266.018888888889
10 5.240493827160501 ['144', '146', '67', '5', '142', '150', '38', '124', '115', '83', '138', '128', '86', '70', '140'] 265.33111111111117
11 5.196172839506177 ['128', '146', '57', '144', '150', '46', '67', '87', '142', '125', '117', '124', '148', '56', '86'] 264.5530864197532
12 5.183456790123461 ['146', '67', '86', '57', '142', '124', '46', '144', '148', '150', '56', '27', '117', '102', '128'] 263.415925925926
13 5.183456790123461 ['146', '67', '86', '57', '142', '124', '46', '144', '148', '150', '56', '27', '117', '102', '128'] 262.38777777777784
14 5.183456790123461 ['146', '67', '86', '57', '142', '124', '46', '144', '148', '150', '56', '27', '117', '102', '128'] 261.3934567901236
15 5.175802469135807 ['142', '124', '67', '144', '86', '57', '46', '146', '150', '128', '117', '148', '56', '130', '31'] 260.33987654321004
16 5.175802469135807 ['142', '124', '67', '144', '86', '57', '46', '146', '150', '128', '117', '148', '56', '130', '31'] 259.8308641975311
17 5.168148148148152 ['146', '142', '57', '144', '124', '128', '46', '67', '150', '117', '86', '130', '56', '148', '78'] 259.4604938271607
18 5.168148148148152 ['146', '142', '57', '144', '124', '128', '46', '67', '150', '117', '86', '130', '56', '148', '78'] 259.1761728395063
19 5.168148148148152 ['146', '142', '57', '144', '124', '128', '46', '67', '150', '117', '86', '130', '56', '148', '78'] 258.8917283950618
20 5.157901234567906 ['56', '150', '124', '57', '46', '67', '86', '144', '146', '148', '117', '142', '128', '130', '140'] 258.6616049382719
21 5.153333333333336 ['46', '146', '86', '124', '57', '148', '130', '140', '67', '144', '150', '142', '128', '78', '117'] 258.43604938271625
22 5.153333333333336 ['46', '146', '86', '124', '57', '148', '130', '140', '67', '144', '150', '142', '128', '78', '117'] 258.2222222222225
23 5.1508641975308675 ['102', '150', '128', '142', '117', '57', '130', '86', '124', '148', '67', '46', '146', '78', '56'] 258.0403703703707
24 5.1508641975308675 ['102', '150', '128', '142', '117', '57', '130', '86', '124', '148', '67', '46', '146', '78', '56'] 257.840987654321
25 5.1508641975308675 ['102', '150', '128', '142', '117', '57', '130', '86', '124', '148', '67', '46', '146', '78', '56'] 257.7334567901235
26 5.1508641975308675 ['102', '150', '128', '142', '117', '57', '130', '86', '124', '148', '67', '46', '146', '78', '56'] 257.62271604938275
27 5.1508641975308675 ['102', '150', '128', '142', '117', '57', '130', '86', '124', '148', '67', '46', '146', '78', '56'] 257.59197530864185
28 5.1508641975308675 ['102', '150', '128', '142', '117', '57', '130', '86', '124', '148', '67', '46', '146', '78', '56'] 257.5846913580246
29 5.1508641975308675 ['102', '150', '128', '142', '117', '57', '130', '86', '124', '148', '67', '46', '146', '78', '56'] 257.582098765432
30 5.1508641975308675 ['102', '150', '128', '142', '117', '57', '130', '86', '124', '148', '67', '46', '146', '78', '56'] 257.582098765432
31 5.1508641975308675 ['102', '150', '128', '142', '117', '57', '130', '86', '124', '148', '67', '46', '146', '78', '56'] 257.58037037037025
32 5.1508641975308675 ['102', '150', '128', '142', '117', '57', '130', '86', '124', '148', '67', '46', '146', '78', '56'] 257.5769135802468
33 5.1508641975308675 ['102', '150', '128', '142', '117', '57', '130', '86', '124', '148', '67', '46', '146', '78', '56'] 257.5725925925925
34 5.1508641975308675 ['102', '150', '128', '142', '117', '57', '130', '86', '124', '148', '67', '46', '146', '78', '56'] 257.5648148148148
35 5.1508641975308675 ['102', '150', '128', '142', '117', '57', '130', '86', '124', '148', '67', '46', '146', '78', '56'] 257.54666666666674
36 5.1508641975308675 ['102', '150', '128', '142', '117', '57', '130', '86', '124', '148', '67', '46', '146', '78', '56'] 257.5432098765433
37 5.1508641975308675 ['102', '150', '128', '142', '117', '57', '130', '86', '124', '148', '67', '46', '146', '78', '56'] 257.5432098765433
38 5.1508641975308675 ['102', '150', '128', '142', '117', '57', '130', '86', '124', '148', '67', '46', '146', '78', '56'] 257.5432098765433
39 5.1508641975308675 ['102', '150', '128', '142', '117', '57', '130', '86', '124', '148', '67', '46', '146', '78', '56'] 257.5432098765433
40 5.1508641975308675 ['102', '150', '128', '142', '117', '57', '130', '86', '124', '148', '67', '46', '146', '78', '56'] 257.5432098765433
41 5.1508641975308675 ['102', '150', '128', '142', '117', '57', '130', '86', '124', '148', '67', '46', '146', '78', '56'] 257.5432098765433
42 5.1508641975308675 ['102', '150', '128', '142', '117', '57', '130', '86', '124', '148', '67', '46', '146', '78', '56'] 257.5432098765433
43 5.1508641975308675 ['102', '150', '128', '142', '117', '57', '130', '86', '124', '148', '67', '46', '146', '78', '56'] 257.5432098765433
44 5.1508641975308675 ['102', '150', '128', '142', '117', '57', '130', '86', '124', '148', '67', '46', '146', '78', '56'] 257.5432098765433
45 5.1508641975308675 ['102', '150', '128', '142', '117', '57', '130', '86', '124', '148', '67', '46', '146', '78', '56'] 257.5432098765433
46 5.1508641975308675 ['102', '150', '128', '142', '117', '57', '130', '86', '124', '148', '67', '46', '146', '78', '56'] 257.5432098765433
47 5.1508641975308675 ['102', '150', '128', '142', '117', '57', '130', '86', '124', '148', '67', '46', '146', '78', '56'] 257.5432098765433
48 5.1508641975308675 ['102', '150', '128', '142', '117', '57', '130', '86', '124', '148', '67', '46', '146', '78', '56'] 257.5432098765433
49 5.1508641975308675 ['102', '150', '128', '142', '117', '57', '130', '86', '124', '148', '67', '46', '146', '78', '56'] 257.5432098765433
50 5.1508641975308675 ['102', '150', '128', '142', '117', '57', '130', '86', '124', '148', '67', '46', '146', '78', '56'] 257.5432098765433
51 5.1508641975308675 ['102', '150', '128', '142', '117', '57', '130', '86', '124', '148', '67', '46', '146', '78', '56'] 257.5432098765433
52 5.1508641975308675 ['102', '150', '128', '142', '117', '57', '130', '86', '124', '148', '67', '46', '146', '78', '56'] 257.5432098765433
53 5.1508641975308675 ['102', '150', '128', '142', '117', '57', '130', '86', '124', '148', '67', '46', '146', '78', '56'] 257.5432098765433
54 5.1508641975308675 ['102', '150', '128', '142', '117', '57', '130', '86', '124', '148', '67', '46', '146', '78', '56'] 257.5432098765433
55 5.1508641975308675 ['102', '150', '128', '142', '117', '57', '130', '86', '124', '148', '67', '46', '146', '78', '56'] 257.5432098765433
56 5.1508641975308675 ['102', '150', '128', '142', '117', '57', '130', '86', '124', '148', '67', '46', '146', '78', '56'] 257.5432098765433
57 5.1508641975308675 ['102', '150', '128', '142', '117', '57', '130', '86', '124', '148', '67', '46', '146', '78', '56'] 257.5432098765433
58 5.1508641975308675 ['102', '150', '128', '142', '117', '57', '130', '86', '124', '148', '67', '46', '146', '78', '56'] 257.5432098765433
59 5.1508641975308675 ['102', '150', '128', '142', '117', '57', '130', '86', '124', '148', '67', '46', '146', '78', '56'] 257.5432098765433
60 5.1508641975308675 ['102', '150', '128', '142', '117', '57', '130', '86', '124', '148', '67', '46', '146', '78', '56'] 257.5432098765433
61 5.1508641975308675 ['102', '150', '128', '142', '117', '57', '130', '86', '124', '148', '67', '46', '146', '78', '56'] 257.5432098765433
62 5.1508641975308675 ['102', '150', '128', '142', '117', '57', '130', '86', '124', '148', '67', '46', '146', '78', '56'] 257.5432098765433
63 5.1508641975308675 ['102', '150', '128', '142', '117', '57', '130', '86', '124', '148', '67', '46', '146', '78', '56'] 257.5432098765433
64 5.1508641975308675 ['102', '150', '128', '142', '117', '57', '130', '86', '124', '148', '67', '46', '146', '78', '56'] 257.5432098765433
65 5.1508641975308675 ['102', '150', '128', '142', '117', '57', '130', '86', '124', '148', '67', '46', '146', '78', '56'] 257.5432098765433
66 5.1508641975308675 ['102', '150', '128', '142', '117', '57', '130', '86', '124', '148', '67', '46', '146', '78', '56'] 257.5432098765433
67 5.1508641975308675 ['102', '150', '128', '142', '117', '57', '130', '86', '124', '148', '67', '46', '146', '78', '56'] 257.5432098765433
68 5.1508641975308675 ['102', '150', '128', '142', '117', '57', '130', '86', '124', '148', '67', '46', '146', '78', '56'] 257.5432098765433
69 5.1508641975308675 ['102', '150', '128', '142', '117', '57', '130', '86', '124', '148', '67', '46', '146', '78', '56'] 257.5432098765433
70 5.1508641975308675 ['102', '150', '128', '142', '117', '57', '130', '86', '124', '148', '67', '46', '146', '78', '56'] 257.5432098765433
71 5.1508641975308675 ['102', '150', '128', '142', '117', '57', '130', '86', '124', '148', '67', '46', '146', '78', '56'] 257.5432098765433
72 5.1508641975308675 ['102', '150', '128', '142', '117', '57', '130', '86', '124', '148', '67', '46', '146', '78', '56'] 257.5432098765433
73 5.1508641975308675 ['102', '150', '128', '142', '117', '57', '130', '86', '124', '148', '67', '46', '146', '78', '56'] 257.5432098765433
74 5.1508641975308675 ['102', '150', '128', '142', '117', '57', '130', '86', '124', '148', '67', '46', '146', '78', '56'] 257.5432098765433
75 5.1508641975308675 ['102', '150', '128', '142', '117', '57', '130', '86', '124', '148', '67', '46', '146', '78', '56'] 257.5432098765433
76 5.1508641975308675 ['102', '150', '128', '142', '117', '57', '130', '86', '124', '148', '67', '46', '146', '78', '56'] 257.5432098765433
77 5.1508641975308675 ['102', '150', '128', '142', '117', '57', '130', '86', '124', '148', '67', '46', '146', '78', '56'] 257.5432098765433
78 5.1508641975308675 ['102', '150', '128', '142', '117', '57', '130', '86', '124', '148', '67', '46', '146', '78', '56'] 257.5432098765433
79 5.1508641975308675 ['102', '150', '128', '142', '117', '57', '130', '86', '124', '148', '67', '46', '146', '78', '56'] 257.5432098765433
80 5.1508641975308675 ['102', '150', '128', '142', '117', '57', '130', '86', '124', '148', '67', '46', '146', '78', '56'] 257.5432098765433
81 5.1508641975308675 ['102', '150', '128', '142', '117', '57', '130', '86', '124', '148', '67', '46', '146', '78', '56'] 257.5432098765433
82 5.1508641975308675 ['102', '150', '128', '142', '117', '57', '130', '86', '124', '148', '67', '46', '146', '78', '56'] 257.5432098765433
83 5.1508641975308675 ['102', '150', '128', '142', '117', '57', '130', '86', '124', '148', '67', '46', '146', '78', '56'] 257.5432098765433
84 5.1508641975308675 ['102', '150', '128', '142', '117', '57', '130', '86', '124', '148', '67', '46', '146', '78', '56'] 257.5432098765433
85 5.1508641975308675 ['102', '150', '128', '142', '117', '57', '130', '86', '124', '148', '67', '46', '146', '78', '56'] 257.5432098765433
86 5.1508641975308675 ['102', '150', '128', '142', '117', '57', '130', '86', '124', '148', '67', '46', '146', '78', '56'] 257.5432098765433
87 5.1508641975308675 ['102', '150', '128', '142', '117', '57', '130', '86', '124', '148', '67', '46', '146', '78', '56'] 257.5432098765433
88 5.1508641975308675 ['102', '150', '128', '142', '117', '57', '130', '86', '124', '148', '67', '46', '146', '78', '56'] 257.5432098765433
89 5.1508641975308675 ['102', '150', '128', '142', '117', '57', '130', '86', '124', '148', '67', '46', '146', '78', '56'] 257.5432098765433
90 5.1508641975308675 ['102', '150', '128', '142', '117', '57', '130', '86', '124', '148', '67', '46', '146', '78', '56'] 257.5432098765433
91 5.1508641975308675 ['102', '150', '128', '142', '117', '57', '130', '86', '124', '148', '67', '46', '146', '78', '56'] 257.5432098765433
92 5.1508641975308675 ['102', '150', '128', '142', '117', '57', '130', '86', '124', '148', '67', '46', '146', '78', '56'] 257.5432098765433
93 5.1508641975308675 ['102', '150', '128', '142', '117', '57', '130', '86', '124', '148', '67', '46', '146', '78', '56'] 257.5432098765433
94 5.1508641975308675 ['102', '150', '128', '142', '117', '57', '130', '86', '124', '148', '67', '46', '146', '78', '56'] 257.5432098765433
95 5.1508641975308675 ['102', '150', '128', '142', '117', '57', '130', '86', '124', '148', '67', '46', '146', '78', '56'] 257.5432098765433
96 5.1508641975308675 ['102', '150', '128', '142', '117', '57', '130', '86', '124', '148', '67', '46', '146', '78', '56'] 257.5432098765433
97 5.1508641975308675 ['102', '150', '128', '142', '117', '57', '130', '86', '124', '148', '67', '46', '146', '78', '56'] 257.5432098765433
98 5.1508641975308675 ['102', '150', '128', '142', '117', '57', '130', '86', '124', '148', '67', '46', '146', '78', '56'] 257.5432098765433
99 5.1508641975308675 ['102', '150', '128', '142', '117', '57', '130', '86', '124', '148', '67', '46', '146', '78', '56'] 257.5432098765433
100 5.1508641975308675 ['102', '150', '128', '142', '117', '57', '130', '86', '124', '148', '67', '46', '146', '78', '56'] 257.5432098765433
101 5.1508641975308675 ['102', '150', '128', '142', '117', '57', '130', '86', '124', '148', '67', '46', '146', '78', '56'] 257.5432098765433
102 5.1508641975308675 ['102', '150', '128', '142', '117', '57', '130', '86', '124', '148', '67', '46', '146', '78', '56'] 257.5432098765433
103 5.1508641975308675 ['102', '150', '128', '142', '117', '57', '130', '86', '124', '148', '67', '46', '146', '78', '56'] 257.5432098765433
104 5.1508641975308675 ['102', '150', '128', '142', '117', '57', '130', '86', '124', '148', '67', '46', '146', '78', '56'] 257.5432098765433
105 5.1508641975308675 ['102', '150', '128', '142', '117', '57', '130', '86', '124', '148', '67', '46', '146', '78', '56'] 257.5432098765433
106 5.1508641975308675 ['102', '150', '128', '142', '117', '57', '130', '86', '124', '148', '67', '46', '146', '78', '56'] 257.5432098765433
107 5.1508641975308675 ['102', '150', '128', '142', '117', '57', '130', '86', '124', '148', '67', '46', '146', '78', '56'] 257.5432098765433
108 5.1508641975308675 ['102', '150', '128', '142', '117', '57', '130', '86', '124', '148', '67', '46', '146', '78', '56'] 257.5432098765433
109 5.1508641975308675 ['102', '150', '128', '142', '117', '57', '130', '86', '124', '148', '67', '46', '146', '78', '56'] 257.5432098765433
110 5.1508641975308675 ['102', '150', '128', '142', '117', '57', '130', '86', '124', '148', '67', '46', '146', '78', '56'] 257.5432098765433
111 5.1508641975308675 ['102', '150', '128', '142', '117', '57', '130', '86', '124', '148', '67', '46', '146', '78', '56'] 257.5432098765433
112 5.1508641975308675 ['102', '150', '128', '142', '117', '57', '130', '86', '124', '148', '67', '46', '146', '78', '56'] 257.5432098765433
113 5.1508641975308675 ['102', '150', '128', '142', '117', '57', '130', '86', '124', '148', '67', '46', '146', '78', '56'] 257.5432098765433
114 5.1508641975308675 ['102', '150', '128', '142', '117', '57', '130', '86', '124', '148', '67', '46', '146', '78', '56'] 257.5432098765433
115 5.1508641975308675 ['102', '150', '128', '142', '117', '57', '130', '86', '124', '148', '67', '46', '146', '78', '56'] 257.5432098765433
116 5.1508641975308675 ['102', '150', '128', '142', '117', '57', '130', '86', '124', '148', '67', '46', '146', '78', '56'] 257.5432098765433
117 5.1508641975308675 ['102', '150', '128', '142', '117', '57', '130', '86', '124', '148', '67', '46', '146', '78', '56'] 257.5432098765433
118 5.1508641975308675 ['102', '150', '128', '142', '117', '57', '130', '86', '124', '148', '67', '46', '146', '78', '56'] 257.5432098765433
119 5.1508641975308675 ['102', '150', '128', '142', '117', '57', '130', '86', '124', '148', '67', '46', '146', '78', '56'] 257.5432098765433
120 5.1508641975308675 ['102', '150', '128', '142', '117', '57', '130', '86', '124', '148', '67', '46', '146', '78', '56'] 257.5432098765433
121 5.1508641975308675 ['102', '150', '128', '142', '117', '57', '130', '86', '124', '148', '67', '46', '146', '78', '56'] 257.5432098765433
122 5.1508641975308675 ['102', '150', '128', '142', '117', '57', '130', '86', '124', '148', '67', '46', '146', '78', '56'] 257.5432098765433
123 5.1508641975308675 ['102', '150', '128', '142', '117', '57', '130', '86', '124', '148', '67', '46', '146', '78', '56'] 257.5432098765433
124 5.1508641975308675 ['102', '150', '128', '142', '117', '57', '130', '86', '124', '148', '67', '46', '146', '78', '56'] 257.5432098765433
125 5.1508641975308675 ['102', '150', '128', '142', '117', '57', '130', '86', '124', '148', '67', '46', '146', '78', '56'] 257.5432098765433
126 5.1508641975308675 ['102', '150', '128', '142', '117', '57', '130', '86', '124', '148', '67', '46', '146', '78', '56'] 257.5432098765433
127 5.1508641975308675 ['102', '150', '128', '142', '117', '57', '130', '86', '124', '148', '67', '46', '146', '78', '56'] 257.5432098765433
128 5.1508641975308675 ['102', '150', '128', '142', '117', '57', '130', '86', '124', '148', '67', '46', '146', '78', '56'] 257.5432098765433
129 5.1508641975308675 ['102', '150', '128', '142', '117', '57', '130', '86', '124', '148', '67', '46', '146', '78', '56'] 257.5432098765433
130 5.1508641975308675 ['102', '150', '128', '142', '117', '57', '130', '86', '124', '148', '67', '46', '146', '78', '56'] 257.5432098765433
131 5.1508641975308675 ['102', '150', '128', '142', '117', '57', '130', '86', '124', '148', '67', '46', '146', '78', '56'] 257.5432098765433
132 5.1508641975308675 ['102', '150', '128', '142', '117', '57', '130', '86', '124', '148', '67', '46', '146', '78', '56'] 257.5432098765433
133 5.1508641975308675 ['102', '150', '128', '142', '117', '57', '130', '86', '124', '148', '67', '46', '146', '78', '56'] 257.5432098765433
134 5.1508641975308675 ['102', '150', '128', '142', '117', '57', '130', '86', '124', '148', '67', '46', '146', '78', '56'] 257.5432098765433
135 5.1508641975308675 ['102', '150', '128', '142', '117', '57', '130', '86', '124', '148', '67', '46', '146', '78', '56'] 257.5432098765433
136 5.1508641975308675 ['102', '150', '128', '142', '117', '57', '130', '86', '124', '148', '67', '46', '146', '78', '56'] 257.5432098765433
137 5.1508641975308675 ['102', '150', '128', '142', '117', '57', '130', '86', '124', '148', '67', '46', '146', '78', '56'] 257.5432098765433
138 5.1508641975308675 ['102', '150', '128', '142', '117', '57', '130', '86', '124', '148', '67', '46', '146', '78', '56'] 257.5432098765433
139 5.1508641975308675 ['102', '150', '128', '142', '117', '57', '130', '86', '124', '148', '67', '46', '146', '78', '56'] 257.5432098765433
140 5.1508641975308675 ['102', '150', '128', '142', '117', '57', '130', '86', '124', '148', '67', '46', '146', '78', '56'] 257.5432098765433
141 5.1508641975308675 ['102', '150', '128', '142', '117', '57', '130', '86', '124', '148', '67', '46', '146', '78', '56'] 257.5432098765433
142 5.1508641975308675 ['102', '150', '128', '142', '117', '57', '130', '86', '124', '148', '67', '46', '146', '78', '56'] 257.5432098765433
143 5.1508641975308675 ['102', '150', '128', '142', '117', '57', '130', '86', '124', '148', '67', '46', '146', '78', '56'] 257.5432098765433
144 5.1508641975308675 ['102', '150', '128', '142', '117', '57', '130', '86', '124', '148', '67', '46', '146', '78', '56'] 257.5432098765433
145 5.1508641975308675 ['102', '150', '128', '142', '117', '57', '130', '86', '124', '148', '67', '46', '146', '78', '56'] 257.5432098765433
146 5.1508641975308675 ['102', '150', '128', '142', '117', '57', '130', '86', '124', '148', '67', '46', '146', '78', '56'] 257.5432098765433
147 5.1508641975308675 ['102', '150', '128', '142', '117', '57', '130', '86', '124', '148', '67', '46', '146', '78', '56'] 257.5432098765433
148 5.1508641975308675 ['102', '150', '128', '142', '117', '57', '130', '86', '124', '148', '67', '46', '146', '78', '56'] 257.5432098765433
149 5.1508641975308675 ['102', '150', '128', '142', '117', '57', '130', '86', '124', '148', '67', '46', '146', '78', '56'] 257.5432098765433
150 5.1508641975308675 ['102', '150', '128', '142', '117', '57', '130', '86', '124', '148', '67', '46', '146', '78', '56'] 257.5432098765433
151 5.1508641975308675 ['102', '150', '128', '142', '117', '57', '130', '86', '124', '148', '67', '46', '146', '78', '56'] 257.5432098765433
152 5.1508641975308675 ['102', '150', '128', '142', '117', '57', '130', '86', '124', '148', '67', '46', '146', '78', '56'] 257.5432098765433
153 5.1508641975308675 ['102', '150', '128', '142', '117', '57', '130', '86', '124', '148', '67', '46', '146', '78', '56'] 257.5432098765433
154 5.1508641975308675 ['102', '150', '128', '142', '117', '57', '130', '86', '124', '148', '67', '46', '146', '78', '56'] 257.5432098765433
155 5.1508641975308675 ['102', '150', '128', '142', '117', '57', '130', '86', '124', '148', '67', '46', '146', '78', '56'] 257.5432098765433
156 5.1508641975308675 ['102', '150', '128', '142', '117', '57', '130', '86', '124', '148', '67', '46', '146', '78', '56'] 257.5432098765433
157 5.1508641975308675 ['102', '150', '128', '142', '117', '57', '130', '86', '124', '148', '67', '46', '146', '78', '56'] 257.5432098765433
158 5.1508641975308675 ['102', '150', '128', '142', '117', '57', '130', '86', '124', '148', '67', '46', '146', '78', '56'] 257.5432098765433
159 5.1508641975308675 ['102', '150', '128', '142', '117', '57', '130', '86', '124', '148', '67', '46', '146', '78', '56'] 257.5432098765433
160 5.1508641975308675 ['102', '150', '128', '142', '117', '57', '130', '86', '124', '148', '67', '46', '146', '78', '56'] 257.5432098765433
161 5.1508641975308675 ['102', '150', '128', '142', '117', '57', '130', '86', '124', '148', '67', '46', '146', '78', '56'] 257.5432098765433
162 5.1508641975308675 ['102', '150', '128', '142', '117', '57', '130', '86', '124', '148', '67', '46', '146', '78', '56'] 257.5432098765433
163 5.1508641975308675 ['102', '150', '128', '142', '117', '57', '130', '86', '124', '148', '67', '46', '146', '78', '56'] 257.5432098765433
164 5.1508641975308675 ['102', '150', '128', '142', '117', '57', '130', '86', '124', '148', '67', '46', '146', '78', '56'] 257.5432098765433
165 5.1508641975308675 ['102', '150', '128', '142', '117', '57', '130', '86', '124', '148', '67', '46', '146', '78', '56'] 257.5432098765433
166 5.1508641975308675 ['102', '150', '128', '142', '117', '57', '130', '86', '124', '148', '67', '46', '146', '78', '56'] 257.5432098765433
167 5.1508641975308675 ['102', '150', '128', '142', '117', '57', '130', '86', '124', '148', '67', '46', '146', '78', '56'] 257.5432098765433
168 5.1508641975308675 ['102', '150', '128', '142', '117', '57', '130', '86', '124', '148', '67', '46', '146', '78', '56'] 257.5432098765433
169 5.1508641975308675 ['102', '150', '128', '142', '117', '57', '130', '86', '124', '148', '67', '46', '146', '78', '56'] 257.5432098765433
170 5.1508641975308675 ['102', '150', '128', '142', '117', '57', '130', '86', '124', '148', '67', '46', '146', '78', '56'] 257.5432098765433
171 5.1508641975308675 ['102', '150', '128', '142', '117', '57', '130', '86', '124', '148', '67', '46', '146', '78', '56'] 257.5432098765433
172 5.1508641975308675 ['102', '150', '128', '142', '117', '57', '130', '86', '124', '148', '67', '46', '146', '78', '56'] 257.5432098765433
173 5.1508641975308675 ['102', '150', '128', '142', '117', '57', '130', '86', '124', '148', '67', '46', '146', '78', '56'] 257.5432098765433
174 5.1508641975308675 ['102', '150', '128', '142', '117', '57', '130', '86', '124', '148', '67', '46', '146', '78', '56'] 257.5432098765433
175 5.1508641975308675 ['102', '150', '128', '142', '117', '57', '130', '86', '124', '148', '67', '46', '146', '78', '56'] 257.5432098765433
176 5.1508641975308675 ['102', '150', '128', '142', '117', '57', '130', '86', '124', '148', '67', '46', '146', '78', '56'] 257.5432098765433
177 5.1508641975308675 ['102', '150', '128', '142', '117', '57', '130', '86', '124', '148', '67', '46', '146', '78', '56'] 257.5432098765433
178 5.1508641975308675 ['102', '150', '128', '142', '117', '57', '130', '86', '124', '148', '67', '46', '146', '78', '56'] 257.5432098765433
179 5.1508641975308675 ['102', '150', '128', '142', '117', '57', '130', '86', '124', '148', '67', '46', '146', '78', '56'] 257.5432098765433
180 5.1508641975308675 ['102', '150', '128', '142', '117', '57', '130', '86', '124', '148', '67', '46', '146', '78', '56'] 257.5432098765433
181 5.1508641975308675 ['102', '150', '128', '142', '117', '57', '130', '86', '124', '148', '67', '46', '146', '78', '56'] 257.5432098765433
182 5.1508641975308675 ['102', '150', '128', '142', '117', '57', '130', '86', '124', '148', '67', '46', '146', '78', '56'] 257.5432098765433
183 5.1508641975308675 ['102', '150', '128', '142', '117', '57', '130', '86', '124', '148', '67', '46', '146', '78', '56'] 257.5432098765433
184 5.1508641975308675 ['102', '150', '128', '142', '117', '57', '130', '86', '124', '148', '67', '46', '146', '78', '56'] 257.5432098765433
185 5.1508641975308675 ['102', '150', '128', '142', '117', '57', '130', '86', '124', '148', '67', '46', '146', '78', '56'] 257.5432098765433
186 5.1508641975308675 ['102', '150', '128', '142', '117', '57', '130', '86', '124', '148', '67', '46', '146', '78', '56'] 257.5432098765433
187 5.1508641975308675 ['102', '150', '128', '142', '117', '57', '130', '86', '124', '148', '67', '46', '146', '78', '56'] 257.5432098765433
188 5.1508641975308675 ['102', '150', '128', '142', '117', '57', '130', '86', '124', '148', '67', '46', '146', '78', '56'] 257.5432098765433
189 5.1508641975308675 ['102', '150', '128', '142', '117', '57', '130', '86', '124', '148', '67', '46', '146', '78', '56'] 257.5432098765433
190 5.1508641975308675 ['102', '150', '128', '142', '117', '57', '130', '86', '124', '148', '67', '46', '146', '78', '56'] 257.5432098765433
191 5.1508641975308675 ['102', '150', '128', '142', '117', '57', '130', '86', '124', '148', '67', '46', '146', '78', '56'] 257.5432098765433
192 5.1508641975308675 ['102', '150', '128', '142', '117', '57', '130', '86', '124', '148', '67', '46', '146', '78', '56'] 257.5432098765433
193 5.1508641975308675 ['102', '150', '128', '142', '117', '57', '130', '86', '124', '148', '67', '46', '146', '78', '56'] 257.5432098765433
194 5.1508641975308675 ['102', '150', '128', '142', '117', '57', '130', '86', '124', '148', '67', '46', '146', '78', '56'] 257.5432098765433
195 5.1508641975308675 ['102', '150', '128', '142', '117', '57', '130', '86', '124', '148', '67', '46', '146', '78', '56'] 257.5432098765433
196 5.1508641975308675 ['102', '150', '128', '142', '117', '57', '130', '86', '124', '148', '67', '46', '146', '78', '56'] 257.5432098765433
197 5.1508641975308675 ['102', '150', '128', '142', '117', '57', '130', '86', '124', '148', '67', '46', '146', '78', '56'] 257.5432098765433
198 5.1508641975308675 ['102', '150', '128', '142', '117', '57', '130', '86', '124', '148', '67', '46', '146', '78', '56'] 257.5432098765433
199 5.1508641975308675 ['102', '150', '128', '142', '117', '57', '130', '86', '124', '148', '67', '46', '146', '78', '56'] 257.5432098765433
