0 30.875 ['2', '4'] 1698.458333333333
1 30.875 ['2', '4'] 1660.3333333333326
2 30.416666666666668 ['4', '13'] 1623.375000000001
3 30.416666666666668 ['4', '13'] 1585.7916666666667
4 30.416666666666668 ['4', '13'] 1549.5833333333344
5 30.416666666666668 ['4', '13'] 1539.666666666666
6 30.416666666666668 ['4', '13'] 1530.9166666666665
7 30.416666666666668 ['4', '13'] 1520.8333333333342
8 30.416666666666668 ['4', '13'] 1520.8333333333342
9 30.416666666666668 ['4', '13'] 1520.8333333333342
10 30.416666666666668 ['4', '13'] 1520.8333333333342
11 30.416666666666668 ['4', '13'] 1520.8333333333342
12 30.416666666666668 ['4', '13'] 1520.8333333333342
13 30.416666666666668 ['4', '13'] 1520.8333333333342
14 30.416666666666668 ['4', '13'] 1520.8333333333342
15 30.416666666666668 ['4', '13'] 1520.8333333333342
16 30.416666666666668 ['4', '13'] 1520.8333333333342
17 30.416666666666668 ['4', '13'] 1520.8333333333342
18 30.416666666666668 ['4', '13'] 1520.8333333333342
19 30.416666666666668 ['4', '13'] 1520.8333333333342
20 30.416666666666668 ['4', '13'] 1520.8333333333342
21 30.416666666666668 ['4', '13'] 1520.8333333333342
22 30.416666666666668 ['4', '13'] 1520.8333333333342
23 30.416666666666668 ['4', '13'] 1520.8333333333342
24 30.416666666666668 ['4', '13'] 1520.8333333333342
25 30.416666666666668 ['4', '13'] 1520.8333333333342
26 30.416666666666668 ['4', '13'] 1520.8333333333342
27 30.416666666666668 ['4', '13'] 1520.8333333333342
28 30.416666666666668 ['4', '13'] 1520.8333333333342
29 30.416666666666668 ['4', '13'] 1520.8333333333342
30 30.416666666666668 ['4', '13'] 1520.8333333333342
31 30.416666666666668 ['4', '13'] 1520.8333333333342
32 30.416666666666668 ['4', '13'] 1520.8333333333342
33 30.416666666666668 ['4', '13'] 1520.8333333333342
34 30.416666666666668 ['4', '13'] 1520.8333333333342
35 30.416666666666668 ['4', '13'] 1520.8333333333342
36 30.416666666666668 ['4', '13'] 1520.8333333333342
37 30.416666666666668 ['4', '13'] 1520.8333333333342
38 30.416666666666668 ['4', '13'] 1520.8333333333342
39 30.416666666666668 ['4', '13'] 1520.8333333333342
40 30.416666666666668 ['4', '13'] 1520.8333333333342
41 30.416666666666668 ['4', '13'] 1520.8333333333342
42 30.416666666666668 ['4', '13'] 1520.8333333333342
43 30.416666666666668 ['4', '13'] 1520.8333333333342
44 30.416666666666668 ['4', '13'] 1520.8333333333342
45 30.416666666666668 ['4', '13'] 1520.8333333333342
46 30.416666666666668 ['4', '13'] 1520.8333333333342
47 30.416666666666668 ['4', '13'] 1520.8333333333342
48 30.416666666666668 ['4', '13'] 1520.8333333333342
49 30.416666666666668 ['4', '13'] 1520.8333333333342
50 30.416666666666668 ['4', '13'] 1520.8333333333342
51 30.416666666666668 ['4', '13'] 1520.8333333333342
52 30.416666666666668 ['4', '13'] 1520.8333333333342
53 30.416666666666668 ['4', '13'] 1520.8333333333342
54 30.416666666666668 ['4', '13'] 1520.8333333333342
55 30.416666666666668 ['4', '13'] 1520.8333333333342
56 30.416666666666668 ['4', '13'] 1520.8333333333342
57 30.416666666666668 ['4', '13'] 1520.8333333333342
58 30.416666666666668 ['4', '13'] 1520.8333333333342
59 30.416666666666668 ['4', '13'] 1520.8333333333342
60 30.416666666666668 ['4', '13'] 1520.8333333333342
61 30.416666666666668 ['4', '13'] 1520.8333333333342
62 30.416666666666668 ['4', '13'] 1520.8333333333342
63 30.416666666666668 ['4', '13'] 1520.8333333333342
64 30.416666666666668 ['4', '13'] 1520.8333333333342
65 30.416666666666668 ['4', '13'] 1520.8333333333342
66 30.416666666666668 ['4', '13'] 1520.8333333333342
67 30.416666666666668 ['4', '13'] 1520.8333333333342
68 30.416666666666668 ['4', '13'] 1520.8333333333342
69 30.416666666666668 ['4', '13'] 1520.8333333333342
70 30.416666666666668 ['4', '13'] 1520.8333333333342
71 30.416666666666668 ['4', '13'] 1520.8333333333342
72 30.416666666666668 ['4', '13'] 1520.8333333333342
73 30.416666666666668 ['4', '13'] 1520.8333333333342
74 30.416666666666668 ['4', '13'] 1520.8333333333342
75 30.416666666666668 ['4', '13'] 1520.8333333333342
76 30.416666666666668 ['4', '13'] 1520.8333333333342
77 30.416666666666668 ['4', '13'] 1520.8333333333342
78 30.416666666666668 ['4', '13'] 1520.8333333333342
79 30.416666666666668 ['4', '13'] 1520.8333333333342
80 30.416666666666668 ['4', '13'] 1520.8333333333342
81 30.416666666666668 ['4', '13'] 1520.8333333333342
82 30.416666666666668 ['4', '13'] 1520.8333333333342
83 30.416666666666668 ['4', '13'] 1520.8333333333342
84 30.416666666666668 ['4', '13'] 1520.8333333333342
85 30.416666666666668 ['4', '13'] 1520.8333333333342
86 30.416666666666668 ['4', '13'] 1520.8333333333342
87 30.416666666666668 ['4', '13'] 1520.8333333333342
88 30.416666666666668 ['4', '13'] 1520.8333333333342
89 30.416666666666668 ['4', '13'] 1520.8333333333342
90 30.416666666666668 ['4', '13'] 1520.8333333333342
91 30.416666666666668 ['4', '13'] 1520.8333333333342
92 30.416666666666668 ['4', '13'] 1520.8333333333342
93 30.416666666666668 ['4', '13'] 1520.8333333333342
94 30.416666666666668 ['4', '13'] 1520.8333333333342
95 30.416666666666668 ['4', '13'] 1520.8333333333342
96 30.416666666666668 ['4', '13'] 1520.8333333333342
97 30.416666666666668 ['4', '13'] 1520.8333333333342
98 30.416666666666668 ['4', '13'] 1520.8333333333342
99 30.416666666666668 ['4', '13'] 1520.8333333333342
100 30.416666666666668 ['4', '13'] 1520.8333333333342
101 30.416666666666668 ['4', '13'] 1520.8333333333342
102 30.416666666666668 ['4', '13'] 1520.8333333333342
103 30.416666666666668 ['4', '13'] 1520.8333333333342
104 30.416666666666668 ['4', '13'] 1520.8333333333342
105 30.416666666666668 ['4', '13'] 1520.8333333333342
106 30.416666666666668 ['4', '13'] 1520.8333333333342
107 30.416666666666668 ['4', '13'] 1520.8333333333342
108 30.416666666666668 ['4', '13'] 1520.8333333333342
109 30.416666666666668 ['4', '13'] 1520.8333333333342
110 30.416666666666668 ['4', '13'] 1520.8333333333342
111 30.416666666666668 ['4', '13'] 1520.8333333333342
112 30.416666666666668 ['4', '13'] 1520.8333333333342
113 30.416666666666668 ['4', '13'] 1520.8333333333342
114 30.416666666666668 ['4', '13'] 1520.8333333333342
115 30.416666666666668 ['4', '13'] 1520.8333333333342
116 30.416666666666668 ['4', '13'] 1520.8333333333342
117 30.416666666666668 ['4', '13'] 1520.8333333333342
118 30.416666666666668 ['4', '13'] 1520.8333333333342
119 30.416666666666668 ['4', '13'] 1520.8333333333342
120 30.416666666666668 ['4', '13'] 1520.8333333333342
121 30.416666666666668 ['4', '13'] 1520.8333333333342
122 30.416666666666668 ['4', '13'] 1520.8333333333342
123 30.416666666666668 ['4', '13'] 1520.8333333333342
124 30.416666666666668 ['4', '13'] 1520.8333333333342
125 30.416666666666668 ['4', '13'] 1520.8333333333342
126 30.416666666666668 ['4', '13'] 1520.8333333333342
127 30.416666666666668 ['4', '13'] 1520.8333333333342
128 30.416666666666668 ['4', '13'] 1520.8333333333342
129 30.416666666666668 ['4', '13'] 1520.8333333333342
130 30.416666666666668 ['4', '13'] 1520.8333333333342
131 30.416666666666668 ['4', '13'] 1520.8333333333342
132 30.416666666666668 ['4', '13'] 1520.8333333333342
133 30.416666666666668 ['4', '13'] 1520.8333333333342
134 30.416666666666668 ['4', '13'] 1520.8333333333342
135 30.416666666666668 ['4', '13'] 1520.8333333333342
136 30.416666666666668 ['4', '13'] 1520.8333333333342
137 30.416666666666668 ['4', '13'] 1520.8333333333342
138 30.416666666666668 ['4', '13'] 1520.8333333333342
139 30.416666666666668 ['4', '13'] 1520.8333333333342
140 30.416666666666668 ['4', '13'] 1520.8333333333342
141 30.416666666666668 ['4', '13'] 1520.8333333333342
142 30.416666666666668 ['4', '13'] 1520.8333333333342
143 30.416666666666668 ['4', '13'] 1520.8333333333342
144 30.416666666666668 ['4', '13'] 1520.8333333333342
145 30.416666666666668 ['4', '13'] 1520.8333333333342
146 30.416666666666668 ['4', '13'] 1520.8333333333342
147 30.416666666666668 ['4', '13'] 1520.8333333333342
148 30.416666666666668 ['4', '13'] 1520.8333333333342
149 30.416666666666668 ['4', '13'] 1520.8333333333342
150 30.416666666666668 ['4', '13'] 1520.8333333333342
151 30.416666666666668 ['4', '13'] 1520.8333333333342
152 30.416666666666668 ['4', '13'] 1520.8333333333342
153 30.416666666666668 ['4', '13'] 1520.8333333333342
154 30.416666666666668 ['4', '13'] 1520.8333333333342
155 30.416666666666668 ['4', '13'] 1520.8333333333342
156 30.416666666666668 ['4', '13'] 1520.8333333333342
157 30.416666666666668 ['4', '13'] 1520.8333333333342
158 30.416666666666668 ['4', '13'] 1520.8333333333342
159 30.416666666666668 ['4', '13'] 1520.8333333333342
160 30.416666666666668 ['4', '13'] 1520.8333333333342
161 30.416666666666668 ['4', '13'] 1520.8333333333342
162 30.416666666666668 ['4', '13'] 1520.8333333333342
163 30.416666666666668 ['4', '13'] 1520.8333333333342
164 30.416666666666668 ['4', '13'] 1520.8333333333342
165 30.416666666666668 ['4', '13'] 1520.8333333333342
166 30.416666666666668 ['4', '13'] 1520.8333333333342
167 30.416666666666668 ['4', '13'] 1520.8333333333342
168 30.416666666666668 ['4', '13'] 1520.8333333333342
169 30.416666666666668 ['4', '13'] 1520.8333333333342
170 30.416666666666668 ['4', '13'] 1520.8333333333342
171 30.416666666666668 ['4', '13'] 1520.8333333333342
172 30.416666666666668 ['4', '13'] 1520.8333333333342
173 30.416666666666668 ['4', '13'] 1520.8333333333342
174 30.416666666666668 ['4', '13'] 1520.8333333333342
175 30.416666666666668 ['4', '13'] 1520.8333333333342
176 30.416666666666668 ['4', '13'] 1520.8333333333342
177 30.416666666666668 ['4', '13'] 1520.8333333333342
178 30.416666666666668 ['4', '13'] 1520.8333333333342
179 30.416666666666668 ['4', '13'] 1520.8333333333342
180 30.416666666666668 ['4', '13'] 1520.8333333333342
181 30.416666666666668 ['4', '13'] 1520.8333333333342
182 30.416666666666668 ['4', '13'] 1520.8333333333342
183 30.416666666666668 ['4', '13'] 1520.8333333333342
184 30.416666666666668 ['4', '13'] 1520.8333333333342
185 30.416666666666668 ['4', '13'] 1520.8333333333342
186 30.416666666666668 ['4', '13'] 1520.8333333333342
187 30.416666666666668 ['4', '13'] 1520.8333333333342
188 30.416666666666668 ['4', '13'] 1520.8333333333342
189 30.416666666666668 ['4', '13'] 1520.8333333333342
190 30.416666666666668 ['4', '13'] 1520.8333333333342
191 30.416666666666668 ['4', '13'] 1520.8333333333342
192 30.416666666666668 ['4', '13'] 1520.8333333333342
193 30.416666666666668 ['4', '13'] 1520.8333333333342
194 30.416666666666668 ['4', '13'] 1520.8333333333342
195 30.416666666666668 ['4', '13'] 1520.8333333333342
196 30.416666666666668 ['4', '13'] 1520.8333333333342
197 30.416666666666668 ['4', '13'] 1520.8333333333342
198 30.416666666666668 ['4', '13'] 1520.8333333333342
199 30.416666666666668 ['4', '13'] 1520.8333333333342
