0 7.8 ['21', '5', '34', '31'] 466.49999999999994
1 7.8 ['21', '5', '34', '31'] 442.9
2 7.5 ['31', '21', '14', '34'] 423.7999999999999
3 7.2 ['34', '19', '31', '5'] 407.99999999999983
4 7.2 ['34', '19', '31', '5'] 394.1000000000003
5 7.1 ['31', '34', '19', '21'] 382.59999999999974
6 7.1 ['31', '34', '19', '21'] 372.00000000000006
7 7.1 ['31', '34', '19', '21'] 361.5999999999997
8 7.1 ['31', '34', '19', '21'] 358.2999999999996
9 7.1 ['31', '34', '19', '21'] 356.4999999999997
10 7.1 ['31', '34', '19', '21'] 355.00000000000017
11 7.1 ['31', '34', '19', '21'] 355.00000000000017
12 7.1 ['31', '34', '19', '21'] 355.00000000000017
13 7.1 ['31', '34', '19', '21'] 355.00000000000017
14 7.1 ['31', '34', '19', '21'] 355.00000000000017
15 7.1 ['31', '34', '19', '21'] 355.00000000000017
16 7.1 ['31', '34', '19', '21'] 355.00000000000017
17 7.1 ['31', '34', '19', '21'] 355.00000000000017
18 7.1 ['31', '34', '19', '21'] 355.00000000000017
19 7.1 ['31', '34', '19', '21'] 355.00000000000017
20 7.1 ['31', '34', '19', '21'] 355.00000000000017
21 7.1 ['31', '34', '19', '21'] 355.00000000000017
22 7.1 ['31', '34', '19', '21'] 355.00000000000017
23 7.1 ['31', '34', '19', '21'] 355.00000000000017
24 7.1 ['31', '34', '19', '21'] 355.00000000000017
25 7.1 ['31', '34', '19', '21'] 355.00000000000017
26 7.1 ['31', '34', '19', '21'] 355.00000000000017
27 7.1 ['31', '34', '19', '21'] 355.00000000000017
28 7.1 ['31', '34', '19', '21'] 355.00000000000017
29 7.1 ['31', '34', '19', '21'] 355.00000000000017
30 7.1 ['31', '34', '19', '21'] 355.00000000000017
31 7.1 ['31', '34', '19', '21'] 355.00000000000017
32 7.1 ['31', '34', '19', '21'] 355.00000000000017
33 7.1 ['31', '34', '19', '21'] 355.00000000000017
34 7.1 ['31', '34', '19', '21'] 355.00000000000017
35 7.1 ['31', '34', '19', '21'] 355.00000000000017
36 7.1 ['31', '34', '19', '21'] 355.00000000000017
37 7.1 ['31', '34', '19', '21'] 355.00000000000017
38 7.1 ['31', '34', '19', '21'] 355.00000000000017
39 7.1 ['31', '34', '19', '21'] 355.00000000000017
40 7.1 ['31', '34', '19', '21'] 355.00000000000017
41 7.1 ['31', '34', '19', '21'] 355.00000000000017
42 7.1 ['31', '34', '19', '21'] 355.00000000000017
43 7.1 ['31', '34', '19', '21'] 355.00000000000017
44 7.1 ['31', '34', '19', '21'] 355.00000000000017
45 7.1 ['31', '34', '19', '21'] 355.00000000000017
46 7.1 ['31', '34', '19', '21'] 355.00000000000017
47 7.1 ['31', '34', '19', '21'] 355.00000000000017
48 7.1 ['31', '34', '19', '21'] 355.00000000000017
49 7.1 ['31', '34', '19', '21'] 355.00000000000017
50 7.1 ['31', '34', '19', '21'] 355.00000000000017
51 7.1 ['31', '34', '19', '21'] 355.00000000000017
52 7.1 ['31', '34', '19', '21'] 355.00000000000017
53 7.1 ['31', '34', '19', '21'] 355.00000000000017
54 7.1 ['31', '34', '19', '21'] 355.00000000000017
55 7.1 ['31', '34', '19', '21'] 355.00000000000017
56 7.1 ['31', '34', '19', '21'] 355.00000000000017
57 7.1 ['31', '34', '19', '21'] 355.00000000000017
58 7.1 ['31', '34', '19', '21'] 355.00000000000017
59 7.1 ['31', '34', '19', '21'] 355.00000000000017
60 7.1 ['31', '34', '19', '21'] 355.00000000000017
61 7.1 ['31', '34', '19', '21'] 355.00000000000017
62 7.1 ['31', '34', '19', '21'] 355.00000000000017
63 7.1 ['31', '34', '19', '21'] 355.00000000000017
64 7.1 ['31', '34', '19', '21'] 355.00000000000017
65 7.1 ['31', '34', '19', '21'] 355.00000000000017
66 7.1 ['31', '34', '19', '21'] 355.00000000000017
67 7.1 ['31', '34', '19', '21'] 355.00000000000017
68 7.1 ['31', '34', '19', '21'] 355.00000000000017
69 7.1 ['31', '34', '19', '21'] 355.00000000000017
70 7.1 ['31', '34', '19', '21'] 355.00000000000017
71 7.1 ['31', '34', '19', '21'] 355.00000000000017
72 7.1 ['31', '34', '19', '21'] 355.00000000000017
73 7.1 ['31', '34', '19', '21'] 355.00000000000017
74 7.1 ['31', '34', '19', '21'] 355.00000000000017
75 7.1 ['31', '34', '19', '21'] 355.00000000000017
76 7.1 ['31', '34', '19', '21'] 355.00000000000017
77 7.1 ['31', '34', '19', '21'] 355.00000000000017
78 7.1 ['31', '34', '19', '21'] 355.00000000000017
79 7.1 ['31', '34', '19', '21'] 355.00000000000017
80 7.1 ['31', '34', '19', '21'] 355.00000000000017
81 7.1 ['31', '34', '19', '21'] 355.00000000000017
82 7.1 ['31', '34', '19', '21'] 355.00000000000017
83 7.1 ['31', '34', '19', '21'] 355.00000000000017
84 7.1 ['31', '34', '19', '21'] 355.00000000000017
85 7.1 ['31', '34', '19', '21'] 355.00000000000017
86 7.1 ['31', '34', '19', '21'] 355.00000000000017
87 7.1 ['31', '34', '19', '21'] 355.00000000000017
88 7.1 ['31', '34', '19', '21'] 355.00000000000017
89 7.1 ['31', '34', '19', '21'] 355.00000000000017
90 7.1 ['31', '34', '19', '21'] 355.00000000000017
91 7.1 ['31', '34', '19', '21'] 355.00000000000017
92 7.1 ['31', '34', '19', '21'] 355.00000000000017
93 7.1 ['31', '34', '19', '21'] 355.00000000000017
94 7.1 ['31', '34', '19', '21'] 355.00000000000017
95 7.1 ['31', '34', '19', '21'] 355.00000000000017
96 7.1 ['31', '34', '19', '21'] 355.00000000000017
97 7.1 ['31', '34', '19', '21'] 355.00000000000017
98 7.1 ['31', '34', '19', '21'] 355.00000000000017
99 7.1 ['31', '34', '19', '21'] 355.00000000000017
100 7.1 ['31', '34', '19', '21'] 355.00000000000017
101 7.1 ['31', '34', '19', '21'] 355.00000000000017
102 7.1 ['31', '34', '19', '21'] 355.00000000000017
103 7.1 ['31', '34', '19', '21'] 355.00000000000017
104 7.1 ['31', '34', '19', '21'] 355.00000000000017
105 7.1 ['31', '34', '19', '21'] 355.00000000000017
106 7.1 ['31', '34', '19', '21'] 355.00000000000017
107 7.1 ['31', '34', '19', '21'] 355.00000000000017
108 7.1 ['31', '34', '19', '21'] 355.00000000000017
109 7.1 ['31', '34', '19', '21'] 355.00000000000017
110 7.1 ['31', '34', '19', '21'] 355.00000000000017
111 7.1 ['31', '34', '19', '21'] 355.00000000000017
112 7.1 ['31', '34', '19', '21'] 355.00000000000017
113 7.1 ['31', '34', '19', '21'] 355.00000000000017
114 7.1 ['31', '34', '19', '21'] 355.00000000000017
115 7.1 ['31', '34', '19', '21'] 355.00000000000017
116 7.1 ['31', '34', '19', '21'] 355.00000000000017
117 7.1 ['31', '34', '19', '21'] 355.00000000000017
118 7.1 ['31', '34', '19', '21'] 355.00000000000017
119 7.1 ['31', '34', '19', '21'] 355.00000000000017
120 7.1 ['31', '34', '19', '21'] 355.00000000000017
121 7.1 ['31', '34', '19', '21'] 355.00000000000017
122 7.1 ['31', '34', '19', '21'] 355.00000000000017
123 7.1 ['31', '34', '19', '21'] 355.00000000000017
124 7.1 ['31', '34', '19', '21'] 355.00000000000017
125 7.1 ['31', '34', '19', '21'] 355.00000000000017
126 7.1 ['31', '34', '19', '21'] 355.00000000000017
127 7.1 ['31', '34', '19', '21'] 355.00000000000017
128 7.1 ['31', '34', '19', '21'] 355.00000000000017
129 7.1 ['31', '34', '19', '21'] 355.00000000000017
130 7.1 ['31', '34', '19', '21'] 355.00000000000017
131 7.1 ['31', '34', '19', '21'] 355.00000000000017
132 7.1 ['31', '34', '19', '21'] 355.00000000000017
133 7.1 ['31', '34', '19', '21'] 355.00000000000017
134 7.1 ['31', '34', '19', '21'] 355.00000000000017
135 7.1 ['31', '34', '19', '21'] 355.00000000000017
136 7.1 ['31', '34', '19', '21'] 355.00000000000017
137 7.1 ['31', '34', '19', '21'] 355.00000000000017
138 7.1 ['31', '34', '19', '21'] 355.00000000000017
139 7.1 ['31', '34', '19', '21'] 355.00000000000017
140 7.1 ['31', '34', '19', '21'] 355.00000000000017
141 7.1 ['31', '34', '19', '21'] 355.00000000000017
142 7.1 ['31', '34', '19', '21'] 355.00000000000017
143 7.1 ['31', '34', '19', '21'] 355.00000000000017
144 7.1 ['31', '34', '19', '21'] 355.00000000000017
145 7.1 ['31', '34', '19', '21'] 355.00000000000017
146 7.1 ['31', '34', '19', '21'] 355.00000000000017
147 7.1 ['31', '34', '19', '21'] 355.00000000000017
148 7.1 ['31', '34', '19', '21'] 355.00000000000017
149 7.1 ['31', '34', '19', '21'] 355.00000000000017
150 7.1 ['31', '34', '19', '21'] 355.00000000000017
151 7.1 ['31', '34', '19', '21'] 355.00000000000017
152 7.1 ['31', '34', '19', '21'] 355.00000000000017
153 7.1 ['31', '34', '19', '21'] 355.00000000000017
154 7.1 ['31', '34', '19', '21'] 355.00000000000017
155 7.1 ['31', '34', '19', '21'] 355.00000000000017
156 7.1 ['31', '34', '19', '21'] 355.00000000000017
157 7.1 ['31', '34', '19', '21'] 355.00000000000017
158 7.1 ['31', '34', '19', '21'] 355.00000000000017
159 7.1 ['31', '34', '19', '21'] 355.00000000000017
160 7.1 ['31', '34', '19', '21'] 355.00000000000017
161 7.1 ['31', '34', '19', '21'] 355.00000000000017
162 7.1 ['31', '34', '19', '21'] 355.00000000000017
163 7.1 ['31', '34', '19', '21'] 355.00000000000017
164 7.1 ['31', '34', '19', '21'] 355.00000000000017
165 7.1 ['31', '34', '19', '21'] 355.00000000000017
166 7.1 ['31', '34', '19', '21'] 355.00000000000017
167 7.1 ['31', '34', '19', '21'] 355.00000000000017
168 7.1 ['31', '34', '19', '21'] 355.00000000000017
169 7.1 ['31', '34', '19', '21'] 355.00000000000017
170 7.1 ['31', '34', '19', '21'] 355.00000000000017
171 7.1 ['31', '34', '19', '21'] 355.00000000000017
172 7.1 ['31', '34', '19', '21'] 355.00000000000017
173 7.1 ['31', '34', '19', '21'] 355.00000000000017
174 7.1 ['31', '34', '19', '21'] 355.00000000000017
175 7.1 ['31', '34', '19', '21'] 355.00000000000017
176 7.1 ['31', '34', '19', '21'] 355.00000000000017
177 7.1 ['31', '34', '19', '21'] 355.00000000000017
178 7.1 ['31', '34', '19', '21'] 355.00000000000017
179 7.1 ['31', '34', '19', '21'] 355.00000000000017
180 7.1 ['31', '34', '19', '21'] 355.00000000000017
181 7.1 ['31', '34', '19', '21'] 355.00000000000017
182 7.1 ['31', '34', '19', '21'] 355.00000000000017
183 7.1 ['31', '34', '19', '21'] 355.00000000000017
184 7.1 ['31', '34', '19', '21'] 355.00000000000017
185 7.1 ['31', '34', '19', '21'] 355.00000000000017
186 7.1 ['31', '34', '19', '21'] 355.00000000000017
187 7.1 ['31', '34', '19', '21'] 355.00000000000017
188 7.1 ['31', '34', '19', '21'] 355.00000000000017
189 7.1 ['31', '34', '19', '21'] 355.00000000000017
190 7.1 ['31', '34', '19', '21'] 355.00000000000017
191 7.1 ['31', '34', '19', '21'] 355.00000000000017
192 7.1 ['31', '34', '19', '21'] 355.00000000000017
193 7.1 ['31', '34', '19', '21'] 355.00000000000017
194 7.1 ['31', '34', '19', '21'] 355.00000000000017
195 7.1 ['31', '34', '19', '21'] 355.00000000000017
196 7.1 ['31', '34', '19', '21'] 355.00000000000017
197 7.1 ['31', '34', '19', '21'] 355.00000000000017
198 7.1 ['31', '34', '19', '21'] 355.00000000000017
199 7.1 ['31', '34', '19', '21'] 355.00000000000017
