0 420.0 ['22', '24', '31', '41'] 22439.627906976744
1 412.1162790697674 ['22', '21', '31', '41'] 21944.093023255813
2 399.04651162790697 ['41', '9', '31', '22'] 21575.25581395348
3 399.04651162790697 ['41', '9', '31', '22'] 21187.744186046515
4 395.25581395348837 ['40', '31', '41', '22'] 20756.581395348832
5 395.25581395348837 ['40', '31', '41', '22'] 20262.46511627907
6 395.25581395348837 ['40', '31', '41', '22'] 19899.046511627916
7 395.25581395348837 ['40', '31', '41', '22'] 19828.046511627905
8 395.25581395348837 ['40', '31', '41', '22'] 19762.790697674423
9 395.25581395348837 ['40', '31', '41', '22'] 19762.790697674423
10 395.25581395348837 ['40', '31', '41', '22'] 19762.790697674423
11 395.25581395348837 ['40', '31', '41', '22'] 19762.790697674423
12 395.25581395348837 ['40', '31', '41', '22'] 19762.790697674423
13 395.25581395348837 ['40', '31', '41', '22'] 19762.790697674423
14 395.25581395348837 ['40', '31', '41', '22'] 19762.790697674423
15 395.25581395348837 ['40', '31', '41', '22'] 19762.790697674423
16 395.25581395348837 ['40', '31', '41', '22'] 19762.790697674423
17 395.25581395348837 ['40', '31', '41', '22'] 19762.790697674423
18 395.25581395348837 ['40', '31', '41', '22'] 19762.790697674423
19 395.25581395348837 ['40', '31', '41', '22'] 19762.790697674423
20 395.25581395348837 ['40', '31', '41', '22'] 19762.790697674423
21 395.25581395348837 ['40', '31', '41', '22'] 19762.790697674423
22 395.25581395348837 ['40', '31', '41', '22'] 19762.790697674423
23 395.25581395348837 ['40', '31', '41', '22'] 19762.790697674423
24 395.25581395348837 ['40', '31', '41', '22'] 19762.790697674423
25 395.25581395348837 ['40', '31', '41', '22'] 19762.790697674423
26 395.25581395348837 ['40', '31', '41', '22'] 19762.790697674423
27 395.25581395348837 ['40', '31', '41', '22'] 19762.790697674423
28 395.25581395348837 ['40', '31', '41', '22'] 19762.790697674423
29 395.25581395348837 ['40', '31', '41', '22'] 19762.790697674423
30 395.25581395348837 ['40', '31', '41', '22'] 19762.790697674423
31 395.25581395348837 ['40', '31', '41', '22'] 19762.790697674423
32 395.25581395348837 ['40', '31', '41', '22'] 19762.790697674423
33 395.25581395348837 ['40', '31', '41', '22'] 19762.790697674423
34 395.25581395348837 ['40', '31', '41', '22'] 19762.790697674423
35 395.25581395348837 ['40', '31', '41', '22'] 19762.790697674423
36 395.25581395348837 ['40', '31', '41', '22'] 19762.790697674423
37 395.25581395348837 ['40', '31', '41', '22'] 19762.790697674423
38 395.25581395348837 ['40', '31', '41', '22'] 19762.790697674423
39 395.25581395348837 ['40', '31', '41', '22'] 19762.790697674423
40 395.25581395348837 ['40', '31', '41', '22'] 19762.790697674423
41 395.25581395348837 ['40', '31', '41', '22'] 19762.790697674423
42 395.25581395348837 ['40', '31', '41', '22'] 19762.790697674423
43 395.25581395348837 ['40', '31', '41', '22'] 19762.790697674423
44 395.25581395348837 ['40', '31', '41', '22'] 19762.790697674423
45 395.25581395348837 ['40', '31', '41', '22'] 19762.790697674423
46 395.25581395348837 ['40', '31', '41', '22'] 19762.790697674423
47 395.25581395348837 ['40', '31', '41', '22'] 19762.790697674423
48 395.25581395348837 ['40', '31', '41', '22'] 19762.790697674423
49 395.25581395348837 ['40', '31', '41', '22'] 19762.790697674423
50 395.25581395348837 ['40', '31', '41', '22'] 19762.790697674423
51 395.25581395348837 ['40', '31', '41', '22'] 19762.790697674423
52 395.25581395348837 ['40', '31', '41', '22'] 19762.790697674423
53 395.25581395348837 ['40', '31', '41', '22'] 19762.790697674423
54 395.25581395348837 ['40', '31', '41', '22'] 19762.790697674423
55 395.25581395348837 ['40', '31', '41', '22'] 19762.790697674423
56 395.25581395348837 ['40', '31', '41', '22'] 19762.790697674423
57 395.25581395348837 ['40', '31', '41', '22'] 19762.790697674423
58 395.25581395348837 ['40', '31', '41', '22'] 19762.790697674423
59 395.25581395348837 ['40', '31', '41', '22'] 19762.790697674423
60 395.25581395348837 ['40', '31', '41', '22'] 19762.790697674423
61 395.25581395348837 ['40', '31', '41', '22'] 19762.790697674423
62 395.25581395348837 ['40', '31', '41', '22'] 19762.790697674423
63 395.25581395348837 ['40', '31', '41', '22'] 19762.790697674423
64 395.25581395348837 ['40', '31', '41', '22'] 19762.790697674423
65 395.25581395348837 ['40', '31', '41', '22'] 19762.790697674423
66 395.25581395348837 ['40', '31', '41', '22'] 19762.790697674423
67 395.25581395348837 ['40', '31', '41', '22'] 19762.790697674423
68 395.25581395348837 ['40', '31', '41', '22'] 19762.790697674423
69 395.25581395348837 ['40', '31', '41', '22'] 19762.790697674423
70 395.25581395348837 ['40', '31', '41', '22'] 19762.790697674423
71 395.25581395348837 ['40', '31', '41', '22'] 19762.790697674423
72 395.25581395348837 ['40', '31', '41', '22'] 19762.790697674423
73 395.25581395348837 ['40', '31', '41', '22'] 19762.790697674423
74 395.25581395348837 ['40', '31', '41', '22'] 19762.790697674423
75 395.25581395348837 ['40', '31', '41', '22'] 19762.790697674423
76 395.25581395348837 ['40', '31', '41', '22'] 19762.790697674423
77 395.25581395348837 ['40', '31', '41', '22'] 19762.790697674423
78 395.25581395348837 ['40', '31', '41', '22'] 19762.790697674423
79 395.25581395348837 ['40', '31', '41', '22'] 19762.790697674423
80 395.25581395348837 ['40', '31', '41', '22'] 19762.790697674423
81 395.25581395348837 ['40', '31', '41', '22'] 19762.790697674423
82 395.25581395348837 ['40', '31', '41', '22'] 19762.790697674423
83 395.25581395348837 ['40', '31', '41', '22'] 19762.790697674423
84 395.25581395348837 ['40', '31', '41', '22'] 19762.790697674423
85 395.25581395348837 ['40', '31', '41', '22'] 19762.790697674423
86 395.25581395348837 ['40', '31', '41', '22'] 19762.790697674423
87 395.25581395348837 ['40', '31', '41', '22'] 19762.790697674423
88 395.25581395348837 ['40', '31', '41', '22'] 19762.790697674423
89 395.25581395348837 ['40', '31', '41', '22'] 19762.790697674423
90 395.25581395348837 ['40', '31', '41', '22'] 19762.790697674423
91 395.25581395348837 ['40', '31', '41', '22'] 19762.790697674423
92 395.25581395348837 ['40', '31', '41', '22'] 19762.790697674423
93 395.25581395348837 ['40', '31', '41', '22'] 19762.790697674423
94 395.25581395348837 ['40', '31', '41', '22'] 19762.790697674423
95 395.25581395348837 ['40', '31', '41', '22'] 19762.790697674423
96 395.25581395348837 ['40', '31', '41', '22'] 19762.790697674423
97 395.25581395348837 ['40', '31', '41', '22'] 19762.790697674423
98 395.25581395348837 ['40', '31', '41', '22'] 19762.790697674423
99 395.25581395348837 ['40', '31', '41', '22'] 19762.790697674423
100 395.25581395348837 ['40', '31', '41', '22'] 19762.790697674423
101 395.25581395348837 ['40', '31', '41', '22'] 19762.790697674423
102 395.25581395348837 ['40', '31', '41', '22'] 19762.790697674423
103 395.25581395348837 ['40', '31', '41', '22'] 19762.790697674423
104 395.25581395348837 ['40', '31', '41', '22'] 19762.790697674423
105 395.25581395348837 ['40', '31', '41', '22'] 19762.790697674423
106 395.25581395348837 ['40', '31', '41', '22'] 19762.790697674423
107 395.25581395348837 ['40', '31', '41', '22'] 19762.790697674423
108 395.25581395348837 ['40', '31', '41', '22'] 19762.790697674423
109 395.25581395348837 ['40', '31', '41', '22'] 19762.790697674423
110 395.25581395348837 ['40', '31', '41', '22'] 19762.790697674423
111 395.25581395348837 ['40', '31', '41', '22'] 19762.790697674423
112 395.25581395348837 ['40', '31', '41', '22'] 19762.790697674423
113 395.25581395348837 ['40', '31', '41', '22'] 19762.790697674423
114 395.25581395348837 ['40', '31', '41', '22'] 19762.790697674423
115 395.25581395348837 ['40', '31', '41', '22'] 19762.790697674423
116 395.25581395348837 ['40', '31', '41', '22'] 19762.790697674423
117 395.25581395348837 ['40', '31', '41', '22'] 19762.790697674423
118 395.25581395348837 ['40', '31', '41', '22'] 19762.790697674423
119 395.25581395348837 ['40', '31', '41', '22'] 19762.790697674423
120 395.25581395348837 ['40', '31', '41', '22'] 19762.790697674423
121 395.25581395348837 ['40', '31', '41', '22'] 19762.790697674423
122 395.25581395348837 ['40', '31', '41', '22'] 19762.790697674423
123 395.25581395348837 ['40', '31', '41', '22'] 19762.790697674423
124 395.25581395348837 ['40', '31', '41', '22'] 19762.790697674423
125 395.25581395348837 ['40', '31', '41', '22'] 19762.790697674423
126 395.25581395348837 ['40', '31', '41', '22'] 19762.790697674423
127 395.25581395348837 ['40', '31', '41', '22'] 19762.790697674423
128 395.25581395348837 ['40', '31', '41', '22'] 19762.790697674423
129 395.25581395348837 ['40', '31', '41', '22'] 19762.790697674423
130 395.25581395348837 ['40', '31', '41', '22'] 19762.790697674423
131 395.25581395348837 ['40', '31', '41', '22'] 19762.790697674423
132 395.25581395348837 ['40', '31', '41', '22'] 19762.790697674423
133 395.25581395348837 ['40', '31', '41', '22'] 19762.790697674423
134 395.25581395348837 ['40', '31', '41', '22'] 19762.790697674423
135 395.25581395348837 ['40', '31', '41', '22'] 19762.790697674423
136 395.25581395348837 ['40', '31', '41', '22'] 19762.790697674423
137 395.25581395348837 ['40', '31', '41', '22'] 19762.790697674423
138 395.25581395348837 ['40', '31', '41', '22'] 19762.790697674423
139 395.25581395348837 ['40', '31', '41', '22'] 19762.790697674423
140 395.25581395348837 ['40', '31', '41', '22'] 19762.790697674423
141 395.25581395348837 ['40', '31', '41', '22'] 19762.790697674423
142 395.25581395348837 ['40', '31', '41', '22'] 19762.790697674423
143 395.25581395348837 ['40', '31', '41', '22'] 19762.790697674423
144 395.25581395348837 ['40', '31', '41', '22'] 19762.790697674423
145 395.25581395348837 ['40', '31', '41', '22'] 19762.790697674423
146 395.25581395348837 ['40', '31', '41', '22'] 19762.790697674423
147 395.25581395348837 ['40', '31', '41', '22'] 19762.790697674423
148 395.25581395348837 ['40', '31', '41', '22'] 19762.790697674423
149 395.25581395348837 ['40', '31', '41', '22'] 19762.790697674423
150 395.25581395348837 ['40', '31', '41', '22'] 19762.790697674423
151 395.25581395348837 ['40', '31', '41', '22'] 19762.790697674423
152 395.25581395348837 ['40', '31', '41', '22'] 19762.790697674423
153 395.25581395348837 ['40', '31', '41', '22'] 19762.790697674423
154 395.25581395348837 ['40', '31', '41', '22'] 19762.790697674423
155 395.25581395348837 ['40', '31', '41', '22'] 19762.790697674423
156 395.25581395348837 ['40', '31', '41', '22'] 19762.790697674423
157 395.25581395348837 ['40', '31', '41', '22'] 19762.790697674423
158 395.25581395348837 ['40', '31', '41', '22'] 19762.790697674423
159 395.25581395348837 ['40', '31', '41', '22'] 19762.790697674423
160 395.25581395348837 ['40', '31', '41', '22'] 19762.790697674423
161 395.25581395348837 ['40', '31', '41', '22'] 19762.790697674423
162 395.25581395348837 ['40', '31', '41', '22'] 19762.790697674423
163 395.25581395348837 ['40', '31', '41', '22'] 19762.790697674423
164 395.25581395348837 ['40', '31', '41', '22'] 19762.790697674423
165 395.25581395348837 ['40', '31', '41', '22'] 19762.790697674423
166 395.25581395348837 ['40', '31', '41', '22'] 19762.790697674423
167 395.25581395348837 ['40', '31', '41', '22'] 19762.790697674423
168 395.25581395348837 ['40', '31', '41', '22'] 19762.790697674423
169 395.25581395348837 ['40', '31', '41', '22'] 19762.790697674423
170 395.25581395348837 ['40', '31', '41', '22'] 19762.790697674423
171 395.25581395348837 ['40', '31', '41', '22'] 19762.790697674423
172 395.25581395348837 ['40', '31', '41', '22'] 19762.790697674423
173 395.25581395348837 ['40', '31', '41', '22'] 19762.790697674423
174 395.25581395348837 ['40', '31', '41', '22'] 19762.790697674423
175 395.25581395348837 ['40', '31', '41', '22'] 19762.790697674423
176 395.25581395348837 ['40', '31', '41', '22'] 19762.790697674423
177 395.25581395348837 ['40', '31', '41', '22'] 19762.790697674423
178 395.25581395348837 ['40', '31', '41', '22'] 19762.790697674423
179 395.25581395348837 ['40', '31', '41', '22'] 19762.790697674423
180 395.25581395348837 ['40', '31', '41', '22'] 19762.790697674423
181 395.25581395348837 ['40', '31', '41', '22'] 19762.790697674423
182 395.25581395348837 ['40', '31', '41', '22'] 19762.790697674423
183 395.25581395348837 ['40', '31', '41', '22'] 19762.790697674423
184 395.25581395348837 ['40', '31', '41', '22'] 19762.790697674423
185 395.25581395348837 ['40', '31', '41', '22'] 19762.790697674423
186 395.25581395348837 ['40', '31', '41', '22'] 19762.790697674423
187 395.25581395348837 ['40', '31', '41', '22'] 19762.790697674423
188 395.25581395348837 ['40', '31', '41', '22'] 19762.790697674423
189 395.25581395348837 ['40', '31', '41', '22'] 19762.790697674423
190 395.25581395348837 ['40', '31', '41', '22'] 19762.790697674423
191 395.25581395348837 ['40', '31', '41', '22'] 19762.790697674423
192 395.25581395348837 ['40', '31', '41', '22'] 19762.790697674423
193 395.25581395348837 ['40', '31', '41', '22'] 19762.790697674423
194 395.25581395348837 ['40', '31', '41', '22'] 19762.790697674423
195 395.25581395348837 ['40', '31', '41', '22'] 19762.790697674423
196 395.25581395348837 ['40', '31', '41', '22'] 19762.790697674423
197 395.25581395348837 ['40', '31', '41', '22'] 19762.790697674423
198 395.25581395348837 ['40', '31', '41', '22'] 19762.790697674423
199 395.25581395348837 ['40', '31', '41', '22'] 19762.790697674423
