0 4.352941176470588 ['9', '25', '17'] 238.82352941176455
1 4.117647058823529 ['9', '23', '2'] 232.82352941176475
2 4.117647058823529 ['9', '23', '2'] 227.05882352941197
3 4.0 ['17', '9', '23'] 221.17647058823542
4 4.0 ['17', '9', '23'] 214.94117647058818
5 4.0 ['17', '9', '23'] 208.4705882352944
6 4.0 ['17', '9', '23'] 205.29411764705904
7 4.0 ['17', '9', '23'] 204.11764705882376
8 4.0 ['17', '9', '23'] 202.0000000000001
9 3.8823529411764706 ['9', '23', '37'] 199.64705882352942
10 3.8823529411764706 ['9', '23', '37'] 199.52941176470588
11 3.8823529411764706 ['9', '23', '37'] 198.94117647058823
12 3.8823529411764706 ['9', '23', '37'] 197.6470588235294
13 3.8823529411764706 ['9', '23', '37'] 194.94117647058806
14 3.8823529411764706 ['9', '23', '37'] 194.1176470588233
15 3.8823529411764706 ['9', '23', '37'] 194.1176470588233
16 3.8823529411764706 ['9', '23', '37'] 194.1176470588233
17 3.8823529411764706 ['9', '23', '37'] 194.1176470588233
18 3.8823529411764706 ['9', '23', '37'] 194.1176470588233
19 3.8823529411764706 ['9', '23', '37'] 194.1176470588233
20 3.8823529411764706 ['9', '23', '37'] 194.1176470588233
21 3.8823529411764706 ['9', '23', '37'] 194.1176470588233
22 3.8823529411764706 ['9', '23', '37'] 194.1176470588233
23 3.8823529411764706 ['9', '23', '37'] 194.1176470588233
24 3.8823529411764706 ['9', '23', '37'] 194.1176470588233
25 3.8823529411764706 ['9', '23', '37'] 194.1176470588233
26 3.8823529411764706 ['9', '23', '37'] 194.1176470588233
27 3.8823529411764706 ['9', '23', '37'] 194.1176470588233
28 3.8823529411764706 ['9', '23', '37'] 194.1176470588233
29 3.8823529411764706 ['9', '23', '37'] 194.1176470588233
30 3.8823529411764706 ['9', '23', '37'] 194.1176470588233
31 3.8823529411764706 ['9', '23', '37'] 194.1176470588233
32 3.8823529411764706 ['9', '23', '37'] 194.1176470588233
33 3.8823529411764706 ['9', '23', '37'] 194.1176470588233
34 3.8823529411764706 ['9', '23', '37'] 194.1176470588233
35 3.8823529411764706 ['9', '23', '37'] 194.1176470588233
36 3.8823529411764706 ['9', '23', '37'] 194.1176470588233
37 3.8823529411764706 ['9', '23', '37'] 194.1176470588233
38 3.8823529411764706 ['9', '23', '37'] 194.1176470588233
39 3.8823529411764706 ['9', '23', '37'] 194.1176470588233
40 3.8823529411764706 ['9', '23', '37'] 194.1176470588233
41 3.8823529411764706 ['9', '23', '37'] 194.1176470588233
42 3.8823529411764706 ['9', '23', '37'] 194.1176470588233
43 3.8823529411764706 ['9', '23', '37'] 194.1176470588233
44 3.8823529411764706 ['9', '23', '37'] 194.1176470588233
45 3.8823529411764706 ['9', '23', '37'] 194.1176470588233
46 3.8823529411764706 ['9', '23', '37'] 194.1176470588233
47 3.8823529411764706 ['9', '23', '37'] 194.1176470588233
48 3.8823529411764706 ['9', '23', '37'] 194.1176470588233
49 3.8823529411764706 ['9', '23', '37'] 194.1176470588233
50 3.8823529411764706 ['9', '23', '37'] 194.1176470588233
51 3.8823529411764706 ['9', '23', '37'] 194.1176470588233
52 3.8823529411764706 ['9', '23', '37'] 194.1176470588233
53 3.8823529411764706 ['9', '23', '37'] 194.1176470588233
54 3.8823529411764706 ['9', '23', '37'] 194.1176470588233
55 3.8823529411764706 ['9', '23', '37'] 194.1176470588233
56 3.8823529411764706 ['9', '23', '37'] 194.1176470588233
57 3.8823529411764706 ['9', '23', '37'] 194.1176470588233
58 3.8823529411764706 ['9', '23', '37'] 194.1176470588233
59 3.8823529411764706 ['9', '23', '37'] 194.1176470588233
60 3.8823529411764706 ['9', '23', '37'] 194.1176470588233
61 3.8823529411764706 ['9', '23', '37'] 194.1176470588233
62 3.8823529411764706 ['9', '23', '37'] 194.1176470588233
63 3.8823529411764706 ['9', '23', '37'] 194.1176470588233
64 3.8823529411764706 ['9', '23', '37'] 194.1176470588233
65 3.8823529411764706 ['9', '23', '37'] 194.1176470588233
66 3.8823529411764706 ['9', '23', '37'] 194.1176470588233
67 3.8823529411764706 ['9', '23', '37'] 194.1176470588233
68 3.8823529411764706 ['9', '23', '37'] 194.1176470588233
69 3.8823529411764706 ['9', '23', '37'] 194.1176470588233
70 3.8823529411764706 ['9', '23', '37'] 194.1176470588233
71 3.8823529411764706 ['9', '23', '37'] 194.1176470588233
72 3.8823529411764706 ['9', '23', '37'] 194.1176470588233
73 3.8823529411764706 ['9', '23', '37'] 194.1176470588233
74 3.8823529411764706 ['9', '23', '37'] 194.1176470588233
75 3.8823529411764706 ['9', '23', '37'] 194.1176470588233
76 3.8823529411764706 ['9', '23', '37'] 194.1176470588233
77 3.8823529411764706 ['9', '23', '37'] 194.1176470588233
78 3.8823529411764706 ['9', '23', '37'] 194.1176470588233
79 3.8823529411764706 ['9', '23', '37'] 194.1176470588233
80 3.8823529411764706 ['9', '23', '37'] 194.1176470588233
81 3.8823529411764706 ['9', '23', '37'] 194.1176470588233
82 3.8823529411764706 ['9', '23', '37'] 194.1176470588233
83 3.8823529411764706 ['9', '23', '37'] 194.1176470588233
84 3.8823529411764706 ['9', '23', '37'] 194.1176470588233
85 3.8823529411764706 ['9', '23', '37'] 194.1176470588233
86 3.8823529411764706 ['9', '23', '37'] 194.1176470588233
87 3.8823529411764706 ['9', '23', '37'] 194.1176470588233
88 3.8823529411764706 ['9', '23', '37'] 194.1176470588233
89 3.8823529411764706 ['9', '23', '37'] 194.1176470588233
90 3.8823529411764706 ['9', '23', '37'] 194.1176470588233
91 3.8823529411764706 ['9', '23', '37'] 194.1176470588233
92 3.8823529411764706 ['9', '23', '37'] 194.1176470588233
93 3.8823529411764706 ['9', '23', '37'] 194.1176470588233
94 3.8823529411764706 ['9', '23', '37'] 194.1176470588233
95 3.8823529411764706 ['9', '23', '37'] 194.1176470588233
96 3.8823529411764706 ['9', '23', '37'] 194.1176470588233
97 3.8823529411764706 ['9', '23', '37'] 194.1176470588233
98 3.8823529411764706 ['9', '23', '37'] 194.1176470588233
99 3.8823529411764706 ['9', '23', '37'] 194.1176470588233
100 3.8823529411764706 ['9', '23', '37'] 194.1176470588233
101 3.8823529411764706 ['9', '23', '37'] 194.1176470588233
102 3.8823529411764706 ['9', '23', '37'] 194.1176470588233
103 3.8823529411764706 ['9', '23', '37'] 194.1176470588233
104 3.8823529411764706 ['9', '23', '37'] 194.1176470588233
105 3.8823529411764706 ['9', '23', '37'] 194.1176470588233
106 3.8823529411764706 ['9', '23', '37'] 194.1176470588233
107 3.8823529411764706 ['9', '23', '37'] 194.1176470588233
108 3.8823529411764706 ['9', '23', '37'] 194.1176470588233
109 3.8823529411764706 ['9', '23', '37'] 194.1176470588233
110 3.8823529411764706 ['9', '23', '37'] 194.1176470588233
111 3.8823529411764706 ['9', '23', '37'] 194.1176470588233
112 3.8823529411764706 ['9', '23', '37'] 194.1176470588233
113 3.8823529411764706 ['9', '23', '37'] 194.1176470588233
114 3.8823529411764706 ['9', '23', '37'] 194.1176470588233
115 3.8823529411764706 ['9', '23', '37'] 194.1176470588233
116 3.8823529411764706 ['9', '23', '37'] 194.1176470588233
117 3.8823529411764706 ['9', '23', '37'] 194.1176470588233
118 3.8823529411764706 ['9', '23', '37'] 194.1176470588233
119 3.8823529411764706 ['9', '23', '37'] 194.1176470588233
120 3.8823529411764706 ['9', '23', '37'] 194.1176470588233
121 3.8823529411764706 ['9', '23', '37'] 194.1176470588233
122 3.8823529411764706 ['9', '23', '37'] 194.1176470588233
123 3.8823529411764706 ['9', '23', '37'] 194.1176470588233
124 3.8823529411764706 ['9', '23', '37'] 194.1176470588233
125 3.8823529411764706 ['9', '23', '37'] 194.1176470588233
126 3.8823529411764706 ['9', '23', '37'] 194.1176470588233
127 3.8823529411764706 ['9', '23', '37'] 194.1176470588233
128 3.8823529411764706 ['9', '23', '37'] 194.1176470588233
129 3.8823529411764706 ['9', '23', '37'] 194.1176470588233
130 3.8823529411764706 ['9', '23', '37'] 194.1176470588233
131 3.8823529411764706 ['9', '23', '37'] 194.1176470588233
132 3.8823529411764706 ['9', '23', '37'] 194.1176470588233
133 3.8823529411764706 ['9', '23', '37'] 194.1176470588233
134 3.8823529411764706 ['9', '23', '37'] 194.1176470588233
135 3.8823529411764706 ['9', '23', '37'] 194.1176470588233
136 3.8823529411764706 ['9', '23', '37'] 194.1176470588233
137 3.8823529411764706 ['9', '23', '37'] 194.1176470588233
138 3.8823529411764706 ['9', '23', '37'] 194.1176470588233
139 3.8823529411764706 ['9', '23', '37'] 194.1176470588233
140 3.8823529411764706 ['9', '23', '37'] 194.1176470588233
141 3.8823529411764706 ['9', '23', '37'] 194.1176470588233
142 3.8823529411764706 ['9', '23', '37'] 194.1176470588233
143 3.8823529411764706 ['9', '23', '37'] 194.1176470588233
144 3.8823529411764706 ['9', '23', '37'] 194.1176470588233
145 3.8823529411764706 ['9', '23', '37'] 194.1176470588233
146 3.8823529411764706 ['9', '23', '37'] 194.1176470588233
147 3.8823529411764706 ['9', '23', '37'] 194.1176470588233
148 3.8823529411764706 ['9', '23', '37'] 194.1176470588233
149 3.8823529411764706 ['9', '23', '37'] 194.1176470588233
150 3.8823529411764706 ['9', '23', '37'] 194.1176470588233
151 3.8823529411764706 ['9', '23', '37'] 194.1176470588233
152 3.8823529411764706 ['9', '23', '37'] 194.1176470588233
153 3.8823529411764706 ['9', '23', '37'] 194.1176470588233
154 3.8823529411764706 ['9', '23', '37'] 194.1176470588233
155 3.8823529411764706 ['9', '23', '37'] 194.1176470588233
156 3.8823529411764706 ['9', '23', '37'] 194.1176470588233
157 3.8823529411764706 ['9', '23', '37'] 194.1176470588233
158 3.8823529411764706 ['9', '23', '37'] 194.1176470588233
159 3.8823529411764706 ['9', '23', '37'] 194.1176470588233
160 3.8823529411764706 ['9', '23', '37'] 194.1176470588233
161 3.8823529411764706 ['9', '23', '37'] 194.1176470588233
162 3.8823529411764706 ['9', '23', '37'] 194.1176470588233
163 3.8823529411764706 ['9', '23', '37'] 194.1176470588233
164 3.8823529411764706 ['9', '23', '37'] 194.1176470588233
165 3.8823529411764706 ['9', '23', '37'] 194.1176470588233
166 3.8823529411764706 ['9', '23', '37'] 194.1176470588233
167 3.8823529411764706 ['9', '23', '37'] 194.1176470588233
168 3.8823529411764706 ['9', '23', '37'] 194.1176470588233
169 3.8823529411764706 ['9', '23', '37'] 194.1176470588233
170 3.8823529411764706 ['9', '23', '37'] 194.1176470588233
171 3.8823529411764706 ['9', '23', '37'] 194.1176470588233
172 3.8823529411764706 ['9', '23', '37'] 194.1176470588233
173 3.8823529411764706 ['9', '23', '37'] 194.1176470588233
174 3.8823529411764706 ['9', '23', '37'] 194.1176470588233
175 3.8823529411764706 ['9', '23', '37'] 194.1176470588233
176 3.8823529411764706 ['9', '23', '37'] 194.1176470588233
177 3.8823529411764706 ['9', '23', '37'] 194.1176470588233
178 3.8823529411764706 ['9', '23', '37'] 194.1176470588233
179 3.8823529411764706 ['9', '23', '37'] 194.1176470588233
180 3.8823529411764706 ['9', '23', '37'] 194.1176470588233
181 3.8823529411764706 ['9', '23', '37'] 194.1176470588233
182 3.8823529411764706 ['9', '23', '37'] 194.1176470588233
183 3.8823529411764706 ['9', '23', '37'] 194.1176470588233
184 3.8823529411764706 ['9', '23', '37'] 194.1176470588233
185 3.8823529411764706 ['9', '23', '37'] 194.1176470588233
186 3.8823529411764706 ['9', '23', '37'] 194.1176470588233
187 3.8823529411764706 ['9', '23', '37'] 194.1176470588233
188 3.8823529411764706 ['9', '23', '37'] 194.1176470588233
189 3.8823529411764706 ['9', '23', '37'] 194.1176470588233
190 3.8823529411764706 ['9', '23', '37'] 194.1176470588233
191 3.8823529411764706 ['9', '23', '37'] 194.1176470588233
192 3.8823529411764706 ['9', '23', '37'] 194.1176470588233
193 3.8823529411764706 ['9', '23', '37'] 194.1176470588233
194 3.8823529411764706 ['9', '23', '37'] 194.1176470588233
195 3.8823529411764706 ['9', '23', '37'] 194.1176470588233
196 3.8823529411764706 ['9', '23', '37'] 194.1176470588233
197 3.8823529411764706 ['9', '23', '37'] 194.1176470588233
198 3.8823529411764706 ['9', '23', '37'] 194.1176470588233
199 3.8823529411764706 ['9', '23', '37'] 194.1176470588233
