0 26.31578947368421 ['32', '19', '56', '38', '17', '34'] 1395.3684210526308
1 25.333333333333332 ['56', '19', '2', '62', '8', '41'] 1358.5263157894738
2 25.333333333333332 ['56', '19', '2', '62', '8', '41'] 1326.1052631578946
3 24.842105263157894 ['4', '19', '8', '14', '9', '57'] 1298.5263157894728
4 24.07017543859649 ['19', '14', '46', '50', '8', '12'] 1275.3684210526321
5 23.719298245614034 ['46', '8', '9', '34', '41', '14'] 1252.4912280701765
6 23.719298245614034 ['46', '8', '9', '34', '41', '14'] 1233.61403508772
7 23.43859649122807 ['8', '41', '14', '46', '19', '34'] 1214.6666666666667
8 23.228070175438596 ['8', '46', '9', '41', '19', '34'] 1200.5614035087715
9 23.228070175438596 ['8', '46', '9', '41', '19', '34'] 1191.999999999999
10 23.157894736842106 ['46', '8', '41', '34', '12', '19'] 1179.3684210526312
11 23.087719298245613 ['46', '8', '19', '50', '34', '41'] 1169.5438596491224
12 23.017543859649123 ['8', '12', '34', '46', '40', '19'] 1163.929824561403
13 22.94736842105263 ['19', '8', '34', '46', '50', '40'] 1158.8070175438595
14 22.94736842105263 ['19', '8', '34', '46', '50', '40'] 1156.4210526315787
15 22.94736842105263 ['19', '8', '34', '46', '50', '40'] 1153.263157894736
16 22.94736842105263 ['19', '8', '34', '46', '50', '40'] 1150.3859649122803
17 22.94736842105263 ['19', '8', '34', '46', '50', '40'] 1148.9824561403498
18 22.94736842105263 ['19', '8', '34', '46', '50', '40'] 1147.368421052631
19 22.94736842105263 ['19', '8', '34', '46', '50', '40'] 1147.368421052631
20 22.94736842105263 ['19', '8', '34', '46', '50', '40'] 1147.368421052631
21 22.94736842105263 ['19', '8', '34', '46', '50', '40'] 1147.368421052631
22 22.94736842105263 ['19', '8', '34', '46', '50', '40'] 1147.368421052631
23 22.94736842105263 ['19', '8', '34', '46', '50', '40'] 1147.368421052631
24 22.94736842105263 ['19', '8', '34', '46', '50', '40'] 1147.368421052631
25 22.94736842105263 ['19', '8', '34', '46', '50', '40'] 1147.368421052631
26 22.94736842105263 ['19', '8', '34', '46', '50', '40'] 1147.368421052631
27 22.94736842105263 ['19', '8', '34', '46', '50', '40'] 1147.368421052631
28 22.94736842105263 ['19', '8', '34', '46', '50', '40'] 1147.368421052631
29 22.94736842105263 ['19', '8', '34', '46', '50', '40'] 1147.368421052631
30 22.94736842105263 ['19', '8', '34', '46', '50', '40'] 1147.368421052631
31 22.94736842105263 ['19', '8', '34', '46', '50', '40'] 1147.368421052631
32 22.94736842105263 ['19', '8', '34', '46', '50', '40'] 1147.368421052631
33 22.94736842105263 ['19', '8', '34', '46', '50', '40'] 1147.368421052631
34 22.94736842105263 ['19', '8', '34', '46', '50', '40'] 1147.368421052631
35 22.94736842105263 ['19', '8', '34', '46', '50', '40'] 1147.368421052631
36 22.94736842105263 ['19', '8', '34', '46', '50', '40'] 1147.368421052631
37 22.94736842105263 ['19', '8', '34', '46', '50', '40'] 1147.368421052631
38 22.94736842105263 ['19', '8', '34', '46', '50', '40'] 1147.368421052631
39 22.94736842105263 ['19', '8', '34', '46', '50', '40'] 1147.368421052631
40 22.94736842105263 ['19', '8', '34', '46', '50', '40'] 1147.368421052631
41 22.94736842105263 ['19', '8', '34', '46', '50', '40'] 1147.368421052631
42 22.94736842105263 ['19', '8', '34', '46', '50', '40'] 1147.368421052631
43 22.94736842105263 ['19', '8', '34', '46', '50', '40'] 1147.368421052631
44 22.94736842105263 ['19', '8', '34', '46', '50', '40'] 1147.368421052631
45 22.94736842105263 ['19', '8', '34', '46', '50', '40'] 1147.368421052631
46 22.94736842105263 ['19', '8', '34', '46', '50', '40'] 1147.368421052631
47 22.94736842105263 ['19', '8', '34', '46', '50', '40'] 1147.368421052631
48 22.94736842105263 ['19', '8', '34', '46', '50', '40'] 1147.368421052631
49 22.94736842105263 ['19', '8', '34', '46', '50', '40'] 1147.368421052631
50 22.94736842105263 ['19', '8', '34', '46', '50', '40'] 1147.368421052631
51 22.94736842105263 ['19', '8', '34', '46', '50', '40'] 1147.368421052631
52 22.94736842105263 ['19', '8', '34', '46', '50', '40'] 1147.368421052631
53 22.94736842105263 ['19', '8', '34', '46', '50', '40'] 1147.368421052631
54 22.94736842105263 ['19', '8', '34', '46', '50', '40'] 1147.368421052631
55 22.94736842105263 ['19', '8', '34', '46', '50', '40'] 1147.368421052631
56 22.94736842105263 ['19', '8', '34', '46', '50', '40'] 1147.368421052631
57 22.94736842105263 ['19', '8', '34', '46', '50', '40'] 1147.368421052631
58 22.94736842105263 ['19', '8', '34', '46', '50', '40'] 1147.368421052631
59 22.94736842105263 ['19', '8', '34', '46', '50', '40'] 1147.368421052631
60 22.94736842105263 ['19', '8', '34', '46', '50', '40'] 1147.368421052631
61 22.94736842105263 ['19', '8', '34', '46', '50', '40'] 1147.368421052631
62 22.94736842105263 ['19', '8', '34', '46', '50', '40'] 1147.368421052631
63 22.94736842105263 ['19', '8', '34', '46', '50', '40'] 1147.368421052631
64 22.94736842105263 ['19', '8', '34', '46', '50', '40'] 1147.368421052631
65 22.94736842105263 ['19', '8', '34', '46', '50', '40'] 1147.368421052631
66 22.94736842105263 ['19', '8', '34', '46', '50', '40'] 1147.368421052631
67 22.94736842105263 ['19', '8', '34', '46', '50', '40'] 1147.368421052631
68 22.94736842105263 ['19', '8', '34', '46', '50', '40'] 1147.368421052631
69 22.94736842105263 ['19', '8', '34', '46', '50', '40'] 1147.368421052631
70 22.94736842105263 ['19', '8', '34', '46', '50', '40'] 1147.368421052631
71 22.94736842105263 ['19', '8', '34', '46', '50', '40'] 1147.368421052631
72 22.94736842105263 ['19', '8', '34', '46', '50', '40'] 1147.368421052631
73 22.94736842105263 ['19', '8', '34', '46', '50', '40'] 1147.368421052631
74 22.94736842105263 ['19', '8', '34', '46', '50', '40'] 1147.368421052631
75 22.94736842105263 ['19', '8', '34', '46', '50', '40'] 1147.368421052631
76 22.94736842105263 ['19', '8', '34', '46', '50', '40'] 1147.368421052631
77 22.94736842105263 ['19', '8', '34', '46', '50', '40'] 1147.368421052631
78 22.94736842105263 ['19', '8', '34', '46', '50', '40'] 1147.368421052631
79 22.94736842105263 ['19', '8', '34', '46', '50', '40'] 1147.368421052631
80 22.94736842105263 ['19', '8', '34', '46', '50', '40'] 1147.368421052631
81 22.94736842105263 ['19', '8', '34', '46', '50', '40'] 1147.368421052631
82 22.94736842105263 ['19', '8', '34', '46', '50', '40'] 1147.368421052631
83 22.94736842105263 ['19', '8', '34', '46', '50', '40'] 1147.368421052631
84 22.94736842105263 ['19', '8', '34', '46', '50', '40'] 1147.368421052631
85 22.94736842105263 ['19', '8', '34', '46', '50', '40'] 1147.368421052631
86 22.94736842105263 ['19', '8', '34', '46', '50', '40'] 1147.368421052631
87 22.94736842105263 ['19', '8', '34', '46', '50', '40'] 1147.368421052631
88 22.94736842105263 ['19', '8', '34', '46', '50', '40'] 1147.368421052631
89 22.94736842105263 ['19', '8', '34', '46', '50', '40'] 1147.368421052631
90 22.94736842105263 ['19', '8', '34', '46', '50', '40'] 1147.368421052631
91 22.94736842105263 ['19', '8', '34', '46', '50', '40'] 1147.368421052631
92 22.94736842105263 ['19', '8', '34', '46', '50', '40'] 1147.368421052631
93 22.94736842105263 ['19', '8', '34', '46', '50', '40'] 1147.368421052631
94 22.94736842105263 ['19', '8', '34', '46', '50', '40'] 1147.368421052631
95 22.94736842105263 ['19', '8', '34', '46', '50', '40'] 1147.368421052631
96 22.94736842105263 ['19', '8', '34', '46', '50', '40'] 1147.368421052631
97 22.94736842105263 ['19', '8', '34', '46', '50', '40'] 1147.368421052631
98 22.94736842105263 ['19', '8', '34', '46', '50', '40'] 1147.368421052631
99 22.94736842105263 ['19', '8', '34', '46', '50', '40'] 1147.368421052631
100 22.94736842105263 ['19', '8', '34', '46', '50', '40'] 1147.368421052631
101 22.94736842105263 ['19', '8', '34', '46', '50', '40'] 1147.368421052631
102 22.94736842105263 ['19', '8', '34', '46', '50', '40'] 1147.368421052631
103 22.94736842105263 ['19', '8', '34', '46', '50', '40'] 1147.368421052631
104 22.94736842105263 ['19', '8', '34', '46', '50', '40'] 1147.368421052631
105 22.94736842105263 ['19', '8', '34', '46', '50', '40'] 1147.368421052631
106 22.94736842105263 ['19', '8', '34', '46', '50', '40'] 1147.368421052631
107 22.94736842105263 ['19', '8', '34', '46', '50', '40'] 1147.368421052631
108 22.94736842105263 ['19', '8', '34', '46', '50', '40'] 1147.368421052631
109 22.94736842105263 ['19', '8', '34', '46', '50', '40'] 1147.368421052631
110 22.94736842105263 ['19', '8', '34', '46', '50', '40'] 1147.368421052631
111 22.94736842105263 ['19', '8', '34', '46', '50', '40'] 1147.368421052631
112 22.94736842105263 ['19', '8', '34', '46', '50', '40'] 1147.368421052631
113 22.94736842105263 ['19', '8', '34', '46', '50', '40'] 1147.368421052631
114 22.94736842105263 ['19', '8', '34', '46', '50', '40'] 1147.368421052631
115 22.94736842105263 ['19', '8', '34', '46', '50', '40'] 1147.368421052631
116 22.94736842105263 ['19', '8', '34', '46', '50', '40'] 1147.368421052631
117 22.94736842105263 ['19', '8', '34', '46', '50', '40'] 1147.368421052631
118 22.94736842105263 ['19', '8', '34', '46', '50', '40'] 1147.368421052631
119 22.94736842105263 ['19', '8', '34', '46', '50', '40'] 1147.368421052631
120 22.94736842105263 ['19', '8', '34', '46', '50', '40'] 1147.368421052631
121 22.94736842105263 ['19', '8', '34', '46', '50', '40'] 1147.368421052631
122 22.94736842105263 ['19', '8', '34', '46', '50', '40'] 1147.368421052631
123 22.94736842105263 ['19', '8', '34', '46', '50', '40'] 1147.368421052631
124 22.94736842105263 ['19', '8', '34', '46', '50', '40'] 1147.368421052631
125 22.94736842105263 ['19', '8', '34', '46', '50', '40'] 1147.368421052631
126 22.94736842105263 ['19', '8', '34', '46', '50', '40'] 1147.368421052631
127 22.94736842105263 ['19', '8', '34', '46', '50', '40'] 1147.368421052631
128 22.94736842105263 ['19', '8', '34', '46', '50', '40'] 1147.368421052631
129 22.94736842105263 ['19', '8', '34', '46', '50', '40'] 1147.368421052631
130 22.94736842105263 ['19', '8', '34', '46', '50', '40'] 1147.368421052631
131 22.94736842105263 ['19', '8', '34', '46', '50', '40'] 1147.368421052631
132 22.94736842105263 ['19', '8', '34', '46', '50', '40'] 1147.368421052631
133 22.94736842105263 ['19', '8', '34', '46', '50', '40'] 1147.368421052631
134 22.94736842105263 ['19', '8', '34', '46', '50', '40'] 1147.368421052631
135 22.94736842105263 ['19', '8', '34', '46', '50', '40'] 1147.368421052631
136 22.94736842105263 ['19', '8', '34', '46', '50', '40'] 1147.368421052631
137 22.94736842105263 ['19', '8', '34', '46', '50', '40'] 1147.368421052631
138 22.94736842105263 ['19', '8', '34', '46', '50', '40'] 1147.368421052631
139 22.94736842105263 ['19', '8', '34', '46', '50', '40'] 1147.368421052631
140 22.94736842105263 ['19', '8', '34', '46', '50', '40'] 1147.368421052631
141 22.94736842105263 ['19', '8', '34', '46', '50', '40'] 1147.368421052631
142 22.94736842105263 ['19', '8', '34', '46', '50', '40'] 1147.368421052631
143 22.94736842105263 ['19', '8', '34', '46', '50', '40'] 1147.368421052631
144 22.94736842105263 ['19', '8', '34', '46', '50', '40'] 1147.368421052631
145 22.94736842105263 ['19', '8', '34', '46', '50', '40'] 1147.368421052631
146 22.94736842105263 ['19', '8', '34', '46', '50', '40'] 1147.368421052631
147 22.94736842105263 ['19', '8', '34', '46', '50', '40'] 1147.368421052631
148 22.94736842105263 ['19', '8', '34', '46', '50', '40'] 1147.368421052631
149 22.94736842105263 ['19', '8', '34', '46', '50', '40'] 1147.368421052631
150 22.94736842105263 ['19', '8', '34', '46', '50', '40'] 1147.368421052631
151 22.94736842105263 ['19', '8', '34', '46', '50', '40'] 1147.368421052631
152 22.94736842105263 ['19', '8', '34', '46', '50', '40'] 1147.368421052631
153 22.94736842105263 ['19', '8', '34', '46', '50', '40'] 1147.368421052631
154 22.94736842105263 ['19', '8', '34', '46', '50', '40'] 1147.368421052631
155 22.94736842105263 ['19', '8', '34', '46', '50', '40'] 1147.368421052631
156 22.94736842105263 ['19', '8', '34', '46', '50', '40'] 1147.368421052631
157 22.94736842105263 ['19', '8', '34', '46', '50', '40'] 1147.368421052631
158 22.94736842105263 ['19', '8', '34', '46', '50', '40'] 1147.368421052631
159 22.94736842105263 ['19', '8', '34', '46', '50', '40'] 1147.368421052631
160 22.94736842105263 ['19', '8', '34', '46', '50', '40'] 1147.368421052631
161 22.94736842105263 ['19', '8', '34', '46', '50', '40'] 1147.368421052631
162 22.94736842105263 ['19', '8', '34', '46', '50', '40'] 1147.368421052631
163 22.94736842105263 ['19', '8', '34', '46', '50', '40'] 1147.368421052631
164 22.94736842105263 ['19', '8', '34', '46', '50', '40'] 1147.368421052631
165 22.94736842105263 ['19', '8', '34', '46', '50', '40'] 1147.368421052631
166 22.94736842105263 ['19', '8', '34', '46', '50', '40'] 1147.368421052631
167 22.94736842105263 ['19', '8', '34', '46', '50', '40'] 1147.368421052631
168 22.94736842105263 ['19', '8', '34', '46', '50', '40'] 1147.368421052631
169 22.94736842105263 ['19', '8', '34', '46', '50', '40'] 1147.368421052631
170 22.94736842105263 ['19', '8', '34', '46', '50', '40'] 1147.368421052631
171 22.94736842105263 ['19', '8', '34', '46', '50', '40'] 1147.368421052631
172 22.94736842105263 ['19', '8', '34', '46', '50', '40'] 1147.368421052631
173 22.94736842105263 ['19', '8', '34', '46', '50', '40'] 1147.368421052631
174 22.94736842105263 ['19', '8', '34', '46', '50', '40'] 1147.368421052631
175 22.94736842105263 ['19', '8', '34', '46', '50', '40'] 1147.368421052631
176 22.94736842105263 ['19', '8', '34', '46', '50', '40'] 1147.368421052631
177 22.94736842105263 ['19', '8', '34', '46', '50', '40'] 1147.368421052631
178 22.94736842105263 ['19', '8', '34', '46', '50', '40'] 1147.368421052631
179 22.94736842105263 ['19', '8', '34', '46', '50', '40'] 1147.368421052631
180 22.94736842105263 ['19', '8', '34', '46', '50', '40'] 1147.368421052631
181 22.94736842105263 ['19', '8', '34', '46', '50', '40'] 1147.368421052631
182 22.94736842105263 ['19', '8', '34', '46', '50', '40'] 1147.368421052631
183 22.94736842105263 ['19', '8', '34', '46', '50', '40'] 1147.368421052631
184 22.94736842105263 ['19', '8', '34', '46', '50', '40'] 1147.368421052631
185 22.94736842105263 ['19', '8', '34', '46', '50', '40'] 1147.368421052631
186 22.94736842105263 ['19', '8', '34', '46', '50', '40'] 1147.368421052631
187 22.94736842105263 ['19', '8', '34', '46', '50', '40'] 1147.368421052631
188 22.94736842105263 ['19', '8', '34', '46', '50', '40'] 1147.368421052631
189 22.94736842105263 ['19', '8', '34', '46', '50', '40'] 1147.368421052631
190 22.94736842105263 ['19', '8', '34', '46', '50', '40'] 1147.368421052631
191 22.94736842105263 ['19', '8', '34', '46', '50', '40'] 1147.368421052631
192 22.94736842105263 ['19', '8', '34', '46', '50', '40'] 1147.368421052631
193 22.94736842105263 ['19', '8', '34', '46', '50', '40'] 1147.368421052631
194 22.94736842105263 ['19', '8', '34', '46', '50', '40'] 1147.368421052631
195 22.94736842105263 ['19', '8', '34', '46', '50', '40'] 1147.368421052631
196 22.94736842105263 ['19', '8', '34', '46', '50', '40'] 1147.368421052631
197 22.94736842105263 ['19', '8', '34', '46', '50', '40'] 1147.368421052631
198 22.94736842105263 ['19', '8', '34', '46', '50', '40'] 1147.368421052631
199 22.94736842105263 ['19', '8', '34', '46', '50', '40'] 1147.368421052631
