0 4.645161290322581 ['9', '34', '4'] 254.1935483870966
1 4.387096774193548 ['34', '15', '11'] 245.16129032258064
2 4.387096774193548 ['34', '15', '11'] 237.80645161290334
3 4.258064516129032 ['34', '15', '31'] 229.2903225806453
4 4.0 ['34', '32', '31'] 221.16129032258095
5 4.0 ['34', '32', '31'] 215.74193548387072
6 4.0 ['34', '32', '31'] 211.99999999999974
7 4.0 ['34', '32', '31'] 210.58064516129008
8 4.0 ['34', '32', '31'] 208.51612903225782
9 4.0 ['34', '32', '31'] 204.38709677419342
10 4.0 ['34', '32', '31'] 200.0
11 4.0 ['34', '32', '31'] 200.0
12 4.0 ['34', '32', '31'] 200.0
13 4.0 ['34', '32', '31'] 200.0
14 4.0 ['34', '32', '31'] 200.0
15 4.0 ['34', '32', '31'] 200.0
16 4.0 ['34', '32', '31'] 200.0
17 4.0 ['34', '32', '31'] 200.0
18 4.0 ['34', '32', '31'] 200.0
19 4.0 ['34', '32', '31'] 200.0
20 4.0 ['34', '32', '31'] 200.0
21 4.0 ['34', '32', '31'] 200.0
22 4.0 ['34', '32', '31'] 200.0
23 4.0 ['34', '32', '31'] 200.0
24 4.0 ['34', '32', '31'] 200.0
25 4.0 ['34', '32', '31'] 200.0
26 4.0 ['34', '32', '31'] 200.0
27 4.0 ['34', '32', '31'] 200.0
28 4.0 ['34', '32', '31'] 200.0
29 4.0 ['34', '32', '31'] 200.0
30 4.0 ['34', '32', '31'] 200.0
31 4.0 ['34', '32', '31'] 200.0
32 4.0 ['34', '32', '31'] 200.0
33 4.0 ['34', '32', '31'] 200.0
34 4.0 ['34', '32', '31'] 200.0
35 4.0 ['34', '32', '31'] 200.0
36 4.0 ['34', '32', '31'] 200.0
37 4.0 ['34', '32', '31'] 200.0
38 4.0 ['34', '32', '31'] 200.0
39 4.0 ['34', '32', '31'] 200.0
40 4.0 ['34', '32', '31'] 200.0
41 4.0 ['34', '32', '31'] 200.0
42 4.0 ['34', '32', '31'] 200.0
43 4.0 ['34', '32', '31'] 200.0
44 4.0 ['34', '32', '31'] 200.0
45 4.0 ['34', '32', '31'] 200.0
46 4.0 ['34', '32', '31'] 200.0
47 4.0 ['34', '32', '31'] 200.0
48 4.0 ['34', '32', '31'] 200.0
49 4.0 ['34', '32', '31'] 200.0
50 4.0 ['34', '32', '31'] 200.0
51 4.0 ['34', '32', '31'] 200.0
52 4.0 ['34', '32', '31'] 200.0
53 4.0 ['34', '32', '31'] 200.0
54 4.0 ['34', '32', '31'] 200.0
55 4.0 ['34', '32', '31'] 200.0
56 4.0 ['34', '32', '31'] 200.0
57 4.0 ['34', '32', '31'] 200.0
58 4.0 ['34', '32', '31'] 200.0
59 4.0 ['34', '32', '31'] 200.0
60 4.0 ['34', '32', '31'] 200.0
61 4.0 ['34', '32', '31'] 200.0
62 4.0 ['34', '32', '31'] 200.0
63 4.0 ['34', '32', '31'] 200.0
64 4.0 ['34', '32', '31'] 200.0
65 4.0 ['34', '32', '31'] 200.0
66 4.0 ['34', '32', '31'] 200.0
67 4.0 ['34', '32', '31'] 200.0
68 4.0 ['34', '32', '31'] 200.0
69 4.0 ['34', '32', '31'] 200.0
70 4.0 ['34', '32', '31'] 200.0
71 4.0 ['34', '32', '31'] 200.0
72 4.0 ['34', '32', '31'] 200.0
73 4.0 ['34', '32', '31'] 200.0
74 4.0 ['34', '32', '31'] 200.0
75 4.0 ['34', '32', '31'] 200.0
76 4.0 ['34', '32', '31'] 200.0
77 4.0 ['34', '32', '31'] 200.0
78 4.0 ['34', '32', '31'] 200.0
79 4.0 ['34', '32', '31'] 200.0
80 4.0 ['34', '32', '31'] 200.0
81 4.0 ['34', '32', '31'] 200.0
82 4.0 ['34', '32', '31'] 200.0
83 4.0 ['34', '32', '31'] 200.0
84 4.0 ['34', '32', '31'] 200.0
85 4.0 ['34', '32', '31'] 200.0
86 4.0 ['34', '32', '31'] 200.0
87 4.0 ['34', '32', '31'] 200.0
88 4.0 ['34', '32', '31'] 200.0
89 4.0 ['34', '32', '31'] 200.0
90 4.0 ['34', '32', '31'] 200.0
91 4.0 ['34', '32', '31'] 200.0
92 4.0 ['34', '32', '31'] 200.0
93 4.0 ['34', '32', '31'] 200.0
94 4.0 ['34', '32', '31'] 200.0
95 4.0 ['34', '32', '31'] 200.0
96 4.0 ['34', '32', '31'] 200.0
97 4.0 ['34', '32', '31'] 200.0
98 4.0 ['34', '32', '31'] 200.0
99 4.0 ['34', '32', '31'] 200.0
100 4.0 ['34', '32', '31'] 200.0
101 4.0 ['34', '32', '31'] 200.0
102 4.0 ['34', '32', '31'] 200.0
103 4.0 ['34', '32', '31'] 200.0
104 4.0 ['34', '32', '31'] 200.0
105 4.0 ['34', '32', '31'] 200.0
106 4.0 ['34', '32', '31'] 200.0
107 4.0 ['34', '32', '31'] 200.0
108 4.0 ['34', '32', '31'] 200.0
109 4.0 ['34', '32', '31'] 200.0
110 4.0 ['34', '32', '31'] 200.0
111 4.0 ['34', '32', '31'] 200.0
112 4.0 ['34', '32', '31'] 200.0
113 4.0 ['34', '32', '31'] 200.0
114 4.0 ['34', '32', '31'] 200.0
115 4.0 ['34', '32', '31'] 200.0
116 4.0 ['34', '32', '31'] 200.0
117 4.0 ['34', '32', '31'] 200.0
118 4.0 ['34', '32', '31'] 200.0
119 4.0 ['34', '32', '31'] 200.0
120 4.0 ['34', '32', '31'] 200.0
121 4.0 ['34', '32', '31'] 200.0
122 4.0 ['34', '32', '31'] 200.0
123 4.0 ['34', '32', '31'] 200.0
124 4.0 ['34', '32', '31'] 200.0
125 4.0 ['34', '32', '31'] 200.0
126 4.0 ['34', '32', '31'] 200.0
127 4.0 ['34', '32', '31'] 200.0
128 4.0 ['34', '32', '31'] 200.0
129 4.0 ['34', '32', '31'] 200.0
130 4.0 ['34', '32', '31'] 200.0
131 4.0 ['34', '32', '31'] 200.0
132 4.0 ['34', '32', '31'] 200.0
133 4.0 ['34', '32', '31'] 200.0
134 4.0 ['34', '32', '31'] 200.0
135 4.0 ['34', '32', '31'] 200.0
136 4.0 ['34', '32', '31'] 200.0
137 4.0 ['34', '32', '31'] 200.0
138 4.0 ['34', '32', '31'] 200.0
139 4.0 ['34', '32', '31'] 200.0
140 4.0 ['34', '32', '31'] 200.0
141 4.0 ['34', '32', '31'] 200.0
142 4.0 ['34', '32', '31'] 200.0
143 4.0 ['34', '32', '31'] 200.0
144 4.0 ['34', '32', '31'] 200.0
145 4.0 ['34', '32', '31'] 200.0
146 4.0 ['34', '32', '31'] 200.0
147 4.0 ['34', '32', '31'] 200.0
148 4.0 ['34', '32', '31'] 200.0
149 4.0 ['34', '32', '31'] 200.0
150 4.0 ['34', '32', '31'] 200.0
151 4.0 ['34', '32', '31'] 200.0
152 4.0 ['34', '32', '31'] 200.0
153 4.0 ['34', '32', '31'] 200.0
154 4.0 ['34', '32', '31'] 200.0
155 4.0 ['34', '32', '31'] 200.0
156 4.0 ['34', '32', '31'] 200.0
157 4.0 ['34', '32', '31'] 200.0
158 4.0 ['34', '32', '31'] 200.0
159 4.0 ['34', '32', '31'] 200.0
160 4.0 ['34', '32', '31'] 200.0
161 4.0 ['34', '32', '31'] 200.0
162 4.0 ['34', '32', '31'] 200.0
163 4.0 ['34', '32', '31'] 200.0
164 4.0 ['34', '32', '31'] 200.0
165 4.0 ['34', '32', '31'] 200.0
166 4.0 ['34', '32', '31'] 200.0
167 4.0 ['34', '32', '31'] 200.0
168 4.0 ['34', '32', '31'] 200.0
169 4.0 ['34', '32', '31'] 200.0
170 4.0 ['34', '32', '31'] 200.0
171 4.0 ['34', '32', '31'] 200.0
172 4.0 ['34', '32', '31'] 200.0
173 4.0 ['34', '32', '31'] 200.0
174 4.0 ['34', '32', '31'] 200.0
175 4.0 ['34', '32', '31'] 200.0
176 4.0 ['34', '32', '31'] 200.0
177 4.0 ['34', '32', '31'] 200.0
178 4.0 ['34', '32', '31'] 200.0
179 4.0 ['34', '32', '31'] 200.0
180 4.0 ['34', '32', '31'] 200.0
181 4.0 ['34', '32', '31'] 200.0
182 4.0 ['34', '32', '31'] 200.0
183 4.0 ['34', '32', '31'] 200.0
184 4.0 ['34', '32', '31'] 200.0
185 4.0 ['34', '32', '31'] 200.0
186 4.0 ['34', '32', '31'] 200.0
187 4.0 ['34', '32', '31'] 200.0
188 4.0 ['34', '32', '31'] 200.0
189 4.0 ['34', '32', '31'] 200.0
190 4.0 ['34', '32', '31'] 200.0
191 4.0 ['34', '32', '31'] 200.0
192 4.0 ['34', '32', '31'] 200.0
193 4.0 ['34', '32', '31'] 200.0
194 4.0 ['34', '32', '31'] 200.0
195 4.0 ['34', '32', '31'] 200.0
196 4.0 ['34', '32', '31'] 200.0
197 4.0 ['34', '32', '31'] 200.0
198 4.0 ['34', '32', '31'] 200.0
199 4.0 ['34', '32', '31'] 200.0
