0 4.8 ['1', '9', '21'] 265.8666666666667
1 4.8 ['1', '9', '21'] 258.40000000000003
2 4.666666666666667 ['21', '32', '10'] 251.3333333333332
3 4.666666666666667 ['21', '32', '10'] 245.4666666666667
4 4.533333333333333 ['8', '21', '9'] 241.06666666666678
5 4.533333333333333 ['8', '21', '9'] 236.53333333333362
6 4.533333333333333 ['8', '21', '9'] 232.9333333333332
7 4.533333333333333 ['8', '21', '9'] 232.13333333333316
8 4.533333333333333 ['8', '21', '9'] 230.93333333333314
9 4.533333333333333 ['8', '21', '9'] 228.2666666666665
10 4.533333333333333 ['8', '21', '9'] 226.6666666666666
11 4.533333333333333 ['8', '21', '9'] 226.6666666666666
12 4.533333333333333 ['8', '21', '9'] 226.6666666666666
13 4.533333333333333 ['8', '21', '9'] 226.6666666666666
14 4.533333333333333 ['8', '21', '9'] 226.6666666666666
15 4.533333333333333 ['8', '21', '9'] 226.6666666666666
16 4.533333333333333 ['8', '21', '9'] 226.6666666666666
17 4.533333333333333 ['8', '21', '9'] 226.6666666666666
18 4.533333333333333 ['8', '21', '9'] 226.6666666666666
19 4.533333333333333 ['8', '21', '9'] 226.6666666666666
20 4.533333333333333 ['8', '21', '9'] 226.6666666666666
21 4.533333333333333 ['8', '21', '9'] 226.6666666666666
22 4.533333333333333 ['8', '21', '9'] 226.6666666666666
23 4.533333333333333 ['8', '21', '9'] 226.6666666666666
24 4.533333333333333 ['8', '21', '9'] 226.6666666666666
25 4.533333333333333 ['8', '21', '9'] 226.6666666666666
26 4.533333333333333 ['8', '21', '9'] 226.6666666666666
27 4.533333333333333 ['8', '21', '9'] 226.6666666666666
28 4.533333333333333 ['8', '21', '9'] 226.6666666666666
29 4.533333333333333 ['8', '21', '9'] 226.6666666666666
30 4.533333333333333 ['8', '21', '9'] 226.6666666666666
31 4.533333333333333 ['8', '21', '9'] 226.6666666666666
32 4.533333333333333 ['8', '21', '9'] 226.6666666666666
33 4.533333333333333 ['8', '21', '9'] 226.6666666666666
34 4.533333333333333 ['8', '21', '9'] 226.6666666666666
35 4.533333333333333 ['8', '21', '9'] 226.6666666666666
36 4.533333333333333 ['8', '21', '9'] 226.6666666666666
37 4.533333333333333 ['8', '21', '9'] 226.6666666666666
38 4.533333333333333 ['8', '21', '9'] 226.6666666666666
39 4.533333333333333 ['8', '21', '9'] 226.6666666666666
40 4.533333333333333 ['8', '21', '9'] 226.6666666666666
41 4.533333333333333 ['8', '21', '9'] 226.6666666666666
42 4.533333333333333 ['8', '21', '9'] 226.6666666666666
43 4.533333333333333 ['8', '21', '9'] 226.6666666666666
44 4.533333333333333 ['8', '21', '9'] 226.6666666666666
45 4.533333333333333 ['8', '21', '9'] 226.6666666666666
46 4.533333333333333 ['8', '21', '9'] 226.6666666666666
47 4.533333333333333 ['8', '21', '9'] 226.6666666666666
48 4.533333333333333 ['8', '21', '9'] 226.6666666666666
49 4.533333333333333 ['8', '21', '9'] 226.6666666666666
50 4.533333333333333 ['8', '21', '9'] 226.6666666666666
51 4.533333333333333 ['8', '21', '9'] 226.6666666666666
52 4.533333333333333 ['8', '21', '9'] 226.6666666666666
53 4.533333333333333 ['8', '21', '9'] 226.6666666666666
54 4.533333333333333 ['8', '21', '9'] 226.6666666666666
55 4.533333333333333 ['8', '21', '9'] 226.6666666666666
56 4.533333333333333 ['8', '21', '9'] 226.6666666666666
57 4.533333333333333 ['8', '21', '9'] 226.6666666666666
58 4.533333333333333 ['8', '21', '9'] 226.6666666666666
59 4.533333333333333 ['8', '21', '9'] 226.6666666666666
60 4.533333333333333 ['8', '21', '9'] 226.6666666666666
61 4.533333333333333 ['8', '21', '9'] 226.6666666666666
62 4.533333333333333 ['8', '21', '9'] 226.6666666666666
63 4.533333333333333 ['8', '21', '9'] 226.6666666666666
64 4.533333333333333 ['8', '21', '9'] 226.6666666666666
65 4.533333333333333 ['8', '21', '9'] 226.6666666666666
66 4.533333333333333 ['8', '21', '9'] 226.6666666666666
67 4.533333333333333 ['8', '21', '9'] 226.6666666666666
68 4.533333333333333 ['8', '21', '9'] 226.6666666666666
69 4.533333333333333 ['8', '21', '9'] 226.6666666666666
70 4.533333333333333 ['8', '21', '9'] 226.6666666666666
71 4.533333333333333 ['8', '21', '9'] 226.6666666666666
72 4.533333333333333 ['8', '21', '9'] 226.6666666666666
73 4.533333333333333 ['8', '21', '9'] 226.6666666666666
74 4.533333333333333 ['8', '21', '9'] 226.6666666666666
75 4.533333333333333 ['8', '21', '9'] 226.6666666666666
76 4.533333333333333 ['8', '21', '9'] 226.6666666666666
77 4.533333333333333 ['8', '21', '9'] 226.6666666666666
78 4.533333333333333 ['8', '21', '9'] 226.6666666666666
79 4.533333333333333 ['8', '21', '9'] 226.6666666666666
80 4.533333333333333 ['8', '21', '9'] 226.6666666666666
81 4.533333333333333 ['8', '21', '9'] 226.6666666666666
82 4.533333333333333 ['8', '21', '9'] 226.6666666666666
83 4.533333333333333 ['8', '21', '9'] 226.6666666666666
84 4.533333333333333 ['8', '21', '9'] 226.6666666666666
85 4.533333333333333 ['8', '21', '9'] 226.6666666666666
86 4.533333333333333 ['8', '21', '9'] 226.6666666666666
87 4.533333333333333 ['8', '21', '9'] 226.6666666666666
88 4.533333333333333 ['8', '21', '9'] 226.6666666666666
89 4.533333333333333 ['8', '21', '9'] 226.6666666666666
90 4.533333333333333 ['8', '21', '9'] 226.6666666666666
91 4.533333333333333 ['8', '21', '9'] 226.6666666666666
92 4.533333333333333 ['8', '21', '9'] 226.6666666666666
93 4.533333333333333 ['8', '21', '9'] 226.6666666666666
94 4.533333333333333 ['8', '21', '9'] 226.6666666666666
95 4.533333333333333 ['8', '21', '9'] 226.6666666666666
96 4.533333333333333 ['8', '21', '9'] 226.6666666666666
97 4.533333333333333 ['8', '21', '9'] 226.6666666666666
98 4.533333333333333 ['8', '21', '9'] 226.6666666666666
99 4.533333333333333 ['8', '21', '9'] 226.6666666666666
100 4.533333333333333 ['8', '21', '9'] 226.6666666666666
101 4.533333333333333 ['8', '21', '9'] 226.6666666666666
102 4.533333333333333 ['8', '21', '9'] 226.6666666666666
103 4.533333333333333 ['8', '21', '9'] 226.6666666666666
104 4.533333333333333 ['8', '21', '9'] 226.6666666666666
105 4.533333333333333 ['8', '21', '9'] 226.6666666666666
106 4.533333333333333 ['8', '21', '9'] 226.6666666666666
107 4.533333333333333 ['8', '21', '9'] 226.6666666666666
108 4.533333333333333 ['8', '21', '9'] 226.6666666666666
109 4.533333333333333 ['8', '21', '9'] 226.6666666666666
110 4.533333333333333 ['8', '21', '9'] 226.6666666666666
111 4.533333333333333 ['8', '21', '9'] 226.6666666666666
112 4.533333333333333 ['8', '21', '9'] 226.6666666666666
113 4.533333333333333 ['8', '21', '9'] 226.6666666666666
114 4.533333333333333 ['8', '21', '9'] 226.6666666666666
115 4.533333333333333 ['8', '21', '9'] 226.6666666666666
116 4.533333333333333 ['8', '21', '9'] 226.6666666666666
117 4.533333333333333 ['8', '21', '9'] 226.6666666666666
118 4.533333333333333 ['8', '21', '9'] 226.6666666666666
119 4.533333333333333 ['8', '21', '9'] 226.6666666666666
120 4.533333333333333 ['8', '21', '9'] 226.6666666666666
121 4.533333333333333 ['8', '21', '9'] 226.6666666666666
122 4.533333333333333 ['8', '21', '9'] 226.6666666666666
123 4.533333333333333 ['8', '21', '9'] 226.6666666666666
124 4.533333333333333 ['8', '21', '9'] 226.6666666666666
125 4.533333333333333 ['8', '21', '9'] 226.6666666666666
126 4.533333333333333 ['8', '21', '9'] 226.6666666666666
127 4.533333333333333 ['8', '21', '9'] 226.6666666666666
128 4.533333333333333 ['8', '21', '9'] 226.6666666666666
129 4.533333333333333 ['8', '21', '9'] 226.6666666666666
130 4.533333333333333 ['8', '21', '9'] 226.6666666666666
131 4.533333333333333 ['8', '21', '9'] 226.6666666666666
132 4.533333333333333 ['8', '21', '9'] 226.6666666666666
133 4.533333333333333 ['8', '21', '9'] 226.6666666666666
134 4.533333333333333 ['8', '21', '9'] 226.6666666666666
135 4.533333333333333 ['8', '21', '9'] 226.6666666666666
136 4.533333333333333 ['8', '21', '9'] 226.6666666666666
137 4.533333333333333 ['8', '21', '9'] 226.6666666666666
138 4.533333333333333 ['8', '21', '9'] 226.6666666666666
139 4.533333333333333 ['8', '21', '9'] 226.6666666666666
140 4.533333333333333 ['8', '21', '9'] 226.6666666666666
141 4.533333333333333 ['8', '21', '9'] 226.6666666666666
142 4.533333333333333 ['8', '21', '9'] 226.6666666666666
143 4.533333333333333 ['8', '21', '9'] 226.6666666666666
144 4.533333333333333 ['8', '21', '9'] 226.6666666666666
145 4.533333333333333 ['8', '21', '9'] 226.6666666666666
146 4.533333333333333 ['8', '21', '9'] 226.6666666666666
147 4.533333333333333 ['8', '21', '9'] 226.6666666666666
148 4.533333333333333 ['8', '21', '9'] 226.6666666666666
149 4.533333333333333 ['8', '21', '9'] 226.6666666666666
150 4.533333333333333 ['8', '21', '9'] 226.6666666666666
151 4.533333333333333 ['8', '21', '9'] 226.6666666666666
152 4.533333333333333 ['8', '21', '9'] 226.6666666666666
153 4.533333333333333 ['8', '21', '9'] 226.6666666666666
154 4.533333333333333 ['8', '21', '9'] 226.6666666666666
155 4.533333333333333 ['8', '21', '9'] 226.6666666666666
156 4.533333333333333 ['8', '21', '9'] 226.6666666666666
157 4.533333333333333 ['8', '21', '9'] 226.6666666666666
158 4.533333333333333 ['8', '21', '9'] 226.6666666666666
159 4.533333333333333 ['8', '21', '9'] 226.6666666666666
160 4.533333333333333 ['8', '21', '9'] 226.6666666666666
161 4.533333333333333 ['8', '21', '9'] 226.6666666666666
162 4.533333333333333 ['8', '21', '9'] 226.6666666666666
163 4.533333333333333 ['8', '21', '9'] 226.6666666666666
164 4.533333333333333 ['8', '21', '9'] 226.6666666666666
165 4.533333333333333 ['8', '21', '9'] 226.6666666666666
166 4.533333333333333 ['8', '21', '9'] 226.6666666666666
167 4.533333333333333 ['8', '21', '9'] 226.6666666666666
168 4.533333333333333 ['8', '21', '9'] 226.6666666666666
169 4.533333333333333 ['8', '21', '9'] 226.6666666666666
170 4.533333333333333 ['8', '21', '9'] 226.6666666666666
171 4.533333333333333 ['8', '21', '9'] 226.6666666666666
172 4.533333333333333 ['8', '21', '9'] 226.6666666666666
173 4.533333333333333 ['8', '21', '9'] 226.6666666666666
174 4.533333333333333 ['8', '21', '9'] 226.6666666666666
175 4.533333333333333 ['8', '21', '9'] 226.6666666666666
176 4.533333333333333 ['8', '21', '9'] 226.6666666666666
177 4.533333333333333 ['8', '21', '9'] 226.6666666666666
178 4.533333333333333 ['8', '21', '9'] 226.6666666666666
179 4.533333333333333 ['8', '21', '9'] 226.6666666666666
180 4.533333333333333 ['8', '21', '9'] 226.6666666666666
181 4.533333333333333 ['8', '21', '9'] 226.6666666666666
182 4.533333333333333 ['8', '21', '9'] 226.6666666666666
183 4.533333333333333 ['8', '21', '9'] 226.6666666666666
184 4.533333333333333 ['8', '21', '9'] 226.6666666666666
185 4.533333333333333 ['8', '21', '9'] 226.6666666666666
186 4.533333333333333 ['8', '21', '9'] 226.6666666666666
187 4.533333333333333 ['8', '21', '9'] 226.6666666666666
188 4.533333333333333 ['8', '21', '9'] 226.6666666666666
189 4.533333333333333 ['8', '21', '9'] 226.6666666666666
190 4.533333333333333 ['8', '21', '9'] 226.6666666666666
191 4.533333333333333 ['8', '21', '9'] 226.6666666666666
192 4.533333333333333 ['8', '21', '9'] 226.6666666666666
193 4.533333333333333 ['8', '21', '9'] 226.6666666666666
194 4.533333333333333 ['8', '21', '9'] 226.6666666666666
195 4.533333333333333 ['8', '21', '9'] 226.6666666666666
196 4.533333333333333 ['8', '21', '9'] 226.6666666666666
197 4.533333333333333 ['8', '21', '9'] 226.6666666666666
198 4.533333333333333 ['8', '21', '9'] 226.6666666666666
199 4.533333333333333 ['8', '21', '9'] 226.6666666666666
