0 20.296296296296298 ['36', '55', '48', '57', '50', '27'] 1125.4074074074074
1 19.555555555555557 ['9', '53', '55', '39', '5', '14'] 1083.555555555555
2 19.555555555555557 ['9', '53', '55', '39', '5', '14'] 1039.7037037037044
3 18.51851851851852 ['14', '9', '53', '39', '55', '7'] 1000.6666666666664
4 17.25925925925926 ['7', '27', '16', '6', '55', '53'] 966.9629629629628
5 17.25925925925926 ['7', '27', '16', '6', '55', '53'] 935.8518518518523
6 16.88888888888889 ['55', '53', '14', '8', '7', '42'] 902.962962962963
7 16.88888888888889 ['55', '53', '14', '8', '7', '42'] 877.4814814814814
8 16.444444444444443 ['53', '55', '57', '16', '8', '7'] 860.1481481481479
9 16.22222222222222 ['6', '55', '53', '7', '8', '27'] 849.6296296296296
10 15.925925925925926 ['7', '55', '53', '57', '8', '27'] 834.8148148148155
11 15.925925925925926 ['7', '55', '53', '57', '8', '27'] 821.2592592592595
12 15.925925925925926 ['7', '55', '53', '57', '8', '27'] 809.0370370370366
13 15.925925925925926 ['7', '55', '53', '57', '8', '27'] 801.0370370370363
14 15.925925925925926 ['7', '55', '53', '57', '8', '27'] 796.2962962962972
15 15.925925925925926 ['7', '55', '53', '57', '8', '27'] 796.2962962962972
16 15.925925925925926 ['7', '55', '53', '57', '8', '27'] 796.2962962962972
17 15.925925925925926 ['7', '55', '53', '57', '8', '27'] 796.2962962962972
18 15.925925925925926 ['7', '55', '53', '57', '8', '27'] 796.2962962962972
19 15.925925925925926 ['7', '55', '53', '57', '8', '27'] 796.2962962962972
20 15.925925925925926 ['7', '55', '53', '57', '8', '27'] 796.2962962962972
21 15.925925925925926 ['7', '55', '53', '57', '8', '27'] 796.2962962962972
22 15.925925925925926 ['7', '55', '53', '57', '8', '27'] 796.2962962962972
23 15.925925925925926 ['7', '55', '53', '57', '8', '27'] 796.2962962962972
24 15.925925925925926 ['7', '55', '53', '57', '8', '27'] 796.2962962962972
25 15.925925925925926 ['7', '55', '53', '57', '8', '27'] 796.2962962962972
26 15.925925925925926 ['7', '55', '53', '57', '8', '27'] 796.2962962962972
27 15.925925925925926 ['7', '55', '53', '57', '8', '27'] 796.2962962962972
28 15.925925925925926 ['7', '55', '53', '57', '8', '27'] 796.2962962962972
29 15.925925925925926 ['7', '55', '53', '57', '8', '27'] 796.2962962962972
30 15.925925925925926 ['7', '55', '53', '57', '8', '27'] 796.2962962962972
31 15.925925925925926 ['7', '55', '53', '57', '8', '27'] 796.2962962962972
32 15.925925925925926 ['7', '55', '53', '57', '8', '27'] 796.2962962962972
33 15.925925925925926 ['7', '55', '53', '57', '8', '27'] 796.2962962962972
34 15.925925925925926 ['7', '55', '53', '57', '8', '27'] 796.2962962962972
35 15.925925925925926 ['7', '55', '53', '57', '8', '27'] 796.2962962962972
36 15.925925925925926 ['7', '55', '53', '57', '8', '27'] 796.2962962962972
37 15.925925925925926 ['7', '55', '53', '57', '8', '27'] 796.2962962962972
38 15.925925925925926 ['7', '55', '53', '57', '8', '27'] 796.2962962962972
39 15.925925925925926 ['7', '55', '53', '57', '8', '27'] 796.2962962962972
40 15.925925925925926 ['7', '55', '53', '57', '8', '27'] 796.2962962962972
41 15.925925925925926 ['7', '55', '53', '57', '8', '27'] 796.2962962962972
42 15.925925925925926 ['7', '55', '53', '57', '8', '27'] 796.2962962962972
43 15.925925925925926 ['7', '55', '53', '57', '8', '27'] 796.2962962962972
44 15.925925925925926 ['7', '55', '53', '57', '8', '27'] 796.2962962962972
45 15.925925925925926 ['7', '55', '53', '57', '8', '27'] 796.2962962962972
46 15.925925925925926 ['7', '55', '53', '57', '8', '27'] 796.2962962962972
47 15.925925925925926 ['7', '55', '53', '57', '8', '27'] 796.2962962962972
48 15.925925925925926 ['7', '55', '53', '57', '8', '27'] 796.2962962962972
49 15.925925925925926 ['7', '55', '53', '57', '8', '27'] 796.2962962962972
50 15.925925925925926 ['7', '55', '53', '57', '8', '27'] 796.2962962962972
51 15.925925925925926 ['7', '55', '53', '57', '8', '27'] 796.2962962962972
52 15.925925925925926 ['7', '55', '53', '57', '8', '27'] 796.2962962962972
53 15.925925925925926 ['7', '55', '53', '57', '8', '27'] 796.2962962962972
54 15.925925925925926 ['7', '55', '53', '57', '8', '27'] 796.2962962962972
55 15.925925925925926 ['7', '55', '53', '57', '8', '27'] 796.2962962962972
56 15.925925925925926 ['7', '55', '53', '57', '8', '27'] 796.2962962962972
57 15.925925925925926 ['7', '55', '53', '57', '8', '27'] 796.2962962962972
58 15.925925925925926 ['7', '55', '53', '57', '8', '27'] 796.2962962962972
59 15.925925925925926 ['7', '55', '53', '57', '8', '27'] 796.2962962962972
60 15.925925925925926 ['7', '55', '53', '57', '8', '27'] 796.2962962962972
61 15.925925925925926 ['7', '55', '53', '57', '8', '27'] 796.2962962962972
62 15.925925925925926 ['7', '55', '53', '57', '8', '27'] 796.2962962962972
63 15.925925925925926 ['7', '55', '53', '57', '8', '27'] 796.2962962962972
64 15.925925925925926 ['7', '55', '53', '57', '8', '27'] 796.2962962962972
65 15.925925925925926 ['7', '55', '53', '57', '8', '27'] 796.2962962962972
66 15.925925925925926 ['7', '55', '53', '57', '8', '27'] 796.2962962962972
67 15.925925925925926 ['7', '55', '53', '57', '8', '27'] 796.2962962962972
68 15.925925925925926 ['7', '55', '53', '57', '8', '27'] 796.2962962962972
69 15.925925925925926 ['7', '55', '53', '57', '8', '27'] 796.2962962962972
70 15.925925925925926 ['7', '55', '53', '57', '8', '27'] 796.2962962962972
71 15.925925925925926 ['7', '55', '53', '57', '8', '27'] 796.2962962962972
72 15.925925925925926 ['7', '55', '53', '57', '8', '27'] 796.2962962962972
73 15.925925925925926 ['7', '55', '53', '57', '8', '27'] 796.2962962962972
74 15.925925925925926 ['7', '55', '53', '57', '8', '27'] 796.2962962962972
75 15.925925925925926 ['7', '55', '53', '57', '8', '27'] 796.2962962962972
76 15.925925925925926 ['7', '55', '53', '57', '8', '27'] 796.2962962962972
77 15.925925925925926 ['7', '55', '53', '57', '8', '27'] 796.2962962962972
78 15.925925925925926 ['7', '55', '53', '57', '8', '27'] 796.2962962962972
79 15.925925925925926 ['7', '55', '53', '57', '8', '27'] 796.2962962962972
80 15.925925925925926 ['7', '55', '53', '57', '8', '27'] 796.2962962962972
81 15.925925925925926 ['7', '55', '53', '57', '8', '27'] 796.2962962962972
82 15.925925925925926 ['7', '55', '53', '57', '8', '27'] 796.2962962962972
83 15.925925925925926 ['7', '55', '53', '57', '8', '27'] 796.2962962962972
84 15.925925925925926 ['7', '55', '53', '57', '8', '27'] 796.2962962962972
85 15.925925925925926 ['7', '55', '53', '57', '8', '27'] 796.2962962962972
86 15.925925925925926 ['7', '55', '53', '57', '8', '27'] 796.2962962962972
87 15.925925925925926 ['7', '55', '53', '57', '8', '27'] 796.2962962962972
88 15.925925925925926 ['7', '55', '53', '57', '8', '27'] 796.2962962962972
89 15.925925925925926 ['7', '55', '53', '57', '8', '27'] 796.2962962962972
90 15.925925925925926 ['7', '55', '53', '57', '8', '27'] 796.2962962962972
91 15.925925925925926 ['7', '55', '53', '57', '8', '27'] 796.2962962962972
92 15.925925925925926 ['7', '55', '53', '57', '8', '27'] 796.2962962962972
93 15.925925925925926 ['7', '55', '53', '57', '8', '27'] 796.2962962962972
94 15.925925925925926 ['7', '55', '53', '57', '8', '27'] 796.2962962962972
95 15.925925925925926 ['7', '55', '53', '57', '8', '27'] 796.2962962962972
96 15.925925925925926 ['7', '55', '53', '57', '8', '27'] 796.2962962962972
97 15.925925925925926 ['7', '55', '53', '57', '8', '27'] 796.2962962962972
98 15.925925925925926 ['7', '55', '53', '57', '8', '27'] 796.2962962962972
99 15.925925925925926 ['7', '55', '53', '57', '8', '27'] 796.2962962962972
100 15.925925925925926 ['7', '55', '53', '57', '8', '27'] 796.2962962962972
101 15.925925925925926 ['7', '55', '53', '57', '8', '27'] 796.2962962962972
102 15.925925925925926 ['7', '55', '53', '57', '8', '27'] 796.2962962962972
103 15.925925925925926 ['7', '55', '53', '57', '8', '27'] 796.2962962962972
104 15.925925925925926 ['7', '55', '53', '57', '8', '27'] 796.2962962962972
105 15.925925925925926 ['7', '55', '53', '57', '8', '27'] 796.2962962962972
106 15.925925925925926 ['7', '55', '53', '57', '8', '27'] 796.2962962962972
107 15.925925925925926 ['7', '55', '53', '57', '8', '27'] 796.2962962962972
108 15.925925925925926 ['7', '55', '53', '57', '8', '27'] 796.2962962962972
109 15.925925925925926 ['7', '55', '53', '57', '8', '27'] 796.2962962962972
110 15.925925925925926 ['7', '55', '53', '57', '8', '27'] 796.2962962962972
111 15.925925925925926 ['7', '55', '53', '57', '8', '27'] 796.2962962962972
112 15.925925925925926 ['7', '55', '53', '57', '8', '27'] 796.2962962962972
113 15.925925925925926 ['7', '55', '53', '57', '8', '27'] 796.2962962962972
114 15.925925925925926 ['7', '55', '53', '57', '8', '27'] 796.2962962962972
115 15.925925925925926 ['7', '55', '53', '57', '8', '27'] 796.2962962962972
116 15.925925925925926 ['7', '55', '53', '57', '8', '27'] 796.2962962962972
117 15.925925925925926 ['7', '55', '53', '57', '8', '27'] 796.2962962962972
118 15.925925925925926 ['7', '55', '53', '57', '8', '27'] 796.2962962962972
119 15.925925925925926 ['7', '55', '53', '57', '8', '27'] 796.2962962962972
120 15.925925925925926 ['7', '55', '53', '57', '8', '27'] 796.2962962962972
121 15.925925925925926 ['7', '55', '53', '57', '8', '27'] 796.2962962962972
122 15.925925925925926 ['7', '55', '53', '57', '8', '27'] 796.2962962962972
123 15.925925925925926 ['7', '55', '53', '57', '8', '27'] 796.2962962962972
124 15.925925925925926 ['7', '55', '53', '57', '8', '27'] 796.2962962962972
125 15.925925925925926 ['7', '55', '53', '57', '8', '27'] 796.2962962962972
126 15.925925925925926 ['7', '55', '53', '57', '8', '27'] 796.2962962962972
127 15.925925925925926 ['7', '55', '53', '57', '8', '27'] 796.2962962962972
128 15.925925925925926 ['7', '55', '53', '57', '8', '27'] 796.2962962962972
129 15.925925925925926 ['7', '55', '53', '57', '8', '27'] 796.2962962962972
130 15.925925925925926 ['7', '55', '53', '57', '8', '27'] 796.2962962962972
131 15.925925925925926 ['7', '55', '53', '57', '8', '27'] 796.2962962962972
132 15.925925925925926 ['7', '55', '53', '57', '8', '27'] 796.2962962962972
133 15.925925925925926 ['7', '55', '53', '57', '8', '27'] 796.2962962962972
134 15.925925925925926 ['7', '55', '53', '57', '8', '27'] 796.2962962962972
135 15.925925925925926 ['7', '55', '53', '57', '8', '27'] 796.2962962962972
136 15.925925925925926 ['7', '55', '53', '57', '8', '27'] 796.2962962962972
137 15.925925925925926 ['7', '55', '53', '57', '8', '27'] 796.2962962962972
138 15.925925925925926 ['7', '55', '53', '57', '8', '27'] 796.2962962962972
139 15.925925925925926 ['7', '55', '53', '57', '8', '27'] 796.2962962962972
140 15.925925925925926 ['7', '55', '53', '57', '8', '27'] 796.2962962962972
141 15.925925925925926 ['7', '55', '53', '57', '8', '27'] 796.2962962962972
142 15.925925925925926 ['7', '55', '53', '57', '8', '27'] 796.2962962962972
143 15.925925925925926 ['7', '55', '53', '57', '8', '27'] 796.2962962962972
144 15.925925925925926 ['7', '55', '53', '57', '8', '27'] 796.2962962962972
145 15.925925925925926 ['7', '55', '53', '57', '8', '27'] 796.2962962962972
146 15.925925925925926 ['7', '55', '53', '57', '8', '27'] 796.2962962962972
147 15.925925925925926 ['7', '55', '53', '57', '8', '27'] 796.2962962962972
148 15.925925925925926 ['7', '55', '53', '57', '8', '27'] 796.2962962962972
149 15.925925925925926 ['7', '55', '53', '57', '8', '27'] 796.2962962962972
150 15.925925925925926 ['7', '55', '53', '57', '8', '27'] 796.2962962962972
151 15.925925925925926 ['7', '55', '53', '57', '8', '27'] 796.2962962962972
152 15.925925925925926 ['7', '55', '53', '57', '8', '27'] 796.2962962962972
153 15.925925925925926 ['7', '55', '53', '57', '8', '27'] 796.2962962962972
154 15.925925925925926 ['7', '55', '53', '57', '8', '27'] 796.2962962962972
155 15.925925925925926 ['7', '55', '53', '57', '8', '27'] 796.2962962962972
156 15.925925925925926 ['7', '55', '53', '57', '8', '27'] 796.2962962962972
157 15.925925925925926 ['7', '55', '53', '57', '8', '27'] 796.2962962962972
158 15.925925925925926 ['7', '55', '53', '57', '8', '27'] 796.2962962962972
159 15.925925925925926 ['7', '55', '53', '57', '8', '27'] 796.2962962962972
160 15.925925925925926 ['7', '55', '53', '57', '8', '27'] 796.2962962962972
161 15.925925925925926 ['7', '55', '53', '57', '8', '27'] 796.2962962962972
162 15.925925925925926 ['7', '55', '53', '57', '8', '27'] 796.2962962962972
163 15.925925925925926 ['7', '55', '53', '57', '8', '27'] 796.2962962962972
164 15.925925925925926 ['7', '55', '53', '57', '8', '27'] 796.2962962962972
165 15.925925925925926 ['7', '55', '53', '57', '8', '27'] 796.2962962962972
166 15.925925925925926 ['7', '55', '53', '57', '8', '27'] 796.2962962962972
167 15.925925925925926 ['7', '55', '53', '57', '8', '27'] 796.2962962962972
168 15.925925925925926 ['7', '55', '53', '57', '8', '27'] 796.2962962962972
169 15.925925925925926 ['7', '55', '53', '57', '8', '27'] 796.2962962962972
170 15.925925925925926 ['7', '55', '53', '57', '8', '27'] 796.2962962962972
171 15.925925925925926 ['7', '55', '53', '57', '8', '27'] 796.2962962962972
172 15.925925925925926 ['7', '55', '53', '57', '8', '27'] 796.2962962962972
173 15.925925925925926 ['7', '55', '53', '57', '8', '27'] 796.2962962962972
174 15.925925925925926 ['7', '55', '53', '57', '8', '27'] 796.2962962962972
175 15.925925925925926 ['7', '55', '53', '57', '8', '27'] 796.2962962962972
176 15.925925925925926 ['7', '55', '53', '57', '8', '27'] 796.2962962962972
177 15.925925925925926 ['7', '55', '53', '57', '8', '27'] 796.2962962962972
178 15.925925925925926 ['7', '55', '53', '57', '8', '27'] 796.2962962962972
179 15.925925925925926 ['7', '55', '53', '57', '8', '27'] 796.2962962962972
180 15.925925925925926 ['7', '55', '53', '57', '8', '27'] 796.2962962962972
181 15.925925925925926 ['7', '55', '53', '57', '8', '27'] 796.2962962962972
182 15.925925925925926 ['7', '55', '53', '57', '8', '27'] 796.2962962962972
183 15.925925925925926 ['7', '55', '53', '57', '8', '27'] 796.2962962962972
184 15.925925925925926 ['7', '55', '53', '57', '8', '27'] 796.2962962962972
185 15.925925925925926 ['7', '55', '53', '57', '8', '27'] 796.2962962962972
186 15.925925925925926 ['7', '55', '53', '57', '8', '27'] 796.2962962962972
187 15.925925925925926 ['7', '55', '53', '57', '8', '27'] 796.2962962962972
188 15.925925925925926 ['7', '55', '53', '57', '8', '27'] 796.2962962962972
189 15.925925925925926 ['7', '55', '53', '57', '8', '27'] 796.2962962962972
190 15.925925925925926 ['7', '55', '53', '57', '8', '27'] 796.2962962962972
191 15.925925925925926 ['7', '55', '53', '57', '8', '27'] 796.2962962962972
192 15.925925925925926 ['7', '55', '53', '57', '8', '27'] 796.2962962962972
193 15.925925925925926 ['7', '55', '53', '57', '8', '27'] 796.2962962962972
194 15.925925925925926 ['7', '55', '53', '57', '8', '27'] 796.2962962962972
195 15.925925925925926 ['7', '55', '53', '57', '8', '27'] 796.2962962962972
196 15.925925925925926 ['7', '55', '53', '57', '8', '27'] 796.2962962962972
197 15.925925925925926 ['7', '55', '53', '57', '8', '27'] 796.2962962962972
198 15.925925925925926 ['7', '55', '53', '57', '8', '27'] 796.2962962962972
199 15.925925925925926 ['7', '55', '53', '57', '8', '27'] 796.2962962962972
