0 5.485802469135804 ['96', '75', '115', '112', '78', '24', '137', '143', '149', '57', '93', '113', '145', '119', '138'] 280.0613580246914
1 5.485802469135804 ['96', '75', '115', '112', '78', '24', '137', '143', '149', '57', '93', '113', '145', '119', '138'] 278.53765432098777
2 5.485432098765435 ['141', '107', '65', '84', '86', '105', '76', '90', '35', '20', '104', '40', '95', '51', '131'] 277.17506172839524
3 5.467160493827164 ['79', '111', '104', '106', '131', '149', '148', '95', '128', '143', '118', '146', '76', '28', '115'] 276.1130864197531
4 5.453950617283953 ['143', '128', '141', '35', '119', '125', '93', '133', '138', '137', '148', '129', '78', '105', '111'] 275.02209876543225
5 5.4206172839506195 ['76', '104', '131', '95', '146', '51', '139', '148', '115', '129', '35', '141', '105', '111', '145'] 274.06037037037044
6 5.409012345679014 ['149', '118', '143', '131', '111', '133', '148', '106', '28', '141', '79', '104', '128', '65', '146'] 273.0083950617285
7 5.385061728395066 ['148', '131', '115', '95', '104', '76', '111', '141', '145', '143', '106', '51', '139', '105', '128'] 272.24283950617297
8 5.34246913580247 ['143', '131', '148', '118', '104', '133', '106', '128', '141', '111', '149', '95', '105', '146', '125'] 271.3524691358026
9 5.34246913580247 ['143', '131', '148', '118', '104', '133', '106', '128', '141', '111', '149', '95', '105', '146', '125'] 270.35074074074083
10 5.34246913580247 ['143', '131', '148', '118', '104', '133', '106', '128', '141', '111', '149', '95', '105', '146', '125'] 269.5807407407408
11 5.341604938271607 ['95', '148', '141', '106', '131', '104', '105', '111', '129', '143', '133', '115', '78', '138', '146'] 268.71679012345686
12 5.3181481481481505 ['111', '78', '105', '148', '106', '131', '129', '104', '146', '143', '141', '95', '138', '149', '133'] 267.90753086419755
13 5.299259259259263 ['76', '131', '133', '105', '107', '149', '141', '143', '111', '135', '119', '106', '148', '104', '115'] 267.26271604938273
14 5.2922222222222235 ['141', '148', '105', '131', '104', '149', '133', '143', '76', '111', '119', '146', '128', '106', '99'] 266.53530864197546
15 5.288765432098766 ['143', '141', '106', '104', '133', '131', '148', '146', '111', '118', '149', '105', '119', '135', '107'] 265.86209876543217
16 5.269629629629631 ['138', '143', '104', '131', '105', '106', '141', '133', '111', '148', '76', '149', '119', '146', '95'] 265.3559259259261
17 5.269629629629631 ['138', '143', '104', '131', '105', '106', '141', '133', '111', '148', '76', '149', '119', '146', '95'] 264.92172839506185
18 5.265555555555556 ['105', '133', '76', '141', '143', '131', '104', '119', '106', '149', '111', '148', '146', '138', '135'] 264.42024691358023
19 5.258518518518519 ['111', '119', '104', '105', '148', '133', '146', '106', '143', '149', '141', '131', '107', '138', '135'] 264.00333333333344
20 5.258518518518519 ['111', '119', '104', '105', '148', '133', '146', '106', '143', '149', '141', '131', '107', '138', '135'] 263.5017283950619
21 5.258518518518519 ['111', '119', '104', '105', '148', '133', '146', '106', '143', '149', '141', '131', '107', '138', '135'] 263.34814814814837
22 5.258518518518519 ['111', '119', '104', '105', '148', '133', '146', '106', '143', '149', '141', '131', '107', '138', '135'] 263.2616049382715
23 5.258518518518519 ['111', '119', '104', '105', '148', '133', '146', '106', '143', '149', '141', '131', '107', '138', '135'] 263.221111111111
24 5.258518518518519 ['111', '119', '104', '105', '148', '133', '146', '106', '143', '149', '141', '131', '107', '138', '135'] 263.18851851851844
25 5.258518518518519 ['111', '119', '104', '105', '148', '133', '146', '106', '143', '149', '141', '131', '107', '138', '135'] 263.08518518518514
26 5.258518518518519 ['111', '119', '104', '105', '148', '133', '146', '106', '143', '149', '141', '131', '107', '138', '135'] 262.99814814814806
27 5.258518518518519 ['111', '119', '104', '105', '148', '133', '146', '106', '143', '149', '141', '131', '107', '138', '135'] 262.9259259259258
28 5.258518518518519 ['111', '119', '104', '105', '148', '133', '146', '106', '143', '149', '141', '131', '107', '138', '135'] 262.9259259259258
29 5.258518518518519 ['111', '119', '104', '105', '148', '133', '146', '106', '143', '149', '141', '131', '107', '138', '135'] 262.9259259259258
30 5.258518518518519 ['111', '119', '104', '105', '148', '133', '146', '106', '143', '149', '141', '131', '107', '138', '135'] 262.9259259259258
31 5.258518518518519 ['111', '119', '104', '105', '148', '133', '146', '106', '143', '149', '141', '131', '107', '138', '135'] 262.9259259259258
32 5.258518518518519 ['111', '119', '104', '105', '148', '133', '146', '106', '143', '149', '141', '131', '107', '138', '135'] 262.9259259259258
33 5.258518518518519 ['111', '119', '104', '105', '148', '133', '146', '106', '143', '149', '141', '131', '107', '138', '135'] 262.9259259259258
34 5.258518518518519 ['111', '119', '104', '105', '148', '133', '146', '106', '143', '149', '141', '131', '107', '138', '135'] 262.9259259259258
35 5.258518518518519 ['111', '119', '104', '105', '148', '133', '146', '106', '143', '149', '141', '131', '107', '138', '135'] 262.9259259259258
36 5.258518518518519 ['111', '119', '104', '105', '148', '133', '146', '106', '143', '149', '141', '131', '107', '138', '135'] 262.9259259259258
37 5.258518518518519 ['111', '119', '104', '105', '148', '133', '146', '106', '143', '149', '141', '131', '107', '138', '135'] 262.9259259259258
38 5.258518518518519 ['111', '119', '104', '105', '148', '133', '146', '106', '143', '149', '141', '131', '107', '138', '135'] 262.9259259259258
39 5.258518518518519 ['111', '119', '104', '105', '148', '133', '146', '106', '143', '149', '141', '131', '107', '138', '135'] 262.9259259259258
40 5.258518518518519 ['111', '119', '104', '105', '148', '133', '146', '106', '143', '149', '141', '131', '107', '138', '135'] 262.9259259259258
41 5.242098765432099 ['143', '146', '131', '141', '133', '106', '119', '138', '135', '148', '104', '111', '105', '149', '101'] 262.90950617283943
42 5.242098765432099 ['143', '146', '131', '141', '133', '106', '119', '138', '135', '148', '104', '111', '105', '149', '101'] 262.87666666666655
43 5.242098765432099 ['143', '146', '131', '141', '133', '106', '119', '138', '135', '148', '104', '111', '105', '149', '101'] 262.7617283950616
44 5.242098765432099 ['143', '146', '131', '141', '133', '106', '119', '138', '135', '148', '104', '111', '105', '149', '101'] 262.6303703703703
45 5.242098765432099 ['143', '146', '131', '141', '133', '106', '119', '138', '135', '148', '104', '111', '105', '149', '101'] 262.30197530864206
46 5.242098765432099 ['143', '146', '131', '141', '133', '106', '119', '138', '135', '148', '104', '111', '105', '149', '101'] 262.1049382716051
47 5.242098765432099 ['143', '146', '131', '141', '133', '106', '119', '138', '135', '148', '104', '111', '105', '149', '101'] 262.1049382716051
48 5.242098765432099 ['143', '146', '131', '141', '133', '106', '119', '138', '135', '148', '104', '111', '105', '149', '101'] 262.1049382716051
49 5.242098765432099 ['143', '146', '131', '141', '133', '106', '119', '138', '135', '148', '104', '111', '105', '149', '101'] 262.1049382716051
50 5.242098765432099 ['143', '146', '131', '141', '133', '106', '119', '138', '135', '148', '104', '111', '105', '149', '101'] 262.1049382716051
51 5.242098765432099 ['143', '146', '131', '141', '133', '106', '119', '138', '135', '148', '104', '111', '105', '149', '101'] 262.1049382716051
52 5.242098765432099 ['143', '146', '131', '141', '133', '106', '119', '138', '135', '148', '104', '111', '105', '149', '101'] 262.1049382716051
53 5.242098765432099 ['143', '146', '131', '141', '133', '106', '119', '138', '135', '148', '104', '111', '105', '149', '101'] 262.1049382716051
54 5.242098765432099 ['143', '146', '131', '141', '133', '106', '119', '138', '135', '148', '104', '111', '105', '149', '101'] 262.1049382716051
55 5.242098765432099 ['143', '146', '131', '141', '133', '106', '119', '138', '135', '148', '104', '111', '105', '149', '101'] 262.1049382716051
56 5.242098765432099 ['143', '146', '131', '141', '133', '106', '119', '138', '135', '148', '104', '111', '105', '149', '101'] 262.1049382716051
57 5.242098765432099 ['143', '146', '131', '141', '133', '106', '119', '138', '135', '148', '104', '111', '105', '149', '101'] 262.1049382716051
58 5.242098765432099 ['143', '146', '131', '141', '133', '106', '119', '138', '135', '148', '104', '111', '105', '149', '101'] 262.1049382716051
59 5.242098765432099 ['143', '146', '131', '141', '133', '106', '119', '138', '135', '148', '104', '111', '105', '149', '101'] 262.1049382716051
60 5.242098765432099 ['143', '146', '131', '141', '133', '106', '119', '138', '135', '148', '104', '111', '105', '149', '101'] 262.1049382716051
61 5.242098765432099 ['143', '146', '131', '141', '133', '106', '119', '138', '135', '148', '104', '111', '105', '149', '101'] 262.1049382716051
62 5.242098765432099 ['143', '146', '131', '141', '133', '106', '119', '138', '135', '148', '104', '111', '105', '149', '101'] 262.1049382716051
63 5.242098765432099 ['143', '146', '131', '141', '133', '106', '119', '138', '135', '148', '104', '111', '105', '149', '101'] 262.1049382716051
64 5.242098765432099 ['143', '146', '131', '141', '133', '106', '119', '138', '135', '148', '104', '111', '105', '149', '101'] 262.1049382716051
65 5.242098765432099 ['143', '146', '131', '141', '133', '106', '119', '138', '135', '148', '104', '111', '105', '149', '101'] 262.1049382716051
66 5.242098765432099 ['143', '146', '131', '141', '133', '106', '119', '138', '135', '148', '104', '111', '105', '149', '101'] 262.1049382716051
67 5.242098765432099 ['143', '146', '131', '141', '133', '106', '119', '138', '135', '148', '104', '111', '105', '149', '101'] 262.1049382716051
68 5.242098765432099 ['143', '146', '131', '141', '133', '106', '119', '138', '135', '148', '104', '111', '105', '149', '101'] 262.1049382716051
69 5.242098765432099 ['143', '146', '131', '141', '133', '106', '119', '138', '135', '148', '104', '111', '105', '149', '101'] 262.1049382716051
70 5.242098765432099 ['143', '146', '131', '141', '133', '106', '119', '138', '135', '148', '104', '111', '105', '149', '101'] 262.1049382716051
71 5.242098765432099 ['143', '146', '131', '141', '133', '106', '119', '138', '135', '148', '104', '111', '105', '149', '101'] 262.1049382716051
72 5.242098765432099 ['143', '146', '131', '141', '133', '106', '119', '138', '135', '148', '104', '111', '105', '149', '101'] 262.1049382716051
73 5.242098765432099 ['143', '146', '131', '141', '133', '106', '119', '138', '135', '148', '104', '111', '105', '149', '101'] 262.1049382716051
74 5.242098765432099 ['143', '146', '131', '141', '133', '106', '119', '138', '135', '148', '104', '111', '105', '149', '101'] 262.1049382716051
75 5.242098765432099 ['143', '146', '131', '141', '133', '106', '119', '138', '135', '148', '104', '111', '105', '149', '101'] 262.1049382716051
76 5.242098765432099 ['143', '146', '131', '141', '133', '106', '119', '138', '135', '148', '104', '111', '105', '149', '101'] 262.1049382716051
77 5.242098765432099 ['143', '146', '131', '141', '133', '106', '119', '138', '135', '148', '104', '111', '105', '149', '101'] 262.1049382716051
78 5.242098765432099 ['143', '146', '131', '141', '133', '106', '119', '138', '135', '148', '104', '111', '105', '149', '101'] 262.1049382716051
79 5.242098765432099 ['143', '146', '131', '141', '133', '106', '119', '138', '135', '148', '104', '111', '105', '149', '101'] 262.1049382716051
80 5.242098765432099 ['143', '146', '131', '141', '133', '106', '119', '138', '135', '148', '104', '111', '105', '149', '101'] 262.1049382716051
81 5.242098765432099 ['143', '146', '131', '141', '133', '106', '119', '138', '135', '148', '104', '111', '105', '149', '101'] 262.1049382716051
82 5.242098765432099 ['143', '146', '131', '141', '133', '106', '119', '138', '135', '148', '104', '111', '105', '149', '101'] 262.1049382716051
83 5.242098765432099 ['143', '146', '131', '141', '133', '106', '119', '138', '135', '148', '104', '111', '105', '149', '101'] 262.1049382716051
84 5.242098765432099 ['143', '146', '131', '141', '133', '106', '119', '138', '135', '148', '104', '111', '105', '149', '101'] 262.1049382716051
85 5.242098765432099 ['143', '146', '131', '141', '133', '106', '119', '138', '135', '148', '104', '111', '105', '149', '101'] 262.1049382716051
86 5.242098765432099 ['143', '146', '131', '141', '133', '106', '119', '138', '135', '148', '104', '111', '105', '149', '101'] 262.1049382716051
87 5.242098765432099 ['143', '146', '131', '141', '133', '106', '119', '138', '135', '148', '104', '111', '105', '149', '101'] 262.1049382716051
88 5.242098765432099 ['143', '146', '131', '141', '133', '106', '119', '138', '135', '148', '104', '111', '105', '149', '101'] 262.1049382716051
89 5.242098765432099 ['143', '146', '131', '141', '133', '106', '119', '138', '135', '148', '104', '111', '105', '149', '101'] 262.1049382716051
90 5.242098765432099 ['143', '146', '131', '141', '133', '106', '119', '138', '135', '148', '104', '111', '105', '149', '101'] 262.1049382716051
91 5.242098765432099 ['143', '146', '131', '141', '133', '106', '119', '138', '135', '148', '104', '111', '105', '149', '101'] 262.1049382716051
92 5.242098765432099 ['143', '146', '131', '141', '133', '106', '119', '138', '135', '148', '104', '111', '105', '149', '101'] 262.1049382716051
93 5.242098765432099 ['143', '146', '131', '141', '133', '106', '119', '138', '135', '148', '104', '111', '105', '149', '101'] 262.1049382716051
94 5.242098765432099 ['143', '146', '131', '141', '133', '106', '119', '138', '135', '148', '104', '111', '105', '149', '101'] 262.1049382716051
95 5.242098765432099 ['143', '146', '131', '141', '133', '106', '119', '138', '135', '148', '104', '111', '105', '149', '101'] 262.1049382716051
96 5.242098765432099 ['143', '146', '131', '141', '133', '106', '119', '138', '135', '148', '104', '111', '105', '149', '101'] 262.1049382716051
97 5.242098765432099 ['143', '146', '131', '141', '133', '106', '119', '138', '135', '148', '104', '111', '105', '149', '101'] 262.1049382716051
98 5.242098765432099 ['143', '146', '131', '141', '133', '106', '119', '138', '135', '148', '104', '111', '105', '149', '101'] 262.1049382716051
99 5.242098765432099 ['143', '146', '131', '141', '133', '106', '119', '138', '135', '148', '104', '111', '105', '149', '101'] 262.1049382716051
100 5.242098765432099 ['143', '146', '131', '141', '133', '106', '119', '138', '135', '148', '104', '111', '105', '149', '101'] 262.1049382716051
101 5.242098765432099 ['143', '146', '131', '141', '133', '106', '119', '138', '135', '148', '104', '111', '105', '149', '101'] 262.1049382716051
102 5.242098765432099 ['143', '146', '131', '141', '133', '106', '119', '138', '135', '148', '104', '111', '105', '149', '101'] 262.1049382716051
103 5.242098765432099 ['143', '146', '131', '141', '133', '106', '119', '138', '135', '148', '104', '111', '105', '149', '101'] 262.1049382716051
104 5.242098765432099 ['143', '146', '131', '141', '133', '106', '119', '138', '135', '148', '104', '111', '105', '149', '101'] 262.1049382716051
105 5.242098765432099 ['143', '146', '131', '141', '133', '106', '119', '138', '135', '148', '104', '111', '105', '149', '101'] 262.1049382716051
106 5.242098765432099 ['143', '146', '131', '141', '133', '106', '119', '138', '135', '148', '104', '111', '105', '149', '101'] 262.1049382716051
107 5.242098765432099 ['143', '146', '131', '141', '133', '106', '119', '138', '135', '148', '104', '111', '105', '149', '101'] 262.1049382716051
108 5.242098765432099 ['143', '146', '131', '141', '133', '106', '119', '138', '135', '148', '104', '111', '105', '149', '101'] 262.1049382716051
109 5.242098765432099 ['143', '146', '131', '141', '133', '106', '119', '138', '135', '148', '104', '111', '105', '149', '101'] 262.1049382716051
110 5.242098765432099 ['143', '146', '131', '141', '133', '106', '119', '138', '135', '148', '104', '111', '105', '149', '101'] 262.1049382716051
111 5.242098765432099 ['143', '146', '131', '141', '133', '106', '119', '138', '135', '148', '104', '111', '105', '149', '101'] 262.1049382716051
112 5.242098765432099 ['143', '146', '131', '141', '133', '106', '119', '138', '135', '148', '104', '111', '105', '149', '101'] 262.1049382716051
113 5.242098765432099 ['143', '146', '131', '141', '133', '106', '119', '138', '135', '148', '104', '111', '105', '149', '101'] 262.1049382716051
114 5.242098765432099 ['143', '146', '131', '141', '133', '106', '119', '138', '135', '148', '104', '111', '105', '149', '101'] 262.1049382716051
115 5.242098765432099 ['143', '146', '131', '141', '133', '106', '119', '138', '135', '148', '104', '111', '105', '149', '101'] 262.1049382716051
116 5.242098765432099 ['143', '146', '131', '141', '133', '106', '119', '138', '135', '148', '104', '111', '105', '149', '101'] 262.1049382716051
117 5.242098765432099 ['143', '146', '131', '141', '133', '106', '119', '138', '135', '148', '104', '111', '105', '149', '101'] 262.1049382716051
118 5.242098765432099 ['143', '146', '131', '141', '133', '106', '119', '138', '135', '148', '104', '111', '105', '149', '101'] 262.1049382716051
119 5.242098765432099 ['143', '146', '131', '141', '133', '106', '119', '138', '135', '148', '104', '111', '105', '149', '101'] 262.1049382716051
120 5.242098765432099 ['143', '146', '131', '141', '133', '106', '119', '138', '135', '148', '104', '111', '105', '149', '101'] 262.1049382716051
121 5.242098765432099 ['143', '146', '131', '141', '133', '106', '119', '138', '135', '148', '104', '111', '105', '149', '101'] 262.1049382716051
122 5.242098765432099 ['143', '146', '131', '141', '133', '106', '119', '138', '135', '148', '104', '111', '105', '149', '101'] 262.1049382716051
123 5.242098765432099 ['143', '146', '131', '141', '133', '106', '119', '138', '135', '148', '104', '111', '105', '149', '101'] 262.1049382716051
124 5.242098765432099 ['143', '146', '131', '141', '133', '106', '119', '138', '135', '148', '104', '111', '105', '149', '101'] 262.1049382716051
125 5.242098765432099 ['143', '146', '131', '141', '133', '106', '119', '138', '135', '148', '104', '111', '105', '149', '101'] 262.1049382716051
126 5.242098765432099 ['143', '146', '131', '141', '133', '106', '119', '138', '135', '148', '104', '111', '105', '149', '101'] 262.1049382716051
127 5.242098765432099 ['143', '146', '131', '141', '133', '106', '119', '138', '135', '148', '104', '111', '105', '149', '101'] 262.1049382716051
128 5.242098765432099 ['143', '146', '131', '141', '133', '106', '119', '138', '135', '148', '104', '111', '105', '149', '101'] 262.1049382716051
129 5.242098765432099 ['143', '146', '131', '141', '133', '106', '119', '138', '135', '148', '104', '111', '105', '149', '101'] 262.1049382716051
130 5.242098765432099 ['143', '146', '131', '141', '133', '106', '119', '138', '135', '148', '104', '111', '105', '149', '101'] 262.1049382716051
131 5.242098765432099 ['143', '146', '131', '141', '133', '106', '119', '138', '135', '148', '104', '111', '105', '149', '101'] 262.1049382716051
132 5.242098765432099 ['143', '146', '131', '141', '133', '106', '119', '138', '135', '148', '104', '111', '105', '149', '101'] 262.1049382716051
133 5.242098765432099 ['143', '146', '131', '141', '133', '106', '119', '138', '135', '148', '104', '111', '105', '149', '101'] 262.1049382716051
134 5.242098765432099 ['143', '146', '131', '141', '133', '106', '119', '138', '135', '148', '104', '111', '105', '149', '101'] 262.1049382716051
135 5.242098765432099 ['143', '146', '131', '141', '133', '106', '119', '138', '135', '148', '104', '111', '105', '149', '101'] 262.1049382716051
136 5.242098765432099 ['143', '146', '131', '141', '133', '106', '119', '138', '135', '148', '104', '111', '105', '149', '101'] 262.1049382716051
137 5.242098765432099 ['143', '146', '131', '141', '133', '106', '119', '138', '135', '148', '104', '111', '105', '149', '101'] 262.1049382716051
138 5.242098765432099 ['143', '146', '131', '141', '133', '106', '119', '138', '135', '148', '104', '111', '105', '149', '101'] 262.1049382716051
139 5.242098765432099 ['143', '146', '131', '141', '133', '106', '119', '138', '135', '148', '104', '111', '105', '149', '101'] 262.1049382716051
140 5.242098765432099 ['143', '146', '131', '141', '133', '106', '119', '138', '135', '148', '104', '111', '105', '149', '101'] 262.1049382716051
141 5.242098765432099 ['143', '146', '131', '141', '133', '106', '119', '138', '135', '148', '104', '111', '105', '149', '101'] 262.1049382716051
142 5.242098765432099 ['143', '146', '131', '141', '133', '106', '119', '138', '135', '148', '104', '111', '105', '149', '101'] 262.1049382716051
143 5.242098765432099 ['143', '146', '131', '141', '133', '106', '119', '138', '135', '148', '104', '111', '105', '149', '101'] 262.1049382716051
144 5.242098765432099 ['143', '146', '131', '141', '133', '106', '119', '138', '135', '148', '104', '111', '105', '149', '101'] 262.1049382716051
145 5.242098765432099 ['143', '146', '131', '141', '133', '106', '119', '138', '135', '148', '104', '111', '105', '149', '101'] 262.1049382716051
146 5.242098765432099 ['143', '146', '131', '141', '133', '106', '119', '138', '135', '148', '104', '111', '105', '149', '101'] 262.1049382716051
147 5.242098765432099 ['143', '146', '131', '141', '133', '106', '119', '138', '135', '148', '104', '111', '105', '149', '101'] 262.1049382716051
148 5.242098765432099 ['143', '146', '131', '141', '133', '106', '119', '138', '135', '148', '104', '111', '105', '149', '101'] 262.1049382716051
149 5.242098765432099 ['143', '146', '131', '141', '133', '106', '119', '138', '135', '148', '104', '111', '105', '149', '101'] 262.1049382716051
150 5.242098765432099 ['143', '146', '131', '141', '133', '106', '119', '138', '135', '148', '104', '111', '105', '149', '101'] 262.1049382716051
151 5.242098765432099 ['143', '146', '131', '141', '133', '106', '119', '138', '135', '148', '104', '111', '105', '149', '101'] 262.1049382716051
152 5.242098765432099 ['143', '146', '131', '141', '133', '106', '119', '138', '135', '148', '104', '111', '105', '149', '101'] 262.1049382716051
153 5.242098765432099 ['143', '146', '131', '141', '133', '106', '119', '138', '135', '148', '104', '111', '105', '149', '101'] 262.1049382716051
154 5.242098765432099 ['143', '146', '131', '141', '133', '106', '119', '138', '135', '148', '104', '111', '105', '149', '101'] 262.1049382716051
155 5.242098765432099 ['143', '146', '131', '141', '133', '106', '119', '138', '135', '148', '104', '111', '105', '149', '101'] 262.1049382716051
156 5.242098765432099 ['143', '146', '131', '141', '133', '106', '119', '138', '135', '148', '104', '111', '105', '149', '101'] 262.1049382716051
157 5.242098765432099 ['143', '146', '131', '141', '133', '106', '119', '138', '135', '148', '104', '111', '105', '149', '101'] 262.1049382716051
158 5.242098765432099 ['143', '146', '131', '141', '133', '106', '119', '138', '135', '148', '104', '111', '105', '149', '101'] 262.1049382716051
159 5.242098765432099 ['143', '146', '131', '141', '133', '106', '119', '138', '135', '148', '104', '111', '105', '149', '101'] 262.1049382716051
160 5.242098765432099 ['143', '146', '131', '141', '133', '106', '119', '138', '135', '148', '104', '111', '105', '149', '101'] 262.1049382716051
161 5.242098765432099 ['143', '146', '131', '141', '133', '106', '119', '138', '135', '148', '104', '111', '105', '149', '101'] 262.1049382716051
162 5.242098765432099 ['143', '146', '131', '141', '133', '106', '119', '138', '135', '148', '104', '111', '105', '149', '101'] 262.1049382716051
163 5.242098765432099 ['143', '146', '131', '141', '133', '106', '119', '138', '135', '148', '104', '111', '105', '149', '101'] 262.1049382716051
164 5.242098765432099 ['143', '146', '131', '141', '133', '106', '119', '138', '135', '148', '104', '111', '105', '149', '101'] 262.1049382716051
165 5.242098765432099 ['143', '146', '131', '141', '133', '106', '119', '138', '135', '148', '104', '111', '105', '149', '101'] 262.1049382716051
166 5.242098765432099 ['143', '146', '131', '141', '133', '106', '119', '138', '135', '148', '104', '111', '105', '149', '101'] 262.1049382716051
167 5.242098765432099 ['143', '146', '131', '141', '133', '106', '119', '138', '135', '148', '104', '111', '105', '149', '101'] 262.1049382716051
168 5.242098765432099 ['143', '146', '131', '141', '133', '106', '119', '138', '135', '148', '104', '111', '105', '149', '101'] 262.1049382716051
169 5.242098765432099 ['143', '146', '131', '141', '133', '106', '119', '138', '135', '148', '104', '111', '105', '149', '101'] 262.1049382716051
170 5.242098765432099 ['143', '146', '131', '141', '133', '106', '119', '138', '135', '148', '104', '111', '105', '149', '101'] 262.1049382716051
171 5.242098765432099 ['143', '146', '131', '141', '133', '106', '119', '138', '135', '148', '104', '111', '105', '149', '101'] 262.1049382716051
172 5.242098765432099 ['143', '146', '131', '141', '133', '106', '119', '138', '135', '148', '104', '111', '105', '149', '101'] 262.1049382716051
173 5.242098765432099 ['143', '146', '131', '141', '133', '106', '119', '138', '135', '148', '104', '111', '105', '149', '101'] 262.1049382716051
174 5.242098765432099 ['143', '146', '131', '141', '133', '106', '119', '138', '135', '148', '104', '111', '105', '149', '101'] 262.1049382716051
175 5.242098765432099 ['143', '146', '131', '141', '133', '106', '119', '138', '135', '148', '104', '111', '105', '149', '101'] 262.1049382716051
176 5.242098765432099 ['143', '146', '131', '141', '133', '106', '119', '138', '135', '148', '104', '111', '105', '149', '101'] 262.1049382716051
177 5.242098765432099 ['143', '146', '131', '141', '133', '106', '119', '138', '135', '148', '104', '111', '105', '149', '101'] 262.1049382716051
178 5.242098765432099 ['143', '146', '131', '141', '133', '106', '119', '138', '135', '148', '104', '111', '105', '149', '101'] 262.1049382716051
179 5.242098765432099 ['143', '146', '131', '141', '133', '106', '119', '138', '135', '148', '104', '111', '105', '149', '101'] 262.1049382716051
180 5.242098765432099 ['143', '146', '131', '141', '133', '106', '119', '138', '135', '148', '104', '111', '105', '149', '101'] 262.1049382716051
181 5.242098765432099 ['143', '146', '131', '141', '133', '106', '119', '138', '135', '148', '104', '111', '105', '149', '101'] 262.1049382716051
182 5.242098765432099 ['143', '146', '131', '141', '133', '106', '119', '138', '135', '148', '104', '111', '105', '149', '101'] 262.1049382716051
183 5.242098765432099 ['143', '146', '131', '141', '133', '106', '119', '138', '135', '148', '104', '111', '105', '149', '101'] 262.1049382716051
184 5.242098765432099 ['143', '146', '131', '141', '133', '106', '119', '138', '135', '148', '104', '111', '105', '149', '101'] 262.1049382716051
185 5.242098765432099 ['143', '146', '131', '141', '133', '106', '119', '138', '135', '148', '104', '111', '105', '149', '101'] 262.1049382716051
186 5.242098765432099 ['143', '146', '131', '141', '133', '106', '119', '138', '135', '148', '104', '111', '105', '149', '101'] 262.1049382716051
187 5.242098765432099 ['143', '146', '131', '141', '133', '106', '119', '138', '135', '148', '104', '111', '105', '149', '101'] 262.1049382716051
188 5.242098765432099 ['143', '146', '131', '141', '133', '106', '119', '138', '135', '148', '104', '111', '105', '149', '101'] 262.1049382716051
189 5.242098765432099 ['143', '146', '131', '141', '133', '106', '119', '138', '135', '148', '104', '111', '105', '149', '101'] 262.1049382716051
190 5.242098765432099 ['143', '146', '131', '141', '133', '106', '119', '138', '135', '148', '104', '111', '105', '149', '101'] 262.1049382716051
191 5.242098765432099 ['143', '146', '131', '141', '133', '106', '119', '138', '135', '148', '104', '111', '105', '149', '101'] 262.1049382716051
192 5.242098765432099 ['143', '146', '131', '141', '133', '106', '119', '138', '135', '148', '104', '111', '105', '149', '101'] 262.1049382716051
193 5.242098765432099 ['143', '146', '131', '141', '133', '106', '119', '138', '135', '148', '104', '111', '105', '149', '101'] 262.1049382716051
194 5.242098765432099 ['143', '146', '131', '141', '133', '106', '119', '138', '135', '148', '104', '111', '105', '149', '101'] 262.1049382716051
195 5.242098765432099 ['143', '146', '131', '141', '133', '106', '119', '138', '135', '148', '104', '111', '105', '149', '101'] 262.1049382716051
196 5.242098765432099 ['143', '146', '131', '141', '133', '106', '119', '138', '135', '148', '104', '111', '105', '149', '101'] 262.1049382716051
197 5.242098765432099 ['143', '146', '131', '141', '133', '106', '119', '138', '135', '148', '104', '111', '105', '149', '101'] 262.1049382716051
198 5.242098765432099 ['143', '146', '131', '141', '133', '106', '119', '138', '135', '148', '104', '111', '105', '149', '101'] 262.1049382716051
199 5.242098765432099 ['143', '146', '131', '141', '133', '106', '119', '138', '135', '148', '104', '111', '105', '149', '101'] 262.1049382716051
