0 241.18 ['48', '2', '31', '7', '38'] 12933.719999999998
1 238.92 ['48', '8', '24', '6', '1'] 12732.219999999998
2 234.3 ['1', '7', '38', '24', '2'] 12484.62
3 228.26 ['7', '2', '31', '38', '1'] 12233.78
4 228.26 ['7', '2', '31', '38', '1'] 12030.900000000003
5 228.26 ['7', '2', '31', '38', '1'] 11844.3
6 225.44 ['38', '7', '1', '6', '31'] 11699.56
7 225.44 ['38', '7', '1', '6', '31'] 11590.88
8 225.44 ['38', '7', '1', '6', '31'] 11509.279999999999
9 225.44 ['38', '7', '1', '6', '31'] 11437.379999999996
10 225.44 ['38', '7', '1', '6', '31'] 11402.699999999999
11 225.44 ['38', '7', '1', '6', '31'] 11340.439999999993
12 225.44 ['38', '7', '1', '6', '31'] 11277.219999999996
13 225.44 ['38', '7', '1', '6', '31'] 11272.0
14 225.44 ['38', '7', '1', '6', '31'] 11272.0
15 225.44 ['38', '7', '1', '6', '31'] 11272.0
16 225.44 ['38', '7', '1', '6', '31'] 11272.0
17 225.44 ['38', '7', '1', '6', '31'] 11272.0
18 225.44 ['38', '7', '1', '6', '31'] 11272.0
19 225.44 ['38', '7', '1', '6', '31'] 11272.0
20 225.44 ['38', '7', '1', '6', '31'] 11272.0
21 225.44 ['38', '7', '1', '6', '31'] 11272.0
22 225.44 ['38', '7', '1', '6', '31'] 11272.0
23 225.44 ['38', '7', '1', '6', '31'] 11272.0
24 225.44 ['38', '7', '1', '6', '31'] 11272.0
25 225.44 ['38', '7', '1', '6', '31'] 11272.0
26 225.44 ['38', '7', '1', '6', '31'] 11272.0
27 225.44 ['38', '7', '1', '6', '31'] 11272.0
28 225.44 ['38', '7', '1', '6', '31'] 11272.0
29 225.44 ['38', '7', '1', '6', '31'] 11272.0
30 225.44 ['38', '7', '1', '6', '31'] 11272.0
31 225.44 ['38', '7', '1', '6', '31'] 11272.0
32 225.44 ['38', '7', '1', '6', '31'] 11272.0
33 225.44 ['38', '7', '1', '6', '31'] 11272.0
34 225.44 ['38', '7', '1', '6', '31'] 11272.0
35 225.44 ['38', '7', '1', '6', '31'] 11272.0
36 225.44 ['38', '7', '1', '6', '31'] 11272.0
37 225.44 ['38', '7', '1', '6', '31'] 11272.0
38 225.44 ['38', '7', '1', '6', '31'] 11272.0
39 225.44 ['38', '7', '1', '6', '31'] 11272.0
40 225.44 ['38', '7', '1', '6', '31'] 11272.0
41 225.44 ['38', '7', '1', '6', '31'] 11272.0
42 225.44 ['38', '7', '1', '6', '31'] 11272.0
43 225.44 ['38', '7', '1', '6', '31'] 11272.0
44 225.44 ['38', '7', '1', '6', '31'] 11272.0
45 225.44 ['38', '7', '1', '6', '31'] 11272.0
46 225.44 ['38', '7', '1', '6', '31'] 11272.0
47 225.44 ['38', '7', '1', '6', '31'] 11272.0
48 225.44 ['38', '7', '1', '6', '31'] 11272.0
49 225.44 ['38', '7', '1', '6', '31'] 11272.0
50 225.44 ['38', '7', '1', '6', '31'] 11272.0
51 225.44 ['38', '7', '1', '6', '31'] 11272.0
52 225.44 ['38', '7', '1', '6', '31'] 11272.0
53 225.44 ['38', '7', '1', '6', '31'] 11272.0
54 225.44 ['38', '7', '1', '6', '31'] 11272.0
55 225.44 ['38', '7', '1', '6', '31'] 11272.0
56 225.44 ['38', '7', '1', '6', '31'] 11272.0
57 225.44 ['38', '7', '1', '6', '31'] 11272.0
58 225.44 ['38', '7', '1', '6', '31'] 11272.0
59 225.44 ['38', '7', '1', '6', '31'] 11272.0
60 225.44 ['38', '7', '1', '6', '31'] 11272.0
61 225.44 ['38', '7', '1', '6', '31'] 11272.0
62 225.44 ['38', '7', '1', '6', '31'] 11272.0
63 225.44 ['38', '7', '1', '6', '31'] 11272.0
64 225.44 ['38', '7', '1', '6', '31'] 11272.0
65 225.44 ['38', '7', '1', '6', '31'] 11272.0
66 225.44 ['38', '7', '1', '6', '31'] 11272.0
67 225.44 ['38', '7', '1', '6', '31'] 11272.0
68 225.44 ['38', '7', '1', '6', '31'] 11272.0
69 225.44 ['38', '7', '1', '6', '31'] 11272.0
70 225.44 ['38', '7', '1', '6', '31'] 11272.0
71 225.44 ['38', '7', '1', '6', '31'] 11272.0
72 225.44 ['38', '7', '1', '6', '31'] 11272.0
73 225.44 ['38', '7', '1', '6', '31'] 11272.0
74 225.44 ['38', '7', '1', '6', '31'] 11272.0
75 225.44 ['38', '7', '1', '6', '31'] 11272.0
76 225.44 ['38', '7', '1', '6', '31'] 11272.0
77 225.44 ['38', '7', '1', '6', '31'] 11272.0
78 225.44 ['38', '7', '1', '6', '31'] 11272.0
79 225.44 ['38', '7', '1', '6', '31'] 11272.0
80 225.44 ['38', '7', '1', '6', '31'] 11272.0
81 225.44 ['38', '7', '1', '6', '31'] 11272.0
82 225.44 ['38', '7', '1', '6', '31'] 11272.0
83 225.44 ['38', '7', '1', '6', '31'] 11272.0
84 225.44 ['38', '7', '1', '6', '31'] 11272.0
85 225.44 ['38', '7', '1', '6', '31'] 11272.0
86 225.44 ['38', '7', '1', '6', '31'] 11272.0
87 225.44 ['38', '7', '1', '6', '31'] 11272.0
88 225.44 ['38', '7', '1', '6', '31'] 11272.0
89 225.44 ['38', '7', '1', '6', '31'] 11272.0
90 225.44 ['38', '7', '1', '6', '31'] 11272.0
91 225.44 ['38', '7', '1', '6', '31'] 11272.0
92 225.44 ['38', '7', '1', '6', '31'] 11272.0
93 225.44 ['38', '7', '1', '6', '31'] 11272.0
94 225.44 ['38', '7', '1', '6', '31'] 11272.0
95 225.44 ['38', '7', '1', '6', '31'] 11272.0
96 225.44 ['38', '7', '1', '6', '31'] 11272.0
97 225.44 ['38', '7', '1', '6', '31'] 11272.0
98 225.44 ['38', '7', '1', '6', '31'] 11272.0
99 225.44 ['38', '7', '1', '6', '31'] 11272.0
100 225.44 ['38', '7', '1', '6', '31'] 11272.0
101 225.44 ['38', '7', '1', '6', '31'] 11272.0
102 225.44 ['38', '7', '1', '6', '31'] 11272.0
103 225.44 ['38', '7', '1', '6', '31'] 11272.0
104 225.44 ['38', '7', '1', '6', '31'] 11272.0
105 225.44 ['38', '7', '1', '6', '31'] 11272.0
106 225.44 ['38', '7', '1', '6', '31'] 11272.0
107 225.44 ['38', '7', '1', '6', '31'] 11272.0
108 225.44 ['38', '7', '1', '6', '31'] 11272.0
109 225.44 ['38', '7', '1', '6', '31'] 11272.0
110 225.44 ['38', '7', '1', '6', '31'] 11272.0
111 225.44 ['38', '7', '1', '6', '31'] 11272.0
112 225.44 ['38', '7', '1', '6', '31'] 11272.0
113 225.44 ['38', '7', '1', '6', '31'] 11272.0
114 225.44 ['38', '7', '1', '6', '31'] 11272.0
115 225.44 ['38', '7', '1', '6', '31'] 11272.0
116 225.44 ['38', '7', '1', '6', '31'] 11272.0
117 225.44 ['38', '7', '1', '6', '31'] 11272.0
118 225.44 ['38', '7', '1', '6', '31'] 11272.0
119 225.44 ['38', '7', '1', '6', '31'] 11272.0
120 225.44 ['38', '7', '1', '6', '31'] 11272.0
121 225.44 ['38', '7', '1', '6', '31'] 11272.0
122 225.44 ['38', '7', '1', '6', '31'] 11272.0
123 225.44 ['38', '7', '1', '6', '31'] 11272.0
124 225.44 ['38', '7', '1', '6', '31'] 11272.0
125 225.44 ['38', '7', '1', '6', '31'] 11272.0
126 225.44 ['38', '7', '1', '6', '31'] 11272.0
127 225.44 ['38', '7', '1', '6', '31'] 11272.0
128 225.44 ['38', '7', '1', '6', '31'] 11272.0
129 225.44 ['38', '7', '1', '6', '31'] 11272.0
130 225.44 ['38', '7', '1', '6', '31'] 11272.0
131 225.44 ['38', '7', '1', '6', '31'] 11272.0
132 225.44 ['38', '7', '1', '6', '31'] 11272.0
133 225.44 ['38', '7', '1', '6', '31'] 11272.0
134 225.44 ['38', '7', '1', '6', '31'] 11272.0
135 225.44 ['38', '7', '1', '6', '31'] 11272.0
136 225.44 ['38', '7', '1', '6', '31'] 11272.0
137 225.44 ['38', '7', '1', '6', '31'] 11272.0
138 225.44 ['38', '7', '1', '6', '31'] 11272.0
139 225.44 ['38', '7', '1', '6', '31'] 11272.0
140 225.44 ['38', '7', '1', '6', '31'] 11272.0
141 225.44 ['38', '7', '1', '6', '31'] 11272.0
142 225.44 ['38', '7', '1', '6', '31'] 11272.0
143 225.44 ['38', '7', '1', '6', '31'] 11272.0
144 225.44 ['38', '7', '1', '6', '31'] 11272.0
145 225.44 ['38', '7', '1', '6', '31'] 11272.0
146 225.44 ['38', '7', '1', '6', '31'] 11272.0
147 225.44 ['38', '7', '1', '6', '31'] 11272.0
148 225.44 ['38', '7', '1', '6', '31'] 11272.0
149 225.44 ['38', '7', '1', '6', '31'] 11272.0
150 225.44 ['38', '7', '1', '6', '31'] 11272.0
151 225.44 ['38', '7', '1', '6', '31'] 11272.0
152 225.44 ['38', '7', '1', '6', '31'] 11272.0
153 225.44 ['38', '7', '1', '6', '31'] 11272.0
154 225.44 ['38', '7', '1', '6', '31'] 11272.0
155 225.44 ['38', '7', '1', '6', '31'] 11272.0
156 225.44 ['38', '7', '1', '6', '31'] 11272.0
157 225.44 ['38', '7', '1', '6', '31'] 11272.0
158 225.44 ['38', '7', '1', '6', '31'] 11272.0
159 225.44 ['38', '7', '1', '6', '31'] 11272.0
160 225.44 ['38', '7', '1', '6', '31'] 11272.0
161 225.44 ['38', '7', '1', '6', '31'] 11272.0
162 225.44 ['38', '7', '1', '6', '31'] 11272.0
163 225.44 ['38', '7', '1', '6', '31'] 11272.0
164 225.44 ['38', '7', '1', '6', '31'] 11272.0
165 225.44 ['38', '7', '1', '6', '31'] 11272.0
166 225.44 ['38', '7', '1', '6', '31'] 11272.0
167 225.44 ['38', '7', '1', '6', '31'] 11272.0
168 225.44 ['38', '7', '1', '6', '31'] 11272.0
169 225.44 ['38', '7', '1', '6', '31'] 11272.0
170 225.44 ['38', '7', '1', '6', '31'] 11272.0
171 225.44 ['38', '7', '1', '6', '31'] 11272.0
172 225.44 ['38', '7', '1', '6', '31'] 11272.0
173 225.44 ['38', '7', '1', '6', '31'] 11272.0
174 225.44 ['38', '7', '1', '6', '31'] 11272.0
175 225.44 ['38', '7', '1', '6', '31'] 11272.0
176 225.44 ['38', '7', '1', '6', '31'] 11272.0
177 225.44 ['38', '7', '1', '6', '31'] 11272.0
178 225.44 ['38', '7', '1', '6', '31'] 11272.0
179 225.44 ['38', '7', '1', '6', '31'] 11272.0
180 225.44 ['38', '7', '1', '6', '31'] 11272.0
181 225.44 ['38', '7', '1', '6', '31'] 11272.0
182 225.44 ['38', '7', '1', '6', '31'] 11272.0
183 225.44 ['38', '7', '1', '6', '31'] 11272.0
184 225.44 ['38', '7', '1', '6', '31'] 11272.0
185 225.44 ['38', '7', '1', '6', '31'] 11272.0
186 225.44 ['38', '7', '1', '6', '31'] 11272.0
187 225.44 ['38', '7', '1', '6', '31'] 11272.0
188 225.44 ['38', '7', '1', '6', '31'] 11272.0
189 225.44 ['38', '7', '1', '6', '31'] 11272.0
190 225.44 ['38', '7', '1', '6', '31'] 11272.0
191 225.44 ['38', '7', '1', '6', '31'] 11272.0
192 225.44 ['38', '7', '1', '6', '31'] 11272.0
193 225.44 ['38', '7', '1', '6', '31'] 11272.0
194 225.44 ['38', '7', '1', '6', '31'] 11272.0
195 225.44 ['38', '7', '1', '6', '31'] 11272.0
196 225.44 ['38', '7', '1', '6', '31'] 11272.0
197 225.44 ['38', '7', '1', '6', '31'] 11272.0
198 225.44 ['38', '7', '1', '6', '31'] 11272.0
199 225.44 ['38', '7', '1', '6', '31'] 11272.0
