0 15.333333333333334 ['70', '145', '67', '127', '148', '56', '74', '109', '107', '83', '96', '79', '22', '118', '147'] 789.0518518518516
1 15.14074074074074 ['22', '109', '128', '145', '116', '70', '30', '79', '77', '127', '120', '83', '148', '146', '69'] 780.1851851851852
2 15.08148148148148 ['146', '69', '127', '76', '83', '141', '110', '148', '128', '116', '70', '136', '12', '16', '129'] 772.1333333333331
3 14.97037037037037 ['127', '70', '102', '119', '77', '109', '76', '145', '112', '116', '143', '83', '146', '144', '113'] 765.0666666666667
4 14.911111111111111 ['127', '150', '74', '38', '126', '134', '119', '129', '139', '136', '93', '92', '115', '15', '10'] 760.2000000000002
5 14.725925925925926 ['120', '136', '119', '103', '127', '138', '129', '130', '139', '144', '63', '35', '36', '146', '92'] 755.0000000000003
6 14.6 ['136', '83', '127', '148', '134', '128', '118', '81', '146', '68', '114', '107', '111', '144', '150'] 750.185185185185
7 14.6 ['136', '83', '127', '148', '134', '128', '118', '81', '146', '68', '114', '107', '111', '144', '150'] 745.4
8 14.585185185185185 ['127', '92', '103', '146', '36', '136', '139', '120', '119', '138', '114', '63', '148', '129', '150'] 740.6962962962969
9 14.488888888888889 ['139', '138', '119', '127', '136', '70', '150', '133', '128', '108', '134', '92', '126', '36', '103'] 736.5037037037035
10 14.459259259259259 ['139', '129', '127', '138', '128', '119', '136', '147', '107', '36', '134', '90', '144', '133', '150'] 732.2962962962963
11 14.459259259259259 ['139', '129', '127', '138', '128', '119', '136', '147', '107', '36', '134', '90', '144', '133', '150'] 729.1259259259259
12 14.34074074074074 ['127', '119', '128', '138', '150', '139', '134', '133', '129', '143', '111', '36', '146', '103', '107'] 725.7925925925928
13 14.25925925925926 ['146', '127', '136', '114', '148', '150', '128', '144', '103', '83', '138', '119', '139', '126', '134'] 722.777777777777
14 14.25925925925926 ['146', '127', '136', '114', '148', '150', '128', '144', '103', '83', '138', '119', '139', '126', '134'] 720.1333333333338
15 14.22962962962963 ['127', '138', '146', '134', '103', '119', '150', '139', '128', '144', '114', '143', '83', '107', '136'] 717.696296296296
16 14.177777777777777 ['139', '119', '143', '134', '127', '146', '138', '128', '136', '150', '148', '129', '133', '126', '103'] 715.4296296296296
17 14.177777777777777 ['139', '119', '143', '134', '127', '146', '138', '128', '136', '150', '148', '129', '133', '126', '103'] 713.2740740740741
18 14.14074074074074 ['146', '127', '143', '119', '128', '134', '139', '129', '133', '138', '150', '136', '148', '144', '103'] 711.3407407407408
19 14.133333333333333 ['146', '133', '127', '138', '143', '150', '144', '139', '129', '128', '136', '134', '119', '107', '103'] 709.94074074074
20 14.133333333333333 ['146', '133', '127', '138', '143', '150', '144', '139', '129', '128', '136', '134', '119', '107', '103'] 708.903703703704
21 14.133333333333333 ['146', '133', '127', '138', '143', '150', '144', '139', '129', '128', '136', '134', '119', '107', '103'] 708.1185185185193
22 14.133333333333333 ['146', '133', '127', '138', '143', '150', '144', '139', '129', '128', '136', '134', '119', '107', '103'] 707.4074074074076
23 14.133333333333333 ['146', '133', '127', '138', '143', '150', '144', '139', '129', '128', '136', '134', '119', '107', '103'] 706.9481481481481
24 14.133333333333333 ['146', '133', '127', '138', '143', '150', '144', '139', '129', '128', '136', '134', '119', '107', '103'] 706.6814814814812
25 14.133333333333333 ['146', '133', '127', '138', '143', '150', '144', '139', '129', '128', '136', '134', '119', '107', '103'] 706.6666666666664
26 14.133333333333333 ['146', '133', '127', '138', '143', '150', '144', '139', '129', '128', '136', '134', '119', '107', '103'] 706.6666666666664
27 14.133333333333333 ['146', '133', '127', '138', '143', '150', '144', '139', '129', '128', '136', '134', '119', '107', '103'] 706.6666666666664
28 14.133333333333333 ['146', '133', '127', '138', '143', '150', '144', '139', '129', '128', '136', '134', '119', '107', '103'] 706.6666666666664
29 14.133333333333333 ['146', '133', '127', '138', '143', '150', '144', '139', '129', '128', '136', '134', '119', '107', '103'] 706.6666666666664
30 14.133333333333333 ['146', '133', '127', '138', '143', '150', '144', '139', '129', '128', '136', '134', '119', '107', '103'] 706.6666666666664
31 14.133333333333333 ['146', '133', '127', '138', '143', '150', '144', '139', '129', '128', '136', '134', '119', '107', '103'] 706.6666666666664
32 14.133333333333333 ['146', '133', '127', '138', '143', '150', '144', '139', '129', '128', '136', '134', '119', '107', '103'] 706.6666666666664
33 14.133333333333333 ['146', '133', '127', '138', '143', '150', '144', '139', '129', '128', '136', '134', '119', '107', '103'] 706.6666666666664
34 14.133333333333333 ['146', '133', '127', '138', '143', '150', '144', '139', '129', '128', '136', '134', '119', '107', '103'] 706.6666666666664
35 14.133333333333333 ['146', '133', '127', '138', '143', '150', '144', '139', '129', '128', '136', '134', '119', '107', '103'] 706.6666666666664
36 14.133333333333333 ['146', '133', '127', '138', '143', '150', '144', '139', '129', '128', '136', '134', '119', '107', '103'] 706.6666666666664
37 14.133333333333333 ['146', '133', '127', '138', '143', '150', '144', '139', '129', '128', '136', '134', '119', '107', '103'] 706.6666666666664
38 14.133333333333333 ['146', '133', '127', '138', '143', '150', '144', '139', '129', '128', '136', '134', '119', '107', '103'] 706.6666666666664
39 14.133333333333333 ['146', '133', '127', '138', '143', '150', '144', '139', '129', '128', '136', '134', '119', '107', '103'] 706.6666666666664
40 14.133333333333333 ['146', '133', '127', '138', '143', '150', '144', '139', '129', '128', '136', '134', '119', '107', '103'] 706.6666666666664
41 14.133333333333333 ['146', '133', '127', '138', '143', '150', '144', '139', '129', '128', '136', '134', '119', '107', '103'] 706.6666666666664
42 14.133333333333333 ['146', '133', '127', '138', '143', '150', '144', '139', '129', '128', '136', '134', '119', '107', '103'] 706.6666666666664
43 14.133333333333333 ['146', '133', '127', '138', '143', '150', '144', '139', '129', '128', '136', '134', '119', '107', '103'] 706.6666666666664
44 14.133333333333333 ['146', '133', '127', '138', '143', '150', '144', '139', '129', '128', '136', '134', '119', '107', '103'] 706.6666666666664
45 14.133333333333333 ['146', '133', '127', '138', '143', '150', '144', '139', '129', '128', '136', '134', '119', '107', '103'] 706.6666666666664
46 14.133333333333333 ['146', '133', '127', '138', '143', '150', '144', '139', '129', '128', '136', '134', '119', '107', '103'] 706.6666666666664
47 14.133333333333333 ['146', '133', '127', '138', '143', '150', '144', '139', '129', '128', '136', '134', '119', '107', '103'] 706.6666666666664
48 14.133333333333333 ['146', '133', '127', '138', '143', '150', '144', '139', '129', '128', '136', '134', '119', '107', '103'] 706.6666666666664
49 14.133333333333333 ['146', '133', '127', '138', '143', '150', '144', '139', '129', '128', '136', '134', '119', '107', '103'] 706.6666666666664
50 14.133333333333333 ['146', '133', '127', '138', '143', '150', '144', '139', '129', '128', '136', '134', '119', '107', '103'] 706.6666666666664
51 14.133333333333333 ['146', '133', '127', '138', '143', '150', '144', '139', '129', '128', '136', '134', '119', '107', '103'] 706.6666666666664
52 14.133333333333333 ['146', '133', '127', '138', '143', '150', '144', '139', '129', '128', '136', '134', '119', '107', '103'] 706.6666666666664
53 14.133333333333333 ['146', '133', '127', '138', '143', '150', '144', '139', '129', '128', '136', '134', '119', '107', '103'] 706.6666666666664
54 14.133333333333333 ['146', '133', '127', '138', '143', '150', '144', '139', '129', '128', '136', '134', '119', '107', '103'] 706.6666666666664
55 14.133333333333333 ['146', '133', '127', '138', '143', '150', '144', '139', '129', '128', '136', '134', '119', '107', '103'] 706.6666666666664
56 14.133333333333333 ['146', '133', '127', '138', '143', '150', '144', '139', '129', '128', '136', '134', '119', '107', '103'] 706.6666666666664
57 14.133333333333333 ['146', '133', '127', '138', '143', '150', '144', '139', '129', '128', '136', '134', '119', '107', '103'] 706.6666666666664
58 14.133333333333333 ['146', '133', '127', '138', '143', '150', '144', '139', '129', '128', '136', '134', '119', '107', '103'] 706.6666666666664
59 14.133333333333333 ['146', '133', '127', '138', '143', '150', '144', '139', '129', '128', '136', '134', '119', '107', '103'] 706.6666666666664
60 14.133333333333333 ['146', '133', '127', '138', '143', '150', '144', '139', '129', '128', '136', '134', '119', '107', '103'] 706.6666666666664
61 14.133333333333333 ['146', '133', '127', '138', '143', '150', '144', '139', '129', '128', '136', '134', '119', '107', '103'] 706.6666666666664
62 14.133333333333333 ['146', '133', '127', '138', '143', '150', '144', '139', '129', '128', '136', '134', '119', '107', '103'] 706.6666666666664
63 14.133333333333333 ['146', '133', '127', '138', '143', '150', '144', '139', '129', '128', '136', '134', '119', '107', '103'] 706.6666666666664
64 14.133333333333333 ['146', '133', '127', '138', '143', '150', '144', '139', '129', '128', '136', '134', '119', '107', '103'] 706.6666666666664
65 14.133333333333333 ['146', '133', '127', '138', '143', '150', '144', '139', '129', '128', '136', '134', '119', '107', '103'] 706.6666666666664
66 14.133333333333333 ['146', '133', '127', '138', '143', '150', '144', '139', '129', '128', '136', '134', '119', '107', '103'] 706.6666666666664
67 14.133333333333333 ['146', '133', '127', '138', '143', '150', '144', '139', '129', '128', '136', '134', '119', '107', '103'] 706.6666666666664
68 14.133333333333333 ['146', '133', '127', '138', '143', '150', '144', '139', '129', '128', '136', '134', '119', '107', '103'] 706.6666666666664
69 14.133333333333333 ['146', '133', '127', '138', '143', '150', '144', '139', '129', '128', '136', '134', '119', '107', '103'] 706.6666666666664
70 14.133333333333333 ['146', '133', '127', '138', '143', '150', '144', '139', '129', '128', '136', '134', '119', '107', '103'] 706.6666666666664
71 14.133333333333333 ['146', '133', '127', '138', '143', '150', '144', '139', '129', '128', '136', '134', '119', '107', '103'] 706.6666666666664
72 14.133333333333333 ['146', '133', '127', '138', '143', '150', '144', '139', '129', '128', '136', '134', '119', '107', '103'] 706.6666666666664
73 14.133333333333333 ['146', '133', '127', '138', '143', '150', '144', '139', '129', '128', '136', '134', '119', '107', '103'] 706.6666666666664
74 14.133333333333333 ['146', '133', '127', '138', '143', '150', '144', '139', '129', '128', '136', '134', '119', '107', '103'] 706.6666666666664
75 14.133333333333333 ['146', '133', '127', '138', '143', '150', '144', '139', '129', '128', '136', '134', '119', '107', '103'] 706.6666666666664
76 14.133333333333333 ['146', '133', '127', '138', '143', '150', '144', '139', '129', '128', '136', '134', '119', '107', '103'] 706.6666666666664
77 14.133333333333333 ['146', '133', '127', '138', '143', '150', '144', '139', '129', '128', '136', '134', '119', '107', '103'] 706.6666666666664
78 14.133333333333333 ['146', '133', '127', '138', '143', '150', '144', '139', '129', '128', '136', '134', '119', '107', '103'] 706.6666666666664
79 14.133333333333333 ['146', '133', '127', '138', '143', '150', '144', '139', '129', '128', '136', '134', '119', '107', '103'] 706.6666666666664
80 14.133333333333333 ['146', '133', '127', '138', '143', '150', '144', '139', '129', '128', '136', '134', '119', '107', '103'] 706.6666666666664
81 14.133333333333333 ['146', '133', '127', '138', '143', '150', '144', '139', '129', '128', '136', '134', '119', '107', '103'] 706.6666666666664
82 14.133333333333333 ['146', '133', '127', '138', '143', '150', '144', '139', '129', '128', '136', '134', '119', '107', '103'] 706.6666666666664
83 14.133333333333333 ['146', '133', '127', '138', '143', '150', '144', '139', '129', '128', '136', '134', '119', '107', '103'] 706.6666666666664
84 14.133333333333333 ['146', '133', '127', '138', '143', '150', '144', '139', '129', '128', '136', '134', '119', '107', '103'] 706.6666666666664
85 14.133333333333333 ['146', '133', '127', '138', '143', '150', '144', '139', '129', '128', '136', '134', '119', '107', '103'] 706.6666666666664
86 14.133333333333333 ['146', '133', '127', '138', '143', '150', '144', '139', '129', '128', '136', '134', '119', '107', '103'] 706.6666666666664
87 14.133333333333333 ['146', '133', '127', '138', '143', '150', '144', '139', '129', '128', '136', '134', '119', '107', '103'] 706.6666666666664
88 14.133333333333333 ['146', '133', '127', '138', '143', '150', '144', '139', '129', '128', '136', '134', '119', '107', '103'] 706.6666666666664
89 14.133333333333333 ['146', '133', '127', '138', '143', '150', '144', '139', '129', '128', '136', '134', '119', '107', '103'] 706.6666666666664
90 14.133333333333333 ['146', '133', '127', '138', '143', '150', '144', '139', '129', '128', '136', '134', '119', '107', '103'] 706.6666666666664
91 14.133333333333333 ['146', '133', '127', '138', '143', '150', '144', '139', '129', '128', '136', '134', '119', '107', '103'] 706.6666666666664
92 14.133333333333333 ['146', '133', '127', '138', '143', '150', '144', '139', '129', '128', '136', '134', '119', '107', '103'] 706.6666666666664
93 14.133333333333333 ['146', '133', '127', '138', '143', '150', '144', '139', '129', '128', '136', '134', '119', '107', '103'] 706.6666666666664
94 14.133333333333333 ['146', '133', '127', '138', '143', '150', '144', '139', '129', '128', '136', '134', '119', '107', '103'] 706.6666666666664
95 14.133333333333333 ['146', '133', '127', '138', '143', '150', '144', '139', '129', '128', '136', '134', '119', '107', '103'] 706.6666666666664
96 14.133333333333333 ['146', '133', '127', '138', '143', '150', '144', '139', '129', '128', '136', '134', '119', '107', '103'] 706.6666666666664
97 14.133333333333333 ['146', '133', '127', '138', '143', '150', '144', '139', '129', '128', '136', '134', '119', '107', '103'] 706.6666666666664
98 14.133333333333333 ['146', '133', '127', '138', '143', '150', '144', '139', '129', '128', '136', '134', '119', '107', '103'] 706.6666666666664
99 14.133333333333333 ['146', '133', '127', '138', '143', '150', '144', '139', '129', '128', '136', '134', '119', '107', '103'] 706.6666666666664
100 14.133333333333333 ['146', '133', '127', '138', '143', '150', '144', '139', '129', '128', '136', '134', '119', '107', '103'] 706.6666666666664
101 14.133333333333333 ['146', '133', '127', '138', '143', '150', '144', '139', '129', '128', '136', '134', '119', '107', '103'] 706.6666666666664
102 14.133333333333333 ['146', '133', '127', '138', '143', '150', '144', '139', '129', '128', '136', '134', '119', '107', '103'] 706.6666666666664
103 14.133333333333333 ['146', '133', '127', '138', '143', '150', '144', '139', '129', '128', '136', '134', '119', '107', '103'] 706.6666666666664
104 14.133333333333333 ['146', '133', '127', '138', '143', '150', '144', '139', '129', '128', '136', '134', '119', '107', '103'] 706.6666666666664
105 14.133333333333333 ['146', '133', '127', '138', '143', '150', '144', '139', '129', '128', '136', '134', '119', '107', '103'] 706.6666666666664
106 14.133333333333333 ['146', '133', '127', '138', '143', '150', '144', '139', '129', '128', '136', '134', '119', '107', '103'] 706.6666666666664
107 14.133333333333333 ['146', '133', '127', '138', '143', '150', '144', '139', '129', '128', '136', '134', '119', '107', '103'] 706.6666666666664
108 14.133333333333333 ['146', '133', '127', '138', '143', '150', '144', '139', '129', '128', '136', '134', '119', '107', '103'] 706.6666666666664
109 14.133333333333333 ['146', '133', '127', '138', '143', '150', '144', '139', '129', '128', '136', '134', '119', '107', '103'] 706.6666666666664
110 14.133333333333333 ['146', '133', '127', '138', '143', '150', '144', '139', '129', '128', '136', '134', '119', '107', '103'] 706.6666666666664
111 14.133333333333333 ['146', '133', '127', '138', '143', '150', '144', '139', '129', '128', '136', '134', '119', '107', '103'] 706.6666666666664
112 14.133333333333333 ['146', '133', '127', '138', '143', '150', '144', '139', '129', '128', '136', '134', '119', '107', '103'] 706.6666666666664
113 14.133333333333333 ['146', '133', '127', '138', '143', '150', '144', '139', '129', '128', '136', '134', '119', '107', '103'] 706.6666666666664
114 14.133333333333333 ['146', '133', '127', '138', '143', '150', '144', '139', '129', '128', '136', '134', '119', '107', '103'] 706.6666666666664
115 14.133333333333333 ['146', '133', '127', '138', '143', '150', '144', '139', '129', '128', '136', '134', '119', '107', '103'] 706.6666666666664
116 14.133333333333333 ['146', '133', '127', '138', '143', '150', '144', '139', '129', '128', '136', '134', '119', '107', '103'] 706.6666666666664
117 14.133333333333333 ['146', '133', '127', '138', '143', '150', '144', '139', '129', '128', '136', '134', '119', '107', '103'] 706.6666666666664
118 14.133333333333333 ['146', '133', '127', '138', '143', '150', '144', '139', '129', '128', '136', '134', '119', '107', '103'] 706.6666666666664
119 14.133333333333333 ['146', '133', '127', '138', '143', '150', '144', '139', '129', '128', '136', '134', '119', '107', '103'] 706.6666666666664
120 14.133333333333333 ['146', '133', '127', '138', '143', '150', '144', '139', '129', '128', '136', '134', '119', '107', '103'] 706.6666666666664
121 14.133333333333333 ['146', '133', '127', '138', '143', '150', '144', '139', '129', '128', '136', '134', '119', '107', '103'] 706.6666666666664
122 14.133333333333333 ['146', '133', '127', '138', '143', '150', '144', '139', '129', '128', '136', '134', '119', '107', '103'] 706.6666666666664
123 14.133333333333333 ['146', '133', '127', '138', '143', '150', '144', '139', '129', '128', '136', '134', '119', '107', '103'] 706.6666666666664
124 14.133333333333333 ['146', '133', '127', '138', '143', '150', '144', '139', '129', '128', '136', '134', '119', '107', '103'] 706.6666666666664
125 14.133333333333333 ['146', '133', '127', '138', '143', '150', '144', '139', '129', '128', '136', '134', '119', '107', '103'] 706.6666666666664
126 14.133333333333333 ['146', '133', '127', '138', '143', '150', '144', '139', '129', '128', '136', '134', '119', '107', '103'] 706.6666666666664
127 14.133333333333333 ['146', '133', '127', '138', '143', '150', '144', '139', '129', '128', '136', '134', '119', '107', '103'] 706.6666666666664
128 14.133333333333333 ['146', '133', '127', '138', '143', '150', '144', '139', '129', '128', '136', '134', '119', '107', '103'] 706.6666666666664
129 14.133333333333333 ['146', '133', '127', '138', '143', '150', '144', '139', '129', '128', '136', '134', '119', '107', '103'] 706.6666666666664
130 14.133333333333333 ['146', '133', '127', '138', '143', '150', '144', '139', '129', '128', '136', '134', '119', '107', '103'] 706.6666666666664
131 14.133333333333333 ['146', '133', '127', '138', '143', '150', '144', '139', '129', '128', '136', '134', '119', '107', '103'] 706.6666666666664
132 14.133333333333333 ['146', '133', '127', '138', '143', '150', '144', '139', '129', '128', '136', '134', '119', '107', '103'] 706.6666666666664
133 14.133333333333333 ['146', '133', '127', '138', '143', '150', '144', '139', '129', '128', '136', '134', '119', '107', '103'] 706.6666666666664
134 14.133333333333333 ['146', '133', '127', '138', '143', '150', '144', '139', '129', '128', '136', '134', '119', '107', '103'] 706.6666666666664
135 14.133333333333333 ['146', '133', '127', '138', '143', '150', '144', '139', '129', '128', '136', '134', '119', '107', '103'] 706.6666666666664
136 14.133333333333333 ['146', '133', '127', '138', '143', '150', '144', '139', '129', '128', '136', '134', '119', '107', '103'] 706.6666666666664
137 14.133333333333333 ['146', '133', '127', '138', '143', '150', '144', '139', '129', '128', '136', '134', '119', '107', '103'] 706.6666666666664
138 14.133333333333333 ['146', '133', '127', '138', '143', '150', '144', '139', '129', '128', '136', '134', '119', '107', '103'] 706.6666666666664
139 14.133333333333333 ['146', '133', '127', '138', '143', '150', '144', '139', '129', '128', '136', '134', '119', '107', '103'] 706.6666666666664
140 14.133333333333333 ['146', '133', '127', '138', '143', '150', '144', '139', '129', '128', '136', '134', '119', '107', '103'] 706.6666666666664
141 14.133333333333333 ['146', '133', '127', '138', '143', '150', '144', '139', '129', '128', '136', '134', '119', '107', '103'] 706.6666666666664
142 14.133333333333333 ['146', '133', '127', '138', '143', '150', '144', '139', '129', '128', '136', '134', '119', '107', '103'] 706.6666666666664
143 14.133333333333333 ['146', '133', '127', '138', '143', '150', '144', '139', '129', '128', '136', '134', '119', '107', '103'] 706.6666666666664
144 14.133333333333333 ['146', '133', '127', '138', '143', '150', '144', '139', '129', '128', '136', '134', '119', '107', '103'] 706.6666666666664
145 14.133333333333333 ['146', '133', '127', '138', '143', '150', '144', '139', '129', '128', '136', '134', '119', '107', '103'] 706.6666666666664
146 14.133333333333333 ['146', '133', '127', '138', '143', '150', '144', '139', '129', '128', '136', '134', '119', '107', '103'] 706.6666666666664
147 14.133333333333333 ['146', '133', '127', '138', '143', '150', '144', '139', '129', '128', '136', '134', '119', '107', '103'] 706.6666666666664
148 14.133333333333333 ['146', '133', '127', '138', '143', '150', '144', '139', '129', '128', '136', '134', '119', '107', '103'] 706.6666666666664
149 14.133333333333333 ['146', '133', '127', '138', '143', '150', '144', '139', '129', '128', '136', '134', '119', '107', '103'] 706.6666666666664
150 14.133333333333333 ['146', '133', '127', '138', '143', '150', '144', '139', '129', '128', '136', '134', '119', '107', '103'] 706.6666666666664
151 14.133333333333333 ['146', '133', '127', '138', '143', '150', '144', '139', '129', '128', '136', '134', '119', '107', '103'] 706.6666666666664
152 14.133333333333333 ['146', '133', '127', '138', '143', '150', '144', '139', '129', '128', '136', '134', '119', '107', '103'] 706.6666666666664
153 14.133333333333333 ['146', '133', '127', '138', '143', '150', '144', '139', '129', '128', '136', '134', '119', '107', '103'] 706.6666666666664
154 14.133333333333333 ['146', '133', '127', '138', '143', '150', '144', '139', '129', '128', '136', '134', '119', '107', '103'] 706.6666666666664
155 14.133333333333333 ['146', '133', '127', '138', '143', '150', '144', '139', '129', '128', '136', '134', '119', '107', '103'] 706.6666666666664
156 14.133333333333333 ['146', '133', '127', '138', '143', '150', '144', '139', '129', '128', '136', '134', '119', '107', '103'] 706.6666666666664
157 14.133333333333333 ['146', '133', '127', '138', '143', '150', '144', '139', '129', '128', '136', '134', '119', '107', '103'] 706.6666666666664
158 14.133333333333333 ['146', '133', '127', '138', '143', '150', '144', '139', '129', '128', '136', '134', '119', '107', '103'] 706.6666666666664
159 14.133333333333333 ['146', '133', '127', '138', '143', '150', '144', '139', '129', '128', '136', '134', '119', '107', '103'] 706.6666666666664
160 14.133333333333333 ['146', '133', '127', '138', '143', '150', '144', '139', '129', '128', '136', '134', '119', '107', '103'] 706.6666666666664
161 14.133333333333333 ['146', '133', '127', '138', '143', '150', '144', '139', '129', '128', '136', '134', '119', '107', '103'] 706.6666666666664
162 14.133333333333333 ['146', '133', '127', '138', '143', '150', '144', '139', '129', '128', '136', '134', '119', '107', '103'] 706.6666666666664
163 14.133333333333333 ['146', '133', '127', '138', '143', '150', '144', '139', '129', '128', '136', '134', '119', '107', '103'] 706.6666666666664
164 14.133333333333333 ['146', '133', '127', '138', '143', '150', '144', '139', '129', '128', '136', '134', '119', '107', '103'] 706.6666666666664
165 14.133333333333333 ['146', '133', '127', '138', '143', '150', '144', '139', '129', '128', '136', '134', '119', '107', '103'] 706.6666666666664
166 14.133333333333333 ['146', '133', '127', '138', '143', '150', '144', '139', '129', '128', '136', '134', '119', '107', '103'] 706.6666666666664
167 14.133333333333333 ['146', '133', '127', '138', '143', '150', '144', '139', '129', '128', '136', '134', '119', '107', '103'] 706.6666666666664
168 14.133333333333333 ['146', '133', '127', '138', '143', '150', '144', '139', '129', '128', '136', '134', '119', '107', '103'] 706.6666666666664
169 14.133333333333333 ['146', '133', '127', '138', '143', '150', '144', '139', '129', '128', '136', '134', '119', '107', '103'] 706.6666666666664
170 14.133333333333333 ['146', '133', '127', '138', '143', '150', '144', '139', '129', '128', '136', '134', '119', '107', '103'] 706.6666666666664
171 14.133333333333333 ['146', '133', '127', '138', '143', '150', '144', '139', '129', '128', '136', '134', '119', '107', '103'] 706.6666666666664
172 14.133333333333333 ['146', '133', '127', '138', '143', '150', '144', '139', '129', '128', '136', '134', '119', '107', '103'] 706.6666666666664
173 14.133333333333333 ['146', '133', '127', '138', '143', '150', '144', '139', '129', '128', '136', '134', '119', '107', '103'] 706.6666666666664
174 14.133333333333333 ['146', '133', '127', '138', '143', '150', '144', '139', '129', '128', '136', '134', '119', '107', '103'] 706.6666666666664
175 14.133333333333333 ['146', '133', '127', '138', '143', '150', '144', '139', '129', '128', '136', '134', '119', '107', '103'] 706.6666666666664
176 14.133333333333333 ['146', '133', '127', '138', '143', '150', '144', '139', '129', '128', '136', '134', '119', '107', '103'] 706.6666666666664
177 14.133333333333333 ['146', '133', '127', '138', '143', '150', '144', '139', '129', '128', '136', '134', '119', '107', '103'] 706.6666666666664
178 14.133333333333333 ['146', '133', '127', '138', '143', '150', '144', '139', '129', '128', '136', '134', '119', '107', '103'] 706.6666666666664
179 14.133333333333333 ['146', '133', '127', '138', '143', '150', '144', '139', '129', '128', '136', '134', '119', '107', '103'] 706.6666666666664
180 14.133333333333333 ['146', '133', '127', '138', '143', '150', '144', '139', '129', '128', '136', '134', '119', '107', '103'] 706.6666666666664
181 14.133333333333333 ['146', '133', '127', '138', '143', '150', '144', '139', '129', '128', '136', '134', '119', '107', '103'] 706.6666666666664
182 14.133333333333333 ['146', '133', '127', '138', '143', '150', '144', '139', '129', '128', '136', '134', '119', '107', '103'] 706.6666666666664
183 14.133333333333333 ['146', '133', '127', '138', '143', '150', '144', '139', '129', '128', '136', '134', '119', '107', '103'] 706.6666666666664
184 14.133333333333333 ['146', '133', '127', '138', '143', '150', '144', '139', '129', '128', '136', '134', '119', '107', '103'] 706.6666666666664
185 14.133333333333333 ['146', '133', '127', '138', '143', '150', '144', '139', '129', '128', '136', '134', '119', '107', '103'] 706.6666666666664
186 14.133333333333333 ['146', '133', '127', '138', '143', '150', '144', '139', '129', '128', '136', '134', '119', '107', '103'] 706.6666666666664
187 14.133333333333333 ['146', '133', '127', '138', '143', '150', '144', '139', '129', '128', '136', '134', '119', '107', '103'] 706.6666666666664
188 14.133333333333333 ['146', '133', '127', '138', '143', '150', '144', '139', '129', '128', '136', '134', '119', '107', '103'] 706.6666666666664
189 14.133333333333333 ['146', '133', '127', '138', '143', '150', '144', '139', '129', '128', '136', '134', '119', '107', '103'] 706.6666666666664
190 14.133333333333333 ['146', '133', '127', '138', '143', '150', '144', '139', '129', '128', '136', '134', '119', '107', '103'] 706.6666666666664
191 14.133333333333333 ['146', '133', '127', '138', '143', '150', '144', '139', '129', '128', '136', '134', '119', '107', '103'] 706.6666666666664
192 14.133333333333333 ['146', '133', '127', '138', '143', '150', '144', '139', '129', '128', '136', '134', '119', '107', '103'] 706.6666666666664
193 14.133333333333333 ['146', '133', '127', '138', '143', '150', '144', '139', '129', '128', '136', '134', '119', '107', '103'] 706.6666666666664
194 14.133333333333333 ['146', '133', '127', '138', '143', '150', '144', '139', '129', '128', '136', '134', '119', '107', '103'] 706.6666666666664
195 14.133333333333333 ['146', '133', '127', '138', '143', '150', '144', '139', '129', '128', '136', '134', '119', '107', '103'] 706.6666666666664
196 14.133333333333333 ['146', '133', '127', '138', '143', '150', '144', '139', '129', '128', '136', '134', '119', '107', '103'] 706.6666666666664
197 14.133333333333333 ['146', '133', '127', '138', '143', '150', '144', '139', '129', '128', '136', '134', '119', '107', '103'] 706.6666666666664
198 14.133333333333333 ['146', '133', '127', '138', '143', '150', '144', '139', '129', '128', '136', '134', '119', '107', '103'] 706.6666666666664
199 14.133333333333333 ['146', '133', '127', '138', '143', '150', '144', '139', '129', '128', '136', '134', '119', '107', '103'] 706.6666666666664
