0 13.027777777777779 ['5', '24', '21'] 706.3333333333333
1 13.027777777777779 ['5', '24', '21'] 693.1666666666666
2 13.027777777777779 ['5', '24', '21'] 679.6944444444449
3 13.027777777777779 ['5', '24', '21'] 669.0555555555559
4 12.333333333333334 ['21', '11', '13'] 662.4999999999997
5 12.333333333333334 ['21', '11', '13'] 652.5277777777786
6 12.333333333333334 ['21', '11', '13'] 643.6944444444441
7 12.333333333333334 ['21', '11', '13'] 629.1388888888889
8 12.333333333333334 ['21', '11', '13'] 620.2222222222222
9 12.333333333333334 ['21', '11', '13'] 616.6666666666666
10 12.333333333333334 ['21', '11', '13'] 616.6666666666666
11 12.333333333333334 ['21', '11', '13'] 616.6666666666666
12 12.333333333333334 ['21', '11', '13'] 616.6666666666666
13 12.333333333333334 ['21', '11', '13'] 616.6666666666666
14 12.333333333333334 ['21', '11', '13'] 616.6666666666666
15 12.333333333333334 ['21', '11', '13'] 616.6666666666666
16 12.333333333333334 ['21', '11', '13'] 616.6666666666666
17 12.333333333333334 ['21', '11', '13'] 616.6666666666666
18 12.333333333333334 ['21', '11', '13'] 616.6666666666666
19 12.333333333333334 ['21', '11', '13'] 616.6666666666666
20 12.333333333333334 ['21', '11', '13'] 616.6666666666666
21 12.333333333333334 ['21', '11', '13'] 616.6666666666666
22 12.333333333333334 ['21', '11', '13'] 616.6666666666666
23 12.333333333333334 ['21', '11', '13'] 616.6666666666666
24 12.333333333333334 ['21', '11', '13'] 616.6666666666666
25 12.333333333333334 ['21', '11', '13'] 616.6666666666666
26 12.333333333333334 ['21', '11', '13'] 616.6666666666666
27 12.333333333333334 ['21', '11', '13'] 616.6666666666666
28 12.333333333333334 ['21', '11', '13'] 616.6666666666666
29 12.333333333333334 ['21', '11', '13'] 616.6666666666666
30 12.333333333333334 ['21', '11', '13'] 616.6666666666666
31 12.333333333333334 ['21', '11', '13'] 616.6666666666666
32 12.333333333333334 ['21', '11', '13'] 616.6666666666666
33 12.333333333333334 ['21', '11', '13'] 616.6666666666666
34 12.333333333333334 ['21', '11', '13'] 616.6666666666666
35 12.333333333333334 ['21', '11', '13'] 616.6666666666666
36 12.333333333333334 ['21', '11', '13'] 616.6666666666666
37 12.333333333333334 ['21', '11', '13'] 616.6666666666666
38 12.333333333333334 ['21', '11', '13'] 616.6666666666666
39 12.333333333333334 ['21', '11', '13'] 616.6666666666666
40 12.333333333333334 ['21', '11', '13'] 616.6666666666666
41 12.333333333333334 ['21', '11', '13'] 616.6666666666666
42 12.333333333333334 ['21', '11', '13'] 616.6666666666666
43 12.333333333333334 ['21', '11', '13'] 616.6666666666666
44 12.333333333333334 ['21', '11', '13'] 616.6666666666666
45 12.333333333333334 ['21', '11', '13'] 616.6666666666666
46 12.333333333333334 ['21', '11', '13'] 616.6666666666666
47 12.333333333333334 ['21', '11', '13'] 616.6666666666666
48 12.333333333333334 ['21', '11', '13'] 616.6666666666666
49 12.333333333333334 ['21', '11', '13'] 616.6666666666666
50 12.333333333333334 ['21', '11', '13'] 616.6666666666666
51 12.333333333333334 ['21', '11', '13'] 616.6666666666666
52 12.333333333333334 ['21', '11', '13'] 616.6666666666666
53 12.333333333333334 ['21', '11', '13'] 616.6666666666666
54 12.333333333333334 ['21', '11', '13'] 616.6666666666666
55 12.333333333333334 ['21', '11', '13'] 616.6666666666666
56 12.333333333333334 ['21', '11', '13'] 616.6666666666666
57 12.333333333333334 ['21', '11', '13'] 616.6666666666666
58 12.333333333333334 ['21', '11', '13'] 616.6666666666666
59 12.333333333333334 ['21', '11', '13'] 616.6666666666666
60 12.333333333333334 ['21', '11', '13'] 616.6666666666666
61 12.333333333333334 ['21', '11', '13'] 616.6666666666666
62 12.333333333333334 ['21', '11', '13'] 616.6666666666666
63 12.333333333333334 ['21', '11', '13'] 616.6666666666666
64 12.333333333333334 ['21', '11', '13'] 616.6666666666666
65 12.333333333333334 ['21', '11', '13'] 616.6666666666666
66 12.333333333333334 ['21', '11', '13'] 616.6666666666666
67 12.333333333333334 ['21', '11', '13'] 616.6666666666666
68 12.333333333333334 ['21', '11', '13'] 616.6666666666666
69 12.333333333333334 ['21', '11', '13'] 616.6666666666666
70 12.333333333333334 ['21', '11', '13'] 616.6666666666666
71 12.333333333333334 ['21', '11', '13'] 616.6666666666666
72 12.333333333333334 ['21', '11', '13'] 616.6666666666666
73 12.333333333333334 ['21', '11', '13'] 616.6666666666666
74 12.333333333333334 ['21', '11', '13'] 616.6666666666666
75 12.333333333333334 ['21', '11', '13'] 616.6666666666666
76 12.333333333333334 ['21', '11', '13'] 616.6666666666666
77 12.333333333333334 ['21', '11', '13'] 616.6666666666666
78 12.333333333333334 ['21', '11', '13'] 616.6666666666666
79 12.333333333333334 ['21', '11', '13'] 616.6666666666666
80 12.333333333333334 ['21', '11', '13'] 616.6666666666666
81 12.333333333333334 ['21', '11', '13'] 616.6666666666666
82 12.333333333333334 ['21', '11', '13'] 616.6666666666666
83 12.333333333333334 ['21', '11', '13'] 616.6666666666666
84 12.333333333333334 ['21', '11', '13'] 616.6666666666666
85 12.333333333333334 ['21', '11', '13'] 616.6666666666666
86 12.333333333333334 ['21', '11', '13'] 616.6666666666666
87 12.333333333333334 ['21', '11', '13'] 616.6666666666666
88 12.333333333333334 ['21', '11', '13'] 616.6666666666666
89 12.333333333333334 ['21', '11', '13'] 616.6666666666666
90 12.333333333333334 ['21', '11', '13'] 616.6666666666666
91 12.333333333333334 ['21', '11', '13'] 616.6666666666666
92 12.333333333333334 ['21', '11', '13'] 616.6666666666666
93 12.333333333333334 ['21', '11', '13'] 616.6666666666666
94 12.333333333333334 ['21', '11', '13'] 616.6666666666666
95 12.333333333333334 ['21', '11', '13'] 616.6666666666666
96 12.333333333333334 ['21', '11', '13'] 616.6666666666666
97 12.333333333333334 ['21', '11', '13'] 616.6666666666666
98 12.333333333333334 ['21', '11', '13'] 616.6666666666666
99 12.333333333333334 ['21', '11', '13'] 616.6666666666666
100 12.333333333333334 ['21', '11', '13'] 616.6666666666666
101 12.333333333333334 ['21', '11', '13'] 616.6666666666666
102 12.333333333333334 ['21', '11', '13'] 616.6666666666666
103 12.333333333333334 ['21', '11', '13'] 616.6666666666666
104 12.333333333333334 ['21', '11', '13'] 616.6666666666666
105 12.333333333333334 ['21', '11', '13'] 616.6666666666666
106 12.333333333333334 ['21', '11', '13'] 616.6666666666666
107 12.333333333333334 ['21', '11', '13'] 616.6666666666666
108 12.333333333333334 ['21', '11', '13'] 616.6666666666666
109 12.333333333333334 ['21', '11', '13'] 616.6666666666666
110 12.333333333333334 ['21', '11', '13'] 616.6666666666666
111 12.333333333333334 ['21', '11', '13'] 616.6666666666666
112 12.333333333333334 ['21', '11', '13'] 616.6666666666666
113 12.333333333333334 ['21', '11', '13'] 616.6666666666666
114 12.333333333333334 ['21', '11', '13'] 616.6666666666666
115 12.333333333333334 ['21', '11', '13'] 616.6666666666666
116 12.333333333333334 ['21', '11', '13'] 616.6666666666666
117 12.333333333333334 ['21', '11', '13'] 616.6666666666666
118 12.333333333333334 ['21', '11', '13'] 616.6666666666666
119 12.333333333333334 ['21', '11', '13'] 616.6666666666666
120 12.333333333333334 ['21', '11', '13'] 616.6666666666666
121 12.333333333333334 ['21', '11', '13'] 616.6666666666666
122 12.333333333333334 ['21', '11', '13'] 616.6666666666666
123 12.333333333333334 ['21', '11', '13'] 616.6666666666666
124 12.333333333333334 ['21', '11', '13'] 616.6666666666666
125 12.333333333333334 ['21', '11', '13'] 616.6666666666666
126 12.333333333333334 ['21', '11', '13'] 616.6666666666666
127 12.333333333333334 ['21', '11', '13'] 616.6666666666666
128 12.333333333333334 ['21', '11', '13'] 616.6666666666666
129 12.333333333333334 ['21', '11', '13'] 616.6666666666666
130 12.333333333333334 ['21', '11', '13'] 616.6666666666666
131 12.333333333333334 ['21', '11', '13'] 616.6666666666666
132 12.333333333333334 ['21', '11', '13'] 616.6666666666666
133 12.333333333333334 ['21', '11', '13'] 616.6666666666666
134 12.333333333333334 ['21', '11', '13'] 616.6666666666666
135 12.333333333333334 ['21', '11', '13'] 616.6666666666666
136 12.333333333333334 ['21', '11', '13'] 616.6666666666666
137 12.333333333333334 ['21', '11', '13'] 616.6666666666666
138 12.333333333333334 ['21', '11', '13'] 616.6666666666666
139 12.333333333333334 ['21', '11', '13'] 616.6666666666666
140 12.333333333333334 ['21', '11', '13'] 616.6666666666666
141 12.333333333333334 ['21', '11', '13'] 616.6666666666666
142 12.333333333333334 ['21', '11', '13'] 616.6666666666666
143 12.333333333333334 ['21', '11', '13'] 616.6666666666666
144 12.333333333333334 ['21', '11', '13'] 616.6666666666666
145 12.333333333333334 ['21', '11', '13'] 616.6666666666666
146 12.333333333333334 ['21', '11', '13'] 616.6666666666666
147 12.333333333333334 ['21', '11', '13'] 616.6666666666666
148 12.333333333333334 ['21', '11', '13'] 616.6666666666666
149 12.333333333333334 ['21', '11', '13'] 616.6666666666666
150 12.333333333333334 ['21', '11', '13'] 616.6666666666666
151 12.333333333333334 ['21', '11', '13'] 616.6666666666666
152 12.333333333333334 ['21', '11', '13'] 616.6666666666666
153 12.333333333333334 ['21', '11', '13'] 616.6666666666666
154 12.333333333333334 ['21', '11', '13'] 616.6666666666666
155 12.333333333333334 ['21', '11', '13'] 616.6666666666666
156 12.333333333333334 ['21', '11', '13'] 616.6666666666666
157 12.333333333333334 ['21', '11', '13'] 616.6666666666666
158 12.333333333333334 ['21', '11', '13'] 616.6666666666666
159 12.333333333333334 ['21', '11', '13'] 616.6666666666666
160 12.333333333333334 ['21', '11', '13'] 616.6666666666666
161 12.333333333333334 ['21', '11', '13'] 616.6666666666666
162 12.333333333333334 ['21', '11', '13'] 616.6666666666666
163 12.333333333333334 ['21', '11', '13'] 616.6666666666666
164 12.333333333333334 ['21', '11', '13'] 616.6666666666666
165 12.333333333333334 ['21', '11', '13'] 616.6666666666666
166 12.333333333333334 ['21', '11', '13'] 616.6666666666666
167 12.333333333333334 ['21', '11', '13'] 616.6666666666666
168 12.333333333333334 ['21', '11', '13'] 616.6666666666666
169 12.333333333333334 ['21', '11', '13'] 616.6666666666666
170 12.333333333333334 ['21', '11', '13'] 616.6666666666666
171 12.333333333333334 ['21', '11', '13'] 616.6666666666666
172 12.333333333333334 ['21', '11', '13'] 616.6666666666666
173 12.333333333333334 ['21', '11', '13'] 616.6666666666666
174 12.333333333333334 ['21', '11', '13'] 616.6666666666666
175 12.333333333333334 ['21', '11', '13'] 616.6666666666666
176 12.333333333333334 ['21', '11', '13'] 616.6666666666666
177 12.333333333333334 ['21', '11', '13'] 616.6666666666666
178 12.333333333333334 ['21', '11', '13'] 616.6666666666666
179 12.333333333333334 ['21', '11', '13'] 616.6666666666666
180 12.333333333333334 ['21', '11', '13'] 616.6666666666666
181 12.333333333333334 ['21', '11', '13'] 616.6666666666666
182 12.333333333333334 ['21', '11', '13'] 616.6666666666666
183 12.333333333333334 ['21', '11', '13'] 616.6666666666666
184 12.333333333333334 ['21', '11', '13'] 616.6666666666666
185 12.333333333333334 ['21', '11', '13'] 616.6666666666666
186 12.333333333333334 ['21', '11', '13'] 616.6666666666666
187 12.333333333333334 ['21', '11', '13'] 616.6666666666666
188 12.333333333333334 ['21', '11', '13'] 616.6666666666666
189 12.333333333333334 ['21', '11', '13'] 616.6666666666666
190 12.333333333333334 ['21', '11', '13'] 616.6666666666666
191 12.333333333333334 ['21', '11', '13'] 616.6666666666666
192 12.333333333333334 ['21', '11', '13'] 616.6666666666666
193 12.333333333333334 ['21', '11', '13'] 616.6666666666666
194 12.333333333333334 ['21', '11', '13'] 616.6666666666666
195 12.333333333333334 ['21', '11', '13'] 616.6666666666666
196 12.333333333333334 ['21', '11', '13'] 616.6666666666666
197 12.333333333333334 ['21', '11', '13'] 616.6666666666666
198 12.333333333333334 ['21', '11', '13'] 616.6666666666666
199 12.333333333333334 ['21', '11', '13'] 616.6666666666666
