0 35.0 ['4', '49', '5', '33', '3', '34'] 1856.1929824561407
1 34.228070175438596 ['3', '8', '14', '50', '57', '19'] 1823.8070175438597
2 34.05263157894737 ['34', '17', '50', '5', '4', '3'] 1788.5614035087715
3 33.78947368421053 ['50', '14', '5', '3', '8', '19'] 1753.2280701754387
4 33.78947368421053 ['50', '14', '5', '3', '8', '19'] 1726.6491228070174
5 33.24561403508772 ['33', '3', '4', '34', '8', '41'] 1704.5789473684208
6 33.21052631578947 ['8', '34', '40', '4', '12', '3'] 1690.999999999999
7 32.92982456140351 ['3', '34', '19', '8', '40', '5'] 1679.368421052632
8 32.87719298245614 ['50', '5', '3', '34', '19', '8'] 1666.6842105263156
9 32.50877192982456 ['3', '50', '8', '40', '34', '19'] 1657.298245614035
10 32.50877192982456 ['3', '50', '8', '40', '34', '19'] 1647.2807017543857
11 32.50877192982456 ['3', '50', '8', '40', '34', '19'] 1638.2982456140355
12 32.50877192982456 ['3', '50', '8', '40', '34', '19'] 1631.350877192983
13 32.50877192982456 ['3', '50', '8', '40', '34', '19'] 1628.4210526315785
14 32.50877192982456 ['3', '50', '8', '40', '34', '19'] 1625.4385964912296
15 32.50877192982456 ['3', '50', '8', '40', '34', '19'] 1625.4385964912296
16 32.50877192982456 ['3', '50', '8', '40', '34', '19'] 1625.4385964912296
17 32.50877192982456 ['3', '50', '8', '40', '34', '19'] 1625.4385964912296
18 32.50877192982456 ['3', '50', '8', '40', '34', '19'] 1625.4385964912296
19 32.50877192982456 ['3', '50', '8', '40', '34', '19'] 1625.4385964912296
20 32.50877192982456 ['3', '50', '8', '40', '34', '19'] 1625.4385964912296
21 32.50877192982456 ['3', '50', '8', '40', '34', '19'] 1625.4385964912296
22 32.50877192982456 ['3', '50', '8', '40', '34', '19'] 1625.4385964912296
23 32.50877192982456 ['3', '50', '8', '40', '34', '19'] 1625.4385964912296
24 32.50877192982456 ['3', '50', '8', '40', '34', '19'] 1625.4385964912296
25 32.50877192982456 ['3', '50', '8', '40', '34', '19'] 1625.4385964912296
26 32.50877192982456 ['3', '50', '8', '40', '34', '19'] 1625.4385964912296
27 32.50877192982456 ['3', '50', '8', '40', '34', '19'] 1625.4385964912296
28 32.50877192982456 ['3', '50', '8', '40', '34', '19'] 1625.4385964912296
29 32.50877192982456 ['3', '50', '8', '40', '34', '19'] 1625.4385964912296
30 32.50877192982456 ['3', '50', '8', '40', '34', '19'] 1625.4385964912296
31 32.50877192982456 ['3', '50', '8', '40', '34', '19'] 1625.4385964912296
32 32.50877192982456 ['3', '50', '8', '40', '34', '19'] 1625.4385964912296
33 32.50877192982456 ['3', '50', '8', '40', '34', '19'] 1625.4385964912296
34 32.50877192982456 ['3', '50', '8', '40', '34', '19'] 1625.4385964912296
35 32.50877192982456 ['3', '50', '8', '40', '34', '19'] 1625.4385964912296
36 32.50877192982456 ['3', '50', '8', '40', '34', '19'] 1625.4385964912296
37 32.50877192982456 ['3', '50', '8', '40', '34', '19'] 1625.4385964912296
38 32.50877192982456 ['3', '50', '8', '40', '34', '19'] 1625.4385964912296
39 32.50877192982456 ['3', '50', '8', '40', '34', '19'] 1625.4385964912296
40 32.50877192982456 ['3', '50', '8', '40', '34', '19'] 1625.4385964912296
41 32.50877192982456 ['3', '50', '8', '40', '34', '19'] 1625.4385964912296
42 32.50877192982456 ['3', '50', '8', '40', '34', '19'] 1625.4385964912296
43 32.50877192982456 ['3', '50', '8', '40', '34', '19'] 1625.4385964912296
44 32.50877192982456 ['3', '50', '8', '40', '34', '19'] 1625.4385964912296
45 32.50877192982456 ['3', '50', '8', '40', '34', '19'] 1625.4385964912296
46 32.50877192982456 ['3', '50', '8', '40', '34', '19'] 1625.4385964912296
47 32.50877192982456 ['3', '50', '8', '40', '34', '19'] 1625.4385964912296
48 32.50877192982456 ['3', '50', '8', '40', '34', '19'] 1625.4385964912296
49 32.50877192982456 ['3', '50', '8', '40', '34', '19'] 1625.4385964912296
50 32.50877192982456 ['3', '50', '8', '40', '34', '19'] 1625.4385964912296
51 32.50877192982456 ['3', '50', '8', '40', '34', '19'] 1625.4385964912296
52 32.50877192982456 ['3', '50', '8', '40', '34', '19'] 1625.4385964912296
53 32.50877192982456 ['3', '50', '8', '40', '34', '19'] 1625.4385964912296
54 32.50877192982456 ['3', '50', '8', '40', '34', '19'] 1625.4385964912296
55 32.50877192982456 ['3', '50', '8', '40', '34', '19'] 1625.4385964912296
56 32.50877192982456 ['3', '50', '8', '40', '34', '19'] 1625.4385964912296
57 32.50877192982456 ['3', '50', '8', '40', '34', '19'] 1625.4385964912296
58 32.50877192982456 ['3', '50', '8', '40', '34', '19'] 1625.4385964912296
59 32.50877192982456 ['3', '50', '8', '40', '34', '19'] 1625.4385964912296
60 32.50877192982456 ['3', '50', '8', '40', '34', '19'] 1625.4385964912296
61 32.50877192982456 ['3', '50', '8', '40', '34', '19'] 1625.4385964912296
62 32.50877192982456 ['3', '50', '8', '40', '34', '19'] 1625.4385964912296
63 32.50877192982456 ['3', '50', '8', '40', '34', '19'] 1625.4385964912296
64 32.50877192982456 ['3', '50', '8', '40', '34', '19'] 1625.4385964912296
65 32.50877192982456 ['3', '50', '8', '40', '34', '19'] 1625.4385964912296
66 32.50877192982456 ['3', '50', '8', '40', '34', '19'] 1625.4385964912296
67 32.50877192982456 ['3', '50', '8', '40', '34', '19'] 1625.4385964912296
68 32.50877192982456 ['3', '50', '8', '40', '34', '19'] 1625.4385964912296
69 32.50877192982456 ['3', '50', '8', '40', '34', '19'] 1625.4385964912296
70 32.50877192982456 ['3', '50', '8', '40', '34', '19'] 1625.4385964912296
71 32.50877192982456 ['3', '50', '8', '40', '34', '19'] 1625.4385964912296
72 32.50877192982456 ['3', '50', '8', '40', '34', '19'] 1625.4385964912296
73 32.50877192982456 ['3', '50', '8', '40', '34', '19'] 1625.4385964912296
74 32.50877192982456 ['3', '50', '8', '40', '34', '19'] 1625.4385964912296
75 32.50877192982456 ['3', '50', '8', '40', '34', '19'] 1625.4385964912296
76 32.50877192982456 ['3', '50', '8', '40', '34', '19'] 1625.4385964912296
77 32.50877192982456 ['3', '50', '8', '40', '34', '19'] 1625.4385964912296
78 32.50877192982456 ['3', '50', '8', '40', '34', '19'] 1625.4385964912296
79 32.50877192982456 ['3', '50', '8', '40', '34', '19'] 1625.4385964912296
80 32.50877192982456 ['3', '50', '8', '40', '34', '19'] 1625.4385964912296
81 32.50877192982456 ['3', '50', '8', '40', '34', '19'] 1625.4385964912296
82 32.50877192982456 ['3', '50', '8', '40', '34', '19'] 1625.4385964912296
83 32.50877192982456 ['3', '50', '8', '40', '34', '19'] 1625.4385964912296
84 32.50877192982456 ['3', '50', '8', '40', '34', '19'] 1625.4385964912296
85 32.50877192982456 ['3', '50', '8', '40', '34', '19'] 1625.4385964912296
86 32.50877192982456 ['3', '50', '8', '40', '34', '19'] 1625.4385964912296
87 32.50877192982456 ['3', '50', '8', '40', '34', '19'] 1625.4385964912296
88 32.50877192982456 ['3', '50', '8', '40', '34', '19'] 1625.4385964912296
89 32.50877192982456 ['3', '50', '8', '40', '34', '19'] 1625.4385964912296
90 32.50877192982456 ['3', '50', '8', '40', '34', '19'] 1625.4385964912296
91 32.50877192982456 ['3', '50', '8', '40', '34', '19'] 1625.4385964912296
92 32.50877192982456 ['3', '50', '8', '40', '34', '19'] 1625.4385964912296
93 32.50877192982456 ['3', '50', '8', '40', '34', '19'] 1625.4385964912296
94 32.50877192982456 ['3', '50', '8', '40', '34', '19'] 1625.4385964912296
95 32.50877192982456 ['3', '50', '8', '40', '34', '19'] 1625.4385964912296
96 32.50877192982456 ['3', '50', '8', '40', '34', '19'] 1625.4385964912296
97 32.50877192982456 ['3', '50', '8', '40', '34', '19'] 1625.4385964912296
98 32.50877192982456 ['3', '50', '8', '40', '34', '19'] 1625.4385964912296
99 32.50877192982456 ['3', '50', '8', '40', '34', '19'] 1625.4385964912296
100 32.50877192982456 ['3', '50', '8', '40', '34', '19'] 1625.4385964912296
101 32.50877192982456 ['3', '50', '8', '40', '34', '19'] 1625.4385964912296
102 32.50877192982456 ['3', '50', '8', '40', '34', '19'] 1625.4385964912296
103 32.50877192982456 ['3', '50', '8', '40', '34', '19'] 1625.4385964912296
104 32.50877192982456 ['3', '50', '8', '40', '34', '19'] 1625.4385964912296
105 32.50877192982456 ['3', '50', '8', '40', '34', '19'] 1625.4385964912296
106 32.50877192982456 ['3', '50', '8', '40', '34', '19'] 1625.4385964912296
107 32.50877192982456 ['3', '50', '8', '40', '34', '19'] 1625.4385964912296
108 32.50877192982456 ['3', '50', '8', '40', '34', '19'] 1625.4385964912296
109 32.50877192982456 ['3', '50', '8', '40', '34', '19'] 1625.4385964912296
110 32.50877192982456 ['3', '50', '8', '40', '34', '19'] 1625.4385964912296
111 32.50877192982456 ['3', '50', '8', '40', '34', '19'] 1625.4385964912296
112 32.50877192982456 ['3', '50', '8', '40', '34', '19'] 1625.4385964912296
113 32.50877192982456 ['3', '50', '8', '40', '34', '19'] 1625.4385964912296
114 32.50877192982456 ['3', '50', '8', '40', '34', '19'] 1625.4385964912296
115 32.50877192982456 ['3', '50', '8', '40', '34', '19'] 1625.4385964912296
116 32.50877192982456 ['3', '50', '8', '40', '34', '19'] 1625.4385964912296
117 32.50877192982456 ['3', '50', '8', '40', '34', '19'] 1625.4385964912296
118 32.50877192982456 ['3', '50', '8', '40', '34', '19'] 1625.4385964912296
119 32.50877192982456 ['3', '50', '8', '40', '34', '19'] 1625.4385964912296
120 32.50877192982456 ['3', '50', '8', '40', '34', '19'] 1625.4385964912296
121 32.50877192982456 ['3', '50', '8', '40', '34', '19'] 1625.4385964912296
122 32.50877192982456 ['3', '50', '8', '40', '34', '19'] 1625.4385964912296
123 32.50877192982456 ['3', '50', '8', '40', '34', '19'] 1625.4385964912296
124 32.50877192982456 ['3', '50', '8', '40', '34', '19'] 1625.4385964912296
125 32.50877192982456 ['3', '50', '8', '40', '34', '19'] 1625.4385964912296
126 32.50877192982456 ['3', '50', '8', '40', '34', '19'] 1625.4385964912296
127 32.50877192982456 ['3', '50', '8', '40', '34', '19'] 1625.4385964912296
128 32.50877192982456 ['3', '50', '8', '40', '34', '19'] 1625.4385964912296
129 32.50877192982456 ['3', '50', '8', '40', '34', '19'] 1625.4385964912296
130 32.50877192982456 ['3', '50', '8', '40', '34', '19'] 1625.4385964912296
131 32.50877192982456 ['3', '50', '8', '40', '34', '19'] 1625.4385964912296
132 32.50877192982456 ['3', '50', '8', '40', '34', '19'] 1625.4385964912296
133 32.50877192982456 ['3', '50', '8', '40', '34', '19'] 1625.4385964912296
134 32.50877192982456 ['3', '50', '8', '40', '34', '19'] 1625.4385964912296
135 32.50877192982456 ['3', '50', '8', '40', '34', '19'] 1625.4385964912296
136 32.50877192982456 ['3', '50', '8', '40', '34', '19'] 1625.4385964912296
137 32.50877192982456 ['3', '50', '8', '40', '34', '19'] 1625.4385964912296
138 32.50877192982456 ['3', '50', '8', '40', '34', '19'] 1625.4385964912296
139 32.50877192982456 ['3', '50', '8', '40', '34', '19'] 1625.4385964912296
140 32.50877192982456 ['3', '50', '8', '40', '34', '19'] 1625.4385964912296
141 32.50877192982456 ['3', '50', '8', '40', '34', '19'] 1625.4385964912296
142 32.50877192982456 ['3', '50', '8', '40', '34', '19'] 1625.4385964912296
143 32.50877192982456 ['3', '50', '8', '40', '34', '19'] 1625.4385964912296
144 32.50877192982456 ['3', '50', '8', '40', '34', '19'] 1625.4385964912296
145 32.50877192982456 ['3', '50', '8', '40', '34', '19'] 1625.4385964912296
146 32.50877192982456 ['3', '50', '8', '40', '34', '19'] 1625.4385964912296
147 32.50877192982456 ['3', '50', '8', '40', '34', '19'] 1625.4385964912296
148 32.50877192982456 ['3', '50', '8', '40', '34', '19'] 1625.4385964912296
149 32.50877192982456 ['3', '50', '8', '40', '34', '19'] 1625.4385964912296
150 32.50877192982456 ['3', '50', '8', '40', '34', '19'] 1625.4385964912296
151 32.50877192982456 ['3', '50', '8', '40', '34', '19'] 1625.4385964912296
152 32.50877192982456 ['3', '50', '8', '40', '34', '19'] 1625.4385964912296
153 32.50877192982456 ['3', '50', '8', '40', '34', '19'] 1625.4385964912296
154 32.50877192982456 ['3', '50', '8', '40', '34', '19'] 1625.4385964912296
155 32.50877192982456 ['3', '50', '8', '40', '34', '19'] 1625.4385964912296
156 32.50877192982456 ['3', '50', '8', '40', '34', '19'] 1625.4385964912296
157 32.50877192982456 ['3', '50', '8', '40', '34', '19'] 1625.4385964912296
158 32.50877192982456 ['3', '50', '8', '40', '34', '19'] 1625.4385964912296
159 32.50877192982456 ['3', '50', '8', '40', '34', '19'] 1625.4385964912296
160 32.50877192982456 ['3', '50', '8', '40', '34', '19'] 1625.4385964912296
161 32.50877192982456 ['3', '50', '8', '40', '34', '19'] 1625.4385964912296
162 32.50877192982456 ['3', '50', '8', '40', '34', '19'] 1625.4385964912296
163 32.50877192982456 ['3', '50', '8', '40', '34', '19'] 1625.4385964912296
164 32.50877192982456 ['3', '50', '8', '40', '34', '19'] 1625.4385964912296
165 32.50877192982456 ['3', '50', '8', '40', '34', '19'] 1625.4385964912296
166 32.50877192982456 ['3', '50', '8', '40', '34', '19'] 1625.4385964912296
167 32.50877192982456 ['3', '50', '8', '40', '34', '19'] 1625.4385964912296
168 32.50877192982456 ['3', '50', '8', '40', '34', '19'] 1625.4385964912296
169 32.50877192982456 ['3', '50', '8', '40', '34', '19'] 1625.4385964912296
170 32.50877192982456 ['3', '50', '8', '40', '34', '19'] 1625.4385964912296
171 32.50877192982456 ['3', '50', '8', '40', '34', '19'] 1625.4385964912296
172 32.50877192982456 ['3', '50', '8', '40', '34', '19'] 1625.4385964912296
173 32.50877192982456 ['3', '50', '8', '40', '34', '19'] 1625.4385964912296
174 32.50877192982456 ['3', '50', '8', '40', '34', '19'] 1625.4385964912296
175 32.50877192982456 ['3', '50', '8', '40', '34', '19'] 1625.4385964912296
176 32.50877192982456 ['3', '50', '8', '40', '34', '19'] 1625.4385964912296
177 32.50877192982456 ['3', '50', '8', '40', '34', '19'] 1625.4385964912296
178 32.50877192982456 ['3', '50', '8', '40', '34', '19'] 1625.4385964912296
179 32.50877192982456 ['3', '50', '8', '40', '34', '19'] 1625.4385964912296
180 32.50877192982456 ['3', '50', '8', '40', '34', '19'] 1625.4385964912296
181 32.50877192982456 ['3', '50', '8', '40', '34', '19'] 1625.4385964912296
182 32.50877192982456 ['3', '50', '8', '40', '34', '19'] 1625.4385964912296
183 32.50877192982456 ['3', '50', '8', '40', '34', '19'] 1625.4385964912296
184 32.50877192982456 ['3', '50', '8', '40', '34', '19'] 1625.4385964912296
185 32.50877192982456 ['3', '50', '8', '40', '34', '19'] 1625.4385964912296
186 32.50877192982456 ['3', '50', '8', '40', '34', '19'] 1625.4385964912296
187 32.50877192982456 ['3', '50', '8', '40', '34', '19'] 1625.4385964912296
188 32.50877192982456 ['3', '50', '8', '40', '34', '19'] 1625.4385964912296
189 32.50877192982456 ['3', '50', '8', '40', '34', '19'] 1625.4385964912296
190 32.50877192982456 ['3', '50', '8', '40', '34', '19'] 1625.4385964912296
191 32.50877192982456 ['3', '50', '8', '40', '34', '19'] 1625.4385964912296
192 32.50877192982456 ['3', '50', '8', '40', '34', '19'] 1625.4385964912296
193 32.50877192982456 ['3', '50', '8', '40', '34', '19'] 1625.4385964912296
194 32.50877192982456 ['3', '50', '8', '40', '34', '19'] 1625.4385964912296
195 32.50877192982456 ['3', '50', '8', '40', '34', '19'] 1625.4385964912296
196 32.50877192982456 ['3', '50', '8', '40', '34', '19'] 1625.4385964912296
197 32.50877192982456 ['3', '50', '8', '40', '34', '19'] 1625.4385964912296
198 32.50877192982456 ['3', '50', '8', '40', '34', '19'] 1625.4385964912296
199 32.50877192982456 ['3', '50', '8', '40', '34', '19'] 1625.4385964912296
