0 6.909090909090909 ['11', '4', '18'] 380.48484848484827
1 6.666666666666667 ['12', '30', '11'] 369.93939393939365
2 6.666666666666667 ['12', '30', '11'] 359.9999999999999
3 6.545454545454546 ['11', '12', '34'] 351.8787878787876
4 6.545454545454546 ['11', '12', '34'] 344.60606060606017
5 6.545454545454546 ['11', '12', '34'] 338.9090909090911
6 6.545454545454546 ['11', '12', '34'] 334.1818181818183
7 6.545454545454546 ['11', '12', '34'] 331.39393939393943
8 6.545454545454546 ['11', '12', '34'] 329.57575757575756
9 6.545454545454546 ['11', '12', '34'] 327.2727272727272
10 6.545454545454546 ['11', '12', '34'] 327.2727272727272
11 6.545454545454546 ['11', '12', '34'] 327.2727272727272
12 6.545454545454546 ['11', '12', '34'] 327.2727272727272
13 6.545454545454546 ['11', '12', '34'] 327.2727272727272
14 6.545454545454546 ['11', '12', '34'] 327.2727272727272
15 6.545454545454546 ['11', '12', '34'] 327.2727272727272
16 6.545454545454546 ['11', '12', '34'] 327.2727272727272
17 6.545454545454546 ['11', '12', '34'] 327.2727272727272
18 6.545454545454546 ['11', '12', '34'] 327.2727272727272
19 6.545454545454546 ['11', '12', '34'] 327.2727272727272
20 6.545454545454546 ['11', '12', '34'] 327.2727272727272
21 6.545454545454546 ['11', '12', '34'] 327.2727272727272
22 6.545454545454546 ['11', '12', '34'] 327.2727272727272
23 6.545454545454546 ['11', '12', '34'] 327.2727272727272
24 6.545454545454546 ['11', '12', '34'] 327.2727272727272
25 6.545454545454546 ['11', '12', '34'] 327.2727272727272
26 6.545454545454546 ['11', '12', '34'] 327.2727272727272
27 6.545454545454546 ['11', '12', '34'] 327.2727272727272
28 6.545454545454546 ['11', '12', '34'] 327.2727272727272
29 6.545454545454546 ['11', '12', '34'] 327.2727272727272
30 6.545454545454546 ['11', '12', '34'] 327.2727272727272
31 6.545454545454546 ['11', '12', '34'] 327.2727272727272
32 6.545454545454546 ['11', '12', '34'] 327.2727272727272
33 6.545454545454546 ['11', '12', '34'] 327.2727272727272
34 6.545454545454546 ['11', '12', '34'] 327.2727272727272
35 6.545454545454546 ['11', '12', '34'] 327.2727272727272
36 6.545454545454546 ['11', '12', '34'] 327.2727272727272
37 6.545454545454546 ['11', '12', '34'] 327.2727272727272
38 6.545454545454546 ['11', '12', '34'] 327.2727272727272
39 6.545454545454546 ['11', '12', '34'] 327.2727272727272
40 6.545454545454546 ['11', '12', '34'] 327.2727272727272
41 6.545454545454546 ['11', '12', '34'] 327.2727272727272
42 6.545454545454546 ['11', '12', '34'] 327.2727272727272
43 6.545454545454546 ['11', '12', '34'] 327.2727272727272
44 6.545454545454546 ['11', '12', '34'] 327.2727272727272
45 6.545454545454546 ['11', '12', '34'] 327.2727272727272
46 6.545454545454546 ['11', '12', '34'] 327.2727272727272
47 6.545454545454546 ['11', '12', '34'] 327.2727272727272
48 6.545454545454546 ['11', '12', '34'] 327.2727272727272
49 6.545454545454546 ['11', '12', '34'] 327.2727272727272
50 6.545454545454546 ['11', '12', '34'] 327.2727272727272
51 6.545454545454546 ['11', '12', '34'] 327.2727272727272
52 6.545454545454546 ['11', '12', '34'] 327.2727272727272
53 6.545454545454546 ['11', '12', '34'] 327.2727272727272
54 6.545454545454546 ['11', '12', '34'] 327.2727272727272
55 6.545454545454546 ['11', '12', '34'] 327.2727272727272
56 6.545454545454546 ['11', '12', '34'] 327.2727272727272
57 6.545454545454546 ['11', '12', '34'] 327.2727272727272
58 6.545454545454546 ['11', '12', '34'] 327.2727272727272
59 6.545454545454546 ['11', '12', '34'] 327.2727272727272
60 6.545454545454546 ['11', '12', '34'] 327.2727272727272
61 6.545454545454546 ['11', '12', '34'] 327.2727272727272
62 6.545454545454546 ['11', '12', '34'] 327.2727272727272
63 6.545454545454546 ['11', '12', '34'] 327.2727272727272
64 6.545454545454546 ['11', '12', '34'] 327.2727272727272
65 6.545454545454546 ['11', '12', '34'] 327.2727272727272
66 6.545454545454546 ['11', '12', '34'] 327.2727272727272
67 6.545454545454546 ['11', '12', '34'] 327.2727272727272
68 6.545454545454546 ['11', '12', '34'] 327.2727272727272
69 6.545454545454546 ['11', '12', '34'] 327.2727272727272
70 6.545454545454546 ['11', '12', '34'] 327.2727272727272
71 6.545454545454546 ['11', '12', '34'] 327.2727272727272
72 6.545454545454546 ['11', '12', '34'] 327.2727272727272
73 6.545454545454546 ['11', '12', '34'] 327.2727272727272
74 6.545454545454546 ['11', '12', '34'] 327.2727272727272
75 6.545454545454546 ['11', '12', '34'] 327.2727272727272
76 6.545454545454546 ['11', '12', '34'] 327.2727272727272
77 6.545454545454546 ['11', '12', '34'] 327.2727272727272
78 6.545454545454546 ['11', '12', '34'] 327.2727272727272
79 6.545454545454546 ['11', '12', '34'] 327.2727272727272
80 6.545454545454546 ['11', '12', '34'] 327.2727272727272
81 6.545454545454546 ['11', '12', '34'] 327.2727272727272
82 6.545454545454546 ['11', '12', '34'] 327.2727272727272
83 6.545454545454546 ['11', '12', '34'] 327.2727272727272
84 6.545454545454546 ['11', '12', '34'] 327.2727272727272
85 6.545454545454546 ['11', '12', '34'] 327.2727272727272
86 6.545454545454546 ['11', '12', '34'] 327.2727272727272
87 6.545454545454546 ['11', '12', '34'] 327.2727272727272
88 6.545454545454546 ['11', '12', '34'] 327.2727272727272
89 6.545454545454546 ['11', '12', '34'] 327.2727272727272
90 6.545454545454546 ['11', '12', '34'] 327.2727272727272
91 6.545454545454546 ['11', '12', '34'] 327.2727272727272
92 6.545454545454546 ['11', '12', '34'] 327.2727272727272
93 6.545454545454546 ['11', '12', '34'] 327.2727272727272
94 6.545454545454546 ['11', '12', '34'] 327.2727272727272
95 6.545454545454546 ['11', '12', '34'] 327.2727272727272
96 6.545454545454546 ['11', '12', '34'] 327.2727272727272
97 6.545454545454546 ['11', '12', '34'] 327.2727272727272
98 6.545454545454546 ['11', '12', '34'] 327.2727272727272
99 6.545454545454546 ['11', '12', '34'] 327.2727272727272
100 6.545454545454546 ['11', '12', '34'] 327.2727272727272
101 6.545454545454546 ['11', '12', '34'] 327.2727272727272
102 6.545454545454546 ['11', '12', '34'] 327.2727272727272
103 6.545454545454546 ['11', '12', '34'] 327.2727272727272
104 6.545454545454546 ['11', '12', '34'] 327.2727272727272
105 6.545454545454546 ['11', '12', '34'] 327.2727272727272
106 6.545454545454546 ['11', '12', '34'] 327.2727272727272
107 6.545454545454546 ['11', '12', '34'] 327.2727272727272
108 6.545454545454546 ['11', '12', '34'] 327.2727272727272
109 6.545454545454546 ['11', '12', '34'] 327.2727272727272
110 6.545454545454546 ['11', '12', '34'] 327.2727272727272
111 6.545454545454546 ['11', '12', '34'] 327.2727272727272
112 6.545454545454546 ['11', '12', '34'] 327.2727272727272
113 6.545454545454546 ['11', '12', '34'] 327.2727272727272
114 6.545454545454546 ['11', '12', '34'] 327.2727272727272
115 6.545454545454546 ['11', '12', '34'] 327.2727272727272
116 6.545454545454546 ['11', '12', '34'] 327.2727272727272
117 6.545454545454546 ['11', '12', '34'] 327.2727272727272
118 6.545454545454546 ['11', '12', '34'] 327.2727272727272
119 6.545454545454546 ['11', '12', '34'] 327.2727272727272
120 6.545454545454546 ['11', '12', '34'] 327.2727272727272
121 6.545454545454546 ['11', '12', '34'] 327.2727272727272
122 6.545454545454546 ['11', '12', '34'] 327.2727272727272
123 6.545454545454546 ['11', '12', '34'] 327.2727272727272
124 6.545454545454546 ['11', '12', '34'] 327.2727272727272
125 6.545454545454546 ['11', '12', '34'] 327.2727272727272
126 6.545454545454546 ['11', '12', '34'] 327.2727272727272
127 6.545454545454546 ['11', '12', '34'] 327.2727272727272
128 6.545454545454546 ['11', '12', '34'] 327.2727272727272
129 6.545454545454546 ['11', '12', '34'] 327.2727272727272
130 6.545454545454546 ['11', '12', '34'] 327.2727272727272
131 6.545454545454546 ['11', '12', '34'] 327.2727272727272
132 6.545454545454546 ['11', '12', '34'] 327.2727272727272
133 6.545454545454546 ['11', '12', '34'] 327.2727272727272
134 6.545454545454546 ['11', '12', '34'] 327.2727272727272
135 6.545454545454546 ['11', '12', '34'] 327.2727272727272
136 6.545454545454546 ['11', '12', '34'] 327.2727272727272
137 6.545454545454546 ['11', '12', '34'] 327.2727272727272
138 6.545454545454546 ['11', '12', '34'] 327.2727272727272
139 6.545454545454546 ['11', '12', '34'] 327.2727272727272
140 6.545454545454546 ['11', '12', '34'] 327.2727272727272
141 6.545454545454546 ['11', '12', '34'] 327.2727272727272
142 6.545454545454546 ['11', '12', '34'] 327.2727272727272
143 6.545454545454546 ['11', '12', '34'] 327.2727272727272
144 6.545454545454546 ['11', '12', '34'] 327.2727272727272
145 6.545454545454546 ['11', '12', '34'] 327.2727272727272
146 6.545454545454546 ['11', '12', '34'] 327.2727272727272
147 6.545454545454546 ['11', '12', '34'] 327.2727272727272
148 6.545454545454546 ['11', '12', '34'] 327.2727272727272
149 6.545454545454546 ['11', '12', '34'] 327.2727272727272
150 6.545454545454546 ['11', '12', '34'] 327.2727272727272
151 6.545454545454546 ['11', '12', '34'] 327.2727272727272
152 6.545454545454546 ['11', '12', '34'] 327.2727272727272
153 6.545454545454546 ['11', '12', '34'] 327.2727272727272
154 6.545454545454546 ['11', '12', '34'] 327.2727272727272
155 6.545454545454546 ['11', '12', '34'] 327.2727272727272
156 6.545454545454546 ['11', '12', '34'] 327.2727272727272
157 6.545454545454546 ['11', '12', '34'] 327.2727272727272
158 6.545454545454546 ['11', '12', '34'] 327.2727272727272
159 6.545454545454546 ['11', '12', '34'] 327.2727272727272
160 6.545454545454546 ['11', '12', '34'] 327.2727272727272
161 6.545454545454546 ['11', '12', '34'] 327.2727272727272
162 6.545454545454546 ['11', '12', '34'] 327.2727272727272
163 6.545454545454546 ['11', '12', '34'] 327.2727272727272
164 6.545454545454546 ['11', '12', '34'] 327.2727272727272
165 6.545454545454546 ['11', '12', '34'] 327.2727272727272
166 6.545454545454546 ['11', '12', '34'] 327.2727272727272
167 6.545454545454546 ['11', '12', '34'] 327.2727272727272
168 6.545454545454546 ['11', '12', '34'] 327.2727272727272
169 6.545454545454546 ['11', '12', '34'] 327.2727272727272
170 6.545454545454546 ['11', '12', '34'] 327.2727272727272
171 6.545454545454546 ['11', '12', '34'] 327.2727272727272
172 6.545454545454546 ['11', '12', '34'] 327.2727272727272
173 6.545454545454546 ['11', '12', '34'] 327.2727272727272
174 6.545454545454546 ['11', '12', '34'] 327.2727272727272
175 6.545454545454546 ['11', '12', '34'] 327.2727272727272
176 6.545454545454546 ['11', '12', '34'] 327.2727272727272
177 6.545454545454546 ['11', '12', '34'] 327.2727272727272
178 6.545454545454546 ['11', '12', '34'] 327.2727272727272
179 6.545454545454546 ['11', '12', '34'] 327.2727272727272
180 6.545454545454546 ['11', '12', '34'] 327.2727272727272
181 6.545454545454546 ['11', '12', '34'] 327.2727272727272
182 6.545454545454546 ['11', '12', '34'] 327.2727272727272
183 6.545454545454546 ['11', '12', '34'] 327.2727272727272
184 6.545454545454546 ['11', '12', '34'] 327.2727272727272
185 6.545454545454546 ['11', '12', '34'] 327.2727272727272
186 6.545454545454546 ['11', '12', '34'] 327.2727272727272
187 6.545454545454546 ['11', '12', '34'] 327.2727272727272
188 6.545454545454546 ['11', '12', '34'] 327.2727272727272
189 6.545454545454546 ['11', '12', '34'] 327.2727272727272
190 6.545454545454546 ['11', '12', '34'] 327.2727272727272
191 6.545454545454546 ['11', '12', '34'] 327.2727272727272
192 6.545454545454546 ['11', '12', '34'] 327.2727272727272
193 6.545454545454546 ['11', '12', '34'] 327.2727272727272
194 6.545454545454546 ['11', '12', '34'] 327.2727272727272
195 6.545454545454546 ['11', '12', '34'] 327.2727272727272
196 6.545454545454546 ['11', '12', '34'] 327.2727272727272
197 6.545454545454546 ['11', '12', '34'] 327.2727272727272
198 6.545454545454546 ['11', '12', '34'] 327.2727272727272
199 6.545454545454546 ['11', '12', '34'] 327.2727272727272
