0 5.351604938271605 ['28', '125', '143', '115', '68', '3', '61', '82', '54', '72', '121', '101', '120', '92', '139'] 273.25086419753103
1 5.31962962962963 ['92', '101', '125', '122', '143', '107', '38', '121', '77', '82', '137', '129', '56', '115', '139'] 271.44530864197543
2 5.31962962962963 ['92', '101', '125', '122', '143', '107', '38', '121', '77', '82', '137', '129', '56', '115', '139'] 270.2030864197532
3 5.31962962962963 ['92', '101', '125', '122', '143', '107', '38', '121', '77', '82', '137', '129', '56', '115', '139'] 269.2862962962965
4 5.293209876543211 ['137', '129', '92', '101', '107', '148', '56', '76', '69', '121', '141', '125', '61', '94', '143'] 268.42691358024695
5 5.293209876543211 ['137', '129', '92', '101', '107', '148', '56', '76', '69', '121', '141', '125', '61', '94', '143'] 267.7624691358026
6 5.287777777777782 ['68', '139', '143', '149', '18', '107', '111', '120', '101', '121', '148', '141', '145', '86', '85'] 266.972839506173
7 5.272098765432101 ['143', '18', '139', '101', '111', '121', '68', '85', '4', '115', '38', '42', '82', '107', '60'] 265.9365432098766
8 5.263580246913581 ['129', '68', '101', '121', '139', '143', '115', '107', '149', '85', '111', '84', '125', '89', '82'] 265.0712345679014
9 5.2361728395061755 ['139', '115', '101', '68', '121', '82', '143', '85', '107', '124', '125', '18', '120', '61', '130'] 264.26987654320993
10 5.2361728395061755 ['139', '115', '101', '68', '121', '82', '143', '85', '107', '124', '125', '18', '120', '61', '130'] 263.6706172839507
11 5.227530864197531 ['121', '107', '139', '115', '85', '101', '143', '137', '125', '68', '94', '76', '38', '122', '148'] 262.91851851851857
12 5.210864197530867 ['139', '141', '148', '143', '115', '101', '85', '107', '121', '120', '125', '137', '111', '130', '144'] 262.39024691358037
13 5.195061728395062 ['143', '68', '121', '82', '139', '115', '101', '85', '107', '120', '18', '141', '137', '125', '84'] 261.627901234568
14 5.1858024691358064 ['137', '107', '125', '101', '143', '85', '121', '139', '115', '141', '129', '82', '38', '4', '130'] 261.3046913580248
15 5.180246913580249 ['115', '85', '139', '125', '143', '107', '68', '82', '121', '101', '137', '141', '4', '61', '129'] 260.78135802469143
16 5.180246913580249 ['115', '85', '139', '125', '143', '107', '68', '82', '121', '101', '137', '141', '4', '61', '129'] 260.2260493827162
17 5.170123456790123 ['82', '121', '85', '139', '101', '107', '68', '143', '115', '137', '84', '149', '141', '144', '125'] 259.6101234567903
18 5.168271604938272 ['121', '101', '137', '82', '141', '139', '107', '85', '143', '125', '68', '115', '149', '84', '129'] 259.19925925925924
19 5.164814814814817 ['121', '143', '68', '107', '141', '115', '137', '85', '139', '101', '125', '82', '129', '144', '60'] 258.940740740741
20 5.164814814814817 ['121', '143', '68', '107', '141', '115', '137', '85', '139', '101', '125', '82', '129', '144', '60'] 258.7519753086421
21 5.1567901234567906 ['115', '107', '144', '101', '139', '121', '125', '68', '141', '143', '82', '85', '137', '84', '129'] 258.54382716049383
22 5.1567901234567906 ['115', '107', '144', '101', '139', '121', '125', '68', '141', '143', '82', '85', '137', '84', '129'] 258.3472839506172
23 5.1567901234567906 ['115', '107', '144', '101', '139', '121', '125', '68', '141', '143', '82', '85', '137', '84', '129'] 258.1482716049382
24 5.1567901234567906 ['115', '107', '144', '101', '139', '121', '125', '68', '141', '143', '82', '85', '137', '84', '129'] 257.90938271604944
25 5.1567901234567906 ['115', '107', '144', '101', '139', '121', '125', '68', '141', '143', '82', '85', '137', '84', '129'] 257.8395061728397
26 5.1567901234567906 ['115', '107', '144', '101', '139', '121', '125', '68', '141', '143', '82', '85', '137', '84', '129'] 257.8395061728397
27 5.1567901234567906 ['115', '107', '144', '101', '139', '121', '125', '68', '141', '143', '82', '85', '137', '84', '129'] 257.8395061728397
28 5.1567901234567906 ['115', '107', '144', '101', '139', '121', '125', '68', '141', '143', '82', '85', '137', '84', '129'] 257.8395061728397
29 5.1567901234567906 ['115', '107', '144', '101', '139', '121', '125', '68', '141', '143', '82', '85', '137', '84', '129'] 257.8395061728397
30 5.1567901234567906 ['115', '107', '144', '101', '139', '121', '125', '68', '141', '143', '82', '85', '137', '84', '129'] 257.8395061728397
31 5.1567901234567906 ['115', '107', '144', '101', '139', '121', '125', '68', '141', '143', '82', '85', '137', '84', '129'] 257.8395061728397
32 5.1567901234567906 ['115', '107', '144', '101', '139', '121', '125', '68', '141', '143', '82', '85', '137', '84', '129'] 257.8395061728397
33 5.1567901234567906 ['115', '107', '144', '101', '139', '121', '125', '68', '141', '143', '82', '85', '137', '84', '129'] 257.8395061728397
34 5.1567901234567906 ['115', '107', '144', '101', '139', '121', '125', '68', '141', '143', '82', '85', '137', '84', '129'] 257.8395061728397
35 5.1567901234567906 ['115', '107', '144', '101', '139', '121', '125', '68', '141', '143', '82', '85', '137', '84', '129'] 257.8395061728397
36 5.1567901234567906 ['115', '107', '144', '101', '139', '121', '125', '68', '141', '143', '82', '85', '137', '84', '129'] 257.8395061728397
37 5.1567901234567906 ['115', '107', '144', '101', '139', '121', '125', '68', '141', '143', '82', '85', '137', '84', '129'] 257.8395061728397
38 5.1567901234567906 ['115', '107', '144', '101', '139', '121', '125', '68', '141', '143', '82', '85', '137', '84', '129'] 257.8395061728397
39 5.1567901234567906 ['115', '107', '144', '101', '139', '121', '125', '68', '141', '143', '82', '85', '137', '84', '129'] 257.8395061728397
40 5.1567901234567906 ['115', '107', '144', '101', '139', '121', '125', '68', '141', '143', '82', '85', '137', '84', '129'] 257.8395061728397
41 5.1567901234567906 ['115', '107', '144', '101', '139', '121', '125', '68', '141', '143', '82', '85', '137', '84', '129'] 257.8395061728397
42 5.1567901234567906 ['115', '107', '144', '101', '139', '121', '125', '68', '141', '143', '82', '85', '137', '84', '129'] 257.8395061728397
43 5.1567901234567906 ['115', '107', '144', '101', '139', '121', '125', '68', '141', '143', '82', '85', '137', '84', '129'] 257.8395061728397
44 5.1567901234567906 ['115', '107', '144', '101', '139', '121', '125', '68', '141', '143', '82', '85', '137', '84', '129'] 257.8395061728397
45 5.1567901234567906 ['115', '107', '144', '101', '139', '121', '125', '68', '141', '143', '82', '85', '137', '84', '129'] 257.8395061728397
46 5.1567901234567906 ['115', '107', '144', '101', '139', '121', '125', '68', '141', '143', '82', '85', '137', '84', '129'] 257.8395061728397
47 5.1567901234567906 ['115', '107', '144', '101', '139', '121', '125', '68', '141', '143', '82', '85', '137', '84', '129'] 257.8395061728397
48 5.1567901234567906 ['115', '107', '144', '101', '139', '121', '125', '68', '141', '143', '82', '85', '137', '84', '129'] 257.8395061728397
49 5.1567901234567906 ['115', '107', '144', '101', '139', '121', '125', '68', '141', '143', '82', '85', '137', '84', '129'] 257.8395061728397
50 5.1567901234567906 ['115', '107', '144', '101', '139', '121', '125', '68', '141', '143', '82', '85', '137', '84', '129'] 257.8395061728397
51 5.1567901234567906 ['115', '107', '144', '101', '139', '121', '125', '68', '141', '143', '82', '85', '137', '84', '129'] 257.8395061728397
52 5.1567901234567906 ['115', '107', '144', '101', '139', '121', '125', '68', '141', '143', '82', '85', '137', '84', '129'] 257.8395061728397
53 5.1567901234567906 ['115', '107', '144', '101', '139', '121', '125', '68', '141', '143', '82', '85', '137', '84', '129'] 257.8395061728397
54 5.1567901234567906 ['115', '107', '144', '101', '139', '121', '125', '68', '141', '143', '82', '85', '137', '84', '129'] 257.8395061728397
55 5.1567901234567906 ['115', '107', '144', '101', '139', '121', '125', '68', '141', '143', '82', '85', '137', '84', '129'] 257.8395061728397
56 5.1567901234567906 ['115', '107', '144', '101', '139', '121', '125', '68', '141', '143', '82', '85', '137', '84', '129'] 257.8395061728397
57 5.1567901234567906 ['115', '107', '144', '101', '139', '121', '125', '68', '141', '143', '82', '85', '137', '84', '129'] 257.8395061728397
58 5.1567901234567906 ['115', '107', '144', '101', '139', '121', '125', '68', '141', '143', '82', '85', '137', '84', '129'] 257.8395061728397
59 5.1567901234567906 ['115', '107', '144', '101', '139', '121', '125', '68', '141', '143', '82', '85', '137', '84', '129'] 257.8395061728397
60 5.1567901234567906 ['115', '107', '144', '101', '139', '121', '125', '68', '141', '143', '82', '85', '137', '84', '129'] 257.8395061728397
61 5.1567901234567906 ['115', '107', '144', '101', '139', '121', '125', '68', '141', '143', '82', '85', '137', '84', '129'] 257.8395061728397
62 5.1567901234567906 ['115', '107', '144', '101', '139', '121', '125', '68', '141', '143', '82', '85', '137', '84', '129'] 257.8395061728397
63 5.1567901234567906 ['115', '107', '144', '101', '139', '121', '125', '68', '141', '143', '82', '85', '137', '84', '129'] 257.8395061728397
64 5.1567901234567906 ['115', '107', '144', '101', '139', '121', '125', '68', '141', '143', '82', '85', '137', '84', '129'] 257.8395061728397
65 5.1567901234567906 ['115', '107', '144', '101', '139', '121', '125', '68', '141', '143', '82', '85', '137', '84', '129'] 257.8395061728397
66 5.1567901234567906 ['115', '107', '144', '101', '139', '121', '125', '68', '141', '143', '82', '85', '137', '84', '129'] 257.8395061728397
67 5.1567901234567906 ['115', '107', '144', '101', '139', '121', '125', '68', '141', '143', '82', '85', '137', '84', '129'] 257.8395061728397
68 5.1567901234567906 ['115', '107', '144', '101', '139', '121', '125', '68', '141', '143', '82', '85', '137', '84', '129'] 257.8395061728397
69 5.1567901234567906 ['115', '107', '144', '101', '139', '121', '125', '68', '141', '143', '82', '85', '137', '84', '129'] 257.8395061728397
70 5.1567901234567906 ['115', '107', '144', '101', '139', '121', '125', '68', '141', '143', '82', '85', '137', '84', '129'] 257.8395061728397
71 5.1567901234567906 ['115', '107', '144', '101', '139', '121', '125', '68', '141', '143', '82', '85', '137', '84', '129'] 257.8395061728397
72 5.1567901234567906 ['115', '107', '144', '101', '139', '121', '125', '68', '141', '143', '82', '85', '137', '84', '129'] 257.8395061728397
73 5.1567901234567906 ['115', '107', '144', '101', '139', '121', '125', '68', '141', '143', '82', '85', '137', '84', '129'] 257.8395061728397
74 5.1567901234567906 ['115', '107', '144', '101', '139', '121', '125', '68', '141', '143', '82', '85', '137', '84', '129'] 257.8395061728397
75 5.1567901234567906 ['115', '107', '144', '101', '139', '121', '125', '68', '141', '143', '82', '85', '137', '84', '129'] 257.8395061728397
76 5.1567901234567906 ['115', '107', '144', '101', '139', '121', '125', '68', '141', '143', '82', '85', '137', '84', '129'] 257.8395061728397
77 5.1567901234567906 ['115', '107', '144', '101', '139', '121', '125', '68', '141', '143', '82', '85', '137', '84', '129'] 257.8395061728397
78 5.1567901234567906 ['115', '107', '144', '101', '139', '121', '125', '68', '141', '143', '82', '85', '137', '84', '129'] 257.8395061728397
79 5.1567901234567906 ['115', '107', '144', '101', '139', '121', '125', '68', '141', '143', '82', '85', '137', '84', '129'] 257.8395061728397
80 5.1567901234567906 ['115', '107', '144', '101', '139', '121', '125', '68', '141', '143', '82', '85', '137', '84', '129'] 257.8395061728397
81 5.1567901234567906 ['115', '107', '144', '101', '139', '121', '125', '68', '141', '143', '82', '85', '137', '84', '129'] 257.8395061728397
82 5.1567901234567906 ['115', '107', '144', '101', '139', '121', '125', '68', '141', '143', '82', '85', '137', '84', '129'] 257.8395061728397
83 5.1567901234567906 ['115', '107', '144', '101', '139', '121', '125', '68', '141', '143', '82', '85', '137', '84', '129'] 257.8395061728397
84 5.1567901234567906 ['115', '107', '144', '101', '139', '121', '125', '68', '141', '143', '82', '85', '137', '84', '129'] 257.8395061728397
85 5.1567901234567906 ['115', '107', '144', '101', '139', '121', '125', '68', '141', '143', '82', '85', '137', '84', '129'] 257.8395061728397
86 5.1567901234567906 ['115', '107', '144', '101', '139', '121', '125', '68', '141', '143', '82', '85', '137', '84', '129'] 257.8395061728397
87 5.1567901234567906 ['115', '107', '144', '101', '139', '121', '125', '68', '141', '143', '82', '85', '137', '84', '129'] 257.8395061728397
88 5.1567901234567906 ['115', '107', '144', '101', '139', '121', '125', '68', '141', '143', '82', '85', '137', '84', '129'] 257.8395061728397
89 5.1567901234567906 ['115', '107', '144', '101', '139', '121', '125', '68', '141', '143', '82', '85', '137', '84', '129'] 257.8395061728397
90 5.1567901234567906 ['115', '107', '144', '101', '139', '121', '125', '68', '141', '143', '82', '85', '137', '84', '129'] 257.8395061728397
91 5.1567901234567906 ['115', '107', '144', '101', '139', '121', '125', '68', '141', '143', '82', '85', '137', '84', '129'] 257.8395061728397
92 5.1567901234567906 ['115', '107', '144', '101', '139', '121', '125', '68', '141', '143', '82', '85', '137', '84', '129'] 257.8395061728397
93 5.1567901234567906 ['115', '107', '144', '101', '139', '121', '125', '68', '141', '143', '82', '85', '137', '84', '129'] 257.8395061728397
94 5.1567901234567906 ['115', '107', '144', '101', '139', '121', '125', '68', '141', '143', '82', '85', '137', '84', '129'] 257.8395061728397
95 5.1567901234567906 ['115', '107', '144', '101', '139', '121', '125', '68', '141', '143', '82', '85', '137', '84', '129'] 257.8395061728397
96 5.1567901234567906 ['115', '107', '144', '101', '139', '121', '125', '68', '141', '143', '82', '85', '137', '84', '129'] 257.8395061728397
97 5.1567901234567906 ['115', '107', '144', '101', '139', '121', '125', '68', '141', '143', '82', '85', '137', '84', '129'] 257.8395061728397
98 5.1567901234567906 ['115', '107', '144', '101', '139', '121', '125', '68', '141', '143', '82', '85', '137', '84', '129'] 257.8395061728397
99 5.1567901234567906 ['115', '107', '144', '101', '139', '121', '125', '68', '141', '143', '82', '85', '137', '84', '129'] 257.8395061728397
100 5.1567901234567906 ['115', '107', '144', '101', '139', '121', '125', '68', '141', '143', '82', '85', '137', '84', '129'] 257.8395061728397
101 5.1567901234567906 ['115', '107', '144', '101', '139', '121', '125', '68', '141', '143', '82', '85', '137', '84', '129'] 257.8395061728397
102 5.1567901234567906 ['115', '107', '144', '101', '139', '121', '125', '68', '141', '143', '82', '85', '137', '84', '129'] 257.8395061728397
103 5.1567901234567906 ['115', '107', '144', '101', '139', '121', '125', '68', '141', '143', '82', '85', '137', '84', '129'] 257.8395061728397
104 5.1567901234567906 ['115', '107', '144', '101', '139', '121', '125', '68', '141', '143', '82', '85', '137', '84', '129'] 257.8395061728397
105 5.1567901234567906 ['115', '107', '144', '101', '139', '121', '125', '68', '141', '143', '82', '85', '137', '84', '129'] 257.8395061728397
106 5.1567901234567906 ['115', '107', '144', '101', '139', '121', '125', '68', '141', '143', '82', '85', '137', '84', '129'] 257.8395061728397
107 5.1567901234567906 ['115', '107', '144', '101', '139', '121', '125', '68', '141', '143', '82', '85', '137', '84', '129'] 257.8395061728397
108 5.1567901234567906 ['115', '107', '144', '101', '139', '121', '125', '68', '141', '143', '82', '85', '137', '84', '129'] 257.8395061728397
109 5.1567901234567906 ['115', '107', '144', '101', '139', '121', '125', '68', '141', '143', '82', '85', '137', '84', '129'] 257.8395061728397
110 5.1567901234567906 ['115', '107', '144', '101', '139', '121', '125', '68', '141', '143', '82', '85', '137', '84', '129'] 257.8395061728397
111 5.1567901234567906 ['115', '107', '144', '101', '139', '121', '125', '68', '141', '143', '82', '85', '137', '84', '129'] 257.8395061728397
112 5.1567901234567906 ['115', '107', '144', '101', '139', '121', '125', '68', '141', '143', '82', '85', '137', '84', '129'] 257.8395061728397
113 5.1567901234567906 ['115', '107', '144', '101', '139', '121', '125', '68', '141', '143', '82', '85', '137', '84', '129'] 257.8395061728397
114 5.1567901234567906 ['115', '107', '144', '101', '139', '121', '125', '68', '141', '143', '82', '85', '137', '84', '129'] 257.8395061728397
115 5.1567901234567906 ['115', '107', '144', '101', '139', '121', '125', '68', '141', '143', '82', '85', '137', '84', '129'] 257.8395061728397
116 5.1567901234567906 ['115', '107', '144', '101', '139', '121', '125', '68', '141', '143', '82', '85', '137', '84', '129'] 257.8395061728397
117 5.1567901234567906 ['115', '107', '144', '101', '139', '121', '125', '68', '141', '143', '82', '85', '137', '84', '129'] 257.8395061728397
118 5.1567901234567906 ['115', '107', '144', '101', '139', '121', '125', '68', '141', '143', '82', '85', '137', '84', '129'] 257.8395061728397
119 5.1567901234567906 ['115', '107', '144', '101', '139', '121', '125', '68', '141', '143', '82', '85', '137', '84', '129'] 257.8395061728397
120 5.1567901234567906 ['115', '107', '144', '101', '139', '121', '125', '68', '141', '143', '82', '85', '137', '84', '129'] 257.8395061728397
121 5.1567901234567906 ['115', '107', '144', '101', '139', '121', '125', '68', '141', '143', '82', '85', '137', '84', '129'] 257.8395061728397
122 5.1567901234567906 ['115', '107', '144', '101', '139', '121', '125', '68', '141', '143', '82', '85', '137', '84', '129'] 257.8395061728397
123 5.1567901234567906 ['115', '107', '144', '101', '139', '121', '125', '68', '141', '143', '82', '85', '137', '84', '129'] 257.8395061728397
124 5.1567901234567906 ['115', '107', '144', '101', '139', '121', '125', '68', '141', '143', '82', '85', '137', '84', '129'] 257.8395061728397
125 5.1567901234567906 ['115', '107', '144', '101', '139', '121', '125', '68', '141', '143', '82', '85', '137', '84', '129'] 257.8395061728397
126 5.1567901234567906 ['115', '107', '144', '101', '139', '121', '125', '68', '141', '143', '82', '85', '137', '84', '129'] 257.8395061728397
127 5.1567901234567906 ['115', '107', '144', '101', '139', '121', '125', '68', '141', '143', '82', '85', '137', '84', '129'] 257.8395061728397
128 5.1567901234567906 ['115', '107', '144', '101', '139', '121', '125', '68', '141', '143', '82', '85', '137', '84', '129'] 257.8395061728397
129 5.1567901234567906 ['115', '107', '144', '101', '139', '121', '125', '68', '141', '143', '82', '85', '137', '84', '129'] 257.8395061728397
130 5.1567901234567906 ['115', '107', '144', '101', '139', '121', '125', '68', '141', '143', '82', '85', '137', '84', '129'] 257.8395061728397
131 5.1567901234567906 ['115', '107', '144', '101', '139', '121', '125', '68', '141', '143', '82', '85', '137', '84', '129'] 257.8395061728397
132 5.1567901234567906 ['115', '107', '144', '101', '139', '121', '125', '68', '141', '143', '82', '85', '137', '84', '129'] 257.8395061728397
133 5.1567901234567906 ['115', '107', '144', '101', '139', '121', '125', '68', '141', '143', '82', '85', '137', '84', '129'] 257.8395061728397
134 5.1567901234567906 ['115', '107', '144', '101', '139', '121', '125', '68', '141', '143', '82', '85', '137', '84', '129'] 257.8395061728397
135 5.1567901234567906 ['115', '107', '144', '101', '139', '121', '125', '68', '141', '143', '82', '85', '137', '84', '129'] 257.8395061728397
136 5.1567901234567906 ['115', '107', '144', '101', '139', '121', '125', '68', '141', '143', '82', '85', '137', '84', '129'] 257.8395061728397
137 5.1567901234567906 ['115', '107', '144', '101', '139', '121', '125', '68', '141', '143', '82', '85', '137', '84', '129'] 257.8395061728397
138 5.1567901234567906 ['115', '107', '144', '101', '139', '121', '125', '68', '141', '143', '82', '85', '137', '84', '129'] 257.8395061728397
139 5.1567901234567906 ['115', '107', '144', '101', '139', '121', '125', '68', '141', '143', '82', '85', '137', '84', '129'] 257.8395061728397
140 5.1567901234567906 ['115', '107', '144', '101', '139', '121', '125', '68', '141', '143', '82', '85', '137', '84', '129'] 257.8395061728397
141 5.1567901234567906 ['115', '107', '144', '101', '139', '121', '125', '68', '141', '143', '82', '85', '137', '84', '129'] 257.8395061728397
142 5.1567901234567906 ['115', '107', '144', '101', '139', '121', '125', '68', '141', '143', '82', '85', '137', '84', '129'] 257.8395061728397
143 5.1567901234567906 ['115', '107', '144', '101', '139', '121', '125', '68', '141', '143', '82', '85', '137', '84', '129'] 257.8395061728397
144 5.1567901234567906 ['115', '107', '144', '101', '139', '121', '125', '68', '141', '143', '82', '85', '137', '84', '129'] 257.8395061728397
145 5.1567901234567906 ['115', '107', '144', '101', '139', '121', '125', '68', '141', '143', '82', '85', '137', '84', '129'] 257.8395061728397
146 5.1567901234567906 ['115', '107', '144', '101', '139', '121', '125', '68', '141', '143', '82', '85', '137', '84', '129'] 257.8395061728397
147 5.1567901234567906 ['115', '107', '144', '101', '139', '121', '125', '68', '141', '143', '82', '85', '137', '84', '129'] 257.8395061728397
148 5.1567901234567906 ['115', '107', '144', '101', '139', '121', '125', '68', '141', '143', '82', '85', '137', '84', '129'] 257.8395061728397
149 5.1567901234567906 ['115', '107', '144', '101', '139', '121', '125', '68', '141', '143', '82', '85', '137', '84', '129'] 257.8395061728397
150 5.1567901234567906 ['115', '107', '144', '101', '139', '121', '125', '68', '141', '143', '82', '85', '137', '84', '129'] 257.8395061728397
151 5.1567901234567906 ['115', '107', '144', '101', '139', '121', '125', '68', '141', '143', '82', '85', '137', '84', '129'] 257.8395061728397
152 5.1567901234567906 ['115', '107', '144', '101', '139', '121', '125', '68', '141', '143', '82', '85', '137', '84', '129'] 257.8395061728397
153 5.1567901234567906 ['115', '107', '144', '101', '139', '121', '125', '68', '141', '143', '82', '85', '137', '84', '129'] 257.8395061728397
154 5.1567901234567906 ['115', '107', '144', '101', '139', '121', '125', '68', '141', '143', '82', '85', '137', '84', '129'] 257.8395061728397
155 5.1567901234567906 ['115', '107', '144', '101', '139', '121', '125', '68', '141', '143', '82', '85', '137', '84', '129'] 257.8395061728397
156 5.1567901234567906 ['115', '107', '144', '101', '139', '121', '125', '68', '141', '143', '82', '85', '137', '84', '129'] 257.8395061728397
157 5.1567901234567906 ['115', '107', '144', '101', '139', '121', '125', '68', '141', '143', '82', '85', '137', '84', '129'] 257.8395061728397
158 5.1567901234567906 ['115', '107', '144', '101', '139', '121', '125', '68', '141', '143', '82', '85', '137', '84', '129'] 257.8395061728397
159 5.1567901234567906 ['115', '107', '144', '101', '139', '121', '125', '68', '141', '143', '82', '85', '137', '84', '129'] 257.8395061728397
160 5.1567901234567906 ['115', '107', '144', '101', '139', '121', '125', '68', '141', '143', '82', '85', '137', '84', '129'] 257.8395061728397
161 5.1567901234567906 ['115', '107', '144', '101', '139', '121', '125', '68', '141', '143', '82', '85', '137', '84', '129'] 257.8395061728397
162 5.1567901234567906 ['115', '107', '144', '101', '139', '121', '125', '68', '141', '143', '82', '85', '137', '84', '129'] 257.8395061728397
163 5.1567901234567906 ['115', '107', '144', '101', '139', '121', '125', '68', '141', '143', '82', '85', '137', '84', '129'] 257.8395061728397
164 5.1567901234567906 ['115', '107', '144', '101', '139', '121', '125', '68', '141', '143', '82', '85', '137', '84', '129'] 257.8395061728397
165 5.1567901234567906 ['115', '107', '144', '101', '139', '121', '125', '68', '141', '143', '82', '85', '137', '84', '129'] 257.8395061728397
166 5.1567901234567906 ['115', '107', '144', '101', '139', '121', '125', '68', '141', '143', '82', '85', '137', '84', '129'] 257.8395061728397
167 5.1567901234567906 ['115', '107', '144', '101', '139', '121', '125', '68', '141', '143', '82', '85', '137', '84', '129'] 257.8395061728397
168 5.1567901234567906 ['115', '107', '144', '101', '139', '121', '125', '68', '141', '143', '82', '85', '137', '84', '129'] 257.8395061728397
169 5.1567901234567906 ['115', '107', '144', '101', '139', '121', '125', '68', '141', '143', '82', '85', '137', '84', '129'] 257.8395061728397
170 5.1567901234567906 ['115', '107', '144', '101', '139', '121', '125', '68', '141', '143', '82', '85', '137', '84', '129'] 257.8395061728397
171 5.1567901234567906 ['115', '107', '144', '101', '139', '121', '125', '68', '141', '143', '82', '85', '137', '84', '129'] 257.8395061728397
172 5.1567901234567906 ['115', '107', '144', '101', '139', '121', '125', '68', '141', '143', '82', '85', '137', '84', '129'] 257.8395061728397
173 5.1567901234567906 ['115', '107', '144', '101', '139', '121', '125', '68', '141', '143', '82', '85', '137', '84', '129'] 257.8395061728397
174 5.1567901234567906 ['115', '107', '144', '101', '139', '121', '125', '68', '141', '143', '82', '85', '137', '84', '129'] 257.8395061728397
175 5.1567901234567906 ['115', '107', '144', '101', '139', '121', '125', '68', '141', '143', '82', '85', '137', '84', '129'] 257.8395061728397
176 5.1567901234567906 ['115', '107', '144', '101', '139', '121', '125', '68', '141', '143', '82', '85', '137', '84', '129'] 257.8395061728397
177 5.1567901234567906 ['115', '107', '144', '101', '139', '121', '125', '68', '141', '143', '82', '85', '137', '84', '129'] 257.8395061728397
178 5.1567901234567906 ['115', '107', '144', '101', '139', '121', '125', '68', '141', '143', '82', '85', '137', '84', '129'] 257.8395061728397
179 5.1567901234567906 ['115', '107', '144', '101', '139', '121', '125', '68', '141', '143', '82', '85', '137', '84', '129'] 257.8395061728397
180 5.1567901234567906 ['115', '107', '144', '101', '139', '121', '125', '68', '141', '143', '82', '85', '137', '84', '129'] 257.8395061728397
181 5.1567901234567906 ['115', '107', '144', '101', '139', '121', '125', '68', '141', '143', '82', '85', '137', '84', '129'] 257.8395061728397
182 5.1567901234567906 ['115', '107', '144', '101', '139', '121', '125', '68', '141', '143', '82', '85', '137', '84', '129'] 257.8395061728397
183 5.1567901234567906 ['115', '107', '144', '101', '139', '121', '125', '68', '141', '143', '82', '85', '137', '84', '129'] 257.8395061728397
184 5.1567901234567906 ['115', '107', '144', '101', '139', '121', '125', '68', '141', '143', '82', '85', '137', '84', '129'] 257.8395061728397
185 5.1567901234567906 ['115', '107', '144', '101', '139', '121', '125', '68', '141', '143', '82', '85', '137', '84', '129'] 257.8395061728397
186 5.1567901234567906 ['115', '107', '144', '101', '139', '121', '125', '68', '141', '143', '82', '85', '137', '84', '129'] 257.8395061728397
187 5.1567901234567906 ['115', '107', '144', '101', '139', '121', '125', '68', '141', '143', '82', '85', '137', '84', '129'] 257.8395061728397
188 5.1567901234567906 ['115', '107', '144', '101', '139', '121', '125', '68', '141', '143', '82', '85', '137', '84', '129'] 257.8395061728397
189 5.1567901234567906 ['115', '107', '144', '101', '139', '121', '125', '68', '141', '143', '82', '85', '137', '84', '129'] 257.8395061728397
190 5.1567901234567906 ['115', '107', '144', '101', '139', '121', '125', '68', '141', '143', '82', '85', '137', '84', '129'] 257.8395061728397
191 5.1567901234567906 ['115', '107', '144', '101', '139', '121', '125', '68', '141', '143', '82', '85', '137', '84', '129'] 257.8395061728397
192 5.1567901234567906 ['115', '107', '144', '101', '139', '121', '125', '68', '141', '143', '82', '85', '137', '84', '129'] 257.8395061728397
193 5.1567901234567906 ['115', '107', '144', '101', '139', '121', '125', '68', '141', '143', '82', '85', '137', '84', '129'] 257.8395061728397
194 5.1567901234567906 ['115', '107', '144', '101', '139', '121', '125', '68', '141', '143', '82', '85', '137', '84', '129'] 257.8395061728397
195 5.1567901234567906 ['115', '107', '144', '101', '139', '121', '125', '68', '141', '143', '82', '85', '137', '84', '129'] 257.8395061728397
196 5.1567901234567906 ['115', '107', '144', '101', '139', '121', '125', '68', '141', '143', '82', '85', '137', '84', '129'] 257.8395061728397
197 5.1567901234567906 ['115', '107', '144', '101', '139', '121', '125', '68', '141', '143', '82', '85', '137', '84', '129'] 257.8395061728397
198 5.1567901234567906 ['115', '107', '144', '101', '139', '121', '125', '68', '141', '143', '82', '85', '137', '84', '129'] 257.8395061728397
199 5.1567901234567906 ['115', '107', '144', '101', '139', '121', '125', '68', '141', '143', '82', '85', '137', '84', '129'] 257.8395061728397
