0 15.02962962962963 ['118', '102', '150', '141', '44', '68', '54', '79', '138', '135', '136', '116', '121', '143', '139'] 796.2518518518517
1 15.02962962962963 ['118', '102', '150', '141', '44', '68', '54', '79', '138', '135', '136', '116', '121', '143', '139'] 788.3481481481481
2 15.014814814814814 ['143', '120', '118', '31', '116', '14', '150', '148', '144', '140', '137', '134', '68', '2', '138'] 778.3185185185184
3 15.014814814814814 ['143', '120', '118', '31', '116', '14', '150', '148', '144', '140', '137', '134', '68', '2', '138'] 771.088888888889
4 14.948148148148148 ['108', '124', '119', '128', '44', '140', '141', '114', '79', '116', '78', '150', '138', '146', '118'] 762.2962962962961
5 14.881481481481481 ['139', '116', '136', '44', '114', '119', '150', '108', '109', '78', '67', '128', '118', '140', '104'] 755.6074074074075
6 14.792592592592593 ['143', '150', '116', '68', '140', '144', '102', '148', '124', '138', '41', '127', '72', '136', '135'] 751.6592592592589
7 14.703703703703704 ['68', '136', '102', '143', '150', '139', '129', '118', '79', '140', '124', '138', '54', '141', '128'] 747.1481481481487
8 14.585185185185185 ['118', '119', '150', '136', '116', '79', '108', '106', '134', '138', '146', '127', '69', '140', '114'] 742.7703703703701
9 14.503703703703703 ['99', '150', '128', '118', '68', '136', '138', '102', '143', '116', '146', '134', '124', '119', '127'] 738.4962962962962
10 14.392592592592592 ['118', '128', '124', '150', '138', '127', '136', '143', '140', '134', '129', '139', '108', '102', '99'] 734.4814814814816
11 14.392592592592592 ['118', '128', '124', '150', '138', '127', '136', '143', '140', '134', '129', '139', '108', '102', '99'] 731.3481481481479
12 14.377777777777778 ['99', '116', '119', '127', '138', '150', '136', '146', '118', '102', '134', '124', '128', '121', '139'] 728.0000000000007
13 14.25925925925926 ['138', '140', '108', '127', '139', '148', '146', '119', '136', '150', '134', '116', '143', '102', '128'] 725.1407407407406
14 14.25925925925926 ['138', '140', '108', '127', '139', '148', '146', '119', '136', '150', '134', '116', '143', '102', '128'] 721.4074074074073
15 14.25925925925926 ['138', '140', '108', '127', '139', '148', '146', '119', '136', '150', '134', '116', '143', '102', '128'] 719.2148148148145
16 14.244444444444444 ['135', '134', '128', '108', '143', '150', '102', '138', '127', '139', '140', '136', '146', '124', '119'] 716.992592592592
17 14.22962962962963 ['146', '128', '139', '140', '134', '150', '136', '102', '138', '119', '127', '124', '148', '143', '108'] 715.2888888888896
18 14.214814814814815 ['127', '128', '146', '139', '138', '150', '136', '134', '102', '108', '140', '143', '119', '124', '129'] 714.0444444444446
19 14.207407407407407 ['138', '129', '128', '127', '140', '108', '102', '139', '150', '143', '134', '136', '146', '119', '148'] 713.3703703703703
20 14.207407407407407 ['138', '129', '128', '127', '140', '108', '102', '139', '150', '143', '134', '136', '146', '119', '148'] 712.4296296296293
21 14.2 ['128', '102', '136', '143', '127', '138', '119', '134', '146', '140', '108', '139', '150', '124', '144'] 711.459259259259
22 14.192592592592593 ['150', '127', '134', '143', '136', '119', '128', '108', '138', '102', '146', '139', '140', '144', '129'] 710.6962962962959
23 14.185185185185185 ['119', '139', '108', '134', '138', '146', '136', '150', '127', '148', '143', '140', '128', '144', '129'] 710.3703703703709
24 14.185185185185185 ['119', '139', '108', '134', '138', '146', '136', '150', '127', '148', '143', '140', '128', '144', '129'] 709.9481481481488
25 14.185185185185185 ['119', '139', '108', '134', '138', '146', '136', '150', '127', '148', '143', '140', '128', '144', '129'] 709.6074074074078
26 14.185185185185185 ['119', '139', '108', '134', '138', '146', '136', '150', '127', '148', '143', '140', '128', '144', '129'] 709.4666666666669
27 14.185185185185185 ['119', '139', '108', '134', '138', '146', '136', '150', '127', '148', '143', '140', '128', '144', '129'] 709.3111111111112
28 14.185185185185185 ['119', '139', '108', '134', '138', '146', '136', '150', '127', '148', '143', '140', '128', '144', '129'] 709.2592592592594
29 14.185185185185185 ['119', '139', '108', '134', '138', '146', '136', '150', '127', '148', '143', '140', '128', '144', '129'] 709.2592592592594
30 14.185185185185185 ['119', '139', '108', '134', '138', '146', '136', '150', '127', '148', '143', '140', '128', '144', '129'] 709.2592592592594
31 14.185185185185185 ['119', '139', '108', '134', '138', '146', '136', '150', '127', '148', '143', '140', '128', '144', '129'] 709.2592592592594
32 14.185185185185185 ['119', '139', '108', '134', '138', '146', '136', '150', '127', '148', '143', '140', '128', '144', '129'] 709.2592592592594
33 14.185185185185185 ['119', '139', '108', '134', '138', '146', '136', '150', '127', '148', '143', '140', '128', '144', '129'] 709.2592592592594
34 14.185185185185185 ['119', '139', '108', '134', '138', '146', '136', '150', '127', '148', '143', '140', '128', '144', '129'] 709.2592592592594
35 14.185185185185185 ['119', '139', '108', '134', '138', '146', '136', '150', '127', '148', '143', '140', '128', '144', '129'] 709.2592592592594
36 14.185185185185185 ['119', '139', '108', '134', '138', '146', '136', '150', '127', '148', '143', '140', '128', '144', '129'] 709.2592592592594
37 14.185185185185185 ['119', '139', '108', '134', '138', '146', '136', '150', '127', '148', '143', '140', '128', '144', '129'] 709.2592592592594
38 14.185185185185185 ['119', '139', '108', '134', '138', '146', '136', '150', '127', '148', '143', '140', '128', '144', '129'] 709.2592592592594
39 14.185185185185185 ['119', '139', '108', '134', '138', '146', '136', '150', '127', '148', '143', '140', '128', '144', '129'] 709.2592592592594
40 14.185185185185185 ['119', '139', '108', '134', '138', '146', '136', '150', '127', '148', '143', '140', '128', '144', '129'] 709.2592592592594
41 14.185185185185185 ['119', '139', '108', '134', '138', '146', '136', '150', '127', '148', '143', '140', '128', '144', '129'] 709.2592592592594
42 14.185185185185185 ['119', '139', '108', '134', '138', '146', '136', '150', '127', '148', '143', '140', '128', '144', '129'] 709.2592592592594
43 14.185185185185185 ['119', '139', '108', '134', '138', '146', '136', '150', '127', '148', '143', '140', '128', '144', '129'] 709.2592592592594
44 14.185185185185185 ['119', '139', '108', '134', '138', '146', '136', '150', '127', '148', '143', '140', '128', '144', '129'] 709.2592592592594
45 14.185185185185185 ['119', '139', '108', '134', '138', '146', '136', '150', '127', '148', '143', '140', '128', '144', '129'] 709.2592592592594
46 14.185185185185185 ['119', '139', '108', '134', '138', '146', '136', '150', '127', '148', '143', '140', '128', '144', '129'] 709.2592592592594
47 14.185185185185185 ['119', '139', '108', '134', '138', '146', '136', '150', '127', '148', '143', '140', '128', '144', '129'] 709.2592592592594
48 14.185185185185185 ['119', '139', '108', '134', '138', '146', '136', '150', '127', '148', '143', '140', '128', '144', '129'] 709.2592592592594
49 14.185185185185185 ['119', '139', '108', '134', '138', '146', '136', '150', '127', '148', '143', '140', '128', '144', '129'] 709.2592592592594
50 14.185185185185185 ['119', '139', '108', '134', '138', '146', '136', '150', '127', '148', '143', '140', '128', '144', '129'] 709.2592592592594
51 14.185185185185185 ['119', '139', '108', '134', '138', '146', '136', '150', '127', '148', '143', '140', '128', '144', '129'] 709.2592592592594
52 14.185185185185185 ['119', '139', '108', '134', '138', '146', '136', '150', '127', '148', '143', '140', '128', '144', '129'] 709.2592592592594
53 14.185185185185185 ['119', '139', '108', '134', '138', '146', '136', '150', '127', '148', '143', '140', '128', '144', '129'] 709.2592592592594
54 14.185185185185185 ['119', '139', '108', '134', '138', '146', '136', '150', '127', '148', '143', '140', '128', '144', '129'] 709.2592592592594
55 14.185185185185185 ['119', '139', '108', '134', '138', '146', '136', '150', '127', '148', '143', '140', '128', '144', '129'] 709.2592592592594
56 14.185185185185185 ['119', '139', '108', '134', '138', '146', '136', '150', '127', '148', '143', '140', '128', '144', '129'] 709.2592592592594
57 14.185185185185185 ['119', '139', '108', '134', '138', '146', '136', '150', '127', '148', '143', '140', '128', '144', '129'] 709.2592592592594
58 14.185185185185185 ['119', '139', '108', '134', '138', '146', '136', '150', '127', '148', '143', '140', '128', '144', '129'] 709.2592592592594
59 14.185185185185185 ['119', '139', '108', '134', '138', '146', '136', '150', '127', '148', '143', '140', '128', '144', '129'] 709.2592592592594
60 14.185185185185185 ['119', '139', '108', '134', '138', '146', '136', '150', '127', '148', '143', '140', '128', '144', '129'] 709.2592592592594
61 14.185185185185185 ['119', '139', '108', '134', '138', '146', '136', '150', '127', '148', '143', '140', '128', '144', '129'] 709.2592592592594
62 14.185185185185185 ['119', '139', '108', '134', '138', '146', '136', '150', '127', '148', '143', '140', '128', '144', '129'] 709.2592592592594
63 14.185185185185185 ['119', '139', '108', '134', '138', '146', '136', '150', '127', '148', '143', '140', '128', '144', '129'] 709.2592592592594
64 14.185185185185185 ['119', '139', '108', '134', '138', '146', '136', '150', '127', '148', '143', '140', '128', '144', '129'] 709.2592592592594
65 14.185185185185185 ['119', '139', '108', '134', '138', '146', '136', '150', '127', '148', '143', '140', '128', '144', '129'] 709.2592592592594
66 14.185185185185185 ['119', '139', '108', '134', '138', '146', '136', '150', '127', '148', '143', '140', '128', '144', '129'] 709.2592592592594
67 14.185185185185185 ['119', '139', '108', '134', '138', '146', '136', '150', '127', '148', '143', '140', '128', '144', '129'] 709.2592592592594
68 14.185185185185185 ['119', '139', '108', '134', '138', '146', '136', '150', '127', '148', '143', '140', '128', '144', '129'] 709.2592592592594
69 14.185185185185185 ['119', '139', '108', '134', '138', '146', '136', '150', '127', '148', '143', '140', '128', '144', '129'] 709.2592592592594
70 14.185185185185185 ['119', '139', '108', '134', '138', '146', '136', '150', '127', '148', '143', '140', '128', '144', '129'] 709.2592592592594
71 14.185185185185185 ['119', '139', '108', '134', '138', '146', '136', '150', '127', '148', '143', '140', '128', '144', '129'] 709.2592592592594
72 14.185185185185185 ['119', '139', '108', '134', '138', '146', '136', '150', '127', '148', '143', '140', '128', '144', '129'] 709.2592592592594
73 14.185185185185185 ['119', '139', '108', '134', '138', '146', '136', '150', '127', '148', '143', '140', '128', '144', '129'] 709.2592592592594
74 14.185185185185185 ['119', '139', '108', '134', '138', '146', '136', '150', '127', '148', '143', '140', '128', '144', '129'] 709.2592592592594
75 14.185185185185185 ['119', '139', '108', '134', '138', '146', '136', '150', '127', '148', '143', '140', '128', '144', '129'] 709.2592592592594
76 14.185185185185185 ['119', '139', '108', '134', '138', '146', '136', '150', '127', '148', '143', '140', '128', '144', '129'] 709.2592592592594
77 14.185185185185185 ['119', '139', '108', '134', '138', '146', '136', '150', '127', '148', '143', '140', '128', '144', '129'] 709.2592592592594
78 14.185185185185185 ['119', '139', '108', '134', '138', '146', '136', '150', '127', '148', '143', '140', '128', '144', '129'] 709.2592592592594
79 14.185185185185185 ['119', '139', '108', '134', '138', '146', '136', '150', '127', '148', '143', '140', '128', '144', '129'] 709.2592592592594
80 14.185185185185185 ['119', '139', '108', '134', '138', '146', '136', '150', '127', '148', '143', '140', '128', '144', '129'] 709.2592592592594
81 14.185185185185185 ['119', '139', '108', '134', '138', '146', '136', '150', '127', '148', '143', '140', '128', '144', '129'] 709.2592592592594
82 14.185185185185185 ['119', '139', '108', '134', '138', '146', '136', '150', '127', '148', '143', '140', '128', '144', '129'] 709.2592592592594
83 14.185185185185185 ['119', '139', '108', '134', '138', '146', '136', '150', '127', '148', '143', '140', '128', '144', '129'] 709.2592592592594
84 14.185185185185185 ['119', '139', '108', '134', '138', '146', '136', '150', '127', '148', '143', '140', '128', '144', '129'] 709.2592592592594
85 14.185185185185185 ['119', '139', '108', '134', '138', '146', '136', '150', '127', '148', '143', '140', '128', '144', '129'] 709.2592592592594
86 14.185185185185185 ['119', '139', '108', '134', '138', '146', '136', '150', '127', '148', '143', '140', '128', '144', '129'] 709.2592592592594
87 14.185185185185185 ['119', '139', '108', '134', '138', '146', '136', '150', '127', '148', '143', '140', '128', '144', '129'] 709.2592592592594
88 14.185185185185185 ['119', '139', '108', '134', '138', '146', '136', '150', '127', '148', '143', '140', '128', '144', '129'] 709.2592592592594
89 14.185185185185185 ['119', '139', '108', '134', '138', '146', '136', '150', '127', '148', '143', '140', '128', '144', '129'] 709.2592592592594
90 14.185185185185185 ['119', '139', '108', '134', '138', '146', '136', '150', '127', '148', '143', '140', '128', '144', '129'] 709.2592592592594
91 14.185185185185185 ['119', '139', '108', '134', '138', '146', '136', '150', '127', '148', '143', '140', '128', '144', '129'] 709.2592592592594
92 14.185185185185185 ['119', '139', '108', '134', '138', '146', '136', '150', '127', '148', '143', '140', '128', '144', '129'] 709.2592592592594
93 14.185185185185185 ['119', '139', '108', '134', '138', '146', '136', '150', '127', '148', '143', '140', '128', '144', '129'] 709.2592592592594
94 14.185185185185185 ['119', '139', '108', '134', '138', '146', '136', '150', '127', '148', '143', '140', '128', '144', '129'] 709.2592592592594
95 14.185185185185185 ['119', '139', '108', '134', '138', '146', '136', '150', '127', '148', '143', '140', '128', '144', '129'] 709.2592592592594
96 14.185185185185185 ['119', '139', '108', '134', '138', '146', '136', '150', '127', '148', '143', '140', '128', '144', '129'] 709.2592592592594
97 14.185185185185185 ['119', '139', '108', '134', '138', '146', '136', '150', '127', '148', '143', '140', '128', '144', '129'] 709.2592592592594
98 14.185185185185185 ['119', '139', '108', '134', '138', '146', '136', '150', '127', '148', '143', '140', '128', '144', '129'] 709.2592592592594
99 14.185185185185185 ['119', '139', '108', '134', '138', '146', '136', '150', '127', '148', '143', '140', '128', '144', '129'] 709.2592592592594
100 14.185185185185185 ['119', '139', '108', '134', '138', '146', '136', '150', '127', '148', '143', '140', '128', '144', '129'] 709.2592592592594
101 14.185185185185185 ['119', '139', '108', '134', '138', '146', '136', '150', '127', '148', '143', '140', '128', '144', '129'] 709.2592592592594
102 14.185185185185185 ['119', '139', '108', '134', '138', '146', '136', '150', '127', '148', '143', '140', '128', '144', '129'] 709.2592592592594
103 14.185185185185185 ['119', '139', '108', '134', '138', '146', '136', '150', '127', '148', '143', '140', '128', '144', '129'] 709.2592592592594
104 14.185185185185185 ['119', '139', '108', '134', '138', '146', '136', '150', '127', '148', '143', '140', '128', '144', '129'] 709.2592592592594
105 14.185185185185185 ['119', '139', '108', '134', '138', '146', '136', '150', '127', '148', '143', '140', '128', '144', '129'] 709.2592592592594
106 14.185185185185185 ['119', '139', '108', '134', '138', '146', '136', '150', '127', '148', '143', '140', '128', '144', '129'] 709.2592592592594
107 14.185185185185185 ['119', '139', '108', '134', '138', '146', '136', '150', '127', '148', '143', '140', '128', '144', '129'] 709.2592592592594
108 14.185185185185185 ['119', '139', '108', '134', '138', '146', '136', '150', '127', '148', '143', '140', '128', '144', '129'] 709.2592592592594
109 14.185185185185185 ['119', '139', '108', '134', '138', '146', '136', '150', '127', '148', '143', '140', '128', '144', '129'] 709.2592592592594
110 14.185185185185185 ['119', '139', '108', '134', '138', '146', '136', '150', '127', '148', '143', '140', '128', '144', '129'] 709.2592592592594
111 14.185185185185185 ['119', '139', '108', '134', '138', '146', '136', '150', '127', '148', '143', '140', '128', '144', '129'] 709.2592592592594
112 14.185185185185185 ['119', '139', '108', '134', '138', '146', '136', '150', '127', '148', '143', '140', '128', '144', '129'] 709.2592592592594
113 14.185185185185185 ['119', '139', '108', '134', '138', '146', '136', '150', '127', '148', '143', '140', '128', '144', '129'] 709.2592592592594
114 14.185185185185185 ['119', '139', '108', '134', '138', '146', '136', '150', '127', '148', '143', '140', '128', '144', '129'] 709.2592592592594
115 14.185185185185185 ['119', '139', '108', '134', '138', '146', '136', '150', '127', '148', '143', '140', '128', '144', '129'] 709.2592592592594
116 14.185185185185185 ['119', '139', '108', '134', '138', '146', '136', '150', '127', '148', '143', '140', '128', '144', '129'] 709.2592592592594
117 14.185185185185185 ['119', '139', '108', '134', '138', '146', '136', '150', '127', '148', '143', '140', '128', '144', '129'] 709.2592592592594
118 14.185185185185185 ['119', '139', '108', '134', '138', '146', '136', '150', '127', '148', '143', '140', '128', '144', '129'] 709.2592592592594
119 14.185185185185185 ['119', '139', '108', '134', '138', '146', '136', '150', '127', '148', '143', '140', '128', '144', '129'] 709.2592592592594
120 14.185185185185185 ['119', '139', '108', '134', '138', '146', '136', '150', '127', '148', '143', '140', '128', '144', '129'] 709.2592592592594
121 14.185185185185185 ['119', '139', '108', '134', '138', '146', '136', '150', '127', '148', '143', '140', '128', '144', '129'] 709.2592592592594
122 14.185185185185185 ['119', '139', '108', '134', '138', '146', '136', '150', '127', '148', '143', '140', '128', '144', '129'] 709.2592592592594
123 14.185185185185185 ['119', '139', '108', '134', '138', '146', '136', '150', '127', '148', '143', '140', '128', '144', '129'] 709.2592592592594
124 14.185185185185185 ['119', '139', '108', '134', '138', '146', '136', '150', '127', '148', '143', '140', '128', '144', '129'] 709.2592592592594
125 14.185185185185185 ['119', '139', '108', '134', '138', '146', '136', '150', '127', '148', '143', '140', '128', '144', '129'] 709.2592592592594
126 14.185185185185185 ['119', '139', '108', '134', '138', '146', '136', '150', '127', '148', '143', '140', '128', '144', '129'] 709.2592592592594
127 14.185185185185185 ['119', '139', '108', '134', '138', '146', '136', '150', '127', '148', '143', '140', '128', '144', '129'] 709.2592592592594
128 14.185185185185185 ['119', '139', '108', '134', '138', '146', '136', '150', '127', '148', '143', '140', '128', '144', '129'] 709.2592592592594
129 14.185185185185185 ['119', '139', '108', '134', '138', '146', '136', '150', '127', '148', '143', '140', '128', '144', '129'] 709.2592592592594
130 14.185185185185185 ['119', '139', '108', '134', '138', '146', '136', '150', '127', '148', '143', '140', '128', '144', '129'] 709.2592592592594
131 14.185185185185185 ['119', '139', '108', '134', '138', '146', '136', '150', '127', '148', '143', '140', '128', '144', '129'] 709.2592592592594
132 14.185185185185185 ['119', '139', '108', '134', '138', '146', '136', '150', '127', '148', '143', '140', '128', '144', '129'] 709.2592592592594
133 14.185185185185185 ['119', '139', '108', '134', '138', '146', '136', '150', '127', '148', '143', '140', '128', '144', '129'] 709.2592592592594
134 14.185185185185185 ['119', '139', '108', '134', '138', '146', '136', '150', '127', '148', '143', '140', '128', '144', '129'] 709.2592592592594
135 14.185185185185185 ['119', '139', '108', '134', '138', '146', '136', '150', '127', '148', '143', '140', '128', '144', '129'] 709.2592592592594
136 14.185185185185185 ['119', '139', '108', '134', '138', '146', '136', '150', '127', '148', '143', '140', '128', '144', '129'] 709.2592592592594
137 14.185185185185185 ['119', '139', '108', '134', '138', '146', '136', '150', '127', '148', '143', '140', '128', '144', '129'] 709.2592592592594
138 14.185185185185185 ['119', '139', '108', '134', '138', '146', '136', '150', '127', '148', '143', '140', '128', '144', '129'] 709.2592592592594
139 14.185185185185185 ['119', '139', '108', '134', '138', '146', '136', '150', '127', '148', '143', '140', '128', '144', '129'] 709.2592592592594
140 14.185185185185185 ['119', '139', '108', '134', '138', '146', '136', '150', '127', '148', '143', '140', '128', '144', '129'] 709.2592592592594
141 14.185185185185185 ['119', '139', '108', '134', '138', '146', '136', '150', '127', '148', '143', '140', '128', '144', '129'] 709.2592592592594
142 14.185185185185185 ['119', '139', '108', '134', '138', '146', '136', '150', '127', '148', '143', '140', '128', '144', '129'] 709.2592592592594
143 14.185185185185185 ['119', '139', '108', '134', '138', '146', '136', '150', '127', '148', '143', '140', '128', '144', '129'] 709.2592592592594
144 14.185185185185185 ['119', '139', '108', '134', '138', '146', '136', '150', '127', '148', '143', '140', '128', '144', '129'] 709.2592592592594
145 14.185185185185185 ['119', '139', '108', '134', '138', '146', '136', '150', '127', '148', '143', '140', '128', '144', '129'] 709.2592592592594
146 14.185185185185185 ['119', '139', '108', '134', '138', '146', '136', '150', '127', '148', '143', '140', '128', '144', '129'] 709.2592592592594
147 14.185185185185185 ['119', '139', '108', '134', '138', '146', '136', '150', '127', '148', '143', '140', '128', '144', '129'] 709.2592592592594
148 14.185185185185185 ['119', '139', '108', '134', '138', '146', '136', '150', '127', '148', '143', '140', '128', '144', '129'] 709.2592592592594
149 14.185185185185185 ['119', '139', '108', '134', '138', '146', '136', '150', '127', '148', '143', '140', '128', '144', '129'] 709.2592592592594
150 14.185185185185185 ['119', '139', '108', '134', '138', '146', '136', '150', '127', '148', '143', '140', '128', '144', '129'] 709.2592592592594
151 14.185185185185185 ['119', '139', '108', '134', '138', '146', '136', '150', '127', '148', '143', '140', '128', '144', '129'] 709.2592592592594
152 14.185185185185185 ['119', '139', '108', '134', '138', '146', '136', '150', '127', '148', '143', '140', '128', '144', '129'] 709.2592592592594
153 14.185185185185185 ['119', '139', '108', '134', '138', '146', '136', '150', '127', '148', '143', '140', '128', '144', '129'] 709.2592592592594
154 14.185185185185185 ['119', '139', '108', '134', '138', '146', '136', '150', '127', '148', '143', '140', '128', '144', '129'] 709.2592592592594
155 14.185185185185185 ['119', '139', '108', '134', '138', '146', '136', '150', '127', '148', '143', '140', '128', '144', '129'] 709.2592592592594
156 14.185185185185185 ['119', '139', '108', '134', '138', '146', '136', '150', '127', '148', '143', '140', '128', '144', '129'] 709.2592592592594
157 14.185185185185185 ['119', '139', '108', '134', '138', '146', '136', '150', '127', '148', '143', '140', '128', '144', '129'] 709.2592592592594
158 14.185185185185185 ['119', '139', '108', '134', '138', '146', '136', '150', '127', '148', '143', '140', '128', '144', '129'] 709.2592592592594
159 14.185185185185185 ['119', '139', '108', '134', '138', '146', '136', '150', '127', '148', '143', '140', '128', '144', '129'] 709.2592592592594
160 14.185185185185185 ['119', '139', '108', '134', '138', '146', '136', '150', '127', '148', '143', '140', '128', '144', '129'] 709.2592592592594
161 14.185185185185185 ['119', '139', '108', '134', '138', '146', '136', '150', '127', '148', '143', '140', '128', '144', '129'] 709.2592592592594
162 14.185185185185185 ['119', '139', '108', '134', '138', '146', '136', '150', '127', '148', '143', '140', '128', '144', '129'] 709.2592592592594
163 14.185185185185185 ['119', '139', '108', '134', '138', '146', '136', '150', '127', '148', '143', '140', '128', '144', '129'] 709.2592592592594
164 14.185185185185185 ['119', '139', '108', '134', '138', '146', '136', '150', '127', '148', '143', '140', '128', '144', '129'] 709.2592592592594
165 14.185185185185185 ['119', '139', '108', '134', '138', '146', '136', '150', '127', '148', '143', '140', '128', '144', '129'] 709.2592592592594
166 14.185185185185185 ['119', '139', '108', '134', '138', '146', '136', '150', '127', '148', '143', '140', '128', '144', '129'] 709.2592592592594
167 14.185185185185185 ['119', '139', '108', '134', '138', '146', '136', '150', '127', '148', '143', '140', '128', '144', '129'] 709.2592592592594
168 14.185185185185185 ['119', '139', '108', '134', '138', '146', '136', '150', '127', '148', '143', '140', '128', '144', '129'] 709.2592592592594
169 14.185185185185185 ['119', '139', '108', '134', '138', '146', '136', '150', '127', '148', '143', '140', '128', '144', '129'] 709.2592592592594
170 14.185185185185185 ['119', '139', '108', '134', '138', '146', '136', '150', '127', '148', '143', '140', '128', '144', '129'] 709.2592592592594
171 14.185185185185185 ['119', '139', '108', '134', '138', '146', '136', '150', '127', '148', '143', '140', '128', '144', '129'] 709.2592592592594
172 14.185185185185185 ['119', '139', '108', '134', '138', '146', '136', '150', '127', '148', '143', '140', '128', '144', '129'] 709.2592592592594
173 14.185185185185185 ['119', '139', '108', '134', '138', '146', '136', '150', '127', '148', '143', '140', '128', '144', '129'] 709.2592592592594
174 14.185185185185185 ['119', '139', '108', '134', '138', '146', '136', '150', '127', '148', '143', '140', '128', '144', '129'] 709.2592592592594
175 14.185185185185185 ['119', '139', '108', '134', '138', '146', '136', '150', '127', '148', '143', '140', '128', '144', '129'] 709.2592592592594
176 14.185185185185185 ['119', '139', '108', '134', '138', '146', '136', '150', '127', '148', '143', '140', '128', '144', '129'] 709.2592592592594
177 14.185185185185185 ['119', '139', '108', '134', '138', '146', '136', '150', '127', '148', '143', '140', '128', '144', '129'] 709.2592592592594
178 14.185185185185185 ['119', '139', '108', '134', '138', '146', '136', '150', '127', '148', '143', '140', '128', '144', '129'] 709.2592592592594
179 14.185185185185185 ['119', '139', '108', '134', '138', '146', '136', '150', '127', '148', '143', '140', '128', '144', '129'] 709.2592592592594
180 14.185185185185185 ['119', '139', '108', '134', '138', '146', '136', '150', '127', '148', '143', '140', '128', '144', '129'] 709.2592592592594
181 14.185185185185185 ['119', '139', '108', '134', '138', '146', '136', '150', '127', '148', '143', '140', '128', '144', '129'] 709.2592592592594
182 14.185185185185185 ['119', '139', '108', '134', '138', '146', '136', '150', '127', '148', '143', '140', '128', '144', '129'] 709.2592592592594
183 14.185185185185185 ['119', '139', '108', '134', '138', '146', '136', '150', '127', '148', '143', '140', '128', '144', '129'] 709.2592592592594
184 14.185185185185185 ['119', '139', '108', '134', '138', '146', '136', '150', '127', '148', '143', '140', '128', '144', '129'] 709.2592592592594
185 14.185185185185185 ['119', '139', '108', '134', '138', '146', '136', '150', '127', '148', '143', '140', '128', '144', '129'] 709.2592592592594
186 14.185185185185185 ['119', '139', '108', '134', '138', '146', '136', '150', '127', '148', '143', '140', '128', '144', '129'] 709.2592592592594
187 14.185185185185185 ['119', '139', '108', '134', '138', '146', '136', '150', '127', '148', '143', '140', '128', '144', '129'] 709.2592592592594
188 14.185185185185185 ['119', '139', '108', '134', '138', '146', '136', '150', '127', '148', '143', '140', '128', '144', '129'] 709.2592592592594
189 14.185185185185185 ['119', '139', '108', '134', '138', '146', '136', '150', '127', '148', '143', '140', '128', '144', '129'] 709.2592592592594
190 14.185185185185185 ['119', '139', '108', '134', '138', '146', '136', '150', '127', '148', '143', '140', '128', '144', '129'] 709.2592592592594
191 14.185185185185185 ['119', '139', '108', '134', '138', '146', '136', '150', '127', '148', '143', '140', '128', '144', '129'] 709.2592592592594
192 14.185185185185185 ['119', '139', '108', '134', '138', '146', '136', '150', '127', '148', '143', '140', '128', '144', '129'] 709.2592592592594
193 14.185185185185185 ['119', '139', '108', '134', '138', '146', '136', '150', '127', '148', '143', '140', '128', '144', '129'] 709.2592592592594
194 14.185185185185185 ['119', '139', '108', '134', '138', '146', '136', '150', '127', '148', '143', '140', '128', '144', '129'] 709.2592592592594
195 14.185185185185185 ['119', '139', '108', '134', '138', '146', '136', '150', '127', '148', '143', '140', '128', '144', '129'] 709.2592592592594
196 14.185185185185185 ['119', '139', '108', '134', '138', '146', '136', '150', '127', '148', '143', '140', '128', '144', '129'] 709.2592592592594
197 14.185185185185185 ['119', '139', '108', '134', '138', '146', '136', '150', '127', '148', '143', '140', '128', '144', '129'] 709.2592592592594
198 14.185185185185185 ['119', '139', '108', '134', '138', '146', '136', '150', '127', '148', '143', '140', '128', '144', '129'] 709.2592592592594
199 14.185185185185185 ['119', '139', '108', '134', '138', '146', '136', '150', '127', '148', '143', '140', '128', '144', '129'] 709.2592592592594
