0 5.304691358024693 ['17', '43', '135', '79', '126', '71', '90', '114', '142', '134', '105', '116', '19', '20', '32'] 271.75222222222226
1 5.304691358024693 ['17', '43', '135', '79', '126', '71', '90', '114', '142', '134', '105', '116', '19', '20', '32'] 270.4612345679013
2 5.304691358024693 ['17', '43', '135', '79', '126', '71', '90', '114', '142', '134', '105', '116', '19', '20', '32'] 269.35901234567916
3 5.280370370370369 ['110', '109', '88', '106', '19', '131', '120', '121', '150', '28', '84', '91', '34', '134', '48'] 268.0643209876545
4 5.249753086419754 ['60', '131', '145', '58', '1', '77', '109', '140', '79', '59', '117', '92', '3', '95', '96'] 267.1570370370371
5 5.218765432098765 ['134', '32', '135', '131', '106', '90', '150', '55', '126', '125', '9', '105', '114', '79', '48'] 266.12308641975324
6 5.218765432098765 ['134', '32', '135', '131', '106', '90', '150', '55', '126', '125', '9', '105', '114', '79', '48'] 265.25308641975323
7 5.213456790123457 ['135', '105', '79', '131', '90', '114', '150', '9', '126', '106', '55', '48', '134', '140', '32'] 264.3533333333334
8 5.213456790123457 ['135', '105', '79', '131', '90', '114', '150', '9', '126', '106', '55', '48', '134', '140', '32'] 263.3040740740742
9 5.198518518518521 ['135', '150', '79', '106', '84', '126', '114', '116', '105', '99', '146', '134', '117', '119', '56'] 262.4259259259261
10 5.180246913580247 ['106', '55', '135', '79', '150', '131', '126', '90', '134', '140', '20', '9', '73', '125', '114'] 261.48703703703717
11 5.1762962962962975 ['32', '134', '114', '140', '79', '150', '131', '88', '126', '135', '117', '92', '116', '106', '3'] 260.7979012345679
12 5.172839506172841 ['126', '140', '20', '131', '135', '79', '9', '114', '90', '106', '134', '125', '71', '73', '32'] 260.2475308641976
13 5.148271604938274 ['90', '106', '79', '134', '135', '32', '126', '131', '20', '105', '73', '150', '71', '119', '140'] 259.624938271605
14 5.128024691358027 ['71', '150', '134', '126', '48', '131', '135', '114', '79', '20', '106', '125', '140', '90', '73'] 258.940987654321
15 5.128024691358027 ['71', '150', '134', '126', '48', '131', '135', '114', '79', '20', '106', '125', '140', '90', '73'] 258.09333333333336
16 5.116913580246913 ['140', '125', '135', '73', '114', '106', '79', '20', '131', '150', '134', '84', '105', '146', '90'] 257.26654320987666
17 5.116913580246913 ['140', '125', '135', '73', '114', '106', '79', '20', '131', '150', '134', '84', '105', '146', '90'] 256.7293827160496
18 5.109876543209877 ['131', '106', '134', '114', '140', '135', '125', '126', '90', '105', '73', '79', '150', '20', '146'] 256.31358024691366
19 5.109876543209877 ['131', '106', '134', '114', '140', '135', '125', '126', '90', '105', '73', '79', '150', '20', '146'] 256.1651851851854
20 5.109876543209877 ['131', '106', '134', '114', '140', '135', '125', '126', '90', '105', '73', '79', '150', '20', '146'] 255.93530864197555
21 5.1033333333333335 ['106', '125', '134', '131', '140', '135', '20', '73', '150', '105', '114', '79', '146', '121', '126'] 255.770864197531
22 5.1033333333333335 ['106', '125', '134', '131', '140', '135', '20', '73', '150', '105', '114', '79', '146', '121', '126'] 255.57506172839507
23 5.1033333333333335 ['106', '125', '134', '131', '140', '135', '20', '73', '150', '105', '114', '79', '146', '121', '126'] 255.42987654320996
24 5.1033333333333335 ['106', '125', '134', '131', '140', '135', '20', '73', '150', '105', '114', '79', '146', '121', '126'] 255.37543209876532
25 5.1033333333333335 ['106', '125', '134', '131', '140', '135', '20', '73', '150', '105', '114', '79', '146', '121', '126'] 255.23259259259243
26 5.1033333333333335 ['106', '125', '134', '131', '140', '135', '20', '73', '150', '105', '114', '79', '146', '121', '126'] 255.16666666666652
27 5.1033333333333335 ['106', '125', '134', '131', '140', '135', '20', '73', '150', '105', '114', '79', '146', '121', '126'] 255.16666666666652
28 5.1033333333333335 ['106', '125', '134', '131', '140', '135', '20', '73', '150', '105', '114', '79', '146', '121', '126'] 255.16666666666652
29 5.1033333333333335 ['106', '125', '134', '131', '140', '135', '20', '73', '150', '105', '114', '79', '146', '121', '126'] 255.16666666666652
30 5.1033333333333335 ['106', '125', '134', '131', '140', '135', '20', '73', '150', '105', '114', '79', '146', '121', '126'] 255.16666666666652
31 5.1033333333333335 ['106', '125', '134', '131', '140', '135', '20', '73', '150', '105', '114', '79', '146', '121', '126'] 255.16666666666652
32 5.1033333333333335 ['106', '125', '134', '131', '140', '135', '20', '73', '150', '105', '114', '79', '146', '121', '126'] 255.16666666666652
33 5.1033333333333335 ['106', '125', '134', '131', '140', '135', '20', '73', '150', '105', '114', '79', '146', '121', '126'] 255.16666666666652
34 5.1033333333333335 ['106', '125', '134', '131', '140', '135', '20', '73', '150', '105', '114', '79', '146', '121', '126'] 255.16666666666652
35 5.1033333333333335 ['106', '125', '134', '131', '140', '135', '20', '73', '150', '105', '114', '79', '146', '121', '126'] 255.16666666666652
36 5.1033333333333335 ['106', '125', '134', '131', '140', '135', '20', '73', '150', '105', '114', '79', '146', '121', '126'] 255.16666666666652
37 5.1033333333333335 ['106', '125', '134', '131', '140', '135', '20', '73', '150', '105', '114', '79', '146', '121', '126'] 255.16666666666652
38 5.1033333333333335 ['106', '125', '134', '131', '140', '135', '20', '73', '150', '105', '114', '79', '146', '121', '126'] 255.16666666666652
39 5.1033333333333335 ['106', '125', '134', '131', '140', '135', '20', '73', '150', '105', '114', '79', '146', '121', '126'] 255.16666666666652
40 5.1033333333333335 ['106', '125', '134', '131', '140', '135', '20', '73', '150', '105', '114', '79', '146', '121', '126'] 255.16666666666652
41 5.1033333333333335 ['106', '125', '134', '131', '140', '135', '20', '73', '150', '105', '114', '79', '146', '121', '126'] 255.16666666666652
42 5.1033333333333335 ['106', '125', '134', '131', '140', '135', '20', '73', '150', '105', '114', '79', '146', '121', '126'] 255.16666666666652
43 5.1033333333333335 ['106', '125', '134', '131', '140', '135', '20', '73', '150', '105', '114', '79', '146', '121', '126'] 255.16666666666652
44 5.1033333333333335 ['106', '125', '134', '131', '140', '135', '20', '73', '150', '105', '114', '79', '146', '121', '126'] 255.16666666666652
45 5.1033333333333335 ['106', '125', '134', '131', '140', '135', '20', '73', '150', '105', '114', '79', '146', '121', '126'] 255.16666666666652
46 5.1033333333333335 ['106', '125', '134', '131', '140', '135', '20', '73', '150', '105', '114', '79', '146', '121', '126'] 255.16666666666652
47 5.1033333333333335 ['106', '125', '134', '131', '140', '135', '20', '73', '150', '105', '114', '79', '146', '121', '126'] 255.16666666666652
48 5.1033333333333335 ['106', '125', '134', '131', '140', '135', '20', '73', '150', '105', '114', '79', '146', '121', '126'] 255.16666666666652
49 5.1033333333333335 ['106', '125', '134', '131', '140', '135', '20', '73', '150', '105', '114', '79', '146', '121', '126'] 255.16666666666652
50 5.1033333333333335 ['106', '125', '134', '131', '140', '135', '20', '73', '150', '105', '114', '79', '146', '121', '126'] 255.16666666666652
51 5.1033333333333335 ['106', '125', '134', '131', '140', '135', '20', '73', '150', '105', '114', '79', '146', '121', '126'] 255.16666666666652
52 5.1033333333333335 ['106', '125', '134', '131', '140', '135', '20', '73', '150', '105', '114', '79', '146', '121', '126'] 255.16666666666652
53 5.1033333333333335 ['106', '125', '134', '131', '140', '135', '20', '73', '150', '105', '114', '79', '146', '121', '126'] 255.16666666666652
54 5.1033333333333335 ['106', '125', '134', '131', '140', '135', '20', '73', '150', '105', '114', '79', '146', '121', '126'] 255.16666666666652
55 5.1033333333333335 ['106', '125', '134', '131', '140', '135', '20', '73', '150', '105', '114', '79', '146', '121', '126'] 255.16666666666652
56 5.1033333333333335 ['106', '125', '134', '131', '140', '135', '20', '73', '150', '105', '114', '79', '146', '121', '126'] 255.16666666666652
57 5.1033333333333335 ['106', '125', '134', '131', '140', '135', '20', '73', '150', '105', '114', '79', '146', '121', '126'] 255.16666666666652
58 5.1033333333333335 ['106', '125', '134', '131', '140', '135', '20', '73', '150', '105', '114', '79', '146', '121', '126'] 255.16666666666652
59 5.1033333333333335 ['106', '125', '134', '131', '140', '135', '20', '73', '150', '105', '114', '79', '146', '121', '126'] 255.16666666666652
60 5.1033333333333335 ['106', '125', '134', '131', '140', '135', '20', '73', '150', '105', '114', '79', '146', '121', '126'] 255.16666666666652
61 5.1033333333333335 ['106', '125', '134', '131', '140', '135', '20', '73', '150', '105', '114', '79', '146', '121', '126'] 255.16666666666652
62 5.1033333333333335 ['106', '125', '134', '131', '140', '135', '20', '73', '150', '105', '114', '79', '146', '121', '126'] 255.16666666666652
63 5.1033333333333335 ['106', '125', '134', '131', '140', '135', '20', '73', '150', '105', '114', '79', '146', '121', '126'] 255.16666666666652
64 5.1033333333333335 ['106', '125', '134', '131', '140', '135', '20', '73', '150', '105', '114', '79', '146', '121', '126'] 255.16666666666652
65 5.1033333333333335 ['106', '125', '134', '131', '140', '135', '20', '73', '150', '105', '114', '79', '146', '121', '126'] 255.16666666666652
66 5.1033333333333335 ['106', '125', '134', '131', '140', '135', '20', '73', '150', '105', '114', '79', '146', '121', '126'] 255.16666666666652
67 5.1033333333333335 ['106', '125', '134', '131', '140', '135', '20', '73', '150', '105', '114', '79', '146', '121', '126'] 255.16666666666652
68 5.1033333333333335 ['106', '125', '134', '131', '140', '135', '20', '73', '150', '105', '114', '79', '146', '121', '126'] 255.16666666666652
69 5.1033333333333335 ['106', '125', '134', '131', '140', '135', '20', '73', '150', '105', '114', '79', '146', '121', '126'] 255.16666666666652
70 5.1033333333333335 ['106', '125', '134', '131', '140', '135', '20', '73', '150', '105', '114', '79', '146', '121', '126'] 255.16666666666652
71 5.1033333333333335 ['106', '125', '134', '131', '140', '135', '20', '73', '150', '105', '114', '79', '146', '121', '126'] 255.16666666666652
72 5.1033333333333335 ['106', '125', '134', '131', '140', '135', '20', '73', '150', '105', '114', '79', '146', '121', '126'] 255.16666666666652
73 5.1033333333333335 ['106', '125', '134', '131', '140', '135', '20', '73', '150', '105', '114', '79', '146', '121', '126'] 255.16666666666652
74 5.1033333333333335 ['106', '125', '134', '131', '140', '135', '20', '73', '150', '105', '114', '79', '146', '121', '126'] 255.16666666666652
75 5.1033333333333335 ['106', '125', '134', '131', '140', '135', '20', '73', '150', '105', '114', '79', '146', '121', '126'] 255.16666666666652
76 5.1033333333333335 ['106', '125', '134', '131', '140', '135', '20', '73', '150', '105', '114', '79', '146', '121', '126'] 255.16666666666652
77 5.1033333333333335 ['106', '125', '134', '131', '140', '135', '20', '73', '150', '105', '114', '79', '146', '121', '126'] 255.16666666666652
78 5.1033333333333335 ['106', '125', '134', '131', '140', '135', '20', '73', '150', '105', '114', '79', '146', '121', '126'] 255.16666666666652
79 5.1033333333333335 ['106', '125', '134', '131', '140', '135', '20', '73', '150', '105', '114', '79', '146', '121', '126'] 255.16666666666652
80 5.1033333333333335 ['106', '125', '134', '131', '140', '135', '20', '73', '150', '105', '114', '79', '146', '121', '126'] 255.16666666666652
81 5.1033333333333335 ['106', '125', '134', '131', '140', '135', '20', '73', '150', '105', '114', '79', '146', '121', '126'] 255.16666666666652
82 5.1033333333333335 ['106', '125', '134', '131', '140', '135', '20', '73', '150', '105', '114', '79', '146', '121', '126'] 255.16666666666652
83 5.1033333333333335 ['106', '125', '134', '131', '140', '135', '20', '73', '150', '105', '114', '79', '146', '121', '126'] 255.16666666666652
84 5.1033333333333335 ['106', '125', '134', '131', '140', '135', '20', '73', '150', '105', '114', '79', '146', '121', '126'] 255.16666666666652
85 5.1033333333333335 ['106', '125', '134', '131', '140', '135', '20', '73', '150', '105', '114', '79', '146', '121', '126'] 255.16666666666652
86 5.1033333333333335 ['106', '125', '134', '131', '140', '135', '20', '73', '150', '105', '114', '79', '146', '121', '126'] 255.16666666666652
87 5.1033333333333335 ['106', '125', '134', '131', '140', '135', '20', '73', '150', '105', '114', '79', '146', '121', '126'] 255.16666666666652
88 5.1033333333333335 ['106', '125', '134', '131', '140', '135', '20', '73', '150', '105', '114', '79', '146', '121', '126'] 255.16666666666652
89 5.1033333333333335 ['106', '125', '134', '131', '140', '135', '20', '73', '150', '105', '114', '79', '146', '121', '126'] 255.16666666666652
90 5.1033333333333335 ['106', '125', '134', '131', '140', '135', '20', '73', '150', '105', '114', '79', '146', '121', '126'] 255.16666666666652
91 5.1033333333333335 ['106', '125', '134', '131', '140', '135', '20', '73', '150', '105', '114', '79', '146', '121', '126'] 255.16666666666652
92 5.1033333333333335 ['106', '125', '134', '131', '140', '135', '20', '73', '150', '105', '114', '79', '146', '121', '126'] 255.16666666666652
93 5.1033333333333335 ['106', '125', '134', '131', '140', '135', '20', '73', '150', '105', '114', '79', '146', '121', '126'] 255.16666666666652
94 5.1033333333333335 ['106', '125', '134', '131', '140', '135', '20', '73', '150', '105', '114', '79', '146', '121', '126'] 255.16666666666652
95 5.1033333333333335 ['106', '125', '134', '131', '140', '135', '20', '73', '150', '105', '114', '79', '146', '121', '126'] 255.16666666666652
96 5.1033333333333335 ['106', '125', '134', '131', '140', '135', '20', '73', '150', '105', '114', '79', '146', '121', '126'] 255.16666666666652
97 5.1033333333333335 ['106', '125', '134', '131', '140', '135', '20', '73', '150', '105', '114', '79', '146', '121', '126'] 255.16666666666652
98 5.1033333333333335 ['106', '125', '134', '131', '140', '135', '20', '73', '150', '105', '114', '79', '146', '121', '126'] 255.16666666666652
99 5.1033333333333335 ['106', '125', '134', '131', '140', '135', '20', '73', '150', '105', '114', '79', '146', '121', '126'] 255.16666666666652
100 5.1033333333333335 ['106', '125', '134', '131', '140', '135', '20', '73', '150', '105', '114', '79', '146', '121', '126'] 255.16666666666652
101 5.1033333333333335 ['106', '125', '134', '131', '140', '135', '20', '73', '150', '105', '114', '79', '146', '121', '126'] 255.16666666666652
102 5.1033333333333335 ['106', '125', '134', '131', '140', '135', '20', '73', '150', '105', '114', '79', '146', '121', '126'] 255.16666666666652
103 5.1033333333333335 ['106', '125', '134', '131', '140', '135', '20', '73', '150', '105', '114', '79', '146', '121', '126'] 255.16666666666652
104 5.1033333333333335 ['106', '125', '134', '131', '140', '135', '20', '73', '150', '105', '114', '79', '146', '121', '126'] 255.16666666666652
105 5.1033333333333335 ['106', '125', '134', '131', '140', '135', '20', '73', '150', '105', '114', '79', '146', '121', '126'] 255.16666666666652
106 5.1033333333333335 ['106', '125', '134', '131', '140', '135', '20', '73', '150', '105', '114', '79', '146', '121', '126'] 255.16666666666652
107 5.1033333333333335 ['106', '125', '134', '131', '140', '135', '20', '73', '150', '105', '114', '79', '146', '121', '126'] 255.16666666666652
108 5.1033333333333335 ['106', '125', '134', '131', '140', '135', '20', '73', '150', '105', '114', '79', '146', '121', '126'] 255.16666666666652
109 5.1033333333333335 ['106', '125', '134', '131', '140', '135', '20', '73', '150', '105', '114', '79', '146', '121', '126'] 255.16666666666652
110 5.1033333333333335 ['106', '125', '134', '131', '140', '135', '20', '73', '150', '105', '114', '79', '146', '121', '126'] 255.16666666666652
111 5.1033333333333335 ['106', '125', '134', '131', '140', '135', '20', '73', '150', '105', '114', '79', '146', '121', '126'] 255.16666666666652
112 5.1033333333333335 ['106', '125', '134', '131', '140', '135', '20', '73', '150', '105', '114', '79', '146', '121', '126'] 255.16666666666652
113 5.1033333333333335 ['106', '125', '134', '131', '140', '135', '20', '73', '150', '105', '114', '79', '146', '121', '126'] 255.16666666666652
114 5.1033333333333335 ['106', '125', '134', '131', '140', '135', '20', '73', '150', '105', '114', '79', '146', '121', '126'] 255.16666666666652
115 5.1033333333333335 ['106', '125', '134', '131', '140', '135', '20', '73', '150', '105', '114', '79', '146', '121', '126'] 255.16666666666652
116 5.1033333333333335 ['106', '125', '134', '131', '140', '135', '20', '73', '150', '105', '114', '79', '146', '121', '126'] 255.16666666666652
117 5.1033333333333335 ['106', '125', '134', '131', '140', '135', '20', '73', '150', '105', '114', '79', '146', '121', '126'] 255.16666666666652
118 5.1033333333333335 ['106', '125', '134', '131', '140', '135', '20', '73', '150', '105', '114', '79', '146', '121', '126'] 255.16666666666652
119 5.1033333333333335 ['106', '125', '134', '131', '140', '135', '20', '73', '150', '105', '114', '79', '146', '121', '126'] 255.16666666666652
120 5.1033333333333335 ['106', '125', '134', '131', '140', '135', '20', '73', '150', '105', '114', '79', '146', '121', '126'] 255.16666666666652
121 5.1033333333333335 ['106', '125', '134', '131', '140', '135', '20', '73', '150', '105', '114', '79', '146', '121', '126'] 255.16666666666652
122 5.1033333333333335 ['106', '125', '134', '131', '140', '135', '20', '73', '150', '105', '114', '79', '146', '121', '126'] 255.16666666666652
123 5.1033333333333335 ['106', '125', '134', '131', '140', '135', '20', '73', '150', '105', '114', '79', '146', '121', '126'] 255.16666666666652
124 5.1033333333333335 ['106', '125', '134', '131', '140', '135', '20', '73', '150', '105', '114', '79', '146', '121', '126'] 255.16666666666652
125 5.1033333333333335 ['106', '125', '134', '131', '140', '135', '20', '73', '150', '105', '114', '79', '146', '121', '126'] 255.16666666666652
126 5.1033333333333335 ['106', '125', '134', '131', '140', '135', '20', '73', '150', '105', '114', '79', '146', '121', '126'] 255.16666666666652
127 5.1033333333333335 ['106', '125', '134', '131', '140', '135', '20', '73', '150', '105', '114', '79', '146', '121', '126'] 255.16666666666652
128 5.1033333333333335 ['106', '125', '134', '131', '140', '135', '20', '73', '150', '105', '114', '79', '146', '121', '126'] 255.16666666666652
129 5.1033333333333335 ['106', '125', '134', '131', '140', '135', '20', '73', '150', '105', '114', '79', '146', '121', '126'] 255.16666666666652
130 5.1033333333333335 ['106', '125', '134', '131', '140', '135', '20', '73', '150', '105', '114', '79', '146', '121', '126'] 255.16666666666652
131 5.1033333333333335 ['106', '125', '134', '131', '140', '135', '20', '73', '150', '105', '114', '79', '146', '121', '126'] 255.16666666666652
132 5.1033333333333335 ['106', '125', '134', '131', '140', '135', '20', '73', '150', '105', '114', '79', '146', '121', '126'] 255.16666666666652
133 5.1033333333333335 ['106', '125', '134', '131', '140', '135', '20', '73', '150', '105', '114', '79', '146', '121', '126'] 255.16666666666652
134 5.1033333333333335 ['106', '125', '134', '131', '140', '135', '20', '73', '150', '105', '114', '79', '146', '121', '126'] 255.16666666666652
135 5.1033333333333335 ['106', '125', '134', '131', '140', '135', '20', '73', '150', '105', '114', '79', '146', '121', '126'] 255.16666666666652
136 5.1033333333333335 ['106', '125', '134', '131', '140', '135', '20', '73', '150', '105', '114', '79', '146', '121', '126'] 255.16666666666652
137 5.1033333333333335 ['106', '125', '134', '131', '140', '135', '20', '73', '150', '105', '114', '79', '146', '121', '126'] 255.16666666666652
138 5.1033333333333335 ['106', '125', '134', '131', '140', '135', '20', '73', '150', '105', '114', '79', '146', '121', '126'] 255.16666666666652
139 5.1033333333333335 ['106', '125', '134', '131', '140', '135', '20', '73', '150', '105', '114', '79', '146', '121', '126'] 255.16666666666652
140 5.1033333333333335 ['106', '125', '134', '131', '140', '135', '20', '73', '150', '105', '114', '79', '146', '121', '126'] 255.16666666666652
141 5.1033333333333335 ['106', '125', '134', '131', '140', '135', '20', '73', '150', '105', '114', '79', '146', '121', '126'] 255.16666666666652
142 5.1033333333333335 ['106', '125', '134', '131', '140', '135', '20', '73', '150', '105', '114', '79', '146', '121', '126'] 255.16666666666652
143 5.1033333333333335 ['106', '125', '134', '131', '140', '135', '20', '73', '150', '105', '114', '79', '146', '121', '126'] 255.16666666666652
144 5.1033333333333335 ['106', '125', '134', '131', '140', '135', '20', '73', '150', '105', '114', '79', '146', '121', '126'] 255.16666666666652
145 5.1033333333333335 ['106', '125', '134', '131', '140', '135', '20', '73', '150', '105', '114', '79', '146', '121', '126'] 255.16666666666652
146 5.1033333333333335 ['106', '125', '134', '131', '140', '135', '20', '73', '150', '105', '114', '79', '146', '121', '126'] 255.16666666666652
147 5.1033333333333335 ['106', '125', '134', '131', '140', '135', '20', '73', '150', '105', '114', '79', '146', '121', '126'] 255.16666666666652
148 5.1033333333333335 ['106', '125', '134', '131', '140', '135', '20', '73', '150', '105', '114', '79', '146', '121', '126'] 255.16666666666652
149 5.1033333333333335 ['106', '125', '134', '131', '140', '135', '20', '73', '150', '105', '114', '79', '146', '121', '126'] 255.16666666666652
150 5.1033333333333335 ['106', '125', '134', '131', '140', '135', '20', '73', '150', '105', '114', '79', '146', '121', '126'] 255.16666666666652
151 5.1033333333333335 ['106', '125', '134', '131', '140', '135', '20', '73', '150', '105', '114', '79', '146', '121', '126'] 255.16666666666652
152 5.1033333333333335 ['106', '125', '134', '131', '140', '135', '20', '73', '150', '105', '114', '79', '146', '121', '126'] 255.16666666666652
153 5.1033333333333335 ['106', '125', '134', '131', '140', '135', '20', '73', '150', '105', '114', '79', '146', '121', '126'] 255.16666666666652
154 5.1033333333333335 ['106', '125', '134', '131', '140', '135', '20', '73', '150', '105', '114', '79', '146', '121', '126'] 255.16666666666652
155 5.1033333333333335 ['106', '125', '134', '131', '140', '135', '20', '73', '150', '105', '114', '79', '146', '121', '126'] 255.16666666666652
156 5.1033333333333335 ['106', '125', '134', '131', '140', '135', '20', '73', '150', '105', '114', '79', '146', '121', '126'] 255.16666666666652
157 5.1033333333333335 ['106', '125', '134', '131', '140', '135', '20', '73', '150', '105', '114', '79', '146', '121', '126'] 255.16666666666652
158 5.1033333333333335 ['106', '125', '134', '131', '140', '135', '20', '73', '150', '105', '114', '79', '146', '121', '126'] 255.16666666666652
159 5.1033333333333335 ['106', '125', '134', '131', '140', '135', '20', '73', '150', '105', '114', '79', '146', '121', '126'] 255.16666666666652
160 5.1033333333333335 ['106', '125', '134', '131', '140', '135', '20', '73', '150', '105', '114', '79', '146', '121', '126'] 255.16666666666652
161 5.1033333333333335 ['106', '125', '134', '131', '140', '135', '20', '73', '150', '105', '114', '79', '146', '121', '126'] 255.16666666666652
162 5.1033333333333335 ['106', '125', '134', '131', '140', '135', '20', '73', '150', '105', '114', '79', '146', '121', '126'] 255.16666666666652
163 5.1033333333333335 ['106', '125', '134', '131', '140', '135', '20', '73', '150', '105', '114', '79', '146', '121', '126'] 255.16666666666652
164 5.1033333333333335 ['106', '125', '134', '131', '140', '135', '20', '73', '150', '105', '114', '79', '146', '121', '126'] 255.16666666666652
165 5.1033333333333335 ['106', '125', '134', '131', '140', '135', '20', '73', '150', '105', '114', '79', '146', '121', '126'] 255.16666666666652
166 5.1033333333333335 ['106', '125', '134', '131', '140', '135', '20', '73', '150', '105', '114', '79', '146', '121', '126'] 255.16666666666652
167 5.1033333333333335 ['106', '125', '134', '131', '140', '135', '20', '73', '150', '105', '114', '79', '146', '121', '126'] 255.16666666666652
168 5.1033333333333335 ['106', '125', '134', '131', '140', '135', '20', '73', '150', '105', '114', '79', '146', '121', '126'] 255.16666666666652
169 5.1033333333333335 ['106', '125', '134', '131', '140', '135', '20', '73', '150', '105', '114', '79', '146', '121', '126'] 255.16666666666652
170 5.1033333333333335 ['106', '125', '134', '131', '140', '135', '20', '73', '150', '105', '114', '79', '146', '121', '126'] 255.16666666666652
171 5.1033333333333335 ['106', '125', '134', '131', '140', '135', '20', '73', '150', '105', '114', '79', '146', '121', '126'] 255.16666666666652
172 5.1033333333333335 ['106', '125', '134', '131', '140', '135', '20', '73', '150', '105', '114', '79', '146', '121', '126'] 255.16666666666652
173 5.1033333333333335 ['106', '125', '134', '131', '140', '135', '20', '73', '150', '105', '114', '79', '146', '121', '126'] 255.16666666666652
174 5.1033333333333335 ['106', '125', '134', '131', '140', '135', '20', '73', '150', '105', '114', '79', '146', '121', '126'] 255.16666666666652
175 5.1033333333333335 ['106', '125', '134', '131', '140', '135', '20', '73', '150', '105', '114', '79', '146', '121', '126'] 255.16666666666652
176 5.1033333333333335 ['106', '125', '134', '131', '140', '135', '20', '73', '150', '105', '114', '79', '146', '121', '126'] 255.16666666666652
177 5.1033333333333335 ['106', '125', '134', '131', '140', '135', '20', '73', '150', '105', '114', '79', '146', '121', '126'] 255.16666666666652
178 5.1033333333333335 ['106', '125', '134', '131', '140', '135', '20', '73', '150', '105', '114', '79', '146', '121', '126'] 255.16666666666652
179 5.1033333333333335 ['106', '125', '134', '131', '140', '135', '20', '73', '150', '105', '114', '79', '146', '121', '126'] 255.16666666666652
180 5.1033333333333335 ['106', '125', '134', '131', '140', '135', '20', '73', '150', '105', '114', '79', '146', '121', '126'] 255.16666666666652
181 5.1033333333333335 ['106', '125', '134', '131', '140', '135', '20', '73', '150', '105', '114', '79', '146', '121', '126'] 255.16666666666652
182 5.1033333333333335 ['106', '125', '134', '131', '140', '135', '20', '73', '150', '105', '114', '79', '146', '121', '126'] 255.16666666666652
183 5.1033333333333335 ['106', '125', '134', '131', '140', '135', '20', '73', '150', '105', '114', '79', '146', '121', '126'] 255.16666666666652
184 5.1033333333333335 ['106', '125', '134', '131', '140', '135', '20', '73', '150', '105', '114', '79', '146', '121', '126'] 255.16666666666652
185 5.1033333333333335 ['106', '125', '134', '131', '140', '135', '20', '73', '150', '105', '114', '79', '146', '121', '126'] 255.16666666666652
186 5.1033333333333335 ['106', '125', '134', '131', '140', '135', '20', '73', '150', '105', '114', '79', '146', '121', '126'] 255.16666666666652
187 5.1033333333333335 ['106', '125', '134', '131', '140', '135', '20', '73', '150', '105', '114', '79', '146', '121', '126'] 255.16666666666652
188 5.1033333333333335 ['106', '125', '134', '131', '140', '135', '20', '73', '150', '105', '114', '79', '146', '121', '126'] 255.16666666666652
189 5.1033333333333335 ['106', '125', '134', '131', '140', '135', '20', '73', '150', '105', '114', '79', '146', '121', '126'] 255.16666666666652
190 5.1033333333333335 ['106', '125', '134', '131', '140', '135', '20', '73', '150', '105', '114', '79', '146', '121', '126'] 255.16666666666652
191 5.1033333333333335 ['106', '125', '134', '131', '140', '135', '20', '73', '150', '105', '114', '79', '146', '121', '126'] 255.16666666666652
192 5.1033333333333335 ['106', '125', '134', '131', '140', '135', '20', '73', '150', '105', '114', '79', '146', '121', '126'] 255.16666666666652
193 5.1033333333333335 ['106', '125', '134', '131', '140', '135', '20', '73', '150', '105', '114', '79', '146', '121', '126'] 255.16666666666652
194 5.1033333333333335 ['106', '125', '134', '131', '140', '135', '20', '73', '150', '105', '114', '79', '146', '121', '126'] 255.16666666666652
195 5.1033333333333335 ['106', '125', '134', '131', '140', '135', '20', '73', '150', '105', '114', '79', '146', '121', '126'] 255.16666666666652
196 5.1033333333333335 ['106', '125', '134', '131', '140', '135', '20', '73', '150', '105', '114', '79', '146', '121', '126'] 255.16666666666652
197 5.1033333333333335 ['106', '125', '134', '131', '140', '135', '20', '73', '150', '105', '114', '79', '146', '121', '126'] 255.16666666666652
198 5.1033333333333335 ['106', '125', '134', '131', '140', '135', '20', '73', '150', '105', '114', '79', '146', '121', '126'] 255.16666666666652
199 5.1033333333333335 ['106', '125', '134', '131', '140', '135', '20', '73', '150', '105', '114', '79', '146', '121', '126'] 255.16666666666652
