0 6.111111111111111 ['13', '1', '39'] 334.2222222222222
1 6.111111111111111 ['13', '1', '39'] 324.55555555555566
2 6.0 ['4', '13', '1'] 318.22222222222246
3 5.888888888888889 ['34', '13', '27'] 311.7777777777781
4 5.888888888888889 ['34', '13', '27'] 305.77777777777794
5 5.888888888888889 ['34', '13', '27'] 301.55555555555543
6 5.888888888888889 ['34', '13', '27'] 298.44444444444446
7 5.888888888888889 ['34', '13', '27'] 296.8888888888888
8 5.888888888888889 ['34', '13', '27'] 294.4444444444445
9 5.888888888888889 ['34', '13', '27'] 294.4444444444445
10 5.888888888888889 ['34', '13', '27'] 294.4444444444445
11 5.888888888888889 ['34', '13', '27'] 294.4444444444445
12 5.888888888888889 ['34', '13', '27'] 294.4444444444445
13 5.888888888888889 ['34', '13', '27'] 294.4444444444445
14 5.888888888888889 ['34', '13', '27'] 294.4444444444445
15 5.888888888888889 ['34', '13', '27'] 294.4444444444445
16 5.888888888888889 ['34', '13', '27'] 294.4444444444445
17 5.888888888888889 ['34', '13', '27'] 294.4444444444445
18 5.888888888888889 ['34', '13', '27'] 294.4444444444445
19 5.888888888888889 ['34', '13', '27'] 294.4444444444445
20 5.888888888888889 ['34', '13', '27'] 294.4444444444445
21 5.888888888888889 ['34', '13', '27'] 294.4444444444445
22 5.888888888888889 ['34', '13', '27'] 294.4444444444445
23 5.888888888888889 ['34', '13', '27'] 294.4444444444445
24 5.888888888888889 ['34', '13', '27'] 294.4444444444445
25 5.888888888888889 ['34', '13', '27'] 294.4444444444445
26 5.888888888888889 ['34', '13', '27'] 294.4444444444445
27 5.888888888888889 ['34', '13', '27'] 294.4444444444445
28 5.888888888888889 ['34', '13', '27'] 294.4444444444445
29 5.888888888888889 ['34', '13', '27'] 294.4444444444445
30 5.888888888888889 ['34', '13', '27'] 294.4444444444445
31 5.888888888888889 ['34', '13', '27'] 294.4444444444445
32 5.888888888888889 ['34', '13', '27'] 294.4444444444445
33 5.888888888888889 ['34', '13', '27'] 294.4444444444445
34 5.888888888888889 ['34', '13', '27'] 294.4444444444445
35 5.888888888888889 ['34', '13', '27'] 294.4444444444445
36 5.888888888888889 ['34', '13', '27'] 294.4444444444445
37 5.888888888888889 ['34', '13', '27'] 294.4444444444445
38 5.888888888888889 ['34', '13', '27'] 294.4444444444445
39 5.888888888888889 ['34', '13', '27'] 294.4444444444445
40 5.888888888888889 ['34', '13', '27'] 294.4444444444445
41 5.888888888888889 ['34', '13', '27'] 294.4444444444445
42 5.888888888888889 ['34', '13', '27'] 294.4444444444445
43 5.888888888888889 ['34', '13', '27'] 294.4444444444445
44 5.888888888888889 ['34', '13', '27'] 294.4444444444445
45 5.888888888888889 ['34', '13', '27'] 294.4444444444445
46 5.888888888888889 ['34', '13', '27'] 294.4444444444445
47 5.888888888888889 ['34', '13', '27'] 294.4444444444445
48 5.888888888888889 ['34', '13', '27'] 294.4444444444445
49 5.888888888888889 ['34', '13', '27'] 294.4444444444445
50 5.888888888888889 ['34', '13', '27'] 294.4444444444445
51 5.888888888888889 ['34', '13', '27'] 294.4444444444445
52 5.888888888888889 ['34', '13', '27'] 294.4444444444445
53 5.888888888888889 ['34', '13', '27'] 294.4444444444445
54 5.888888888888889 ['34', '13', '27'] 294.4444444444445
55 5.888888888888889 ['34', '13', '27'] 294.4444444444445
56 5.888888888888889 ['34', '13', '27'] 294.4444444444445
57 5.888888888888889 ['34', '13', '27'] 294.4444444444445
58 5.888888888888889 ['34', '13', '27'] 294.4444444444445
59 5.888888888888889 ['34', '13', '27'] 294.4444444444445
60 5.888888888888889 ['34', '13', '27'] 294.4444444444445
61 5.888888888888889 ['34', '13', '27'] 294.4444444444445
62 5.888888888888889 ['34', '13', '27'] 294.4444444444445
63 5.888888888888889 ['34', '13', '27'] 294.4444444444445
64 5.888888888888889 ['34', '13', '27'] 294.4444444444445
65 5.888888888888889 ['34', '13', '27'] 294.4444444444445
66 5.888888888888889 ['34', '13', '27'] 294.4444444444445
67 5.888888888888889 ['34', '13', '27'] 294.4444444444445
68 5.888888888888889 ['34', '13', '27'] 294.4444444444445
69 5.888888888888889 ['34', '13', '27'] 294.4444444444445
70 5.888888888888889 ['34', '13', '27'] 294.4444444444445
71 5.888888888888889 ['34', '13', '27'] 294.4444444444445
72 5.888888888888889 ['34', '13', '27'] 294.4444444444445
73 5.888888888888889 ['34', '13', '27'] 294.4444444444445
74 5.888888888888889 ['34', '13', '27'] 294.4444444444445
75 5.888888888888889 ['34', '13', '27'] 294.4444444444445
76 5.888888888888889 ['34', '13', '27'] 294.4444444444445
77 5.888888888888889 ['34', '13', '27'] 294.4444444444445
78 5.888888888888889 ['34', '13', '27'] 294.4444444444445
79 5.888888888888889 ['34', '13', '27'] 294.4444444444445
80 5.888888888888889 ['34', '13', '27'] 294.4444444444445
81 5.888888888888889 ['34', '13', '27'] 294.4444444444445
82 5.888888888888889 ['34', '13', '27'] 294.4444444444445
83 5.888888888888889 ['34', '13', '27'] 294.4444444444445
84 5.888888888888889 ['34', '13', '27'] 294.4444444444445
85 5.888888888888889 ['34', '13', '27'] 294.4444444444445
86 5.888888888888889 ['34', '13', '27'] 294.4444444444445
87 5.888888888888889 ['34', '13', '27'] 294.4444444444445
88 5.888888888888889 ['34', '13', '27'] 294.4444444444445
89 5.888888888888889 ['34', '13', '27'] 294.4444444444445
90 5.888888888888889 ['34', '13', '27'] 294.4444444444445
91 5.888888888888889 ['34', '13', '27'] 294.4444444444445
92 5.888888888888889 ['34', '13', '27'] 294.4444444444445
93 5.888888888888889 ['34', '13', '27'] 294.4444444444445
94 5.888888888888889 ['34', '13', '27'] 294.4444444444445
95 5.888888888888889 ['34', '13', '27'] 294.4444444444445
96 5.888888888888889 ['34', '13', '27'] 294.4444444444445
97 5.888888888888889 ['34', '13', '27'] 294.4444444444445
98 5.888888888888889 ['34', '13', '27'] 294.4444444444445
99 5.888888888888889 ['34', '13', '27'] 294.4444444444445
100 5.888888888888889 ['34', '13', '27'] 294.4444444444445
101 5.888888888888889 ['34', '13', '27'] 294.4444444444445
102 5.888888888888889 ['34', '13', '27'] 294.4444444444445
103 5.888888888888889 ['34', '13', '27'] 294.4444444444445
104 5.888888888888889 ['34', '13', '27'] 294.4444444444445
105 5.888888888888889 ['34', '13', '27'] 294.4444444444445
106 5.888888888888889 ['34', '13', '27'] 294.4444444444445
107 5.888888888888889 ['34', '13', '27'] 294.4444444444445
108 5.888888888888889 ['34', '13', '27'] 294.4444444444445
109 5.888888888888889 ['34', '13', '27'] 294.4444444444445
110 5.888888888888889 ['34', '13', '27'] 294.4444444444445
111 5.888888888888889 ['34', '13', '27'] 294.4444444444445
112 5.888888888888889 ['34', '13', '27'] 294.4444444444445
113 5.888888888888889 ['34', '13', '27'] 294.4444444444445
114 5.888888888888889 ['34', '13', '27'] 294.4444444444445
115 5.888888888888889 ['34', '13', '27'] 294.4444444444445
116 5.888888888888889 ['34', '13', '27'] 294.4444444444445
117 5.888888888888889 ['34', '13', '27'] 294.4444444444445
118 5.888888888888889 ['34', '13', '27'] 294.4444444444445
119 5.888888888888889 ['34', '13', '27'] 294.4444444444445
120 5.888888888888889 ['34', '13', '27'] 294.4444444444445
121 5.888888888888889 ['34', '13', '27'] 294.4444444444445
122 5.888888888888889 ['34', '13', '27'] 294.4444444444445
123 5.888888888888889 ['34', '13', '27'] 294.4444444444445
124 5.888888888888889 ['34', '13', '27'] 294.4444444444445
125 5.888888888888889 ['34', '13', '27'] 294.4444444444445
126 5.888888888888889 ['34', '13', '27'] 294.4444444444445
127 5.888888888888889 ['34', '13', '27'] 294.4444444444445
128 5.888888888888889 ['34', '13', '27'] 294.4444444444445
129 5.888888888888889 ['34', '13', '27'] 294.4444444444445
130 5.888888888888889 ['34', '13', '27'] 294.4444444444445
131 5.888888888888889 ['34', '13', '27'] 294.4444444444445
132 5.888888888888889 ['34', '13', '27'] 294.4444444444445
133 5.888888888888889 ['34', '13', '27'] 294.4444444444445
134 5.888888888888889 ['34', '13', '27'] 294.4444444444445
135 5.888888888888889 ['34', '13', '27'] 294.4444444444445
136 5.888888888888889 ['34', '13', '27'] 294.4444444444445
137 5.888888888888889 ['34', '13', '27'] 294.4444444444445
138 5.888888888888889 ['34', '13', '27'] 294.4444444444445
139 5.888888888888889 ['34', '13', '27'] 294.4444444444445
140 5.888888888888889 ['34', '13', '27'] 294.4444444444445
141 5.888888888888889 ['34', '13', '27'] 294.4444444444445
142 5.888888888888889 ['34', '13', '27'] 294.4444444444445
143 5.888888888888889 ['34', '13', '27'] 294.4444444444445
144 5.888888888888889 ['34', '13', '27'] 294.4444444444445
145 5.888888888888889 ['34', '13', '27'] 294.4444444444445
146 5.888888888888889 ['34', '13', '27'] 294.4444444444445
147 5.888888888888889 ['34', '13', '27'] 294.4444444444445
148 5.888888888888889 ['34', '13', '27'] 294.4444444444445
149 5.888888888888889 ['34', '13', '27'] 294.4444444444445
150 5.888888888888889 ['34', '13', '27'] 294.4444444444445
151 5.888888888888889 ['34', '13', '27'] 294.4444444444445
152 5.888888888888889 ['34', '13', '27'] 294.4444444444445
153 5.888888888888889 ['34', '13', '27'] 294.4444444444445
154 5.888888888888889 ['34', '13', '27'] 294.4444444444445
155 5.888888888888889 ['34', '13', '27'] 294.4444444444445
156 5.888888888888889 ['34', '13', '27'] 294.4444444444445
157 5.888888888888889 ['34', '13', '27'] 294.4444444444445
158 5.888888888888889 ['34', '13', '27'] 294.4444444444445
159 5.888888888888889 ['34', '13', '27'] 294.4444444444445
160 5.888888888888889 ['34', '13', '27'] 294.4444444444445
161 5.888888888888889 ['34', '13', '27'] 294.4444444444445
162 5.888888888888889 ['34', '13', '27'] 294.4444444444445
163 5.888888888888889 ['34', '13', '27'] 294.4444444444445
164 5.888888888888889 ['34', '13', '27'] 294.4444444444445
165 5.888888888888889 ['34', '13', '27'] 294.4444444444445
166 5.888888888888889 ['34', '13', '27'] 294.4444444444445
167 5.888888888888889 ['34', '13', '27'] 294.4444444444445
168 5.888888888888889 ['34', '13', '27'] 294.4444444444445
169 5.888888888888889 ['34', '13', '27'] 294.4444444444445
170 5.888888888888889 ['34', '13', '27'] 294.4444444444445
171 5.888888888888889 ['34', '13', '27'] 294.4444444444445
172 5.888888888888889 ['34', '13', '27'] 294.4444444444445
173 5.888888888888889 ['34', '13', '27'] 294.4444444444445
174 5.888888888888889 ['34', '13', '27'] 294.4444444444445
175 5.888888888888889 ['34', '13', '27'] 294.4444444444445
176 5.888888888888889 ['34', '13', '27'] 294.4444444444445
177 5.888888888888889 ['34', '13', '27'] 294.4444444444445
178 5.888888888888889 ['34', '13', '27'] 294.4444444444445
179 5.888888888888889 ['34', '13', '27'] 294.4444444444445
180 5.888888888888889 ['34', '13', '27'] 294.4444444444445
181 5.888888888888889 ['34', '13', '27'] 294.4444444444445
182 5.888888888888889 ['34', '13', '27'] 294.4444444444445
183 5.888888888888889 ['34', '13', '27'] 294.4444444444445
184 5.888888888888889 ['34', '13', '27'] 294.4444444444445
185 5.888888888888889 ['34', '13', '27'] 294.4444444444445
186 5.888888888888889 ['34', '13', '27'] 294.4444444444445
187 5.888888888888889 ['34', '13', '27'] 294.4444444444445
188 5.888888888888889 ['34', '13', '27'] 294.4444444444445
189 5.888888888888889 ['34', '13', '27'] 294.4444444444445
190 5.888888888888889 ['34', '13', '27'] 294.4444444444445
191 5.888888888888889 ['34', '13', '27'] 294.4444444444445
192 5.888888888888889 ['34', '13', '27'] 294.4444444444445
193 5.888888888888889 ['34', '13', '27'] 294.4444444444445
194 5.888888888888889 ['34', '13', '27'] 294.4444444444445
195 5.888888888888889 ['34', '13', '27'] 294.4444444444445
196 5.888888888888889 ['34', '13', '27'] 294.4444444444445
197 5.888888888888889 ['34', '13', '27'] 294.4444444444445
198 5.888888888888889 ['34', '13', '27'] 294.4444444444445
199 5.888888888888889 ['34', '13', '27'] 294.4444444444445
