0 17.84 ['31', '42', '3', '10', '18'] 961.9200000000003
1 17.84 ['31', '42', '3', '10', '18'] 938.3200000000003
2 17.28 ['30', '42', '31', '18', '38'] 919.4399999999996
3 17.04 ['42', '18', '10', '31', '38'] 899.6000000000001
4 16.72 ['31', '18', '38', '34', '42'] 884.16
5 16.72 ['31', '18', '38', '34', '42'] 870.2399999999998
6 16.56 ['18', '42', '38', '31', '39'] 857.8400000000004
7 16.32 ['39', '38', '18', '42', '34'] 843.9999999999998
8 16.32 ['39', '38', '18', '42', '34'] 834.6400000000008
9 16.32 ['39', '38', '18', '42', '34'] 827.6000000000004
10 16.32 ['39', '38', '18', '42', '34'] 820.7199999999992
11 16.32 ['39', '38', '18', '42', '34'] 816.4800000000004
12 16.32 ['39', '38', '18', '42', '34'] 816.0000000000008
13 16.32 ['39', '38', '18', '42', '34'] 816.0000000000008
14 16.32 ['39', '38', '18', '42', '34'] 816.0000000000008
15 16.32 ['39', '38', '18', '42', '34'] 816.0000000000008
16 16.32 ['39', '38', '18', '42', '34'] 816.0000000000008
17 16.32 ['39', '38', '18', '42', '34'] 816.0000000000008
18 16.32 ['39', '38', '18', '42', '34'] 816.0000000000008
19 16.32 ['39', '38', '18', '42', '34'] 816.0000000000008
20 16.32 ['39', '38', '18', '42', '34'] 816.0000000000008
21 16.32 ['39', '38', '18', '42', '34'] 816.0000000000008
22 16.32 ['39', '38', '18', '42', '34'] 816.0000000000008
23 16.32 ['39', '38', '18', '42', '34'] 816.0000000000008
24 16.32 ['39', '38', '18', '42', '34'] 816.0000000000008
25 16.32 ['39', '38', '18', '42', '34'] 816.0000000000008
26 16.32 ['39', '38', '18', '42', '34'] 816.0000000000008
27 16.32 ['39', '38', '18', '42', '34'] 816.0000000000008
28 16.32 ['39', '38', '18', '42', '34'] 816.0000000000008
29 16.32 ['39', '38', '18', '42', '34'] 816.0000000000008
30 16.32 ['39', '38', '18', '42', '34'] 816.0000000000008
31 16.32 ['39', '38', '18', '42', '34'] 816.0000000000008
32 16.32 ['39', '38', '18', '42', '34'] 816.0000000000008
33 16.32 ['39', '38', '18', '42', '34'] 816.0000000000008
34 16.32 ['39', '38', '18', '42', '34'] 816.0000000000008
35 16.32 ['39', '38', '18', '42', '34'] 816.0000000000008
36 16.32 ['39', '38', '18', '42', '34'] 816.0000000000008
37 16.32 ['39', '38', '18', '42', '34'] 816.0000000000008
38 16.32 ['39', '38', '18', '42', '34'] 816.0000000000008
39 16.32 ['39', '38', '18', '42', '34'] 816.0000000000008
40 16.32 ['39', '38', '18', '42', '34'] 816.0000000000008
41 16.32 ['39', '38', '18', '42', '34'] 816.0000000000008
42 16.32 ['39', '38', '18', '42', '34'] 816.0000000000008
43 16.32 ['39', '38', '18', '42', '34'] 816.0000000000008
44 16.32 ['39', '38', '18', '42', '34'] 816.0000000000008
45 16.32 ['39', '38', '18', '42', '34'] 816.0000000000008
46 16.32 ['39', '38', '18', '42', '34'] 816.0000000000008
47 16.32 ['39', '38', '18', '42', '34'] 816.0000000000008
48 16.32 ['39', '38', '18', '42', '34'] 816.0000000000008
49 16.32 ['39', '38', '18', '42', '34'] 816.0000000000008
50 16.32 ['39', '38', '18', '42', '34'] 816.0000000000008
51 16.32 ['39', '38', '18', '42', '34'] 816.0000000000008
52 16.32 ['39', '38', '18', '42', '34'] 816.0000000000008
53 16.32 ['39', '38', '18', '42', '34'] 816.0000000000008
54 16.32 ['39', '38', '18', '42', '34'] 816.0000000000008
55 16.32 ['39', '38', '18', '42', '34'] 816.0000000000008
56 16.32 ['39', '38', '18', '42', '34'] 816.0000000000008
57 16.32 ['39', '38', '18', '42', '34'] 816.0000000000008
58 16.32 ['39', '38', '18', '42', '34'] 816.0000000000008
59 16.32 ['39', '38', '18', '42', '34'] 816.0000000000008
60 16.32 ['39', '38', '18', '42', '34'] 816.0000000000008
61 16.32 ['39', '38', '18', '42', '34'] 816.0000000000008
62 16.32 ['39', '38', '18', '42', '34'] 816.0000000000008
63 16.32 ['39', '38', '18', '42', '34'] 816.0000000000008
64 16.32 ['39', '38', '18', '42', '34'] 816.0000000000008
65 16.32 ['39', '38', '18', '42', '34'] 816.0000000000008
66 16.32 ['39', '38', '18', '42', '34'] 816.0000000000008
67 16.32 ['39', '38', '18', '42', '34'] 816.0000000000008
68 16.32 ['39', '38', '18', '42', '34'] 816.0000000000008
69 16.32 ['39', '38', '18', '42', '34'] 816.0000000000008
70 16.32 ['39', '38', '18', '42', '34'] 816.0000000000008
71 16.32 ['39', '38', '18', '42', '34'] 816.0000000000008
72 16.32 ['39', '38', '18', '42', '34'] 816.0000000000008
73 16.32 ['39', '38', '18', '42', '34'] 816.0000000000008
74 16.32 ['39', '38', '18', '42', '34'] 816.0000000000008
75 16.32 ['39', '38', '18', '42', '34'] 816.0000000000008
76 16.32 ['39', '38', '18', '42', '34'] 816.0000000000008
77 16.32 ['39', '38', '18', '42', '34'] 816.0000000000008
78 16.32 ['39', '38', '18', '42', '34'] 816.0000000000008
79 16.32 ['39', '38', '18', '42', '34'] 816.0000000000008
80 16.32 ['39', '38', '18', '42', '34'] 816.0000000000008
81 16.32 ['39', '38', '18', '42', '34'] 816.0000000000008
82 16.32 ['39', '38', '18', '42', '34'] 816.0000000000008
83 16.32 ['39', '38', '18', '42', '34'] 816.0000000000008
84 16.32 ['39', '38', '18', '42', '34'] 816.0000000000008
85 16.32 ['39', '38', '18', '42', '34'] 816.0000000000008
86 16.32 ['39', '38', '18', '42', '34'] 816.0000000000008
87 16.32 ['39', '38', '18', '42', '34'] 816.0000000000008
88 16.32 ['39', '38', '18', '42', '34'] 816.0000000000008
89 16.32 ['39', '38', '18', '42', '34'] 816.0000000000008
90 16.32 ['39', '38', '18', '42', '34'] 816.0000000000008
91 16.32 ['39', '38', '18', '42', '34'] 816.0000000000008
92 16.32 ['39', '38', '18', '42', '34'] 816.0000000000008
93 16.32 ['39', '38', '18', '42', '34'] 816.0000000000008
94 16.32 ['39', '38', '18', '42', '34'] 816.0000000000008
95 16.32 ['39', '38', '18', '42', '34'] 816.0000000000008
96 16.32 ['39', '38', '18', '42', '34'] 816.0000000000008
97 16.32 ['39', '38', '18', '42', '34'] 816.0000000000008
98 16.32 ['39', '38', '18', '42', '34'] 816.0000000000008
99 16.32 ['39', '38', '18', '42', '34'] 816.0000000000008
100 16.32 ['39', '38', '18', '42', '34'] 816.0000000000008
101 16.32 ['39', '38', '18', '42', '34'] 816.0000000000008
102 16.32 ['39', '38', '18', '42', '34'] 816.0000000000008
103 16.32 ['39', '38', '18', '42', '34'] 816.0000000000008
104 16.32 ['39', '38', '18', '42', '34'] 816.0000000000008
105 16.32 ['39', '38', '18', '42', '34'] 816.0000000000008
106 16.32 ['39', '38', '18', '42', '34'] 816.0000000000008
107 16.32 ['39', '38', '18', '42', '34'] 816.0000000000008
108 16.32 ['39', '38', '18', '42', '34'] 816.0000000000008
109 16.32 ['39', '38', '18', '42', '34'] 816.0000000000008
110 16.32 ['39', '38', '18', '42', '34'] 816.0000000000008
111 16.32 ['39', '38', '18', '42', '34'] 816.0000000000008
112 16.32 ['39', '38', '18', '42', '34'] 816.0000000000008
113 16.32 ['39', '38', '18', '42', '34'] 816.0000000000008
114 16.32 ['39', '38', '18', '42', '34'] 816.0000000000008
115 16.32 ['39', '38', '18', '42', '34'] 816.0000000000008
116 16.32 ['39', '38', '18', '42', '34'] 816.0000000000008
117 16.32 ['39', '38', '18', '42', '34'] 816.0000000000008
118 16.32 ['39', '38', '18', '42', '34'] 816.0000000000008
119 16.32 ['39', '38', '18', '42', '34'] 816.0000000000008
120 16.32 ['39', '38', '18', '42', '34'] 816.0000000000008
121 16.32 ['39', '38', '18', '42', '34'] 816.0000000000008
122 16.32 ['39', '38', '18', '42', '34'] 816.0000000000008
123 16.32 ['39', '38', '18', '42', '34'] 816.0000000000008
124 16.32 ['39', '38', '18', '42', '34'] 816.0000000000008
125 16.32 ['39', '38', '18', '42', '34'] 816.0000000000008
126 16.32 ['39', '38', '18', '42', '34'] 816.0000000000008
127 16.32 ['39', '38', '18', '42', '34'] 816.0000000000008
128 16.32 ['39', '38', '18', '42', '34'] 816.0000000000008
129 16.32 ['39', '38', '18', '42', '34'] 816.0000000000008
130 16.32 ['39', '38', '18', '42', '34'] 816.0000000000008
131 16.32 ['39', '38', '18', '42', '34'] 816.0000000000008
132 16.32 ['39', '38', '18', '42', '34'] 816.0000000000008
133 16.32 ['39', '38', '18', '42', '34'] 816.0000000000008
134 16.32 ['39', '38', '18', '42', '34'] 816.0000000000008
135 16.32 ['39', '38', '18', '42', '34'] 816.0000000000008
136 16.32 ['39', '38', '18', '42', '34'] 816.0000000000008
137 16.32 ['39', '38', '18', '42', '34'] 816.0000000000008
138 16.32 ['39', '38', '18', '42', '34'] 816.0000000000008
139 16.32 ['39', '38', '18', '42', '34'] 816.0000000000008
140 16.32 ['39', '38', '18', '42', '34'] 816.0000000000008
141 16.32 ['39', '38', '18', '42', '34'] 816.0000000000008
142 16.32 ['39', '38', '18', '42', '34'] 816.0000000000008
143 16.32 ['39', '38', '18', '42', '34'] 816.0000000000008
144 16.32 ['39', '38', '18', '42', '34'] 816.0000000000008
145 16.32 ['39', '38', '18', '42', '34'] 816.0000000000008
146 16.32 ['39', '38', '18', '42', '34'] 816.0000000000008
147 16.32 ['39', '38', '18', '42', '34'] 816.0000000000008
148 16.32 ['39', '38', '18', '42', '34'] 816.0000000000008
149 16.32 ['39', '38', '18', '42', '34'] 816.0000000000008
150 16.32 ['39', '38', '18', '42', '34'] 816.0000000000008
151 16.32 ['39', '38', '18', '42', '34'] 816.0000000000008
152 16.32 ['39', '38', '18', '42', '34'] 816.0000000000008
153 16.32 ['39', '38', '18', '42', '34'] 816.0000000000008
154 16.32 ['39', '38', '18', '42', '34'] 816.0000000000008
155 16.32 ['39', '38', '18', '42', '34'] 816.0000000000008
156 16.32 ['39', '38', '18', '42', '34'] 816.0000000000008
157 16.32 ['39', '38', '18', '42', '34'] 816.0000000000008
158 16.32 ['39', '38', '18', '42', '34'] 816.0000000000008
159 16.32 ['39', '38', '18', '42', '34'] 816.0000000000008
160 16.32 ['39', '38', '18', '42', '34'] 816.0000000000008
161 16.32 ['39', '38', '18', '42', '34'] 816.0000000000008
162 16.32 ['39', '38', '18', '42', '34'] 816.0000000000008
163 16.32 ['39', '38', '18', '42', '34'] 816.0000000000008
164 16.32 ['39', '38', '18', '42', '34'] 816.0000000000008
165 16.32 ['39', '38', '18', '42', '34'] 816.0000000000008
166 16.32 ['39', '38', '18', '42', '34'] 816.0000000000008
167 16.32 ['39', '38', '18', '42', '34'] 816.0000000000008
168 16.32 ['39', '38', '18', '42', '34'] 816.0000000000008
169 16.32 ['39', '38', '18', '42', '34'] 816.0000000000008
170 16.32 ['39', '38', '18', '42', '34'] 816.0000000000008
171 16.32 ['39', '38', '18', '42', '34'] 816.0000000000008
172 16.32 ['39', '38', '18', '42', '34'] 816.0000000000008
173 16.32 ['39', '38', '18', '42', '34'] 816.0000000000008
174 16.32 ['39', '38', '18', '42', '34'] 816.0000000000008
175 16.32 ['39', '38', '18', '42', '34'] 816.0000000000008
176 16.32 ['39', '38', '18', '42', '34'] 816.0000000000008
177 16.32 ['39', '38', '18', '42', '34'] 816.0000000000008
178 16.32 ['39', '38', '18', '42', '34'] 816.0000000000008
179 16.32 ['39', '38', '18', '42', '34'] 816.0000000000008
180 16.32 ['39', '38', '18', '42', '34'] 816.0000000000008
181 16.32 ['39', '38', '18', '42', '34'] 816.0000000000008
182 16.32 ['39', '38', '18', '42', '34'] 816.0000000000008
183 16.32 ['39', '38', '18', '42', '34'] 816.0000000000008
184 16.32 ['39', '38', '18', '42', '34'] 816.0000000000008
185 16.32 ['39', '38', '18', '42', '34'] 816.0000000000008
186 16.32 ['39', '38', '18', '42', '34'] 816.0000000000008
187 16.32 ['39', '38', '18', '42', '34'] 816.0000000000008
188 16.32 ['39', '38', '18', '42', '34'] 816.0000000000008
189 16.32 ['39', '38', '18', '42', '34'] 816.0000000000008
190 16.32 ['39', '38', '18', '42', '34'] 816.0000000000008
191 16.32 ['39', '38', '18', '42', '34'] 816.0000000000008
192 16.32 ['39', '38', '18', '42', '34'] 816.0000000000008
193 16.32 ['39', '38', '18', '42', '34'] 816.0000000000008
194 16.32 ['39', '38', '18', '42', '34'] 816.0000000000008
195 16.32 ['39', '38', '18', '42', '34'] 816.0000000000008
196 16.32 ['39', '38', '18', '42', '34'] 816.0000000000008
197 16.32 ['39', '38', '18', '42', '34'] 816.0000000000008
198 16.32 ['39', '38', '18', '42', '34'] 816.0000000000008
199 16.32 ['39', '38', '18', '42', '34'] 816.0000000000008
