0 27.125 ['12', '19', '17', '34'] 1432.225
1 27.125 ['12', '19', '17', '34'] 1413.4750000000004
2 27.125 ['12', '19', '17', '34'] 1396.8999999999999
3 26.975 ['17', '43', '8', '34'] 1379.7750000000003
4 26.875 ['17', '34', '19', '8'] 1363.5999999999995
5 26.825 ['43', '17', '34', '19'] 1356.0749999999996
6 26.825 ['43', '17', '34', '19'] 1350.7250000000004
7 26.825 ['43', '17', '34', '19'] 1346.1249999999993
8 26.825 ['43', '17', '34', '19'] 1342.675
9 26.825 ['43', '17', '34', '19'] 1341.2500000000011
10 26.825 ['43', '17', '34', '19'] 1341.2500000000011
11 26.825 ['43', '17', '34', '19'] 1341.2500000000011
12 26.825 ['43', '17', '34', '19'] 1341.2500000000011
13 26.825 ['43', '17', '34', '19'] 1341.2500000000011
14 26.825 ['43', '17', '34', '19'] 1341.2500000000011
15 26.825 ['43', '17', '34', '19'] 1341.2500000000011
16 26.825 ['43', '17', '34', '19'] 1341.2500000000011
17 26.825 ['43', '17', '34', '19'] 1341.2500000000011
18 26.825 ['43', '17', '34', '19'] 1341.2500000000011
19 26.825 ['43', '17', '34', '19'] 1341.2500000000011
20 26.825 ['43', '17', '34', '19'] 1341.2500000000011
21 26.825 ['43', '17', '34', '19'] 1341.2500000000011
22 26.825 ['43', '17', '34', '19'] 1341.2500000000011
23 26.825 ['43', '17', '34', '19'] 1341.2500000000011
24 26.825 ['43', '17', '34', '19'] 1341.2500000000011
25 26.825 ['43', '17', '34', '19'] 1341.2500000000011
26 26.825 ['43', '17', '34', '19'] 1341.2500000000011
27 26.825 ['43', '17', '34', '19'] 1341.2500000000011
28 26.825 ['43', '17', '34', '19'] 1341.2500000000011
29 26.825 ['43', '17', '34', '19'] 1341.2500000000011
30 26.825 ['43', '17', '34', '19'] 1341.2500000000011
31 26.825 ['43', '17', '34', '19'] 1341.2500000000011
32 26.825 ['43', '17', '34', '19'] 1341.2500000000011
33 26.825 ['43', '17', '34', '19'] 1341.2500000000011
34 26.825 ['43', '17', '34', '19'] 1341.2500000000011
35 26.825 ['43', '17', '34', '19'] 1341.2500000000011
36 26.825 ['43', '17', '34', '19'] 1341.2500000000011
37 26.825 ['43', '17', '34', '19'] 1341.2500000000011
38 26.825 ['43', '17', '34', '19'] 1341.2500000000011
39 26.825 ['43', '17', '34', '19'] 1341.2500000000011
40 26.825 ['43', '17', '34', '19'] 1341.2500000000011
41 26.825 ['43', '17', '34', '19'] 1341.2500000000011
42 26.825 ['43', '17', '34', '19'] 1341.2500000000011
43 26.825 ['43', '17', '34', '19'] 1341.2500000000011
44 26.825 ['43', '17', '34', '19'] 1341.2500000000011
45 26.825 ['43', '17', '34', '19'] 1341.2500000000011
46 26.825 ['43', '17', '34', '19'] 1341.2500000000011
47 26.825 ['43', '17', '34', '19'] 1341.2500000000011
48 26.825 ['43', '17', '34', '19'] 1341.2500000000011
49 26.825 ['43', '17', '34', '19'] 1341.2500000000011
50 26.825 ['43', '17', '34', '19'] 1341.2500000000011
51 26.825 ['43', '17', '34', '19'] 1341.2500000000011
52 26.825 ['43', '17', '34', '19'] 1341.2500000000011
53 26.825 ['43', '17', '34', '19'] 1341.2500000000011
54 26.825 ['43', '17', '34', '19'] 1341.2500000000011
55 26.825 ['43', '17', '34', '19'] 1341.2500000000011
56 26.825 ['43', '17', '34', '19'] 1341.2500000000011
57 26.825 ['43', '17', '34', '19'] 1341.2500000000011
58 26.825 ['43', '17', '34', '19'] 1341.2500000000011
59 26.825 ['43', '17', '34', '19'] 1341.2500000000011
60 26.825 ['43', '17', '34', '19'] 1341.2500000000011
61 26.825 ['43', '17', '34', '19'] 1341.2500000000011
62 26.825 ['43', '17', '34', '19'] 1341.2500000000011
63 26.825 ['43', '17', '34', '19'] 1341.2500000000011
64 26.825 ['43', '17', '34', '19'] 1341.2500000000011
65 26.825 ['43', '17', '34', '19'] 1341.2500000000011
66 26.825 ['43', '17', '34', '19'] 1341.2500000000011
67 26.825 ['43', '17', '34', '19'] 1341.2500000000011
68 26.825 ['43', '17', '34', '19'] 1341.2500000000011
69 26.825 ['43', '17', '34', '19'] 1341.2500000000011
70 26.825 ['43', '17', '34', '19'] 1341.2500000000011
71 26.825 ['43', '17', '34', '19'] 1341.2500000000011
72 26.825 ['43', '17', '34', '19'] 1341.2500000000011
73 26.825 ['43', '17', '34', '19'] 1341.2500000000011
74 26.825 ['43', '17', '34', '19'] 1341.2500000000011
75 26.825 ['43', '17', '34', '19'] 1341.2500000000011
76 26.825 ['43', '17', '34', '19'] 1341.2500000000011
77 26.825 ['43', '17', '34', '19'] 1341.2500000000011
78 26.825 ['43', '17', '34', '19'] 1341.2500000000011
79 26.825 ['43', '17', '34', '19'] 1341.2500000000011
80 26.825 ['43', '17', '34', '19'] 1341.2500000000011
81 26.825 ['43', '17', '34', '19'] 1341.2500000000011
82 26.825 ['43', '17', '34', '19'] 1341.2500000000011
83 26.825 ['43', '17', '34', '19'] 1341.2500000000011
84 26.825 ['43', '17', '34', '19'] 1341.2500000000011
85 26.825 ['43', '17', '34', '19'] 1341.2500000000011
86 26.825 ['43', '17', '34', '19'] 1341.2500000000011
87 26.825 ['43', '17', '34', '19'] 1341.2500000000011
88 26.825 ['43', '17', '34', '19'] 1341.2500000000011
89 26.825 ['43', '17', '34', '19'] 1341.2500000000011
90 26.825 ['43', '17', '34', '19'] 1341.2500000000011
91 26.825 ['43', '17', '34', '19'] 1341.2500000000011
92 26.825 ['43', '17', '34', '19'] 1341.2500000000011
93 26.825 ['43', '17', '34', '19'] 1341.2500000000011
94 26.825 ['43', '17', '34', '19'] 1341.2500000000011
95 26.825 ['43', '17', '34', '19'] 1341.2500000000011
96 26.825 ['43', '17', '34', '19'] 1341.2500000000011
97 26.825 ['43', '17', '34', '19'] 1341.2500000000011
98 26.825 ['43', '17', '34', '19'] 1341.2500000000011
99 26.825 ['43', '17', '34', '19'] 1341.2500000000011
100 26.825 ['43', '17', '34', '19'] 1341.2500000000011
101 26.825 ['43', '17', '34', '19'] 1341.2500000000011
102 26.825 ['43', '17', '34', '19'] 1341.2500000000011
103 26.825 ['43', '17', '34', '19'] 1341.2500000000011
104 26.825 ['43', '17', '34', '19'] 1341.2500000000011
105 26.825 ['43', '17', '34', '19'] 1341.2500000000011
106 26.825 ['43', '17', '34', '19'] 1341.2500000000011
107 26.825 ['43', '17', '34', '19'] 1341.2500000000011
108 26.825 ['43', '17', '34', '19'] 1341.2500000000011
109 26.825 ['43', '17', '34', '19'] 1341.2500000000011
110 26.825 ['43', '17', '34', '19'] 1341.2500000000011
111 26.825 ['43', '17', '34', '19'] 1341.2500000000011
112 26.825 ['43', '17', '34', '19'] 1341.2500000000011
113 26.825 ['43', '17', '34', '19'] 1341.2500000000011
114 26.825 ['43', '17', '34', '19'] 1341.2500000000011
115 26.825 ['43', '17', '34', '19'] 1341.2500000000011
116 26.825 ['43', '17', '34', '19'] 1341.2500000000011
117 26.825 ['43', '17', '34', '19'] 1341.2500000000011
118 26.825 ['43', '17', '34', '19'] 1341.2500000000011
119 26.825 ['43', '17', '34', '19'] 1341.2500000000011
120 26.825 ['43', '17', '34', '19'] 1341.2500000000011
121 26.825 ['43', '17', '34', '19'] 1341.2500000000011
122 26.825 ['43', '17', '34', '19'] 1341.2500000000011
123 26.825 ['43', '17', '34', '19'] 1341.2500000000011
124 26.825 ['43', '17', '34', '19'] 1341.2500000000011
125 26.825 ['43', '17', '34', '19'] 1341.2500000000011
126 26.825 ['43', '17', '34', '19'] 1341.2500000000011
127 26.825 ['43', '17', '34', '19'] 1341.2500000000011
128 26.825 ['43', '17', '34', '19'] 1341.2500000000011
129 26.825 ['43', '17', '34', '19'] 1341.2500000000011
130 26.825 ['43', '17', '34', '19'] 1341.2500000000011
131 26.825 ['43', '17', '34', '19'] 1341.2500000000011
132 26.825 ['43', '17', '34', '19'] 1341.2500000000011
133 26.825 ['43', '17', '34', '19'] 1341.2500000000011
134 26.825 ['43', '17', '34', '19'] 1341.2500000000011
135 26.825 ['43', '17', '34', '19'] 1341.2500000000011
136 26.825 ['43', '17', '34', '19'] 1341.2500000000011
137 26.825 ['43', '17', '34', '19'] 1341.2500000000011
138 26.825 ['43', '17', '34', '19'] 1341.2500000000011
139 26.825 ['43', '17', '34', '19'] 1341.2500000000011
140 26.825 ['43', '17', '34', '19'] 1341.2500000000011
141 26.825 ['43', '17', '34', '19'] 1341.2500000000011
142 26.825 ['43', '17', '34', '19'] 1341.2500000000011
143 26.825 ['43', '17', '34', '19'] 1341.2500000000011
144 26.825 ['43', '17', '34', '19'] 1341.2500000000011
145 26.825 ['43', '17', '34', '19'] 1341.2500000000011
146 26.825 ['43', '17', '34', '19'] 1341.2500000000011
147 26.825 ['43', '17', '34', '19'] 1341.2500000000011
148 26.825 ['43', '17', '34', '19'] 1341.2500000000011
149 26.825 ['43', '17', '34', '19'] 1341.2500000000011
150 26.825 ['43', '17', '34', '19'] 1341.2500000000011
151 26.825 ['43', '17', '34', '19'] 1341.2500000000011
152 26.825 ['43', '17', '34', '19'] 1341.2500000000011
153 26.825 ['43', '17', '34', '19'] 1341.2500000000011
154 26.825 ['43', '17', '34', '19'] 1341.2500000000011
155 26.825 ['43', '17', '34', '19'] 1341.2500000000011
156 26.825 ['43', '17', '34', '19'] 1341.2500000000011
157 26.825 ['43', '17', '34', '19'] 1341.2500000000011
158 26.825 ['43', '17', '34', '19'] 1341.2500000000011
159 26.825 ['43', '17', '34', '19'] 1341.2500000000011
160 26.825 ['43', '17', '34', '19'] 1341.2500000000011
161 26.825 ['43', '17', '34', '19'] 1341.2500000000011
162 26.825 ['43', '17', '34', '19'] 1341.2500000000011
163 26.825 ['43', '17', '34', '19'] 1341.2500000000011
164 26.825 ['43', '17', '34', '19'] 1341.2500000000011
165 26.825 ['43', '17', '34', '19'] 1341.2500000000011
166 26.825 ['43', '17', '34', '19'] 1341.2500000000011
167 26.825 ['43', '17', '34', '19'] 1341.2500000000011
168 26.825 ['43', '17', '34', '19'] 1341.2500000000011
169 26.825 ['43', '17', '34', '19'] 1341.2500000000011
170 26.825 ['43', '17', '34', '19'] 1341.2500000000011
171 26.825 ['43', '17', '34', '19'] 1341.2500000000011
172 26.825 ['43', '17', '34', '19'] 1341.2500000000011
173 26.825 ['43', '17', '34', '19'] 1341.2500000000011
174 26.825 ['43', '17', '34', '19'] 1341.2500000000011
175 26.825 ['43', '17', '34', '19'] 1341.2500000000011
176 26.825 ['43', '17', '34', '19'] 1341.2500000000011
177 26.825 ['43', '17', '34', '19'] 1341.2500000000011
178 26.825 ['43', '17', '34', '19'] 1341.2500000000011
179 26.825 ['43', '17', '34', '19'] 1341.2500000000011
180 26.825 ['43', '17', '34', '19'] 1341.2500000000011
181 26.825 ['43', '17', '34', '19'] 1341.2500000000011
182 26.825 ['43', '17', '34', '19'] 1341.2500000000011
183 26.825 ['43', '17', '34', '19'] 1341.2500000000011
184 26.825 ['43', '17', '34', '19'] 1341.2500000000011
185 26.825 ['43', '17', '34', '19'] 1341.2500000000011
186 26.825 ['43', '17', '34', '19'] 1341.2500000000011
187 26.825 ['43', '17', '34', '19'] 1341.2500000000011
188 26.825 ['43', '17', '34', '19'] 1341.2500000000011
189 26.825 ['43', '17', '34', '19'] 1341.2500000000011
190 26.825 ['43', '17', '34', '19'] 1341.2500000000011
191 26.825 ['43', '17', '34', '19'] 1341.2500000000011
192 26.825 ['43', '17', '34', '19'] 1341.2500000000011
193 26.825 ['43', '17', '34', '19'] 1341.2500000000011
194 26.825 ['43', '17', '34', '19'] 1341.2500000000011
195 26.825 ['43', '17', '34', '19'] 1341.2500000000011
196 26.825 ['43', '17', '34', '19'] 1341.2500000000011
197 26.825 ['43', '17', '34', '19'] 1341.2500000000011
198 26.825 ['43', '17', '34', '19'] 1341.2500000000011
199 26.825 ['43', '17', '34', '19'] 1341.2500000000011
