0 5.379382716049385 ['125', '141', '46', '2', '111', '122', '149', '84', '76', '129', '109', '97', '96', '115', '10'] 273.03975308641986
1 5.379382716049385 ['125', '141', '46', '2', '111', '122', '149', '84', '76', '129', '109', '97', '96', '115', '10'] 272.122962962963
2 5.3665432098765455 ['122', '136', '141', '111', '81', '84', '42', '75', '91', '97', '131', '85', '129', '123', '125'] 271.2271604938273
3 5.354197530864202 ['66', '139', '7', '114', '71', '76', '99', '128', '59', '23', '147', '61', '123', '70', '132'] 270.20814814814827
4 5.305432098765435 ['70', '66', '139', '82', '39', '76', '20', '122', '101', '22', '136', '75', '18', '115', '24'] 269.54876543209895
5 5.283580246913583 ['123', '136', '85', '70', '71', '84', '128', '61', '132', '7', '114', '125', '76', '81', '122'] 268.586913580247
6 5.270246913580247 ['125', '46', '2', '96', '122', '111', '141', '115', '105', '70', '84', '76', '90', '97', '85'] 267.2783950617284
7 5.264074074074076 ['70', '76', '115', '122', '111', '84', '125', '90', '85', '141', '149', '147', '10', '96', '46'] 266.355925925926
8 5.251975308641976 ['70', '71', '132', '123', '150', '128', '75', '7', '149', '85', '84', '82', '20', '115', '76'] 265.4337037037037
9 5.251975308641976 ['70', '71', '132', '123', '150', '128', '75', '7', '149', '85', '84', '82', '20', '115', '76'] 264.4680246913581
10 5.224691358024692 ['125', '92', '70', '136', '84', '81', '42', '123', '115', '91', '143', '76', '105', '141', '7'] 263.62827160493833
11 5.216913580246913 ['70', '85', '96', '125', '115', '46', '141', '78', '150', '76', '149', '121', '111', '122', '91'] 263.04753086419765
12 5.186913580246915 ['84', '122', '76', '91', '75', '115', '70', '123', '111', '46', '150', '148', '141', '85', '125'] 262.50629629629634
13 5.186913580246915 ['84', '122', '76', '91', '75', '115', '70', '123', '111', '46', '150', '148', '141', '85', '125'] 262.0383950617284
14 5.186913580246915 ['84', '122', '76', '91', '75', '115', '70', '123', '111', '46', '150', '148', '141', '85', '125'] 261.2774074074074
15 5.146913580246916 ['91', '123', '115', '125', '84', '75', '70', '85', '81', '97', '150', '46', '71', '132', '96'] 260.41012345679025
16 5.146913580246916 ['91', '123', '115', '125', '84', '75', '70', '85', '81', '97', '150', '46', '71', '132', '96'] 259.8902469135802
17 5.146913580246916 ['91', '123', '115', '125', '84', '75', '70', '85', '81', '97', '150', '46', '71', '132', '96'] 259.44641975308633
18 5.146913580246916 ['91', '123', '115', '125', '84', '75', '70', '85', '81', '97', '150', '46', '71', '132', '96'] 259.02296296296294
19 5.146913580246916 ['91', '123', '115', '125', '84', '75', '70', '85', '81', '97', '150', '46', '71', '132', '96'] 258.66086419753094
20 5.146913580246916 ['91', '123', '115', '125', '84', '75', '70', '85', '81', '97', '150', '46', '71', '132', '96'] 258.41679012345685
21 5.146913580246916 ['91', '123', '115', '125', '84', '75', '70', '85', '81', '97', '150', '46', '71', '132', '96'] 258.20716049382725
22 5.128024691358027 ['85', '123', '84', '91', '70', '125', '150', '115', '46', '76', '132', '111', '81', '71', '96'] 257.99407407407415
23 5.128024691358027 ['85', '123', '84', '91', '70', '125', '150', '115', '46', '76', '132', '111', '81', '71', '96'] 257.74333333333334
24 5.128024691358027 ['85', '123', '84', '91', '70', '125', '150', '115', '46', '76', '132', '111', '81', '71', '96'] 257.6277777777778
25 5.128024691358027 ['85', '123', '84', '91', '70', '125', '150', '115', '46', '76', '132', '111', '81', '71', '96'] 257.51234567901247
26 5.128024691358027 ['85', '123', '84', '91', '70', '125', '150', '115', '46', '76', '132', '111', '81', '71', '96'] 257.3667901234568
27 5.128024691358027 ['85', '123', '84', '91', '70', '125', '150', '115', '46', '76', '132', '111', '81', '71', '96'] 257.2707407407405
28 5.128024691358027 ['85', '123', '84', '91', '70', '125', '150', '115', '46', '76', '132', '111', '81', '71', '96'] 257.1883950617282
29 5.126913580246918 ['150', '46', '125', '84', '76', '115', '132', '70', '85', '71', '91', '75', '81', '97', '96'] 256.96814814814815
30 5.126913580246918 ['150', '46', '125', '84', '76', '115', '132', '70', '85', '71', '91', '75', '81', '97', '96'] 256.9153086419755
31 5.126913580246918 ['150', '46', '125', '84', '76', '115', '132', '70', '85', '71', '91', '75', '81', '97', '96'] 256.90543209876563
32 5.126913580246918 ['150', '46', '125', '84', '76', '115', '132', '70', '85', '71', '91', '75', '81', '97', '96'] 256.8923456790126
33 5.126913580246918 ['150', '46', '125', '84', '76', '115', '132', '70', '85', '71', '91', '75', '81', '97', '96'] 256.8892592592596
34 5.126913580246918 ['150', '46', '125', '84', '76', '115', '132', '70', '85', '71', '91', '75', '81', '97', '96'] 256.80913580246914
35 5.124938271604941 ['150', '46', '81', '123', '85', '115', '70', '125', '132', '96', '91', '76', '84', '75', '71'] 256.6464197530863
36 5.124938271604941 ['150', '46', '81', '123', '85', '115', '70', '125', '132', '96', '91', '76', '84', '75', '71'] 256.4344444444447
37 5.124938271604941 ['150', '46', '81', '123', '85', '115', '70', '125', '132', '96', '91', '76', '84', '75', '71'] 256.36296296296337
38 5.123827160493829 ['81', '96', '70', '91', '46', '84', '132', '115', '150', '71', '85', '76', '125', '123', '97'] 256.3007407407408
39 5.123827160493829 ['81', '96', '70', '91', '46', '84', '132', '115', '150', '71', '85', '76', '125', '123', '97'] 256.24925925925953
40 5.123827160493829 ['81', '96', '70', '91', '46', '84', '132', '115', '150', '71', '85', '76', '125', '123', '97'] 256.2324691358028
41 5.123827160493829 ['81', '96', '70', '91', '46', '84', '132', '115', '150', '71', '85', '76', '125', '123', '97'] 256.2113580246915
42 5.123827160493829 ['81', '96', '70', '91', '46', '84', '132', '115', '150', '71', '85', '76', '125', '123', '97'] 256.1913580246912
43 5.123827160493829 ['81', '96', '70', '91', '46', '84', '132', '115', '150', '71', '85', '76', '125', '123', '97'] 256.1913580246912
44 5.123827160493829 ['81', '96', '70', '91', '46', '84', '132', '115', '150', '71', '85', '76', '125', '123', '97'] 256.1913580246912
45 5.123827160493829 ['81', '96', '70', '91', '46', '84', '132', '115', '150', '71', '85', '76', '125', '123', '97'] 256.1913580246912
46 5.123827160493829 ['81', '96', '70', '91', '46', '84', '132', '115', '150', '71', '85', '76', '125', '123', '97'] 256.1913580246912
47 5.123827160493829 ['81', '96', '70', '91', '46', '84', '132', '115', '150', '71', '85', '76', '125', '123', '97'] 256.1913580246912
48 5.123827160493829 ['81', '96', '70', '91', '46', '84', '132', '115', '150', '71', '85', '76', '125', '123', '97'] 256.1913580246912
49 5.123827160493829 ['81', '96', '70', '91', '46', '84', '132', '115', '150', '71', '85', '76', '125', '123', '97'] 256.1913580246912
50 5.123827160493829 ['81', '96', '70', '91', '46', '84', '132', '115', '150', '71', '85', '76', '125', '123', '97'] 256.1913580246912
51 5.123827160493829 ['81', '96', '70', '91', '46', '84', '132', '115', '150', '71', '85', '76', '125', '123', '97'] 256.1913580246912
52 5.123827160493829 ['81', '96', '70', '91', '46', '84', '132', '115', '150', '71', '85', '76', '125', '123', '97'] 256.1913580246912
53 5.123827160493829 ['81', '96', '70', '91', '46', '84', '132', '115', '150', '71', '85', '76', '125', '123', '97'] 256.1913580246912
54 5.123827160493829 ['81', '96', '70', '91', '46', '84', '132', '115', '150', '71', '85', '76', '125', '123', '97'] 256.1913580246912
55 5.123827160493829 ['81', '96', '70', '91', '46', '84', '132', '115', '150', '71', '85', '76', '125', '123', '97'] 256.1913580246912
56 5.123827160493829 ['81', '96', '70', '91', '46', '84', '132', '115', '150', '71', '85', '76', '125', '123', '97'] 256.1913580246912
57 5.123827160493829 ['81', '96', '70', '91', '46', '84', '132', '115', '150', '71', '85', '76', '125', '123', '97'] 256.1913580246912
58 5.123827160493829 ['81', '96', '70', '91', '46', '84', '132', '115', '150', '71', '85', '76', '125', '123', '97'] 256.1913580246912
59 5.123827160493829 ['81', '96', '70', '91', '46', '84', '132', '115', '150', '71', '85', '76', '125', '123', '97'] 256.1913580246912
60 5.123827160493829 ['81', '96', '70', '91', '46', '84', '132', '115', '150', '71', '85', '76', '125', '123', '97'] 256.1913580246912
61 5.123827160493829 ['81', '96', '70', '91', '46', '84', '132', '115', '150', '71', '85', '76', '125', '123', '97'] 256.1913580246912
62 5.123827160493829 ['81', '96', '70', '91', '46', '84', '132', '115', '150', '71', '85', '76', '125', '123', '97'] 256.1913580246912
63 5.123827160493829 ['81', '96', '70', '91', '46', '84', '132', '115', '150', '71', '85', '76', '125', '123', '97'] 256.1913580246912
64 5.123827160493829 ['81', '96', '70', '91', '46', '84', '132', '115', '150', '71', '85', '76', '125', '123', '97'] 256.1913580246912
65 5.123827160493829 ['81', '96', '70', '91', '46', '84', '132', '115', '150', '71', '85', '76', '125', '123', '97'] 256.1913580246912
66 5.123827160493829 ['81', '96', '70', '91', '46', '84', '132', '115', '150', '71', '85', '76', '125', '123', '97'] 256.1913580246912
67 5.123827160493829 ['81', '96', '70', '91', '46', '84', '132', '115', '150', '71', '85', '76', '125', '123', '97'] 256.1913580246912
68 5.123827160493829 ['81', '96', '70', '91', '46', '84', '132', '115', '150', '71', '85', '76', '125', '123', '97'] 256.1913580246912
69 5.123827160493829 ['81', '96', '70', '91', '46', '84', '132', '115', '150', '71', '85', '76', '125', '123', '97'] 256.1913580246912
70 5.123827160493829 ['81', '96', '70', '91', '46', '84', '132', '115', '150', '71', '85', '76', '125', '123', '97'] 256.1913580246912
71 5.123827160493829 ['81', '96', '70', '91', '46', '84', '132', '115', '150', '71', '85', '76', '125', '123', '97'] 256.1913580246912
72 5.123827160493829 ['81', '96', '70', '91', '46', '84', '132', '115', '150', '71', '85', '76', '125', '123', '97'] 256.1913580246912
73 5.123827160493829 ['81', '96', '70', '91', '46', '84', '132', '115', '150', '71', '85', '76', '125', '123', '97'] 256.1913580246912
74 5.123827160493829 ['81', '96', '70', '91', '46', '84', '132', '115', '150', '71', '85', '76', '125', '123', '97'] 256.1913580246912
75 5.123827160493829 ['81', '96', '70', '91', '46', '84', '132', '115', '150', '71', '85', '76', '125', '123', '97'] 256.1913580246912
76 5.123827160493829 ['81', '96', '70', '91', '46', '84', '132', '115', '150', '71', '85', '76', '125', '123', '97'] 256.1913580246912
77 5.123827160493829 ['81', '96', '70', '91', '46', '84', '132', '115', '150', '71', '85', '76', '125', '123', '97'] 256.1913580246912
78 5.123827160493829 ['81', '96', '70', '91', '46', '84', '132', '115', '150', '71', '85', '76', '125', '123', '97'] 256.1913580246912
79 5.123827160493829 ['81', '96', '70', '91', '46', '84', '132', '115', '150', '71', '85', '76', '125', '123', '97'] 256.1913580246912
80 5.123827160493829 ['81', '96', '70', '91', '46', '84', '132', '115', '150', '71', '85', '76', '125', '123', '97'] 256.1913580246912
81 5.123827160493829 ['81', '96', '70', '91', '46', '84', '132', '115', '150', '71', '85', '76', '125', '123', '97'] 256.1913580246912
82 5.123827160493829 ['81', '96', '70', '91', '46', '84', '132', '115', '150', '71', '85', '76', '125', '123', '97'] 256.1913580246912
83 5.123827160493829 ['81', '96', '70', '91', '46', '84', '132', '115', '150', '71', '85', '76', '125', '123', '97'] 256.1913580246912
84 5.123827160493829 ['81', '96', '70', '91', '46', '84', '132', '115', '150', '71', '85', '76', '125', '123', '97'] 256.1913580246912
85 5.123827160493829 ['81', '96', '70', '91', '46', '84', '132', '115', '150', '71', '85', '76', '125', '123', '97'] 256.1913580246912
86 5.123827160493829 ['81', '96', '70', '91', '46', '84', '132', '115', '150', '71', '85', '76', '125', '123', '97'] 256.1913580246912
87 5.123827160493829 ['81', '96', '70', '91', '46', '84', '132', '115', '150', '71', '85', '76', '125', '123', '97'] 256.1913580246912
88 5.123827160493829 ['81', '96', '70', '91', '46', '84', '132', '115', '150', '71', '85', '76', '125', '123', '97'] 256.1913580246912
89 5.123827160493829 ['81', '96', '70', '91', '46', '84', '132', '115', '150', '71', '85', '76', '125', '123', '97'] 256.1913580246912
90 5.123827160493829 ['81', '96', '70', '91', '46', '84', '132', '115', '150', '71', '85', '76', '125', '123', '97'] 256.1913580246912
91 5.123827160493829 ['81', '96', '70', '91', '46', '84', '132', '115', '150', '71', '85', '76', '125', '123', '97'] 256.1913580246912
92 5.123827160493829 ['81', '96', '70', '91', '46', '84', '132', '115', '150', '71', '85', '76', '125', '123', '97'] 256.1913580246912
93 5.123827160493829 ['81', '96', '70', '91', '46', '84', '132', '115', '150', '71', '85', '76', '125', '123', '97'] 256.1913580246912
94 5.123827160493829 ['81', '96', '70', '91', '46', '84', '132', '115', '150', '71', '85', '76', '125', '123', '97'] 256.1913580246912
95 5.123827160493829 ['81', '96', '70', '91', '46', '84', '132', '115', '150', '71', '85', '76', '125', '123', '97'] 256.1913580246912
96 5.123827160493829 ['81', '96', '70', '91', '46', '84', '132', '115', '150', '71', '85', '76', '125', '123', '97'] 256.1913580246912
97 5.123827160493829 ['81', '96', '70', '91', '46', '84', '132', '115', '150', '71', '85', '76', '125', '123', '97'] 256.1913580246912
98 5.123827160493829 ['81', '96', '70', '91', '46', '84', '132', '115', '150', '71', '85', '76', '125', '123', '97'] 256.1913580246912
99 5.123827160493829 ['81', '96', '70', '91', '46', '84', '132', '115', '150', '71', '85', '76', '125', '123', '97'] 256.1913580246912
100 5.123827160493829 ['81', '96', '70', '91', '46', '84', '132', '115', '150', '71', '85', '76', '125', '123', '97'] 256.1913580246912
101 5.123827160493829 ['81', '96', '70', '91', '46', '84', '132', '115', '150', '71', '85', '76', '125', '123', '97'] 256.1913580246912
102 5.123827160493829 ['81', '96', '70', '91', '46', '84', '132', '115', '150', '71', '85', '76', '125', '123', '97'] 256.1913580246912
103 5.123827160493829 ['81', '96', '70', '91', '46', '84', '132', '115', '150', '71', '85', '76', '125', '123', '97'] 256.1913580246912
104 5.123827160493829 ['81', '96', '70', '91', '46', '84', '132', '115', '150', '71', '85', '76', '125', '123', '97'] 256.1913580246912
105 5.123827160493829 ['81', '96', '70', '91', '46', '84', '132', '115', '150', '71', '85', '76', '125', '123', '97'] 256.1913580246912
106 5.123827160493829 ['81', '96', '70', '91', '46', '84', '132', '115', '150', '71', '85', '76', '125', '123', '97'] 256.1913580246912
107 5.123827160493829 ['81', '96', '70', '91', '46', '84', '132', '115', '150', '71', '85', '76', '125', '123', '97'] 256.1913580246912
108 5.123827160493829 ['81', '96', '70', '91', '46', '84', '132', '115', '150', '71', '85', '76', '125', '123', '97'] 256.1913580246912
109 5.123827160493829 ['81', '96', '70', '91', '46', '84', '132', '115', '150', '71', '85', '76', '125', '123', '97'] 256.1913580246912
110 5.123827160493829 ['81', '96', '70', '91', '46', '84', '132', '115', '150', '71', '85', '76', '125', '123', '97'] 256.1913580246912
111 5.123827160493829 ['81', '96', '70', '91', '46', '84', '132', '115', '150', '71', '85', '76', '125', '123', '97'] 256.1913580246912
112 5.123827160493829 ['81', '96', '70', '91', '46', '84', '132', '115', '150', '71', '85', '76', '125', '123', '97'] 256.1913580246912
113 5.123827160493829 ['81', '96', '70', '91', '46', '84', '132', '115', '150', '71', '85', '76', '125', '123', '97'] 256.1913580246912
114 5.123827160493829 ['81', '96', '70', '91', '46', '84', '132', '115', '150', '71', '85', '76', '125', '123', '97'] 256.1913580246912
115 5.123827160493829 ['81', '96', '70', '91', '46', '84', '132', '115', '150', '71', '85', '76', '125', '123', '97'] 256.1913580246912
116 5.123827160493829 ['81', '96', '70', '91', '46', '84', '132', '115', '150', '71', '85', '76', '125', '123', '97'] 256.1913580246912
117 5.123827160493829 ['81', '96', '70', '91', '46', '84', '132', '115', '150', '71', '85', '76', '125', '123', '97'] 256.1913580246912
118 5.123827160493829 ['81', '96', '70', '91', '46', '84', '132', '115', '150', '71', '85', '76', '125', '123', '97'] 256.1913580246912
119 5.123827160493829 ['81', '96', '70', '91', '46', '84', '132', '115', '150', '71', '85', '76', '125', '123', '97'] 256.1913580246912
120 5.123827160493829 ['81', '96', '70', '91', '46', '84', '132', '115', '150', '71', '85', '76', '125', '123', '97'] 256.1913580246912
121 5.123827160493829 ['81', '96', '70', '91', '46', '84', '132', '115', '150', '71', '85', '76', '125', '123', '97'] 256.1913580246912
122 5.123827160493829 ['81', '96', '70', '91', '46', '84', '132', '115', '150', '71', '85', '76', '125', '123', '97'] 256.1913580246912
123 5.123827160493829 ['81', '96', '70', '91', '46', '84', '132', '115', '150', '71', '85', '76', '125', '123', '97'] 256.1913580246912
124 5.123827160493829 ['81', '96', '70', '91', '46', '84', '132', '115', '150', '71', '85', '76', '125', '123', '97'] 256.1913580246912
125 5.123827160493829 ['81', '96', '70', '91', '46', '84', '132', '115', '150', '71', '85', '76', '125', '123', '97'] 256.1913580246912
126 5.123827160493829 ['81', '96', '70', '91', '46', '84', '132', '115', '150', '71', '85', '76', '125', '123', '97'] 256.1913580246912
127 5.123827160493829 ['81', '96', '70', '91', '46', '84', '132', '115', '150', '71', '85', '76', '125', '123', '97'] 256.1913580246912
128 5.123827160493829 ['81', '96', '70', '91', '46', '84', '132', '115', '150', '71', '85', '76', '125', '123', '97'] 256.1913580246912
129 5.123827160493829 ['81', '96', '70', '91', '46', '84', '132', '115', '150', '71', '85', '76', '125', '123', '97'] 256.1913580246912
130 5.123827160493829 ['81', '96', '70', '91', '46', '84', '132', '115', '150', '71', '85', '76', '125', '123', '97'] 256.1913580246912
131 5.123827160493829 ['81', '96', '70', '91', '46', '84', '132', '115', '150', '71', '85', '76', '125', '123', '97'] 256.1913580246912
132 5.123827160493829 ['81', '96', '70', '91', '46', '84', '132', '115', '150', '71', '85', '76', '125', '123', '97'] 256.1913580246912
133 5.123827160493829 ['81', '96', '70', '91', '46', '84', '132', '115', '150', '71', '85', '76', '125', '123', '97'] 256.1913580246912
134 5.123827160493829 ['81', '96', '70', '91', '46', '84', '132', '115', '150', '71', '85', '76', '125', '123', '97'] 256.1913580246912
135 5.123827160493829 ['81', '96', '70', '91', '46', '84', '132', '115', '150', '71', '85', '76', '125', '123', '97'] 256.1913580246912
136 5.123827160493829 ['81', '96', '70', '91', '46', '84', '132', '115', '150', '71', '85', '76', '125', '123', '97'] 256.1913580246912
137 5.123827160493829 ['81', '96', '70', '91', '46', '84', '132', '115', '150', '71', '85', '76', '125', '123', '97'] 256.1913580246912
138 5.123827160493829 ['81', '96', '70', '91', '46', '84', '132', '115', '150', '71', '85', '76', '125', '123', '97'] 256.1913580246912
139 5.123827160493829 ['81', '96', '70', '91', '46', '84', '132', '115', '150', '71', '85', '76', '125', '123', '97'] 256.1913580246912
140 5.123827160493829 ['81', '96', '70', '91', '46', '84', '132', '115', '150', '71', '85', '76', '125', '123', '97'] 256.1913580246912
141 5.123827160493829 ['81', '96', '70', '91', '46', '84', '132', '115', '150', '71', '85', '76', '125', '123', '97'] 256.1913580246912
142 5.123827160493829 ['81', '96', '70', '91', '46', '84', '132', '115', '150', '71', '85', '76', '125', '123', '97'] 256.1913580246912
143 5.123827160493829 ['81', '96', '70', '91', '46', '84', '132', '115', '150', '71', '85', '76', '125', '123', '97'] 256.1913580246912
144 5.123827160493829 ['81', '96', '70', '91', '46', '84', '132', '115', '150', '71', '85', '76', '125', '123', '97'] 256.1913580246912
145 5.123827160493829 ['81', '96', '70', '91', '46', '84', '132', '115', '150', '71', '85', '76', '125', '123', '97'] 256.1913580246912
146 5.123827160493829 ['81', '96', '70', '91', '46', '84', '132', '115', '150', '71', '85', '76', '125', '123', '97'] 256.1913580246912
147 5.123827160493829 ['81', '96', '70', '91', '46', '84', '132', '115', '150', '71', '85', '76', '125', '123', '97'] 256.1913580246912
148 5.123827160493829 ['81', '96', '70', '91', '46', '84', '132', '115', '150', '71', '85', '76', '125', '123', '97'] 256.1913580246912
149 5.123827160493829 ['81', '96', '70', '91', '46', '84', '132', '115', '150', '71', '85', '76', '125', '123', '97'] 256.1913580246912
150 5.123827160493829 ['81', '96', '70', '91', '46', '84', '132', '115', '150', '71', '85', '76', '125', '123', '97'] 256.1913580246912
151 5.123827160493829 ['81', '96', '70', '91', '46', '84', '132', '115', '150', '71', '85', '76', '125', '123', '97'] 256.1913580246912
152 5.123827160493829 ['81', '96', '70', '91', '46', '84', '132', '115', '150', '71', '85', '76', '125', '123', '97'] 256.1913580246912
153 5.123827160493829 ['81', '96', '70', '91', '46', '84', '132', '115', '150', '71', '85', '76', '125', '123', '97'] 256.1913580246912
154 5.123827160493829 ['81', '96', '70', '91', '46', '84', '132', '115', '150', '71', '85', '76', '125', '123', '97'] 256.1913580246912
155 5.123827160493829 ['81', '96', '70', '91', '46', '84', '132', '115', '150', '71', '85', '76', '125', '123', '97'] 256.1913580246912
156 5.123827160493829 ['81', '96', '70', '91', '46', '84', '132', '115', '150', '71', '85', '76', '125', '123', '97'] 256.1913580246912
157 5.123827160493829 ['81', '96', '70', '91', '46', '84', '132', '115', '150', '71', '85', '76', '125', '123', '97'] 256.1913580246912
158 5.123827160493829 ['81', '96', '70', '91', '46', '84', '132', '115', '150', '71', '85', '76', '125', '123', '97'] 256.1913580246912
159 5.123827160493829 ['81', '96', '70', '91', '46', '84', '132', '115', '150', '71', '85', '76', '125', '123', '97'] 256.1913580246912
160 5.123827160493829 ['81', '96', '70', '91', '46', '84', '132', '115', '150', '71', '85', '76', '125', '123', '97'] 256.1913580246912
161 5.123827160493829 ['81', '96', '70', '91', '46', '84', '132', '115', '150', '71', '85', '76', '125', '123', '97'] 256.1913580246912
162 5.123827160493829 ['81', '96', '70', '91', '46', '84', '132', '115', '150', '71', '85', '76', '125', '123', '97'] 256.1913580246912
163 5.123827160493829 ['81', '96', '70', '91', '46', '84', '132', '115', '150', '71', '85', '76', '125', '123', '97'] 256.1913580246912
164 5.123827160493829 ['81', '96', '70', '91', '46', '84', '132', '115', '150', '71', '85', '76', '125', '123', '97'] 256.1913580246912
165 5.123827160493829 ['81', '96', '70', '91', '46', '84', '132', '115', '150', '71', '85', '76', '125', '123', '97'] 256.1913580246912
166 5.123827160493829 ['81', '96', '70', '91', '46', '84', '132', '115', '150', '71', '85', '76', '125', '123', '97'] 256.1913580246912
167 5.123827160493829 ['81', '96', '70', '91', '46', '84', '132', '115', '150', '71', '85', '76', '125', '123', '97'] 256.1913580246912
168 5.123827160493829 ['81', '96', '70', '91', '46', '84', '132', '115', '150', '71', '85', '76', '125', '123', '97'] 256.1913580246912
169 5.123827160493829 ['81', '96', '70', '91', '46', '84', '132', '115', '150', '71', '85', '76', '125', '123', '97'] 256.1913580246912
170 5.123827160493829 ['81', '96', '70', '91', '46', '84', '132', '115', '150', '71', '85', '76', '125', '123', '97'] 256.1913580246912
171 5.123827160493829 ['81', '96', '70', '91', '46', '84', '132', '115', '150', '71', '85', '76', '125', '123', '97'] 256.1913580246912
172 5.123827160493829 ['81', '96', '70', '91', '46', '84', '132', '115', '150', '71', '85', '76', '125', '123', '97'] 256.1913580246912
173 5.123827160493829 ['81', '96', '70', '91', '46', '84', '132', '115', '150', '71', '85', '76', '125', '123', '97'] 256.1913580246912
174 5.123827160493829 ['81', '96', '70', '91', '46', '84', '132', '115', '150', '71', '85', '76', '125', '123', '97'] 256.1913580246912
175 5.123827160493829 ['81', '96', '70', '91', '46', '84', '132', '115', '150', '71', '85', '76', '125', '123', '97'] 256.1913580246912
176 5.123827160493829 ['81', '96', '70', '91', '46', '84', '132', '115', '150', '71', '85', '76', '125', '123', '97'] 256.1913580246912
177 5.123827160493829 ['81', '96', '70', '91', '46', '84', '132', '115', '150', '71', '85', '76', '125', '123', '97'] 256.1913580246912
178 5.123827160493829 ['81', '96', '70', '91', '46', '84', '132', '115', '150', '71', '85', '76', '125', '123', '97'] 256.1913580246912
179 5.123827160493829 ['81', '96', '70', '91', '46', '84', '132', '115', '150', '71', '85', '76', '125', '123', '97'] 256.1913580246912
180 5.123827160493829 ['81', '96', '70', '91', '46', '84', '132', '115', '150', '71', '85', '76', '125', '123', '97'] 256.1913580246912
181 5.123827160493829 ['81', '96', '70', '91', '46', '84', '132', '115', '150', '71', '85', '76', '125', '123', '97'] 256.1913580246912
182 5.123827160493829 ['81', '96', '70', '91', '46', '84', '132', '115', '150', '71', '85', '76', '125', '123', '97'] 256.1913580246912
183 5.123827160493829 ['81', '96', '70', '91', '46', '84', '132', '115', '150', '71', '85', '76', '125', '123', '97'] 256.1913580246912
184 5.123827160493829 ['81', '96', '70', '91', '46', '84', '132', '115', '150', '71', '85', '76', '125', '123', '97'] 256.1913580246912
185 5.123827160493829 ['81', '96', '70', '91', '46', '84', '132', '115', '150', '71', '85', '76', '125', '123', '97'] 256.1913580246912
186 5.123827160493829 ['81', '96', '70', '91', '46', '84', '132', '115', '150', '71', '85', '76', '125', '123', '97'] 256.1913580246912
187 5.123827160493829 ['81', '96', '70', '91', '46', '84', '132', '115', '150', '71', '85', '76', '125', '123', '97'] 256.1913580246912
188 5.123827160493829 ['81', '96', '70', '91', '46', '84', '132', '115', '150', '71', '85', '76', '125', '123', '97'] 256.1913580246912
189 5.123827160493829 ['81', '96', '70', '91', '46', '84', '132', '115', '150', '71', '85', '76', '125', '123', '97'] 256.1913580246912
190 5.123827160493829 ['81', '96', '70', '91', '46', '84', '132', '115', '150', '71', '85', '76', '125', '123', '97'] 256.1913580246912
191 5.123827160493829 ['81', '96', '70', '91', '46', '84', '132', '115', '150', '71', '85', '76', '125', '123', '97'] 256.1913580246912
192 5.123827160493829 ['81', '96', '70', '91', '46', '84', '132', '115', '150', '71', '85', '76', '125', '123', '97'] 256.1913580246912
193 5.123827160493829 ['81', '96', '70', '91', '46', '84', '132', '115', '150', '71', '85', '76', '125', '123', '97'] 256.1913580246912
194 5.123827160493829 ['81', '96', '70', '91', '46', '84', '132', '115', '150', '71', '85', '76', '125', '123', '97'] 256.1913580246912
195 5.123827160493829 ['81', '96', '70', '91', '46', '84', '132', '115', '150', '71', '85', '76', '125', '123', '97'] 256.1913580246912
196 5.123827160493829 ['81', '96', '70', '91', '46', '84', '132', '115', '150', '71', '85', '76', '125', '123', '97'] 256.1913580246912
197 5.123827160493829 ['81', '96', '70', '91', '46', '84', '132', '115', '150', '71', '85', '76', '125', '123', '97'] 256.1913580246912
198 5.123827160493829 ['81', '96', '70', '91', '46', '84', '132', '115', '150', '71', '85', '76', '125', '123', '97'] 256.1913580246912
199 5.123827160493829 ['81', '96', '70', '91', '46', '84', '132', '115', '150', '71', '85', '76', '125', '123', '97'] 256.1913580246912
