0 5.39320987654321 ['19', '90', '16', '140', '13', '138', '56', '132', '48', '74', '93', '120', '85', '46', '23'] 273.26218106995884
1 5.362716049382717 ['46', '16', '140', '147', '23', '135', '132', '101', '71', '119', '58', '35', '133', '73', '126'] 272.1447736625515
2 5.316790123456791 ['78', '52', '109', '74', '144', '89', '149', '147', '17', '25', '46', '19', '42', '133', '140'] 271.00094650205756
3 5.316790123456791 ['78', '52', '109', '74', '144', '89', '149', '147', '17', '25', '46', '19', '42', '133', '140'] 270.3829218106995
4 5.316790123456791 ['78', '52', '109', '74', '144', '89', '149', '147', '17', '25', '46', '19', '42', '133', '140'] 269.6803703703703
5 5.279506172839507 ['140', '133', '46', '141', '48', '89', '149', '52', '42', '74', '109', '78', '55', '144', '147'] 268.61913580246926
6 5.253703703703703 ['140', '149', '138', '139', '133', '89', '144', '74', '135', '147', '78', '48', '123', '141', '52'] 267.9034567901234
7 5.244938271604937 ['147', '140', '133', '17', '150', '109', '56', '41', '89', '88', '135', '25', '144', '48', '23'] 267.0674074074074
8 5.244938271604937 ['147', '140', '133', '17', '150', '109', '56', '41', '89', '88', '135', '25', '144', '48', '23'] 266.1649382716049
9 5.216790123456788 ['135', '48', '147', '140', '41', '85', '128', '56', '42', '109', '16', '99', '74', '58', '111'] 264.80209876543216
10 5.205555555555555 ['119', '48', '139', '133', '135', '147', '140', '138', '73', '74', '111', '141', '144', '16', '123'] 263.713950617284
11 5.178888888888887 ['111', '140', '48', '74', '109', '42', '150', '132', '133', '122', '16', '88', '41', '135', '147'] 262.5583950617283
12 5.1708641975308645 ['41', '150', '147', '140', '74', '111', '16', '109', '48', '128', '110', '42', '122', '123', '135'] 261.65086419753084
13 5.152345679012343 ['150', '147', '133', '140', '113', '135', '139', '41', '94', '109', '88', '122', '89', '128', '48'] 260.7911111111111
14 5.145925925925923 ['41', '133', '109', '88', '122', '113', '135', '140', '48', '150', '139', '94', '147', '128', '119'] 259.9849382716048
15 5.131728395061728 ['111', '41', '109', '48', '88', '74', '147', '16', '140', '150', '52', '42', '99', '135', '23'] 259.3544444444444
16 5.1049382716049365 ['140', '147', '109', '41', '150', '88', '16', '110', '138', '48', '52', '111', '74', '113', '122'] 258.49086419753087
17 5.0891358024691336 ['111', '16', '140', '150', '147', '88', '41', '109', '110', '74', '113', '122', '48', '73', '42'] 257.60456790123453
18 5.0891358024691336 ['111', '16', '140', '150', '147', '88', '41', '109', '110', '74', '113', '122', '48', '73', '42'] 256.7406172839505
19 5.08827160493827 ['16', '147', '48', '74', '41', '140', '150', '109', '110', '113', '52', '111', '88', '73', '122'] 255.91543209876525
20 5.060617283950616 ['74', '150', '111', '140', '110', '147', '48', '109', '16', '41', '99', '113', '128', '122', '88'] 255.30629629629624
21 5.060617283950616 ['74', '150', '111', '140', '110', '147', '48', '109', '16', '41', '99', '113', '128', '122', '88'] 254.8876543209875
22 5.060617283950616 ['74', '150', '111', '140', '110', '147', '48', '109', '16', '41', '99', '113', '128', '122', '88'] 254.54839506172823
23 5.060617283950616 ['74', '150', '111', '140', '110', '147', '48', '109', '16', '41', '99', '113', '128', '122', '88'] 254.14024691358028
24 5.060617283950616 ['74', '150', '111', '140', '110', '147', '48', '109', '16', '41', '99', '113', '128', '122', '88'] 253.87469135802462
25 5.060617283950616 ['74', '150', '111', '140', '110', '147', '48', '109', '16', '41', '99', '113', '128', '122', '88'] 253.49469135802448
26 5.060617283950616 ['74', '150', '111', '140', '110', '147', '48', '109', '16', '41', '99', '113', '128', '122', '88'] 253.23530864197525
27 5.053950617283949 ['88', '122', '99', '74', '140', '147', '41', '150', '113', '16', '111', '109', '48', '128', '73'] 253.0485185185182
28 5.053950617283949 ['88', '122', '99', '74', '140', '147', '41', '150', '113', '16', '111', '109', '48', '128', '73'] 252.98851851851836
29 5.053950617283949 ['88', '122', '99', '74', '140', '147', '41', '150', '113', '16', '111', '109', '48', '128', '73'] 252.9041975308642
30 5.053950617283949 ['88', '122', '99', '74', '140', '147', '41', '150', '113', '16', '111', '109', '48', '128', '73'] 252.78419753086422
31 5.053950617283949 ['88', '122', '99', '74', '140', '147', '41', '150', '113', '16', '111', '109', '48', '128', '73'] 252.69753086419763
32 5.053950617283949 ['88', '122', '99', '74', '140', '147', '41', '150', '113', '16', '111', '109', '48', '128', '73'] 252.69753086419763
33 5.053950617283949 ['88', '122', '99', '74', '140', '147', '41', '150', '113', '16', '111', '109', '48', '128', '73'] 252.69753086419763
34 5.053950617283949 ['88', '122', '99', '74', '140', '147', '41', '150', '113', '16', '111', '109', '48', '128', '73'] 252.69753086419763
35 5.053950617283949 ['88', '122', '99', '74', '140', '147', '41', '150', '113', '16', '111', '109', '48', '128', '73'] 252.69753086419763
36 5.053950617283949 ['88', '122', '99', '74', '140', '147', '41', '150', '113', '16', '111', '109', '48', '128', '73'] 252.69753086419763
37 5.053950617283949 ['88', '122', '99', '74', '140', '147', '41', '150', '113', '16', '111', '109', '48', '128', '73'] 252.69753086419763
38 5.053950617283949 ['88', '122', '99', '74', '140', '147', '41', '150', '113', '16', '111', '109', '48', '128', '73'] 252.69753086419763
39 5.053950617283949 ['88', '122', '99', '74', '140', '147', '41', '150', '113', '16', '111', '109', '48', '128', '73'] 252.69753086419763
40 5.053950617283949 ['88', '122', '99', '74', '140', '147', '41', '150', '113', '16', '111', '109', '48', '128', '73'] 252.69753086419763
41 5.053950617283949 ['88', '122', '99', '74', '140', '147', '41', '150', '113', '16', '111', '109', '48', '128', '73'] 252.69753086419763
42 5.053950617283949 ['88', '122', '99', '74', '140', '147', '41', '150', '113', '16', '111', '109', '48', '128', '73'] 252.69753086419763
43 5.053950617283949 ['88', '122', '99', '74', '140', '147', '41', '150', '113', '16', '111', '109', '48', '128', '73'] 252.69753086419763
44 5.053950617283949 ['88', '122', '99', '74', '140', '147', '41', '150', '113', '16', '111', '109', '48', '128', '73'] 252.69753086419763
45 5.053950617283949 ['88', '122', '99', '74', '140', '147', '41', '150', '113', '16', '111', '109', '48', '128', '73'] 252.69753086419763
46 5.053950617283949 ['88', '122', '99', '74', '140', '147', '41', '150', '113', '16', '111', '109', '48', '128', '73'] 252.69753086419763
47 5.053950617283949 ['88', '122', '99', '74', '140', '147', '41', '150', '113', '16', '111', '109', '48', '128', '73'] 252.69753086419763
48 5.053950617283949 ['88', '122', '99', '74', '140', '147', '41', '150', '113', '16', '111', '109', '48', '128', '73'] 252.69753086419763
49 5.053950617283949 ['88', '122', '99', '74', '140', '147', '41', '150', '113', '16', '111', '109', '48', '128', '73'] 252.69753086419763
50 5.053950617283949 ['88', '122', '99', '74', '140', '147', '41', '150', '113', '16', '111', '109', '48', '128', '73'] 252.69753086419763
51 5.053950617283949 ['88', '122', '99', '74', '140', '147', '41', '150', '113', '16', '111', '109', '48', '128', '73'] 252.69753086419763
52 5.053950617283949 ['88', '122', '99', '74', '140', '147', '41', '150', '113', '16', '111', '109', '48', '128', '73'] 252.69753086419763
53 5.053950617283949 ['88', '122', '99', '74', '140', '147', '41', '150', '113', '16', '111', '109', '48', '128', '73'] 252.69753086419763
54 5.053950617283949 ['88', '122', '99', '74', '140', '147', '41', '150', '113', '16', '111', '109', '48', '128', '73'] 252.69753086419763
55 5.053950617283949 ['88', '122', '99', '74', '140', '147', '41', '150', '113', '16', '111', '109', '48', '128', '73'] 252.69753086419763
56 5.053950617283949 ['88', '122', '99', '74', '140', '147', '41', '150', '113', '16', '111', '109', '48', '128', '73'] 252.69753086419763
57 5.053950617283949 ['88', '122', '99', '74', '140', '147', '41', '150', '113', '16', '111', '109', '48', '128', '73'] 252.69753086419763
58 5.053950617283949 ['88', '122', '99', '74', '140', '147', '41', '150', '113', '16', '111', '109', '48', '128', '73'] 252.69753086419763
59 5.053950617283949 ['88', '122', '99', '74', '140', '147', '41', '150', '113', '16', '111', '109', '48', '128', '73'] 252.69753086419763
60 5.053950617283949 ['88', '122', '99', '74', '140', '147', '41', '150', '113', '16', '111', '109', '48', '128', '73'] 252.69753086419763
61 5.053950617283949 ['88', '122', '99', '74', '140', '147', '41', '150', '113', '16', '111', '109', '48', '128', '73'] 252.69753086419763
62 5.053950617283949 ['88', '122', '99', '74', '140', '147', '41', '150', '113', '16', '111', '109', '48', '128', '73'] 252.69753086419763
63 5.053950617283949 ['88', '122', '99', '74', '140', '147', '41', '150', '113', '16', '111', '109', '48', '128', '73'] 252.69753086419763
64 5.053950617283949 ['88', '122', '99', '74', '140', '147', '41', '150', '113', '16', '111', '109', '48', '128', '73'] 252.69753086419763
65 5.053950617283949 ['88', '122', '99', '74', '140', '147', '41', '150', '113', '16', '111', '109', '48', '128', '73'] 252.69753086419763
66 5.053950617283949 ['88', '122', '99', '74', '140', '147', '41', '150', '113', '16', '111', '109', '48', '128', '73'] 252.69753086419763
67 5.053950617283949 ['88', '122', '99', '74', '140', '147', '41', '150', '113', '16', '111', '109', '48', '128', '73'] 252.69753086419763
68 5.053950617283949 ['88', '122', '99', '74', '140', '147', '41', '150', '113', '16', '111', '109', '48', '128', '73'] 252.69753086419763
69 5.053950617283949 ['88', '122', '99', '74', '140', '147', '41', '150', '113', '16', '111', '109', '48', '128', '73'] 252.69753086419763
70 5.053950617283949 ['88', '122', '99', '74', '140', '147', '41', '150', '113', '16', '111', '109', '48', '128', '73'] 252.69753086419763
71 5.053950617283949 ['88', '122', '99', '74', '140', '147', '41', '150', '113', '16', '111', '109', '48', '128', '73'] 252.69753086419763
72 5.053950617283949 ['88', '122', '99', '74', '140', '147', '41', '150', '113', '16', '111', '109', '48', '128', '73'] 252.69753086419763
73 5.053950617283949 ['88', '122', '99', '74', '140', '147', '41', '150', '113', '16', '111', '109', '48', '128', '73'] 252.69753086419763
74 5.053950617283949 ['88', '122', '99', '74', '140', '147', '41', '150', '113', '16', '111', '109', '48', '128', '73'] 252.69753086419763
75 5.053950617283949 ['88', '122', '99', '74', '140', '147', '41', '150', '113', '16', '111', '109', '48', '128', '73'] 252.69753086419763
76 5.053950617283949 ['88', '122', '99', '74', '140', '147', '41', '150', '113', '16', '111', '109', '48', '128', '73'] 252.69753086419763
77 5.053950617283949 ['88', '122', '99', '74', '140', '147', '41', '150', '113', '16', '111', '109', '48', '128', '73'] 252.69753086419763
78 5.053950617283949 ['88', '122', '99', '74', '140', '147', '41', '150', '113', '16', '111', '109', '48', '128', '73'] 252.69753086419763
79 5.053950617283949 ['88', '122', '99', '74', '140', '147', '41', '150', '113', '16', '111', '109', '48', '128', '73'] 252.69753086419763
80 5.053950617283949 ['88', '122', '99', '74', '140', '147', '41', '150', '113', '16', '111', '109', '48', '128', '73'] 252.69753086419763
81 5.053950617283949 ['88', '122', '99', '74', '140', '147', '41', '150', '113', '16', '111', '109', '48', '128', '73'] 252.69753086419763
82 5.053950617283949 ['88', '122', '99', '74', '140', '147', '41', '150', '113', '16', '111', '109', '48', '128', '73'] 252.69753086419763
83 5.053950617283949 ['88', '122', '99', '74', '140', '147', '41', '150', '113', '16', '111', '109', '48', '128', '73'] 252.69753086419763
84 5.053950617283949 ['88', '122', '99', '74', '140', '147', '41', '150', '113', '16', '111', '109', '48', '128', '73'] 252.69753086419763
85 5.053950617283949 ['88', '122', '99', '74', '140', '147', '41', '150', '113', '16', '111', '109', '48', '128', '73'] 252.69753086419763
86 5.053950617283949 ['88', '122', '99', '74', '140', '147', '41', '150', '113', '16', '111', '109', '48', '128', '73'] 252.69753086419763
87 5.053950617283949 ['88', '122', '99', '74', '140', '147', '41', '150', '113', '16', '111', '109', '48', '128', '73'] 252.69753086419763
88 5.053950617283949 ['88', '122', '99', '74', '140', '147', '41', '150', '113', '16', '111', '109', '48', '128', '73'] 252.69753086419763
89 5.053950617283949 ['88', '122', '99', '74', '140', '147', '41', '150', '113', '16', '111', '109', '48', '128', '73'] 252.69753086419763
90 5.053950617283949 ['88', '122', '99', '74', '140', '147', '41', '150', '113', '16', '111', '109', '48', '128', '73'] 252.69753086419763
91 5.053950617283949 ['88', '122', '99', '74', '140', '147', '41', '150', '113', '16', '111', '109', '48', '128', '73'] 252.69753086419763
92 5.053950617283949 ['88', '122', '99', '74', '140', '147', '41', '150', '113', '16', '111', '109', '48', '128', '73'] 252.69753086419763
93 5.053950617283949 ['88', '122', '99', '74', '140', '147', '41', '150', '113', '16', '111', '109', '48', '128', '73'] 252.69753086419763
94 5.053950617283949 ['88', '122', '99', '74', '140', '147', '41', '150', '113', '16', '111', '109', '48', '128', '73'] 252.69753086419763
95 5.053950617283949 ['88', '122', '99', '74', '140', '147', '41', '150', '113', '16', '111', '109', '48', '128', '73'] 252.69753086419763
96 5.053950617283949 ['88', '122', '99', '74', '140', '147', '41', '150', '113', '16', '111', '109', '48', '128', '73'] 252.69753086419763
97 5.053950617283949 ['88', '122', '99', '74', '140', '147', '41', '150', '113', '16', '111', '109', '48', '128', '73'] 252.69753086419763
98 5.053950617283949 ['88', '122', '99', '74', '140', '147', '41', '150', '113', '16', '111', '109', '48', '128', '73'] 252.69753086419763
99 5.053950617283949 ['88', '122', '99', '74', '140', '147', '41', '150', '113', '16', '111', '109', '48', '128', '73'] 252.69753086419763
100 5.053950617283949 ['88', '122', '99', '74', '140', '147', '41', '150', '113', '16', '111', '109', '48', '128', '73'] 252.69753086419763
101 5.053950617283949 ['88', '122', '99', '74', '140', '147', '41', '150', '113', '16', '111', '109', '48', '128', '73'] 252.69753086419763
102 5.053950617283949 ['88', '122', '99', '74', '140', '147', '41', '150', '113', '16', '111', '109', '48', '128', '73'] 252.69753086419763
103 5.053950617283949 ['88', '122', '99', '74', '140', '147', '41', '150', '113', '16', '111', '109', '48', '128', '73'] 252.69753086419763
104 5.053950617283949 ['88', '122', '99', '74', '140', '147', '41', '150', '113', '16', '111', '109', '48', '128', '73'] 252.69753086419763
105 5.053950617283949 ['88', '122', '99', '74', '140', '147', '41', '150', '113', '16', '111', '109', '48', '128', '73'] 252.69753086419763
106 5.053950617283949 ['88', '122', '99', '74', '140', '147', '41', '150', '113', '16', '111', '109', '48', '128', '73'] 252.69753086419763
107 5.053950617283949 ['88', '122', '99', '74', '140', '147', '41', '150', '113', '16', '111', '109', '48', '128', '73'] 252.69753086419763
108 5.053950617283949 ['88', '122', '99', '74', '140', '147', '41', '150', '113', '16', '111', '109', '48', '128', '73'] 252.69753086419763
109 5.053950617283949 ['88', '122', '99', '74', '140', '147', '41', '150', '113', '16', '111', '109', '48', '128', '73'] 252.69753086419763
110 5.053950617283949 ['88', '122', '99', '74', '140', '147', '41', '150', '113', '16', '111', '109', '48', '128', '73'] 252.69753086419763
111 5.053950617283949 ['88', '122', '99', '74', '140', '147', '41', '150', '113', '16', '111', '109', '48', '128', '73'] 252.69753086419763
112 5.053950617283949 ['88', '122', '99', '74', '140', '147', '41', '150', '113', '16', '111', '109', '48', '128', '73'] 252.69753086419763
113 5.053950617283949 ['88', '122', '99', '74', '140', '147', '41', '150', '113', '16', '111', '109', '48', '128', '73'] 252.69753086419763
114 5.053950617283949 ['88', '122', '99', '74', '140', '147', '41', '150', '113', '16', '111', '109', '48', '128', '73'] 252.69753086419763
115 5.053950617283949 ['88', '122', '99', '74', '140', '147', '41', '150', '113', '16', '111', '109', '48', '128', '73'] 252.69753086419763
116 5.053950617283949 ['88', '122', '99', '74', '140', '147', '41', '150', '113', '16', '111', '109', '48', '128', '73'] 252.69753086419763
117 5.053950617283949 ['88', '122', '99', '74', '140', '147', '41', '150', '113', '16', '111', '109', '48', '128', '73'] 252.69753086419763
118 5.053950617283949 ['88', '122', '99', '74', '140', '147', '41', '150', '113', '16', '111', '109', '48', '128', '73'] 252.69753086419763
119 5.053950617283949 ['88', '122', '99', '74', '140', '147', '41', '150', '113', '16', '111', '109', '48', '128', '73'] 252.69753086419763
120 5.053950617283949 ['88', '122', '99', '74', '140', '147', '41', '150', '113', '16', '111', '109', '48', '128', '73'] 252.69753086419763
121 5.053950617283949 ['88', '122', '99', '74', '140', '147', '41', '150', '113', '16', '111', '109', '48', '128', '73'] 252.69753086419763
122 5.053950617283949 ['88', '122', '99', '74', '140', '147', '41', '150', '113', '16', '111', '109', '48', '128', '73'] 252.69753086419763
123 5.053950617283949 ['88', '122', '99', '74', '140', '147', '41', '150', '113', '16', '111', '109', '48', '128', '73'] 252.69753086419763
124 5.053950617283949 ['88', '122', '99', '74', '140', '147', '41', '150', '113', '16', '111', '109', '48', '128', '73'] 252.69753086419763
125 5.053950617283949 ['88', '122', '99', '74', '140', '147', '41', '150', '113', '16', '111', '109', '48', '128', '73'] 252.69753086419763
126 5.053950617283949 ['88', '122', '99', '74', '140', '147', '41', '150', '113', '16', '111', '109', '48', '128', '73'] 252.69753086419763
127 5.053950617283949 ['88', '122', '99', '74', '140', '147', '41', '150', '113', '16', '111', '109', '48', '128', '73'] 252.69753086419763
128 5.053950617283949 ['88', '122', '99', '74', '140', '147', '41', '150', '113', '16', '111', '109', '48', '128', '73'] 252.69753086419763
129 5.053950617283949 ['88', '122', '99', '74', '140', '147', '41', '150', '113', '16', '111', '109', '48', '128', '73'] 252.69753086419763
130 5.053950617283949 ['88', '122', '99', '74', '140', '147', '41', '150', '113', '16', '111', '109', '48', '128', '73'] 252.69753086419763
131 5.053950617283949 ['88', '122', '99', '74', '140', '147', '41', '150', '113', '16', '111', '109', '48', '128', '73'] 252.69753086419763
132 5.053950617283949 ['88', '122', '99', '74', '140', '147', '41', '150', '113', '16', '111', '109', '48', '128', '73'] 252.69753086419763
133 5.053950617283949 ['88', '122', '99', '74', '140', '147', '41', '150', '113', '16', '111', '109', '48', '128', '73'] 252.69753086419763
134 5.053950617283949 ['88', '122', '99', '74', '140', '147', '41', '150', '113', '16', '111', '109', '48', '128', '73'] 252.69753086419763
135 5.053950617283949 ['88', '122', '99', '74', '140', '147', '41', '150', '113', '16', '111', '109', '48', '128', '73'] 252.69753086419763
136 5.053950617283949 ['88', '122', '99', '74', '140', '147', '41', '150', '113', '16', '111', '109', '48', '128', '73'] 252.69753086419763
137 5.053950617283949 ['88', '122', '99', '74', '140', '147', '41', '150', '113', '16', '111', '109', '48', '128', '73'] 252.69753086419763
138 5.053950617283949 ['88', '122', '99', '74', '140', '147', '41', '150', '113', '16', '111', '109', '48', '128', '73'] 252.69753086419763
139 5.053950617283949 ['88', '122', '99', '74', '140', '147', '41', '150', '113', '16', '111', '109', '48', '128', '73'] 252.69753086419763
140 5.053950617283949 ['88', '122', '99', '74', '140', '147', '41', '150', '113', '16', '111', '109', '48', '128', '73'] 252.69753086419763
141 5.053950617283949 ['88', '122', '99', '74', '140', '147', '41', '150', '113', '16', '111', '109', '48', '128', '73'] 252.69753086419763
142 5.053950617283949 ['88', '122', '99', '74', '140', '147', '41', '150', '113', '16', '111', '109', '48', '128', '73'] 252.69753086419763
143 5.053950617283949 ['88', '122', '99', '74', '140', '147', '41', '150', '113', '16', '111', '109', '48', '128', '73'] 252.69753086419763
144 5.053950617283949 ['88', '122', '99', '74', '140', '147', '41', '150', '113', '16', '111', '109', '48', '128', '73'] 252.69753086419763
145 5.053950617283949 ['88', '122', '99', '74', '140', '147', '41', '150', '113', '16', '111', '109', '48', '128', '73'] 252.69753086419763
146 5.053950617283949 ['88', '122', '99', '74', '140', '147', '41', '150', '113', '16', '111', '109', '48', '128', '73'] 252.69753086419763
147 5.053950617283949 ['88', '122', '99', '74', '140', '147', '41', '150', '113', '16', '111', '109', '48', '128', '73'] 252.69753086419763
148 5.053950617283949 ['88', '122', '99', '74', '140', '147', '41', '150', '113', '16', '111', '109', '48', '128', '73'] 252.69753086419763
149 5.053950617283949 ['88', '122', '99', '74', '140', '147', '41', '150', '113', '16', '111', '109', '48', '128', '73'] 252.69753086419763
150 5.053950617283949 ['88', '122', '99', '74', '140', '147', '41', '150', '113', '16', '111', '109', '48', '128', '73'] 252.69753086419763
151 5.053950617283949 ['88', '122', '99', '74', '140', '147', '41', '150', '113', '16', '111', '109', '48', '128', '73'] 252.69753086419763
152 5.053950617283949 ['88', '122', '99', '74', '140', '147', '41', '150', '113', '16', '111', '109', '48', '128', '73'] 252.69753086419763
153 5.053950617283949 ['88', '122', '99', '74', '140', '147', '41', '150', '113', '16', '111', '109', '48', '128', '73'] 252.69753086419763
154 5.053950617283949 ['88', '122', '99', '74', '140', '147', '41', '150', '113', '16', '111', '109', '48', '128', '73'] 252.69753086419763
155 5.053950617283949 ['88', '122', '99', '74', '140', '147', '41', '150', '113', '16', '111', '109', '48', '128', '73'] 252.69753086419763
156 5.053950617283949 ['88', '122', '99', '74', '140', '147', '41', '150', '113', '16', '111', '109', '48', '128', '73'] 252.69753086419763
157 5.053950617283949 ['88', '122', '99', '74', '140', '147', '41', '150', '113', '16', '111', '109', '48', '128', '73'] 252.69753086419763
158 5.053950617283949 ['88', '122', '99', '74', '140', '147', '41', '150', '113', '16', '111', '109', '48', '128', '73'] 252.69753086419763
159 5.053950617283949 ['88', '122', '99', '74', '140', '147', '41', '150', '113', '16', '111', '109', '48', '128', '73'] 252.69753086419763
160 5.053950617283949 ['88', '122', '99', '74', '140', '147', '41', '150', '113', '16', '111', '109', '48', '128', '73'] 252.69753086419763
161 5.053950617283949 ['88', '122', '99', '74', '140', '147', '41', '150', '113', '16', '111', '109', '48', '128', '73'] 252.69753086419763
162 5.053950617283949 ['88', '122', '99', '74', '140', '147', '41', '150', '113', '16', '111', '109', '48', '128', '73'] 252.69753086419763
163 5.053950617283949 ['88', '122', '99', '74', '140', '147', '41', '150', '113', '16', '111', '109', '48', '128', '73'] 252.69753086419763
164 5.053950617283949 ['88', '122', '99', '74', '140', '147', '41', '150', '113', '16', '111', '109', '48', '128', '73'] 252.69753086419763
165 5.053950617283949 ['88', '122', '99', '74', '140', '147', '41', '150', '113', '16', '111', '109', '48', '128', '73'] 252.69753086419763
166 5.053950617283949 ['88', '122', '99', '74', '140', '147', '41', '150', '113', '16', '111', '109', '48', '128', '73'] 252.69753086419763
167 5.053950617283949 ['88', '122', '99', '74', '140', '147', '41', '150', '113', '16', '111', '109', '48', '128', '73'] 252.69753086419763
168 5.053950617283949 ['88', '122', '99', '74', '140', '147', '41', '150', '113', '16', '111', '109', '48', '128', '73'] 252.69753086419763
169 5.053950617283949 ['88', '122', '99', '74', '140', '147', '41', '150', '113', '16', '111', '109', '48', '128', '73'] 252.69753086419763
170 5.053950617283949 ['88', '122', '99', '74', '140', '147', '41', '150', '113', '16', '111', '109', '48', '128', '73'] 252.69753086419763
171 5.053950617283949 ['88', '122', '99', '74', '140', '147', '41', '150', '113', '16', '111', '109', '48', '128', '73'] 252.69753086419763
172 5.053950617283949 ['88', '122', '99', '74', '140', '147', '41', '150', '113', '16', '111', '109', '48', '128', '73'] 252.69753086419763
173 5.053950617283949 ['88', '122', '99', '74', '140', '147', '41', '150', '113', '16', '111', '109', '48', '128', '73'] 252.69753086419763
174 5.053950617283949 ['88', '122', '99', '74', '140', '147', '41', '150', '113', '16', '111', '109', '48', '128', '73'] 252.69753086419763
175 5.053950617283949 ['88', '122', '99', '74', '140', '147', '41', '150', '113', '16', '111', '109', '48', '128', '73'] 252.69753086419763
176 5.053950617283949 ['88', '122', '99', '74', '140', '147', '41', '150', '113', '16', '111', '109', '48', '128', '73'] 252.69753086419763
177 5.053950617283949 ['88', '122', '99', '74', '140', '147', '41', '150', '113', '16', '111', '109', '48', '128', '73'] 252.69753086419763
178 5.053950617283949 ['88', '122', '99', '74', '140', '147', '41', '150', '113', '16', '111', '109', '48', '128', '73'] 252.69753086419763
179 5.053950617283949 ['88', '122', '99', '74', '140', '147', '41', '150', '113', '16', '111', '109', '48', '128', '73'] 252.69753086419763
180 5.053950617283949 ['88', '122', '99', '74', '140', '147', '41', '150', '113', '16', '111', '109', '48', '128', '73'] 252.69753086419763
181 5.053950617283949 ['88', '122', '99', '74', '140', '147', '41', '150', '113', '16', '111', '109', '48', '128', '73'] 252.69753086419763
182 5.053950617283949 ['88', '122', '99', '74', '140', '147', '41', '150', '113', '16', '111', '109', '48', '128', '73'] 252.69753086419763
183 5.053950617283949 ['88', '122', '99', '74', '140', '147', '41', '150', '113', '16', '111', '109', '48', '128', '73'] 252.69753086419763
184 5.053950617283949 ['88', '122', '99', '74', '140', '147', '41', '150', '113', '16', '111', '109', '48', '128', '73'] 252.69753086419763
185 5.053950617283949 ['88', '122', '99', '74', '140', '147', '41', '150', '113', '16', '111', '109', '48', '128', '73'] 252.69753086419763
186 5.053950617283949 ['88', '122', '99', '74', '140', '147', '41', '150', '113', '16', '111', '109', '48', '128', '73'] 252.69753086419763
187 5.053950617283949 ['88', '122', '99', '74', '140', '147', '41', '150', '113', '16', '111', '109', '48', '128', '73'] 252.69753086419763
188 5.053950617283949 ['88', '122', '99', '74', '140', '147', '41', '150', '113', '16', '111', '109', '48', '128', '73'] 252.69753086419763
189 5.053950617283949 ['88', '122', '99', '74', '140', '147', '41', '150', '113', '16', '111', '109', '48', '128', '73'] 252.69753086419763
190 5.053950617283949 ['88', '122', '99', '74', '140', '147', '41', '150', '113', '16', '111', '109', '48', '128', '73'] 252.69753086419763
191 5.053950617283949 ['88', '122', '99', '74', '140', '147', '41', '150', '113', '16', '111', '109', '48', '128', '73'] 252.69753086419763
192 5.053950617283949 ['88', '122', '99', '74', '140', '147', '41', '150', '113', '16', '111', '109', '48', '128', '73'] 252.69753086419763
193 5.053950617283949 ['88', '122', '99', '74', '140', '147', '41', '150', '113', '16', '111', '109', '48', '128', '73'] 252.69753086419763
194 5.053950617283949 ['88', '122', '99', '74', '140', '147', '41', '150', '113', '16', '111', '109', '48', '128', '73'] 252.69753086419763
195 5.053950617283949 ['88', '122', '99', '74', '140', '147', '41', '150', '113', '16', '111', '109', '48', '128', '73'] 252.69753086419763
196 5.053950617283949 ['88', '122', '99', '74', '140', '147', '41', '150', '113', '16', '111', '109', '48', '128', '73'] 252.69753086419763
197 5.053950617283949 ['88', '122', '99', '74', '140', '147', '41', '150', '113', '16', '111', '109', '48', '128', '73'] 252.69753086419763
198 5.053950617283949 ['88', '122', '99', '74', '140', '147', '41', '150', '113', '16', '111', '109', '48', '128', '73'] 252.69753086419763
199 5.053950617283949 ['88', '122', '99', '74', '140', '147', '41', '150', '113', '16', '111', '109', '48', '128', '73'] 252.69753086419763
