0 18.1 ['25', '28', '33'] 969.3666666666667
1 17.366666666666667 ['28', '33', '4'] 947.2333333333331
2 17.366666666666667 ['28', '33', '4'] 922.6333333333332
3 17.2 ['33', '4', '7'] 899.0666666666664
4 17.2 ['33', '4', '7'] 881.2999999999997
5 17.2 ['33', '4', '7'] 865.9333333333332
6 17.2 ['33', '4', '7'] 862.7333333333324
7 17.2 ['33', '4', '7'] 860.2000000000005
8 17.2 ['33', '4', '7'] 860.0000000000007
9 17.2 ['33', '4', '7'] 860.0000000000007
10 17.2 ['33', '4', '7'] 860.0000000000007
11 17.2 ['33', '4', '7'] 860.0000000000007
12 17.2 ['33', '4', '7'] 860.0000000000007
13 17.2 ['33', '4', '7'] 860.0000000000007
14 17.2 ['33', '4', '7'] 860.0000000000007
15 17.2 ['33', '4', '7'] 860.0000000000007
16 17.2 ['33', '4', '7'] 860.0000000000007
17 17.2 ['33', '4', '7'] 860.0000000000007
18 17.2 ['33', '4', '7'] 860.0000000000007
19 17.2 ['33', '4', '7'] 860.0000000000007
20 17.2 ['33', '4', '7'] 860.0000000000007
21 17.2 ['33', '4', '7'] 860.0000000000007
22 17.2 ['33', '4', '7'] 860.0000000000007
23 17.2 ['33', '4', '7'] 860.0000000000007
24 17.2 ['33', '4', '7'] 860.0000000000007
25 17.2 ['33', '4', '7'] 860.0000000000007
26 17.2 ['33', '4', '7'] 860.0000000000007
27 17.2 ['33', '4', '7'] 860.0000000000007
28 17.2 ['33', '4', '7'] 860.0000000000007
29 17.2 ['33', '4', '7'] 860.0000000000007
30 17.2 ['33', '4', '7'] 860.0000000000007
31 17.2 ['33', '4', '7'] 860.0000000000007
32 17.2 ['33', '4', '7'] 860.0000000000007
33 17.2 ['33', '4', '7'] 860.0000000000007
34 17.2 ['33', '4', '7'] 860.0000000000007
35 17.2 ['33', '4', '7'] 860.0000000000007
36 17.2 ['33', '4', '7'] 860.0000000000007
37 17.2 ['33', '4', '7'] 860.0000000000007
38 17.2 ['33', '4', '7'] 860.0000000000007
39 17.2 ['33', '4', '7'] 860.0000000000007
40 17.2 ['33', '4', '7'] 860.0000000000007
41 17.2 ['33', '4', '7'] 860.0000000000007
42 17.2 ['33', '4', '7'] 860.0000000000007
43 17.2 ['33', '4', '7'] 860.0000000000007
44 17.2 ['33', '4', '7'] 860.0000000000007
45 17.2 ['33', '4', '7'] 860.0000000000007
46 17.2 ['33', '4', '7'] 860.0000000000007
47 17.2 ['33', '4', '7'] 860.0000000000007
48 17.2 ['33', '4', '7'] 860.0000000000007
49 17.2 ['33', '4', '7'] 860.0000000000007
50 17.2 ['33', '4', '7'] 860.0000000000007
51 17.2 ['33', '4', '7'] 860.0000000000007
52 17.2 ['33', '4', '7'] 860.0000000000007
53 17.2 ['33', '4', '7'] 860.0000000000007
54 17.2 ['33', '4', '7'] 860.0000000000007
55 17.2 ['33', '4', '7'] 860.0000000000007
56 17.2 ['33', '4', '7'] 860.0000000000007
57 17.2 ['33', '4', '7'] 860.0000000000007
58 17.2 ['33', '4', '7'] 860.0000000000007
59 17.2 ['33', '4', '7'] 860.0000000000007
60 17.2 ['33', '4', '7'] 860.0000000000007
61 17.2 ['33', '4', '7'] 860.0000000000007
62 17.2 ['33', '4', '7'] 860.0000000000007
63 17.2 ['33', '4', '7'] 860.0000000000007
64 17.2 ['33', '4', '7'] 860.0000000000007
65 17.2 ['33', '4', '7'] 860.0000000000007
66 17.2 ['33', '4', '7'] 860.0000000000007
67 17.2 ['33', '4', '7'] 860.0000000000007
68 17.2 ['33', '4', '7'] 860.0000000000007
69 17.2 ['33', '4', '7'] 860.0000000000007
70 17.2 ['33', '4', '7'] 860.0000000000007
71 17.2 ['33', '4', '7'] 860.0000000000007
72 17.2 ['33', '4', '7'] 860.0000000000007
73 17.2 ['33', '4', '7'] 860.0000000000007
74 17.2 ['33', '4', '7'] 860.0000000000007
75 17.2 ['33', '4', '7'] 860.0000000000007
76 17.2 ['33', '4', '7'] 860.0000000000007
77 17.2 ['33', '4', '7'] 860.0000000000007
78 17.2 ['33', '4', '7'] 860.0000000000007
79 17.2 ['33', '4', '7'] 860.0000000000007
80 17.2 ['33', '4', '7'] 860.0000000000007
81 17.2 ['33', '4', '7'] 860.0000000000007
82 17.2 ['33', '4', '7'] 860.0000000000007
83 17.2 ['33', '4', '7'] 860.0000000000007
84 17.2 ['33', '4', '7'] 860.0000000000007
85 17.2 ['33', '4', '7'] 860.0000000000007
86 17.2 ['33', '4', '7'] 860.0000000000007
87 17.2 ['33', '4', '7'] 860.0000000000007
88 17.2 ['33', '4', '7'] 860.0000000000007
89 17.2 ['33', '4', '7'] 860.0000000000007
90 17.2 ['33', '4', '7'] 860.0000000000007
91 17.2 ['33', '4', '7'] 860.0000000000007
92 17.2 ['33', '4', '7'] 860.0000000000007
93 17.2 ['33', '4', '7'] 860.0000000000007
94 17.2 ['33', '4', '7'] 860.0000000000007
95 17.2 ['33', '4', '7'] 860.0000000000007
96 17.2 ['33', '4', '7'] 860.0000000000007
97 17.2 ['33', '4', '7'] 860.0000000000007
98 17.2 ['33', '4', '7'] 860.0000000000007
99 17.2 ['33', '4', '7'] 860.0000000000007
100 17.2 ['33', '4', '7'] 860.0000000000007
101 17.2 ['33', '4', '7'] 860.0000000000007
102 17.2 ['33', '4', '7'] 860.0000000000007
103 17.2 ['33', '4', '7'] 860.0000000000007
104 17.2 ['33', '4', '7'] 860.0000000000007
105 17.2 ['33', '4', '7'] 860.0000000000007
106 17.2 ['33', '4', '7'] 860.0000000000007
107 17.2 ['33', '4', '7'] 860.0000000000007
108 17.2 ['33', '4', '7'] 860.0000000000007
109 17.2 ['33', '4', '7'] 860.0000000000007
110 17.2 ['33', '4', '7'] 860.0000000000007
111 17.2 ['33', '4', '7'] 860.0000000000007
112 17.2 ['33', '4', '7'] 860.0000000000007
113 17.2 ['33', '4', '7'] 860.0000000000007
114 17.2 ['33', '4', '7'] 860.0000000000007
115 17.2 ['33', '4', '7'] 860.0000000000007
116 17.2 ['33', '4', '7'] 860.0000000000007
117 17.2 ['33', '4', '7'] 860.0000000000007
118 17.2 ['33', '4', '7'] 860.0000000000007
119 17.2 ['33', '4', '7'] 860.0000000000007
120 17.2 ['33', '4', '7'] 860.0000000000007
121 17.2 ['33', '4', '7'] 860.0000000000007
122 17.2 ['33', '4', '7'] 860.0000000000007
123 17.2 ['33', '4', '7'] 860.0000000000007
124 17.2 ['33', '4', '7'] 860.0000000000007
125 17.2 ['33', '4', '7'] 860.0000000000007
126 17.2 ['33', '4', '7'] 860.0000000000007
127 17.2 ['33', '4', '7'] 860.0000000000007
128 17.2 ['33', '4', '7'] 860.0000000000007
129 17.2 ['33', '4', '7'] 860.0000000000007
130 17.2 ['33', '4', '7'] 860.0000000000007
131 17.2 ['33', '4', '7'] 860.0000000000007
132 17.2 ['33', '4', '7'] 860.0000000000007
133 17.2 ['33', '4', '7'] 860.0000000000007
134 17.2 ['33', '4', '7'] 860.0000000000007
135 17.2 ['33', '4', '7'] 860.0000000000007
136 17.2 ['33', '4', '7'] 860.0000000000007
137 17.2 ['33', '4', '7'] 860.0000000000007
138 17.2 ['33', '4', '7'] 860.0000000000007
139 17.2 ['33', '4', '7'] 860.0000000000007
140 17.2 ['33', '4', '7'] 860.0000000000007
141 17.2 ['33', '4', '7'] 860.0000000000007
142 17.2 ['33', '4', '7'] 860.0000000000007
143 17.2 ['33', '4', '7'] 860.0000000000007
144 17.2 ['33', '4', '7'] 860.0000000000007
145 17.2 ['33', '4', '7'] 860.0000000000007
146 17.2 ['33', '4', '7'] 860.0000000000007
147 17.2 ['33', '4', '7'] 860.0000000000007
148 17.2 ['33', '4', '7'] 860.0000000000007
149 17.2 ['33', '4', '7'] 860.0000000000007
150 17.2 ['33', '4', '7'] 860.0000000000007
151 17.2 ['33', '4', '7'] 860.0000000000007
152 17.2 ['33', '4', '7'] 860.0000000000007
153 17.2 ['33', '4', '7'] 860.0000000000007
154 17.2 ['33', '4', '7'] 860.0000000000007
155 17.2 ['33', '4', '7'] 860.0000000000007
156 17.2 ['33', '4', '7'] 860.0000000000007
157 17.2 ['33', '4', '7'] 860.0000000000007
158 17.2 ['33', '4', '7'] 860.0000000000007
159 17.2 ['33', '4', '7'] 860.0000000000007
160 17.2 ['33', '4', '7'] 860.0000000000007
161 17.2 ['33', '4', '7'] 860.0000000000007
162 17.2 ['33', '4', '7'] 860.0000000000007
163 17.2 ['33', '4', '7'] 860.0000000000007
164 17.2 ['33', '4', '7'] 860.0000000000007
165 17.2 ['33', '4', '7'] 860.0000000000007
166 17.2 ['33', '4', '7'] 860.0000000000007
167 17.2 ['33', '4', '7'] 860.0000000000007
168 17.2 ['33', '4', '7'] 860.0000000000007
169 17.2 ['33', '4', '7'] 860.0000000000007
170 17.2 ['33', '4', '7'] 860.0000000000007
171 17.2 ['33', '4', '7'] 860.0000000000007
172 17.2 ['33', '4', '7'] 860.0000000000007
173 17.2 ['33', '4', '7'] 860.0000000000007
174 17.2 ['33', '4', '7'] 860.0000000000007
175 17.2 ['33', '4', '7'] 860.0000000000007
176 17.2 ['33', '4', '7'] 860.0000000000007
177 17.2 ['33', '4', '7'] 860.0000000000007
178 17.2 ['33', '4', '7'] 860.0000000000007
179 17.2 ['33', '4', '7'] 860.0000000000007
180 17.2 ['33', '4', '7'] 860.0000000000007
181 17.2 ['33', '4', '7'] 860.0000000000007
182 17.2 ['33', '4', '7'] 860.0000000000007
183 17.2 ['33', '4', '7'] 860.0000000000007
184 17.2 ['33', '4', '7'] 860.0000000000007
185 17.2 ['33', '4', '7'] 860.0000000000007
186 17.2 ['33', '4', '7'] 860.0000000000007
187 17.2 ['33', '4', '7'] 860.0000000000007
188 17.2 ['33', '4', '7'] 860.0000000000007
189 17.2 ['33', '4', '7'] 860.0000000000007
190 17.2 ['33', '4', '7'] 860.0000000000007
191 17.2 ['33', '4', '7'] 860.0000000000007
192 17.2 ['33', '4', '7'] 860.0000000000007
193 17.2 ['33', '4', '7'] 860.0000000000007
194 17.2 ['33', '4', '7'] 860.0000000000007
195 17.2 ['33', '4', '7'] 860.0000000000007
196 17.2 ['33', '4', '7'] 860.0000000000007
197 17.2 ['33', '4', '7'] 860.0000000000007
198 17.2 ['33', '4', '7'] 860.0000000000007
199 17.2 ['33', '4', '7'] 860.0000000000007
