0 17.92 ['43', '39', '35', '34', '20'] 971.0400000000001
1 17.12 ['20', '35', '34', '6', '39'] 944.2400000000004
2 17.12 ['20', '35', '34', '6', '39'] 913.9199999999997
3 16.96 ['39', '35', '34', '43', '6'] 892.8800000000002
4 16.32 ['34', '38', '1', '6', '35'] 873.0399999999997
5 16.32 ['34', '38', '1', '6', '35'] 857.6800000000002
6 15.92 ['34', '6', '39', '38', '7'] 844.0000000000003
7 15.92 ['34', '6', '39', '38', '7'] 830.9600000000002
8 15.92 ['34', '6', '39', '38', '7'] 814.8800000000001
9 15.92 ['34', '6', '39', '38', '7'] 802.2400000000001
10 15.92 ['34', '6', '39', '38', '7'] 797.12
11 15.92 ['34', '6', '39', '38', '7'] 795.9999999999994
12 15.92 ['34', '6', '39', '38', '7'] 795.9999999999994
13 15.92 ['34', '6', '39', '38', '7'] 795.9999999999994
14 15.92 ['34', '6', '39', '38', '7'] 795.9999999999994
15 15.92 ['34', '6', '39', '38', '7'] 795.9999999999994
16 15.92 ['34', '6', '39', '38', '7'] 795.9999999999994
17 15.92 ['34', '6', '39', '38', '7'] 795.9999999999994
18 15.92 ['34', '6', '39', '38', '7'] 795.9999999999994
19 15.92 ['34', '6', '39', '38', '7'] 795.9999999999994
20 15.92 ['34', '6', '39', '38', '7'] 795.9999999999994
21 15.92 ['34', '6', '39', '38', '7'] 795.9999999999994
22 15.92 ['34', '6', '39', '38', '7'] 795.9999999999994
23 15.92 ['34', '6', '39', '38', '7'] 795.9999999999994
24 15.92 ['34', '6', '39', '38', '7'] 795.9999999999994
25 15.92 ['34', '6', '39', '38', '7'] 795.9999999999994
26 15.92 ['34', '6', '39', '38', '7'] 795.9999999999994
27 15.92 ['34', '6', '39', '38', '7'] 795.9999999999994
28 15.92 ['34', '6', '39', '38', '7'] 795.9999999999994
29 15.92 ['34', '6', '39', '38', '7'] 795.9999999999994
30 15.92 ['34', '6', '39', '38', '7'] 795.9999999999994
31 15.92 ['34', '6', '39', '38', '7'] 795.9999999999994
32 15.92 ['34', '6', '39', '38', '7'] 795.9999999999994
33 15.92 ['34', '6', '39', '38', '7'] 795.9999999999994
34 15.92 ['34', '6', '39', '38', '7'] 795.9999999999994
35 15.92 ['34', '6', '39', '38', '7'] 795.9999999999994
36 15.92 ['34', '6', '39', '38', '7'] 795.9999999999994
37 15.92 ['34', '6', '39', '38', '7'] 795.9999999999994
38 15.92 ['34', '6', '39', '38', '7'] 795.9999999999994
39 15.92 ['34', '6', '39', '38', '7'] 795.9999999999994
40 15.92 ['34', '6', '39', '38', '7'] 795.9999999999994
41 15.92 ['34', '6', '39', '38', '7'] 795.9999999999994
42 15.92 ['34', '6', '39', '38', '7'] 795.9999999999994
43 15.92 ['34', '6', '39', '38', '7'] 795.9999999999994
44 15.92 ['34', '6', '39', '38', '7'] 795.9999999999994
45 15.92 ['34', '6', '39', '38', '7'] 795.9999999999994
46 15.92 ['34', '6', '39', '38', '7'] 795.9999999999994
47 15.92 ['34', '6', '39', '38', '7'] 795.9999999999994
48 15.92 ['34', '6', '39', '38', '7'] 795.9999999999994
49 15.92 ['34', '6', '39', '38', '7'] 795.9999999999994
50 15.92 ['34', '6', '39', '38', '7'] 795.9999999999994
51 15.92 ['34', '6', '39', '38', '7'] 795.9999999999994
52 15.92 ['34', '6', '39', '38', '7'] 795.9999999999994
53 15.92 ['34', '6', '39', '38', '7'] 795.9999999999994
54 15.92 ['34', '6', '39', '38', '7'] 795.9999999999994
55 15.92 ['34', '6', '39', '38', '7'] 795.9999999999994
56 15.92 ['34', '6', '39', '38', '7'] 795.9999999999994
57 15.92 ['34', '6', '39', '38', '7'] 795.9999999999994
58 15.92 ['34', '6', '39', '38', '7'] 795.9999999999994
59 15.92 ['34', '6', '39', '38', '7'] 795.9999999999994
60 15.92 ['34', '6', '39', '38', '7'] 795.9999999999994
61 15.92 ['34', '6', '39', '38', '7'] 795.9999999999994
62 15.92 ['34', '6', '39', '38', '7'] 795.9999999999994
63 15.92 ['34', '6', '39', '38', '7'] 795.9999999999994
64 15.92 ['34', '6', '39', '38', '7'] 795.9999999999994
65 15.92 ['34', '6', '39', '38', '7'] 795.9999999999994
66 15.92 ['34', '6', '39', '38', '7'] 795.9999999999994
67 15.92 ['34', '6', '39', '38', '7'] 795.9999999999994
68 15.92 ['34', '6', '39', '38', '7'] 795.9999999999994
69 15.92 ['34', '6', '39', '38', '7'] 795.9999999999994
70 15.92 ['34', '6', '39', '38', '7'] 795.9999999999994
71 15.92 ['34', '6', '39', '38', '7'] 795.9999999999994
72 15.92 ['34', '6', '39', '38', '7'] 795.9999999999994
73 15.92 ['34', '6', '39', '38', '7'] 795.9999999999994
74 15.92 ['34', '6', '39', '38', '7'] 795.9999999999994
75 15.92 ['34', '6', '39', '38', '7'] 795.9999999999994
76 15.92 ['34', '6', '39', '38', '7'] 795.9999999999994
77 15.92 ['34', '6', '39', '38', '7'] 795.9999999999994
78 15.92 ['34', '6', '39', '38', '7'] 795.9999999999994
79 15.92 ['34', '6', '39', '38', '7'] 795.9999999999994
80 15.92 ['34', '6', '39', '38', '7'] 795.9999999999994
81 15.92 ['34', '6', '39', '38', '7'] 795.9999999999994
82 15.92 ['34', '6', '39', '38', '7'] 795.9999999999994
83 15.92 ['34', '6', '39', '38', '7'] 795.9999999999994
84 15.92 ['34', '6', '39', '38', '7'] 795.9999999999994
85 15.92 ['34', '6', '39', '38', '7'] 795.9999999999994
86 15.92 ['34', '6', '39', '38', '7'] 795.9999999999994
87 15.92 ['34', '6', '39', '38', '7'] 795.9999999999994
88 15.92 ['34', '6', '39', '38', '7'] 795.9999999999994
89 15.92 ['34', '6', '39', '38', '7'] 795.9999999999994
90 15.92 ['34', '6', '39', '38', '7'] 795.9999999999994
91 15.92 ['34', '6', '39', '38', '7'] 795.9999999999994
92 15.92 ['34', '6', '39', '38', '7'] 795.9999999999994
93 15.92 ['34', '6', '39', '38', '7'] 795.9999999999994
94 15.92 ['34', '6', '39', '38', '7'] 795.9999999999994
95 15.92 ['34', '6', '39', '38', '7'] 795.9999999999994
96 15.92 ['34', '6', '39', '38', '7'] 795.9999999999994
97 15.92 ['34', '6', '39', '38', '7'] 795.9999999999994
98 15.92 ['34', '6', '39', '38', '7'] 795.9999999999994
99 15.92 ['34', '6', '39', '38', '7'] 795.9999999999994
100 15.92 ['34', '6', '39', '38', '7'] 795.9999999999994
101 15.92 ['34', '6', '39', '38', '7'] 795.9999999999994
102 15.92 ['34', '6', '39', '38', '7'] 795.9999999999994
103 15.92 ['34', '6', '39', '38', '7'] 795.9999999999994
104 15.92 ['34', '6', '39', '38', '7'] 795.9999999999994
105 15.92 ['34', '6', '39', '38', '7'] 795.9999999999994
106 15.92 ['34', '6', '39', '38', '7'] 795.9999999999994
107 15.92 ['34', '6', '39', '38', '7'] 795.9999999999994
108 15.92 ['34', '6', '39', '38', '7'] 795.9999999999994
109 15.92 ['34', '6', '39', '38', '7'] 795.9999999999994
110 15.92 ['34', '6', '39', '38', '7'] 795.9999999999994
111 15.92 ['34', '6', '39', '38', '7'] 795.9999999999994
112 15.92 ['34', '6', '39', '38', '7'] 795.9999999999994
113 15.92 ['34', '6', '39', '38', '7'] 795.9999999999994
114 15.92 ['34', '6', '39', '38', '7'] 795.9999999999994
115 15.92 ['34', '6', '39', '38', '7'] 795.9999999999994
116 15.92 ['34', '6', '39', '38', '7'] 795.9999999999994
117 15.92 ['34', '6', '39', '38', '7'] 795.9999999999994
118 15.92 ['34', '6', '39', '38', '7'] 795.9999999999994
119 15.92 ['34', '6', '39', '38', '7'] 795.9999999999994
120 15.92 ['34', '6', '39', '38', '7'] 795.9999999999994
121 15.92 ['34', '6', '39', '38', '7'] 795.9999999999994
122 15.92 ['34', '6', '39', '38', '7'] 795.9999999999994
123 15.92 ['34', '6', '39', '38', '7'] 795.9999999999994
124 15.92 ['34', '6', '39', '38', '7'] 795.9999999999994
125 15.92 ['34', '6', '39', '38', '7'] 795.9999999999994
126 15.92 ['34', '6', '39', '38', '7'] 795.9999999999994
127 15.92 ['34', '6', '39', '38', '7'] 795.9999999999994
128 15.92 ['34', '6', '39', '38', '7'] 795.9999999999994
129 15.92 ['34', '6', '39', '38', '7'] 795.9999999999994
130 15.92 ['34', '6', '39', '38', '7'] 795.9999999999994
131 15.92 ['34', '6', '39', '38', '7'] 795.9999999999994
132 15.92 ['34', '6', '39', '38', '7'] 795.9999999999994
133 15.92 ['34', '6', '39', '38', '7'] 795.9999999999994
134 15.92 ['34', '6', '39', '38', '7'] 795.9999999999994
135 15.92 ['34', '6', '39', '38', '7'] 795.9999999999994
136 15.92 ['34', '6', '39', '38', '7'] 795.9999999999994
137 15.92 ['34', '6', '39', '38', '7'] 795.9999999999994
138 15.92 ['34', '6', '39', '38', '7'] 795.9999999999994
139 15.92 ['34', '6', '39', '38', '7'] 795.9999999999994
140 15.92 ['34', '6', '39', '38', '7'] 795.9999999999994
141 15.92 ['34', '6', '39', '38', '7'] 795.9999999999994
142 15.92 ['34', '6', '39', '38', '7'] 795.9999999999994
143 15.92 ['34', '6', '39', '38', '7'] 795.9999999999994
144 15.92 ['34', '6', '39', '38', '7'] 795.9999999999994
145 15.92 ['34', '6', '39', '38', '7'] 795.9999999999994
146 15.92 ['34', '6', '39', '38', '7'] 795.9999999999994
147 15.92 ['34', '6', '39', '38', '7'] 795.9999999999994
148 15.92 ['34', '6', '39', '38', '7'] 795.9999999999994
149 15.92 ['34', '6', '39', '38', '7'] 795.9999999999994
150 15.92 ['34', '6', '39', '38', '7'] 795.9999999999994
151 15.92 ['34', '6', '39', '38', '7'] 795.9999999999994
152 15.92 ['34', '6', '39', '38', '7'] 795.9999999999994
153 15.92 ['34', '6', '39', '38', '7'] 795.9999999999994
154 15.92 ['34', '6', '39', '38', '7'] 795.9999999999994
155 15.92 ['34', '6', '39', '38', '7'] 795.9999999999994
156 15.92 ['34', '6', '39', '38', '7'] 795.9999999999994
157 15.92 ['34', '6', '39', '38', '7'] 795.9999999999994
158 15.92 ['34', '6', '39', '38', '7'] 795.9999999999994
159 15.92 ['34', '6', '39', '38', '7'] 795.9999999999994
160 15.92 ['34', '6', '39', '38', '7'] 795.9999999999994
161 15.92 ['34', '6', '39', '38', '7'] 795.9999999999994
162 15.92 ['34', '6', '39', '38', '7'] 795.9999999999994
163 15.92 ['34', '6', '39', '38', '7'] 795.9999999999994
164 15.92 ['34', '6', '39', '38', '7'] 795.9999999999994
165 15.92 ['34', '6', '39', '38', '7'] 795.9999999999994
166 15.92 ['34', '6', '39', '38', '7'] 795.9999999999994
167 15.92 ['34', '6', '39', '38', '7'] 795.9999999999994
168 15.92 ['34', '6', '39', '38', '7'] 795.9999999999994
169 15.92 ['34', '6', '39', '38', '7'] 795.9999999999994
170 15.92 ['34', '6', '39', '38', '7'] 795.9999999999994
171 15.92 ['34', '6', '39', '38', '7'] 795.9999999999994
172 15.92 ['34', '6', '39', '38', '7'] 795.9999999999994
173 15.92 ['34', '6', '39', '38', '7'] 795.9999999999994
174 15.92 ['34', '6', '39', '38', '7'] 795.9999999999994
175 15.92 ['34', '6', '39', '38', '7'] 795.9999999999994
176 15.92 ['34', '6', '39', '38', '7'] 795.9999999999994
177 15.92 ['34', '6', '39', '38', '7'] 795.9999999999994
178 15.92 ['34', '6', '39', '38', '7'] 795.9999999999994
179 15.92 ['34', '6', '39', '38', '7'] 795.9999999999994
180 15.92 ['34', '6', '39', '38', '7'] 795.9999999999994
181 15.92 ['34', '6', '39', '38', '7'] 795.9999999999994
182 15.92 ['34', '6', '39', '38', '7'] 795.9999999999994
183 15.92 ['34', '6', '39', '38', '7'] 795.9999999999994
184 15.92 ['34', '6', '39', '38', '7'] 795.9999999999994
185 15.92 ['34', '6', '39', '38', '7'] 795.9999999999994
186 15.92 ['34', '6', '39', '38', '7'] 795.9999999999994
187 15.92 ['34', '6', '39', '38', '7'] 795.9999999999994
188 15.92 ['34', '6', '39', '38', '7'] 795.9999999999994
189 15.92 ['34', '6', '39', '38', '7'] 795.9999999999994
190 15.92 ['34', '6', '39', '38', '7'] 795.9999999999994
191 15.92 ['34', '6', '39', '38', '7'] 795.9999999999994
192 15.92 ['34', '6', '39', '38', '7'] 795.9999999999994
193 15.92 ['34', '6', '39', '38', '7'] 795.9999999999994
194 15.92 ['34', '6', '39', '38', '7'] 795.9999999999994
195 15.92 ['34', '6', '39', '38', '7'] 795.9999999999994
196 15.92 ['34', '6', '39', '38', '7'] 795.9999999999994
197 15.92 ['34', '6', '39', '38', '7'] 795.9999999999994
198 15.92 ['34', '6', '39', '38', '7'] 795.9999999999994
199 15.92 ['34', '6', '39', '38', '7'] 795.9999999999994
