0 4.352941176470588 ['29', '37', '23'] 268.235294117647
1 4.352941176470588 ['29', '37', '23'] 250.82352941176453
2 4.235294117647059 ['13', '9', '23'] 235.88235294117635
3 4.235294117647059 ['13', '9', '23'] 225.64705882352962
4 4.117647058823529 ['16', '9', '23'] 218.47058823529414
5 4.117647058823529 ['16', '9', '23'] 215.41176470588226
6 4.117647058823529 ['16', '9', '23'] 212.5882352941175
7 4.117647058823529 ['16', '9', '23'] 207.76470588235327
8 4.117647058823529 ['16', '9', '23'] 205.8823529411767
9 4.117647058823529 ['16', '9', '23'] 205.8823529411767
10 4.117647058823529 ['16', '9', '23'] 205.8823529411767
11 4.117647058823529 ['16', '9', '23'] 205.8823529411767
12 4.117647058823529 ['16', '9', '23'] 205.8823529411767
13 4.117647058823529 ['16', '9', '23'] 205.8823529411767
14 4.117647058823529 ['16', '9', '23'] 205.8823529411767
15 4.117647058823529 ['16', '9', '23'] 205.8823529411767
16 4.117647058823529 ['16', '9', '23'] 205.8823529411767
17 4.117647058823529 ['16', '9', '23'] 205.8823529411767
18 4.117647058823529 ['16', '9', '23'] 205.8823529411767
19 4.117647058823529 ['16', '9', '23'] 205.8823529411767
20 4.117647058823529 ['16', '9', '23'] 205.8823529411767
21 4.117647058823529 ['16', '9', '23'] 205.8823529411767
22 4.117647058823529 ['16', '9', '23'] 205.8823529411767
23 4.117647058823529 ['16', '9', '23'] 205.8823529411767
24 4.117647058823529 ['16', '9', '23'] 205.8823529411767
25 4.117647058823529 ['16', '9', '23'] 205.8823529411767
26 4.117647058823529 ['16', '9', '23'] 205.8823529411767
27 4.117647058823529 ['16', '9', '23'] 205.8823529411767
28 4.117647058823529 ['16', '9', '23'] 205.8823529411767
29 4.117647058823529 ['16', '9', '23'] 205.8823529411767
30 4.117647058823529 ['16', '9', '23'] 205.8823529411767
31 4.117647058823529 ['16', '9', '23'] 205.8823529411767
32 4.117647058823529 ['16', '9', '23'] 205.8823529411767
33 4.117647058823529 ['16', '9', '23'] 205.8823529411767
34 4.117647058823529 ['16', '9', '23'] 205.8823529411767
35 4.117647058823529 ['16', '9', '23'] 205.8823529411767
36 4.117647058823529 ['16', '9', '23'] 205.8823529411767
37 4.117647058823529 ['16', '9', '23'] 205.8823529411767
38 4.117647058823529 ['16', '9', '23'] 205.8823529411767
39 4.117647058823529 ['16', '9', '23'] 205.8823529411767
40 4.117647058823529 ['16', '9', '23'] 205.8823529411767
41 4.117647058823529 ['16', '9', '23'] 205.8823529411767
42 4.117647058823529 ['16', '9', '23'] 205.8823529411767
43 4.117647058823529 ['16', '9', '23'] 205.8823529411767
44 4.117647058823529 ['16', '9', '23'] 205.8823529411767
45 4.117647058823529 ['16', '9', '23'] 205.8823529411767
46 4.117647058823529 ['16', '9', '23'] 205.8823529411767
47 4.117647058823529 ['16', '9', '23'] 205.8823529411767
48 4.117647058823529 ['16', '9', '23'] 205.8823529411767
49 4.117647058823529 ['16', '9', '23'] 205.8823529411767
50 4.117647058823529 ['16', '9', '23'] 205.8823529411767
51 4.117647058823529 ['16', '9', '23'] 205.8823529411767
52 4.117647058823529 ['16', '9', '23'] 205.8823529411767
53 4.117647058823529 ['16', '9', '23'] 205.8823529411767
54 4.117647058823529 ['16', '9', '23'] 205.8823529411767
55 4.117647058823529 ['16', '9', '23'] 205.8823529411767
56 4.117647058823529 ['16', '9', '23'] 205.8823529411767
57 4.117647058823529 ['16', '9', '23'] 205.8823529411767
58 4.117647058823529 ['16', '9', '23'] 205.8823529411767
59 4.117647058823529 ['16', '9', '23'] 205.8823529411767
60 4.117647058823529 ['16', '9', '23'] 205.8823529411767
61 4.117647058823529 ['16', '9', '23'] 205.8823529411767
62 4.117647058823529 ['16', '9', '23'] 205.8823529411767
63 4.117647058823529 ['16', '9', '23'] 205.8823529411767
64 4.117647058823529 ['16', '9', '23'] 205.8823529411767
65 4.117647058823529 ['16', '9', '23'] 205.8823529411767
66 4.117647058823529 ['16', '9', '23'] 205.8823529411767
67 4.117647058823529 ['16', '9', '23'] 205.8823529411767
68 4.117647058823529 ['16', '9', '23'] 205.8823529411767
69 4.117647058823529 ['16', '9', '23'] 205.8823529411767
70 4.117647058823529 ['16', '9', '23'] 205.8823529411767
71 4.117647058823529 ['16', '9', '23'] 205.8823529411767
72 4.117647058823529 ['16', '9', '23'] 205.8823529411767
73 4.117647058823529 ['16', '9', '23'] 205.8823529411767
74 4.117647058823529 ['16', '9', '23'] 205.8823529411767
75 4.117647058823529 ['16', '9', '23'] 205.8823529411767
76 4.117647058823529 ['16', '9', '23'] 205.8823529411767
77 4.117647058823529 ['16', '9', '23'] 205.8823529411767
78 4.117647058823529 ['16', '9', '23'] 205.8823529411767
79 4.117647058823529 ['16', '9', '23'] 205.8823529411767
80 4.117647058823529 ['16', '9', '23'] 205.8823529411767
81 4.117647058823529 ['16', '9', '23'] 205.8823529411767
82 4.117647058823529 ['16', '9', '23'] 205.8823529411767
83 4.117647058823529 ['16', '9', '23'] 205.8823529411767
84 4.117647058823529 ['16', '9', '23'] 205.8823529411767
85 4.117647058823529 ['16', '9', '23'] 205.8823529411767
86 4.117647058823529 ['16', '9', '23'] 205.8823529411767
87 4.117647058823529 ['16', '9', '23'] 205.8823529411767
88 4.117647058823529 ['16', '9', '23'] 205.8823529411767
89 4.117647058823529 ['16', '9', '23'] 205.8823529411767
90 4.117647058823529 ['16', '9', '23'] 205.8823529411767
91 4.117647058823529 ['16', '9', '23'] 205.8823529411767
92 4.117647058823529 ['16', '9', '23'] 205.8823529411767
93 4.117647058823529 ['16', '9', '23'] 205.8823529411767
94 4.117647058823529 ['16', '9', '23'] 205.8823529411767
95 4.117647058823529 ['16', '9', '23'] 205.8823529411767
96 4.117647058823529 ['16', '9', '23'] 205.8823529411767
97 4.117647058823529 ['16', '9', '23'] 205.8823529411767
98 4.117647058823529 ['16', '9', '23'] 205.8823529411767
99 4.117647058823529 ['16', '9', '23'] 205.8823529411767
100 4.117647058823529 ['16', '9', '23'] 205.8823529411767
101 4.117647058823529 ['16', '9', '23'] 205.8823529411767
102 4.117647058823529 ['16', '9', '23'] 205.8823529411767
103 4.117647058823529 ['16', '9', '23'] 205.8823529411767
104 4.117647058823529 ['16', '9', '23'] 205.8823529411767
105 4.117647058823529 ['16', '9', '23'] 205.8823529411767
106 4.117647058823529 ['16', '9', '23'] 205.8823529411767
107 4.117647058823529 ['16', '9', '23'] 205.8823529411767
108 4.117647058823529 ['16', '9', '23'] 205.8823529411767
109 4.117647058823529 ['16', '9', '23'] 205.8823529411767
110 4.117647058823529 ['16', '9', '23'] 205.8823529411767
111 4.117647058823529 ['16', '9', '23'] 205.8823529411767
112 4.117647058823529 ['16', '9', '23'] 205.8823529411767
113 4.117647058823529 ['16', '9', '23'] 205.8823529411767
114 4.117647058823529 ['16', '9', '23'] 205.8823529411767
115 4.117647058823529 ['16', '9', '23'] 205.8823529411767
116 4.117647058823529 ['16', '9', '23'] 205.8823529411767
117 4.117647058823529 ['16', '9', '23'] 205.8823529411767
118 4.117647058823529 ['16', '9', '23'] 205.8823529411767
119 4.117647058823529 ['16', '9', '23'] 205.8823529411767
120 4.117647058823529 ['16', '9', '23'] 205.8823529411767
121 4.117647058823529 ['16', '9', '23'] 205.8823529411767
122 4.117647058823529 ['16', '9', '23'] 205.8823529411767
123 4.117647058823529 ['16', '9', '23'] 205.8823529411767
124 4.117647058823529 ['16', '9', '23'] 205.8823529411767
125 4.117647058823529 ['16', '9', '23'] 205.8823529411767
126 4.117647058823529 ['16', '9', '23'] 205.8823529411767
127 4.117647058823529 ['16', '9', '23'] 205.8823529411767
128 4.117647058823529 ['16', '9', '23'] 205.8823529411767
129 4.117647058823529 ['16', '9', '23'] 205.8823529411767
130 4.117647058823529 ['16', '9', '23'] 205.8823529411767
131 4.117647058823529 ['16', '9', '23'] 205.8823529411767
132 4.117647058823529 ['16', '9', '23'] 205.8823529411767
133 4.117647058823529 ['16', '9', '23'] 205.8823529411767
134 4.117647058823529 ['16', '9', '23'] 205.8823529411767
135 4.117647058823529 ['16', '9', '23'] 205.8823529411767
136 4.117647058823529 ['16', '9', '23'] 205.8823529411767
137 4.117647058823529 ['16', '9', '23'] 205.8823529411767
138 4.117647058823529 ['16', '9', '23'] 205.8823529411767
139 4.117647058823529 ['16', '9', '23'] 205.8823529411767
140 4.117647058823529 ['16', '9', '23'] 205.8823529411767
141 4.117647058823529 ['16', '9', '23'] 205.8823529411767
142 4.117647058823529 ['16', '9', '23'] 205.8823529411767
143 4.117647058823529 ['16', '9', '23'] 205.8823529411767
144 4.117647058823529 ['16', '9', '23'] 205.8823529411767
145 4.117647058823529 ['16', '9', '23'] 205.8823529411767
146 4.117647058823529 ['16', '9', '23'] 205.8823529411767
147 4.117647058823529 ['16', '9', '23'] 205.8823529411767
148 4.117647058823529 ['16', '9', '23'] 205.8823529411767
149 4.117647058823529 ['16', '9', '23'] 205.8823529411767
150 4.117647058823529 ['16', '9', '23'] 205.8823529411767
151 4.117647058823529 ['16', '9', '23'] 205.8823529411767
152 4.117647058823529 ['16', '9', '23'] 205.8823529411767
153 4.117647058823529 ['16', '9', '23'] 205.8823529411767
154 4.117647058823529 ['16', '9', '23'] 205.8823529411767
155 4.117647058823529 ['16', '9', '23'] 205.8823529411767
156 4.117647058823529 ['16', '9', '23'] 205.8823529411767
157 4.117647058823529 ['16', '9', '23'] 205.8823529411767
158 4.117647058823529 ['16', '9', '23'] 205.8823529411767
159 4.117647058823529 ['16', '9', '23'] 205.8823529411767
160 4.117647058823529 ['16', '9', '23'] 205.8823529411767
161 4.117647058823529 ['16', '9', '23'] 205.8823529411767
162 4.117647058823529 ['16', '9', '23'] 205.8823529411767
163 4.117647058823529 ['16', '9', '23'] 205.8823529411767
164 4.117647058823529 ['16', '9', '23'] 205.8823529411767
165 4.117647058823529 ['16', '9', '23'] 205.8823529411767
166 4.117647058823529 ['16', '9', '23'] 205.8823529411767
167 4.117647058823529 ['16', '9', '23'] 205.8823529411767
168 4.117647058823529 ['16', '9', '23'] 205.8823529411767
169 4.117647058823529 ['16', '9', '23'] 205.8823529411767
170 4.117647058823529 ['16', '9', '23'] 205.8823529411767
171 4.117647058823529 ['16', '9', '23'] 205.8823529411767
172 4.117647058823529 ['16', '9', '23'] 205.8823529411767
173 4.117647058823529 ['16', '9', '23'] 205.8823529411767
174 4.117647058823529 ['16', '9', '23'] 205.8823529411767
175 4.117647058823529 ['16', '9', '23'] 205.8823529411767
176 4.117647058823529 ['16', '9', '23'] 205.8823529411767
177 4.117647058823529 ['16', '9', '23'] 205.8823529411767
178 4.117647058823529 ['16', '9', '23'] 205.8823529411767
179 4.117647058823529 ['16', '9', '23'] 205.8823529411767
180 4.117647058823529 ['16', '9', '23'] 205.8823529411767
181 4.117647058823529 ['16', '9', '23'] 205.8823529411767
182 4.117647058823529 ['16', '9', '23'] 205.8823529411767
183 4.117647058823529 ['16', '9', '23'] 205.8823529411767
184 4.117647058823529 ['16', '9', '23'] 205.8823529411767
185 4.117647058823529 ['16', '9', '23'] 205.8823529411767
186 4.117647058823529 ['16', '9', '23'] 205.8823529411767
187 4.117647058823529 ['16', '9', '23'] 205.8823529411767
188 4.117647058823529 ['16', '9', '23'] 205.8823529411767
189 4.117647058823529 ['16', '9', '23'] 205.8823529411767
190 4.117647058823529 ['16', '9', '23'] 205.8823529411767
191 4.117647058823529 ['16', '9', '23'] 205.8823529411767
192 4.117647058823529 ['16', '9', '23'] 205.8823529411767
193 4.117647058823529 ['16', '9', '23'] 205.8823529411767
194 4.117647058823529 ['16', '9', '23'] 205.8823529411767
195 4.117647058823529 ['16', '9', '23'] 205.8823529411767
196 4.117647058823529 ['16', '9', '23'] 205.8823529411767
197 4.117647058823529 ['16', '9', '23'] 205.8823529411767
198 4.117647058823529 ['16', '9', '23'] 205.8823529411767
199 4.117647058823529 ['16', '9', '23'] 205.8823529411767
