0 511.6666666666667 ['26', '11', '9', '27'] 27389.43589743589
1 505.15384615384613 ['16', '26', '11', '22'] 26727.7435897436
2 483.94871794871796 ['23', '36', '11', '26'] 26012.256410256407
3 469.79487179487177 ['11', '26', '8', '36'] 25398.128205128203
4 469.79487179487177 ['11', '26', '8', '36'] 24900.282051282054
5 469.79487179487177 ['11', '26', '8', '36'] 24520.769230769223
6 469.79487179487177 ['11', '26', '8', '36'] 24103.410256410254
7 469.79487179487177 ['11', '26', '8', '36'] 23809.76923076922
8 469.79487179487177 ['11', '26', '8', '36'] 23518.25641025641
9 469.79487179487177 ['11', '26', '8', '36'] 23489.74358974357
10 469.79487179487177 ['11', '26', '8', '36'] 23489.74358974357
11 469.79487179487177 ['11', '26', '8', '36'] 23489.74358974357
12 469.79487179487177 ['11', '26', '8', '36'] 23489.74358974357
13 469.79487179487177 ['11', '26', '8', '36'] 23489.74358974357
14 469.79487179487177 ['11', '26', '8', '36'] 23489.74358974357
15 469.79487179487177 ['11', '26', '8', '36'] 23489.74358974357
16 469.79487179487177 ['11', '26', '8', '36'] 23489.74358974357
17 469.79487179487177 ['11', '26', '8', '36'] 23489.74358974357
18 469.79487179487177 ['11', '26', '8', '36'] 23489.74358974357
19 469.79487179487177 ['11', '26', '8', '36'] 23489.74358974357
20 469.79487179487177 ['11', '26', '8', '36'] 23489.74358974357
21 469.79487179487177 ['11', '26', '8', '36'] 23489.74358974357
22 469.79487179487177 ['11', '26', '8', '36'] 23489.74358974357
23 469.79487179487177 ['11', '26', '8', '36'] 23489.74358974357
24 469.79487179487177 ['11', '26', '8', '36'] 23489.74358974357
25 469.79487179487177 ['11', '26', '8', '36'] 23489.74358974357
26 469.79487179487177 ['11', '26', '8', '36'] 23489.74358974357
27 469.79487179487177 ['11', '26', '8', '36'] 23489.74358974357
28 469.79487179487177 ['11', '26', '8', '36'] 23489.74358974357
29 469.79487179487177 ['11', '26', '8', '36'] 23489.74358974357
30 469.79487179487177 ['11', '26', '8', '36'] 23489.74358974357
31 469.79487179487177 ['11', '26', '8', '36'] 23489.74358974357
32 469.79487179487177 ['11', '26', '8', '36'] 23489.74358974357
33 469.79487179487177 ['11', '26', '8', '36'] 23489.74358974357
34 469.79487179487177 ['11', '26', '8', '36'] 23489.74358974357
35 469.79487179487177 ['11', '26', '8', '36'] 23489.74358974357
36 469.79487179487177 ['11', '26', '8', '36'] 23489.74358974357
37 469.79487179487177 ['11', '26', '8', '36'] 23489.74358974357
38 469.79487179487177 ['11', '26', '8', '36'] 23489.74358974357
39 469.79487179487177 ['11', '26', '8', '36'] 23489.74358974357
40 469.79487179487177 ['11', '26', '8', '36'] 23489.74358974357
41 469.79487179487177 ['11', '26', '8', '36'] 23489.74358974357
42 469.79487179487177 ['11', '26', '8', '36'] 23489.74358974357
43 469.79487179487177 ['11', '26', '8', '36'] 23489.74358974357
44 469.79487179487177 ['11', '26', '8', '36'] 23489.74358974357
45 469.79487179487177 ['11', '26', '8', '36'] 23489.74358974357
46 469.79487179487177 ['11', '26', '8', '36'] 23489.74358974357
47 469.79487179487177 ['11', '26', '8', '36'] 23489.74358974357
48 469.79487179487177 ['11', '26', '8', '36'] 23489.74358974357
49 469.79487179487177 ['11', '26', '8', '36'] 23489.74358974357
50 469.79487179487177 ['11', '26', '8', '36'] 23489.74358974357
51 469.79487179487177 ['11', '26', '8', '36'] 23489.74358974357
52 469.79487179487177 ['11', '26', '8', '36'] 23489.74358974357
53 469.79487179487177 ['11', '26', '8', '36'] 23489.74358974357
54 469.79487179487177 ['11', '26', '8', '36'] 23489.74358974357
55 469.79487179487177 ['11', '26', '8', '36'] 23489.74358974357
56 469.79487179487177 ['11', '26', '8', '36'] 23489.74358974357
57 469.79487179487177 ['11', '26', '8', '36'] 23489.74358974357
58 469.79487179487177 ['11', '26', '8', '36'] 23489.74358974357
59 469.79487179487177 ['11', '26', '8', '36'] 23489.74358974357
60 469.79487179487177 ['11', '26', '8', '36'] 23489.74358974357
61 469.79487179487177 ['11', '26', '8', '36'] 23489.74358974357
62 469.79487179487177 ['11', '26', '8', '36'] 23489.74358974357
63 469.79487179487177 ['11', '26', '8', '36'] 23489.74358974357
64 469.79487179487177 ['11', '26', '8', '36'] 23489.74358974357
65 469.79487179487177 ['11', '26', '8', '36'] 23489.74358974357
66 469.79487179487177 ['11', '26', '8', '36'] 23489.74358974357
67 469.79487179487177 ['11', '26', '8', '36'] 23489.74358974357
68 469.79487179487177 ['11', '26', '8', '36'] 23489.74358974357
69 469.79487179487177 ['11', '26', '8', '36'] 23489.74358974357
70 469.79487179487177 ['11', '26', '8', '36'] 23489.74358974357
71 469.79487179487177 ['11', '26', '8', '36'] 23489.74358974357
72 469.79487179487177 ['11', '26', '8', '36'] 23489.74358974357
73 469.79487179487177 ['11', '26', '8', '36'] 23489.74358974357
74 469.79487179487177 ['11', '26', '8', '36'] 23489.74358974357
75 469.79487179487177 ['11', '26', '8', '36'] 23489.74358974357
76 469.79487179487177 ['11', '26', '8', '36'] 23489.74358974357
77 469.79487179487177 ['11', '26', '8', '36'] 23489.74358974357
78 469.79487179487177 ['11', '26', '8', '36'] 23489.74358974357
79 469.79487179487177 ['11', '26', '8', '36'] 23489.74358974357
80 469.79487179487177 ['11', '26', '8', '36'] 23489.74358974357
81 469.79487179487177 ['11', '26', '8', '36'] 23489.74358974357
82 469.79487179487177 ['11', '26', '8', '36'] 23489.74358974357
83 469.79487179487177 ['11', '26', '8', '36'] 23489.74358974357
84 469.79487179487177 ['11', '26', '8', '36'] 23489.74358974357
85 469.79487179487177 ['11', '26', '8', '36'] 23489.74358974357
86 469.79487179487177 ['11', '26', '8', '36'] 23489.74358974357
87 469.79487179487177 ['11', '26', '8', '36'] 23489.74358974357
88 469.79487179487177 ['11', '26', '8', '36'] 23489.74358974357
89 469.79487179487177 ['11', '26', '8', '36'] 23489.74358974357
90 469.79487179487177 ['11', '26', '8', '36'] 23489.74358974357
91 469.79487179487177 ['11', '26', '8', '36'] 23489.74358974357
92 469.79487179487177 ['11', '26', '8', '36'] 23489.74358974357
93 469.79487179487177 ['11', '26', '8', '36'] 23489.74358974357
94 469.79487179487177 ['11', '26', '8', '36'] 23489.74358974357
95 469.79487179487177 ['11', '26', '8', '36'] 23489.74358974357
96 469.79487179487177 ['11', '26', '8', '36'] 23489.74358974357
97 469.79487179487177 ['11', '26', '8', '36'] 23489.74358974357
98 469.79487179487177 ['11', '26', '8', '36'] 23489.74358974357
99 469.79487179487177 ['11', '26', '8', '36'] 23489.74358974357
100 469.79487179487177 ['11', '26', '8', '36'] 23489.74358974357
101 469.79487179487177 ['11', '26', '8', '36'] 23489.74358974357
102 469.79487179487177 ['11', '26', '8', '36'] 23489.74358974357
103 469.79487179487177 ['11', '26', '8', '36'] 23489.74358974357
104 469.79487179487177 ['11', '26', '8', '36'] 23489.74358974357
105 469.79487179487177 ['11', '26', '8', '36'] 23489.74358974357
106 469.79487179487177 ['11', '26', '8', '36'] 23489.74358974357
107 469.79487179487177 ['11', '26', '8', '36'] 23489.74358974357
108 469.79487179487177 ['11', '26', '8', '36'] 23489.74358974357
109 469.79487179487177 ['11', '26', '8', '36'] 23489.74358974357
110 469.79487179487177 ['11', '26', '8', '36'] 23489.74358974357
111 469.79487179487177 ['11', '26', '8', '36'] 23489.74358974357
112 469.79487179487177 ['11', '26', '8', '36'] 23489.74358974357
113 469.79487179487177 ['11', '26', '8', '36'] 23489.74358974357
114 469.79487179487177 ['11', '26', '8', '36'] 23489.74358974357
115 469.79487179487177 ['11', '26', '8', '36'] 23489.74358974357
116 469.79487179487177 ['11', '26', '8', '36'] 23489.74358974357
117 469.79487179487177 ['11', '26', '8', '36'] 23489.74358974357
118 469.79487179487177 ['11', '26', '8', '36'] 23489.74358974357
119 469.79487179487177 ['11', '26', '8', '36'] 23489.74358974357
120 469.79487179487177 ['11', '26', '8', '36'] 23489.74358974357
121 469.79487179487177 ['11', '26', '8', '36'] 23489.74358974357
122 469.79487179487177 ['11', '26', '8', '36'] 23489.74358974357
123 469.79487179487177 ['11', '26', '8', '36'] 23489.74358974357
124 469.79487179487177 ['11', '26', '8', '36'] 23489.74358974357
125 469.79487179487177 ['11', '26', '8', '36'] 23489.74358974357
126 469.79487179487177 ['11', '26', '8', '36'] 23489.74358974357
127 469.79487179487177 ['11', '26', '8', '36'] 23489.74358974357
128 469.79487179487177 ['11', '26', '8', '36'] 23489.74358974357
129 469.79487179487177 ['11', '26', '8', '36'] 23489.74358974357
130 469.79487179487177 ['11', '26', '8', '36'] 23489.74358974357
131 469.79487179487177 ['11', '26', '8', '36'] 23489.74358974357
132 469.79487179487177 ['11', '26', '8', '36'] 23489.74358974357
133 469.79487179487177 ['11', '26', '8', '36'] 23489.74358974357
134 469.79487179487177 ['11', '26', '8', '36'] 23489.74358974357
135 469.79487179487177 ['11', '26', '8', '36'] 23489.74358974357
136 469.79487179487177 ['11', '26', '8', '36'] 23489.74358974357
137 469.79487179487177 ['11', '26', '8', '36'] 23489.74358974357
138 469.79487179487177 ['11', '26', '8', '36'] 23489.74358974357
139 469.79487179487177 ['11', '26', '8', '36'] 23489.74358974357
140 469.79487179487177 ['11', '26', '8', '36'] 23489.74358974357
141 469.79487179487177 ['11', '26', '8', '36'] 23489.74358974357
142 469.79487179487177 ['11', '26', '8', '36'] 23489.74358974357
143 469.79487179487177 ['11', '26', '8', '36'] 23489.74358974357
144 469.79487179487177 ['11', '26', '8', '36'] 23489.74358974357
145 469.79487179487177 ['11', '26', '8', '36'] 23489.74358974357
146 469.79487179487177 ['11', '26', '8', '36'] 23489.74358974357
147 469.79487179487177 ['11', '26', '8', '36'] 23489.74358974357
148 469.79487179487177 ['11', '26', '8', '36'] 23489.74358974357
149 469.79487179487177 ['11', '26', '8', '36'] 23489.74358974357
150 469.79487179487177 ['11', '26', '8', '36'] 23489.74358974357
151 469.79487179487177 ['11', '26', '8', '36'] 23489.74358974357
152 469.79487179487177 ['11', '26', '8', '36'] 23489.74358974357
153 469.79487179487177 ['11', '26', '8', '36'] 23489.74358974357
154 469.79487179487177 ['11', '26', '8', '36'] 23489.74358974357
155 469.79487179487177 ['11', '26', '8', '36'] 23489.74358974357
156 469.79487179487177 ['11', '26', '8', '36'] 23489.74358974357
157 469.79487179487177 ['11', '26', '8', '36'] 23489.74358974357
158 469.79487179487177 ['11', '26', '8', '36'] 23489.74358974357
159 469.79487179487177 ['11', '26', '8', '36'] 23489.74358974357
160 469.79487179487177 ['11', '26', '8', '36'] 23489.74358974357
161 469.79487179487177 ['11', '26', '8', '36'] 23489.74358974357
162 469.79487179487177 ['11', '26', '8', '36'] 23489.74358974357
163 469.79487179487177 ['11', '26', '8', '36'] 23489.74358974357
164 469.79487179487177 ['11', '26', '8', '36'] 23489.74358974357
165 469.79487179487177 ['11', '26', '8', '36'] 23489.74358974357
166 469.79487179487177 ['11', '26', '8', '36'] 23489.74358974357
167 469.79487179487177 ['11', '26', '8', '36'] 23489.74358974357
168 469.79487179487177 ['11', '26', '8', '36'] 23489.74358974357
169 469.79487179487177 ['11', '26', '8', '36'] 23489.74358974357
170 469.79487179487177 ['11', '26', '8', '36'] 23489.74358974357
171 469.79487179487177 ['11', '26', '8', '36'] 23489.74358974357
172 469.79487179487177 ['11', '26', '8', '36'] 23489.74358974357
173 469.79487179487177 ['11', '26', '8', '36'] 23489.74358974357
174 469.79487179487177 ['11', '26', '8', '36'] 23489.74358974357
175 469.79487179487177 ['11', '26', '8', '36'] 23489.74358974357
176 469.79487179487177 ['11', '26', '8', '36'] 23489.74358974357
177 469.79487179487177 ['11', '26', '8', '36'] 23489.74358974357
178 469.79487179487177 ['11', '26', '8', '36'] 23489.74358974357
179 469.79487179487177 ['11', '26', '8', '36'] 23489.74358974357
180 469.79487179487177 ['11', '26', '8', '36'] 23489.74358974357
181 469.79487179487177 ['11', '26', '8', '36'] 23489.74358974357
182 469.79487179487177 ['11', '26', '8', '36'] 23489.74358974357
183 469.79487179487177 ['11', '26', '8', '36'] 23489.74358974357
184 469.79487179487177 ['11', '26', '8', '36'] 23489.74358974357
185 469.79487179487177 ['11', '26', '8', '36'] 23489.74358974357
186 469.79487179487177 ['11', '26', '8', '36'] 23489.74358974357
187 469.79487179487177 ['11', '26', '8', '36'] 23489.74358974357
188 469.79487179487177 ['11', '26', '8', '36'] 23489.74358974357
189 469.79487179487177 ['11', '26', '8', '36'] 23489.74358974357
190 469.79487179487177 ['11', '26', '8', '36'] 23489.74358974357
191 469.79487179487177 ['11', '26', '8', '36'] 23489.74358974357
192 469.79487179487177 ['11', '26', '8', '36'] 23489.74358974357
193 469.79487179487177 ['11', '26', '8', '36'] 23489.74358974357
194 469.79487179487177 ['11', '26', '8', '36'] 23489.74358974357
195 469.79487179487177 ['11', '26', '8', '36'] 23489.74358974357
196 469.79487179487177 ['11', '26', '8', '36'] 23489.74358974357
197 469.79487179487177 ['11', '26', '8', '36'] 23489.74358974357
198 469.79487179487177 ['11', '26', '8', '36'] 23489.74358974357
199 469.79487179487177 ['11', '26', '8', '36'] 23489.74358974357
