0 30.9 ['34', '3', '38', '1', '18'] 1638.4000000000003
1 30.9 ['34', '3', '38', '1', '18'] 1611.2600000000004
2 30.88 ['34', '38', '18', '1', '5'] 1585.1599999999996
3 30.7 ['3', '34', '38', '35', '1'] 1561.7400000000002
4 29.94 ['34', '35', '7', '39', '38'] 1543.3200000000008
5 29.62 ['34', '35', '38', '39', '6'] 1528.3800000000008
6 29.62 ['34', '35', '38', '39', '6'] 1514.9000000000008
7 29.4 ['38', '34', '6', '1', '39'] 1503.0400000000004
8 29.4 ['38', '34', '6', '1', '39'] 1493.8399999999997
9 29.4 ['38', '34', '6', '1', '39'] 1486.2400000000011
10 29.4 ['38', '34', '6', '1', '39'] 1481.3800000000012
11 29.4 ['38', '34', '6', '1', '39'] 1476.4399999999985
12 29.4 ['38', '34', '6', '1', '39'] 1471.06
13 29.4 ['38', '34', '6', '1', '39'] 1470.000000000001
14 29.4 ['38', '34', '6', '1', '39'] 1470.000000000001
15 29.4 ['38', '34', '6', '1', '39'] 1470.000000000001
16 29.4 ['38', '34', '6', '1', '39'] 1470.000000000001
17 29.4 ['38', '34', '6', '1', '39'] 1470.000000000001
18 29.4 ['38', '34', '6', '1', '39'] 1470.000000000001
19 29.4 ['38', '34', '6', '1', '39'] 1470.000000000001
20 29.4 ['38', '34', '6', '1', '39'] 1470.000000000001
21 29.4 ['38', '34', '6', '1', '39'] 1470.000000000001
22 29.4 ['38', '34', '6', '1', '39'] 1470.000000000001
23 29.4 ['38', '34', '6', '1', '39'] 1470.000000000001
24 29.4 ['38', '34', '6', '1', '39'] 1470.000000000001
25 29.4 ['38', '34', '6', '1', '39'] 1470.000000000001
26 29.4 ['38', '34', '6', '1', '39'] 1470.000000000001
27 29.4 ['38', '34', '6', '1', '39'] 1470.000000000001
28 29.4 ['38', '34', '6', '1', '39'] 1470.000000000001
29 29.4 ['38', '34', '6', '1', '39'] 1470.000000000001
30 29.4 ['38', '34', '6', '1', '39'] 1470.000000000001
31 29.4 ['38', '34', '6', '1', '39'] 1470.000000000001
32 29.4 ['38', '34', '6', '1', '39'] 1470.000000000001
33 29.4 ['38', '34', '6', '1', '39'] 1470.000000000001
34 29.4 ['38', '34', '6', '1', '39'] 1470.000000000001
35 29.4 ['38', '34', '6', '1', '39'] 1470.000000000001
36 29.4 ['38', '34', '6', '1', '39'] 1470.000000000001
37 29.4 ['38', '34', '6', '1', '39'] 1470.000000000001
38 29.4 ['38', '34', '6', '1', '39'] 1470.000000000001
39 29.4 ['38', '34', '6', '1', '39'] 1470.000000000001
40 29.4 ['38', '34', '6', '1', '39'] 1470.000000000001
41 29.4 ['38', '34', '6', '1', '39'] 1470.000000000001
42 29.4 ['38', '34', '6', '1', '39'] 1470.000000000001
43 29.4 ['38', '34', '6', '1', '39'] 1470.000000000001
44 29.4 ['38', '34', '6', '1', '39'] 1470.000000000001
45 29.4 ['38', '34', '6', '1', '39'] 1470.000000000001
46 29.4 ['38', '34', '6', '1', '39'] 1470.000000000001
47 29.4 ['38', '34', '6', '1', '39'] 1470.000000000001
48 29.4 ['38', '34', '6', '1', '39'] 1470.000000000001
49 29.4 ['38', '34', '6', '1', '39'] 1470.000000000001
50 29.4 ['38', '34', '6', '1', '39'] 1470.000000000001
51 29.4 ['38', '34', '6', '1', '39'] 1470.000000000001
52 29.4 ['38', '34', '6', '1', '39'] 1470.000000000001
53 29.4 ['38', '34', '6', '1', '39'] 1470.000000000001
54 29.4 ['38', '34', '6', '1', '39'] 1470.000000000001
55 29.4 ['38', '34', '6', '1', '39'] 1470.000000000001
56 29.4 ['38', '34', '6', '1', '39'] 1470.000000000001
57 29.4 ['38', '34', '6', '1', '39'] 1470.000000000001
58 29.4 ['38', '34', '6', '1', '39'] 1470.000000000001
59 29.4 ['38', '34', '6', '1', '39'] 1470.000000000001
60 29.4 ['38', '34', '6', '1', '39'] 1470.000000000001
61 29.4 ['38', '34', '6', '1', '39'] 1470.000000000001
62 29.4 ['38', '34', '6', '1', '39'] 1470.000000000001
63 29.4 ['38', '34', '6', '1', '39'] 1470.000000000001
64 29.4 ['38', '34', '6', '1', '39'] 1470.000000000001
65 29.4 ['38', '34', '6', '1', '39'] 1470.000000000001
66 29.4 ['38', '34', '6', '1', '39'] 1470.000000000001
67 29.4 ['38', '34', '6', '1', '39'] 1470.000000000001
68 29.4 ['38', '34', '6', '1', '39'] 1470.000000000001
69 29.4 ['38', '34', '6', '1', '39'] 1470.000000000001
70 29.4 ['38', '34', '6', '1', '39'] 1470.000000000001
71 29.4 ['38', '34', '6', '1', '39'] 1470.000000000001
72 29.4 ['38', '34', '6', '1', '39'] 1470.000000000001
73 29.4 ['38', '34', '6', '1', '39'] 1470.000000000001
74 29.4 ['38', '34', '6', '1', '39'] 1470.000000000001
75 29.4 ['38', '34', '6', '1', '39'] 1470.000000000001
76 29.4 ['38', '34', '6', '1', '39'] 1470.000000000001
77 29.4 ['38', '34', '6', '1', '39'] 1470.000000000001
78 29.4 ['38', '34', '6', '1', '39'] 1470.000000000001
79 29.4 ['38', '34', '6', '1', '39'] 1470.000000000001
80 29.4 ['38', '34', '6', '1', '39'] 1470.000000000001
81 29.4 ['38', '34', '6', '1', '39'] 1470.000000000001
82 29.4 ['38', '34', '6', '1', '39'] 1470.000000000001
83 29.4 ['38', '34', '6', '1', '39'] 1470.000000000001
84 29.4 ['38', '34', '6', '1', '39'] 1470.000000000001
85 29.4 ['38', '34', '6', '1', '39'] 1470.000000000001
86 29.4 ['38', '34', '6', '1', '39'] 1470.000000000001
87 29.4 ['38', '34', '6', '1', '39'] 1470.000000000001
88 29.4 ['38', '34', '6', '1', '39'] 1470.000000000001
89 29.4 ['38', '34', '6', '1', '39'] 1470.000000000001
90 29.4 ['38', '34', '6', '1', '39'] 1470.000000000001
91 29.4 ['38', '34', '6', '1', '39'] 1470.000000000001
92 29.4 ['38', '34', '6', '1', '39'] 1470.000000000001
93 29.4 ['38', '34', '6', '1', '39'] 1470.000000000001
94 29.4 ['38', '34', '6', '1', '39'] 1470.000000000001
95 29.4 ['38', '34', '6', '1', '39'] 1470.000000000001
96 29.4 ['38', '34', '6', '1', '39'] 1470.000000000001
97 29.4 ['38', '34', '6', '1', '39'] 1470.000000000001
98 29.4 ['38', '34', '6', '1', '39'] 1470.000000000001
99 29.4 ['38', '34', '6', '1', '39'] 1470.000000000001
100 29.4 ['38', '34', '6', '1', '39'] 1470.000000000001
101 29.4 ['38', '34', '6', '1', '39'] 1470.000000000001
102 29.4 ['38', '34', '6', '1', '39'] 1470.000000000001
103 29.4 ['38', '34', '6', '1', '39'] 1470.000000000001
104 29.4 ['38', '34', '6', '1', '39'] 1470.000000000001
105 29.4 ['38', '34', '6', '1', '39'] 1470.000000000001
106 29.4 ['38', '34', '6', '1', '39'] 1470.000000000001
107 29.4 ['38', '34', '6', '1', '39'] 1470.000000000001
108 29.4 ['38', '34', '6', '1', '39'] 1470.000000000001
109 29.4 ['38', '34', '6', '1', '39'] 1470.000000000001
110 29.4 ['38', '34', '6', '1', '39'] 1470.000000000001
111 29.4 ['38', '34', '6', '1', '39'] 1470.000000000001
112 29.4 ['38', '34', '6', '1', '39'] 1470.000000000001
113 29.4 ['38', '34', '6', '1', '39'] 1470.000000000001
114 29.4 ['38', '34', '6', '1', '39'] 1470.000000000001
115 29.4 ['38', '34', '6', '1', '39'] 1470.000000000001
116 29.4 ['38', '34', '6', '1', '39'] 1470.000000000001
117 29.4 ['38', '34', '6', '1', '39'] 1470.000000000001
118 29.4 ['38', '34', '6', '1', '39'] 1470.000000000001
119 29.4 ['38', '34', '6', '1', '39'] 1470.000000000001
120 29.4 ['38', '34', '6', '1', '39'] 1470.000000000001
121 29.4 ['38', '34', '6', '1', '39'] 1470.000000000001
122 29.4 ['38', '34', '6', '1', '39'] 1470.000000000001
123 29.4 ['38', '34', '6', '1', '39'] 1470.000000000001
124 29.4 ['38', '34', '6', '1', '39'] 1470.000000000001
125 29.4 ['38', '34', '6', '1', '39'] 1470.000000000001
126 29.4 ['38', '34', '6', '1', '39'] 1470.000000000001
127 29.4 ['38', '34', '6', '1', '39'] 1470.000000000001
128 29.4 ['38', '34', '6', '1', '39'] 1470.000000000001
129 29.4 ['38', '34', '6', '1', '39'] 1470.000000000001
130 29.4 ['38', '34', '6', '1', '39'] 1470.000000000001
131 29.4 ['38', '34', '6', '1', '39'] 1470.000000000001
132 29.4 ['38', '34', '6', '1', '39'] 1470.000000000001
133 29.4 ['38', '34', '6', '1', '39'] 1470.000000000001
134 29.4 ['38', '34', '6', '1', '39'] 1470.000000000001
135 29.4 ['38', '34', '6', '1', '39'] 1470.000000000001
136 29.4 ['38', '34', '6', '1', '39'] 1470.000000000001
137 29.4 ['38', '34', '6', '1', '39'] 1470.000000000001
138 29.4 ['38', '34', '6', '1', '39'] 1470.000000000001
139 29.4 ['38', '34', '6', '1', '39'] 1470.000000000001
140 29.4 ['38', '34', '6', '1', '39'] 1470.000000000001
141 29.4 ['38', '34', '6', '1', '39'] 1470.000000000001
142 29.4 ['38', '34', '6', '1', '39'] 1470.000000000001
143 29.4 ['38', '34', '6', '1', '39'] 1470.000000000001
144 29.4 ['38', '34', '6', '1', '39'] 1470.000000000001
145 29.4 ['38', '34', '6', '1', '39'] 1470.000000000001
146 29.4 ['38', '34', '6', '1', '39'] 1470.000000000001
147 29.4 ['38', '34', '6', '1', '39'] 1470.000000000001
148 29.4 ['38', '34', '6', '1', '39'] 1470.000000000001
149 29.4 ['38', '34', '6', '1', '39'] 1470.000000000001
150 29.4 ['38', '34', '6', '1', '39'] 1470.000000000001
151 29.4 ['38', '34', '6', '1', '39'] 1470.000000000001
152 29.4 ['38', '34', '6', '1', '39'] 1470.000000000001
153 29.4 ['38', '34', '6', '1', '39'] 1470.000000000001
154 29.4 ['38', '34', '6', '1', '39'] 1470.000000000001
155 29.4 ['38', '34', '6', '1', '39'] 1470.000000000001
156 29.4 ['38', '34', '6', '1', '39'] 1470.000000000001
157 29.4 ['38', '34', '6', '1', '39'] 1470.000000000001
158 29.4 ['38', '34', '6', '1', '39'] 1470.000000000001
159 29.4 ['38', '34', '6', '1', '39'] 1470.000000000001
160 29.4 ['38', '34', '6', '1', '39'] 1470.000000000001
161 29.4 ['38', '34', '6', '1', '39'] 1470.000000000001
162 29.4 ['38', '34', '6', '1', '39'] 1470.000000000001
163 29.4 ['38', '34', '6', '1', '39'] 1470.000000000001
164 29.4 ['38', '34', '6', '1', '39'] 1470.000000000001
165 29.4 ['38', '34', '6', '1', '39'] 1470.000000000001
166 29.4 ['38', '34', '6', '1', '39'] 1470.000000000001
167 29.4 ['38', '34', '6', '1', '39'] 1470.000000000001
168 29.4 ['38', '34', '6', '1', '39'] 1470.000000000001
169 29.4 ['38', '34', '6', '1', '39'] 1470.000000000001
170 29.4 ['38', '34', '6', '1', '39'] 1470.000000000001
171 29.4 ['38', '34', '6', '1', '39'] 1470.000000000001
172 29.4 ['38', '34', '6', '1', '39'] 1470.000000000001
173 29.4 ['38', '34', '6', '1', '39'] 1470.000000000001
174 29.4 ['38', '34', '6', '1', '39'] 1470.000000000001
175 29.4 ['38', '34', '6', '1', '39'] 1470.000000000001
176 29.4 ['38', '34', '6', '1', '39'] 1470.000000000001
177 29.4 ['38', '34', '6', '1', '39'] 1470.000000000001
178 29.4 ['38', '34', '6', '1', '39'] 1470.000000000001
179 29.4 ['38', '34', '6', '1', '39'] 1470.000000000001
180 29.4 ['38', '34', '6', '1', '39'] 1470.000000000001
181 29.4 ['38', '34', '6', '1', '39'] 1470.000000000001
182 29.4 ['38', '34', '6', '1', '39'] 1470.000000000001
183 29.4 ['38', '34', '6', '1', '39'] 1470.000000000001
184 29.4 ['38', '34', '6', '1', '39'] 1470.000000000001
185 29.4 ['38', '34', '6', '1', '39'] 1470.000000000001
186 29.4 ['38', '34', '6', '1', '39'] 1470.000000000001
187 29.4 ['38', '34', '6', '1', '39'] 1470.000000000001
188 29.4 ['38', '34', '6', '1', '39'] 1470.000000000001
189 29.4 ['38', '34', '6', '1', '39'] 1470.000000000001
190 29.4 ['38', '34', '6', '1', '39'] 1470.000000000001
191 29.4 ['38', '34', '6', '1', '39'] 1470.000000000001
192 29.4 ['38', '34', '6', '1', '39'] 1470.000000000001
193 29.4 ['38', '34', '6', '1', '39'] 1470.000000000001
194 29.4 ['38', '34', '6', '1', '39'] 1470.000000000001
195 29.4 ['38', '34', '6', '1', '39'] 1470.000000000001
196 29.4 ['38', '34', '6', '1', '39'] 1470.000000000001
197 29.4 ['38', '34', '6', '1', '39'] 1470.000000000001
198 29.4 ['38', '34', '6', '1', '39'] 1470.000000000001
199 29.4 ['38', '34', '6', '1', '39'] 1470.000000000001
