0 5.888888888888889 ['21', '10', '28', '34'] 345.99999999999994
1 5.666666666666667 ['19', '35', '33', '34'] 328.5555555555556
2 5.222222222222222 ['33', '19', '6', '34'] 312.44444444444446
3 5.222222222222222 ['33', '19', '6', '34'] 301.1111111111111
4 5.0 ['34', '19', '28', '6'] 286.2222222222221
5 5.0 ['34', '19', '28', '6'] 272.5555555555553
6 5.0 ['34', '19', '28', '6'] 261.22222222222246
7 5.0 ['34', '19', '28', '6'] 257.00000000000017
8 5.0 ['34', '19', '28', '6'] 253.2222222222223
9 5.0 ['34', '19', '28', '6'] 250.11111111111111
10 5.0 ['34', '19', '28', '6'] 250.0
11 5.0 ['34', '19', '28', '6'] 250.0
12 5.0 ['34', '19', '28', '6'] 250.0
13 5.0 ['34', '19', '28', '6'] 250.0
14 5.0 ['34', '19', '28', '6'] 250.0
15 5.0 ['34', '19', '28', '6'] 250.0
16 5.0 ['34', '19', '28', '6'] 250.0
17 5.0 ['34', '19', '28', '6'] 250.0
18 5.0 ['34', '19', '28', '6'] 250.0
19 5.0 ['34', '19', '28', '6'] 250.0
20 5.0 ['34', '19', '28', '6'] 250.0
21 5.0 ['34', '19', '28', '6'] 250.0
22 5.0 ['34', '19', '28', '6'] 250.0
23 5.0 ['34', '19', '28', '6'] 250.0
24 5.0 ['34', '19', '28', '6'] 250.0
25 5.0 ['34', '19', '28', '6'] 250.0
26 5.0 ['34', '19', '28', '6'] 250.0
27 5.0 ['34', '19', '28', '6'] 250.0
28 5.0 ['34', '19', '28', '6'] 250.0
29 5.0 ['34', '19', '28', '6'] 250.0
30 5.0 ['34', '19', '28', '6'] 250.0
31 5.0 ['34', '19', '28', '6'] 250.0
32 5.0 ['34', '19', '28', '6'] 250.0
33 5.0 ['34', '19', '28', '6'] 250.0
34 5.0 ['34', '19', '28', '6'] 250.0
35 5.0 ['34', '19', '28', '6'] 250.0
36 5.0 ['34', '19', '28', '6'] 250.0
37 5.0 ['34', '19', '28', '6'] 250.0
38 5.0 ['34', '19', '28', '6'] 250.0
39 5.0 ['34', '19', '28', '6'] 250.0
40 5.0 ['34', '19', '28', '6'] 250.0
41 5.0 ['34', '19', '28', '6'] 250.0
42 5.0 ['34', '19', '28', '6'] 250.0
43 5.0 ['34', '19', '28', '6'] 250.0
44 5.0 ['34', '19', '28', '6'] 250.0
45 5.0 ['34', '19', '28', '6'] 250.0
46 5.0 ['34', '19', '28', '6'] 250.0
47 5.0 ['34', '19', '28', '6'] 250.0
48 5.0 ['34', '19', '28', '6'] 250.0
49 5.0 ['34', '19', '28', '6'] 250.0
50 5.0 ['34', '19', '28', '6'] 250.0
51 5.0 ['34', '19', '28', '6'] 250.0
52 5.0 ['34', '19', '28', '6'] 250.0
53 5.0 ['34', '19', '28', '6'] 250.0
54 5.0 ['34', '19', '28', '6'] 250.0
55 5.0 ['34', '19', '28', '6'] 250.0
56 5.0 ['34', '19', '28', '6'] 250.0
57 5.0 ['34', '19', '28', '6'] 250.0
58 5.0 ['34', '19', '28', '6'] 250.0
59 5.0 ['34', '19', '28', '6'] 250.0
60 5.0 ['34', '19', '28', '6'] 250.0
61 5.0 ['34', '19', '28', '6'] 250.0
62 5.0 ['34', '19', '28', '6'] 250.0
63 5.0 ['34', '19', '28', '6'] 250.0
64 5.0 ['34', '19', '28', '6'] 250.0
65 5.0 ['34', '19', '28', '6'] 250.0
66 5.0 ['34', '19', '28', '6'] 250.0
67 5.0 ['34', '19', '28', '6'] 250.0
68 5.0 ['34', '19', '28', '6'] 250.0
69 5.0 ['34', '19', '28', '6'] 250.0
70 5.0 ['34', '19', '28', '6'] 250.0
71 5.0 ['34', '19', '28', '6'] 250.0
72 5.0 ['34', '19', '28', '6'] 250.0
73 5.0 ['34', '19', '28', '6'] 250.0
74 5.0 ['34', '19', '28', '6'] 250.0
75 5.0 ['34', '19', '28', '6'] 250.0
76 5.0 ['34', '19', '28', '6'] 250.0
77 5.0 ['34', '19', '28', '6'] 250.0
78 5.0 ['34', '19', '28', '6'] 250.0
79 5.0 ['34', '19', '28', '6'] 250.0
80 5.0 ['34', '19', '28', '6'] 250.0
81 5.0 ['34', '19', '28', '6'] 250.0
82 5.0 ['34', '19', '28', '6'] 250.0
83 5.0 ['34', '19', '28', '6'] 250.0
84 5.0 ['34', '19', '28', '6'] 250.0
85 5.0 ['34', '19', '28', '6'] 250.0
86 5.0 ['34', '19', '28', '6'] 250.0
87 5.0 ['34', '19', '28', '6'] 250.0
88 5.0 ['34', '19', '28', '6'] 250.0
89 5.0 ['34', '19', '28', '6'] 250.0
90 5.0 ['34', '19', '28', '6'] 250.0
91 5.0 ['34', '19', '28', '6'] 250.0
92 5.0 ['34', '19', '28', '6'] 250.0
93 5.0 ['34', '19', '28', '6'] 250.0
94 5.0 ['34', '19', '28', '6'] 250.0
95 5.0 ['34', '19', '28', '6'] 250.0
96 5.0 ['34', '19', '28', '6'] 250.0
97 5.0 ['34', '19', '28', '6'] 250.0
98 5.0 ['34', '19', '28', '6'] 250.0
99 5.0 ['34', '19', '28', '6'] 250.0
100 5.0 ['34', '19', '28', '6'] 250.0
101 5.0 ['34', '19', '28', '6'] 250.0
102 5.0 ['34', '19', '28', '6'] 250.0
103 5.0 ['34', '19', '28', '6'] 250.0
104 5.0 ['34', '19', '28', '6'] 250.0
105 5.0 ['34', '19', '28', '6'] 250.0
106 5.0 ['34', '19', '28', '6'] 250.0
107 5.0 ['34', '19', '28', '6'] 250.0
108 5.0 ['34', '19', '28', '6'] 250.0
109 5.0 ['34', '19', '28', '6'] 250.0
110 5.0 ['34', '19', '28', '6'] 250.0
111 5.0 ['34', '19', '28', '6'] 250.0
112 5.0 ['34', '19', '28', '6'] 250.0
113 5.0 ['34', '19', '28', '6'] 250.0
114 5.0 ['34', '19', '28', '6'] 250.0
115 5.0 ['34', '19', '28', '6'] 250.0
116 5.0 ['34', '19', '28', '6'] 250.0
117 5.0 ['34', '19', '28', '6'] 250.0
118 5.0 ['34', '19', '28', '6'] 250.0
119 5.0 ['34', '19', '28', '6'] 250.0
120 5.0 ['34', '19', '28', '6'] 250.0
121 5.0 ['34', '19', '28', '6'] 250.0
122 5.0 ['34', '19', '28', '6'] 250.0
123 5.0 ['34', '19', '28', '6'] 250.0
124 5.0 ['34', '19', '28', '6'] 250.0
125 5.0 ['34', '19', '28', '6'] 250.0
126 5.0 ['34', '19', '28', '6'] 250.0
127 5.0 ['34', '19', '28', '6'] 250.0
128 5.0 ['34', '19', '28', '6'] 250.0
129 5.0 ['34', '19', '28', '6'] 250.0
130 5.0 ['34', '19', '28', '6'] 250.0
131 5.0 ['34', '19', '28', '6'] 250.0
132 5.0 ['34', '19', '28', '6'] 250.0
133 5.0 ['34', '19', '28', '6'] 250.0
134 5.0 ['34', '19', '28', '6'] 250.0
135 5.0 ['34', '19', '28', '6'] 250.0
136 5.0 ['34', '19', '28', '6'] 250.0
137 5.0 ['34', '19', '28', '6'] 250.0
138 5.0 ['34', '19', '28', '6'] 250.0
139 5.0 ['34', '19', '28', '6'] 250.0
140 5.0 ['34', '19', '28', '6'] 250.0
141 5.0 ['34', '19', '28', '6'] 250.0
142 5.0 ['34', '19', '28', '6'] 250.0
143 5.0 ['34', '19', '28', '6'] 250.0
144 5.0 ['34', '19', '28', '6'] 250.0
145 5.0 ['34', '19', '28', '6'] 250.0
146 5.0 ['34', '19', '28', '6'] 250.0
147 5.0 ['34', '19', '28', '6'] 250.0
148 5.0 ['34', '19', '28', '6'] 250.0
149 5.0 ['34', '19', '28', '6'] 250.0
150 5.0 ['34', '19', '28', '6'] 250.0
151 5.0 ['34', '19', '28', '6'] 250.0
152 5.0 ['34', '19', '28', '6'] 250.0
153 5.0 ['34', '19', '28', '6'] 250.0
154 5.0 ['34', '19', '28', '6'] 250.0
155 5.0 ['34', '19', '28', '6'] 250.0
156 5.0 ['34', '19', '28', '6'] 250.0
157 5.0 ['34', '19', '28', '6'] 250.0
158 5.0 ['34', '19', '28', '6'] 250.0
159 5.0 ['34', '19', '28', '6'] 250.0
160 5.0 ['34', '19', '28', '6'] 250.0
161 5.0 ['34', '19', '28', '6'] 250.0
162 5.0 ['34', '19', '28', '6'] 250.0
163 5.0 ['34', '19', '28', '6'] 250.0
164 5.0 ['34', '19', '28', '6'] 250.0
165 5.0 ['34', '19', '28', '6'] 250.0
166 5.0 ['34', '19', '28', '6'] 250.0
167 5.0 ['34', '19', '28', '6'] 250.0
168 5.0 ['34', '19', '28', '6'] 250.0
169 5.0 ['34', '19', '28', '6'] 250.0
170 5.0 ['34', '19', '28', '6'] 250.0
171 5.0 ['34', '19', '28', '6'] 250.0
172 5.0 ['34', '19', '28', '6'] 250.0
173 5.0 ['34', '19', '28', '6'] 250.0
174 5.0 ['34', '19', '28', '6'] 250.0
175 5.0 ['34', '19', '28', '6'] 250.0
176 5.0 ['34', '19', '28', '6'] 250.0
177 5.0 ['34', '19', '28', '6'] 250.0
178 5.0 ['34', '19', '28', '6'] 250.0
179 5.0 ['34', '19', '28', '6'] 250.0
180 5.0 ['34', '19', '28', '6'] 250.0
181 5.0 ['34', '19', '28', '6'] 250.0
182 5.0 ['34', '19', '28', '6'] 250.0
183 5.0 ['34', '19', '28', '6'] 250.0
184 5.0 ['34', '19', '28', '6'] 250.0
185 5.0 ['34', '19', '28', '6'] 250.0
186 5.0 ['34', '19', '28', '6'] 250.0
187 5.0 ['34', '19', '28', '6'] 250.0
188 5.0 ['34', '19', '28', '6'] 250.0
189 5.0 ['34', '19', '28', '6'] 250.0
190 5.0 ['34', '19', '28', '6'] 250.0
191 5.0 ['34', '19', '28', '6'] 250.0
192 5.0 ['34', '19', '28', '6'] 250.0
193 5.0 ['34', '19', '28', '6'] 250.0
194 5.0 ['34', '19', '28', '6'] 250.0
195 5.0 ['34', '19', '28', '6'] 250.0
196 5.0 ['34', '19', '28', '6'] 250.0
197 5.0 ['34', '19', '28', '6'] 250.0
198 5.0 ['34', '19', '28', '6'] 250.0
199 5.0 ['34', '19', '28', '6'] 250.0
