0 5.24679012345679 ['78', '69', '25', '104', '121', '61', '60', '142', '126', '148', '57', '150', '116', '76', '143'] 266.2875308641977
1 5.24679012345679 ['78', '69', '25', '104', '121', '61', '60', '142', '126', '148', '57', '150', '116', '76', '143'] 265.11666666666673
2 5.1635802469135825 ['35', '138', '150', '142', '69', '123', '137', '108', '121', '128', '143', '119', '45', '148', '34'] 264.15271604938283
3 5.1635802469135825 ['35', '138', '150', '142', '69', '123', '137', '108', '121', '128', '143', '119', '45', '148', '34'] 262.64456790123467
4 5.117283950617288 ['94', '138', '128', '103', '148', '140', '101', '141', '115', '104', '12', '80', '122', '86', '139'] 261.14604938271617
5 5.117283950617288 ['94', '138', '128', '103', '148', '140', '101', '141', '115', '104', '12', '80', '122', '86', '139'] 259.95074074074086
6 5.117283950617288 ['94', '138', '128', '103', '148', '140', '101', '141', '115', '104', '12', '80', '122', '86', '139'] 258.95987654321004
7 5.106543209876545 ['30', '148', '28', '128', '141', '145', '143', '136', '66', '126', '101', '119', '113', '122', '14'] 258.04000000000013
8 5.078518518518518 ['148', '136', '119', '128', '143', '141', '66', '33', '126', '94', '123', '28', '75', '138', '101'] 257.2281481481483
9 5.046790123456794 ['141', '143', '66', '148', '126', '119', '136', '28', '128', '142', '138', '101', '140', '75', '123'] 256.3430864197531
10 5.046790123456794 ['141', '143', '66', '148', '126', '119', '136', '28', '128', '142', '138', '101', '140', '75', '123'] 255.6113580246915
11 5.046790123456794 ['141', '143', '66', '148', '126', '119', '136', '28', '128', '142', '138', '101', '140', '75', '123'] 254.7945679012347
12 5.016296296296297 ['145', '66', '141', '148', '143', '136', '101', '126', '28', '119', '90', '33', '128', '110', '140'] 254.0201234567902
13 5.005925925925928 ['101', '126', '128', '28', '138', '143', '148', '131', '94', '66', '141', '145', '119', '108', '142'] 253.0765432098766
14 5.001481481481481 ['141', '143', '90', '28', '145', '148', '136', '66', '128', '101', '126', '110', '119', '51', '135'] 252.141975308642
15 4.986419753086424 ['138', '141', '51', '145', '101', '66', '148', '126', '128', '143', '119', '139', '104', '142', '28'] 251.2882716049384
16 4.983950617283951 ['128', '136', '143', '66', '145', '119', '148', '126', '28', '101', '141', '110', '135', '142', '90'] 250.80432098765425
17 4.980493827160496 ['101', '110', '66', '128', '28', '143', '94', '148', '141', '145', '126', '119', '90', '142', '51'] 250.28925925925944
18 4.9737037037037055 ['66', '128', '145', '148', '126', '141', '101', '142', '110', '143', '119', '28', '94', '90', '104'] 249.94370370370385
19 4.9737037037037055 ['66', '128', '145', '148', '126', '141', '101', '142', '110', '143', '119', '28', '94', '90', '104'] 249.5611111111111
20 4.972469135802467 ['119', '143', '145', '101', '126', '90', '110', '128', '66', '141', '148', '135', '28', '94', '150'] 249.24308641975307
21 4.966913580246914 ['126', '143', '119', '145', '90', '66', '128', '141', '110', '148', '101', '51', '94', '142', '150'] 248.99851851851872
22 4.966296296296298 ['94', '142', '148', '119', '128', '143', '145', '126', '90', '66', '101', '141', '28', '135', '104'] 248.7888888888891
23 4.960123456790125 ['94', '119', '143', '128', '126', '141', '145', '101', '104', '110', '148', '66', '28', '76', '150'] 248.59728395061737
24 4.960123456790125 ['94', '119', '143', '128', '126', '141', '145', '101', '104', '110', '148', '66', '28', '76', '150'] 248.5111111111112
25 4.960123456790125 ['94', '119', '143', '128', '126', '141', '145', '101', '104', '110', '148', '66', '28', '76', '150'] 248.40481481481484
26 4.958271604938274 ['145', '128', '94', '148', '104', '141', '126', '101', '119', '66', '143', '135', '150', '110', '142'] 248.29049382716047
27 4.955802469135802 ['119', '148', '66', '141', '126', '94', '128', '142', '145', '110', '143', '150', '101', '135', '90'] 248.1748148148148
28 4.955802469135802 ['119', '148', '66', '141', '126', '94', '128', '142', '145', '110', '143', '150', '101', '135', '90'] 248.026049382716
29 4.949259259259258 ['110', '148', '150', '141', '128', '101', '126', '119', '94', '66', '90', '143', '145', '135', '76'] 247.90382716049365
30 4.949259259259258 ['110', '148', '150', '141', '128', '101', '126', '119', '94', '66', '90', '143', '145', '135', '76'] 247.77790123456765
31 4.949259259259258 ['110', '148', '150', '141', '128', '101', '126', '119', '94', '66', '90', '143', '145', '135', '76'] 247.67407407407373
32 4.949259259259258 ['110', '148', '150', '141', '128', '101', '126', '119', '94', '66', '90', '143', '145', '135', '76'] 247.56283950617302
33 4.949259259259258 ['110', '148', '150', '141', '128', '101', '126', '119', '94', '66', '90', '143', '145', '135', '76'] 247.46296296296313
34 4.949259259259258 ['110', '148', '150', '141', '128', '101', '126', '119', '94', '66', '90', '143', '145', '135', '76'] 247.46296296296313
35 4.949259259259258 ['110', '148', '150', '141', '128', '101', '126', '119', '94', '66', '90', '143', '145', '135', '76'] 247.46296296296313
36 4.949259259259258 ['110', '148', '150', '141', '128', '101', '126', '119', '94', '66', '90', '143', '145', '135', '76'] 247.46296296296313
37 4.949259259259258 ['110', '148', '150', '141', '128', '101', '126', '119', '94', '66', '90', '143', '145', '135', '76'] 247.46296296296313
38 4.949259259259258 ['110', '148', '150', '141', '128', '101', '126', '119', '94', '66', '90', '143', '145', '135', '76'] 247.46296296296313
39 4.949259259259258 ['110', '148', '150', '141', '128', '101', '126', '119', '94', '66', '90', '143', '145', '135', '76'] 247.46296296296313
40 4.949259259259258 ['110', '148', '150', '141', '128', '101', '126', '119', '94', '66', '90', '143', '145', '135', '76'] 247.46296296296313
41 4.949259259259258 ['110', '148', '150', '141', '128', '101', '126', '119', '94', '66', '90', '143', '145', '135', '76'] 247.46296296296313
42 4.949259259259258 ['110', '148', '150', '141', '128', '101', '126', '119', '94', '66', '90', '143', '145', '135', '76'] 247.46296296296313
43 4.949259259259258 ['110', '148', '150', '141', '128', '101', '126', '119', '94', '66', '90', '143', '145', '135', '76'] 247.46296296296313
44 4.949259259259258 ['110', '148', '150', '141', '128', '101', '126', '119', '94', '66', '90', '143', '145', '135', '76'] 247.46296296296313
45 4.949259259259258 ['110', '148', '150', '141', '128', '101', '126', '119', '94', '66', '90', '143', '145', '135', '76'] 247.46296296296313
46 4.949259259259258 ['110', '148', '150', '141', '128', '101', '126', '119', '94', '66', '90', '143', '145', '135', '76'] 247.46296296296313
47 4.949259259259258 ['110', '148', '150', '141', '128', '101', '126', '119', '94', '66', '90', '143', '145', '135', '76'] 247.46296296296313
48 4.949259259259258 ['110', '148', '150', '141', '128', '101', '126', '119', '94', '66', '90', '143', '145', '135', '76'] 247.46296296296313
49 4.949259259259258 ['110', '148', '150', '141', '128', '101', '126', '119', '94', '66', '90', '143', '145', '135', '76'] 247.46296296296313
50 4.949259259259258 ['110', '148', '150', '141', '128', '101', '126', '119', '94', '66', '90', '143', '145', '135', '76'] 247.46296296296313
51 4.949259259259258 ['110', '148', '150', '141', '128', '101', '126', '119', '94', '66', '90', '143', '145', '135', '76'] 247.46296296296313
52 4.949259259259258 ['110', '148', '150', '141', '128', '101', '126', '119', '94', '66', '90', '143', '145', '135', '76'] 247.46296296296313
53 4.949259259259258 ['110', '148', '150', '141', '128', '101', '126', '119', '94', '66', '90', '143', '145', '135', '76'] 247.46296296296313
54 4.949259259259258 ['110', '148', '150', '141', '128', '101', '126', '119', '94', '66', '90', '143', '145', '135', '76'] 247.46296296296313
55 4.949259259259258 ['110', '148', '150', '141', '128', '101', '126', '119', '94', '66', '90', '143', '145', '135', '76'] 247.46296296296313
56 4.949259259259258 ['110', '148', '150', '141', '128', '101', '126', '119', '94', '66', '90', '143', '145', '135', '76'] 247.46296296296313
57 4.949259259259258 ['110', '148', '150', '141', '128', '101', '126', '119', '94', '66', '90', '143', '145', '135', '76'] 247.46296296296313
58 4.949259259259258 ['110', '148', '150', '141', '128', '101', '126', '119', '94', '66', '90', '143', '145', '135', '76'] 247.46296296296313
59 4.949259259259258 ['110', '148', '150', '141', '128', '101', '126', '119', '94', '66', '90', '143', '145', '135', '76'] 247.46296296296313
60 4.949259259259258 ['110', '148', '150', '141', '128', '101', '126', '119', '94', '66', '90', '143', '145', '135', '76'] 247.46296296296313
61 4.949259259259258 ['110', '148', '150', '141', '128', '101', '126', '119', '94', '66', '90', '143', '145', '135', '76'] 247.46296296296313
62 4.949259259259258 ['110', '148', '150', '141', '128', '101', '126', '119', '94', '66', '90', '143', '145', '135', '76'] 247.46296296296313
63 4.949259259259258 ['110', '148', '150', '141', '128', '101', '126', '119', '94', '66', '90', '143', '145', '135', '76'] 247.46296296296313
64 4.949259259259258 ['110', '148', '150', '141', '128', '101', '126', '119', '94', '66', '90', '143', '145', '135', '76'] 247.46296296296313
65 4.949259259259258 ['110', '148', '150', '141', '128', '101', '126', '119', '94', '66', '90', '143', '145', '135', '76'] 247.46296296296313
66 4.949259259259258 ['110', '148', '150', '141', '128', '101', '126', '119', '94', '66', '90', '143', '145', '135', '76'] 247.46296296296313
67 4.949259259259258 ['110', '148', '150', '141', '128', '101', '126', '119', '94', '66', '90', '143', '145', '135', '76'] 247.46296296296313
68 4.949259259259258 ['110', '148', '150', '141', '128', '101', '126', '119', '94', '66', '90', '143', '145', '135', '76'] 247.46296296296313
69 4.949259259259258 ['110', '148', '150', '141', '128', '101', '126', '119', '94', '66', '90', '143', '145', '135', '76'] 247.46296296296313
70 4.949259259259258 ['110', '148', '150', '141', '128', '101', '126', '119', '94', '66', '90', '143', '145', '135', '76'] 247.46296296296313
71 4.949259259259258 ['110', '148', '150', '141', '128', '101', '126', '119', '94', '66', '90', '143', '145', '135', '76'] 247.46296296296313
72 4.949259259259258 ['110', '148', '150', '141', '128', '101', '126', '119', '94', '66', '90', '143', '145', '135', '76'] 247.46296296296313
73 4.949259259259258 ['110', '148', '150', '141', '128', '101', '126', '119', '94', '66', '90', '143', '145', '135', '76'] 247.46296296296313
74 4.949259259259258 ['110', '148', '150', '141', '128', '101', '126', '119', '94', '66', '90', '143', '145', '135', '76'] 247.46296296296313
75 4.949259259259258 ['110', '148', '150', '141', '128', '101', '126', '119', '94', '66', '90', '143', '145', '135', '76'] 247.46296296296313
76 4.949259259259258 ['110', '148', '150', '141', '128', '101', '126', '119', '94', '66', '90', '143', '145', '135', '76'] 247.46296296296313
77 4.949259259259258 ['110', '148', '150', '141', '128', '101', '126', '119', '94', '66', '90', '143', '145', '135', '76'] 247.46296296296313
78 4.949259259259258 ['110', '148', '150', '141', '128', '101', '126', '119', '94', '66', '90', '143', '145', '135', '76'] 247.46296296296313
79 4.949259259259258 ['110', '148', '150', '141', '128', '101', '126', '119', '94', '66', '90', '143', '145', '135', '76'] 247.46296296296313
80 4.949259259259258 ['110', '148', '150', '141', '128', '101', '126', '119', '94', '66', '90', '143', '145', '135', '76'] 247.46296296296313
81 4.949259259259258 ['110', '148', '150', '141', '128', '101', '126', '119', '94', '66', '90', '143', '145', '135', '76'] 247.46296296296313
82 4.949259259259258 ['110', '148', '150', '141', '128', '101', '126', '119', '94', '66', '90', '143', '145', '135', '76'] 247.46296296296313
83 4.949259259259258 ['110', '148', '150', '141', '128', '101', '126', '119', '94', '66', '90', '143', '145', '135', '76'] 247.46296296296313
84 4.949259259259258 ['110', '148', '150', '141', '128', '101', '126', '119', '94', '66', '90', '143', '145', '135', '76'] 247.46296296296313
85 4.949259259259258 ['110', '148', '150', '141', '128', '101', '126', '119', '94', '66', '90', '143', '145', '135', '76'] 247.46296296296313
86 4.949259259259258 ['110', '148', '150', '141', '128', '101', '126', '119', '94', '66', '90', '143', '145', '135', '76'] 247.46296296296313
87 4.949259259259258 ['110', '148', '150', '141', '128', '101', '126', '119', '94', '66', '90', '143', '145', '135', '76'] 247.46296296296313
88 4.949259259259258 ['110', '148', '150', '141', '128', '101', '126', '119', '94', '66', '90', '143', '145', '135', '76'] 247.46296296296313
89 4.949259259259258 ['110', '148', '150', '141', '128', '101', '126', '119', '94', '66', '90', '143', '145', '135', '76'] 247.46296296296313
90 4.949259259259258 ['110', '148', '150', '141', '128', '101', '126', '119', '94', '66', '90', '143', '145', '135', '76'] 247.46296296296313
91 4.949259259259258 ['110', '148', '150', '141', '128', '101', '126', '119', '94', '66', '90', '143', '145', '135', '76'] 247.46296296296313
92 4.949259259259258 ['110', '148', '150', '141', '128', '101', '126', '119', '94', '66', '90', '143', '145', '135', '76'] 247.46296296296313
93 4.949259259259258 ['110', '148', '150', '141', '128', '101', '126', '119', '94', '66', '90', '143', '145', '135', '76'] 247.46296296296313
94 4.949259259259258 ['110', '148', '150', '141', '128', '101', '126', '119', '94', '66', '90', '143', '145', '135', '76'] 247.46296296296313
95 4.949259259259258 ['110', '148', '150', '141', '128', '101', '126', '119', '94', '66', '90', '143', '145', '135', '76'] 247.46296296296313
96 4.949259259259258 ['110', '148', '150', '141', '128', '101', '126', '119', '94', '66', '90', '143', '145', '135', '76'] 247.46296296296313
97 4.949259259259258 ['110', '148', '150', '141', '128', '101', '126', '119', '94', '66', '90', '143', '145', '135', '76'] 247.46296296296313
98 4.949259259259258 ['110', '148', '150', '141', '128', '101', '126', '119', '94', '66', '90', '143', '145', '135', '76'] 247.46296296296313
99 4.949259259259258 ['110', '148', '150', '141', '128', '101', '126', '119', '94', '66', '90', '143', '145', '135', '76'] 247.46296296296313
100 4.949259259259258 ['110', '148', '150', '141', '128', '101', '126', '119', '94', '66', '90', '143', '145', '135', '76'] 247.46296296296313
101 4.949259259259258 ['110', '148', '150', '141', '128', '101', '126', '119', '94', '66', '90', '143', '145', '135', '76'] 247.46296296296313
102 4.949259259259258 ['110', '148', '150', '141', '128', '101', '126', '119', '94', '66', '90', '143', '145', '135', '76'] 247.46296296296313
103 4.949259259259258 ['110', '148', '150', '141', '128', '101', '126', '119', '94', '66', '90', '143', '145', '135', '76'] 247.46296296296313
104 4.949259259259258 ['110', '148', '150', '141', '128', '101', '126', '119', '94', '66', '90', '143', '145', '135', '76'] 247.46296296296313
105 4.949259259259258 ['110', '148', '150', '141', '128', '101', '126', '119', '94', '66', '90', '143', '145', '135', '76'] 247.46296296296313
106 4.949259259259258 ['110', '148', '150', '141', '128', '101', '126', '119', '94', '66', '90', '143', '145', '135', '76'] 247.46296296296313
107 4.949259259259258 ['110', '148', '150', '141', '128', '101', '126', '119', '94', '66', '90', '143', '145', '135', '76'] 247.46296296296313
108 4.949259259259258 ['110', '148', '150', '141', '128', '101', '126', '119', '94', '66', '90', '143', '145', '135', '76'] 247.46296296296313
109 4.949259259259258 ['110', '148', '150', '141', '128', '101', '126', '119', '94', '66', '90', '143', '145', '135', '76'] 247.46296296296313
110 4.949259259259258 ['110', '148', '150', '141', '128', '101', '126', '119', '94', '66', '90', '143', '145', '135', '76'] 247.46296296296313
111 4.949259259259258 ['110', '148', '150', '141', '128', '101', '126', '119', '94', '66', '90', '143', '145', '135', '76'] 247.46296296296313
112 4.949259259259258 ['110', '148', '150', '141', '128', '101', '126', '119', '94', '66', '90', '143', '145', '135', '76'] 247.46296296296313
113 4.949259259259258 ['110', '148', '150', '141', '128', '101', '126', '119', '94', '66', '90', '143', '145', '135', '76'] 247.46296296296313
114 4.949259259259258 ['110', '148', '150', '141', '128', '101', '126', '119', '94', '66', '90', '143', '145', '135', '76'] 247.46296296296313
115 4.949259259259258 ['110', '148', '150', '141', '128', '101', '126', '119', '94', '66', '90', '143', '145', '135', '76'] 247.46296296296313
116 4.949259259259258 ['110', '148', '150', '141', '128', '101', '126', '119', '94', '66', '90', '143', '145', '135', '76'] 247.46296296296313
117 4.949259259259258 ['110', '148', '150', '141', '128', '101', '126', '119', '94', '66', '90', '143', '145', '135', '76'] 247.46296296296313
118 4.949259259259258 ['110', '148', '150', '141', '128', '101', '126', '119', '94', '66', '90', '143', '145', '135', '76'] 247.46296296296313
119 4.949259259259258 ['110', '148', '150', '141', '128', '101', '126', '119', '94', '66', '90', '143', '145', '135', '76'] 247.46296296296313
120 4.949259259259258 ['110', '148', '150', '141', '128', '101', '126', '119', '94', '66', '90', '143', '145', '135', '76'] 247.46296296296313
121 4.949259259259258 ['110', '148', '150', '141', '128', '101', '126', '119', '94', '66', '90', '143', '145', '135', '76'] 247.46296296296313
122 4.949259259259258 ['110', '148', '150', '141', '128', '101', '126', '119', '94', '66', '90', '143', '145', '135', '76'] 247.46296296296313
123 4.949259259259258 ['110', '148', '150', '141', '128', '101', '126', '119', '94', '66', '90', '143', '145', '135', '76'] 247.46296296296313
124 4.949259259259258 ['110', '148', '150', '141', '128', '101', '126', '119', '94', '66', '90', '143', '145', '135', '76'] 247.46296296296313
125 4.949259259259258 ['110', '148', '150', '141', '128', '101', '126', '119', '94', '66', '90', '143', '145', '135', '76'] 247.46296296296313
126 4.949259259259258 ['110', '148', '150', '141', '128', '101', '126', '119', '94', '66', '90', '143', '145', '135', '76'] 247.46296296296313
127 4.949259259259258 ['110', '148', '150', '141', '128', '101', '126', '119', '94', '66', '90', '143', '145', '135', '76'] 247.46296296296313
128 4.949259259259258 ['110', '148', '150', '141', '128', '101', '126', '119', '94', '66', '90', '143', '145', '135', '76'] 247.46296296296313
129 4.949259259259258 ['110', '148', '150', '141', '128', '101', '126', '119', '94', '66', '90', '143', '145', '135', '76'] 247.46296296296313
130 4.949259259259258 ['110', '148', '150', '141', '128', '101', '126', '119', '94', '66', '90', '143', '145', '135', '76'] 247.46296296296313
131 4.949259259259258 ['110', '148', '150', '141', '128', '101', '126', '119', '94', '66', '90', '143', '145', '135', '76'] 247.46296296296313
132 4.949259259259258 ['110', '148', '150', '141', '128', '101', '126', '119', '94', '66', '90', '143', '145', '135', '76'] 247.46296296296313
133 4.949259259259258 ['110', '148', '150', '141', '128', '101', '126', '119', '94', '66', '90', '143', '145', '135', '76'] 247.46296296296313
134 4.949259259259258 ['110', '148', '150', '141', '128', '101', '126', '119', '94', '66', '90', '143', '145', '135', '76'] 247.46296296296313
135 4.949259259259258 ['110', '148', '150', '141', '128', '101', '126', '119', '94', '66', '90', '143', '145', '135', '76'] 247.46296296296313
136 4.949259259259258 ['110', '148', '150', '141', '128', '101', '126', '119', '94', '66', '90', '143', '145', '135', '76'] 247.46296296296313
137 4.949259259259258 ['110', '148', '150', '141', '128', '101', '126', '119', '94', '66', '90', '143', '145', '135', '76'] 247.46296296296313
138 4.949259259259258 ['110', '148', '150', '141', '128', '101', '126', '119', '94', '66', '90', '143', '145', '135', '76'] 247.46296296296313
139 4.949259259259258 ['110', '148', '150', '141', '128', '101', '126', '119', '94', '66', '90', '143', '145', '135', '76'] 247.46296296296313
140 4.949259259259258 ['110', '148', '150', '141', '128', '101', '126', '119', '94', '66', '90', '143', '145', '135', '76'] 247.46296296296313
141 4.949259259259258 ['110', '148', '150', '141', '128', '101', '126', '119', '94', '66', '90', '143', '145', '135', '76'] 247.46296296296313
142 4.949259259259258 ['110', '148', '150', '141', '128', '101', '126', '119', '94', '66', '90', '143', '145', '135', '76'] 247.46296296296313
143 4.949259259259258 ['110', '148', '150', '141', '128', '101', '126', '119', '94', '66', '90', '143', '145', '135', '76'] 247.46296296296313
144 4.949259259259258 ['110', '148', '150', '141', '128', '101', '126', '119', '94', '66', '90', '143', '145', '135', '76'] 247.46296296296313
145 4.949259259259258 ['110', '148', '150', '141', '128', '101', '126', '119', '94', '66', '90', '143', '145', '135', '76'] 247.46296296296313
146 4.949259259259258 ['110', '148', '150', '141', '128', '101', '126', '119', '94', '66', '90', '143', '145', '135', '76'] 247.46296296296313
147 4.949259259259258 ['110', '148', '150', '141', '128', '101', '126', '119', '94', '66', '90', '143', '145', '135', '76'] 247.46296296296313
148 4.949259259259258 ['110', '148', '150', '141', '128', '101', '126', '119', '94', '66', '90', '143', '145', '135', '76'] 247.46296296296313
149 4.949259259259258 ['110', '148', '150', '141', '128', '101', '126', '119', '94', '66', '90', '143', '145', '135', '76'] 247.46296296296313
150 4.949259259259258 ['110', '148', '150', '141', '128', '101', '126', '119', '94', '66', '90', '143', '145', '135', '76'] 247.46296296296313
151 4.949259259259258 ['110', '148', '150', '141', '128', '101', '126', '119', '94', '66', '90', '143', '145', '135', '76'] 247.46296296296313
152 4.949259259259258 ['110', '148', '150', '141', '128', '101', '126', '119', '94', '66', '90', '143', '145', '135', '76'] 247.46296296296313
153 4.949259259259258 ['110', '148', '150', '141', '128', '101', '126', '119', '94', '66', '90', '143', '145', '135', '76'] 247.46296296296313
154 4.949259259259258 ['110', '148', '150', '141', '128', '101', '126', '119', '94', '66', '90', '143', '145', '135', '76'] 247.46296296296313
155 4.949259259259258 ['110', '148', '150', '141', '128', '101', '126', '119', '94', '66', '90', '143', '145', '135', '76'] 247.46296296296313
156 4.949259259259258 ['110', '148', '150', '141', '128', '101', '126', '119', '94', '66', '90', '143', '145', '135', '76'] 247.46296296296313
157 4.949259259259258 ['110', '148', '150', '141', '128', '101', '126', '119', '94', '66', '90', '143', '145', '135', '76'] 247.46296296296313
158 4.949259259259258 ['110', '148', '150', '141', '128', '101', '126', '119', '94', '66', '90', '143', '145', '135', '76'] 247.46296296296313
159 4.949259259259258 ['110', '148', '150', '141', '128', '101', '126', '119', '94', '66', '90', '143', '145', '135', '76'] 247.46296296296313
160 4.949259259259258 ['110', '148', '150', '141', '128', '101', '126', '119', '94', '66', '90', '143', '145', '135', '76'] 247.46296296296313
161 4.949259259259258 ['110', '148', '150', '141', '128', '101', '126', '119', '94', '66', '90', '143', '145', '135', '76'] 247.46296296296313
162 4.949259259259258 ['110', '148', '150', '141', '128', '101', '126', '119', '94', '66', '90', '143', '145', '135', '76'] 247.46296296296313
163 4.949259259259258 ['110', '148', '150', '141', '128', '101', '126', '119', '94', '66', '90', '143', '145', '135', '76'] 247.46296296296313
164 4.949259259259258 ['110', '148', '150', '141', '128', '101', '126', '119', '94', '66', '90', '143', '145', '135', '76'] 247.46296296296313
165 4.949259259259258 ['110', '148', '150', '141', '128', '101', '126', '119', '94', '66', '90', '143', '145', '135', '76'] 247.46296296296313
166 4.949259259259258 ['110', '148', '150', '141', '128', '101', '126', '119', '94', '66', '90', '143', '145', '135', '76'] 247.46296296296313
167 4.949259259259258 ['110', '148', '150', '141', '128', '101', '126', '119', '94', '66', '90', '143', '145', '135', '76'] 247.46296296296313
168 4.949259259259258 ['110', '148', '150', '141', '128', '101', '126', '119', '94', '66', '90', '143', '145', '135', '76'] 247.46296296296313
169 4.949259259259258 ['110', '148', '150', '141', '128', '101', '126', '119', '94', '66', '90', '143', '145', '135', '76'] 247.46296296296313
170 4.949259259259258 ['110', '148', '150', '141', '128', '101', '126', '119', '94', '66', '90', '143', '145', '135', '76'] 247.46296296296313
171 4.949259259259258 ['110', '148', '150', '141', '128', '101', '126', '119', '94', '66', '90', '143', '145', '135', '76'] 247.46296296296313
172 4.949259259259258 ['110', '148', '150', '141', '128', '101', '126', '119', '94', '66', '90', '143', '145', '135', '76'] 247.46296296296313
173 4.949259259259258 ['110', '148', '150', '141', '128', '101', '126', '119', '94', '66', '90', '143', '145', '135', '76'] 247.46296296296313
174 4.949259259259258 ['110', '148', '150', '141', '128', '101', '126', '119', '94', '66', '90', '143', '145', '135', '76'] 247.46296296296313
175 4.949259259259258 ['110', '148', '150', '141', '128', '101', '126', '119', '94', '66', '90', '143', '145', '135', '76'] 247.46296296296313
176 4.949259259259258 ['110', '148', '150', '141', '128', '101', '126', '119', '94', '66', '90', '143', '145', '135', '76'] 247.46296296296313
177 4.949259259259258 ['110', '148', '150', '141', '128', '101', '126', '119', '94', '66', '90', '143', '145', '135', '76'] 247.46296296296313
178 4.949259259259258 ['110', '148', '150', '141', '128', '101', '126', '119', '94', '66', '90', '143', '145', '135', '76'] 247.46296296296313
179 4.949259259259258 ['110', '148', '150', '141', '128', '101', '126', '119', '94', '66', '90', '143', '145', '135', '76'] 247.46296296296313
180 4.949259259259258 ['110', '148', '150', '141', '128', '101', '126', '119', '94', '66', '90', '143', '145', '135', '76'] 247.46296296296313
181 4.949259259259258 ['110', '148', '150', '141', '128', '101', '126', '119', '94', '66', '90', '143', '145', '135', '76'] 247.46296296296313
182 4.949259259259258 ['110', '148', '150', '141', '128', '101', '126', '119', '94', '66', '90', '143', '145', '135', '76'] 247.46296296296313
183 4.949259259259258 ['110', '148', '150', '141', '128', '101', '126', '119', '94', '66', '90', '143', '145', '135', '76'] 247.46296296296313
184 4.949259259259258 ['110', '148', '150', '141', '128', '101', '126', '119', '94', '66', '90', '143', '145', '135', '76'] 247.46296296296313
185 4.949259259259258 ['110', '148', '150', '141', '128', '101', '126', '119', '94', '66', '90', '143', '145', '135', '76'] 247.46296296296313
186 4.949259259259258 ['110', '148', '150', '141', '128', '101', '126', '119', '94', '66', '90', '143', '145', '135', '76'] 247.46296296296313
187 4.949259259259258 ['110', '148', '150', '141', '128', '101', '126', '119', '94', '66', '90', '143', '145', '135', '76'] 247.46296296296313
188 4.949259259259258 ['110', '148', '150', '141', '128', '101', '126', '119', '94', '66', '90', '143', '145', '135', '76'] 247.46296296296313
189 4.949259259259258 ['110', '148', '150', '141', '128', '101', '126', '119', '94', '66', '90', '143', '145', '135', '76'] 247.46296296296313
190 4.949259259259258 ['110', '148', '150', '141', '128', '101', '126', '119', '94', '66', '90', '143', '145', '135', '76'] 247.46296296296313
191 4.949259259259258 ['110', '148', '150', '141', '128', '101', '126', '119', '94', '66', '90', '143', '145', '135', '76'] 247.46296296296313
192 4.949259259259258 ['110', '148', '150', '141', '128', '101', '126', '119', '94', '66', '90', '143', '145', '135', '76'] 247.46296296296313
193 4.949259259259258 ['110', '148', '150', '141', '128', '101', '126', '119', '94', '66', '90', '143', '145', '135', '76'] 247.46296296296313
194 4.949259259259258 ['110', '148', '150', '141', '128', '101', '126', '119', '94', '66', '90', '143', '145', '135', '76'] 247.46296296296313
195 4.949259259259258 ['110', '148', '150', '141', '128', '101', '126', '119', '94', '66', '90', '143', '145', '135', '76'] 247.46296296296313
196 4.949259259259258 ['110', '148', '150', '141', '128', '101', '126', '119', '94', '66', '90', '143', '145', '135', '76'] 247.46296296296313
197 4.949259259259258 ['110', '148', '150', '141', '128', '101', '126', '119', '94', '66', '90', '143', '145', '135', '76'] 247.46296296296313
198 4.949259259259258 ['110', '148', '150', '141', '128', '101', '126', '119', '94', '66', '90', '143', '145', '135', '76'] 247.46296296296313
199 4.949259259259258 ['110', '148', '150', '141', '128', '101', '126', '119', '94', '66', '90', '143', '145', '135', '76'] 247.46296296296313
