0 5.395432098765433 ['11', '8', '122', '96', '89', '25', '49', '146', '141', '145', '33', '63', '125', '72', '22'] 273.502695473251
1 5.369382716049382 ['51', '46', '143', '92', '149', '14', '8', '150', '107', '32', '124', '70', '112', '146', '118'] 272.317242798354
2 5.341111111111112 ['87', '55', '64', '8', '90', '148', '142', '133', '22', '144', '33', '117', '61', '66', '106'] 271.2906378600823
3 5.326049382716048 ['8', '55', '106', '133', '90', '64', '33', '148', '144', '85', '66', '107', '88', '22', '87'] 270.34882716049384
4 5.326049382716048 ['8', '55', '106', '133', '90', '64', '33', '148', '144', '85', '66', '107', '88', '22', '87'] 269.41172839506186
5 5.277530864197532 ['143', '46', '146', '149', '70', '33', '97', '111', '30', '107', '138', '8', '35', '124', '23'] 268.28999999999996
6 5.277530864197532 ['143', '46', '146', '149', '70', '33', '97', '111', '30', '107', '138', '8', '35', '124', '23'] 267.4238271604939
7 5.27012345679012 ['126', '127', '74', '143', '23', '146', '129', '97', '111', '130', '48', '108', '85', '107', '138'] 266.57691358024687
8 5.25567901234568 ['111', '70', '146', '107', '97', '143', '138', '149', '8', '46', '33', '30', '98', '126', '124'] 266.0103703703703
9 5.25567901234568 ['111', '70', '146', '107', '97', '143', '138', '149', '8', '46', '33', '30', '98', '126', '124'] 265.2456790123456
10 5.25567901234568 ['111', '70', '146', '107', '97', '143', '138', '149', '8', '46', '33', '30', '98', '126', '124'] 264.7353086419754
11 5.246666666666665 ['138', '30', '124', '90', '146', '97', '46', '143', '104', '70', '107', '33', '133', '8', '144'] 264.20135802469144
12 5.208024691358026 ['146', '149', '111', '138', '97', '143', '144', '120', '139', '114', '70', '130', '133', '90', '48'] 263.7279012345679
13 5.208024691358026 ['146', '149', '111', '138', '97', '143', '144', '120', '139', '114', '70', '130', '133', '90', '48'] 263.27555555555546
14 5.1843209876543215 ['111', '143', '70', '138', '48', '114', '90', '146', '97', '139', '30', '141', '133', '95', '115'] 262.8627160493826
15 5.1843209876543215 ['111', '143', '70', '138', '48', '114', '90', '146', '97', '139', '30', '141', '133', '95', '115'] 262.4566666666667
16 5.1843209876543215 ['111', '143', '70', '138', '48', '114', '90', '146', '97', '139', '30', '141', '133', '95', '115'] 262.0691358024692
17 5.1843209876543215 ['111', '143', '70', '138', '48', '114', '90', '146', '97', '139', '30', '141', '133', '95', '115'] 261.6665432098765
18 5.1843209876543215 ['111', '143', '70', '138', '48', '114', '90', '146', '97', '139', '30', '141', '133', '95', '115'] 261.06444444444435
19 5.1843209876543215 ['111', '143', '70', '138', '48', '114', '90', '146', '97', '139', '30', '141', '133', '95', '115'] 260.6070370370372
20 5.154691358024692 ['146', '133', '138', '143', '90', '117', '144', '129', '48', '30', '150', '124', '118', '88', '114'] 260.11456790123464
21 5.153456790123457 ['146', '48', '139', '30', '111', '143', '141', '133', '70', '114', '90', '115', '97', '144', '138'] 259.8044444444444
22 5.153456790123457 ['146', '48', '139', '30', '111', '143', '141', '133', '70', '114', '90', '115', '97', '144', '138'] 259.2171604938271
23 5.150123456790125 ['139', '48', '143', '70', '111', '30', '90', '114', '138', '144', '97', '146', '141', '115', '87'] 258.59543209876557
24 5.14753086419753 ['48', '115', '144', '104', '143', '146', '139', '141', '111', '90', '70', '30', '149', '133', '138'] 258.08876543209874
25 5.14753086419753 ['48', '115', '144', '104', '143', '146', '139', '141', '111', '90', '70', '30', '149', '133', '138'] 257.67234567901244
26 5.14753086419753 ['48', '115', '144', '104', '143', '146', '139', '141', '111', '90', '70', '30', '149', '133', '138'] 257.6124691358028
27 5.14753086419753 ['48', '115', '144', '104', '143', '146', '139', '141', '111', '90', '70', '30', '149', '133', '138'] 257.58518518518554
28 5.134320987654321 ['146', '90', '144', '138', '139', '111', '143', '48', '70', '30', '141', '115', '133', '87', '104'] 257.5093827160495
29 5.134320987654321 ['146', '90', '144', '138', '139', '111', '143', '48', '70', '30', '141', '115', '133', '87', '104'] 257.4570370370368
30 5.134320987654321 ['146', '90', '144', '138', '139', '111', '143', '48', '70', '30', '141', '115', '133', '87', '104'] 257.4320987654318
31 5.130617283950616 ['138', '146', '48', '111', '70', '90', '143', '104', '141', '144', '30', '139', '115', '88', '150'] 257.3574074074072
32 5.130617283950616 ['138', '146', '48', '111', '70', '90', '143', '104', '141', '144', '30', '139', '115', '88', '150'] 257.2266666666667
33 5.130617283950616 ['138', '146', '48', '111', '70', '90', '143', '104', '141', '144', '30', '139', '115', '88', '150'] 257.0274074074075
34 5.130617283950616 ['138', '146', '48', '111', '70', '90', '143', '104', '141', '144', '30', '139', '115', '88', '150'] 256.7864197530864
35 5.130617283950616 ['138', '146', '48', '111', '70', '90', '143', '104', '141', '144', '30', '139', '115', '88', '150'] 256.70864197530864
36 5.130617283950616 ['138', '146', '48', '111', '70', '90', '143', '104', '141', '144', '30', '139', '115', '88', '150'] 256.70493827160493
37 5.130617283950616 ['138', '146', '48', '111', '70', '90', '143', '104', '141', '144', '30', '139', '115', '88', '150'] 256.6938271604938
38 5.130617283950616 ['138', '146', '48', '111', '70', '90', '143', '104', '141', '144', '30', '139', '115', '88', '150'] 256.6753086419753
39 5.130617283950616 ['138', '146', '48', '111', '70', '90', '143', '104', '141', '144', '30', '139', '115', '88', '150'] 256.65679012345674
40 5.130617283950616 ['138', '146', '48', '111', '70', '90', '143', '104', '141', '144', '30', '139', '115', '88', '150'] 256.6234567901234
41 5.130617283950616 ['138', '146', '48', '111', '70', '90', '143', '104', '141', '144', '30', '139', '115', '88', '150'] 256.54567901234554
42 5.130617283950616 ['138', '146', '48', '111', '70', '90', '143', '104', '141', '144', '30', '139', '115', '88', '150'] 256.5308641975307
43 5.130617283950616 ['138', '146', '48', '111', '70', '90', '143', '104', '141', '144', '30', '139', '115', '88', '150'] 256.5308641975307
44 5.130617283950616 ['138', '146', '48', '111', '70', '90', '143', '104', '141', '144', '30', '139', '115', '88', '150'] 256.5308641975307
45 5.130617283950616 ['138', '146', '48', '111', '70', '90', '143', '104', '141', '144', '30', '139', '115', '88', '150'] 256.5308641975307
46 5.130617283950616 ['138', '146', '48', '111', '70', '90', '143', '104', '141', '144', '30', '139', '115', '88', '150'] 256.5308641975307
47 5.130617283950616 ['138', '146', '48', '111', '70', '90', '143', '104', '141', '144', '30', '139', '115', '88', '150'] 256.5308641975307
48 5.130617283950616 ['138', '146', '48', '111', '70', '90', '143', '104', '141', '144', '30', '139', '115', '88', '150'] 256.5308641975307
49 5.130617283950616 ['138', '146', '48', '111', '70', '90', '143', '104', '141', '144', '30', '139', '115', '88', '150'] 256.5308641975307
50 5.130617283950616 ['138', '146', '48', '111', '70', '90', '143', '104', '141', '144', '30', '139', '115', '88', '150'] 256.5308641975307
51 5.130617283950616 ['138', '146', '48', '111', '70', '90', '143', '104', '141', '144', '30', '139', '115', '88', '150'] 256.5308641975307
52 5.130617283950616 ['138', '146', '48', '111', '70', '90', '143', '104', '141', '144', '30', '139', '115', '88', '150'] 256.5308641975307
53 5.130617283950616 ['138', '146', '48', '111', '70', '90', '143', '104', '141', '144', '30', '139', '115', '88', '150'] 256.5308641975307
54 5.130617283950616 ['138', '146', '48', '111', '70', '90', '143', '104', '141', '144', '30', '139', '115', '88', '150'] 256.5308641975307
55 5.130617283950616 ['138', '146', '48', '111', '70', '90', '143', '104', '141', '144', '30', '139', '115', '88', '150'] 256.5308641975307
56 5.130617283950616 ['138', '146', '48', '111', '70', '90', '143', '104', '141', '144', '30', '139', '115', '88', '150'] 256.5308641975307
57 5.130617283950616 ['138', '146', '48', '111', '70', '90', '143', '104', '141', '144', '30', '139', '115', '88', '150'] 256.5308641975307
58 5.130617283950616 ['138', '146', '48', '111', '70', '90', '143', '104', '141', '144', '30', '139', '115', '88', '150'] 256.5308641975307
59 5.130617283950616 ['138', '146', '48', '111', '70', '90', '143', '104', '141', '144', '30', '139', '115', '88', '150'] 256.5308641975307
60 5.130617283950616 ['138', '146', '48', '111', '70', '90', '143', '104', '141', '144', '30', '139', '115', '88', '150'] 256.5308641975307
61 5.130617283950616 ['138', '146', '48', '111', '70', '90', '143', '104', '141', '144', '30', '139', '115', '88', '150'] 256.5308641975307
62 5.130617283950616 ['138', '146', '48', '111', '70', '90', '143', '104', '141', '144', '30', '139', '115', '88', '150'] 256.5308641975307
63 5.130617283950616 ['138', '146', '48', '111', '70', '90', '143', '104', '141', '144', '30', '139', '115', '88', '150'] 256.5308641975307
64 5.130617283950616 ['138', '146', '48', '111', '70', '90', '143', '104', '141', '144', '30', '139', '115', '88', '150'] 256.5308641975307
65 5.130617283950616 ['138', '146', '48', '111', '70', '90', '143', '104', '141', '144', '30', '139', '115', '88', '150'] 256.5308641975307
66 5.130617283950616 ['138', '146', '48', '111', '70', '90', '143', '104', '141', '144', '30', '139', '115', '88', '150'] 256.5308641975307
67 5.130617283950616 ['138', '146', '48', '111', '70', '90', '143', '104', '141', '144', '30', '139', '115', '88', '150'] 256.5308641975307
68 5.130617283950616 ['138', '146', '48', '111', '70', '90', '143', '104', '141', '144', '30', '139', '115', '88', '150'] 256.5308641975307
69 5.130617283950616 ['138', '146', '48', '111', '70', '90', '143', '104', '141', '144', '30', '139', '115', '88', '150'] 256.5308641975307
70 5.130617283950616 ['138', '146', '48', '111', '70', '90', '143', '104', '141', '144', '30', '139', '115', '88', '150'] 256.5308641975307
71 5.130617283950616 ['138', '146', '48', '111', '70', '90', '143', '104', '141', '144', '30', '139', '115', '88', '150'] 256.5308641975307
72 5.130617283950616 ['138', '146', '48', '111', '70', '90', '143', '104', '141', '144', '30', '139', '115', '88', '150'] 256.5308641975307
73 5.130617283950616 ['138', '146', '48', '111', '70', '90', '143', '104', '141', '144', '30', '139', '115', '88', '150'] 256.5308641975307
74 5.130617283950616 ['138', '146', '48', '111', '70', '90', '143', '104', '141', '144', '30', '139', '115', '88', '150'] 256.5308641975307
75 5.130617283950616 ['138', '146', '48', '111', '70', '90', '143', '104', '141', '144', '30', '139', '115', '88', '150'] 256.5308641975307
76 5.130617283950616 ['138', '146', '48', '111', '70', '90', '143', '104', '141', '144', '30', '139', '115', '88', '150'] 256.5308641975307
77 5.130617283950616 ['138', '146', '48', '111', '70', '90', '143', '104', '141', '144', '30', '139', '115', '88', '150'] 256.5308641975307
78 5.130617283950616 ['138', '146', '48', '111', '70', '90', '143', '104', '141', '144', '30', '139', '115', '88', '150'] 256.5308641975307
79 5.130617283950616 ['138', '146', '48', '111', '70', '90', '143', '104', '141', '144', '30', '139', '115', '88', '150'] 256.5308641975307
80 5.130617283950616 ['138', '146', '48', '111', '70', '90', '143', '104', '141', '144', '30', '139', '115', '88', '150'] 256.5308641975307
81 5.130617283950616 ['138', '146', '48', '111', '70', '90', '143', '104', '141', '144', '30', '139', '115', '88', '150'] 256.5308641975307
82 5.130617283950616 ['138', '146', '48', '111', '70', '90', '143', '104', '141', '144', '30', '139', '115', '88', '150'] 256.5308641975307
83 5.130617283950616 ['138', '146', '48', '111', '70', '90', '143', '104', '141', '144', '30', '139', '115', '88', '150'] 256.5308641975307
84 5.130617283950616 ['138', '146', '48', '111', '70', '90', '143', '104', '141', '144', '30', '139', '115', '88', '150'] 256.5308641975307
85 5.130617283950616 ['138', '146', '48', '111', '70', '90', '143', '104', '141', '144', '30', '139', '115', '88', '150'] 256.5308641975307
86 5.130617283950616 ['138', '146', '48', '111', '70', '90', '143', '104', '141', '144', '30', '139', '115', '88', '150'] 256.5308641975307
87 5.130617283950616 ['138', '146', '48', '111', '70', '90', '143', '104', '141', '144', '30', '139', '115', '88', '150'] 256.5308641975307
88 5.130617283950616 ['138', '146', '48', '111', '70', '90', '143', '104', '141', '144', '30', '139', '115', '88', '150'] 256.5308641975307
89 5.130617283950616 ['138', '146', '48', '111', '70', '90', '143', '104', '141', '144', '30', '139', '115', '88', '150'] 256.5308641975307
90 5.130617283950616 ['138', '146', '48', '111', '70', '90', '143', '104', '141', '144', '30', '139', '115', '88', '150'] 256.5308641975307
91 5.130617283950616 ['138', '146', '48', '111', '70', '90', '143', '104', '141', '144', '30', '139', '115', '88', '150'] 256.5308641975307
92 5.130617283950616 ['138', '146', '48', '111', '70', '90', '143', '104', '141', '144', '30', '139', '115', '88', '150'] 256.5308641975307
93 5.130617283950616 ['138', '146', '48', '111', '70', '90', '143', '104', '141', '144', '30', '139', '115', '88', '150'] 256.5308641975307
94 5.130617283950616 ['138', '146', '48', '111', '70', '90', '143', '104', '141', '144', '30', '139', '115', '88', '150'] 256.5308641975307
95 5.130617283950616 ['138', '146', '48', '111', '70', '90', '143', '104', '141', '144', '30', '139', '115', '88', '150'] 256.5308641975307
96 5.130617283950616 ['138', '146', '48', '111', '70', '90', '143', '104', '141', '144', '30', '139', '115', '88', '150'] 256.5308641975307
97 5.130617283950616 ['138', '146', '48', '111', '70', '90', '143', '104', '141', '144', '30', '139', '115', '88', '150'] 256.5308641975307
98 5.130617283950616 ['138', '146', '48', '111', '70', '90', '143', '104', '141', '144', '30', '139', '115', '88', '150'] 256.5308641975307
99 5.130617283950616 ['138', '146', '48', '111', '70', '90', '143', '104', '141', '144', '30', '139', '115', '88', '150'] 256.5308641975307
100 5.130617283950616 ['138', '146', '48', '111', '70', '90', '143', '104', '141', '144', '30', '139', '115', '88', '150'] 256.5308641975307
101 5.130617283950616 ['138', '146', '48', '111', '70', '90', '143', '104', '141', '144', '30', '139', '115', '88', '150'] 256.5308641975307
102 5.130617283950616 ['138', '146', '48', '111', '70', '90', '143', '104', '141', '144', '30', '139', '115', '88', '150'] 256.5308641975307
103 5.130617283950616 ['138', '146', '48', '111', '70', '90', '143', '104', '141', '144', '30', '139', '115', '88', '150'] 256.5308641975307
104 5.130617283950616 ['138', '146', '48', '111', '70', '90', '143', '104', '141', '144', '30', '139', '115', '88', '150'] 256.5308641975307
105 5.130617283950616 ['138', '146', '48', '111', '70', '90', '143', '104', '141', '144', '30', '139', '115', '88', '150'] 256.5308641975307
106 5.130617283950616 ['138', '146', '48', '111', '70', '90', '143', '104', '141', '144', '30', '139', '115', '88', '150'] 256.5308641975307
107 5.130617283950616 ['138', '146', '48', '111', '70', '90', '143', '104', '141', '144', '30', '139', '115', '88', '150'] 256.5308641975307
108 5.130617283950616 ['138', '146', '48', '111', '70', '90', '143', '104', '141', '144', '30', '139', '115', '88', '150'] 256.5308641975307
109 5.130617283950616 ['138', '146', '48', '111', '70', '90', '143', '104', '141', '144', '30', '139', '115', '88', '150'] 256.5308641975307
110 5.130617283950616 ['138', '146', '48', '111', '70', '90', '143', '104', '141', '144', '30', '139', '115', '88', '150'] 256.5308641975307
111 5.130617283950616 ['138', '146', '48', '111', '70', '90', '143', '104', '141', '144', '30', '139', '115', '88', '150'] 256.5308641975307
112 5.130617283950616 ['138', '146', '48', '111', '70', '90', '143', '104', '141', '144', '30', '139', '115', '88', '150'] 256.5308641975307
113 5.130617283950616 ['138', '146', '48', '111', '70', '90', '143', '104', '141', '144', '30', '139', '115', '88', '150'] 256.5308641975307
114 5.130617283950616 ['138', '146', '48', '111', '70', '90', '143', '104', '141', '144', '30', '139', '115', '88', '150'] 256.5308641975307
115 5.130617283950616 ['138', '146', '48', '111', '70', '90', '143', '104', '141', '144', '30', '139', '115', '88', '150'] 256.5308641975307
116 5.130617283950616 ['138', '146', '48', '111', '70', '90', '143', '104', '141', '144', '30', '139', '115', '88', '150'] 256.5308641975307
117 5.130617283950616 ['138', '146', '48', '111', '70', '90', '143', '104', '141', '144', '30', '139', '115', '88', '150'] 256.5308641975307
118 5.130617283950616 ['138', '146', '48', '111', '70', '90', '143', '104', '141', '144', '30', '139', '115', '88', '150'] 256.5308641975307
119 5.130617283950616 ['138', '146', '48', '111', '70', '90', '143', '104', '141', '144', '30', '139', '115', '88', '150'] 256.5308641975307
120 5.130617283950616 ['138', '146', '48', '111', '70', '90', '143', '104', '141', '144', '30', '139', '115', '88', '150'] 256.5308641975307
121 5.130617283950616 ['138', '146', '48', '111', '70', '90', '143', '104', '141', '144', '30', '139', '115', '88', '150'] 256.5308641975307
122 5.130617283950616 ['138', '146', '48', '111', '70', '90', '143', '104', '141', '144', '30', '139', '115', '88', '150'] 256.5308641975307
123 5.130617283950616 ['138', '146', '48', '111', '70', '90', '143', '104', '141', '144', '30', '139', '115', '88', '150'] 256.5308641975307
124 5.130617283950616 ['138', '146', '48', '111', '70', '90', '143', '104', '141', '144', '30', '139', '115', '88', '150'] 256.5308641975307
125 5.130617283950616 ['138', '146', '48', '111', '70', '90', '143', '104', '141', '144', '30', '139', '115', '88', '150'] 256.5308641975307
126 5.130617283950616 ['138', '146', '48', '111', '70', '90', '143', '104', '141', '144', '30', '139', '115', '88', '150'] 256.5308641975307
127 5.130617283950616 ['138', '146', '48', '111', '70', '90', '143', '104', '141', '144', '30', '139', '115', '88', '150'] 256.5308641975307
128 5.130617283950616 ['138', '146', '48', '111', '70', '90', '143', '104', '141', '144', '30', '139', '115', '88', '150'] 256.5308641975307
129 5.130617283950616 ['138', '146', '48', '111', '70', '90', '143', '104', '141', '144', '30', '139', '115', '88', '150'] 256.5308641975307
130 5.130617283950616 ['138', '146', '48', '111', '70', '90', '143', '104', '141', '144', '30', '139', '115', '88', '150'] 256.5308641975307
131 5.130617283950616 ['138', '146', '48', '111', '70', '90', '143', '104', '141', '144', '30', '139', '115', '88', '150'] 256.5308641975307
132 5.130617283950616 ['138', '146', '48', '111', '70', '90', '143', '104', '141', '144', '30', '139', '115', '88', '150'] 256.5308641975307
133 5.130617283950616 ['138', '146', '48', '111', '70', '90', '143', '104', '141', '144', '30', '139', '115', '88', '150'] 256.5308641975307
134 5.130617283950616 ['138', '146', '48', '111', '70', '90', '143', '104', '141', '144', '30', '139', '115', '88', '150'] 256.5308641975307
135 5.130617283950616 ['138', '146', '48', '111', '70', '90', '143', '104', '141', '144', '30', '139', '115', '88', '150'] 256.5308641975307
136 5.130617283950616 ['138', '146', '48', '111', '70', '90', '143', '104', '141', '144', '30', '139', '115', '88', '150'] 256.5308641975307
137 5.130617283950616 ['138', '146', '48', '111', '70', '90', '143', '104', '141', '144', '30', '139', '115', '88', '150'] 256.5308641975307
138 5.130617283950616 ['138', '146', '48', '111', '70', '90', '143', '104', '141', '144', '30', '139', '115', '88', '150'] 256.5308641975307
139 5.130617283950616 ['138', '146', '48', '111', '70', '90', '143', '104', '141', '144', '30', '139', '115', '88', '150'] 256.5308641975307
140 5.130617283950616 ['138', '146', '48', '111', '70', '90', '143', '104', '141', '144', '30', '139', '115', '88', '150'] 256.5308641975307
141 5.130617283950616 ['138', '146', '48', '111', '70', '90', '143', '104', '141', '144', '30', '139', '115', '88', '150'] 256.5308641975307
142 5.130617283950616 ['138', '146', '48', '111', '70', '90', '143', '104', '141', '144', '30', '139', '115', '88', '150'] 256.5308641975307
143 5.130617283950616 ['138', '146', '48', '111', '70', '90', '143', '104', '141', '144', '30', '139', '115', '88', '150'] 256.5308641975307
144 5.130617283950616 ['138', '146', '48', '111', '70', '90', '143', '104', '141', '144', '30', '139', '115', '88', '150'] 256.5308641975307
145 5.130617283950616 ['138', '146', '48', '111', '70', '90', '143', '104', '141', '144', '30', '139', '115', '88', '150'] 256.5308641975307
146 5.130617283950616 ['138', '146', '48', '111', '70', '90', '143', '104', '141', '144', '30', '139', '115', '88', '150'] 256.5308641975307
147 5.130617283950616 ['138', '146', '48', '111', '70', '90', '143', '104', '141', '144', '30', '139', '115', '88', '150'] 256.5308641975307
148 5.130617283950616 ['138', '146', '48', '111', '70', '90', '143', '104', '141', '144', '30', '139', '115', '88', '150'] 256.5308641975307
149 5.130617283950616 ['138', '146', '48', '111', '70', '90', '143', '104', '141', '144', '30', '139', '115', '88', '150'] 256.5308641975307
150 5.130617283950616 ['138', '146', '48', '111', '70', '90', '143', '104', '141', '144', '30', '139', '115', '88', '150'] 256.5308641975307
151 5.130617283950616 ['138', '146', '48', '111', '70', '90', '143', '104', '141', '144', '30', '139', '115', '88', '150'] 256.5308641975307
152 5.130617283950616 ['138', '146', '48', '111', '70', '90', '143', '104', '141', '144', '30', '139', '115', '88', '150'] 256.5308641975307
153 5.130617283950616 ['138', '146', '48', '111', '70', '90', '143', '104', '141', '144', '30', '139', '115', '88', '150'] 256.5308641975307
154 5.130617283950616 ['138', '146', '48', '111', '70', '90', '143', '104', '141', '144', '30', '139', '115', '88', '150'] 256.5308641975307
155 5.130617283950616 ['138', '146', '48', '111', '70', '90', '143', '104', '141', '144', '30', '139', '115', '88', '150'] 256.5308641975307
156 5.130617283950616 ['138', '146', '48', '111', '70', '90', '143', '104', '141', '144', '30', '139', '115', '88', '150'] 256.5308641975307
157 5.130617283950616 ['138', '146', '48', '111', '70', '90', '143', '104', '141', '144', '30', '139', '115', '88', '150'] 256.5308641975307
158 5.130617283950616 ['138', '146', '48', '111', '70', '90', '143', '104', '141', '144', '30', '139', '115', '88', '150'] 256.5308641975307
159 5.130617283950616 ['138', '146', '48', '111', '70', '90', '143', '104', '141', '144', '30', '139', '115', '88', '150'] 256.5308641975307
160 5.130617283950616 ['138', '146', '48', '111', '70', '90', '143', '104', '141', '144', '30', '139', '115', '88', '150'] 256.5308641975307
161 5.130617283950616 ['138', '146', '48', '111', '70', '90', '143', '104', '141', '144', '30', '139', '115', '88', '150'] 256.5308641975307
162 5.130617283950616 ['138', '146', '48', '111', '70', '90', '143', '104', '141', '144', '30', '139', '115', '88', '150'] 256.5308641975307
163 5.130617283950616 ['138', '146', '48', '111', '70', '90', '143', '104', '141', '144', '30', '139', '115', '88', '150'] 256.5308641975307
164 5.130617283950616 ['138', '146', '48', '111', '70', '90', '143', '104', '141', '144', '30', '139', '115', '88', '150'] 256.5308641975307
165 5.130617283950616 ['138', '146', '48', '111', '70', '90', '143', '104', '141', '144', '30', '139', '115', '88', '150'] 256.5308641975307
166 5.130617283950616 ['138', '146', '48', '111', '70', '90', '143', '104', '141', '144', '30', '139', '115', '88', '150'] 256.5308641975307
167 5.130617283950616 ['138', '146', '48', '111', '70', '90', '143', '104', '141', '144', '30', '139', '115', '88', '150'] 256.5308641975307
168 5.130617283950616 ['138', '146', '48', '111', '70', '90', '143', '104', '141', '144', '30', '139', '115', '88', '150'] 256.5308641975307
169 5.130617283950616 ['138', '146', '48', '111', '70', '90', '143', '104', '141', '144', '30', '139', '115', '88', '150'] 256.5308641975307
170 5.130617283950616 ['138', '146', '48', '111', '70', '90', '143', '104', '141', '144', '30', '139', '115', '88', '150'] 256.5308641975307
171 5.130617283950616 ['138', '146', '48', '111', '70', '90', '143', '104', '141', '144', '30', '139', '115', '88', '150'] 256.5308641975307
172 5.130617283950616 ['138', '146', '48', '111', '70', '90', '143', '104', '141', '144', '30', '139', '115', '88', '150'] 256.5308641975307
173 5.130617283950616 ['138', '146', '48', '111', '70', '90', '143', '104', '141', '144', '30', '139', '115', '88', '150'] 256.5308641975307
174 5.130617283950616 ['138', '146', '48', '111', '70', '90', '143', '104', '141', '144', '30', '139', '115', '88', '150'] 256.5308641975307
175 5.130617283950616 ['138', '146', '48', '111', '70', '90', '143', '104', '141', '144', '30', '139', '115', '88', '150'] 256.5308641975307
176 5.130617283950616 ['138', '146', '48', '111', '70', '90', '143', '104', '141', '144', '30', '139', '115', '88', '150'] 256.5308641975307
177 5.130617283950616 ['138', '146', '48', '111', '70', '90', '143', '104', '141', '144', '30', '139', '115', '88', '150'] 256.5308641975307
178 5.130617283950616 ['138', '146', '48', '111', '70', '90', '143', '104', '141', '144', '30', '139', '115', '88', '150'] 256.5308641975307
179 5.130617283950616 ['138', '146', '48', '111', '70', '90', '143', '104', '141', '144', '30', '139', '115', '88', '150'] 256.5308641975307
180 5.130617283950616 ['138', '146', '48', '111', '70', '90', '143', '104', '141', '144', '30', '139', '115', '88', '150'] 256.5308641975307
181 5.130617283950616 ['138', '146', '48', '111', '70', '90', '143', '104', '141', '144', '30', '139', '115', '88', '150'] 256.5308641975307
182 5.130617283950616 ['138', '146', '48', '111', '70', '90', '143', '104', '141', '144', '30', '139', '115', '88', '150'] 256.5308641975307
183 5.130617283950616 ['138', '146', '48', '111', '70', '90', '143', '104', '141', '144', '30', '139', '115', '88', '150'] 256.5308641975307
184 5.130617283950616 ['138', '146', '48', '111', '70', '90', '143', '104', '141', '144', '30', '139', '115', '88', '150'] 256.5308641975307
185 5.130617283950616 ['138', '146', '48', '111', '70', '90', '143', '104', '141', '144', '30', '139', '115', '88', '150'] 256.5308641975307
186 5.130617283950616 ['138', '146', '48', '111', '70', '90', '143', '104', '141', '144', '30', '139', '115', '88', '150'] 256.5308641975307
187 5.130617283950616 ['138', '146', '48', '111', '70', '90', '143', '104', '141', '144', '30', '139', '115', '88', '150'] 256.5308641975307
188 5.130617283950616 ['138', '146', '48', '111', '70', '90', '143', '104', '141', '144', '30', '139', '115', '88', '150'] 256.5308641975307
189 5.130617283950616 ['138', '146', '48', '111', '70', '90', '143', '104', '141', '144', '30', '139', '115', '88', '150'] 256.5308641975307
190 5.130617283950616 ['138', '146', '48', '111', '70', '90', '143', '104', '141', '144', '30', '139', '115', '88', '150'] 256.5308641975307
191 5.130617283950616 ['138', '146', '48', '111', '70', '90', '143', '104', '141', '144', '30', '139', '115', '88', '150'] 256.5308641975307
192 5.130617283950616 ['138', '146', '48', '111', '70', '90', '143', '104', '141', '144', '30', '139', '115', '88', '150'] 256.5308641975307
193 5.130617283950616 ['138', '146', '48', '111', '70', '90', '143', '104', '141', '144', '30', '139', '115', '88', '150'] 256.5308641975307
194 5.130617283950616 ['138', '146', '48', '111', '70', '90', '143', '104', '141', '144', '30', '139', '115', '88', '150'] 256.5308641975307
195 5.130617283950616 ['138', '146', '48', '111', '70', '90', '143', '104', '141', '144', '30', '139', '115', '88', '150'] 256.5308641975307
196 5.130617283950616 ['138', '146', '48', '111', '70', '90', '143', '104', '141', '144', '30', '139', '115', '88', '150'] 256.5308641975307
197 5.130617283950616 ['138', '146', '48', '111', '70', '90', '143', '104', '141', '144', '30', '139', '115', '88', '150'] 256.5308641975307
198 5.130617283950616 ['138', '146', '48', '111', '70', '90', '143', '104', '141', '144', '30', '139', '115', '88', '150'] 256.5308641975307
199 5.130617283950616 ['138', '146', '48', '111', '70', '90', '143', '104', '141', '144', '30', '139', '115', '88', '150'] 256.5308641975307
