0 202.2037037037037 ['21', '33', '12', '27', '7', '22'] 10809.944444444443
1 190.87037037037038 ['21', '12', '7', '53', '14', '33'] 10460.129629629626
2 190.87037037037038 ['21', '12', '7', '53', '14', '33'] 10168.25925925926
3 186.66666666666666 ['8', '12', '14', '6', '9', '7'] 9947.314814814812
4 177.6851851851852 ['12', '29', '31', '22', '7', '14'] 9766.5
5 177.6851851851852 ['12', '29', '31', '22', '7', '14'] 9526.092592592593
6 177.6851851851852 ['12', '29', '31', '22', '7', '14'] 9401.018518518522
7 174.74074074074073 ['12', '7', '21', '31', '48', '14'] 9251.537037037031
8 174.74074074074073 ['12', '7', '21', '31', '48', '14'] 9117.962962962962
9 172.37037037037038 ['12', '7', '6', '14', '31', '48'] 8993.074074074073
10 172.37037037037038 ['12', '7', '6', '14', '31', '48'] 8865.962962962965
11 172.37037037037038 ['12', '7', '6', '14', '31', '48'] 8762.925925925925
12 172.37037037037038 ['12', '7', '6', '14', '31', '48'] 8674.611111111111
13 172.37037037037038 ['12', '7', '6', '14', '31', '48'] 8618.574074074077
14 172.37037037037038 ['12', '7', '6', '14', '31', '48'] 8618.51851851852
15 172.37037037037038 ['12', '7', '6', '14', '31', '48'] 8618.51851851852
16 172.37037037037038 ['12', '7', '6', '14', '31', '48'] 8618.51851851852
17 172.37037037037038 ['12', '7', '6', '14', '31', '48'] 8618.51851851852
18 172.37037037037038 ['12', '7', '6', '14', '31', '48'] 8618.51851851852
19 172.37037037037038 ['12', '7', '6', '14', '31', '48'] 8618.51851851852
20 172.37037037037038 ['12', '7', '6', '14', '31', '48'] 8618.51851851852
21 172.37037037037038 ['12', '7', '6', '14', '31', '48'] 8618.51851851852
22 172.37037037037038 ['12', '7', '6', '14', '31', '48'] 8618.51851851852
23 172.37037037037038 ['12', '7', '6', '14', '31', '48'] 8618.51851851852
24 172.37037037037038 ['12', '7', '6', '14', '31', '48'] 8618.51851851852
25 172.37037037037038 ['12', '7', '6', '14', '31', '48'] 8618.51851851852
26 172.37037037037038 ['12', '7', '6', '14', '31', '48'] 8618.51851851852
27 172.37037037037038 ['12', '7', '6', '14', '31', '48'] 8618.51851851852
28 172.37037037037038 ['12', '7', '6', '14', '31', '48'] 8618.51851851852
29 172.37037037037038 ['12', '7', '6', '14', '31', '48'] 8618.51851851852
30 172.37037037037038 ['12', '7', '6', '14', '31', '48'] 8618.51851851852
31 172.37037037037038 ['12', '7', '6', '14', '31', '48'] 8618.51851851852
32 172.37037037037038 ['12', '7', '6', '14', '31', '48'] 8618.51851851852
33 172.37037037037038 ['12', '7', '6', '14', '31', '48'] 8618.51851851852
34 172.37037037037038 ['12', '7', '6', '14', '31', '48'] 8618.51851851852
35 172.37037037037038 ['12', '7', '6', '14', '31', '48'] 8618.51851851852
36 172.37037037037038 ['12', '7', '6', '14', '31', '48'] 8618.51851851852
37 172.37037037037038 ['12', '7', '6', '14', '31', '48'] 8618.51851851852
38 172.37037037037038 ['12', '7', '6', '14', '31', '48'] 8618.51851851852
39 172.37037037037038 ['12', '7', '6', '14', '31', '48'] 8618.51851851852
40 172.37037037037038 ['12', '7', '6', '14', '31', '48'] 8618.51851851852
41 172.37037037037038 ['12', '7', '6', '14', '31', '48'] 8618.51851851852
42 172.37037037037038 ['12', '7', '6', '14', '31', '48'] 8618.51851851852
43 172.37037037037038 ['12', '7', '6', '14', '31', '48'] 8618.51851851852
44 172.37037037037038 ['12', '7', '6', '14', '31', '48'] 8618.51851851852
45 172.37037037037038 ['12', '7', '6', '14', '31', '48'] 8618.51851851852
46 172.37037037037038 ['12', '7', '6', '14', '31', '48'] 8618.51851851852
47 172.37037037037038 ['12', '7', '6', '14', '31', '48'] 8618.51851851852
48 172.37037037037038 ['12', '7', '6', '14', '31', '48'] 8618.51851851852
49 172.37037037037038 ['12', '7', '6', '14', '31', '48'] 8618.51851851852
50 172.37037037037038 ['12', '7', '6', '14', '31', '48'] 8618.51851851852
51 172.37037037037038 ['12', '7', '6', '14', '31', '48'] 8618.51851851852
52 172.37037037037038 ['12', '7', '6', '14', '31', '48'] 8618.51851851852
53 172.37037037037038 ['12', '7', '6', '14', '31', '48'] 8618.51851851852
54 172.37037037037038 ['12', '7', '6', '14', '31', '48'] 8618.51851851852
55 172.37037037037038 ['12', '7', '6', '14', '31', '48'] 8618.51851851852
56 172.37037037037038 ['12', '7', '6', '14', '31', '48'] 8618.51851851852
57 172.37037037037038 ['12', '7', '6', '14', '31', '48'] 8618.51851851852
58 172.37037037037038 ['12', '7', '6', '14', '31', '48'] 8618.51851851852
59 172.37037037037038 ['12', '7', '6', '14', '31', '48'] 8618.51851851852
60 172.37037037037038 ['12', '7', '6', '14', '31', '48'] 8618.51851851852
61 172.37037037037038 ['12', '7', '6', '14', '31', '48'] 8618.51851851852
62 172.37037037037038 ['12', '7', '6', '14', '31', '48'] 8618.51851851852
63 172.37037037037038 ['12', '7', '6', '14', '31', '48'] 8618.51851851852
64 172.37037037037038 ['12', '7', '6', '14', '31', '48'] 8618.51851851852
65 172.37037037037038 ['12', '7', '6', '14', '31', '48'] 8618.51851851852
66 172.37037037037038 ['12', '7', '6', '14', '31', '48'] 8618.51851851852
67 172.37037037037038 ['12', '7', '6', '14', '31', '48'] 8618.51851851852
68 172.37037037037038 ['12', '7', '6', '14', '31', '48'] 8618.51851851852
69 172.37037037037038 ['12', '7', '6', '14', '31', '48'] 8618.51851851852
70 172.37037037037038 ['12', '7', '6', '14', '31', '48'] 8618.51851851852
71 172.37037037037038 ['12', '7', '6', '14', '31', '48'] 8618.51851851852
72 172.37037037037038 ['12', '7', '6', '14', '31', '48'] 8618.51851851852
73 172.37037037037038 ['12', '7', '6', '14', '31', '48'] 8618.51851851852
74 172.37037037037038 ['12', '7', '6', '14', '31', '48'] 8618.51851851852
75 172.37037037037038 ['12', '7', '6', '14', '31', '48'] 8618.51851851852
76 172.37037037037038 ['12', '7', '6', '14', '31', '48'] 8618.51851851852
77 172.37037037037038 ['12', '7', '6', '14', '31', '48'] 8618.51851851852
78 172.37037037037038 ['12', '7', '6', '14', '31', '48'] 8618.51851851852
79 172.37037037037038 ['12', '7', '6', '14', '31', '48'] 8618.51851851852
80 172.37037037037038 ['12', '7', '6', '14', '31', '48'] 8618.51851851852
81 172.37037037037038 ['12', '7', '6', '14', '31', '48'] 8618.51851851852
82 172.37037037037038 ['12', '7', '6', '14', '31', '48'] 8618.51851851852
83 172.37037037037038 ['12', '7', '6', '14', '31', '48'] 8618.51851851852
84 172.37037037037038 ['12', '7', '6', '14', '31', '48'] 8618.51851851852
85 172.37037037037038 ['12', '7', '6', '14', '31', '48'] 8618.51851851852
86 172.37037037037038 ['12', '7', '6', '14', '31', '48'] 8618.51851851852
87 172.37037037037038 ['12', '7', '6', '14', '31', '48'] 8618.51851851852
88 172.37037037037038 ['12', '7', '6', '14', '31', '48'] 8618.51851851852
89 172.37037037037038 ['12', '7', '6', '14', '31', '48'] 8618.51851851852
90 172.37037037037038 ['12', '7', '6', '14', '31', '48'] 8618.51851851852
91 172.37037037037038 ['12', '7', '6', '14', '31', '48'] 8618.51851851852
92 172.37037037037038 ['12', '7', '6', '14', '31', '48'] 8618.51851851852
93 172.37037037037038 ['12', '7', '6', '14', '31', '48'] 8618.51851851852
94 172.37037037037038 ['12', '7', '6', '14', '31', '48'] 8618.51851851852
95 172.37037037037038 ['12', '7', '6', '14', '31', '48'] 8618.51851851852
96 172.37037037037038 ['12', '7', '6', '14', '31', '48'] 8618.51851851852
97 172.37037037037038 ['12', '7', '6', '14', '31', '48'] 8618.51851851852
98 172.37037037037038 ['12', '7', '6', '14', '31', '48'] 8618.51851851852
99 172.37037037037038 ['12', '7', '6', '14', '31', '48'] 8618.51851851852
100 172.37037037037038 ['12', '7', '6', '14', '31', '48'] 8618.51851851852
101 172.37037037037038 ['12', '7', '6', '14', '31', '48'] 8618.51851851852
102 172.37037037037038 ['12', '7', '6', '14', '31', '48'] 8618.51851851852
103 172.37037037037038 ['12', '7', '6', '14', '31', '48'] 8618.51851851852
104 172.37037037037038 ['12', '7', '6', '14', '31', '48'] 8618.51851851852
105 172.37037037037038 ['12', '7', '6', '14', '31', '48'] 8618.51851851852
106 172.37037037037038 ['12', '7', '6', '14', '31', '48'] 8618.51851851852
107 172.37037037037038 ['12', '7', '6', '14', '31', '48'] 8618.51851851852
108 172.37037037037038 ['12', '7', '6', '14', '31', '48'] 8618.51851851852
109 172.37037037037038 ['12', '7', '6', '14', '31', '48'] 8618.51851851852
110 172.37037037037038 ['12', '7', '6', '14', '31', '48'] 8618.51851851852
111 172.37037037037038 ['12', '7', '6', '14', '31', '48'] 8618.51851851852
112 172.37037037037038 ['12', '7', '6', '14', '31', '48'] 8618.51851851852
113 172.37037037037038 ['12', '7', '6', '14', '31', '48'] 8618.51851851852
114 172.37037037037038 ['12', '7', '6', '14', '31', '48'] 8618.51851851852
115 172.37037037037038 ['12', '7', '6', '14', '31', '48'] 8618.51851851852
116 172.37037037037038 ['12', '7', '6', '14', '31', '48'] 8618.51851851852
117 172.37037037037038 ['12', '7', '6', '14', '31', '48'] 8618.51851851852
118 172.37037037037038 ['12', '7', '6', '14', '31', '48'] 8618.51851851852
119 172.37037037037038 ['12', '7', '6', '14', '31', '48'] 8618.51851851852
120 172.37037037037038 ['12', '7', '6', '14', '31', '48'] 8618.51851851852
121 172.37037037037038 ['12', '7', '6', '14', '31', '48'] 8618.51851851852
122 172.37037037037038 ['12', '7', '6', '14', '31', '48'] 8618.51851851852
123 172.37037037037038 ['12', '7', '6', '14', '31', '48'] 8618.51851851852
124 172.37037037037038 ['12', '7', '6', '14', '31', '48'] 8618.51851851852
125 172.37037037037038 ['12', '7', '6', '14', '31', '48'] 8618.51851851852
126 172.37037037037038 ['12', '7', '6', '14', '31', '48'] 8618.51851851852
127 172.37037037037038 ['12', '7', '6', '14', '31', '48'] 8618.51851851852
128 172.37037037037038 ['12', '7', '6', '14', '31', '48'] 8618.51851851852
129 172.37037037037038 ['12', '7', '6', '14', '31', '48'] 8618.51851851852
130 172.37037037037038 ['12', '7', '6', '14', '31', '48'] 8618.51851851852
131 172.37037037037038 ['12', '7', '6', '14', '31', '48'] 8618.51851851852
132 172.37037037037038 ['12', '7', '6', '14', '31', '48'] 8618.51851851852
133 172.37037037037038 ['12', '7', '6', '14', '31', '48'] 8618.51851851852
134 172.37037037037038 ['12', '7', '6', '14', '31', '48'] 8618.51851851852
135 172.37037037037038 ['12', '7', '6', '14', '31', '48'] 8618.51851851852
136 172.37037037037038 ['12', '7', '6', '14', '31', '48'] 8618.51851851852
137 172.37037037037038 ['12', '7', '6', '14', '31', '48'] 8618.51851851852
138 172.37037037037038 ['12', '7', '6', '14', '31', '48'] 8618.51851851852
139 172.37037037037038 ['12', '7', '6', '14', '31', '48'] 8618.51851851852
140 172.37037037037038 ['12', '7', '6', '14', '31', '48'] 8618.51851851852
141 172.37037037037038 ['12', '7', '6', '14', '31', '48'] 8618.51851851852
142 172.37037037037038 ['12', '7', '6', '14', '31', '48'] 8618.51851851852
143 172.37037037037038 ['12', '7', '6', '14', '31', '48'] 8618.51851851852
144 172.37037037037038 ['12', '7', '6', '14', '31', '48'] 8618.51851851852
145 172.37037037037038 ['12', '7', '6', '14', '31', '48'] 8618.51851851852
146 172.37037037037038 ['12', '7', '6', '14', '31', '48'] 8618.51851851852
147 172.37037037037038 ['12', '7', '6', '14', '31', '48'] 8618.51851851852
148 172.37037037037038 ['12', '7', '6', '14', '31', '48'] 8618.51851851852
149 172.37037037037038 ['12', '7', '6', '14', '31', '48'] 8618.51851851852
150 172.37037037037038 ['12', '7', '6', '14', '31', '48'] 8618.51851851852
151 172.37037037037038 ['12', '7', '6', '14', '31', '48'] 8618.51851851852
152 172.37037037037038 ['12', '7', '6', '14', '31', '48'] 8618.51851851852
153 172.37037037037038 ['12', '7', '6', '14', '31', '48'] 8618.51851851852
154 172.37037037037038 ['12', '7', '6', '14', '31', '48'] 8618.51851851852
155 172.37037037037038 ['12', '7', '6', '14', '31', '48'] 8618.51851851852
156 172.37037037037038 ['12', '7', '6', '14', '31', '48'] 8618.51851851852
157 172.37037037037038 ['12', '7', '6', '14', '31', '48'] 8618.51851851852
158 172.37037037037038 ['12', '7', '6', '14', '31', '48'] 8618.51851851852
159 172.37037037037038 ['12', '7', '6', '14', '31', '48'] 8618.51851851852
160 172.37037037037038 ['12', '7', '6', '14', '31', '48'] 8618.51851851852
161 172.37037037037038 ['12', '7', '6', '14', '31', '48'] 8618.51851851852
162 172.37037037037038 ['12', '7', '6', '14', '31', '48'] 8618.51851851852
163 172.37037037037038 ['12', '7', '6', '14', '31', '48'] 8618.51851851852
164 172.37037037037038 ['12', '7', '6', '14', '31', '48'] 8618.51851851852
165 172.37037037037038 ['12', '7', '6', '14', '31', '48'] 8618.51851851852
166 172.37037037037038 ['12', '7', '6', '14', '31', '48'] 8618.51851851852
167 172.37037037037038 ['12', '7', '6', '14', '31', '48'] 8618.51851851852
168 172.37037037037038 ['12', '7', '6', '14', '31', '48'] 8618.51851851852
169 172.37037037037038 ['12', '7', '6', '14', '31', '48'] 8618.51851851852
170 172.37037037037038 ['12', '7', '6', '14', '31', '48'] 8618.51851851852
171 172.37037037037038 ['12', '7', '6', '14', '31', '48'] 8618.51851851852
172 172.37037037037038 ['12', '7', '6', '14', '31', '48'] 8618.51851851852
173 172.37037037037038 ['12', '7', '6', '14', '31', '48'] 8618.51851851852
174 172.37037037037038 ['12', '7', '6', '14', '31', '48'] 8618.51851851852
175 172.37037037037038 ['12', '7', '6', '14', '31', '48'] 8618.51851851852
176 172.37037037037038 ['12', '7', '6', '14', '31', '48'] 8618.51851851852
177 172.37037037037038 ['12', '7', '6', '14', '31', '48'] 8618.51851851852
178 172.37037037037038 ['12', '7', '6', '14', '31', '48'] 8618.51851851852
179 172.37037037037038 ['12', '7', '6', '14', '31', '48'] 8618.51851851852
180 172.37037037037038 ['12', '7', '6', '14', '31', '48'] 8618.51851851852
181 172.37037037037038 ['12', '7', '6', '14', '31', '48'] 8618.51851851852
182 172.37037037037038 ['12', '7', '6', '14', '31', '48'] 8618.51851851852
183 172.37037037037038 ['12', '7', '6', '14', '31', '48'] 8618.51851851852
184 172.37037037037038 ['12', '7', '6', '14', '31', '48'] 8618.51851851852
185 172.37037037037038 ['12', '7', '6', '14', '31', '48'] 8618.51851851852
186 172.37037037037038 ['12', '7', '6', '14', '31', '48'] 8618.51851851852
187 172.37037037037038 ['12', '7', '6', '14', '31', '48'] 8618.51851851852
188 172.37037037037038 ['12', '7', '6', '14', '31', '48'] 8618.51851851852
189 172.37037037037038 ['12', '7', '6', '14', '31', '48'] 8618.51851851852
190 172.37037037037038 ['12', '7', '6', '14', '31', '48'] 8618.51851851852
191 172.37037037037038 ['12', '7', '6', '14', '31', '48'] 8618.51851851852
192 172.37037037037038 ['12', '7', '6', '14', '31', '48'] 8618.51851851852
193 172.37037037037038 ['12', '7', '6', '14', '31', '48'] 8618.51851851852
194 172.37037037037038 ['12', '7', '6', '14', '31', '48'] 8618.51851851852
195 172.37037037037038 ['12', '7', '6', '14', '31', '48'] 8618.51851851852
196 172.37037037037038 ['12', '7', '6', '14', '31', '48'] 8618.51851851852
197 172.37037037037038 ['12', '7', '6', '14', '31', '48'] 8618.51851851852
198 172.37037037037038 ['12', '7', '6', '14', '31', '48'] 8618.51851851852
199 172.37037037037038 ['12', '7', '6', '14', '31', '48'] 8618.51851851852
