0 15.78125 ['14', '34', '28'] 840.90625
1 15.78125 ['14', '34', '28'] 824.03125
2 15.59375 ['22', '5', '6'] 810.71875
3 15.28125 ['14', '5', '7'] 802.59375
4 15.28125 ['14', '5', '7'] 792.59375
5 15.28125 ['14', '5', '7'] 782.9375
6 15.28125 ['14', '5', '7'] 776.4375
7 15.28125 ['14', '5', '7'] 772.0625
8 15.28125 ['14', '5', '7'] 767.9375
9 15.28125 ['14', '5', '7'] 765.375
10 15.28125 ['14', '5', '7'] 764.0625
11 15.28125 ['14', '5', '7'] 764.0625
12 15.28125 ['14', '5', '7'] 764.0625
13 15.28125 ['14', '5', '7'] 764.0625
14 15.28125 ['14', '5', '7'] 764.0625
15 15.28125 ['14', '5', '7'] 764.0625
16 15.28125 ['14', '5', '7'] 764.0625
17 15.28125 ['14', '5', '7'] 764.0625
18 15.28125 ['14', '5', '7'] 764.0625
19 15.28125 ['14', '5', '7'] 764.0625
20 15.28125 ['14', '5', '7'] 764.0625
21 15.28125 ['14', '5', '7'] 764.0625
22 15.28125 ['14', '5', '7'] 764.0625
23 15.28125 ['14', '5', '7'] 764.0625
24 15.28125 ['14', '5', '7'] 764.0625
25 15.28125 ['14', '5', '7'] 764.0625
26 15.28125 ['14', '5', '7'] 764.0625
27 15.28125 ['14', '5', '7'] 764.0625
28 15.28125 ['14', '5', '7'] 764.0625
29 15.28125 ['14', '5', '7'] 764.0625
30 15.28125 ['14', '5', '7'] 764.0625
31 15.28125 ['14', '5', '7'] 764.0625
32 15.28125 ['14', '5', '7'] 764.0625
33 15.28125 ['14', '5', '7'] 764.0625
34 15.28125 ['14', '5', '7'] 764.0625
35 15.28125 ['14', '5', '7'] 764.0625
36 15.28125 ['14', '5', '7'] 764.0625
37 15.28125 ['14', '5', '7'] 764.0625
38 15.28125 ['14', '5', '7'] 764.0625
39 15.28125 ['14', '5', '7'] 764.0625
40 15.28125 ['14', '5', '7'] 764.0625
41 15.28125 ['14', '5', '7'] 764.0625
42 15.28125 ['14', '5', '7'] 764.0625
43 15.28125 ['14', '5', '7'] 764.0625
44 15.28125 ['14', '5', '7'] 764.0625
45 15.28125 ['14', '5', '7'] 764.0625
46 15.28125 ['14', '5', '7'] 764.0625
47 15.28125 ['14', '5', '7'] 764.0625
48 15.28125 ['14', '5', '7'] 764.0625
49 15.28125 ['14', '5', '7'] 764.0625
50 15.28125 ['14', '5', '7'] 764.0625
51 15.28125 ['14', '5', '7'] 764.0625
52 15.28125 ['14', '5', '7'] 764.0625
53 15.28125 ['14', '5', '7'] 764.0625
54 15.28125 ['14', '5', '7'] 764.0625
55 15.28125 ['14', '5', '7'] 764.0625
56 15.28125 ['14', '5', '7'] 764.0625
57 15.28125 ['14', '5', '7'] 764.0625
58 15.28125 ['14', '5', '7'] 764.0625
59 15.28125 ['14', '5', '7'] 764.0625
60 15.28125 ['14', '5', '7'] 764.0625
61 15.28125 ['14', '5', '7'] 764.0625
62 15.28125 ['14', '5', '7'] 764.0625
63 15.28125 ['14', '5', '7'] 764.0625
64 15.28125 ['14', '5', '7'] 764.0625
65 15.28125 ['14', '5', '7'] 764.0625
66 15.28125 ['14', '5', '7'] 764.0625
67 15.28125 ['14', '5', '7'] 764.0625
68 15.28125 ['14', '5', '7'] 764.0625
69 15.28125 ['14', '5', '7'] 764.0625
70 15.28125 ['14', '5', '7'] 764.0625
71 15.28125 ['14', '5', '7'] 764.0625
72 15.28125 ['14', '5', '7'] 764.0625
73 15.28125 ['14', '5', '7'] 764.0625
74 15.28125 ['14', '5', '7'] 764.0625
75 15.28125 ['14', '5', '7'] 764.0625
76 15.28125 ['14', '5', '7'] 764.0625
77 15.28125 ['14', '5', '7'] 764.0625
78 15.28125 ['14', '5', '7'] 764.0625
79 15.28125 ['14', '5', '7'] 764.0625
80 15.28125 ['14', '5', '7'] 764.0625
81 15.28125 ['14', '5', '7'] 764.0625
82 15.28125 ['14', '5', '7'] 764.0625
83 15.28125 ['14', '5', '7'] 764.0625
84 15.28125 ['14', '5', '7'] 764.0625
85 15.28125 ['14', '5', '7'] 764.0625
86 15.28125 ['14', '5', '7'] 764.0625
87 15.28125 ['14', '5', '7'] 764.0625
88 15.28125 ['14', '5', '7'] 764.0625
89 15.28125 ['14', '5', '7'] 764.0625
90 15.28125 ['14', '5', '7'] 764.0625
91 15.28125 ['14', '5', '7'] 764.0625
92 15.28125 ['14', '5', '7'] 764.0625
93 15.28125 ['14', '5', '7'] 764.0625
94 15.28125 ['14', '5', '7'] 764.0625
95 15.28125 ['14', '5', '7'] 764.0625
96 15.28125 ['14', '5', '7'] 764.0625
97 15.28125 ['14', '5', '7'] 764.0625
98 15.28125 ['14', '5', '7'] 764.0625
99 15.28125 ['14', '5', '7'] 764.0625
100 15.28125 ['14', '5', '7'] 764.0625
101 15.28125 ['14', '5', '7'] 764.0625
102 15.28125 ['14', '5', '7'] 764.0625
103 15.28125 ['14', '5', '7'] 764.0625
104 15.28125 ['14', '5', '7'] 764.0625
105 15.28125 ['14', '5', '7'] 764.0625
106 15.28125 ['14', '5', '7'] 764.0625
107 15.28125 ['14', '5', '7'] 764.0625
108 15.28125 ['14', '5', '7'] 764.0625
109 15.28125 ['14', '5', '7'] 764.0625
110 15.28125 ['14', '5', '7'] 764.0625
111 15.28125 ['14', '5', '7'] 764.0625
112 15.28125 ['14', '5', '7'] 764.0625
113 15.28125 ['14', '5', '7'] 764.0625
114 15.28125 ['14', '5', '7'] 764.0625
115 15.28125 ['14', '5', '7'] 764.0625
116 15.28125 ['14', '5', '7'] 764.0625
117 15.28125 ['14', '5', '7'] 764.0625
118 15.28125 ['14', '5', '7'] 764.0625
119 15.28125 ['14', '5', '7'] 764.0625
120 15.28125 ['14', '5', '7'] 764.0625
121 15.28125 ['14', '5', '7'] 764.0625
122 15.28125 ['14', '5', '7'] 764.0625
123 15.28125 ['14', '5', '7'] 764.0625
124 15.28125 ['14', '5', '7'] 764.0625
125 15.28125 ['14', '5', '7'] 764.0625
126 15.28125 ['14', '5', '7'] 764.0625
127 15.28125 ['14', '5', '7'] 764.0625
128 15.28125 ['14', '5', '7'] 764.0625
129 15.28125 ['14', '5', '7'] 764.0625
130 15.28125 ['14', '5', '7'] 764.0625
131 15.28125 ['14', '5', '7'] 764.0625
132 15.28125 ['14', '5', '7'] 764.0625
133 15.28125 ['14', '5', '7'] 764.0625
134 15.28125 ['14', '5', '7'] 764.0625
135 15.28125 ['14', '5', '7'] 764.0625
136 15.28125 ['14', '5', '7'] 764.0625
137 15.28125 ['14', '5', '7'] 764.0625
138 15.28125 ['14', '5', '7'] 764.0625
139 15.28125 ['14', '5', '7'] 764.0625
140 15.28125 ['14', '5', '7'] 764.0625
141 15.28125 ['14', '5', '7'] 764.0625
142 15.28125 ['14', '5', '7'] 764.0625
143 15.28125 ['14', '5', '7'] 764.0625
144 15.28125 ['14', '5', '7'] 764.0625
145 15.28125 ['14', '5', '7'] 764.0625
146 15.28125 ['14', '5', '7'] 764.0625
147 15.28125 ['14', '5', '7'] 764.0625
148 15.28125 ['14', '5', '7'] 764.0625
149 15.28125 ['14', '5', '7'] 764.0625
150 15.28125 ['14', '5', '7'] 764.0625
151 15.28125 ['14', '5', '7'] 764.0625
152 15.28125 ['14', '5', '7'] 764.0625
153 15.28125 ['14', '5', '7'] 764.0625
154 15.28125 ['14', '5', '7'] 764.0625
155 15.28125 ['14', '5', '7'] 764.0625
156 15.28125 ['14', '5', '7'] 764.0625
157 15.28125 ['14', '5', '7'] 764.0625
158 15.28125 ['14', '5', '7'] 764.0625
159 15.28125 ['14', '5', '7'] 764.0625
160 15.28125 ['14', '5', '7'] 764.0625
161 15.28125 ['14', '5', '7'] 764.0625
162 15.28125 ['14', '5', '7'] 764.0625
163 15.28125 ['14', '5', '7'] 764.0625
164 15.28125 ['14', '5', '7'] 764.0625
165 15.28125 ['14', '5', '7'] 764.0625
166 15.28125 ['14', '5', '7'] 764.0625
167 15.28125 ['14', '5', '7'] 764.0625
168 15.28125 ['14', '5', '7'] 764.0625
169 15.28125 ['14', '5', '7'] 764.0625
170 15.28125 ['14', '5', '7'] 764.0625
171 15.28125 ['14', '5', '7'] 764.0625
172 15.28125 ['14', '5', '7'] 764.0625
173 15.28125 ['14', '5', '7'] 764.0625
174 15.28125 ['14', '5', '7'] 764.0625
175 15.28125 ['14', '5', '7'] 764.0625
176 15.28125 ['14', '5', '7'] 764.0625
177 15.28125 ['14', '5', '7'] 764.0625
178 15.28125 ['14', '5', '7'] 764.0625
179 15.28125 ['14', '5', '7'] 764.0625
180 15.28125 ['14', '5', '7'] 764.0625
181 15.28125 ['14', '5', '7'] 764.0625
182 15.28125 ['14', '5', '7'] 764.0625
183 15.28125 ['14', '5', '7'] 764.0625
184 15.28125 ['14', '5', '7'] 764.0625
185 15.28125 ['14', '5', '7'] 764.0625
186 15.28125 ['14', '5', '7'] 764.0625
187 15.28125 ['14', '5', '7'] 764.0625
188 15.28125 ['14', '5', '7'] 764.0625
189 15.28125 ['14', '5', '7'] 764.0625
190 15.28125 ['14', '5', '7'] 764.0625
191 15.28125 ['14', '5', '7'] 764.0625
192 15.28125 ['14', '5', '7'] 764.0625
193 15.28125 ['14', '5', '7'] 764.0625
194 15.28125 ['14', '5', '7'] 764.0625
195 15.28125 ['14', '5', '7'] 764.0625
196 15.28125 ['14', '5', '7'] 764.0625
197 15.28125 ['14', '5', '7'] 764.0625
198 15.28125 ['14', '5', '7'] 764.0625
199 15.28125 ['14', '5', '7'] 764.0625
