0 31.46 ['10', '22', '6', '19', '38'] 1639.9400000000003
1 30.58 ['31', '10', '38', '6', '8'] 1613.7999999999995
2 30.58 ['31', '10', '38', '6', '8'] 1587.8
3 30.0 ['31', '6', '10', '39', '38'] 1567.0600000000004
4 29.72 ['6', '31', '7', '1', '38'] 1544.2199999999993
5 29.62 ['6', '38', '31', '39', '1'] 1529.1599999999994
6 29.62 ['6', '38', '31', '39', '1'] 1512.6999999999994
7 29.6 ['38', '6', '31', '39', '7'] 1499.0600000000006
8 29.6 ['38', '6', '31', '39', '7'] 1491.2799999999993
9 29.6 ['38', '6', '31', '39', '7'] 1481.120000000001
10 29.6 ['38', '6', '31', '39', '7'] 1480.099999999999
11 29.6 ['38', '6', '31', '39', '7'] 1479.999999999999
12 29.6 ['38', '6', '31', '39', '7'] 1479.999999999999
13 29.6 ['38', '6', '31', '39', '7'] 1479.999999999999
14 29.6 ['38', '6', '31', '39', '7'] 1479.999999999999
15 29.6 ['38', '6', '31', '39', '7'] 1479.999999999999
16 29.6 ['38', '6', '31', '39', '7'] 1479.999999999999
17 29.6 ['38', '6', '31', '39', '7'] 1479.999999999999
18 29.6 ['38', '6', '31', '39', '7'] 1479.999999999999
19 29.6 ['38', '6', '31', '39', '7'] 1479.999999999999
20 29.6 ['38', '6', '31', '39', '7'] 1479.999999999999
21 29.6 ['38', '6', '31', '39', '7'] 1479.999999999999
22 29.6 ['38', '6', '31', '39', '7'] 1479.999999999999
23 29.6 ['38', '6', '31', '39', '7'] 1479.999999999999
24 29.6 ['38', '6', '31', '39', '7'] 1479.999999999999
25 29.6 ['38', '6', '31', '39', '7'] 1479.999999999999
26 29.6 ['38', '6', '31', '39', '7'] 1479.999999999999
27 29.6 ['38', '6', '31', '39', '7'] 1479.999999999999
28 29.6 ['38', '6', '31', '39', '7'] 1479.999999999999
29 29.6 ['38', '6', '31', '39', '7'] 1479.999999999999
30 29.6 ['38', '6', '31', '39', '7'] 1479.999999999999
31 29.6 ['38', '6', '31', '39', '7'] 1479.999999999999
32 29.6 ['38', '6', '31', '39', '7'] 1479.999999999999
33 29.6 ['38', '6', '31', '39', '7'] 1479.999999999999
34 29.6 ['38', '6', '31', '39', '7'] 1479.999999999999
35 29.6 ['38', '6', '31', '39', '7'] 1479.999999999999
36 29.6 ['38', '6', '31', '39', '7'] 1479.999999999999
37 29.6 ['38', '6', '31', '39', '7'] 1479.999999999999
38 29.6 ['38', '6', '31', '39', '7'] 1479.999999999999
39 29.6 ['38', '6', '31', '39', '7'] 1479.999999999999
40 29.6 ['38', '6', '31', '39', '7'] 1479.999999999999
41 29.6 ['38', '6', '31', '39', '7'] 1479.999999999999
42 29.6 ['38', '6', '31', '39', '7'] 1479.999999999999
43 29.6 ['38', '6', '31', '39', '7'] 1479.999999999999
44 29.6 ['38', '6', '31', '39', '7'] 1479.999999999999
45 29.6 ['38', '6', '31', '39', '7'] 1479.999999999999
46 29.6 ['38', '6', '31', '39', '7'] 1479.999999999999
47 29.6 ['38', '6', '31', '39', '7'] 1479.999999999999
48 29.6 ['38', '6', '31', '39', '7'] 1479.999999999999
49 29.6 ['38', '6', '31', '39', '7'] 1479.999999999999
50 29.6 ['38', '6', '31', '39', '7'] 1479.999999999999
51 29.6 ['38', '6', '31', '39', '7'] 1479.999999999999
52 29.6 ['38', '6', '31', '39', '7'] 1479.999999999999
53 29.6 ['38', '6', '31', '39', '7'] 1479.999999999999
54 29.6 ['38', '6', '31', '39', '7'] 1479.999999999999
55 29.6 ['38', '6', '31', '39', '7'] 1479.999999999999
56 29.6 ['38', '6', '31', '39', '7'] 1479.999999999999
57 29.6 ['38', '6', '31', '39', '7'] 1479.999999999999
58 29.6 ['38', '6', '31', '39', '7'] 1479.999999999999
59 29.6 ['38', '6', '31', '39', '7'] 1479.999999999999
60 29.6 ['38', '6', '31', '39', '7'] 1479.999999999999
61 29.6 ['38', '6', '31', '39', '7'] 1479.999999999999
62 29.6 ['38', '6', '31', '39', '7'] 1479.999999999999
63 29.6 ['38', '6', '31', '39', '7'] 1479.999999999999
64 29.6 ['38', '6', '31', '39', '7'] 1479.999999999999
65 29.6 ['38', '6', '31', '39', '7'] 1479.999999999999
66 29.6 ['38', '6', '31', '39', '7'] 1479.999999999999
67 29.6 ['38', '6', '31', '39', '7'] 1479.999999999999
68 29.6 ['38', '6', '31', '39', '7'] 1479.999999999999
69 29.6 ['38', '6', '31', '39', '7'] 1479.999999999999
70 29.6 ['38', '6', '31', '39', '7'] 1479.999999999999
71 29.6 ['38', '6', '31', '39', '7'] 1479.999999999999
72 29.6 ['38', '6', '31', '39', '7'] 1479.999999999999
73 29.6 ['38', '6', '31', '39', '7'] 1479.999999999999
74 29.6 ['38', '6', '31', '39', '7'] 1479.999999999999
75 29.6 ['38', '6', '31', '39', '7'] 1479.999999999999
76 29.6 ['38', '6', '31', '39', '7'] 1479.999999999999
77 29.6 ['38', '6', '31', '39', '7'] 1479.999999999999
78 29.6 ['38', '6', '31', '39', '7'] 1479.999999999999
79 29.6 ['38', '6', '31', '39', '7'] 1479.999999999999
80 29.6 ['38', '6', '31', '39', '7'] 1479.999999999999
81 29.6 ['38', '6', '31', '39', '7'] 1479.999999999999
82 29.6 ['38', '6', '31', '39', '7'] 1479.999999999999
83 29.6 ['38', '6', '31', '39', '7'] 1479.999999999999
84 29.6 ['38', '6', '31', '39', '7'] 1479.999999999999
85 29.6 ['38', '6', '31', '39', '7'] 1479.999999999999
86 29.6 ['38', '6', '31', '39', '7'] 1479.999999999999
87 29.6 ['38', '6', '31', '39', '7'] 1479.999999999999
88 29.6 ['38', '6', '31', '39', '7'] 1479.999999999999
89 29.6 ['38', '6', '31', '39', '7'] 1479.999999999999
90 29.6 ['38', '6', '31', '39', '7'] 1479.999999999999
91 29.6 ['38', '6', '31', '39', '7'] 1479.999999999999
92 29.6 ['38', '6', '31', '39', '7'] 1479.999999999999
93 29.6 ['38', '6', '31', '39', '7'] 1479.999999999999
94 29.6 ['38', '6', '31', '39', '7'] 1479.999999999999
95 29.6 ['38', '6', '31', '39', '7'] 1479.999999999999
96 29.6 ['38', '6', '31', '39', '7'] 1479.999999999999
97 29.6 ['38', '6', '31', '39', '7'] 1479.999999999999
98 29.6 ['38', '6', '31', '39', '7'] 1479.999999999999
99 29.6 ['38', '6', '31', '39', '7'] 1479.999999999999
100 29.6 ['38', '6', '31', '39', '7'] 1479.999999999999
101 29.6 ['38', '6', '31', '39', '7'] 1479.999999999999
102 29.6 ['38', '6', '31', '39', '7'] 1479.999999999999
103 29.6 ['38', '6', '31', '39', '7'] 1479.999999999999
104 29.6 ['38', '6', '31', '39', '7'] 1479.999999999999
105 29.6 ['38', '6', '31', '39', '7'] 1479.999999999999
106 29.6 ['38', '6', '31', '39', '7'] 1479.999999999999
107 29.6 ['38', '6', '31', '39', '7'] 1479.999999999999
108 29.6 ['38', '6', '31', '39', '7'] 1479.999999999999
109 29.6 ['38', '6', '31', '39', '7'] 1479.999999999999
110 29.6 ['38', '6', '31', '39', '7'] 1479.999999999999
111 29.6 ['38', '6', '31', '39', '7'] 1479.999999999999
112 29.6 ['38', '6', '31', '39', '7'] 1479.999999999999
113 29.6 ['38', '6', '31', '39', '7'] 1479.999999999999
114 29.6 ['38', '6', '31', '39', '7'] 1479.999999999999
115 29.6 ['38', '6', '31', '39', '7'] 1479.999999999999
116 29.6 ['38', '6', '31', '39', '7'] 1479.999999999999
117 29.6 ['38', '6', '31', '39', '7'] 1479.999999999999
118 29.6 ['38', '6', '31', '39', '7'] 1479.999999999999
119 29.6 ['38', '6', '31', '39', '7'] 1479.999999999999
120 29.6 ['38', '6', '31', '39', '7'] 1479.999999999999
121 29.6 ['38', '6', '31', '39', '7'] 1479.999999999999
122 29.6 ['38', '6', '31', '39', '7'] 1479.999999999999
123 29.6 ['38', '6', '31', '39', '7'] 1479.999999999999
124 29.6 ['38', '6', '31', '39', '7'] 1479.999999999999
125 29.6 ['38', '6', '31', '39', '7'] 1479.999999999999
126 29.6 ['38', '6', '31', '39', '7'] 1479.999999999999
127 29.6 ['38', '6', '31', '39', '7'] 1479.999999999999
128 29.6 ['38', '6', '31', '39', '7'] 1479.999999999999
129 29.6 ['38', '6', '31', '39', '7'] 1479.999999999999
130 29.6 ['38', '6', '31', '39', '7'] 1479.999999999999
131 29.6 ['38', '6', '31', '39', '7'] 1479.999999999999
132 29.6 ['38', '6', '31', '39', '7'] 1479.999999999999
133 29.6 ['38', '6', '31', '39', '7'] 1479.999999999999
134 29.6 ['38', '6', '31', '39', '7'] 1479.999999999999
135 29.6 ['38', '6', '31', '39', '7'] 1479.999999999999
136 29.6 ['38', '6', '31', '39', '7'] 1479.999999999999
137 29.6 ['38', '6', '31', '39', '7'] 1479.999999999999
138 29.6 ['38', '6', '31', '39', '7'] 1479.999999999999
139 29.6 ['38', '6', '31', '39', '7'] 1479.999999999999
140 29.6 ['38', '6', '31', '39', '7'] 1479.999999999999
141 29.6 ['38', '6', '31', '39', '7'] 1479.999999999999
142 29.6 ['38', '6', '31', '39', '7'] 1479.999999999999
143 29.6 ['38', '6', '31', '39', '7'] 1479.999999999999
144 29.6 ['38', '6', '31', '39', '7'] 1479.999999999999
145 29.6 ['38', '6', '31', '39', '7'] 1479.999999999999
146 29.6 ['38', '6', '31', '39', '7'] 1479.999999999999
147 29.6 ['38', '6', '31', '39', '7'] 1479.999999999999
148 29.6 ['38', '6', '31', '39', '7'] 1479.999999999999
149 29.6 ['38', '6', '31', '39', '7'] 1479.999999999999
150 29.6 ['38', '6', '31', '39', '7'] 1479.999999999999
151 29.6 ['38', '6', '31', '39', '7'] 1479.999999999999
152 29.6 ['38', '6', '31', '39', '7'] 1479.999999999999
153 29.6 ['38', '6', '31', '39', '7'] 1479.999999999999
154 29.6 ['38', '6', '31', '39', '7'] 1479.999999999999
155 29.6 ['38', '6', '31', '39', '7'] 1479.999999999999
156 29.6 ['38', '6', '31', '39', '7'] 1479.999999999999
157 29.6 ['38', '6', '31', '39', '7'] 1479.999999999999
158 29.6 ['38', '6', '31', '39', '7'] 1479.999999999999
159 29.6 ['38', '6', '31', '39', '7'] 1479.999999999999
160 29.6 ['38', '6', '31', '39', '7'] 1479.999999999999
161 29.6 ['38', '6', '31', '39', '7'] 1479.999999999999
162 29.6 ['38', '6', '31', '39', '7'] 1479.999999999999
163 29.6 ['38', '6', '31', '39', '7'] 1479.999999999999
164 29.6 ['38', '6', '31', '39', '7'] 1479.999999999999
165 29.6 ['38', '6', '31', '39', '7'] 1479.999999999999
166 29.6 ['38', '6', '31', '39', '7'] 1479.999999999999
167 29.6 ['38', '6', '31', '39', '7'] 1479.999999999999
168 29.6 ['38', '6', '31', '39', '7'] 1479.999999999999
169 29.6 ['38', '6', '31', '39', '7'] 1479.999999999999
170 29.6 ['38', '6', '31', '39', '7'] 1479.999999999999
171 29.6 ['38', '6', '31', '39', '7'] 1479.999999999999
172 29.6 ['38', '6', '31', '39', '7'] 1479.999999999999
173 29.6 ['38', '6', '31', '39', '7'] 1479.999999999999
174 29.6 ['38', '6', '31', '39', '7'] 1479.999999999999
175 29.6 ['38', '6', '31', '39', '7'] 1479.999999999999
176 29.6 ['38', '6', '31', '39', '7'] 1479.999999999999
177 29.6 ['38', '6', '31', '39', '7'] 1479.999999999999
178 29.6 ['38', '6', '31', '39', '7'] 1479.999999999999
179 29.6 ['38', '6', '31', '39', '7'] 1479.999999999999
180 29.6 ['38', '6', '31', '39', '7'] 1479.999999999999
181 29.6 ['38', '6', '31', '39', '7'] 1479.999999999999
182 29.6 ['38', '6', '31', '39', '7'] 1479.999999999999
183 29.6 ['38', '6', '31', '39', '7'] 1479.999999999999
184 29.6 ['38', '6', '31', '39', '7'] 1479.999999999999
185 29.6 ['38', '6', '31', '39', '7'] 1479.999999999999
186 29.6 ['38', '6', '31', '39', '7'] 1479.999999999999
187 29.6 ['38', '6', '31', '39', '7'] 1479.999999999999
188 29.6 ['38', '6', '31', '39', '7'] 1479.999999999999
189 29.6 ['38', '6', '31', '39', '7'] 1479.999999999999
190 29.6 ['38', '6', '31', '39', '7'] 1479.999999999999
191 29.6 ['38', '6', '31', '39', '7'] 1479.999999999999
192 29.6 ['38', '6', '31', '39', '7'] 1479.999999999999
193 29.6 ['38', '6', '31', '39', '7'] 1479.999999999999
194 29.6 ['38', '6', '31', '39', '7'] 1479.999999999999
195 29.6 ['38', '6', '31', '39', '7'] 1479.999999999999
196 29.6 ['38', '6', '31', '39', '7'] 1479.999999999999
197 29.6 ['38', '6', '31', '39', '7'] 1479.999999999999
198 29.6 ['38', '6', '31', '39', '7'] 1479.999999999999
199 29.6 ['38', '6', '31', '39', '7'] 1479.999999999999
