0 6.454545454545454 ['46', '32', '42', '27'] 360.4545454545456
1 6.181818181818182 ['32', '35', '22', '42'] 343.90909090909093
2 6.090909090909091 ['42', '24', '27', '1'] 329.1818181818181
3 6.0 ['33', '1', '46', '42'] 321.18181818181824
4 5.909090909090909 ['42', '33', '22', '1'] 313.7272727272728
5 5.818181818181818 ['42', '1', '22', '35'] 306.9090909090909
6 5.7272727272727275 ['27', '42', '1', '48'] 302.27272727272737
7 5.7272727272727275 ['27', '42', '1', '48'] 297.81818181818164
8 5.7272727272727275 ['27', '42', '1', '48'] 293.4545454545454
9 5.545454545454546 ['1', '42', '48', '22'] 289.9090909090907
10 5.545454545454546 ['1', '42', '48', '22'] 287.63636363636357
11 5.545454545454546 ['1', '42', '48', '22'] 284.9090909090909
12 5.545454545454546 ['1', '42', '48', '22'] 283.27272727272725
13 5.545454545454546 ['1', '42', '48', '22'] 279.27272727272714
14 5.545454545454546 ['1', '42', '48', '22'] 277.272727272727
15 5.545454545454546 ['1', '42', '48', '22'] 277.272727272727
16 5.545454545454546 ['1', '42', '48', '22'] 277.272727272727
17 5.545454545454546 ['1', '42', '48', '22'] 277.272727272727
18 5.545454545454546 ['1', '42', '48', '22'] 277.272727272727
19 5.545454545454546 ['1', '42', '48', '22'] 277.272727272727
20 5.545454545454546 ['1', '42', '48', '22'] 277.272727272727
21 5.545454545454546 ['1', '42', '48', '22'] 277.272727272727
22 5.545454545454546 ['1', '42', '48', '22'] 277.272727272727
23 5.545454545454546 ['1', '42', '48', '22'] 277.272727272727
24 5.545454545454546 ['1', '42', '48', '22'] 277.272727272727
25 5.545454545454546 ['1', '42', '48', '22'] 277.272727272727
26 5.545454545454546 ['1', '42', '48', '22'] 277.272727272727
27 5.545454545454546 ['1', '42', '48', '22'] 277.272727272727
28 5.545454545454546 ['1', '42', '48', '22'] 277.272727272727
29 5.545454545454546 ['1', '42', '48', '22'] 277.272727272727
30 5.545454545454546 ['1', '42', '48', '22'] 277.272727272727
31 5.545454545454546 ['1', '42', '48', '22'] 277.272727272727
32 5.545454545454546 ['1', '42', '48', '22'] 277.272727272727
33 5.545454545454546 ['1', '42', '48', '22'] 277.272727272727
34 5.545454545454546 ['1', '42', '48', '22'] 277.272727272727
35 5.545454545454546 ['1', '42', '48', '22'] 277.272727272727
36 5.545454545454546 ['1', '42', '48', '22'] 277.272727272727
37 5.545454545454546 ['1', '42', '48', '22'] 277.272727272727
38 5.545454545454546 ['1', '42', '48', '22'] 277.272727272727
39 5.545454545454546 ['1', '42', '48', '22'] 277.272727272727
40 5.545454545454546 ['1', '42', '48', '22'] 277.272727272727
41 5.545454545454546 ['1', '42', '48', '22'] 277.272727272727
42 5.545454545454546 ['1', '42', '48', '22'] 277.272727272727
43 5.545454545454546 ['1', '42', '48', '22'] 277.272727272727
44 5.545454545454546 ['1', '42', '48', '22'] 277.272727272727
45 5.545454545454546 ['1', '42', '48', '22'] 277.272727272727
46 5.545454545454546 ['1', '42', '48', '22'] 277.272727272727
47 5.545454545454546 ['1', '42', '48', '22'] 277.272727272727
48 5.545454545454546 ['1', '42', '48', '22'] 277.272727272727
49 5.545454545454546 ['1', '42', '48', '22'] 277.272727272727
50 5.545454545454546 ['1', '42', '48', '22'] 277.272727272727
51 5.545454545454546 ['1', '42', '48', '22'] 277.272727272727
52 5.545454545454546 ['1', '42', '48', '22'] 277.272727272727
53 5.545454545454546 ['1', '42', '48', '22'] 277.272727272727
54 5.545454545454546 ['1', '42', '48', '22'] 277.272727272727
55 5.545454545454546 ['1', '42', '48', '22'] 277.272727272727
56 5.545454545454546 ['1', '42', '48', '22'] 277.272727272727
57 5.545454545454546 ['1', '42', '48', '22'] 277.272727272727
58 5.545454545454546 ['1', '42', '48', '22'] 277.272727272727
59 5.545454545454546 ['1', '42', '48', '22'] 277.272727272727
60 5.545454545454546 ['1', '42', '48', '22'] 277.272727272727
61 5.545454545454546 ['1', '42', '48', '22'] 277.272727272727
62 5.545454545454546 ['1', '42', '48', '22'] 277.272727272727
63 5.545454545454546 ['1', '42', '48', '22'] 277.272727272727
64 5.545454545454546 ['1', '42', '48', '22'] 277.272727272727
65 5.545454545454546 ['1', '42', '48', '22'] 277.272727272727
66 5.545454545454546 ['1', '42', '48', '22'] 277.272727272727
67 5.545454545454546 ['1', '42', '48', '22'] 277.272727272727
68 5.545454545454546 ['1', '42', '48', '22'] 277.272727272727
69 5.545454545454546 ['1', '42', '48', '22'] 277.272727272727
70 5.545454545454546 ['1', '42', '48', '22'] 277.272727272727
71 5.545454545454546 ['1', '42', '48', '22'] 277.272727272727
72 5.545454545454546 ['1', '42', '48', '22'] 277.272727272727
73 5.545454545454546 ['1', '42', '48', '22'] 277.272727272727
74 5.545454545454546 ['1', '42', '48', '22'] 277.272727272727
75 5.545454545454546 ['1', '42', '48', '22'] 277.272727272727
76 5.545454545454546 ['1', '42', '48', '22'] 277.272727272727
77 5.545454545454546 ['1', '42', '48', '22'] 277.272727272727
78 5.545454545454546 ['1', '42', '48', '22'] 277.272727272727
79 5.545454545454546 ['1', '42', '48', '22'] 277.272727272727
80 5.545454545454546 ['1', '42', '48', '22'] 277.272727272727
81 5.545454545454546 ['1', '42', '48', '22'] 277.272727272727
82 5.545454545454546 ['1', '42', '48', '22'] 277.272727272727
83 5.545454545454546 ['1', '42', '48', '22'] 277.272727272727
84 5.545454545454546 ['1', '42', '48', '22'] 277.272727272727
85 5.545454545454546 ['1', '42', '48', '22'] 277.272727272727
86 5.545454545454546 ['1', '42', '48', '22'] 277.272727272727
87 5.545454545454546 ['1', '42', '48', '22'] 277.272727272727
88 5.545454545454546 ['1', '42', '48', '22'] 277.272727272727
89 5.545454545454546 ['1', '42', '48', '22'] 277.272727272727
90 5.545454545454546 ['1', '42', '48', '22'] 277.272727272727
91 5.545454545454546 ['1', '42', '48', '22'] 277.272727272727
92 5.545454545454546 ['1', '42', '48', '22'] 277.272727272727
93 5.545454545454546 ['1', '42', '48', '22'] 277.272727272727
94 5.545454545454546 ['1', '42', '48', '22'] 277.272727272727
95 5.545454545454546 ['1', '42', '48', '22'] 277.272727272727
96 5.545454545454546 ['1', '42', '48', '22'] 277.272727272727
97 5.545454545454546 ['1', '42', '48', '22'] 277.272727272727
98 5.545454545454546 ['1', '42', '48', '22'] 277.272727272727
99 5.545454545454546 ['1', '42', '48', '22'] 277.272727272727
100 5.545454545454546 ['1', '42', '48', '22'] 277.272727272727
101 5.545454545454546 ['1', '42', '48', '22'] 277.272727272727
102 5.545454545454546 ['1', '42', '48', '22'] 277.272727272727
103 5.545454545454546 ['1', '42', '48', '22'] 277.272727272727
104 5.545454545454546 ['1', '42', '48', '22'] 277.272727272727
105 5.545454545454546 ['1', '42', '48', '22'] 277.272727272727
106 5.545454545454546 ['1', '42', '48', '22'] 277.272727272727
107 5.545454545454546 ['1', '42', '48', '22'] 277.272727272727
108 5.545454545454546 ['1', '42', '48', '22'] 277.272727272727
109 5.545454545454546 ['1', '42', '48', '22'] 277.272727272727
110 5.545454545454546 ['1', '42', '48', '22'] 277.272727272727
111 5.545454545454546 ['1', '42', '48', '22'] 277.272727272727
112 5.545454545454546 ['1', '42', '48', '22'] 277.272727272727
113 5.545454545454546 ['1', '42', '48', '22'] 277.272727272727
114 5.545454545454546 ['1', '42', '48', '22'] 277.272727272727
115 5.545454545454546 ['1', '42', '48', '22'] 277.272727272727
116 5.545454545454546 ['1', '42', '48', '22'] 277.272727272727
117 5.545454545454546 ['1', '42', '48', '22'] 277.272727272727
118 5.545454545454546 ['1', '42', '48', '22'] 277.272727272727
119 5.545454545454546 ['1', '42', '48', '22'] 277.272727272727
120 5.545454545454546 ['1', '42', '48', '22'] 277.272727272727
121 5.545454545454546 ['1', '42', '48', '22'] 277.272727272727
122 5.545454545454546 ['1', '42', '48', '22'] 277.272727272727
123 5.545454545454546 ['1', '42', '48', '22'] 277.272727272727
124 5.545454545454546 ['1', '42', '48', '22'] 277.272727272727
125 5.545454545454546 ['1', '42', '48', '22'] 277.272727272727
126 5.545454545454546 ['1', '42', '48', '22'] 277.272727272727
127 5.545454545454546 ['1', '42', '48', '22'] 277.272727272727
128 5.545454545454546 ['1', '42', '48', '22'] 277.272727272727
129 5.545454545454546 ['1', '42', '48', '22'] 277.272727272727
130 5.545454545454546 ['1', '42', '48', '22'] 277.272727272727
131 5.545454545454546 ['1', '42', '48', '22'] 277.272727272727
132 5.545454545454546 ['1', '42', '48', '22'] 277.272727272727
133 5.545454545454546 ['1', '42', '48', '22'] 277.272727272727
134 5.545454545454546 ['1', '42', '48', '22'] 277.272727272727
135 5.545454545454546 ['1', '42', '48', '22'] 277.272727272727
136 5.545454545454546 ['1', '42', '48', '22'] 277.272727272727
137 5.545454545454546 ['1', '42', '48', '22'] 277.272727272727
138 5.545454545454546 ['1', '42', '48', '22'] 277.272727272727
139 5.545454545454546 ['1', '42', '48', '22'] 277.272727272727
140 5.545454545454546 ['1', '42', '48', '22'] 277.272727272727
141 5.545454545454546 ['1', '42', '48', '22'] 277.272727272727
142 5.545454545454546 ['1', '42', '48', '22'] 277.272727272727
143 5.545454545454546 ['1', '42', '48', '22'] 277.272727272727
144 5.545454545454546 ['1', '42', '48', '22'] 277.272727272727
145 5.545454545454546 ['1', '42', '48', '22'] 277.272727272727
146 5.545454545454546 ['1', '42', '48', '22'] 277.272727272727
147 5.545454545454546 ['1', '42', '48', '22'] 277.272727272727
148 5.545454545454546 ['1', '42', '48', '22'] 277.272727272727
149 5.545454545454546 ['1', '42', '48', '22'] 277.272727272727
150 5.545454545454546 ['1', '42', '48', '22'] 277.272727272727
151 5.545454545454546 ['1', '42', '48', '22'] 277.272727272727
152 5.545454545454546 ['1', '42', '48', '22'] 277.272727272727
153 5.545454545454546 ['1', '42', '48', '22'] 277.272727272727
154 5.545454545454546 ['1', '42', '48', '22'] 277.272727272727
155 5.545454545454546 ['1', '42', '48', '22'] 277.272727272727
156 5.545454545454546 ['1', '42', '48', '22'] 277.272727272727
157 5.545454545454546 ['1', '42', '48', '22'] 277.272727272727
158 5.545454545454546 ['1', '42', '48', '22'] 277.272727272727
159 5.545454545454546 ['1', '42', '48', '22'] 277.272727272727
160 5.545454545454546 ['1', '42', '48', '22'] 277.272727272727
161 5.545454545454546 ['1', '42', '48', '22'] 277.272727272727
162 5.545454545454546 ['1', '42', '48', '22'] 277.272727272727
163 5.545454545454546 ['1', '42', '48', '22'] 277.272727272727
164 5.545454545454546 ['1', '42', '48', '22'] 277.272727272727
165 5.545454545454546 ['1', '42', '48', '22'] 277.272727272727
166 5.545454545454546 ['1', '42', '48', '22'] 277.272727272727
167 5.545454545454546 ['1', '42', '48', '22'] 277.272727272727
168 5.545454545454546 ['1', '42', '48', '22'] 277.272727272727
169 5.545454545454546 ['1', '42', '48', '22'] 277.272727272727
170 5.545454545454546 ['1', '42', '48', '22'] 277.272727272727
171 5.545454545454546 ['1', '42', '48', '22'] 277.272727272727
172 5.545454545454546 ['1', '42', '48', '22'] 277.272727272727
173 5.545454545454546 ['1', '42', '48', '22'] 277.272727272727
174 5.545454545454546 ['1', '42', '48', '22'] 277.272727272727
175 5.545454545454546 ['1', '42', '48', '22'] 277.272727272727
176 5.545454545454546 ['1', '42', '48', '22'] 277.272727272727
177 5.545454545454546 ['1', '42', '48', '22'] 277.272727272727
178 5.545454545454546 ['1', '42', '48', '22'] 277.272727272727
179 5.545454545454546 ['1', '42', '48', '22'] 277.272727272727
180 5.545454545454546 ['1', '42', '48', '22'] 277.272727272727
181 5.545454545454546 ['1', '42', '48', '22'] 277.272727272727
182 5.545454545454546 ['1', '42', '48', '22'] 277.272727272727
183 5.545454545454546 ['1', '42', '48', '22'] 277.272727272727
184 5.545454545454546 ['1', '42', '48', '22'] 277.272727272727
185 5.545454545454546 ['1', '42', '48', '22'] 277.272727272727
186 5.545454545454546 ['1', '42', '48', '22'] 277.272727272727
187 5.545454545454546 ['1', '42', '48', '22'] 277.272727272727
188 5.545454545454546 ['1', '42', '48', '22'] 277.272727272727
189 5.545454545454546 ['1', '42', '48', '22'] 277.272727272727
190 5.545454545454546 ['1', '42', '48', '22'] 277.272727272727
191 5.545454545454546 ['1', '42', '48', '22'] 277.272727272727
192 5.545454545454546 ['1', '42', '48', '22'] 277.272727272727
193 5.545454545454546 ['1', '42', '48', '22'] 277.272727272727
194 5.545454545454546 ['1', '42', '48', '22'] 277.272727272727
195 5.545454545454546 ['1', '42', '48', '22'] 277.272727272727
196 5.545454545454546 ['1', '42', '48', '22'] 277.272727272727
197 5.545454545454546 ['1', '42', '48', '22'] 277.272727272727
198 5.545454545454546 ['1', '42', '48', '22'] 277.272727272727
199 5.545454545454546 ['1', '42', '48', '22'] 277.272727272727
