0 1.037037037037037 ['4', '1', '12'] 68.88888888888887
1 1.037037037037037 ['4', '1', '12'] 63.40740740740745
2 0.8888888888888888 ['3', '1', '4'] 60.44444444444446
3 0.8888888888888888 ['3', '1', '4'] 54.96296296296292
4 0.8888888888888888 ['3', '1', '4'] 49.62962962962966
5 0.8888888888888888 ['3', '1', '4'] 46.37037037037039
6 0.8888888888888888 ['3', '1', '4'] 44.44444444444441
7 0.8888888888888888 ['3', '1', '4'] 44.44444444444441
8 0.8888888888888888 ['3', '1', '4'] 44.44444444444441
9 0.8888888888888888 ['3', '1', '4'] 44.44444444444441
10 0.8888888888888888 ['3', '1', '4'] 44.44444444444441
11 0.8888888888888888 ['3', '1', '4'] 44.44444444444441
12 0.8888888888888888 ['3', '1', '4'] 44.44444444444441
13 0.8888888888888888 ['3', '1', '4'] 44.44444444444441
14 0.8888888888888888 ['3', '1', '4'] 44.44444444444441
15 0.8888888888888888 ['3', '1', '4'] 44.44444444444441
16 0.8888888888888888 ['3', '1', '4'] 44.44444444444441
17 0.8888888888888888 ['3', '1', '4'] 44.44444444444441
18 0.8888888888888888 ['3', '1', '4'] 44.44444444444441
19 0.8888888888888888 ['3', '1', '4'] 44.44444444444441
20 0.8888888888888888 ['3', '1', '4'] 44.44444444444441
21 0.8888888888888888 ['3', '1', '4'] 44.44444444444441
22 0.8888888888888888 ['3', '1', '4'] 44.44444444444441
23 0.8888888888888888 ['3', '1', '4'] 44.44444444444441
24 0.8888888888888888 ['3', '1', '4'] 44.44444444444441
25 0.8888888888888888 ['3', '1', '4'] 44.44444444444441
26 0.8888888888888888 ['3', '1', '4'] 44.44444444444441
27 0.8888888888888888 ['3', '1', '4'] 44.44444444444441
28 0.8888888888888888 ['3', '1', '4'] 44.44444444444441
29 0.8888888888888888 ['3', '1', '4'] 44.44444444444441
30 0.8888888888888888 ['3', '1', '4'] 44.44444444444441
31 0.8888888888888888 ['3', '1', '4'] 44.44444444444441
32 0.8888888888888888 ['3', '1', '4'] 44.44444444444441
33 0.8888888888888888 ['3', '1', '4'] 44.44444444444441
34 0.8888888888888888 ['3', '1', '4'] 44.44444444444441
35 0.8888888888888888 ['3', '1', '4'] 44.44444444444441
36 0.8888888888888888 ['3', '1', '4'] 44.44444444444441
37 0.8888888888888888 ['3', '1', '4'] 44.44444444444441
38 0.8888888888888888 ['3', '1', '4'] 44.44444444444441
39 0.8888888888888888 ['3', '1', '4'] 44.44444444444441
40 0.8888888888888888 ['3', '1', '4'] 44.44444444444441
41 0.8888888888888888 ['3', '1', '4'] 44.44444444444441
42 0.8888888888888888 ['3', '1', '4'] 44.44444444444441
43 0.8888888888888888 ['3', '1', '4'] 44.44444444444441
44 0.8888888888888888 ['3', '1', '4'] 44.44444444444441
45 0.8888888888888888 ['3', '1', '4'] 44.44444444444441
46 0.8888888888888888 ['3', '1', '4'] 44.44444444444441
47 0.8888888888888888 ['3', '1', '4'] 44.44444444444441
48 0.8888888888888888 ['3', '1', '4'] 44.44444444444441
49 0.8888888888888888 ['3', '1', '4'] 44.44444444444441
50 0.8888888888888888 ['3', '1', '4'] 44.44444444444441
51 0.8888888888888888 ['3', '1', '4'] 44.44444444444441
52 0.8888888888888888 ['3', '1', '4'] 44.44444444444441
53 0.8888888888888888 ['3', '1', '4'] 44.44444444444441
54 0.8888888888888888 ['3', '1', '4'] 44.44444444444441
55 0.8888888888888888 ['3', '1', '4'] 44.44444444444441
56 0.8888888888888888 ['3', '1', '4'] 44.44444444444441
57 0.8888888888888888 ['3', '1', '4'] 44.44444444444441
58 0.8888888888888888 ['3', '1', '4'] 44.44444444444441
59 0.8888888888888888 ['3', '1', '4'] 44.44444444444441
60 0.8888888888888888 ['3', '1', '4'] 44.44444444444441
61 0.8888888888888888 ['3', '1', '4'] 44.44444444444441
62 0.8888888888888888 ['3', '1', '4'] 44.44444444444441
63 0.8888888888888888 ['3', '1', '4'] 44.44444444444441
64 0.8888888888888888 ['3', '1', '4'] 44.44444444444441
65 0.8888888888888888 ['3', '1', '4'] 44.44444444444441
66 0.8888888888888888 ['3', '1', '4'] 44.44444444444441
67 0.8888888888888888 ['3', '1', '4'] 44.44444444444441
68 0.8888888888888888 ['3', '1', '4'] 44.44444444444441
69 0.8888888888888888 ['3', '1', '4'] 44.44444444444441
70 0.8888888888888888 ['3', '1', '4'] 44.44444444444441
71 0.8888888888888888 ['3', '1', '4'] 44.44444444444441
72 0.8888888888888888 ['3', '1', '4'] 44.44444444444441
73 0.8888888888888888 ['3', '1', '4'] 44.44444444444441
74 0.8888888888888888 ['3', '1', '4'] 44.44444444444441
75 0.8888888888888888 ['3', '1', '4'] 44.44444444444441
76 0.8888888888888888 ['3', '1', '4'] 44.44444444444441
77 0.8888888888888888 ['3', '1', '4'] 44.44444444444441
78 0.8888888888888888 ['3', '1', '4'] 44.44444444444441
79 0.8888888888888888 ['3', '1', '4'] 44.44444444444441
80 0.8888888888888888 ['3', '1', '4'] 44.44444444444441
81 0.8888888888888888 ['3', '1', '4'] 44.44444444444441
82 0.8888888888888888 ['3', '1', '4'] 44.44444444444441
83 0.8888888888888888 ['3', '1', '4'] 44.44444444444441
84 0.8888888888888888 ['3', '1', '4'] 44.44444444444441
85 0.8888888888888888 ['3', '1', '4'] 44.44444444444441
86 0.8888888888888888 ['3', '1', '4'] 44.44444444444441
87 0.8888888888888888 ['3', '1', '4'] 44.44444444444441
88 0.8888888888888888 ['3', '1', '4'] 44.44444444444441
89 0.8888888888888888 ['3', '1', '4'] 44.44444444444441
90 0.8888888888888888 ['3', '1', '4'] 44.44444444444441
91 0.8888888888888888 ['3', '1', '4'] 44.44444444444441
92 0.8888888888888888 ['3', '1', '4'] 44.44444444444441
93 0.8888888888888888 ['3', '1', '4'] 44.44444444444441
94 0.8888888888888888 ['3', '1', '4'] 44.44444444444441
95 0.8888888888888888 ['3', '1', '4'] 44.44444444444441
96 0.8888888888888888 ['3', '1', '4'] 44.44444444444441
97 0.8888888888888888 ['3', '1', '4'] 44.44444444444441
98 0.8888888888888888 ['3', '1', '4'] 44.44444444444441
99 0.8888888888888888 ['3', '1', '4'] 44.44444444444441
100 0.8888888888888888 ['3', '1', '4'] 44.44444444444441
101 0.8888888888888888 ['3', '1', '4'] 44.44444444444441
102 0.8888888888888888 ['3', '1', '4'] 44.44444444444441
103 0.8888888888888888 ['3', '1', '4'] 44.44444444444441
104 0.8888888888888888 ['3', '1', '4'] 44.44444444444441
105 0.8888888888888888 ['3', '1', '4'] 44.44444444444441
106 0.8888888888888888 ['3', '1', '4'] 44.44444444444441
107 0.8888888888888888 ['3', '1', '4'] 44.44444444444441
108 0.8888888888888888 ['3', '1', '4'] 44.44444444444441
109 0.8888888888888888 ['3', '1', '4'] 44.44444444444441
110 0.8888888888888888 ['3', '1', '4'] 44.44444444444441
111 0.8888888888888888 ['3', '1', '4'] 44.44444444444441
112 0.8888888888888888 ['3', '1', '4'] 44.44444444444441
113 0.8888888888888888 ['3', '1', '4'] 44.44444444444441
114 0.8888888888888888 ['3', '1', '4'] 44.44444444444441
115 0.8888888888888888 ['3', '1', '4'] 44.44444444444441
116 0.8888888888888888 ['3', '1', '4'] 44.44444444444441
117 0.8888888888888888 ['3', '1', '4'] 44.44444444444441
118 0.8888888888888888 ['3', '1', '4'] 44.44444444444441
119 0.8888888888888888 ['3', '1', '4'] 44.44444444444441
120 0.8888888888888888 ['3', '1', '4'] 44.44444444444441
121 0.8888888888888888 ['3', '1', '4'] 44.44444444444441
122 0.8888888888888888 ['3', '1', '4'] 44.44444444444441
123 0.8888888888888888 ['3', '1', '4'] 44.44444444444441
124 0.8888888888888888 ['3', '1', '4'] 44.44444444444441
125 0.8888888888888888 ['3', '1', '4'] 44.44444444444441
126 0.8888888888888888 ['3', '1', '4'] 44.44444444444441
127 0.8888888888888888 ['3', '1', '4'] 44.44444444444441
128 0.8888888888888888 ['3', '1', '4'] 44.44444444444441
129 0.8888888888888888 ['3', '1', '4'] 44.44444444444441
130 0.8888888888888888 ['3', '1', '4'] 44.44444444444441
131 0.8888888888888888 ['3', '1', '4'] 44.44444444444441
132 0.8888888888888888 ['3', '1', '4'] 44.44444444444441
133 0.8888888888888888 ['3', '1', '4'] 44.44444444444441
134 0.8888888888888888 ['3', '1', '4'] 44.44444444444441
135 0.8888888888888888 ['3', '1', '4'] 44.44444444444441
136 0.8888888888888888 ['3', '1', '4'] 44.44444444444441
137 0.8888888888888888 ['3', '1', '4'] 44.44444444444441
138 0.8888888888888888 ['3', '1', '4'] 44.44444444444441
139 0.8888888888888888 ['3', '1', '4'] 44.44444444444441
140 0.8888888888888888 ['3', '1', '4'] 44.44444444444441
141 0.8888888888888888 ['3', '1', '4'] 44.44444444444441
142 0.8888888888888888 ['3', '1', '4'] 44.44444444444441
143 0.8888888888888888 ['3', '1', '4'] 44.44444444444441
144 0.8888888888888888 ['3', '1', '4'] 44.44444444444441
145 0.8888888888888888 ['3', '1', '4'] 44.44444444444441
146 0.8888888888888888 ['3', '1', '4'] 44.44444444444441
147 0.8888888888888888 ['3', '1', '4'] 44.44444444444441
148 0.8888888888888888 ['3', '1', '4'] 44.44444444444441
149 0.8888888888888888 ['3', '1', '4'] 44.44444444444441
150 0.8888888888888888 ['3', '1', '4'] 44.44444444444441
151 0.8888888888888888 ['3', '1', '4'] 44.44444444444441
152 0.8888888888888888 ['3', '1', '4'] 44.44444444444441
153 0.8888888888888888 ['3', '1', '4'] 44.44444444444441
154 0.8888888888888888 ['3', '1', '4'] 44.44444444444441
155 0.8888888888888888 ['3', '1', '4'] 44.44444444444441
156 0.8888888888888888 ['3', '1', '4'] 44.44444444444441
157 0.8888888888888888 ['3', '1', '4'] 44.44444444444441
158 0.8888888888888888 ['3', '1', '4'] 44.44444444444441
159 0.8888888888888888 ['3', '1', '4'] 44.44444444444441
160 0.8888888888888888 ['3', '1', '4'] 44.44444444444441
161 0.8888888888888888 ['3', '1', '4'] 44.44444444444441
162 0.8888888888888888 ['3', '1', '4'] 44.44444444444441
163 0.8888888888888888 ['3', '1', '4'] 44.44444444444441
164 0.8888888888888888 ['3', '1', '4'] 44.44444444444441
165 0.8888888888888888 ['3', '1', '4'] 44.44444444444441
166 0.8888888888888888 ['3', '1', '4'] 44.44444444444441
167 0.8888888888888888 ['3', '1', '4'] 44.44444444444441
168 0.8888888888888888 ['3', '1', '4'] 44.44444444444441
169 0.8888888888888888 ['3', '1', '4'] 44.44444444444441
170 0.8888888888888888 ['3', '1', '4'] 44.44444444444441
171 0.8888888888888888 ['3', '1', '4'] 44.44444444444441
172 0.8888888888888888 ['3', '1', '4'] 44.44444444444441
173 0.8888888888888888 ['3', '1', '4'] 44.44444444444441
174 0.8888888888888888 ['3', '1', '4'] 44.44444444444441
175 0.8888888888888888 ['3', '1', '4'] 44.44444444444441
176 0.8888888888888888 ['3', '1', '4'] 44.44444444444441
177 0.8888888888888888 ['3', '1', '4'] 44.44444444444441
178 0.8888888888888888 ['3', '1', '4'] 44.44444444444441
179 0.8888888888888888 ['3', '1', '4'] 44.44444444444441
180 0.8888888888888888 ['3', '1', '4'] 44.44444444444441
181 0.8888888888888888 ['3', '1', '4'] 44.44444444444441
182 0.8888888888888888 ['3', '1', '4'] 44.44444444444441
183 0.8888888888888888 ['3', '1', '4'] 44.44444444444441
184 0.8888888888888888 ['3', '1', '4'] 44.44444444444441
185 0.8888888888888888 ['3', '1', '4'] 44.44444444444441
186 0.8888888888888888 ['3', '1', '4'] 44.44444444444441
187 0.8888888888888888 ['3', '1', '4'] 44.44444444444441
188 0.8888888888888888 ['3', '1', '4'] 44.44444444444441
189 0.8888888888888888 ['3', '1', '4'] 44.44444444444441
190 0.8888888888888888 ['3', '1', '4'] 44.44444444444441
191 0.8888888888888888 ['3', '1', '4'] 44.44444444444441
192 0.8888888888888888 ['3', '1', '4'] 44.44444444444441
193 0.8888888888888888 ['3', '1', '4'] 44.44444444444441
194 0.8888888888888888 ['3', '1', '4'] 44.44444444444441
195 0.8888888888888888 ['3', '1', '4'] 44.44444444444441
196 0.8888888888888888 ['3', '1', '4'] 44.44444444444441
197 0.8888888888888888 ['3', '1', '4'] 44.44444444444441
198 0.8888888888888888 ['3', '1', '4'] 44.44444444444441
199 0.8888888888888888 ['3', '1', '4'] 44.44444444444441
