0 25.022727272727273 ['46', '38', '1', '42'] 1303.1136363636367
1 24.545454545454547 ['1', '5', '16', '29'] 1278.954545454545
2 24.204545454545453 ['29', '1', '32', '5'] 1259.0000000000002
3 24.204545454545453 ['29', '1', '32', '5'] 1240.2499999999993
4 24.0 ['1', '5', '46', '32'] 1226.3863636363635
5 23.886363636363637 ['1', '32', '5', '22'] 1214.636363636364
6 23.795454545454547 ['1', '5', '22', '46'] 1205.772727272727
7 23.795454545454547 ['1', '5', '22', '46'] 1198.5681818181815
8 23.795454545454547 ['1', '5', '22', '46'] 1194.2045454545455
9 23.795454545454547 ['1', '5', '22', '46'] 1192.7045454545462
10 23.795454545454547 ['1', '5', '22', '46'] 1190.9318181818173
11 23.795454545454547 ['1', '5', '22', '46'] 1189.7727272727263
12 23.795454545454547 ['1', '5', '22', '46'] 1189.7727272727263
13 23.795454545454547 ['1', '5', '22', '46'] 1189.7727272727263
14 23.795454545454547 ['1', '5', '22', '46'] 1189.7727272727263
15 23.795454545454547 ['1', '5', '22', '46'] 1189.7727272727263
16 23.795454545454547 ['1', '5', '22', '46'] 1189.7727272727263
17 23.795454545454547 ['1', '5', '22', '46'] 1189.7727272727263
18 23.795454545454547 ['1', '5', '22', '46'] 1189.7727272727263
19 23.795454545454547 ['1', '5', '22', '46'] 1189.7727272727263
20 23.795454545454547 ['1', '5', '22', '46'] 1189.7727272727263
21 23.795454545454547 ['1', '5', '22', '46'] 1189.7727272727263
22 23.795454545454547 ['1', '5', '22', '46'] 1189.7727272727263
23 23.795454545454547 ['1', '5', '22', '46'] 1189.7727272727263
24 23.795454545454547 ['1', '5', '22', '46'] 1189.7727272727263
25 23.795454545454547 ['1', '5', '22', '46'] 1189.7727272727263
26 23.795454545454547 ['1', '5', '22', '46'] 1189.7727272727263
27 23.795454545454547 ['1', '5', '22', '46'] 1189.7727272727263
28 23.795454545454547 ['1', '5', '22', '46'] 1189.7727272727263
29 23.795454545454547 ['1', '5', '22', '46'] 1189.7727272727263
30 23.795454545454547 ['1', '5', '22', '46'] 1189.7727272727263
31 23.795454545454547 ['1', '5', '22', '46'] 1189.7727272727263
32 23.795454545454547 ['1', '5', '22', '46'] 1189.7727272727263
33 23.795454545454547 ['1', '5', '22', '46'] 1189.7727272727263
34 23.795454545454547 ['1', '5', '22', '46'] 1189.7727272727263
35 23.795454545454547 ['1', '5', '22', '46'] 1189.7727272727263
36 23.795454545454547 ['1', '5', '22', '46'] 1189.7727272727263
37 23.795454545454547 ['1', '5', '22', '46'] 1189.7727272727263
38 23.795454545454547 ['1', '5', '22', '46'] 1189.7727272727263
39 23.795454545454547 ['1', '5', '22', '46'] 1189.7727272727263
40 23.795454545454547 ['1', '5', '22', '46'] 1189.7727272727263
41 23.795454545454547 ['1', '5', '22', '46'] 1189.7727272727263
42 23.795454545454547 ['1', '5', '22', '46'] 1189.7727272727263
43 23.795454545454547 ['1', '5', '22', '46'] 1189.7727272727263
44 23.795454545454547 ['1', '5', '22', '46'] 1189.7727272727263
45 23.795454545454547 ['1', '5', '22', '46'] 1189.7727272727263
46 23.795454545454547 ['1', '5', '22', '46'] 1189.7727272727263
47 23.795454545454547 ['1', '5', '22', '46'] 1189.7727272727263
48 23.795454545454547 ['1', '5', '22', '46'] 1189.7727272727263
49 23.795454545454547 ['1', '5', '22', '46'] 1189.7727272727263
50 23.795454545454547 ['1', '5', '22', '46'] 1189.7727272727263
51 23.795454545454547 ['1', '5', '22', '46'] 1189.7727272727263
52 23.795454545454547 ['1', '5', '22', '46'] 1189.7727272727263
53 23.795454545454547 ['1', '5', '22', '46'] 1189.7727272727263
54 23.795454545454547 ['1', '5', '22', '46'] 1189.7727272727263
55 23.795454545454547 ['1', '5', '22', '46'] 1189.7727272727263
56 23.795454545454547 ['1', '5', '22', '46'] 1189.7727272727263
57 23.795454545454547 ['1', '5', '22', '46'] 1189.7727272727263
58 23.795454545454547 ['1', '5', '22', '46'] 1189.7727272727263
59 23.795454545454547 ['1', '5', '22', '46'] 1189.7727272727263
60 23.795454545454547 ['1', '5', '22', '46'] 1189.7727272727263
61 23.795454545454547 ['1', '5', '22', '46'] 1189.7727272727263
62 23.795454545454547 ['1', '5', '22', '46'] 1189.7727272727263
63 23.795454545454547 ['1', '5', '22', '46'] 1189.7727272727263
64 23.795454545454547 ['1', '5', '22', '46'] 1189.7727272727263
65 23.795454545454547 ['1', '5', '22', '46'] 1189.7727272727263
66 23.795454545454547 ['1', '5', '22', '46'] 1189.7727272727263
67 23.795454545454547 ['1', '5', '22', '46'] 1189.7727272727263
68 23.795454545454547 ['1', '5', '22', '46'] 1189.7727272727263
69 23.795454545454547 ['1', '5', '22', '46'] 1189.7727272727263
70 23.795454545454547 ['1', '5', '22', '46'] 1189.7727272727263
71 23.795454545454547 ['1', '5', '22', '46'] 1189.7727272727263
72 23.795454545454547 ['1', '5', '22', '46'] 1189.7727272727263
73 23.795454545454547 ['1', '5', '22', '46'] 1189.7727272727263
74 23.795454545454547 ['1', '5', '22', '46'] 1189.7727272727263
75 23.795454545454547 ['1', '5', '22', '46'] 1189.7727272727263
76 23.795454545454547 ['1', '5', '22', '46'] 1189.7727272727263
77 23.795454545454547 ['1', '5', '22', '46'] 1189.7727272727263
78 23.795454545454547 ['1', '5', '22', '46'] 1189.7727272727263
79 23.795454545454547 ['1', '5', '22', '46'] 1189.7727272727263
80 23.795454545454547 ['1', '5', '22', '46'] 1189.7727272727263
81 23.795454545454547 ['1', '5', '22', '46'] 1189.7727272727263
82 23.795454545454547 ['1', '5', '22', '46'] 1189.7727272727263
83 23.795454545454547 ['1', '5', '22', '46'] 1189.7727272727263
84 23.795454545454547 ['1', '5', '22', '46'] 1189.7727272727263
85 23.795454545454547 ['1', '5', '22', '46'] 1189.7727272727263
86 23.795454545454547 ['1', '5', '22', '46'] 1189.7727272727263
87 23.795454545454547 ['1', '5', '22', '46'] 1189.7727272727263
88 23.795454545454547 ['1', '5', '22', '46'] 1189.7727272727263
89 23.795454545454547 ['1', '5', '22', '46'] 1189.7727272727263
90 23.795454545454547 ['1', '5', '22', '46'] 1189.7727272727263
91 23.795454545454547 ['1', '5', '22', '46'] 1189.7727272727263
92 23.795454545454547 ['1', '5', '22', '46'] 1189.7727272727263
93 23.795454545454547 ['1', '5', '22', '46'] 1189.7727272727263
94 23.795454545454547 ['1', '5', '22', '46'] 1189.7727272727263
95 23.795454545454547 ['1', '5', '22', '46'] 1189.7727272727263
96 23.795454545454547 ['1', '5', '22', '46'] 1189.7727272727263
97 23.795454545454547 ['1', '5', '22', '46'] 1189.7727272727263
98 23.795454545454547 ['1', '5', '22', '46'] 1189.7727272727263
99 23.795454545454547 ['1', '5', '22', '46'] 1189.7727272727263
100 23.795454545454547 ['1', '5', '22', '46'] 1189.7727272727263
101 23.795454545454547 ['1', '5', '22', '46'] 1189.7727272727263
102 23.795454545454547 ['1', '5', '22', '46'] 1189.7727272727263
103 23.795454545454547 ['1', '5', '22', '46'] 1189.7727272727263
104 23.795454545454547 ['1', '5', '22', '46'] 1189.7727272727263
105 23.795454545454547 ['1', '5', '22', '46'] 1189.7727272727263
106 23.795454545454547 ['1', '5', '22', '46'] 1189.7727272727263
107 23.795454545454547 ['1', '5', '22', '46'] 1189.7727272727263
108 23.795454545454547 ['1', '5', '22', '46'] 1189.7727272727263
109 23.795454545454547 ['1', '5', '22', '46'] 1189.7727272727263
110 23.795454545454547 ['1', '5', '22', '46'] 1189.7727272727263
111 23.795454545454547 ['1', '5', '22', '46'] 1189.7727272727263
112 23.795454545454547 ['1', '5', '22', '46'] 1189.7727272727263
113 23.795454545454547 ['1', '5', '22', '46'] 1189.7727272727263
114 23.795454545454547 ['1', '5', '22', '46'] 1189.7727272727263
115 23.795454545454547 ['1', '5', '22', '46'] 1189.7727272727263
116 23.795454545454547 ['1', '5', '22', '46'] 1189.7727272727263
117 23.795454545454547 ['1', '5', '22', '46'] 1189.7727272727263
118 23.795454545454547 ['1', '5', '22', '46'] 1189.7727272727263
119 23.795454545454547 ['1', '5', '22', '46'] 1189.7727272727263
120 23.795454545454547 ['1', '5', '22', '46'] 1189.7727272727263
121 23.795454545454547 ['1', '5', '22', '46'] 1189.7727272727263
122 23.795454545454547 ['1', '5', '22', '46'] 1189.7727272727263
123 23.795454545454547 ['1', '5', '22', '46'] 1189.7727272727263
124 23.795454545454547 ['1', '5', '22', '46'] 1189.7727272727263
125 23.795454545454547 ['1', '5', '22', '46'] 1189.7727272727263
126 23.795454545454547 ['1', '5', '22', '46'] 1189.7727272727263
127 23.795454545454547 ['1', '5', '22', '46'] 1189.7727272727263
128 23.795454545454547 ['1', '5', '22', '46'] 1189.7727272727263
129 23.795454545454547 ['1', '5', '22', '46'] 1189.7727272727263
130 23.795454545454547 ['1', '5', '22', '46'] 1189.7727272727263
131 23.795454545454547 ['1', '5', '22', '46'] 1189.7727272727263
132 23.795454545454547 ['1', '5', '22', '46'] 1189.7727272727263
133 23.795454545454547 ['1', '5', '22', '46'] 1189.7727272727263
134 23.795454545454547 ['1', '5', '22', '46'] 1189.7727272727263
135 23.795454545454547 ['1', '5', '22', '46'] 1189.7727272727263
136 23.795454545454547 ['1', '5', '22', '46'] 1189.7727272727263
137 23.795454545454547 ['1', '5', '22', '46'] 1189.7727272727263
138 23.795454545454547 ['1', '5', '22', '46'] 1189.7727272727263
139 23.795454545454547 ['1', '5', '22', '46'] 1189.7727272727263
140 23.795454545454547 ['1', '5', '22', '46'] 1189.7727272727263
141 23.795454545454547 ['1', '5', '22', '46'] 1189.7727272727263
142 23.795454545454547 ['1', '5', '22', '46'] 1189.7727272727263
143 23.795454545454547 ['1', '5', '22', '46'] 1189.7727272727263
144 23.795454545454547 ['1', '5', '22', '46'] 1189.7727272727263
145 23.795454545454547 ['1', '5', '22', '46'] 1189.7727272727263
146 23.795454545454547 ['1', '5', '22', '46'] 1189.7727272727263
147 23.795454545454547 ['1', '5', '22', '46'] 1189.7727272727263
148 23.795454545454547 ['1', '5', '22', '46'] 1189.7727272727263
149 23.795454545454547 ['1', '5', '22', '46'] 1189.7727272727263
150 23.795454545454547 ['1', '5', '22', '46'] 1189.7727272727263
151 23.795454545454547 ['1', '5', '22', '46'] 1189.7727272727263
152 23.795454545454547 ['1', '5', '22', '46'] 1189.7727272727263
153 23.795454545454547 ['1', '5', '22', '46'] 1189.7727272727263
154 23.795454545454547 ['1', '5', '22', '46'] 1189.7727272727263
155 23.795454545454547 ['1', '5', '22', '46'] 1189.7727272727263
156 23.795454545454547 ['1', '5', '22', '46'] 1189.7727272727263
157 23.795454545454547 ['1', '5', '22', '46'] 1189.7727272727263
158 23.795454545454547 ['1', '5', '22', '46'] 1189.7727272727263
159 23.795454545454547 ['1', '5', '22', '46'] 1189.7727272727263
160 23.795454545454547 ['1', '5', '22', '46'] 1189.7727272727263
161 23.795454545454547 ['1', '5', '22', '46'] 1189.7727272727263
162 23.795454545454547 ['1', '5', '22', '46'] 1189.7727272727263
163 23.795454545454547 ['1', '5', '22', '46'] 1189.7727272727263
164 23.795454545454547 ['1', '5', '22', '46'] 1189.7727272727263
165 23.795454545454547 ['1', '5', '22', '46'] 1189.7727272727263
166 23.795454545454547 ['1', '5', '22', '46'] 1189.7727272727263
167 23.795454545454547 ['1', '5', '22', '46'] 1189.7727272727263
168 23.795454545454547 ['1', '5', '22', '46'] 1189.7727272727263
169 23.795454545454547 ['1', '5', '22', '46'] 1189.7727272727263
170 23.795454545454547 ['1', '5', '22', '46'] 1189.7727272727263
171 23.795454545454547 ['1', '5', '22', '46'] 1189.7727272727263
172 23.795454545454547 ['1', '5', '22', '46'] 1189.7727272727263
173 23.795454545454547 ['1', '5', '22', '46'] 1189.7727272727263
174 23.795454545454547 ['1', '5', '22', '46'] 1189.7727272727263
175 23.795454545454547 ['1', '5', '22', '46'] 1189.7727272727263
176 23.795454545454547 ['1', '5', '22', '46'] 1189.7727272727263
177 23.795454545454547 ['1', '5', '22', '46'] 1189.7727272727263
178 23.795454545454547 ['1', '5', '22', '46'] 1189.7727272727263
179 23.795454545454547 ['1', '5', '22', '46'] 1189.7727272727263
180 23.795454545454547 ['1', '5', '22', '46'] 1189.7727272727263
181 23.795454545454547 ['1', '5', '22', '46'] 1189.7727272727263
182 23.795454545454547 ['1', '5', '22', '46'] 1189.7727272727263
183 23.795454545454547 ['1', '5', '22', '46'] 1189.7727272727263
184 23.795454545454547 ['1', '5', '22', '46'] 1189.7727272727263
185 23.795454545454547 ['1', '5', '22', '46'] 1189.7727272727263
186 23.795454545454547 ['1', '5', '22', '46'] 1189.7727272727263
187 23.795454545454547 ['1', '5', '22', '46'] 1189.7727272727263
188 23.795454545454547 ['1', '5', '22', '46'] 1189.7727272727263
189 23.795454545454547 ['1', '5', '22', '46'] 1189.7727272727263
190 23.795454545454547 ['1', '5', '22', '46'] 1189.7727272727263
191 23.795454545454547 ['1', '5', '22', '46'] 1189.7727272727263
192 23.795454545454547 ['1', '5', '22', '46'] 1189.7727272727263
193 23.795454545454547 ['1', '5', '22', '46'] 1189.7727272727263
194 23.795454545454547 ['1', '5', '22', '46'] 1189.7727272727263
195 23.795454545454547 ['1', '5', '22', '46'] 1189.7727272727263
196 23.795454545454547 ['1', '5', '22', '46'] 1189.7727272727263
197 23.795454545454547 ['1', '5', '22', '46'] 1189.7727272727263
198 23.795454545454547 ['1', '5', '22', '46'] 1189.7727272727263
199 23.795454545454547 ['1', '5', '22', '46'] 1189.7727272727263
