0 5.3790123456790155 ['70', '118', '92', '76', '59', '127', '19', '34', '140', '11', '147', '80', '148', '16', '95'] 273.8280246913581
1 5.3790123456790155 ['70', '118', '92', '76', '59', '127', '19', '34', '140', '11', '147', '80', '148', '16', '95'] 272.3755555555556
2 5.358888888888889 ['147', '76', '125', '59', '118', '92', '131', '117', '148', '127', '16', '77', '140', '60', '34'] 271.37938271604946
3 5.350864197530865 ['118', '77', '147', '127', '117', '133', '56', '131', '111', '148', '94', '121', '125', '136', '76'] 270.45975308641977
4 5.331851851851851 ['127', '131', '117', '147', '47', '148', '143', '141', '56', '76', '114', '118', '52', '73', '133'] 269.75592592592596
5 5.320246913580247 ['133', '127', '141', '47', '147', '56', '143', '73', '98', '111', '140', '139', '131', '11', '52'] 269.0086419753087
6 5.285555555555556 ['117', '147', '76', '127', '131', '148', '118', '141', '73', '136', '52', '133', '16', '140', '60'] 267.9940740740741
7 5.263456790123457 ['140', '19', '127', '76', '70', '16', '88', '147', '118', '11', '34', '150', '106', '92', '117'] 266.94999999999993
8 5.207407407407407 ['117', '127', '141', '147', '131', '148', '118', '52', '114', '73', '133', '16', '136', '109', '140'] 265.85370370370373
9 5.207407407407407 ['117', '127', '141', '147', '131', '148', '118', '52', '114', '73', '133', '16', '136', '109', '140'] 264.9504938271605
10 5.207407407407407 ['117', '127', '141', '147', '131', '148', '118', '52', '114', '73', '133', '16', '136', '109', '140'] 264.04827160493835
11 5.186172839506174 ['141', '118', '114', '80', '147', '127', '136', '143', '148', '109', '150', '131', '133', '140', '48'] 263.0716049382716
12 5.174691358024691 ['147', '140', '133', '127', '141', '148', '131', '136', '52', '48', '89', '98', '80', '117', '109'] 261.9583950617285
13 5.155185185185186 ['148', '127', '136', '16', '140', '114', '109', '73', '133', '141', '131', '118', '48', '147', '139'] 261.10407407407405
14 5.155185185185186 ['148', '127', '136', '16', '140', '114', '109', '73', '133', '141', '131', '118', '48', '147', '139'] 260.2134567901235
15 5.143827160493829 ['140', '133', '109', '117', '148', '48', '131', '141', '127', '147', '98', '80', '73', '19', '118'] 259.14753086419756
16 5.1080246913580245 ['127', '131', '141', '148', '48', '140', '133', '147', '136', '117', '109', '94', '118', '110', '98'] 258.1392592592592
17 5.098765432098766 ['48', '118', '148', '131', '127', '147', '109', '117', '136', '133', '141', '98', '80', '140', '139'] 257.503950617284
18 5.098765432098766 ['48', '118', '148', '131', '127', '147', '109', '117', '136', '133', '141', '98', '80', '140', '139'] 256.83160493827165
19 5.098148148148147 ['148', '136', '127', '48', '141', '147', '133', '98', '140', '131', '109', '118', '117', '139', '110'] 256.17827160493823
20 5.082098765432098 ['127', '148', '48', '117', '133', '109', '141', '136', '118', '140', '98', '147', '131', '89', '110'] 255.37358024691366
21 5.082098765432098 ['127', '148', '48', '117', '133', '109', '141', '136', '118', '140', '98', '147', '131', '89', '110'] 254.9669135802467
22 5.082098765432098 ['127', '148', '48', '117', '133', '109', '141', '136', '118', '140', '98', '147', '131', '89', '110'] 254.86864197530844
23 5.070000000000002 ['118', '133', '131', '98', '140', '48', '117', '148', '136', '109', '127', '147', '110', '89', '80'] 254.72975308641958
24 5.070000000000002 ['118', '133', '131', '98', '140', '48', '117', '148', '136', '109', '127', '147', '110', '89', '80'] 254.56382716049396
25 5.070000000000002 ['118', '133', '131', '98', '140', '48', '117', '148', '136', '109', '127', '147', '110', '89', '80'] 254.3609876543212
26 5.070000000000002 ['118', '133', '131', '98', '140', '48', '117', '148', '136', '109', '127', '147', '110', '89', '80'] 254.1277777777778
27 5.070000000000002 ['118', '133', '131', '98', '140', '48', '117', '148', '136', '109', '127', '147', '110', '89', '80'] 254.03049382716065
28 5.070000000000002 ['118', '133', '131', '98', '140', '48', '117', '148', '136', '109', '127', '147', '110', '89', '80'] 253.9650617283952
29 5.070000000000002 ['118', '133', '131', '98', '140', '48', '117', '148', '136', '109', '127', '147', '110', '89', '80'] 253.8530864197533
30 5.070000000000002 ['118', '133', '131', '98', '140', '48', '117', '148', '136', '109', '127', '147', '110', '89', '80'] 253.72962962962987
31 5.070000000000002 ['118', '133', '131', '98', '140', '48', '117', '148', '136', '109', '127', '147', '110', '89', '80'] 253.49999999999994
32 5.070000000000002 ['118', '133', '131', '98', '140', '48', '117', '148', '136', '109', '127', '147', '110', '89', '80'] 253.49999999999994
33 5.070000000000002 ['118', '133', '131', '98', '140', '48', '117', '148', '136', '109', '127', '147', '110', '89', '80'] 253.49999999999994
34 5.070000000000002 ['118', '133', '131', '98', '140', '48', '117', '148', '136', '109', '127', '147', '110', '89', '80'] 253.49999999999994
35 5.070000000000002 ['118', '133', '131', '98', '140', '48', '117', '148', '136', '109', '127', '147', '110', '89', '80'] 253.49999999999994
36 5.070000000000002 ['118', '133', '131', '98', '140', '48', '117', '148', '136', '109', '127', '147', '110', '89', '80'] 253.49999999999994
37 5.070000000000002 ['118', '133', '131', '98', '140', '48', '117', '148', '136', '109', '127', '147', '110', '89', '80'] 253.49999999999994
38 5.070000000000002 ['118', '133', '131', '98', '140', '48', '117', '148', '136', '109', '127', '147', '110', '89', '80'] 253.49999999999994
39 5.070000000000002 ['118', '133', '131', '98', '140', '48', '117', '148', '136', '109', '127', '147', '110', '89', '80'] 253.49999999999994
40 5.070000000000002 ['118', '133', '131', '98', '140', '48', '117', '148', '136', '109', '127', '147', '110', '89', '80'] 253.49999999999994
41 5.070000000000002 ['118', '133', '131', '98', '140', '48', '117', '148', '136', '109', '127', '147', '110', '89', '80'] 253.49999999999994
42 5.070000000000002 ['118', '133', '131', '98', '140', '48', '117', '148', '136', '109', '127', '147', '110', '89', '80'] 253.49999999999994
43 5.070000000000002 ['118', '133', '131', '98', '140', '48', '117', '148', '136', '109', '127', '147', '110', '89', '80'] 253.49999999999994
44 5.070000000000002 ['118', '133', '131', '98', '140', '48', '117', '148', '136', '109', '127', '147', '110', '89', '80'] 253.49999999999994
45 5.070000000000002 ['118', '133', '131', '98', '140', '48', '117', '148', '136', '109', '127', '147', '110', '89', '80'] 253.49999999999994
46 5.070000000000002 ['118', '133', '131', '98', '140', '48', '117', '148', '136', '109', '127', '147', '110', '89', '80'] 253.49999999999994
47 5.070000000000002 ['118', '133', '131', '98', '140', '48', '117', '148', '136', '109', '127', '147', '110', '89', '80'] 253.49999999999994
48 5.070000000000002 ['118', '133', '131', '98', '140', '48', '117', '148', '136', '109', '127', '147', '110', '89', '80'] 253.49999999999994
49 5.070000000000002 ['118', '133', '131', '98', '140', '48', '117', '148', '136', '109', '127', '147', '110', '89', '80'] 253.49999999999994
50 5.070000000000002 ['118', '133', '131', '98', '140', '48', '117', '148', '136', '109', '127', '147', '110', '89', '80'] 253.49999999999994
51 5.070000000000002 ['118', '133', '131', '98', '140', '48', '117', '148', '136', '109', '127', '147', '110', '89', '80'] 253.49999999999994
52 5.070000000000002 ['118', '133', '131', '98', '140', '48', '117', '148', '136', '109', '127', '147', '110', '89', '80'] 253.49999999999994
53 5.070000000000002 ['118', '133', '131', '98', '140', '48', '117', '148', '136', '109', '127', '147', '110', '89', '80'] 253.49999999999994
54 5.070000000000002 ['118', '133', '131', '98', '140', '48', '117', '148', '136', '109', '127', '147', '110', '89', '80'] 253.49999999999994
55 5.070000000000002 ['118', '133', '131', '98', '140', '48', '117', '148', '136', '109', '127', '147', '110', '89', '80'] 253.49999999999994
56 5.070000000000002 ['118', '133', '131', '98', '140', '48', '117', '148', '136', '109', '127', '147', '110', '89', '80'] 253.49999999999994
57 5.070000000000002 ['118', '133', '131', '98', '140', '48', '117', '148', '136', '109', '127', '147', '110', '89', '80'] 253.49999999999994
58 5.070000000000002 ['118', '133', '131', '98', '140', '48', '117', '148', '136', '109', '127', '147', '110', '89', '80'] 253.49999999999994
59 5.070000000000002 ['118', '133', '131', '98', '140', '48', '117', '148', '136', '109', '127', '147', '110', '89', '80'] 253.49999999999994
60 5.070000000000002 ['118', '133', '131', '98', '140', '48', '117', '148', '136', '109', '127', '147', '110', '89', '80'] 253.49999999999994
61 5.070000000000002 ['118', '133', '131', '98', '140', '48', '117', '148', '136', '109', '127', '147', '110', '89', '80'] 253.49999999999994
62 5.070000000000002 ['118', '133', '131', '98', '140', '48', '117', '148', '136', '109', '127', '147', '110', '89', '80'] 253.49999999999994
63 5.070000000000002 ['118', '133', '131', '98', '140', '48', '117', '148', '136', '109', '127', '147', '110', '89', '80'] 253.49999999999994
64 5.070000000000002 ['118', '133', '131', '98', '140', '48', '117', '148', '136', '109', '127', '147', '110', '89', '80'] 253.49999999999994
65 5.070000000000002 ['118', '133', '131', '98', '140', '48', '117', '148', '136', '109', '127', '147', '110', '89', '80'] 253.49999999999994
66 5.070000000000002 ['118', '133', '131', '98', '140', '48', '117', '148', '136', '109', '127', '147', '110', '89', '80'] 253.49999999999994
67 5.070000000000002 ['118', '133', '131', '98', '140', '48', '117', '148', '136', '109', '127', '147', '110', '89', '80'] 253.49999999999994
68 5.070000000000002 ['118', '133', '131', '98', '140', '48', '117', '148', '136', '109', '127', '147', '110', '89', '80'] 253.49999999999994
69 5.070000000000002 ['118', '133', '131', '98', '140', '48', '117', '148', '136', '109', '127', '147', '110', '89', '80'] 253.49999999999994
70 5.070000000000002 ['118', '133', '131', '98', '140', '48', '117', '148', '136', '109', '127', '147', '110', '89', '80'] 253.49999999999994
71 5.070000000000002 ['118', '133', '131', '98', '140', '48', '117', '148', '136', '109', '127', '147', '110', '89', '80'] 253.49999999999994
72 5.070000000000002 ['118', '133', '131', '98', '140', '48', '117', '148', '136', '109', '127', '147', '110', '89', '80'] 253.49999999999994
73 5.070000000000002 ['118', '133', '131', '98', '140', '48', '117', '148', '136', '109', '127', '147', '110', '89', '80'] 253.49999999999994
74 5.070000000000002 ['118', '133', '131', '98', '140', '48', '117', '148', '136', '109', '127', '147', '110', '89', '80'] 253.49999999999994
75 5.070000000000002 ['118', '133', '131', '98', '140', '48', '117', '148', '136', '109', '127', '147', '110', '89', '80'] 253.49999999999994
76 5.070000000000002 ['118', '133', '131', '98', '140', '48', '117', '148', '136', '109', '127', '147', '110', '89', '80'] 253.49999999999994
77 5.070000000000002 ['118', '133', '131', '98', '140', '48', '117', '148', '136', '109', '127', '147', '110', '89', '80'] 253.49999999999994
78 5.070000000000002 ['118', '133', '131', '98', '140', '48', '117', '148', '136', '109', '127', '147', '110', '89', '80'] 253.49999999999994
79 5.070000000000002 ['118', '133', '131', '98', '140', '48', '117', '148', '136', '109', '127', '147', '110', '89', '80'] 253.49999999999994
80 5.070000000000002 ['118', '133', '131', '98', '140', '48', '117', '148', '136', '109', '127', '147', '110', '89', '80'] 253.49999999999994
81 5.070000000000002 ['118', '133', '131', '98', '140', '48', '117', '148', '136', '109', '127', '147', '110', '89', '80'] 253.49999999999994
82 5.070000000000002 ['118', '133', '131', '98', '140', '48', '117', '148', '136', '109', '127', '147', '110', '89', '80'] 253.49999999999994
83 5.070000000000002 ['118', '133', '131', '98', '140', '48', '117', '148', '136', '109', '127', '147', '110', '89', '80'] 253.49999999999994
84 5.070000000000002 ['118', '133', '131', '98', '140', '48', '117', '148', '136', '109', '127', '147', '110', '89', '80'] 253.49999999999994
85 5.070000000000002 ['118', '133', '131', '98', '140', '48', '117', '148', '136', '109', '127', '147', '110', '89', '80'] 253.49999999999994
86 5.070000000000002 ['118', '133', '131', '98', '140', '48', '117', '148', '136', '109', '127', '147', '110', '89', '80'] 253.49999999999994
87 5.070000000000002 ['118', '133', '131', '98', '140', '48', '117', '148', '136', '109', '127', '147', '110', '89', '80'] 253.49999999999994
88 5.070000000000002 ['118', '133', '131', '98', '140', '48', '117', '148', '136', '109', '127', '147', '110', '89', '80'] 253.49999999999994
89 5.070000000000002 ['118', '133', '131', '98', '140', '48', '117', '148', '136', '109', '127', '147', '110', '89', '80'] 253.49999999999994
90 5.070000000000002 ['118', '133', '131', '98', '140', '48', '117', '148', '136', '109', '127', '147', '110', '89', '80'] 253.49999999999994
91 5.070000000000002 ['118', '133', '131', '98', '140', '48', '117', '148', '136', '109', '127', '147', '110', '89', '80'] 253.49999999999994
92 5.070000000000002 ['118', '133', '131', '98', '140', '48', '117', '148', '136', '109', '127', '147', '110', '89', '80'] 253.49999999999994
93 5.070000000000002 ['118', '133', '131', '98', '140', '48', '117', '148', '136', '109', '127', '147', '110', '89', '80'] 253.49999999999994
94 5.070000000000002 ['118', '133', '131', '98', '140', '48', '117', '148', '136', '109', '127', '147', '110', '89', '80'] 253.49999999999994
95 5.070000000000002 ['118', '133', '131', '98', '140', '48', '117', '148', '136', '109', '127', '147', '110', '89', '80'] 253.49999999999994
96 5.070000000000002 ['118', '133', '131', '98', '140', '48', '117', '148', '136', '109', '127', '147', '110', '89', '80'] 253.49999999999994
97 5.070000000000002 ['118', '133', '131', '98', '140', '48', '117', '148', '136', '109', '127', '147', '110', '89', '80'] 253.49999999999994
98 5.070000000000002 ['118', '133', '131', '98', '140', '48', '117', '148', '136', '109', '127', '147', '110', '89', '80'] 253.49999999999994
99 5.070000000000002 ['118', '133', '131', '98', '140', '48', '117', '148', '136', '109', '127', '147', '110', '89', '80'] 253.49999999999994
100 5.070000000000002 ['118', '133', '131', '98', '140', '48', '117', '148', '136', '109', '127', '147', '110', '89', '80'] 253.49999999999994
101 5.070000000000002 ['118', '133', '131', '98', '140', '48', '117', '148', '136', '109', '127', '147', '110', '89', '80'] 253.49999999999994
102 5.070000000000002 ['118', '133', '131', '98', '140', '48', '117', '148', '136', '109', '127', '147', '110', '89', '80'] 253.49999999999994
103 5.070000000000002 ['118', '133', '131', '98', '140', '48', '117', '148', '136', '109', '127', '147', '110', '89', '80'] 253.49999999999994
104 5.070000000000002 ['118', '133', '131', '98', '140', '48', '117', '148', '136', '109', '127', '147', '110', '89', '80'] 253.49999999999994
105 5.070000000000002 ['118', '133', '131', '98', '140', '48', '117', '148', '136', '109', '127', '147', '110', '89', '80'] 253.49999999999994
106 5.070000000000002 ['118', '133', '131', '98', '140', '48', '117', '148', '136', '109', '127', '147', '110', '89', '80'] 253.49999999999994
107 5.070000000000002 ['118', '133', '131', '98', '140', '48', '117', '148', '136', '109', '127', '147', '110', '89', '80'] 253.49999999999994
108 5.070000000000002 ['118', '133', '131', '98', '140', '48', '117', '148', '136', '109', '127', '147', '110', '89', '80'] 253.49999999999994
109 5.070000000000002 ['118', '133', '131', '98', '140', '48', '117', '148', '136', '109', '127', '147', '110', '89', '80'] 253.49999999999994
110 5.070000000000002 ['118', '133', '131', '98', '140', '48', '117', '148', '136', '109', '127', '147', '110', '89', '80'] 253.49999999999994
111 5.070000000000002 ['118', '133', '131', '98', '140', '48', '117', '148', '136', '109', '127', '147', '110', '89', '80'] 253.49999999999994
112 5.070000000000002 ['118', '133', '131', '98', '140', '48', '117', '148', '136', '109', '127', '147', '110', '89', '80'] 253.49999999999994
113 5.070000000000002 ['118', '133', '131', '98', '140', '48', '117', '148', '136', '109', '127', '147', '110', '89', '80'] 253.49999999999994
114 5.070000000000002 ['118', '133', '131', '98', '140', '48', '117', '148', '136', '109', '127', '147', '110', '89', '80'] 253.49999999999994
115 5.070000000000002 ['118', '133', '131', '98', '140', '48', '117', '148', '136', '109', '127', '147', '110', '89', '80'] 253.49999999999994
116 5.070000000000002 ['118', '133', '131', '98', '140', '48', '117', '148', '136', '109', '127', '147', '110', '89', '80'] 253.49999999999994
117 5.070000000000002 ['118', '133', '131', '98', '140', '48', '117', '148', '136', '109', '127', '147', '110', '89', '80'] 253.49999999999994
118 5.070000000000002 ['118', '133', '131', '98', '140', '48', '117', '148', '136', '109', '127', '147', '110', '89', '80'] 253.49999999999994
119 5.070000000000002 ['118', '133', '131', '98', '140', '48', '117', '148', '136', '109', '127', '147', '110', '89', '80'] 253.49999999999994
120 5.070000000000002 ['118', '133', '131', '98', '140', '48', '117', '148', '136', '109', '127', '147', '110', '89', '80'] 253.49999999999994
121 5.070000000000002 ['118', '133', '131', '98', '140', '48', '117', '148', '136', '109', '127', '147', '110', '89', '80'] 253.49999999999994
122 5.070000000000002 ['118', '133', '131', '98', '140', '48', '117', '148', '136', '109', '127', '147', '110', '89', '80'] 253.49999999999994
123 5.070000000000002 ['118', '133', '131', '98', '140', '48', '117', '148', '136', '109', '127', '147', '110', '89', '80'] 253.49999999999994
124 5.070000000000002 ['118', '133', '131', '98', '140', '48', '117', '148', '136', '109', '127', '147', '110', '89', '80'] 253.49999999999994
125 5.070000000000002 ['118', '133', '131', '98', '140', '48', '117', '148', '136', '109', '127', '147', '110', '89', '80'] 253.49999999999994
126 5.070000000000002 ['118', '133', '131', '98', '140', '48', '117', '148', '136', '109', '127', '147', '110', '89', '80'] 253.49999999999994
127 5.070000000000002 ['118', '133', '131', '98', '140', '48', '117', '148', '136', '109', '127', '147', '110', '89', '80'] 253.49999999999994
128 5.070000000000002 ['118', '133', '131', '98', '140', '48', '117', '148', '136', '109', '127', '147', '110', '89', '80'] 253.49999999999994
129 5.070000000000002 ['118', '133', '131', '98', '140', '48', '117', '148', '136', '109', '127', '147', '110', '89', '80'] 253.49999999999994
130 5.070000000000002 ['118', '133', '131', '98', '140', '48', '117', '148', '136', '109', '127', '147', '110', '89', '80'] 253.49999999999994
131 5.070000000000002 ['118', '133', '131', '98', '140', '48', '117', '148', '136', '109', '127', '147', '110', '89', '80'] 253.49999999999994
132 5.070000000000002 ['118', '133', '131', '98', '140', '48', '117', '148', '136', '109', '127', '147', '110', '89', '80'] 253.49999999999994
133 5.070000000000002 ['118', '133', '131', '98', '140', '48', '117', '148', '136', '109', '127', '147', '110', '89', '80'] 253.49999999999994
134 5.070000000000002 ['118', '133', '131', '98', '140', '48', '117', '148', '136', '109', '127', '147', '110', '89', '80'] 253.49999999999994
135 5.070000000000002 ['118', '133', '131', '98', '140', '48', '117', '148', '136', '109', '127', '147', '110', '89', '80'] 253.49999999999994
136 5.070000000000002 ['118', '133', '131', '98', '140', '48', '117', '148', '136', '109', '127', '147', '110', '89', '80'] 253.49999999999994
137 5.070000000000002 ['118', '133', '131', '98', '140', '48', '117', '148', '136', '109', '127', '147', '110', '89', '80'] 253.49999999999994
138 5.070000000000002 ['118', '133', '131', '98', '140', '48', '117', '148', '136', '109', '127', '147', '110', '89', '80'] 253.49999999999994
139 5.070000000000002 ['118', '133', '131', '98', '140', '48', '117', '148', '136', '109', '127', '147', '110', '89', '80'] 253.49999999999994
140 5.070000000000002 ['118', '133', '131', '98', '140', '48', '117', '148', '136', '109', '127', '147', '110', '89', '80'] 253.49999999999994
141 5.070000000000002 ['118', '133', '131', '98', '140', '48', '117', '148', '136', '109', '127', '147', '110', '89', '80'] 253.49999999999994
142 5.070000000000002 ['118', '133', '131', '98', '140', '48', '117', '148', '136', '109', '127', '147', '110', '89', '80'] 253.49999999999994
143 5.070000000000002 ['118', '133', '131', '98', '140', '48', '117', '148', '136', '109', '127', '147', '110', '89', '80'] 253.49999999999994
144 5.070000000000002 ['118', '133', '131', '98', '140', '48', '117', '148', '136', '109', '127', '147', '110', '89', '80'] 253.49999999999994
145 5.070000000000002 ['118', '133', '131', '98', '140', '48', '117', '148', '136', '109', '127', '147', '110', '89', '80'] 253.49999999999994
146 5.070000000000002 ['118', '133', '131', '98', '140', '48', '117', '148', '136', '109', '127', '147', '110', '89', '80'] 253.49999999999994
147 5.070000000000002 ['118', '133', '131', '98', '140', '48', '117', '148', '136', '109', '127', '147', '110', '89', '80'] 253.49999999999994
148 5.070000000000002 ['118', '133', '131', '98', '140', '48', '117', '148', '136', '109', '127', '147', '110', '89', '80'] 253.49999999999994
149 5.070000000000002 ['118', '133', '131', '98', '140', '48', '117', '148', '136', '109', '127', '147', '110', '89', '80'] 253.49999999999994
150 5.070000000000002 ['118', '133', '131', '98', '140', '48', '117', '148', '136', '109', '127', '147', '110', '89', '80'] 253.49999999999994
151 5.070000000000002 ['118', '133', '131', '98', '140', '48', '117', '148', '136', '109', '127', '147', '110', '89', '80'] 253.49999999999994
152 5.070000000000002 ['118', '133', '131', '98', '140', '48', '117', '148', '136', '109', '127', '147', '110', '89', '80'] 253.49999999999994
153 5.070000000000002 ['118', '133', '131', '98', '140', '48', '117', '148', '136', '109', '127', '147', '110', '89', '80'] 253.49999999999994
154 5.070000000000002 ['118', '133', '131', '98', '140', '48', '117', '148', '136', '109', '127', '147', '110', '89', '80'] 253.49999999999994
155 5.070000000000002 ['118', '133', '131', '98', '140', '48', '117', '148', '136', '109', '127', '147', '110', '89', '80'] 253.49999999999994
156 5.070000000000002 ['118', '133', '131', '98', '140', '48', '117', '148', '136', '109', '127', '147', '110', '89', '80'] 253.49999999999994
157 5.070000000000002 ['118', '133', '131', '98', '140', '48', '117', '148', '136', '109', '127', '147', '110', '89', '80'] 253.49999999999994
158 5.070000000000002 ['118', '133', '131', '98', '140', '48', '117', '148', '136', '109', '127', '147', '110', '89', '80'] 253.49999999999994
159 5.070000000000002 ['118', '133', '131', '98', '140', '48', '117', '148', '136', '109', '127', '147', '110', '89', '80'] 253.49999999999994
160 5.070000000000002 ['118', '133', '131', '98', '140', '48', '117', '148', '136', '109', '127', '147', '110', '89', '80'] 253.49999999999994
161 5.070000000000002 ['118', '133', '131', '98', '140', '48', '117', '148', '136', '109', '127', '147', '110', '89', '80'] 253.49999999999994
162 5.070000000000002 ['118', '133', '131', '98', '140', '48', '117', '148', '136', '109', '127', '147', '110', '89', '80'] 253.49999999999994
163 5.070000000000002 ['118', '133', '131', '98', '140', '48', '117', '148', '136', '109', '127', '147', '110', '89', '80'] 253.49999999999994
164 5.070000000000002 ['118', '133', '131', '98', '140', '48', '117', '148', '136', '109', '127', '147', '110', '89', '80'] 253.49999999999994
165 5.070000000000002 ['118', '133', '131', '98', '140', '48', '117', '148', '136', '109', '127', '147', '110', '89', '80'] 253.49999999999994
166 5.070000000000002 ['118', '133', '131', '98', '140', '48', '117', '148', '136', '109', '127', '147', '110', '89', '80'] 253.49999999999994
167 5.070000000000002 ['118', '133', '131', '98', '140', '48', '117', '148', '136', '109', '127', '147', '110', '89', '80'] 253.49999999999994
168 5.070000000000002 ['118', '133', '131', '98', '140', '48', '117', '148', '136', '109', '127', '147', '110', '89', '80'] 253.49999999999994
169 5.070000000000002 ['118', '133', '131', '98', '140', '48', '117', '148', '136', '109', '127', '147', '110', '89', '80'] 253.49999999999994
170 5.070000000000002 ['118', '133', '131', '98', '140', '48', '117', '148', '136', '109', '127', '147', '110', '89', '80'] 253.49999999999994
171 5.070000000000002 ['118', '133', '131', '98', '140', '48', '117', '148', '136', '109', '127', '147', '110', '89', '80'] 253.49999999999994
172 5.070000000000002 ['118', '133', '131', '98', '140', '48', '117', '148', '136', '109', '127', '147', '110', '89', '80'] 253.49999999999994
173 5.070000000000002 ['118', '133', '131', '98', '140', '48', '117', '148', '136', '109', '127', '147', '110', '89', '80'] 253.49999999999994
174 5.070000000000002 ['118', '133', '131', '98', '140', '48', '117', '148', '136', '109', '127', '147', '110', '89', '80'] 253.49999999999994
175 5.070000000000002 ['118', '133', '131', '98', '140', '48', '117', '148', '136', '109', '127', '147', '110', '89', '80'] 253.49999999999994
176 5.070000000000002 ['118', '133', '131', '98', '140', '48', '117', '148', '136', '109', '127', '147', '110', '89', '80'] 253.49999999999994
177 5.070000000000002 ['118', '133', '131', '98', '140', '48', '117', '148', '136', '109', '127', '147', '110', '89', '80'] 253.49999999999994
178 5.070000000000002 ['118', '133', '131', '98', '140', '48', '117', '148', '136', '109', '127', '147', '110', '89', '80'] 253.49999999999994
179 5.070000000000002 ['118', '133', '131', '98', '140', '48', '117', '148', '136', '109', '127', '147', '110', '89', '80'] 253.49999999999994
180 5.070000000000002 ['118', '133', '131', '98', '140', '48', '117', '148', '136', '109', '127', '147', '110', '89', '80'] 253.49999999999994
181 5.070000000000002 ['118', '133', '131', '98', '140', '48', '117', '148', '136', '109', '127', '147', '110', '89', '80'] 253.49999999999994
182 5.070000000000002 ['118', '133', '131', '98', '140', '48', '117', '148', '136', '109', '127', '147', '110', '89', '80'] 253.49999999999994
183 5.070000000000002 ['118', '133', '131', '98', '140', '48', '117', '148', '136', '109', '127', '147', '110', '89', '80'] 253.49999999999994
184 5.070000000000002 ['118', '133', '131', '98', '140', '48', '117', '148', '136', '109', '127', '147', '110', '89', '80'] 253.49999999999994
185 5.070000000000002 ['118', '133', '131', '98', '140', '48', '117', '148', '136', '109', '127', '147', '110', '89', '80'] 253.49999999999994
186 5.070000000000002 ['118', '133', '131', '98', '140', '48', '117', '148', '136', '109', '127', '147', '110', '89', '80'] 253.49999999999994
187 5.070000000000002 ['118', '133', '131', '98', '140', '48', '117', '148', '136', '109', '127', '147', '110', '89', '80'] 253.49999999999994
188 5.070000000000002 ['118', '133', '131', '98', '140', '48', '117', '148', '136', '109', '127', '147', '110', '89', '80'] 253.49999999999994
189 5.070000000000002 ['118', '133', '131', '98', '140', '48', '117', '148', '136', '109', '127', '147', '110', '89', '80'] 253.49999999999994
190 5.070000000000002 ['118', '133', '131', '98', '140', '48', '117', '148', '136', '109', '127', '147', '110', '89', '80'] 253.49999999999994
191 5.070000000000002 ['118', '133', '131', '98', '140', '48', '117', '148', '136', '109', '127', '147', '110', '89', '80'] 253.49999999999994
192 5.070000000000002 ['118', '133', '131', '98', '140', '48', '117', '148', '136', '109', '127', '147', '110', '89', '80'] 253.49999999999994
193 5.070000000000002 ['118', '133', '131', '98', '140', '48', '117', '148', '136', '109', '127', '147', '110', '89', '80'] 253.49999999999994
194 5.070000000000002 ['118', '133', '131', '98', '140', '48', '117', '148', '136', '109', '127', '147', '110', '89', '80'] 253.49999999999994
195 5.070000000000002 ['118', '133', '131', '98', '140', '48', '117', '148', '136', '109', '127', '147', '110', '89', '80'] 253.49999999999994
196 5.070000000000002 ['118', '133', '131', '98', '140', '48', '117', '148', '136', '109', '127', '147', '110', '89', '80'] 253.49999999999994
197 5.070000000000002 ['118', '133', '131', '98', '140', '48', '117', '148', '136', '109', '127', '147', '110', '89', '80'] 253.49999999999994
198 5.070000000000002 ['118', '133', '131', '98', '140', '48', '117', '148', '136', '109', '127', '147', '110', '89', '80'] 253.49999999999994
199 5.070000000000002 ['118', '133', '131', '98', '140', '48', '117', '148', '136', '109', '127', '147', '110', '89', '80'] 253.49999999999994
