0 5.888888888888889 ['35', '3', '9'] 323.0
1 5.888888888888889 ['35', '3', '9'] 315.00000000000034
2 5.888888888888889 ['35', '3', '9'] 309.7777777777778
3 5.777777777777778 ['3', '35', '4'] 303.22222222222234
4 5.777777777777778 ['3', '35', '4'] 297.8888888888888
5 5.777777777777778 ['3', '35', '4'] 294.66666666666663
6 5.777777777777778 ['3', '35', '4'] 291.8888888888889
7 5.777777777777778 ['3', '35', '4'] 290.1111111111111
8 5.777777777777778 ['3', '35', '4'] 288.8888888888887
9 5.777777777777778 ['3', '35', '4'] 288.8888888888887
10 5.777777777777778 ['3', '35', '4'] 288.8888888888887
11 5.777777777777778 ['3', '35', '4'] 288.8888888888887
12 5.777777777777778 ['3', '35', '4'] 288.8888888888887
13 5.777777777777778 ['3', '35', '4'] 288.8888888888887
14 5.777777777777778 ['3', '35', '4'] 288.8888888888887
15 5.777777777777778 ['3', '35', '4'] 288.8888888888887
16 5.777777777777778 ['3', '35', '4'] 288.8888888888887
17 5.777777777777778 ['3', '35', '4'] 288.8888888888887
18 5.777777777777778 ['3', '35', '4'] 288.8888888888887
19 5.777777777777778 ['3', '35', '4'] 288.8888888888887
20 5.777777777777778 ['3', '35', '4'] 288.8888888888887
21 5.777777777777778 ['3', '35', '4'] 288.8888888888887
22 5.777777777777778 ['3', '35', '4'] 288.8888888888887
23 5.777777777777778 ['3', '35', '4'] 288.8888888888887
24 5.777777777777778 ['3', '35', '4'] 288.8888888888887
25 5.777777777777778 ['3', '35', '4'] 288.8888888888887
26 5.777777777777778 ['3', '35', '4'] 288.8888888888887
27 5.777777777777778 ['3', '35', '4'] 288.8888888888887
28 5.777777777777778 ['3', '35', '4'] 288.8888888888887
29 5.777777777777778 ['3', '35', '4'] 288.8888888888887
30 5.777777777777778 ['3', '35', '4'] 288.8888888888887
31 5.777777777777778 ['3', '35', '4'] 288.8888888888887
32 5.777777777777778 ['3', '35', '4'] 288.8888888888887
33 5.777777777777778 ['3', '35', '4'] 288.8888888888887
34 5.777777777777778 ['3', '35', '4'] 288.8888888888887
35 5.777777777777778 ['3', '35', '4'] 288.8888888888887
36 5.777777777777778 ['3', '35', '4'] 288.8888888888887
37 5.777777777777778 ['3', '35', '4'] 288.8888888888887
38 5.777777777777778 ['3', '35', '4'] 288.8888888888887
39 5.777777777777778 ['3', '35', '4'] 288.8888888888887
40 5.777777777777778 ['3', '35', '4'] 288.8888888888887
41 5.777777777777778 ['3', '35', '4'] 288.8888888888887
42 5.777777777777778 ['3', '35', '4'] 288.8888888888887
43 5.777777777777778 ['3', '35', '4'] 288.8888888888887
44 5.777777777777778 ['3', '35', '4'] 288.8888888888887
45 5.777777777777778 ['3', '35', '4'] 288.8888888888887
46 5.777777777777778 ['3', '35', '4'] 288.8888888888887
47 5.777777777777778 ['3', '35', '4'] 288.8888888888887
48 5.777777777777778 ['3', '35', '4'] 288.8888888888887
49 5.777777777777778 ['3', '35', '4'] 288.8888888888887
50 5.777777777777778 ['3', '35', '4'] 288.8888888888887
51 5.777777777777778 ['3', '35', '4'] 288.8888888888887
52 5.777777777777778 ['3', '35', '4'] 288.8888888888887
53 5.777777777777778 ['3', '35', '4'] 288.8888888888887
54 5.777777777777778 ['3', '35', '4'] 288.8888888888887
55 5.777777777777778 ['3', '35', '4'] 288.8888888888887
56 5.777777777777778 ['3', '35', '4'] 288.8888888888887
57 5.777777777777778 ['3', '35', '4'] 288.8888888888887
58 5.777777777777778 ['3', '35', '4'] 288.8888888888887
59 5.777777777777778 ['3', '35', '4'] 288.8888888888887
60 5.777777777777778 ['3', '35', '4'] 288.8888888888887
61 5.777777777777778 ['3', '35', '4'] 288.8888888888887
62 5.777777777777778 ['3', '35', '4'] 288.8888888888887
63 5.777777777777778 ['3', '35', '4'] 288.8888888888887
64 5.777777777777778 ['3', '35', '4'] 288.8888888888887
65 5.777777777777778 ['3', '35', '4'] 288.8888888888887
66 5.777777777777778 ['3', '35', '4'] 288.8888888888887
67 5.777777777777778 ['3', '35', '4'] 288.8888888888887
68 5.777777777777778 ['3', '35', '4'] 288.8888888888887
69 5.777777777777778 ['3', '35', '4'] 288.8888888888887
70 5.777777777777778 ['3', '35', '4'] 288.8888888888887
71 5.777777777777778 ['3', '35', '4'] 288.8888888888887
72 5.777777777777778 ['3', '35', '4'] 288.8888888888887
73 5.777777777777778 ['3', '35', '4'] 288.8888888888887
74 5.777777777777778 ['3', '35', '4'] 288.8888888888887
75 5.777777777777778 ['3', '35', '4'] 288.8888888888887
76 5.777777777777778 ['3', '35', '4'] 288.8888888888887
77 5.777777777777778 ['3', '35', '4'] 288.8888888888887
78 5.777777777777778 ['3', '35', '4'] 288.8888888888887
79 5.777777777777778 ['3', '35', '4'] 288.8888888888887
80 5.777777777777778 ['3', '35', '4'] 288.8888888888887
81 5.777777777777778 ['3', '35', '4'] 288.8888888888887
82 5.777777777777778 ['3', '35', '4'] 288.8888888888887
83 5.777777777777778 ['3', '35', '4'] 288.8888888888887
84 5.777777777777778 ['3', '35', '4'] 288.8888888888887
85 5.777777777777778 ['3', '35', '4'] 288.8888888888887
86 5.777777777777778 ['3', '35', '4'] 288.8888888888887
87 5.777777777777778 ['3', '35', '4'] 288.8888888888887
88 5.777777777777778 ['3', '35', '4'] 288.8888888888887
89 5.777777777777778 ['3', '35', '4'] 288.8888888888887
90 5.777777777777778 ['3', '35', '4'] 288.8888888888887
91 5.777777777777778 ['3', '35', '4'] 288.8888888888887
92 5.777777777777778 ['3', '35', '4'] 288.8888888888887
93 5.777777777777778 ['3', '35', '4'] 288.8888888888887
94 5.777777777777778 ['3', '35', '4'] 288.8888888888887
95 5.777777777777778 ['3', '35', '4'] 288.8888888888887
96 5.777777777777778 ['3', '35', '4'] 288.8888888888887
97 5.777777777777778 ['3', '35', '4'] 288.8888888888887
98 5.777777777777778 ['3', '35', '4'] 288.8888888888887
99 5.777777777777778 ['3', '35', '4'] 288.8888888888887
100 5.777777777777778 ['3', '35', '4'] 288.8888888888887
101 5.777777777777778 ['3', '35', '4'] 288.8888888888887
102 5.777777777777778 ['3', '35', '4'] 288.8888888888887
103 5.777777777777778 ['3', '35', '4'] 288.8888888888887
104 5.777777777777778 ['3', '35', '4'] 288.8888888888887
105 5.777777777777778 ['3', '35', '4'] 288.8888888888887
106 5.777777777777778 ['3', '35', '4'] 288.8888888888887
107 5.777777777777778 ['3', '35', '4'] 288.8888888888887
108 5.777777777777778 ['3', '35', '4'] 288.8888888888887
109 5.777777777777778 ['3', '35', '4'] 288.8888888888887
110 5.777777777777778 ['3', '35', '4'] 288.8888888888887
111 5.777777777777778 ['3', '35', '4'] 288.8888888888887
112 5.777777777777778 ['3', '35', '4'] 288.8888888888887
113 5.777777777777778 ['3', '35', '4'] 288.8888888888887
114 5.777777777777778 ['3', '35', '4'] 288.8888888888887
115 5.777777777777778 ['3', '35', '4'] 288.8888888888887
116 5.777777777777778 ['3', '35', '4'] 288.8888888888887
117 5.777777777777778 ['3', '35', '4'] 288.8888888888887
118 5.777777777777778 ['3', '35', '4'] 288.8888888888887
119 5.777777777777778 ['3', '35', '4'] 288.8888888888887
120 5.777777777777778 ['3', '35', '4'] 288.8888888888887
121 5.777777777777778 ['3', '35', '4'] 288.8888888888887
122 5.777777777777778 ['3', '35', '4'] 288.8888888888887
123 5.777777777777778 ['3', '35', '4'] 288.8888888888887
124 5.777777777777778 ['3', '35', '4'] 288.8888888888887
125 5.777777777777778 ['3', '35', '4'] 288.8888888888887
126 5.777777777777778 ['3', '35', '4'] 288.8888888888887
127 5.777777777777778 ['3', '35', '4'] 288.8888888888887
128 5.777777777777778 ['3', '35', '4'] 288.8888888888887
129 5.777777777777778 ['3', '35', '4'] 288.8888888888887
130 5.777777777777778 ['3', '35', '4'] 288.8888888888887
131 5.777777777777778 ['3', '35', '4'] 288.8888888888887
132 5.777777777777778 ['3', '35', '4'] 288.8888888888887
133 5.777777777777778 ['3', '35', '4'] 288.8888888888887
134 5.777777777777778 ['3', '35', '4'] 288.8888888888887
135 5.777777777777778 ['3', '35', '4'] 288.8888888888887
136 5.777777777777778 ['3', '35', '4'] 288.8888888888887
137 5.777777777777778 ['3', '35', '4'] 288.8888888888887
138 5.777777777777778 ['3', '35', '4'] 288.8888888888887
139 5.777777777777778 ['3', '35', '4'] 288.8888888888887
140 5.777777777777778 ['3', '35', '4'] 288.8888888888887
141 5.777777777777778 ['3', '35', '4'] 288.8888888888887
142 5.777777777777778 ['3', '35', '4'] 288.8888888888887
143 5.777777777777778 ['3', '35', '4'] 288.8888888888887
144 5.777777777777778 ['3', '35', '4'] 288.8888888888887
145 5.777777777777778 ['3', '35', '4'] 288.8888888888887
146 5.777777777777778 ['3', '35', '4'] 288.8888888888887
147 5.777777777777778 ['3', '35', '4'] 288.8888888888887
148 5.777777777777778 ['3', '35', '4'] 288.8888888888887
149 5.777777777777778 ['3', '35', '4'] 288.8888888888887
150 5.777777777777778 ['3', '35', '4'] 288.8888888888887
151 5.777777777777778 ['3', '35', '4'] 288.8888888888887
152 5.777777777777778 ['3', '35', '4'] 288.8888888888887
153 5.777777777777778 ['3', '35', '4'] 288.8888888888887
154 5.777777777777778 ['3', '35', '4'] 288.8888888888887
155 5.777777777777778 ['3', '35', '4'] 288.8888888888887
156 5.777777777777778 ['3', '35', '4'] 288.8888888888887
157 5.777777777777778 ['3', '35', '4'] 288.8888888888887
158 5.777777777777778 ['3', '35', '4'] 288.8888888888887
159 5.777777777777778 ['3', '35', '4'] 288.8888888888887
160 5.777777777777778 ['3', '35', '4'] 288.8888888888887
161 5.777777777777778 ['3', '35', '4'] 288.8888888888887
162 5.777777777777778 ['3', '35', '4'] 288.8888888888887
163 5.777777777777778 ['3', '35', '4'] 288.8888888888887
164 5.777777777777778 ['3', '35', '4'] 288.8888888888887
165 5.777777777777778 ['3', '35', '4'] 288.8888888888887
166 5.777777777777778 ['3', '35', '4'] 288.8888888888887
167 5.777777777777778 ['3', '35', '4'] 288.8888888888887
168 5.777777777777778 ['3', '35', '4'] 288.8888888888887
169 5.777777777777778 ['3', '35', '4'] 288.8888888888887
170 5.777777777777778 ['3', '35', '4'] 288.8888888888887
171 5.777777777777778 ['3', '35', '4'] 288.8888888888887
172 5.777777777777778 ['3', '35', '4'] 288.8888888888887
173 5.777777777777778 ['3', '35', '4'] 288.8888888888887
174 5.777777777777778 ['3', '35', '4'] 288.8888888888887
175 5.777777777777778 ['3', '35', '4'] 288.8888888888887
176 5.777777777777778 ['3', '35', '4'] 288.8888888888887
177 5.777777777777778 ['3', '35', '4'] 288.8888888888887
178 5.777777777777778 ['3', '35', '4'] 288.8888888888887
179 5.777777777777778 ['3', '35', '4'] 288.8888888888887
180 5.777777777777778 ['3', '35', '4'] 288.8888888888887
181 5.777777777777778 ['3', '35', '4'] 288.8888888888887
182 5.777777777777778 ['3', '35', '4'] 288.8888888888887
183 5.777777777777778 ['3', '35', '4'] 288.8888888888887
184 5.777777777777778 ['3', '35', '4'] 288.8888888888887
185 5.777777777777778 ['3', '35', '4'] 288.8888888888887
186 5.777777777777778 ['3', '35', '4'] 288.8888888888887
187 5.777777777777778 ['3', '35', '4'] 288.8888888888887
188 5.777777777777778 ['3', '35', '4'] 288.8888888888887
189 5.777777777777778 ['3', '35', '4'] 288.8888888888887
190 5.777777777777778 ['3', '35', '4'] 288.8888888888887
191 5.777777777777778 ['3', '35', '4'] 288.8888888888887
192 5.777777777777778 ['3', '35', '4'] 288.8888888888887
193 5.777777777777778 ['3', '35', '4'] 288.8888888888887
194 5.777777777777778 ['3', '35', '4'] 288.8888888888887
195 5.777777777777778 ['3', '35', '4'] 288.8888888888887
196 5.777777777777778 ['3', '35', '4'] 288.8888888888887
197 5.777777777777778 ['3', '35', '4'] 288.8888888888887
198 5.777777777777778 ['3', '35', '4'] 288.8888888888887
199 5.777777777777778 ['3', '35', '4'] 288.8888888888887
