0 6.148148148148148 ['13', '22'] 318.814814814815
1 6.0 ['22', '10'] 312.62962962962985
2 6.0 ['22', '10'] 307.03703703703724
3 6.0 ['22', '10'] 304.4074074074075
4 6.0 ['22', '10'] 302.03703703703707
5 6.0 ['22', '10'] 301.03703703703684
6 6.0 ['22', '10'] 300.2962962962961
7 6.0 ['22', '10'] 300.0
8 6.0 ['22', '10'] 300.0
9 6.0 ['22', '10'] 300.0
10 6.0 ['22', '10'] 300.0
11 6.0 ['22', '10'] 300.0
12 6.0 ['22', '10'] 300.0
13 6.0 ['22', '10'] 300.0
14 6.0 ['22', '10'] 300.0
15 6.0 ['22', '10'] 300.0
16 6.0 ['22', '10'] 300.0
17 6.0 ['22', '10'] 300.0
18 6.0 ['22', '10'] 300.0
19 6.0 ['22', '10'] 300.0
20 6.0 ['22', '10'] 300.0
21 6.0 ['22', '10'] 300.0
22 6.0 ['22', '10'] 300.0
23 6.0 ['22', '10'] 300.0
24 6.0 ['22', '10'] 300.0
25 6.0 ['22', '10'] 300.0
26 6.0 ['22', '10'] 300.0
27 6.0 ['22', '10'] 300.0
28 6.0 ['22', '10'] 300.0
29 6.0 ['22', '10'] 300.0
30 6.0 ['22', '10'] 300.0
31 6.0 ['22', '10'] 300.0
32 6.0 ['22', '10'] 300.0
33 6.0 ['22', '10'] 300.0
34 6.0 ['22', '10'] 300.0
35 6.0 ['22', '10'] 300.0
36 6.0 ['22', '10'] 300.0
37 6.0 ['22', '10'] 300.0
38 6.0 ['22', '10'] 300.0
39 6.0 ['22', '10'] 300.0
40 6.0 ['22', '10'] 300.0
41 6.0 ['22', '10'] 300.0
42 6.0 ['22', '10'] 300.0
43 6.0 ['22', '10'] 300.0
44 6.0 ['22', '10'] 300.0
45 6.0 ['22', '10'] 300.0
46 6.0 ['22', '10'] 300.0
47 6.0 ['22', '10'] 300.0
48 6.0 ['22', '10'] 300.0
49 6.0 ['22', '10'] 300.0
50 6.0 ['22', '10'] 300.0
51 6.0 ['22', '10'] 300.0
52 6.0 ['22', '10'] 300.0
53 6.0 ['22', '10'] 300.0
54 6.0 ['22', '10'] 300.0
55 6.0 ['22', '10'] 300.0
56 6.0 ['22', '10'] 300.0
57 6.0 ['22', '10'] 300.0
58 6.0 ['22', '10'] 300.0
59 6.0 ['22', '10'] 300.0
60 6.0 ['22', '10'] 300.0
61 6.0 ['22', '10'] 300.0
62 6.0 ['22', '10'] 300.0
63 6.0 ['22', '10'] 300.0
64 6.0 ['22', '10'] 300.0
65 6.0 ['22', '10'] 300.0
66 6.0 ['22', '10'] 300.0
67 6.0 ['22', '10'] 300.0
68 6.0 ['22', '10'] 300.0
69 6.0 ['22', '10'] 300.0
70 6.0 ['22', '10'] 300.0
71 6.0 ['22', '10'] 300.0
72 6.0 ['22', '10'] 300.0
73 6.0 ['22', '10'] 300.0
74 6.0 ['22', '10'] 300.0
75 6.0 ['22', '10'] 300.0
76 6.0 ['22', '10'] 300.0
77 6.0 ['22', '10'] 300.0
78 6.0 ['22', '10'] 300.0
79 6.0 ['22', '10'] 300.0
80 6.0 ['22', '10'] 300.0
81 6.0 ['22', '10'] 300.0
82 6.0 ['22', '10'] 300.0
83 6.0 ['22', '10'] 300.0
84 6.0 ['22', '10'] 300.0
85 6.0 ['22', '10'] 300.0
86 6.0 ['22', '10'] 300.0
87 6.0 ['22', '10'] 300.0
88 6.0 ['22', '10'] 300.0
89 6.0 ['22', '10'] 300.0
90 6.0 ['22', '10'] 300.0
91 6.0 ['22', '10'] 300.0
92 6.0 ['22', '10'] 300.0
93 6.0 ['22', '10'] 300.0
94 6.0 ['22', '10'] 300.0
95 6.0 ['22', '10'] 300.0
96 6.0 ['22', '10'] 300.0
97 6.0 ['22', '10'] 300.0
98 6.0 ['22', '10'] 300.0
99 6.0 ['22', '10'] 300.0
100 6.0 ['22', '10'] 300.0
101 6.0 ['22', '10'] 300.0
102 6.0 ['22', '10'] 300.0
103 6.0 ['22', '10'] 300.0
104 6.0 ['22', '10'] 300.0
105 6.0 ['22', '10'] 300.0
106 6.0 ['22', '10'] 300.0
107 6.0 ['22', '10'] 300.0
108 6.0 ['22', '10'] 300.0
109 6.0 ['22', '10'] 300.0
110 6.0 ['22', '10'] 300.0
111 6.0 ['22', '10'] 300.0
112 6.0 ['22', '10'] 300.0
113 6.0 ['22', '10'] 300.0
114 6.0 ['22', '10'] 300.0
115 6.0 ['22', '10'] 300.0
116 6.0 ['22', '10'] 300.0
117 6.0 ['22', '10'] 300.0
118 6.0 ['22', '10'] 300.0
119 6.0 ['22', '10'] 300.0
120 6.0 ['22', '10'] 300.0
121 6.0 ['22', '10'] 300.0
122 6.0 ['22', '10'] 300.0
123 6.0 ['22', '10'] 300.0
124 6.0 ['22', '10'] 300.0
125 6.0 ['22', '10'] 300.0
126 6.0 ['22', '10'] 300.0
127 6.0 ['22', '10'] 300.0
128 6.0 ['22', '10'] 300.0
129 6.0 ['22', '10'] 300.0
130 6.0 ['22', '10'] 300.0
131 6.0 ['22', '10'] 300.0
132 6.0 ['22', '10'] 300.0
133 6.0 ['22', '10'] 300.0
134 6.0 ['22', '10'] 300.0
135 6.0 ['22', '10'] 300.0
136 6.0 ['22', '10'] 300.0
137 6.0 ['22', '10'] 300.0
138 6.0 ['22', '10'] 300.0
139 6.0 ['22', '10'] 300.0
140 6.0 ['22', '10'] 300.0
141 6.0 ['22', '10'] 300.0
142 6.0 ['22', '10'] 300.0
143 6.0 ['22', '10'] 300.0
144 6.0 ['22', '10'] 300.0
145 6.0 ['22', '10'] 300.0
146 6.0 ['22', '10'] 300.0
147 6.0 ['22', '10'] 300.0
148 6.0 ['22', '10'] 300.0
149 6.0 ['22', '10'] 300.0
150 6.0 ['22', '10'] 300.0
151 6.0 ['22', '10'] 300.0
152 6.0 ['22', '10'] 300.0
153 6.0 ['22', '10'] 300.0
154 6.0 ['22', '10'] 300.0
155 6.0 ['22', '10'] 300.0
156 6.0 ['22', '10'] 300.0
157 6.0 ['22', '10'] 300.0
158 6.0 ['22', '10'] 300.0
159 6.0 ['22', '10'] 300.0
160 6.0 ['22', '10'] 300.0
161 6.0 ['22', '10'] 300.0
162 6.0 ['22', '10'] 300.0
163 6.0 ['22', '10'] 300.0
164 6.0 ['22', '10'] 300.0
165 6.0 ['22', '10'] 300.0
166 6.0 ['22', '10'] 300.0
167 6.0 ['22', '10'] 300.0
168 6.0 ['22', '10'] 300.0
169 6.0 ['22', '10'] 300.0
170 6.0 ['22', '10'] 300.0
171 6.0 ['22', '10'] 300.0
172 6.0 ['22', '10'] 300.0
173 6.0 ['22', '10'] 300.0
174 6.0 ['22', '10'] 300.0
175 6.0 ['22', '10'] 300.0
176 6.0 ['22', '10'] 300.0
177 6.0 ['22', '10'] 300.0
178 6.0 ['22', '10'] 300.0
179 6.0 ['22', '10'] 300.0
180 6.0 ['22', '10'] 300.0
181 6.0 ['22', '10'] 300.0
182 6.0 ['22', '10'] 300.0
183 6.0 ['22', '10'] 300.0
184 6.0 ['22', '10'] 300.0
185 6.0 ['22', '10'] 300.0
186 6.0 ['22', '10'] 300.0
187 6.0 ['22', '10'] 300.0
188 6.0 ['22', '10'] 300.0
189 6.0 ['22', '10'] 300.0
190 6.0 ['22', '10'] 300.0
191 6.0 ['22', '10'] 300.0
192 6.0 ['22', '10'] 300.0
193 6.0 ['22', '10'] 300.0
194 6.0 ['22', '10'] 300.0
195 6.0 ['22', '10'] 300.0
196 6.0 ['22', '10'] 300.0
197 6.0 ['22', '10'] 300.0
198 6.0 ['22', '10'] 300.0
199 6.0 ['22', '10'] 300.0
