0 5.4703703703703725 ['14', '150', '80', '72', '17', '79', '1', '68', '126', '137', '58', '143', '145', '35', '49'] 277.512304526749
1 5.453209876543212 ['138', '16', '127', '134', '30', '31', '49', '123', '136', '129', '128', '77', '110', '57', '48'] 276.22004115226343
2 5.413333333333333 ['64', '141', '123', '137', '62', '116', '117', '139', '110', '21', '130', '85', '136', '31', '89'] 275.03909465020587
3 5.413333333333333 ['64', '141', '123', '137', '62', '116', '117', '139', '110', '21', '130', '85', '136', '31', '89'] 274.24111111111125
4 5.3841975308641965 ['112', '64', '139', '73', '123', '79', '128', '10', '127', '31', '145', '136', '95', '137', '130'] 273.34518518518524
5 5.3841975308641965 ['112', '64', '139', '73', '123', '79', '128', '10', '127', '31', '145', '136', '95', '137', '130'] 272.7328395061729
6 5.3841975308641965 ['112', '64', '139', '73', '123', '79', '128', '10', '127', '31', '145', '136', '95', '137', '130'] 271.9437037037038
7 5.368024691358026 ['80', '43', '134', '31', '110', '86', '145', '138', '107', '135', '136', '81', '40', '106', '127'] 271.2713580246915
8 5.3092592592592585 ['127', '28', '3', '150', '135', '123', '130', '50', '140', '84', '141', '129', '139', '138', '137'] 270.4453086419754
9 5.304814814814814 ['130', '129', '139', '137', '117', '95', '150', '110', '127', '123', '73', '136', '25', '134', '112'] 269.8487654320989
10 5.304814814814814 ['130', '129', '139', '137', '117', '95', '150', '110', '127', '123', '73', '136', '25', '134', '112'] 268.95222222222225
11 5.265925925925929 ['25', '117', '130', '134', '129', '137', '150', '89', '145', '141', '31', '73', '110', '139', '88'] 267.7507407407408
12 5.265925925925929 ['25', '117', '130', '134', '129', '137', '150', '89', '145', '141', '31', '73', '110', '139', '88'] 267.0225925925926
13 5.264567901234566 ['145', '127', '123', '129', '31', '150', '79', '137', '73', '138', '139', '130', '95', '128', '135'] 266.33086419753096
14 5.232222222222223 ['31', '145', '129', '110', '139', '137', '135', '73', '88', '123', '150', '138', '134', '89', '130'] 265.67123456790125
15 5.232222222222223 ['31', '145', '129', '110', '139', '137', '135', '73', '88', '123', '150', '138', '134', '89', '130'] 264.9359259259259
16 5.224814814814816 ['135', '137', '88', '123', '89', '129', '130', '110', '139', '145', '127', '117', '138', '141', '134'] 264.0250617283952
17 5.224814814814816 ['135', '137', '88', '123', '89', '129', '130', '110', '139', '145', '127', '117', '138', '141', '134'] 263.36098765432104
18 5.19864197530864 ['150', '73', '137', '31', '134', '129', '130', '127', '139', '110', '135', '138', '145', '128', '123'] 262.86740740740737
19 5.19864197530864 ['150', '73', '137', '31', '134', '129', '130', '127', '139', '110', '135', '138', '145', '128', '123'] 262.3637037037037
20 5.19864197530864 ['150', '73', '137', '31', '134', '129', '130', '127', '139', '110', '135', '138', '145', '128', '123'] 261.87555555555565
21 5.19864197530864 ['150', '73', '137', '31', '134', '129', '130', '127', '139', '110', '135', '138', '145', '128', '123'] 261.60753086419754
22 5.19864197530864 ['150', '73', '137', '31', '134', '129', '130', '127', '139', '110', '135', '138', '145', '128', '123'] 261.2261728395062
23 5.196172839506173 ['73', '31', '139', '127', '145', '129', '130', '137', '134', '135', '123', '110', '89', '128', '138'] 260.90814814814814
24 5.184444444444443 ['31', '129', '138', '139', '130', '137', '145', '123', '127', '134', '135', '110', '118', '73', '128'] 260.63370370370376
25 5.184444444444443 ['31', '129', '138', '139', '130', '137', '145', '123', '127', '134', '135', '110', '118', '73', '128'] 260.45506172839515
26 5.184444444444443 ['31', '129', '138', '139', '130', '137', '145', '123', '127', '134', '135', '110', '118', '73', '128'] 260.29962962962975
27 5.184444444444443 ['31', '129', '138', '139', '130', '137', '145', '123', '127', '134', '135', '110', '118', '73', '128'] 260.1020987654323
28 5.184444444444443 ['31', '129', '138', '139', '130', '137', '145', '123', '127', '134', '135', '110', '118', '73', '128'] 259.88283950617296
29 5.184444444444443 ['31', '129', '138', '139', '130', '137', '145', '123', '127', '134', '135', '110', '118', '73', '128'] 259.7016049382717
30 5.184444444444443 ['31', '129', '138', '139', '130', '137', '145', '123', '127', '134', '135', '110', '118', '73', '128'] 259.53901234567894
31 5.184444444444443 ['31', '129', '138', '139', '130', '137', '145', '123', '127', '134', '135', '110', '118', '73', '128'] 259.3388888888886
32 5.184444444444443 ['31', '129', '138', '139', '130', '137', '145', '123', '127', '134', '135', '110', '118', '73', '128'] 259.222222222222
33 5.184444444444443 ['31', '129', '138', '139', '130', '137', '145', '123', '127', '134', '135', '110', '118', '73', '128'] 259.222222222222
34 5.184444444444443 ['31', '129', '138', '139', '130', '137', '145', '123', '127', '134', '135', '110', '118', '73', '128'] 259.222222222222
35 5.184444444444443 ['31', '129', '138', '139', '130', '137', '145', '123', '127', '134', '135', '110', '118', '73', '128'] 259.222222222222
36 5.184444444444443 ['31', '129', '138', '139', '130', '137', '145', '123', '127', '134', '135', '110', '118', '73', '128'] 259.222222222222
37 5.184444444444443 ['31', '129', '138', '139', '130', '137', '145', '123', '127', '134', '135', '110', '118', '73', '128'] 259.222222222222
38 5.184444444444443 ['31', '129', '138', '139', '130', '137', '145', '123', '127', '134', '135', '110', '118', '73', '128'] 259.222222222222
39 5.184444444444443 ['31', '129', '138', '139', '130', '137', '145', '123', '127', '134', '135', '110', '118', '73', '128'] 259.222222222222
40 5.184444444444443 ['31', '129', '138', '139', '130', '137', '145', '123', '127', '134', '135', '110', '118', '73', '128'] 259.222222222222
41 5.184444444444443 ['31', '129', '138', '139', '130', '137', '145', '123', '127', '134', '135', '110', '118', '73', '128'] 259.222222222222
42 5.184444444444443 ['31', '129', '138', '139', '130', '137', '145', '123', '127', '134', '135', '110', '118', '73', '128'] 259.222222222222
43 5.184444444444443 ['31', '129', '138', '139', '130', '137', '145', '123', '127', '134', '135', '110', '118', '73', '128'] 259.222222222222
44 5.184444444444443 ['31', '129', '138', '139', '130', '137', '145', '123', '127', '134', '135', '110', '118', '73', '128'] 259.222222222222
45 5.184444444444443 ['31', '129', '138', '139', '130', '137', '145', '123', '127', '134', '135', '110', '118', '73', '128'] 259.222222222222
46 5.184444444444443 ['31', '129', '138', '139', '130', '137', '145', '123', '127', '134', '135', '110', '118', '73', '128'] 259.222222222222
47 5.184444444444443 ['31', '129', '138', '139', '130', '137', '145', '123', '127', '134', '135', '110', '118', '73', '128'] 259.222222222222
48 5.184444444444443 ['31', '129', '138', '139', '130', '137', '145', '123', '127', '134', '135', '110', '118', '73', '128'] 259.222222222222
49 5.184444444444443 ['31', '129', '138', '139', '130', '137', '145', '123', '127', '134', '135', '110', '118', '73', '128'] 259.222222222222
50 5.184444444444443 ['31', '129', '138', '139', '130', '137', '145', '123', '127', '134', '135', '110', '118', '73', '128'] 259.222222222222
51 5.184444444444443 ['31', '129', '138', '139', '130', '137', '145', '123', '127', '134', '135', '110', '118', '73', '128'] 259.222222222222
52 5.184444444444443 ['31', '129', '138', '139', '130', '137', '145', '123', '127', '134', '135', '110', '118', '73', '128'] 259.222222222222
53 5.184444444444443 ['31', '129', '138', '139', '130', '137', '145', '123', '127', '134', '135', '110', '118', '73', '128'] 259.222222222222
54 5.184444444444443 ['31', '129', '138', '139', '130', '137', '145', '123', '127', '134', '135', '110', '118', '73', '128'] 259.222222222222
55 5.184444444444443 ['31', '129', '138', '139', '130', '137', '145', '123', '127', '134', '135', '110', '118', '73', '128'] 259.222222222222
56 5.184444444444443 ['31', '129', '138', '139', '130', '137', '145', '123', '127', '134', '135', '110', '118', '73', '128'] 259.222222222222
57 5.184444444444443 ['31', '129', '138', '139', '130', '137', '145', '123', '127', '134', '135', '110', '118', '73', '128'] 259.222222222222
58 5.184444444444443 ['31', '129', '138', '139', '130', '137', '145', '123', '127', '134', '135', '110', '118', '73', '128'] 259.222222222222
59 5.184444444444443 ['31', '129', '138', '139', '130', '137', '145', '123', '127', '134', '135', '110', '118', '73', '128'] 259.222222222222
60 5.184444444444443 ['31', '129', '138', '139', '130', '137', '145', '123', '127', '134', '135', '110', '118', '73', '128'] 259.222222222222
61 5.184444444444443 ['31', '129', '138', '139', '130', '137', '145', '123', '127', '134', '135', '110', '118', '73', '128'] 259.222222222222
62 5.184444444444443 ['31', '129', '138', '139', '130', '137', '145', '123', '127', '134', '135', '110', '118', '73', '128'] 259.222222222222
63 5.184444444444443 ['31', '129', '138', '139', '130', '137', '145', '123', '127', '134', '135', '110', '118', '73', '128'] 259.222222222222
64 5.184444444444443 ['31', '129', '138', '139', '130', '137', '145', '123', '127', '134', '135', '110', '118', '73', '128'] 259.222222222222
65 5.184444444444443 ['31', '129', '138', '139', '130', '137', '145', '123', '127', '134', '135', '110', '118', '73', '128'] 259.222222222222
66 5.184444444444443 ['31', '129', '138', '139', '130', '137', '145', '123', '127', '134', '135', '110', '118', '73', '128'] 259.222222222222
67 5.184444444444443 ['31', '129', '138', '139', '130', '137', '145', '123', '127', '134', '135', '110', '118', '73', '128'] 259.222222222222
68 5.184444444444443 ['31', '129', '138', '139', '130', '137', '145', '123', '127', '134', '135', '110', '118', '73', '128'] 259.222222222222
69 5.184444444444443 ['31', '129', '138', '139', '130', '137', '145', '123', '127', '134', '135', '110', '118', '73', '128'] 259.222222222222
70 5.184444444444443 ['31', '129', '138', '139', '130', '137', '145', '123', '127', '134', '135', '110', '118', '73', '128'] 259.222222222222
71 5.184444444444443 ['31', '129', '138', '139', '130', '137', '145', '123', '127', '134', '135', '110', '118', '73', '128'] 259.222222222222
72 5.184444444444443 ['31', '129', '138', '139', '130', '137', '145', '123', '127', '134', '135', '110', '118', '73', '128'] 259.222222222222
73 5.184444444444443 ['31', '129', '138', '139', '130', '137', '145', '123', '127', '134', '135', '110', '118', '73', '128'] 259.222222222222
74 5.184444444444443 ['31', '129', '138', '139', '130', '137', '145', '123', '127', '134', '135', '110', '118', '73', '128'] 259.222222222222
75 5.184444444444443 ['31', '129', '138', '139', '130', '137', '145', '123', '127', '134', '135', '110', '118', '73', '128'] 259.222222222222
76 5.184444444444443 ['31', '129', '138', '139', '130', '137', '145', '123', '127', '134', '135', '110', '118', '73', '128'] 259.222222222222
77 5.184444444444443 ['31', '129', '138', '139', '130', '137', '145', '123', '127', '134', '135', '110', '118', '73', '128'] 259.222222222222
78 5.184444444444443 ['31', '129', '138', '139', '130', '137', '145', '123', '127', '134', '135', '110', '118', '73', '128'] 259.222222222222
79 5.184444444444443 ['31', '129', '138', '139', '130', '137', '145', '123', '127', '134', '135', '110', '118', '73', '128'] 259.222222222222
80 5.184444444444443 ['31', '129', '138', '139', '130', '137', '145', '123', '127', '134', '135', '110', '118', '73', '128'] 259.222222222222
81 5.184444444444443 ['31', '129', '138', '139', '130', '137', '145', '123', '127', '134', '135', '110', '118', '73', '128'] 259.222222222222
82 5.184444444444443 ['31', '129', '138', '139', '130', '137', '145', '123', '127', '134', '135', '110', '118', '73', '128'] 259.222222222222
83 5.184444444444443 ['31', '129', '138', '139', '130', '137', '145', '123', '127', '134', '135', '110', '118', '73', '128'] 259.222222222222
84 5.184444444444443 ['31', '129', '138', '139', '130', '137', '145', '123', '127', '134', '135', '110', '118', '73', '128'] 259.222222222222
85 5.184444444444443 ['31', '129', '138', '139', '130', '137', '145', '123', '127', '134', '135', '110', '118', '73', '128'] 259.222222222222
86 5.184444444444443 ['31', '129', '138', '139', '130', '137', '145', '123', '127', '134', '135', '110', '118', '73', '128'] 259.222222222222
87 5.184444444444443 ['31', '129', '138', '139', '130', '137', '145', '123', '127', '134', '135', '110', '118', '73', '128'] 259.222222222222
88 5.184444444444443 ['31', '129', '138', '139', '130', '137', '145', '123', '127', '134', '135', '110', '118', '73', '128'] 259.222222222222
89 5.184444444444443 ['31', '129', '138', '139', '130', '137', '145', '123', '127', '134', '135', '110', '118', '73', '128'] 259.222222222222
90 5.184444444444443 ['31', '129', '138', '139', '130', '137', '145', '123', '127', '134', '135', '110', '118', '73', '128'] 259.222222222222
91 5.184444444444443 ['31', '129', '138', '139', '130', '137', '145', '123', '127', '134', '135', '110', '118', '73', '128'] 259.222222222222
92 5.184444444444443 ['31', '129', '138', '139', '130', '137', '145', '123', '127', '134', '135', '110', '118', '73', '128'] 259.222222222222
93 5.184444444444443 ['31', '129', '138', '139', '130', '137', '145', '123', '127', '134', '135', '110', '118', '73', '128'] 259.222222222222
94 5.184444444444443 ['31', '129', '138', '139', '130', '137', '145', '123', '127', '134', '135', '110', '118', '73', '128'] 259.222222222222
95 5.184444444444443 ['31', '129', '138', '139', '130', '137', '145', '123', '127', '134', '135', '110', '118', '73', '128'] 259.222222222222
96 5.184444444444443 ['31', '129', '138', '139', '130', '137', '145', '123', '127', '134', '135', '110', '118', '73', '128'] 259.222222222222
97 5.184444444444443 ['31', '129', '138', '139', '130', '137', '145', '123', '127', '134', '135', '110', '118', '73', '128'] 259.222222222222
98 5.184444444444443 ['31', '129', '138', '139', '130', '137', '145', '123', '127', '134', '135', '110', '118', '73', '128'] 259.222222222222
99 5.184444444444443 ['31', '129', '138', '139', '130', '137', '145', '123', '127', '134', '135', '110', '118', '73', '128'] 259.222222222222
100 5.184444444444443 ['31', '129', '138', '139', '130', '137', '145', '123', '127', '134', '135', '110', '118', '73', '128'] 259.222222222222
101 5.184444444444443 ['31', '129', '138', '139', '130', '137', '145', '123', '127', '134', '135', '110', '118', '73', '128'] 259.222222222222
102 5.184444444444443 ['31', '129', '138', '139', '130', '137', '145', '123', '127', '134', '135', '110', '118', '73', '128'] 259.222222222222
103 5.184444444444443 ['31', '129', '138', '139', '130', '137', '145', '123', '127', '134', '135', '110', '118', '73', '128'] 259.222222222222
104 5.184444444444443 ['31', '129', '138', '139', '130', '137', '145', '123', '127', '134', '135', '110', '118', '73', '128'] 259.222222222222
105 5.184444444444443 ['31', '129', '138', '139', '130', '137', '145', '123', '127', '134', '135', '110', '118', '73', '128'] 259.222222222222
106 5.184444444444443 ['31', '129', '138', '139', '130', '137', '145', '123', '127', '134', '135', '110', '118', '73', '128'] 259.222222222222
107 5.184444444444443 ['31', '129', '138', '139', '130', '137', '145', '123', '127', '134', '135', '110', '118', '73', '128'] 259.222222222222
108 5.184444444444443 ['31', '129', '138', '139', '130', '137', '145', '123', '127', '134', '135', '110', '118', '73', '128'] 259.222222222222
109 5.184444444444443 ['31', '129', '138', '139', '130', '137', '145', '123', '127', '134', '135', '110', '118', '73', '128'] 259.222222222222
110 5.184444444444443 ['31', '129', '138', '139', '130', '137', '145', '123', '127', '134', '135', '110', '118', '73', '128'] 259.222222222222
111 5.184444444444443 ['31', '129', '138', '139', '130', '137', '145', '123', '127', '134', '135', '110', '118', '73', '128'] 259.222222222222
112 5.184444444444443 ['31', '129', '138', '139', '130', '137', '145', '123', '127', '134', '135', '110', '118', '73', '128'] 259.222222222222
113 5.184444444444443 ['31', '129', '138', '139', '130', '137', '145', '123', '127', '134', '135', '110', '118', '73', '128'] 259.222222222222
114 5.184444444444443 ['31', '129', '138', '139', '130', '137', '145', '123', '127', '134', '135', '110', '118', '73', '128'] 259.222222222222
115 5.184444444444443 ['31', '129', '138', '139', '130', '137', '145', '123', '127', '134', '135', '110', '118', '73', '128'] 259.222222222222
116 5.184444444444443 ['31', '129', '138', '139', '130', '137', '145', '123', '127', '134', '135', '110', '118', '73', '128'] 259.222222222222
117 5.184444444444443 ['31', '129', '138', '139', '130', '137', '145', '123', '127', '134', '135', '110', '118', '73', '128'] 259.222222222222
118 5.184444444444443 ['31', '129', '138', '139', '130', '137', '145', '123', '127', '134', '135', '110', '118', '73', '128'] 259.222222222222
119 5.184444444444443 ['31', '129', '138', '139', '130', '137', '145', '123', '127', '134', '135', '110', '118', '73', '128'] 259.222222222222
120 5.184444444444443 ['31', '129', '138', '139', '130', '137', '145', '123', '127', '134', '135', '110', '118', '73', '128'] 259.222222222222
121 5.184444444444443 ['31', '129', '138', '139', '130', '137', '145', '123', '127', '134', '135', '110', '118', '73', '128'] 259.222222222222
122 5.184444444444443 ['31', '129', '138', '139', '130', '137', '145', '123', '127', '134', '135', '110', '118', '73', '128'] 259.222222222222
123 5.184444444444443 ['31', '129', '138', '139', '130', '137', '145', '123', '127', '134', '135', '110', '118', '73', '128'] 259.222222222222
124 5.184444444444443 ['31', '129', '138', '139', '130', '137', '145', '123', '127', '134', '135', '110', '118', '73', '128'] 259.222222222222
125 5.184444444444443 ['31', '129', '138', '139', '130', '137', '145', '123', '127', '134', '135', '110', '118', '73', '128'] 259.222222222222
126 5.184444444444443 ['31', '129', '138', '139', '130', '137', '145', '123', '127', '134', '135', '110', '118', '73', '128'] 259.222222222222
127 5.184444444444443 ['31', '129', '138', '139', '130', '137', '145', '123', '127', '134', '135', '110', '118', '73', '128'] 259.222222222222
128 5.184444444444443 ['31', '129', '138', '139', '130', '137', '145', '123', '127', '134', '135', '110', '118', '73', '128'] 259.222222222222
129 5.184444444444443 ['31', '129', '138', '139', '130', '137', '145', '123', '127', '134', '135', '110', '118', '73', '128'] 259.222222222222
130 5.184444444444443 ['31', '129', '138', '139', '130', '137', '145', '123', '127', '134', '135', '110', '118', '73', '128'] 259.222222222222
131 5.184444444444443 ['31', '129', '138', '139', '130', '137', '145', '123', '127', '134', '135', '110', '118', '73', '128'] 259.222222222222
132 5.184444444444443 ['31', '129', '138', '139', '130', '137', '145', '123', '127', '134', '135', '110', '118', '73', '128'] 259.222222222222
133 5.184444444444443 ['31', '129', '138', '139', '130', '137', '145', '123', '127', '134', '135', '110', '118', '73', '128'] 259.222222222222
134 5.184444444444443 ['31', '129', '138', '139', '130', '137', '145', '123', '127', '134', '135', '110', '118', '73', '128'] 259.222222222222
135 5.184444444444443 ['31', '129', '138', '139', '130', '137', '145', '123', '127', '134', '135', '110', '118', '73', '128'] 259.222222222222
136 5.184444444444443 ['31', '129', '138', '139', '130', '137', '145', '123', '127', '134', '135', '110', '118', '73', '128'] 259.222222222222
137 5.184444444444443 ['31', '129', '138', '139', '130', '137', '145', '123', '127', '134', '135', '110', '118', '73', '128'] 259.222222222222
138 5.184444444444443 ['31', '129', '138', '139', '130', '137', '145', '123', '127', '134', '135', '110', '118', '73', '128'] 259.222222222222
139 5.184444444444443 ['31', '129', '138', '139', '130', '137', '145', '123', '127', '134', '135', '110', '118', '73', '128'] 259.222222222222
140 5.184444444444443 ['31', '129', '138', '139', '130', '137', '145', '123', '127', '134', '135', '110', '118', '73', '128'] 259.222222222222
141 5.184444444444443 ['31', '129', '138', '139', '130', '137', '145', '123', '127', '134', '135', '110', '118', '73', '128'] 259.222222222222
142 5.184444444444443 ['31', '129', '138', '139', '130', '137', '145', '123', '127', '134', '135', '110', '118', '73', '128'] 259.222222222222
143 5.184444444444443 ['31', '129', '138', '139', '130', '137', '145', '123', '127', '134', '135', '110', '118', '73', '128'] 259.222222222222
144 5.184444444444443 ['31', '129', '138', '139', '130', '137', '145', '123', '127', '134', '135', '110', '118', '73', '128'] 259.222222222222
145 5.184444444444443 ['31', '129', '138', '139', '130', '137', '145', '123', '127', '134', '135', '110', '118', '73', '128'] 259.222222222222
146 5.184444444444443 ['31', '129', '138', '139', '130', '137', '145', '123', '127', '134', '135', '110', '118', '73', '128'] 259.222222222222
147 5.184444444444443 ['31', '129', '138', '139', '130', '137', '145', '123', '127', '134', '135', '110', '118', '73', '128'] 259.222222222222
148 5.184444444444443 ['31', '129', '138', '139', '130', '137', '145', '123', '127', '134', '135', '110', '118', '73', '128'] 259.222222222222
149 5.184444444444443 ['31', '129', '138', '139', '130', '137', '145', '123', '127', '134', '135', '110', '118', '73', '128'] 259.222222222222
150 5.184444444444443 ['31', '129', '138', '139', '130', '137', '145', '123', '127', '134', '135', '110', '118', '73', '128'] 259.222222222222
151 5.184444444444443 ['31', '129', '138', '139', '130', '137', '145', '123', '127', '134', '135', '110', '118', '73', '128'] 259.222222222222
152 5.184444444444443 ['31', '129', '138', '139', '130', '137', '145', '123', '127', '134', '135', '110', '118', '73', '128'] 259.222222222222
153 5.184444444444443 ['31', '129', '138', '139', '130', '137', '145', '123', '127', '134', '135', '110', '118', '73', '128'] 259.222222222222
154 5.184444444444443 ['31', '129', '138', '139', '130', '137', '145', '123', '127', '134', '135', '110', '118', '73', '128'] 259.222222222222
155 5.184444444444443 ['31', '129', '138', '139', '130', '137', '145', '123', '127', '134', '135', '110', '118', '73', '128'] 259.222222222222
156 5.184444444444443 ['31', '129', '138', '139', '130', '137', '145', '123', '127', '134', '135', '110', '118', '73', '128'] 259.222222222222
157 5.184444444444443 ['31', '129', '138', '139', '130', '137', '145', '123', '127', '134', '135', '110', '118', '73', '128'] 259.222222222222
158 5.184444444444443 ['31', '129', '138', '139', '130', '137', '145', '123', '127', '134', '135', '110', '118', '73', '128'] 259.222222222222
159 5.184444444444443 ['31', '129', '138', '139', '130', '137', '145', '123', '127', '134', '135', '110', '118', '73', '128'] 259.222222222222
160 5.184444444444443 ['31', '129', '138', '139', '130', '137', '145', '123', '127', '134', '135', '110', '118', '73', '128'] 259.222222222222
161 5.184444444444443 ['31', '129', '138', '139', '130', '137', '145', '123', '127', '134', '135', '110', '118', '73', '128'] 259.222222222222
162 5.184444444444443 ['31', '129', '138', '139', '130', '137', '145', '123', '127', '134', '135', '110', '118', '73', '128'] 259.222222222222
163 5.184444444444443 ['31', '129', '138', '139', '130', '137', '145', '123', '127', '134', '135', '110', '118', '73', '128'] 259.222222222222
164 5.184444444444443 ['31', '129', '138', '139', '130', '137', '145', '123', '127', '134', '135', '110', '118', '73', '128'] 259.222222222222
165 5.184444444444443 ['31', '129', '138', '139', '130', '137', '145', '123', '127', '134', '135', '110', '118', '73', '128'] 259.222222222222
166 5.184444444444443 ['31', '129', '138', '139', '130', '137', '145', '123', '127', '134', '135', '110', '118', '73', '128'] 259.222222222222
167 5.184444444444443 ['31', '129', '138', '139', '130', '137', '145', '123', '127', '134', '135', '110', '118', '73', '128'] 259.222222222222
168 5.184444444444443 ['31', '129', '138', '139', '130', '137', '145', '123', '127', '134', '135', '110', '118', '73', '128'] 259.222222222222
169 5.184444444444443 ['31', '129', '138', '139', '130', '137', '145', '123', '127', '134', '135', '110', '118', '73', '128'] 259.222222222222
170 5.184444444444443 ['31', '129', '138', '139', '130', '137', '145', '123', '127', '134', '135', '110', '118', '73', '128'] 259.222222222222
171 5.184444444444443 ['31', '129', '138', '139', '130', '137', '145', '123', '127', '134', '135', '110', '118', '73', '128'] 259.222222222222
172 5.184444444444443 ['31', '129', '138', '139', '130', '137', '145', '123', '127', '134', '135', '110', '118', '73', '128'] 259.222222222222
173 5.184444444444443 ['31', '129', '138', '139', '130', '137', '145', '123', '127', '134', '135', '110', '118', '73', '128'] 259.222222222222
174 5.184444444444443 ['31', '129', '138', '139', '130', '137', '145', '123', '127', '134', '135', '110', '118', '73', '128'] 259.222222222222
175 5.184444444444443 ['31', '129', '138', '139', '130', '137', '145', '123', '127', '134', '135', '110', '118', '73', '128'] 259.222222222222
176 5.184444444444443 ['31', '129', '138', '139', '130', '137', '145', '123', '127', '134', '135', '110', '118', '73', '128'] 259.222222222222
177 5.184444444444443 ['31', '129', '138', '139', '130', '137', '145', '123', '127', '134', '135', '110', '118', '73', '128'] 259.222222222222
178 5.184444444444443 ['31', '129', '138', '139', '130', '137', '145', '123', '127', '134', '135', '110', '118', '73', '128'] 259.222222222222
179 5.184444444444443 ['31', '129', '138', '139', '130', '137', '145', '123', '127', '134', '135', '110', '118', '73', '128'] 259.222222222222
180 5.184444444444443 ['31', '129', '138', '139', '130', '137', '145', '123', '127', '134', '135', '110', '118', '73', '128'] 259.222222222222
181 5.184444444444443 ['31', '129', '138', '139', '130', '137', '145', '123', '127', '134', '135', '110', '118', '73', '128'] 259.222222222222
182 5.184444444444443 ['31', '129', '138', '139', '130', '137', '145', '123', '127', '134', '135', '110', '118', '73', '128'] 259.222222222222
183 5.184444444444443 ['31', '129', '138', '139', '130', '137', '145', '123', '127', '134', '135', '110', '118', '73', '128'] 259.222222222222
184 5.184444444444443 ['31', '129', '138', '139', '130', '137', '145', '123', '127', '134', '135', '110', '118', '73', '128'] 259.222222222222
185 5.184444444444443 ['31', '129', '138', '139', '130', '137', '145', '123', '127', '134', '135', '110', '118', '73', '128'] 259.222222222222
186 5.184444444444443 ['31', '129', '138', '139', '130', '137', '145', '123', '127', '134', '135', '110', '118', '73', '128'] 259.222222222222
187 5.184444444444443 ['31', '129', '138', '139', '130', '137', '145', '123', '127', '134', '135', '110', '118', '73', '128'] 259.222222222222
188 5.184444444444443 ['31', '129', '138', '139', '130', '137', '145', '123', '127', '134', '135', '110', '118', '73', '128'] 259.222222222222
189 5.184444444444443 ['31', '129', '138', '139', '130', '137', '145', '123', '127', '134', '135', '110', '118', '73', '128'] 259.222222222222
190 5.184444444444443 ['31', '129', '138', '139', '130', '137', '145', '123', '127', '134', '135', '110', '118', '73', '128'] 259.222222222222
191 5.184444444444443 ['31', '129', '138', '139', '130', '137', '145', '123', '127', '134', '135', '110', '118', '73', '128'] 259.222222222222
192 5.184444444444443 ['31', '129', '138', '139', '130', '137', '145', '123', '127', '134', '135', '110', '118', '73', '128'] 259.222222222222
193 5.184444444444443 ['31', '129', '138', '139', '130', '137', '145', '123', '127', '134', '135', '110', '118', '73', '128'] 259.222222222222
194 5.184444444444443 ['31', '129', '138', '139', '130', '137', '145', '123', '127', '134', '135', '110', '118', '73', '128'] 259.222222222222
195 5.184444444444443 ['31', '129', '138', '139', '130', '137', '145', '123', '127', '134', '135', '110', '118', '73', '128'] 259.222222222222
196 5.184444444444443 ['31', '129', '138', '139', '130', '137', '145', '123', '127', '134', '135', '110', '118', '73', '128'] 259.222222222222
197 5.184444444444443 ['31', '129', '138', '139', '130', '137', '145', '123', '127', '134', '135', '110', '118', '73', '128'] 259.222222222222
198 5.184444444444443 ['31', '129', '138', '139', '130', '137', '145', '123', '127', '134', '135', '110', '118', '73', '128'] 259.222222222222
199 5.184444444444443 ['31', '129', '138', '139', '130', '137', '145', '123', '127', '134', '135', '110', '118', '73', '128'] 259.222222222222
