0 5.321111111111116 ['138', '7', '50', '89', '61', '143', '125', '9', '131', '80', '119', '4', '87', '149', '43'] 270.9617283950619
1 5.321111111111116 ['138', '7', '50', '89', '61', '143', '125', '9', '131', '80', '119', '4', '87', '149', '43'] 269.80592592592603
2 5.316666666666671 ['100', '102', '137', '112', '76', '86', '62', '129', '140', '128', '25', '50', '59', '141', '113'] 268.9203703703705
3 5.310123456790127 ['119', '4', '44', '45', '80', '61', '149', '140', '143', '87', '109', '117', '148', '13', '99'] 268.2739506172842
4 5.21987654320988 ['144', '147', '82', '99', '119', '136', '121', '133', '59', '10', '115', '124', '87', '84', '108'] 267.3334567901236
5 5.21987654320988 ['144', '147', '82', '99', '119', '136', '121', '133', '59', '10', '115', '124', '87', '84', '108'] 266.4961728395064
6 5.21987654320988 ['144', '147', '82', '99', '119', '136', '121', '133', '59', '10', '115', '124', '87', '84', '108'] 265.873827160494
7 5.219259259259266 ['108', '121', '99', '133', '10', '87', '119', '137', '115', '9', '124', '143', '79', '84', '149'] 264.9591358024693
8 5.219259259259266 ['108', '121', '99', '133', '10', '87', '119', '137', '115', '9', '124', '143', '79', '84', '149'] 264.0165432098768
9 5.219259259259266 ['108', '121', '99', '133', '10', '87', '119', '137', '115', '9', '124', '143', '79', '84', '149'] 263.33888888888913
10 5.201358024691362 ['109', '148', '137', '140', '92', '9', '135', '146', '108', '88', '147', '117', '143', '150', '83'] 262.74876543209905
11 5.199012345679017 ['99', '13', '141', '143', '149', '109', '119', '137', '50', '11', '117', '87', '136', '113', '79'] 262.17567901234594
12 5.199012345679017 ['99', '13', '141', '143', '149', '109', '119', '137', '50', '11', '117', '87', '136', '113', '79'] 261.668765432099
13 5.17814814814815 ['140', '9', '143', '149', '137', '109', '131', '144', '150', '135', '117', '43', '79', '136', '22'] 260.9935802469138
14 5.143580246913585 ['140', '109', '143', '137', '135', '136', '149', '22', '117', '131', '133', '79', '119', '87', '40'] 260.41074074074095
15 5.113333333333341 ['99', '141', '149', '109', '143', '87', '119', '131', '79', '88', '140', '132', '50', '136', '138'] 259.732839506173
16 5.106790123456794 ['79', '140', '117', '143', '109', '149', '141', '138', '113', '99', '137', '144', '50', '136', '131'] 258.9229629629632
17 5.106790123456794 ['79', '140', '117', '143', '109', '149', '141', '138', '113', '99', '137', '144', '50', '136', '131'] 258.11395061728416
18 5.092962962962967 ['149', '140', '109', '136', '131', '137', '117', '143', '79', '138', '119', '135', '87', '57', '141'] 257.15444444444466
19 5.063456790123459 ['140', '137', '143', '132', '131', '109', '136', '149', '150', '144', '141', '88', '148', '79', '135'] 256.0291358024693
20 5.063456790123459 ['140', '137', '143', '132', '131', '109', '136', '149', '150', '144', '141', '88', '148', '79', '135'] 255.2290123456791
21 5.049506172839511 ['132', '141', '131', '140', '143', '150', '79', '135', '149', '109', '136', '87', '137', '148', '119'] 254.5180246913582
22 5.045185185185192 ['135', '149', '109', '140', '119', '131', '136', '79', '141', '143', '87', '124', '132', '99', '137'] 253.93975308641987
23 5.036790123456795 ['117', '143', '137', '136', '140', '149', '88', '79', '141', '109', '131', '150', '138', '50', '132'] 253.46753086419776
24 5.026419753086423 ['136', '50', '117', '143', '109', '141', '88', '149', '79', '131', '137', '150', '140', '138', '148'] 252.98740740740766
25 5.026419753086423 ['136', '50', '117', '143', '109', '141', '88', '149', '79', '131', '137', '150', '140', '138', '148'] 252.5896296296298
26 5.014074074074079 ['109', '79', '131', '141', '87', '143', '119', '137', '149', '117', '136', '140', '148', '132', '124'] 252.22703703703715
27 5.014074074074079 ['109', '79', '131', '141', '87', '143', '119', '137', '149', '117', '136', '140', '148', '132', '124'] 251.94407407407445
28 5.014074074074079 ['109', '79', '131', '141', '87', '143', '119', '137', '149', '117', '136', '140', '148', '132', '124'] 251.59876543209907
29 5.007901234567906 ['124', '131', '109', '137', '87', '141', '140', '119', '136', '143', '149', '132', '79', '148', '138'] 251.28740740740773
30 5.005802469135808 ['132', '137', '141', '79', '117', '136', '109', '131', '140', '148', '143', '149', '138', '124', '50'] 250.89481481481502
31 5.005802469135808 ['132', '137', '141', '79', '117', '136', '109', '131', '140', '148', '143', '149', '138', '124', '50'] 250.63407407407414
32 5.005802469135808 ['132', '137', '141', '79', '117', '136', '109', '131', '140', '148', '143', '149', '138', '124', '50'] 250.55629629629644
33 5.005802469135808 ['132', '137', '141', '79', '117', '136', '109', '131', '140', '148', '143', '149', '138', '124', '50'] 250.41839506172846
34 5.005802469135808 ['132', '137', '141', '79', '117', '136', '109', '131', '140', '148', '143', '149', '138', '124', '50'] 250.3887654320988
35 5.005802469135808 ['132', '137', '141', '79', '117', '136', '109', '131', '140', '148', '143', '149', '138', '124', '50'] 250.3866666666667
36 5.005802469135808 ['132', '137', '141', '79', '117', '136', '109', '131', '140', '148', '143', '149', '138', '124', '50'] 250.38456790123462
37 5.005802469135808 ['132', '137', '141', '79', '117', '136', '109', '131', '140', '148', '143', '149', '138', '124', '50'] 250.3803703703704
38 5.005802469135808 ['132', '137', '141', '79', '117', '136', '109', '131', '140', '148', '143', '149', '138', '124', '50'] 250.36567901234574
39 5.005802469135808 ['132', '137', '141', '79', '117', '136', '109', '131', '140', '148', '143', '149', '138', '124', '50'] 250.33839506172833
40 5.005802469135808 ['132', '137', '141', '79', '117', '136', '109', '131', '140', '148', '143', '149', '138', '124', '50'] 250.29012345679016
41 5.005802469135808 ['132', '137', '141', '79', '117', '136', '109', '131', '140', '148', '143', '149', '138', '124', '50'] 250.29012345679016
42 5.005802469135808 ['132', '137', '141', '79', '117', '136', '109', '131', '140', '148', '143', '149', '138', '124', '50'] 250.29012345679016
43 5.005802469135808 ['132', '137', '141', '79', '117', '136', '109', '131', '140', '148', '143', '149', '138', '124', '50'] 250.29012345679016
44 5.005802469135808 ['132', '137', '141', '79', '117', '136', '109', '131', '140', '148', '143', '149', '138', '124', '50'] 250.29012345679016
45 5.005802469135808 ['132', '137', '141', '79', '117', '136', '109', '131', '140', '148', '143', '149', '138', '124', '50'] 250.29012345679016
46 5.005802469135808 ['132', '137', '141', '79', '117', '136', '109', '131', '140', '148', '143', '149', '138', '124', '50'] 250.29012345679016
47 5.005802469135808 ['132', '137', '141', '79', '117', '136', '109', '131', '140', '148', '143', '149', '138', '124', '50'] 250.29012345679016
48 5.005802469135808 ['132', '137', '141', '79', '117', '136', '109', '131', '140', '148', '143', '149', '138', '124', '50'] 250.29012345679016
49 5.005802469135808 ['132', '137', '141', '79', '117', '136', '109', '131', '140', '148', '143', '149', '138', '124', '50'] 250.29012345679016
50 5.005802469135808 ['132', '137', '141', '79', '117', '136', '109', '131', '140', '148', '143', '149', '138', '124', '50'] 250.29012345679016
51 5.005802469135808 ['132', '137', '141', '79', '117', '136', '109', '131', '140', '148', '143', '149', '138', '124', '50'] 250.29012345679016
52 5.005802469135808 ['132', '137', '141', '79', '117', '136', '109', '131', '140', '148', '143', '149', '138', '124', '50'] 250.29012345679016
53 5.005802469135808 ['132', '137', '141', '79', '117', '136', '109', '131', '140', '148', '143', '149', '138', '124', '50'] 250.29012345679016
54 5.005802469135808 ['132', '137', '141', '79', '117', '136', '109', '131', '140', '148', '143', '149', '138', '124', '50'] 250.29012345679016
55 5.005802469135808 ['132', '137', '141', '79', '117', '136', '109', '131', '140', '148', '143', '149', '138', '124', '50'] 250.29012345679016
56 5.005802469135808 ['132', '137', '141', '79', '117', '136', '109', '131', '140', '148', '143', '149', '138', '124', '50'] 250.29012345679016
57 5.005802469135808 ['132', '137', '141', '79', '117', '136', '109', '131', '140', '148', '143', '149', '138', '124', '50'] 250.29012345679016
58 5.005802469135808 ['132', '137', '141', '79', '117', '136', '109', '131', '140', '148', '143', '149', '138', '124', '50'] 250.29012345679016
59 5.005802469135808 ['132', '137', '141', '79', '117', '136', '109', '131', '140', '148', '143', '149', '138', '124', '50'] 250.29012345679016
60 5.005802469135808 ['132', '137', '141', '79', '117', '136', '109', '131', '140', '148', '143', '149', '138', '124', '50'] 250.29012345679016
61 5.005802469135808 ['132', '137', '141', '79', '117', '136', '109', '131', '140', '148', '143', '149', '138', '124', '50'] 250.29012345679016
62 5.005802469135808 ['132', '137', '141', '79', '117', '136', '109', '131', '140', '148', '143', '149', '138', '124', '50'] 250.29012345679016
63 5.005802469135808 ['132', '137', '141', '79', '117', '136', '109', '131', '140', '148', '143', '149', '138', '124', '50'] 250.29012345679016
64 5.005802469135808 ['132', '137', '141', '79', '117', '136', '109', '131', '140', '148', '143', '149', '138', '124', '50'] 250.29012345679016
65 5.005802469135808 ['132', '137', '141', '79', '117', '136', '109', '131', '140', '148', '143', '149', '138', '124', '50'] 250.29012345679016
66 5.005802469135808 ['132', '137', '141', '79', '117', '136', '109', '131', '140', '148', '143', '149', '138', '124', '50'] 250.29012345679016
67 5.005802469135808 ['132', '137', '141', '79', '117', '136', '109', '131', '140', '148', '143', '149', '138', '124', '50'] 250.29012345679016
68 5.005802469135808 ['132', '137', '141', '79', '117', '136', '109', '131', '140', '148', '143', '149', '138', '124', '50'] 250.29012345679016
69 5.005802469135808 ['132', '137', '141', '79', '117', '136', '109', '131', '140', '148', '143', '149', '138', '124', '50'] 250.29012345679016
70 5.005802469135808 ['132', '137', '141', '79', '117', '136', '109', '131', '140', '148', '143', '149', '138', '124', '50'] 250.29012345679016
71 5.005802469135808 ['132', '137', '141', '79', '117', '136', '109', '131', '140', '148', '143', '149', '138', '124', '50'] 250.29012345679016
72 5.005802469135808 ['132', '137', '141', '79', '117', '136', '109', '131', '140', '148', '143', '149', '138', '124', '50'] 250.29012345679016
73 5.005802469135808 ['132', '137', '141', '79', '117', '136', '109', '131', '140', '148', '143', '149', '138', '124', '50'] 250.29012345679016
74 5.005802469135808 ['132', '137', '141', '79', '117', '136', '109', '131', '140', '148', '143', '149', '138', '124', '50'] 250.29012345679016
75 5.005802469135808 ['132', '137', '141', '79', '117', '136', '109', '131', '140', '148', '143', '149', '138', '124', '50'] 250.29012345679016
76 5.005802469135808 ['132', '137', '141', '79', '117', '136', '109', '131', '140', '148', '143', '149', '138', '124', '50'] 250.29012345679016
77 5.005802469135808 ['132', '137', '141', '79', '117', '136', '109', '131', '140', '148', '143', '149', '138', '124', '50'] 250.29012345679016
78 5.005802469135808 ['132', '137', '141', '79', '117', '136', '109', '131', '140', '148', '143', '149', '138', '124', '50'] 250.29012345679016
79 5.005802469135808 ['132', '137', '141', '79', '117', '136', '109', '131', '140', '148', '143', '149', '138', '124', '50'] 250.29012345679016
80 5.005802469135808 ['132', '137', '141', '79', '117', '136', '109', '131', '140', '148', '143', '149', '138', '124', '50'] 250.29012345679016
81 5.005802469135808 ['132', '137', '141', '79', '117', '136', '109', '131', '140', '148', '143', '149', '138', '124', '50'] 250.29012345679016
82 5.005802469135808 ['132', '137', '141', '79', '117', '136', '109', '131', '140', '148', '143', '149', '138', '124', '50'] 250.29012345679016
83 5.005802469135808 ['132', '137', '141', '79', '117', '136', '109', '131', '140', '148', '143', '149', '138', '124', '50'] 250.29012345679016
84 5.005802469135808 ['132', '137', '141', '79', '117', '136', '109', '131', '140', '148', '143', '149', '138', '124', '50'] 250.29012345679016
85 5.005802469135808 ['132', '137', '141', '79', '117', '136', '109', '131', '140', '148', '143', '149', '138', '124', '50'] 250.29012345679016
86 5.005802469135808 ['132', '137', '141', '79', '117', '136', '109', '131', '140', '148', '143', '149', '138', '124', '50'] 250.29012345679016
87 5.005802469135808 ['132', '137', '141', '79', '117', '136', '109', '131', '140', '148', '143', '149', '138', '124', '50'] 250.29012345679016
88 5.005802469135808 ['132', '137', '141', '79', '117', '136', '109', '131', '140', '148', '143', '149', '138', '124', '50'] 250.29012345679016
89 5.005802469135808 ['132', '137', '141', '79', '117', '136', '109', '131', '140', '148', '143', '149', '138', '124', '50'] 250.29012345679016
90 5.005802469135808 ['132', '137', '141', '79', '117', '136', '109', '131', '140', '148', '143', '149', '138', '124', '50'] 250.29012345679016
91 5.005802469135808 ['132', '137', '141', '79', '117', '136', '109', '131', '140', '148', '143', '149', '138', '124', '50'] 250.29012345679016
92 5.005802469135808 ['132', '137', '141', '79', '117', '136', '109', '131', '140', '148', '143', '149', '138', '124', '50'] 250.29012345679016
93 5.005802469135808 ['132', '137', '141', '79', '117', '136', '109', '131', '140', '148', '143', '149', '138', '124', '50'] 250.29012345679016
94 5.005802469135808 ['132', '137', '141', '79', '117', '136', '109', '131', '140', '148', '143', '149', '138', '124', '50'] 250.29012345679016
95 5.005802469135808 ['132', '137', '141', '79', '117', '136', '109', '131', '140', '148', '143', '149', '138', '124', '50'] 250.29012345679016
96 5.005802469135808 ['132', '137', '141', '79', '117', '136', '109', '131', '140', '148', '143', '149', '138', '124', '50'] 250.29012345679016
97 5.005802469135808 ['132', '137', '141', '79', '117', '136', '109', '131', '140', '148', '143', '149', '138', '124', '50'] 250.29012345679016
98 5.005802469135808 ['132', '137', '141', '79', '117', '136', '109', '131', '140', '148', '143', '149', '138', '124', '50'] 250.29012345679016
99 5.005802469135808 ['132', '137', '141', '79', '117', '136', '109', '131', '140', '148', '143', '149', '138', '124', '50'] 250.29012345679016
100 5.005802469135808 ['132', '137', '141', '79', '117', '136', '109', '131', '140', '148', '143', '149', '138', '124', '50'] 250.29012345679016
101 5.005802469135808 ['132', '137', '141', '79', '117', '136', '109', '131', '140', '148', '143', '149', '138', '124', '50'] 250.29012345679016
102 5.005802469135808 ['132', '137', '141', '79', '117', '136', '109', '131', '140', '148', '143', '149', '138', '124', '50'] 250.29012345679016
103 5.005802469135808 ['132', '137', '141', '79', '117', '136', '109', '131', '140', '148', '143', '149', '138', '124', '50'] 250.29012345679016
104 5.005802469135808 ['132', '137', '141', '79', '117', '136', '109', '131', '140', '148', '143', '149', '138', '124', '50'] 250.29012345679016
105 5.005802469135808 ['132', '137', '141', '79', '117', '136', '109', '131', '140', '148', '143', '149', '138', '124', '50'] 250.29012345679016
106 5.005802469135808 ['132', '137', '141', '79', '117', '136', '109', '131', '140', '148', '143', '149', '138', '124', '50'] 250.29012345679016
107 5.005802469135808 ['132', '137', '141', '79', '117', '136', '109', '131', '140', '148', '143', '149', '138', '124', '50'] 250.29012345679016
108 5.005802469135808 ['132', '137', '141', '79', '117', '136', '109', '131', '140', '148', '143', '149', '138', '124', '50'] 250.29012345679016
109 5.005802469135808 ['132', '137', '141', '79', '117', '136', '109', '131', '140', '148', '143', '149', '138', '124', '50'] 250.29012345679016
110 5.005802469135808 ['132', '137', '141', '79', '117', '136', '109', '131', '140', '148', '143', '149', '138', '124', '50'] 250.29012345679016
111 5.005802469135808 ['132', '137', '141', '79', '117', '136', '109', '131', '140', '148', '143', '149', '138', '124', '50'] 250.29012345679016
112 5.005802469135808 ['132', '137', '141', '79', '117', '136', '109', '131', '140', '148', '143', '149', '138', '124', '50'] 250.29012345679016
113 5.005802469135808 ['132', '137', '141', '79', '117', '136', '109', '131', '140', '148', '143', '149', '138', '124', '50'] 250.29012345679016
114 5.005802469135808 ['132', '137', '141', '79', '117', '136', '109', '131', '140', '148', '143', '149', '138', '124', '50'] 250.29012345679016
115 5.005802469135808 ['132', '137', '141', '79', '117', '136', '109', '131', '140', '148', '143', '149', '138', '124', '50'] 250.29012345679016
116 5.005802469135808 ['132', '137', '141', '79', '117', '136', '109', '131', '140', '148', '143', '149', '138', '124', '50'] 250.29012345679016
117 5.005802469135808 ['132', '137', '141', '79', '117', '136', '109', '131', '140', '148', '143', '149', '138', '124', '50'] 250.29012345679016
118 5.005802469135808 ['132', '137', '141', '79', '117', '136', '109', '131', '140', '148', '143', '149', '138', '124', '50'] 250.29012345679016
119 5.005802469135808 ['132', '137', '141', '79', '117', '136', '109', '131', '140', '148', '143', '149', '138', '124', '50'] 250.29012345679016
120 5.005802469135808 ['132', '137', '141', '79', '117', '136', '109', '131', '140', '148', '143', '149', '138', '124', '50'] 250.29012345679016
121 5.005802469135808 ['132', '137', '141', '79', '117', '136', '109', '131', '140', '148', '143', '149', '138', '124', '50'] 250.29012345679016
122 5.005802469135808 ['132', '137', '141', '79', '117', '136', '109', '131', '140', '148', '143', '149', '138', '124', '50'] 250.29012345679016
123 5.005802469135808 ['132', '137', '141', '79', '117', '136', '109', '131', '140', '148', '143', '149', '138', '124', '50'] 250.29012345679016
124 5.005802469135808 ['132', '137', '141', '79', '117', '136', '109', '131', '140', '148', '143', '149', '138', '124', '50'] 250.29012345679016
125 5.005802469135808 ['132', '137', '141', '79', '117', '136', '109', '131', '140', '148', '143', '149', '138', '124', '50'] 250.29012345679016
126 5.005802469135808 ['132', '137', '141', '79', '117', '136', '109', '131', '140', '148', '143', '149', '138', '124', '50'] 250.29012345679016
127 5.005802469135808 ['132', '137', '141', '79', '117', '136', '109', '131', '140', '148', '143', '149', '138', '124', '50'] 250.29012345679016
128 5.005802469135808 ['132', '137', '141', '79', '117', '136', '109', '131', '140', '148', '143', '149', '138', '124', '50'] 250.29012345679016
129 5.005802469135808 ['132', '137', '141', '79', '117', '136', '109', '131', '140', '148', '143', '149', '138', '124', '50'] 250.29012345679016
130 5.005802469135808 ['132', '137', '141', '79', '117', '136', '109', '131', '140', '148', '143', '149', '138', '124', '50'] 250.29012345679016
131 5.005802469135808 ['132', '137', '141', '79', '117', '136', '109', '131', '140', '148', '143', '149', '138', '124', '50'] 250.29012345679016
132 5.005802469135808 ['132', '137', '141', '79', '117', '136', '109', '131', '140', '148', '143', '149', '138', '124', '50'] 250.29012345679016
133 5.005802469135808 ['132', '137', '141', '79', '117', '136', '109', '131', '140', '148', '143', '149', '138', '124', '50'] 250.29012345679016
134 5.005802469135808 ['132', '137', '141', '79', '117', '136', '109', '131', '140', '148', '143', '149', '138', '124', '50'] 250.29012345679016
135 5.005802469135808 ['132', '137', '141', '79', '117', '136', '109', '131', '140', '148', '143', '149', '138', '124', '50'] 250.29012345679016
136 5.005802469135808 ['132', '137', '141', '79', '117', '136', '109', '131', '140', '148', '143', '149', '138', '124', '50'] 250.29012345679016
137 5.005802469135808 ['132', '137', '141', '79', '117', '136', '109', '131', '140', '148', '143', '149', '138', '124', '50'] 250.29012345679016
138 5.005802469135808 ['132', '137', '141', '79', '117', '136', '109', '131', '140', '148', '143', '149', '138', '124', '50'] 250.29012345679016
139 5.005802469135808 ['132', '137', '141', '79', '117', '136', '109', '131', '140', '148', '143', '149', '138', '124', '50'] 250.29012345679016
140 5.005802469135808 ['132', '137', '141', '79', '117', '136', '109', '131', '140', '148', '143', '149', '138', '124', '50'] 250.29012345679016
141 5.005802469135808 ['132', '137', '141', '79', '117', '136', '109', '131', '140', '148', '143', '149', '138', '124', '50'] 250.29012345679016
142 5.005802469135808 ['132', '137', '141', '79', '117', '136', '109', '131', '140', '148', '143', '149', '138', '124', '50'] 250.29012345679016
143 5.005802469135808 ['132', '137', '141', '79', '117', '136', '109', '131', '140', '148', '143', '149', '138', '124', '50'] 250.29012345679016
144 5.005802469135808 ['132', '137', '141', '79', '117', '136', '109', '131', '140', '148', '143', '149', '138', '124', '50'] 250.29012345679016
145 5.005802469135808 ['132', '137', '141', '79', '117', '136', '109', '131', '140', '148', '143', '149', '138', '124', '50'] 250.29012345679016
146 5.005802469135808 ['132', '137', '141', '79', '117', '136', '109', '131', '140', '148', '143', '149', '138', '124', '50'] 250.29012345679016
147 5.005802469135808 ['132', '137', '141', '79', '117', '136', '109', '131', '140', '148', '143', '149', '138', '124', '50'] 250.29012345679016
148 5.005802469135808 ['132', '137', '141', '79', '117', '136', '109', '131', '140', '148', '143', '149', '138', '124', '50'] 250.29012345679016
149 5.005802469135808 ['132', '137', '141', '79', '117', '136', '109', '131', '140', '148', '143', '149', '138', '124', '50'] 250.29012345679016
150 5.005802469135808 ['132', '137', '141', '79', '117', '136', '109', '131', '140', '148', '143', '149', '138', '124', '50'] 250.29012345679016
151 5.005802469135808 ['132', '137', '141', '79', '117', '136', '109', '131', '140', '148', '143', '149', '138', '124', '50'] 250.29012345679016
152 5.005802469135808 ['132', '137', '141', '79', '117', '136', '109', '131', '140', '148', '143', '149', '138', '124', '50'] 250.29012345679016
153 5.005802469135808 ['132', '137', '141', '79', '117', '136', '109', '131', '140', '148', '143', '149', '138', '124', '50'] 250.29012345679016
154 5.005802469135808 ['132', '137', '141', '79', '117', '136', '109', '131', '140', '148', '143', '149', '138', '124', '50'] 250.29012345679016
155 5.005802469135808 ['132', '137', '141', '79', '117', '136', '109', '131', '140', '148', '143', '149', '138', '124', '50'] 250.29012345679016
156 5.005802469135808 ['132', '137', '141', '79', '117', '136', '109', '131', '140', '148', '143', '149', '138', '124', '50'] 250.29012345679016
157 5.005802469135808 ['132', '137', '141', '79', '117', '136', '109', '131', '140', '148', '143', '149', '138', '124', '50'] 250.29012345679016
158 5.005802469135808 ['132', '137', '141', '79', '117', '136', '109', '131', '140', '148', '143', '149', '138', '124', '50'] 250.29012345679016
159 5.005802469135808 ['132', '137', '141', '79', '117', '136', '109', '131', '140', '148', '143', '149', '138', '124', '50'] 250.29012345679016
160 5.005802469135808 ['132', '137', '141', '79', '117', '136', '109', '131', '140', '148', '143', '149', '138', '124', '50'] 250.29012345679016
161 5.005802469135808 ['132', '137', '141', '79', '117', '136', '109', '131', '140', '148', '143', '149', '138', '124', '50'] 250.29012345679016
162 5.005802469135808 ['132', '137', '141', '79', '117', '136', '109', '131', '140', '148', '143', '149', '138', '124', '50'] 250.29012345679016
163 5.005802469135808 ['132', '137', '141', '79', '117', '136', '109', '131', '140', '148', '143', '149', '138', '124', '50'] 250.29012345679016
164 5.005802469135808 ['132', '137', '141', '79', '117', '136', '109', '131', '140', '148', '143', '149', '138', '124', '50'] 250.29012345679016
165 5.005802469135808 ['132', '137', '141', '79', '117', '136', '109', '131', '140', '148', '143', '149', '138', '124', '50'] 250.29012345679016
166 5.005802469135808 ['132', '137', '141', '79', '117', '136', '109', '131', '140', '148', '143', '149', '138', '124', '50'] 250.29012345679016
167 5.005802469135808 ['132', '137', '141', '79', '117', '136', '109', '131', '140', '148', '143', '149', '138', '124', '50'] 250.29012345679016
168 5.005802469135808 ['132', '137', '141', '79', '117', '136', '109', '131', '140', '148', '143', '149', '138', '124', '50'] 250.29012345679016
169 5.005802469135808 ['132', '137', '141', '79', '117', '136', '109', '131', '140', '148', '143', '149', '138', '124', '50'] 250.29012345679016
170 5.005802469135808 ['132', '137', '141', '79', '117', '136', '109', '131', '140', '148', '143', '149', '138', '124', '50'] 250.29012345679016
171 5.005802469135808 ['132', '137', '141', '79', '117', '136', '109', '131', '140', '148', '143', '149', '138', '124', '50'] 250.29012345679016
172 5.005802469135808 ['132', '137', '141', '79', '117', '136', '109', '131', '140', '148', '143', '149', '138', '124', '50'] 250.29012345679016
173 5.005802469135808 ['132', '137', '141', '79', '117', '136', '109', '131', '140', '148', '143', '149', '138', '124', '50'] 250.29012345679016
174 5.005802469135808 ['132', '137', '141', '79', '117', '136', '109', '131', '140', '148', '143', '149', '138', '124', '50'] 250.29012345679016
175 5.005802469135808 ['132', '137', '141', '79', '117', '136', '109', '131', '140', '148', '143', '149', '138', '124', '50'] 250.29012345679016
176 5.005802469135808 ['132', '137', '141', '79', '117', '136', '109', '131', '140', '148', '143', '149', '138', '124', '50'] 250.29012345679016
177 5.005802469135808 ['132', '137', '141', '79', '117', '136', '109', '131', '140', '148', '143', '149', '138', '124', '50'] 250.29012345679016
178 5.005802469135808 ['132', '137', '141', '79', '117', '136', '109', '131', '140', '148', '143', '149', '138', '124', '50'] 250.29012345679016
179 5.005802469135808 ['132', '137', '141', '79', '117', '136', '109', '131', '140', '148', '143', '149', '138', '124', '50'] 250.29012345679016
180 5.005802469135808 ['132', '137', '141', '79', '117', '136', '109', '131', '140', '148', '143', '149', '138', '124', '50'] 250.29012345679016
181 5.005802469135808 ['132', '137', '141', '79', '117', '136', '109', '131', '140', '148', '143', '149', '138', '124', '50'] 250.29012345679016
182 5.005802469135808 ['132', '137', '141', '79', '117', '136', '109', '131', '140', '148', '143', '149', '138', '124', '50'] 250.29012345679016
183 5.005802469135808 ['132', '137', '141', '79', '117', '136', '109', '131', '140', '148', '143', '149', '138', '124', '50'] 250.29012345679016
184 5.005802469135808 ['132', '137', '141', '79', '117', '136', '109', '131', '140', '148', '143', '149', '138', '124', '50'] 250.29012345679016
185 5.005802469135808 ['132', '137', '141', '79', '117', '136', '109', '131', '140', '148', '143', '149', '138', '124', '50'] 250.29012345679016
186 5.005802469135808 ['132', '137', '141', '79', '117', '136', '109', '131', '140', '148', '143', '149', '138', '124', '50'] 250.29012345679016
187 5.005802469135808 ['132', '137', '141', '79', '117', '136', '109', '131', '140', '148', '143', '149', '138', '124', '50'] 250.29012345679016
188 5.005802469135808 ['132', '137', '141', '79', '117', '136', '109', '131', '140', '148', '143', '149', '138', '124', '50'] 250.29012345679016
189 5.005802469135808 ['132', '137', '141', '79', '117', '136', '109', '131', '140', '148', '143', '149', '138', '124', '50'] 250.29012345679016
190 5.005802469135808 ['132', '137', '141', '79', '117', '136', '109', '131', '140', '148', '143', '149', '138', '124', '50'] 250.29012345679016
191 5.005802469135808 ['132', '137', '141', '79', '117', '136', '109', '131', '140', '148', '143', '149', '138', '124', '50'] 250.29012345679016
192 5.005802469135808 ['132', '137', '141', '79', '117', '136', '109', '131', '140', '148', '143', '149', '138', '124', '50'] 250.29012345679016
193 5.005802469135808 ['132', '137', '141', '79', '117', '136', '109', '131', '140', '148', '143', '149', '138', '124', '50'] 250.29012345679016
194 5.005802469135808 ['132', '137', '141', '79', '117', '136', '109', '131', '140', '148', '143', '149', '138', '124', '50'] 250.29012345679016
195 5.005802469135808 ['132', '137', '141', '79', '117', '136', '109', '131', '140', '148', '143', '149', '138', '124', '50'] 250.29012345679016
196 5.005802469135808 ['132', '137', '141', '79', '117', '136', '109', '131', '140', '148', '143', '149', '138', '124', '50'] 250.29012345679016
197 5.005802469135808 ['132', '137', '141', '79', '117', '136', '109', '131', '140', '148', '143', '149', '138', '124', '50'] 250.29012345679016
198 5.005802469135808 ['132', '137', '141', '79', '117', '136', '109', '131', '140', '148', '143', '149', '138', '124', '50'] 250.29012345679016
199 5.005802469135808 ['132', '137', '141', '79', '117', '136', '109', '131', '140', '148', '143', '149', '138', '124', '50'] 250.29012345679016
