0 14.451851851851853 ['37', '101', '86', '28', '131', '150', '120', '83', '141', '113', '138', '16', '109', '136', '132'] 741.7481481481481
1 14.192592592592593 ['125', '138', '103', '36', '148', '86', '137', '126', '131', '113', '136', '132', '105', '51', '27'] 734.2962962962958
2 14.192592592592593 ['125', '138', '103', '36', '148', '86', '137', '126', '131', '113', '136', '132', '105', '51', '27'] 727.674074074074
3 14.022222222222222 ['137', '105', '81', '85', '132', '125', '136', '150', '102', '99', '113', '148', '115', '39', '131'] 721.1629629629625
4 14.022222222222222 ['137', '105', '81', '85', '132', '125', '136', '150', '102', '99', '113', '148', '115', '39', '131'] 716.5185185185184
5 13.903703703703703 ['120', '132', '138', '99', '125', '131', '86', '37', '126', '115', '149', '146', '150', '123', '137'] 710.8592592592596
6 13.903703703703703 ['120', '132', '138', '99', '125', '131', '86', '37', '126', '115', '149', '146', '150', '123', '137'] 706.6222222222226
7 13.866666666666667 ['102', '128', '125', '138', '113', '111', '54', '146', '139', '143', '131', '123', '134', '96', '136'] 702.3185185185185
8 13.837037037037037 ['113', '132', '137', '139', '138', '125', '149', '123', '126', '129', '136', '65', '118', '146', '107'] 698.4888888888893
9 13.725925925925926 ['139', '107', '138', '146', '125', '141', '132', '137', '129', '149', '2', '136', '135', '126', '115'] 695.3333333333331
10 13.681481481481482 ['136', '134', '123', '113', '132', '149', '125', '138', '139', '96', '143', '102', '137', '99', '146'] 692.2592592592598
11 13.614814814814816 ['136', '115', '141', '132', '135', '139', '137', '146', '150', '126', '148', '129', '149', '102', '138'] 689.2740740740741
12 13.614814814814816 ['136', '115', '141', '132', '135', '139', '137', '146', '150', '126', '148', '129', '149', '102', '138'] 687.2370370370363
13 13.614814814814816 ['136', '115', '141', '132', '135', '139', '137', '146', '150', '126', '148', '129', '149', '102', '138'] 685.0370370370372
14 13.577777777777778 ['149', '138', '139', '136', '137', '125', '132', '115', '146', '143', '150', '131', '145', '141', '113'] 683.2148148148146
15 13.562962962962963 ['132', '131', '138', '136', '125', '137', '146', '115', '145', '102', '139', '86', '149', '129', '148'] 681.7037037037034
16 13.533333333333333 ['125', '139', '137', '102', '136', '146', '115', '126', '138', '132', '113', '134', '148', '123', '150'] 680.014814814815
17 13.518518518518519 ['138', '139', '150', '141', '137', '125', '149', '136', '132', '146', '128', '86', '134', '123', '143'] 678.7629629629633
18 13.488888888888889 ['102', '148', '138', '115', '125', '137', '139', '146', '132', '136', '123', '131', '149', '150', '134'] 677.7555555555556
19 13.466666666666667 ['137', '139', '138', '102', '143', '134', '86', '115', '132', '136', '125', '146', '149', '150', '123'] 676.7555555555551
20 13.451851851851853 ['138', '139', '126', '125', '149', '132', '146', '137', '136', '102', '115', '135', '150', '148', '134'] 675.9333333333335
21 13.444444444444445 ['138', '143', '137', '132', '128', '125', '139', '102', '136', '146', '150', '149', '145', '135', '86'] 674.9259259259254
22 13.42962962962963 ['137', '132', '139', '149', '143', '136', '102', '125', '146', '86', '150', '138', '134', '135', '123'] 673.9999999999998
23 13.414814814814815 ['102', '136', '135', '139', '115', '146', '132', '138', '137', '134', '125', '150', '149', '143', '86'] 673.2222222222223
24 13.414814814814815 ['102', '136', '135', '139', '115', '146', '132', '138', '137', '134', '125', '150', '149', '143', '86'] 672.4666666666673
25 13.414814814814815 ['102', '136', '135', '139', '115', '146', '132', '138', '137', '134', '125', '150', '149', '143', '86'] 671.6592592592596
26 13.414814814814815 ['102', '136', '135', '139', '115', '146', '132', '138', '137', '134', '125', '150', '149', '143', '86'] 671.1703703703703
27 13.414814814814815 ['102', '136', '135', '139', '115', '146', '132', '138', '137', '134', '125', '150', '149', '143', '86'] 670.9185185185182
28 13.414814814814815 ['102', '136', '135', '139', '115', '146', '132', '138', '137', '134', '125', '150', '149', '143', '86'] 670.7407407407403
29 13.414814814814815 ['102', '136', '135', '139', '115', '146', '132', '138', '137', '134', '125', '150', '149', '143', '86'] 670.7407407407403
30 13.414814814814815 ['102', '136', '135', '139', '115', '146', '132', '138', '137', '134', '125', '150', '149', '143', '86'] 670.7407407407403
31 13.414814814814815 ['102', '136', '135', '139', '115', '146', '132', '138', '137', '134', '125', '150', '149', '143', '86'] 670.7407407407403
32 13.414814814814815 ['102', '136', '135', '139', '115', '146', '132', '138', '137', '134', '125', '150', '149', '143', '86'] 670.7407407407403
33 13.414814814814815 ['102', '136', '135', '139', '115', '146', '132', '138', '137', '134', '125', '150', '149', '143', '86'] 670.7407407407403
34 13.414814814814815 ['102', '136', '135', '139', '115', '146', '132', '138', '137', '134', '125', '150', '149', '143', '86'] 670.7407407407403
35 13.414814814814815 ['102', '136', '135', '139', '115', '146', '132', '138', '137', '134', '125', '150', '149', '143', '86'] 670.7407407407403
36 13.414814814814815 ['102', '136', '135', '139', '115', '146', '132', '138', '137', '134', '125', '150', '149', '143', '86'] 670.7407407407403
37 13.414814814814815 ['102', '136', '135', '139', '115', '146', '132', '138', '137', '134', '125', '150', '149', '143', '86'] 670.7407407407403
38 13.414814814814815 ['102', '136', '135', '139', '115', '146', '132', '138', '137', '134', '125', '150', '149', '143', '86'] 670.7407407407403
39 13.414814814814815 ['102', '136', '135', '139', '115', '146', '132', '138', '137', '134', '125', '150', '149', '143', '86'] 670.7407407407403
40 13.414814814814815 ['102', '136', '135', '139', '115', '146', '132', '138', '137', '134', '125', '150', '149', '143', '86'] 670.7407407407403
41 13.414814814814815 ['102', '136', '135', '139', '115', '146', '132', '138', '137', '134', '125', '150', '149', '143', '86'] 670.7407407407403
42 13.414814814814815 ['102', '136', '135', '139', '115', '146', '132', '138', '137', '134', '125', '150', '149', '143', '86'] 670.7407407407403
43 13.414814814814815 ['102', '136', '135', '139', '115', '146', '132', '138', '137', '134', '125', '150', '149', '143', '86'] 670.7407407407403
44 13.414814814814815 ['102', '136', '135', '139', '115', '146', '132', '138', '137', '134', '125', '150', '149', '143', '86'] 670.7407407407403
45 13.414814814814815 ['102', '136', '135', '139', '115', '146', '132', '138', '137', '134', '125', '150', '149', '143', '86'] 670.7407407407403
46 13.414814814814815 ['102', '136', '135', '139', '115', '146', '132', '138', '137', '134', '125', '150', '149', '143', '86'] 670.7407407407403
47 13.414814814814815 ['102', '136', '135', '139', '115', '146', '132', '138', '137', '134', '125', '150', '149', '143', '86'] 670.7407407407403
48 13.414814814814815 ['102', '136', '135', '139', '115', '146', '132', '138', '137', '134', '125', '150', '149', '143', '86'] 670.7407407407403
49 13.414814814814815 ['102', '136', '135', '139', '115', '146', '132', '138', '137', '134', '125', '150', '149', '143', '86'] 670.7407407407403
50 13.414814814814815 ['102', '136', '135', '139', '115', '146', '132', '138', '137', '134', '125', '150', '149', '143', '86'] 670.7407407407403
51 13.414814814814815 ['102', '136', '135', '139', '115', '146', '132', '138', '137', '134', '125', '150', '149', '143', '86'] 670.7407407407403
52 13.414814814814815 ['102', '136', '135', '139', '115', '146', '132', '138', '137', '134', '125', '150', '149', '143', '86'] 670.7407407407403
53 13.414814814814815 ['102', '136', '135', '139', '115', '146', '132', '138', '137', '134', '125', '150', '149', '143', '86'] 670.7407407407403
54 13.414814814814815 ['102', '136', '135', '139', '115', '146', '132', '138', '137', '134', '125', '150', '149', '143', '86'] 670.7407407407403
55 13.414814814814815 ['102', '136', '135', '139', '115', '146', '132', '138', '137', '134', '125', '150', '149', '143', '86'] 670.7407407407403
56 13.414814814814815 ['102', '136', '135', '139', '115', '146', '132', '138', '137', '134', '125', '150', '149', '143', '86'] 670.7407407407403
57 13.414814814814815 ['102', '136', '135', '139', '115', '146', '132', '138', '137', '134', '125', '150', '149', '143', '86'] 670.7407407407403
58 13.414814814814815 ['102', '136', '135', '139', '115', '146', '132', '138', '137', '134', '125', '150', '149', '143', '86'] 670.7407407407403
59 13.414814814814815 ['102', '136', '135', '139', '115', '146', '132', '138', '137', '134', '125', '150', '149', '143', '86'] 670.7407407407403
60 13.414814814814815 ['102', '136', '135', '139', '115', '146', '132', '138', '137', '134', '125', '150', '149', '143', '86'] 670.7407407407403
61 13.414814814814815 ['102', '136', '135', '139', '115', '146', '132', '138', '137', '134', '125', '150', '149', '143', '86'] 670.7407407407403
62 13.414814814814815 ['102', '136', '135', '139', '115', '146', '132', '138', '137', '134', '125', '150', '149', '143', '86'] 670.7407407407403
63 13.414814814814815 ['102', '136', '135', '139', '115', '146', '132', '138', '137', '134', '125', '150', '149', '143', '86'] 670.7407407407403
64 13.414814814814815 ['102', '136', '135', '139', '115', '146', '132', '138', '137', '134', '125', '150', '149', '143', '86'] 670.7407407407403
65 13.414814814814815 ['102', '136', '135', '139', '115', '146', '132', '138', '137', '134', '125', '150', '149', '143', '86'] 670.7407407407403
66 13.414814814814815 ['102', '136', '135', '139', '115', '146', '132', '138', '137', '134', '125', '150', '149', '143', '86'] 670.7407407407403
67 13.414814814814815 ['102', '136', '135', '139', '115', '146', '132', '138', '137', '134', '125', '150', '149', '143', '86'] 670.7407407407403
68 13.414814814814815 ['102', '136', '135', '139', '115', '146', '132', '138', '137', '134', '125', '150', '149', '143', '86'] 670.7407407407403
69 13.414814814814815 ['102', '136', '135', '139', '115', '146', '132', '138', '137', '134', '125', '150', '149', '143', '86'] 670.7407407407403
70 13.414814814814815 ['102', '136', '135', '139', '115', '146', '132', '138', '137', '134', '125', '150', '149', '143', '86'] 670.7407407407403
71 13.414814814814815 ['102', '136', '135', '139', '115', '146', '132', '138', '137', '134', '125', '150', '149', '143', '86'] 670.7407407407403
72 13.414814814814815 ['102', '136', '135', '139', '115', '146', '132', '138', '137', '134', '125', '150', '149', '143', '86'] 670.7407407407403
73 13.414814814814815 ['102', '136', '135', '139', '115', '146', '132', '138', '137', '134', '125', '150', '149', '143', '86'] 670.7407407407403
74 13.414814814814815 ['102', '136', '135', '139', '115', '146', '132', '138', '137', '134', '125', '150', '149', '143', '86'] 670.7407407407403
75 13.414814814814815 ['102', '136', '135', '139', '115', '146', '132', '138', '137', '134', '125', '150', '149', '143', '86'] 670.7407407407403
76 13.414814814814815 ['102', '136', '135', '139', '115', '146', '132', '138', '137', '134', '125', '150', '149', '143', '86'] 670.7407407407403
77 13.414814814814815 ['102', '136', '135', '139', '115', '146', '132', '138', '137', '134', '125', '150', '149', '143', '86'] 670.7407407407403
78 13.414814814814815 ['102', '136', '135', '139', '115', '146', '132', '138', '137', '134', '125', '150', '149', '143', '86'] 670.7407407407403
79 13.414814814814815 ['102', '136', '135', '139', '115', '146', '132', '138', '137', '134', '125', '150', '149', '143', '86'] 670.7407407407403
80 13.414814814814815 ['102', '136', '135', '139', '115', '146', '132', '138', '137', '134', '125', '150', '149', '143', '86'] 670.7407407407403
81 13.414814814814815 ['102', '136', '135', '139', '115', '146', '132', '138', '137', '134', '125', '150', '149', '143', '86'] 670.7407407407403
82 13.414814814814815 ['102', '136', '135', '139', '115', '146', '132', '138', '137', '134', '125', '150', '149', '143', '86'] 670.7407407407403
83 13.414814814814815 ['102', '136', '135', '139', '115', '146', '132', '138', '137', '134', '125', '150', '149', '143', '86'] 670.7407407407403
84 13.414814814814815 ['102', '136', '135', '139', '115', '146', '132', '138', '137', '134', '125', '150', '149', '143', '86'] 670.7407407407403
85 13.414814814814815 ['102', '136', '135', '139', '115', '146', '132', '138', '137', '134', '125', '150', '149', '143', '86'] 670.7407407407403
86 13.414814814814815 ['102', '136', '135', '139', '115', '146', '132', '138', '137', '134', '125', '150', '149', '143', '86'] 670.7407407407403
87 13.414814814814815 ['102', '136', '135', '139', '115', '146', '132', '138', '137', '134', '125', '150', '149', '143', '86'] 670.7407407407403
88 13.414814814814815 ['102', '136', '135', '139', '115', '146', '132', '138', '137', '134', '125', '150', '149', '143', '86'] 670.7407407407403
89 13.414814814814815 ['102', '136', '135', '139', '115', '146', '132', '138', '137', '134', '125', '150', '149', '143', '86'] 670.7407407407403
90 13.414814814814815 ['102', '136', '135', '139', '115', '146', '132', '138', '137', '134', '125', '150', '149', '143', '86'] 670.7407407407403
91 13.414814814814815 ['102', '136', '135', '139', '115', '146', '132', '138', '137', '134', '125', '150', '149', '143', '86'] 670.7407407407403
92 13.414814814814815 ['102', '136', '135', '139', '115', '146', '132', '138', '137', '134', '125', '150', '149', '143', '86'] 670.7407407407403
93 13.414814814814815 ['102', '136', '135', '139', '115', '146', '132', '138', '137', '134', '125', '150', '149', '143', '86'] 670.7407407407403
94 13.414814814814815 ['102', '136', '135', '139', '115', '146', '132', '138', '137', '134', '125', '150', '149', '143', '86'] 670.7407407407403
95 13.414814814814815 ['102', '136', '135', '139', '115', '146', '132', '138', '137', '134', '125', '150', '149', '143', '86'] 670.7407407407403
96 13.414814814814815 ['102', '136', '135', '139', '115', '146', '132', '138', '137', '134', '125', '150', '149', '143', '86'] 670.7407407407403
97 13.414814814814815 ['102', '136', '135', '139', '115', '146', '132', '138', '137', '134', '125', '150', '149', '143', '86'] 670.7407407407403
98 13.414814814814815 ['102', '136', '135', '139', '115', '146', '132', '138', '137', '134', '125', '150', '149', '143', '86'] 670.7407407407403
99 13.414814814814815 ['102', '136', '135', '139', '115', '146', '132', '138', '137', '134', '125', '150', '149', '143', '86'] 670.7407407407403
100 13.414814814814815 ['102', '136', '135', '139', '115', '146', '132', '138', '137', '134', '125', '150', '149', '143', '86'] 670.7407407407403
101 13.414814814814815 ['102', '136', '135', '139', '115', '146', '132', '138', '137', '134', '125', '150', '149', '143', '86'] 670.7407407407403
102 13.414814814814815 ['102', '136', '135', '139', '115', '146', '132', '138', '137', '134', '125', '150', '149', '143', '86'] 670.7407407407403
103 13.414814814814815 ['102', '136', '135', '139', '115', '146', '132', '138', '137', '134', '125', '150', '149', '143', '86'] 670.7407407407403
104 13.414814814814815 ['102', '136', '135', '139', '115', '146', '132', '138', '137', '134', '125', '150', '149', '143', '86'] 670.7407407407403
105 13.414814814814815 ['102', '136', '135', '139', '115', '146', '132', '138', '137', '134', '125', '150', '149', '143', '86'] 670.7407407407403
106 13.414814814814815 ['102', '136', '135', '139', '115', '146', '132', '138', '137', '134', '125', '150', '149', '143', '86'] 670.7407407407403
107 13.414814814814815 ['102', '136', '135', '139', '115', '146', '132', '138', '137', '134', '125', '150', '149', '143', '86'] 670.7407407407403
108 13.414814814814815 ['102', '136', '135', '139', '115', '146', '132', '138', '137', '134', '125', '150', '149', '143', '86'] 670.7407407407403
109 13.414814814814815 ['102', '136', '135', '139', '115', '146', '132', '138', '137', '134', '125', '150', '149', '143', '86'] 670.7407407407403
110 13.414814814814815 ['102', '136', '135', '139', '115', '146', '132', '138', '137', '134', '125', '150', '149', '143', '86'] 670.7407407407403
111 13.414814814814815 ['102', '136', '135', '139', '115', '146', '132', '138', '137', '134', '125', '150', '149', '143', '86'] 670.7407407407403
112 13.414814814814815 ['102', '136', '135', '139', '115', '146', '132', '138', '137', '134', '125', '150', '149', '143', '86'] 670.7407407407403
113 13.414814814814815 ['102', '136', '135', '139', '115', '146', '132', '138', '137', '134', '125', '150', '149', '143', '86'] 670.7407407407403
114 13.414814814814815 ['102', '136', '135', '139', '115', '146', '132', '138', '137', '134', '125', '150', '149', '143', '86'] 670.7407407407403
115 13.414814814814815 ['102', '136', '135', '139', '115', '146', '132', '138', '137', '134', '125', '150', '149', '143', '86'] 670.7407407407403
116 13.414814814814815 ['102', '136', '135', '139', '115', '146', '132', '138', '137', '134', '125', '150', '149', '143', '86'] 670.7407407407403
117 13.414814814814815 ['102', '136', '135', '139', '115', '146', '132', '138', '137', '134', '125', '150', '149', '143', '86'] 670.7407407407403
118 13.414814814814815 ['102', '136', '135', '139', '115', '146', '132', '138', '137', '134', '125', '150', '149', '143', '86'] 670.7407407407403
119 13.414814814814815 ['102', '136', '135', '139', '115', '146', '132', '138', '137', '134', '125', '150', '149', '143', '86'] 670.7407407407403
120 13.414814814814815 ['102', '136', '135', '139', '115', '146', '132', '138', '137', '134', '125', '150', '149', '143', '86'] 670.7407407407403
121 13.414814814814815 ['102', '136', '135', '139', '115', '146', '132', '138', '137', '134', '125', '150', '149', '143', '86'] 670.7407407407403
122 13.414814814814815 ['102', '136', '135', '139', '115', '146', '132', '138', '137', '134', '125', '150', '149', '143', '86'] 670.7407407407403
123 13.414814814814815 ['102', '136', '135', '139', '115', '146', '132', '138', '137', '134', '125', '150', '149', '143', '86'] 670.7407407407403
124 13.414814814814815 ['102', '136', '135', '139', '115', '146', '132', '138', '137', '134', '125', '150', '149', '143', '86'] 670.7407407407403
125 13.414814814814815 ['102', '136', '135', '139', '115', '146', '132', '138', '137', '134', '125', '150', '149', '143', '86'] 670.7407407407403
126 13.414814814814815 ['102', '136', '135', '139', '115', '146', '132', '138', '137', '134', '125', '150', '149', '143', '86'] 670.7407407407403
127 13.414814814814815 ['102', '136', '135', '139', '115', '146', '132', '138', '137', '134', '125', '150', '149', '143', '86'] 670.7407407407403
128 13.414814814814815 ['102', '136', '135', '139', '115', '146', '132', '138', '137', '134', '125', '150', '149', '143', '86'] 670.7407407407403
129 13.414814814814815 ['102', '136', '135', '139', '115', '146', '132', '138', '137', '134', '125', '150', '149', '143', '86'] 670.7407407407403
130 13.414814814814815 ['102', '136', '135', '139', '115', '146', '132', '138', '137', '134', '125', '150', '149', '143', '86'] 670.7407407407403
131 13.414814814814815 ['102', '136', '135', '139', '115', '146', '132', '138', '137', '134', '125', '150', '149', '143', '86'] 670.7407407407403
132 13.414814814814815 ['102', '136', '135', '139', '115', '146', '132', '138', '137', '134', '125', '150', '149', '143', '86'] 670.7407407407403
133 13.414814814814815 ['102', '136', '135', '139', '115', '146', '132', '138', '137', '134', '125', '150', '149', '143', '86'] 670.7407407407403
134 13.414814814814815 ['102', '136', '135', '139', '115', '146', '132', '138', '137', '134', '125', '150', '149', '143', '86'] 670.7407407407403
135 13.414814814814815 ['102', '136', '135', '139', '115', '146', '132', '138', '137', '134', '125', '150', '149', '143', '86'] 670.7407407407403
136 13.414814814814815 ['102', '136', '135', '139', '115', '146', '132', '138', '137', '134', '125', '150', '149', '143', '86'] 670.7407407407403
137 13.414814814814815 ['102', '136', '135', '139', '115', '146', '132', '138', '137', '134', '125', '150', '149', '143', '86'] 670.7407407407403
138 13.414814814814815 ['102', '136', '135', '139', '115', '146', '132', '138', '137', '134', '125', '150', '149', '143', '86'] 670.7407407407403
139 13.414814814814815 ['102', '136', '135', '139', '115', '146', '132', '138', '137', '134', '125', '150', '149', '143', '86'] 670.7407407407403
140 13.414814814814815 ['102', '136', '135', '139', '115', '146', '132', '138', '137', '134', '125', '150', '149', '143', '86'] 670.7407407407403
141 13.414814814814815 ['102', '136', '135', '139', '115', '146', '132', '138', '137', '134', '125', '150', '149', '143', '86'] 670.7407407407403
142 13.414814814814815 ['102', '136', '135', '139', '115', '146', '132', '138', '137', '134', '125', '150', '149', '143', '86'] 670.7407407407403
143 13.414814814814815 ['102', '136', '135', '139', '115', '146', '132', '138', '137', '134', '125', '150', '149', '143', '86'] 670.7407407407403
144 13.414814814814815 ['102', '136', '135', '139', '115', '146', '132', '138', '137', '134', '125', '150', '149', '143', '86'] 670.7407407407403
145 13.414814814814815 ['102', '136', '135', '139', '115', '146', '132', '138', '137', '134', '125', '150', '149', '143', '86'] 670.7407407407403
146 13.414814814814815 ['102', '136', '135', '139', '115', '146', '132', '138', '137', '134', '125', '150', '149', '143', '86'] 670.7407407407403
147 13.414814814814815 ['102', '136', '135', '139', '115', '146', '132', '138', '137', '134', '125', '150', '149', '143', '86'] 670.7407407407403
148 13.414814814814815 ['102', '136', '135', '139', '115', '146', '132', '138', '137', '134', '125', '150', '149', '143', '86'] 670.7407407407403
149 13.414814814814815 ['102', '136', '135', '139', '115', '146', '132', '138', '137', '134', '125', '150', '149', '143', '86'] 670.7407407407403
150 13.414814814814815 ['102', '136', '135', '139', '115', '146', '132', '138', '137', '134', '125', '150', '149', '143', '86'] 670.7407407407403
151 13.414814814814815 ['102', '136', '135', '139', '115', '146', '132', '138', '137', '134', '125', '150', '149', '143', '86'] 670.7407407407403
152 13.414814814814815 ['102', '136', '135', '139', '115', '146', '132', '138', '137', '134', '125', '150', '149', '143', '86'] 670.7407407407403
153 13.414814814814815 ['102', '136', '135', '139', '115', '146', '132', '138', '137', '134', '125', '150', '149', '143', '86'] 670.7407407407403
154 13.414814814814815 ['102', '136', '135', '139', '115', '146', '132', '138', '137', '134', '125', '150', '149', '143', '86'] 670.7407407407403
155 13.414814814814815 ['102', '136', '135', '139', '115', '146', '132', '138', '137', '134', '125', '150', '149', '143', '86'] 670.7407407407403
156 13.414814814814815 ['102', '136', '135', '139', '115', '146', '132', '138', '137', '134', '125', '150', '149', '143', '86'] 670.7407407407403
157 13.414814814814815 ['102', '136', '135', '139', '115', '146', '132', '138', '137', '134', '125', '150', '149', '143', '86'] 670.7407407407403
158 13.414814814814815 ['102', '136', '135', '139', '115', '146', '132', '138', '137', '134', '125', '150', '149', '143', '86'] 670.7407407407403
159 13.414814814814815 ['102', '136', '135', '139', '115', '146', '132', '138', '137', '134', '125', '150', '149', '143', '86'] 670.7407407407403
160 13.414814814814815 ['102', '136', '135', '139', '115', '146', '132', '138', '137', '134', '125', '150', '149', '143', '86'] 670.7407407407403
161 13.414814814814815 ['102', '136', '135', '139', '115', '146', '132', '138', '137', '134', '125', '150', '149', '143', '86'] 670.7407407407403
162 13.414814814814815 ['102', '136', '135', '139', '115', '146', '132', '138', '137', '134', '125', '150', '149', '143', '86'] 670.7407407407403
163 13.414814814814815 ['102', '136', '135', '139', '115', '146', '132', '138', '137', '134', '125', '150', '149', '143', '86'] 670.7407407407403
164 13.414814814814815 ['102', '136', '135', '139', '115', '146', '132', '138', '137', '134', '125', '150', '149', '143', '86'] 670.7407407407403
165 13.414814814814815 ['102', '136', '135', '139', '115', '146', '132', '138', '137', '134', '125', '150', '149', '143', '86'] 670.7407407407403
166 13.414814814814815 ['102', '136', '135', '139', '115', '146', '132', '138', '137', '134', '125', '150', '149', '143', '86'] 670.7407407407403
167 13.414814814814815 ['102', '136', '135', '139', '115', '146', '132', '138', '137', '134', '125', '150', '149', '143', '86'] 670.7407407407403
168 13.414814814814815 ['102', '136', '135', '139', '115', '146', '132', '138', '137', '134', '125', '150', '149', '143', '86'] 670.7407407407403
169 13.414814814814815 ['102', '136', '135', '139', '115', '146', '132', '138', '137', '134', '125', '150', '149', '143', '86'] 670.7407407407403
170 13.414814814814815 ['102', '136', '135', '139', '115', '146', '132', '138', '137', '134', '125', '150', '149', '143', '86'] 670.7407407407403
171 13.414814814814815 ['102', '136', '135', '139', '115', '146', '132', '138', '137', '134', '125', '150', '149', '143', '86'] 670.7407407407403
172 13.414814814814815 ['102', '136', '135', '139', '115', '146', '132', '138', '137', '134', '125', '150', '149', '143', '86'] 670.7407407407403
173 13.414814814814815 ['102', '136', '135', '139', '115', '146', '132', '138', '137', '134', '125', '150', '149', '143', '86'] 670.7407407407403
174 13.414814814814815 ['102', '136', '135', '139', '115', '146', '132', '138', '137', '134', '125', '150', '149', '143', '86'] 670.7407407407403
175 13.414814814814815 ['102', '136', '135', '139', '115', '146', '132', '138', '137', '134', '125', '150', '149', '143', '86'] 670.7407407407403
176 13.414814814814815 ['102', '136', '135', '139', '115', '146', '132', '138', '137', '134', '125', '150', '149', '143', '86'] 670.7407407407403
177 13.414814814814815 ['102', '136', '135', '139', '115', '146', '132', '138', '137', '134', '125', '150', '149', '143', '86'] 670.7407407407403
178 13.414814814814815 ['102', '136', '135', '139', '115', '146', '132', '138', '137', '134', '125', '150', '149', '143', '86'] 670.7407407407403
179 13.414814814814815 ['102', '136', '135', '139', '115', '146', '132', '138', '137', '134', '125', '150', '149', '143', '86'] 670.7407407407403
180 13.414814814814815 ['102', '136', '135', '139', '115', '146', '132', '138', '137', '134', '125', '150', '149', '143', '86'] 670.7407407407403
181 13.414814814814815 ['102', '136', '135', '139', '115', '146', '132', '138', '137', '134', '125', '150', '149', '143', '86'] 670.7407407407403
182 13.414814814814815 ['102', '136', '135', '139', '115', '146', '132', '138', '137', '134', '125', '150', '149', '143', '86'] 670.7407407407403
183 13.414814814814815 ['102', '136', '135', '139', '115', '146', '132', '138', '137', '134', '125', '150', '149', '143', '86'] 670.7407407407403
184 13.414814814814815 ['102', '136', '135', '139', '115', '146', '132', '138', '137', '134', '125', '150', '149', '143', '86'] 670.7407407407403
185 13.414814814814815 ['102', '136', '135', '139', '115', '146', '132', '138', '137', '134', '125', '150', '149', '143', '86'] 670.7407407407403
186 13.414814814814815 ['102', '136', '135', '139', '115', '146', '132', '138', '137', '134', '125', '150', '149', '143', '86'] 670.7407407407403
187 13.414814814814815 ['102', '136', '135', '139', '115', '146', '132', '138', '137', '134', '125', '150', '149', '143', '86'] 670.7407407407403
188 13.414814814814815 ['102', '136', '135', '139', '115', '146', '132', '138', '137', '134', '125', '150', '149', '143', '86'] 670.7407407407403
189 13.414814814814815 ['102', '136', '135', '139', '115', '146', '132', '138', '137', '134', '125', '150', '149', '143', '86'] 670.7407407407403
190 13.414814814814815 ['102', '136', '135', '139', '115', '146', '132', '138', '137', '134', '125', '150', '149', '143', '86'] 670.7407407407403
191 13.414814814814815 ['102', '136', '135', '139', '115', '146', '132', '138', '137', '134', '125', '150', '149', '143', '86'] 670.7407407407403
192 13.414814814814815 ['102', '136', '135', '139', '115', '146', '132', '138', '137', '134', '125', '150', '149', '143', '86'] 670.7407407407403
193 13.414814814814815 ['102', '136', '135', '139', '115', '146', '132', '138', '137', '134', '125', '150', '149', '143', '86'] 670.7407407407403
194 13.414814814814815 ['102', '136', '135', '139', '115', '146', '132', '138', '137', '134', '125', '150', '149', '143', '86'] 670.7407407407403
195 13.414814814814815 ['102', '136', '135', '139', '115', '146', '132', '138', '137', '134', '125', '150', '149', '143', '86'] 670.7407407407403
196 13.414814814814815 ['102', '136', '135', '139', '115', '146', '132', '138', '137', '134', '125', '150', '149', '143', '86'] 670.7407407407403
197 13.414814814814815 ['102', '136', '135', '139', '115', '146', '132', '138', '137', '134', '125', '150', '149', '143', '86'] 670.7407407407403
198 13.414814814814815 ['102', '136', '135', '139', '115', '146', '132', '138', '137', '134', '125', '150', '149', '143', '86'] 670.7407407407403
199 13.414814814814815 ['102', '136', '135', '139', '115', '146', '132', '138', '137', '134', '125', '150', '149', '143', '86'] 670.7407407407403
