0 5.411111111111115 ['103', '60', '62', '127', '8', '142', '89', '96', '23', '134', '93', '108', '138', '2', '15'] 273.73740740740743
1 5.367037037037036 ['23', '72', '96', '108', '89', '58', '145', '99', '60', '62', '15', '109', '127', '134', '2'] 272.576913580247
2 5.367037037037036 ['23', '72', '96', '108', '89', '58', '145', '99', '60', '62', '15', '109', '127', '134', '2'] 271.65037037037035
3 5.328395061728394 ['126', '111', '75', '150', '113', '13', '148', '139', '131', '12', '66', '129', '134', '149', '140'] 270.52012345679015
4 5.30172839506173 ['130', '141', '101', '58', '138', '123', '36', '94', '127', '129', '93', '114', '149', '74', '148'] 269.6111111111111
5 5.30172839506173 ['130', '141', '101', '58', '138', '123', '36', '94', '127', '129', '93', '114', '149', '74', '148'] 268.9051851851852
6 5.246790123456789 ['58', '149', '141', '127', '94', '145', '62', '138', '129', '74', '99', '123', '114', '130', '136'] 267.93641975308634
7 5.246790123456789 ['58', '149', '141', '127', '94', '145', '62', '138', '129', '74', '99', '123', '114', '130', '136'] 267.2954320987654
8 5.205061728395061 ['141', '94', '96', '102', '126', '114', '58', '123', '101', '145', '65', '140', '119', '129', '147'] 266.7061728395061
9 5.205061728395061 ['141', '94', '96', '102', '126', '114', '58', '123', '101', '145', '65', '140', '119', '129', '147'] 265.56160493827167
10 5.192839506172838 ['141', '94', '23', '103', '96', '119', '65', '58', '142', '145', '129', '89', '101', '102', '127'] 264.67098765432104
11 5.192839506172838 ['141', '94', '23', '103', '96', '119', '65', '58', '142', '145', '129', '89', '101', '102', '127'] 263.70037037037036
12 5.18641975308642 ['129', '145', '94', '148', '114', '141', '58', '127', '89', '99', '123', '149', '134', '136', '96'] 262.84839506172847
13 5.179135802469135 ['94', '129', '147', '114', '140', '101', '145', '119', '102', '123', '96', '141', '103', '126', '58'] 262.0593827160494
14 5.179135802469135 ['94', '129', '147', '114', '140', '101', '145', '119', '102', '123', '96', '141', '103', '126', '58'] 261.32654320987655
15 5.158395061728396 ['129', '141', '127', '89', '119', '23', '145', '58', '94', '99', '65', '103', '136', '102', '101'] 260.75111111111113
16 5.1546913580246905 ['101', '142', '141', '129', '96', '103', '94', '102', '119', '145', '89', '127', '114', '123', '147'] 260.3176543209877
17 5.137283950617285 ['129', '149', '141', '123', '119', '115', '145', '96', '114', '58', '94', '140', '127', '134', '136'] 259.8220987654321
18 5.137283950617285 ['129', '149', '141', '123', '119', '115', '145', '96', '114', '58', '94', '140', '127', '134', '136'] 259.3299999999999
19 5.135185185185186 ['136', '94', '102', '145', '58', '119', '141', '103', '129', '23', '114', '65', '101', '123', '89'] 258.8683950617284
20 5.135185185185186 ['136', '94', '102', '145', '58', '119', '141', '103', '129', '23', '114', '65', '101', '123', '89'] 258.5186419753086
21 5.135185185185186 ['136', '94', '102', '145', '58', '119', '141', '103', '129', '23', '114', '65', '101', '123', '89'] 258.22481481481475
22 5.129876543209877 ['134', '119', '129', '136', '114', '96', '94', '127', '145', '58', '149', '123', '141', '140', '23'] 258.0061728395061
23 5.129876543209877 ['134', '119', '129', '136', '114', '96', '94', '127', '145', '58', '149', '123', '141', '140', '23'] 257.7107407407408
24 5.122098765432098 ['123', '134', '129', '58', '141', '94', '114', '96', '127', '136', '145', '119', '149', '89', '23'] 257.2504938271606
25 5.122098765432098 ['123', '134', '129', '58', '141', '94', '114', '96', '127', '136', '145', '119', '149', '89', '23'] 256.8654320987654
26 5.113827160493828 ['96', '94', '134', '129', '114', '119', '145', '23', '58', '123', '136', '127', '141', '140', '89'] 256.46283950617294
27 5.113827160493828 ['96', '94', '134', '129', '114', '119', '145', '23', '58', '123', '136', '127', '141', '140', '89'] 256.3051851851855
28 5.113827160493828 ['96', '94', '134', '129', '114', '119', '145', '23', '58', '123', '136', '127', '141', '140', '89'] 256.1888888888892
29 5.113827160493828 ['96', '94', '134', '129', '114', '119', '145', '23', '58', '123', '136', '127', '141', '140', '89'] 255.96864197530874
30 5.113827160493828 ['96', '94', '134', '129', '114', '119', '145', '23', '58', '123', '136', '127', '141', '140', '89'] 255.80716049382718
31 5.113827160493828 ['96', '94', '134', '129', '114', '119', '145', '23', '58', '123', '136', '127', '141', '140', '89'] 255.69135802469137
32 5.113827160493828 ['96', '94', '134', '129', '114', '119', '145', '23', '58', '123', '136', '127', '141', '140', '89'] 255.69135802469137
33 5.113827160493828 ['96', '94', '134', '129', '114', '119', '145', '23', '58', '123', '136', '127', '141', '140', '89'] 255.69135802469137
34 5.113827160493828 ['96', '94', '134', '129', '114', '119', '145', '23', '58', '123', '136', '127', '141', '140', '89'] 255.69135802469137
35 5.113827160493828 ['96', '94', '134', '129', '114', '119', '145', '23', '58', '123', '136', '127', '141', '140', '89'] 255.69135802469137
36 5.113827160493828 ['96', '94', '134', '129', '114', '119', '145', '23', '58', '123', '136', '127', '141', '140', '89'] 255.69135802469137
37 5.113827160493828 ['96', '94', '134', '129', '114', '119', '145', '23', '58', '123', '136', '127', '141', '140', '89'] 255.69135802469137
38 5.113827160493828 ['96', '94', '134', '129', '114', '119', '145', '23', '58', '123', '136', '127', '141', '140', '89'] 255.69135802469137
39 5.113827160493828 ['96', '94', '134', '129', '114', '119', '145', '23', '58', '123', '136', '127', '141', '140', '89'] 255.69135802469137
40 5.113827160493828 ['96', '94', '134', '129', '114', '119', '145', '23', '58', '123', '136', '127', '141', '140', '89'] 255.69135802469137
41 5.113827160493828 ['96', '94', '134', '129', '114', '119', '145', '23', '58', '123', '136', '127', '141', '140', '89'] 255.69135802469137
42 5.113827160493828 ['96', '94', '134', '129', '114', '119', '145', '23', '58', '123', '136', '127', '141', '140', '89'] 255.69135802469137
43 5.113827160493828 ['96', '94', '134', '129', '114', '119', '145', '23', '58', '123', '136', '127', '141', '140', '89'] 255.69135802469137
44 5.113827160493828 ['96', '94', '134', '129', '114', '119', '145', '23', '58', '123', '136', '127', '141', '140', '89'] 255.69135802469137
45 5.113827160493828 ['96', '94', '134', '129', '114', '119', '145', '23', '58', '123', '136', '127', '141', '140', '89'] 255.69135802469137
46 5.113827160493828 ['96', '94', '134', '129', '114', '119', '145', '23', '58', '123', '136', '127', '141', '140', '89'] 255.69135802469137
47 5.113827160493828 ['96', '94', '134', '129', '114', '119', '145', '23', '58', '123', '136', '127', '141', '140', '89'] 255.69135802469137
48 5.113827160493828 ['96', '94', '134', '129', '114', '119', '145', '23', '58', '123', '136', '127', '141', '140', '89'] 255.69135802469137
49 5.113827160493828 ['96', '94', '134', '129', '114', '119', '145', '23', '58', '123', '136', '127', '141', '140', '89'] 255.69135802469137
50 5.113827160493828 ['96', '94', '134', '129', '114', '119', '145', '23', '58', '123', '136', '127', '141', '140', '89'] 255.69135802469137
51 5.113827160493828 ['96', '94', '134', '129', '114', '119', '145', '23', '58', '123', '136', '127', '141', '140', '89'] 255.69135802469137
52 5.113827160493828 ['96', '94', '134', '129', '114', '119', '145', '23', '58', '123', '136', '127', '141', '140', '89'] 255.69135802469137
53 5.113827160493828 ['96', '94', '134', '129', '114', '119', '145', '23', '58', '123', '136', '127', '141', '140', '89'] 255.69135802469137
54 5.113827160493828 ['96', '94', '134', '129', '114', '119', '145', '23', '58', '123', '136', '127', '141', '140', '89'] 255.69135802469137
55 5.113827160493828 ['96', '94', '134', '129', '114', '119', '145', '23', '58', '123', '136', '127', '141', '140', '89'] 255.69135802469137
56 5.113827160493828 ['96', '94', '134', '129', '114', '119', '145', '23', '58', '123', '136', '127', '141', '140', '89'] 255.69135802469137
57 5.113827160493828 ['96', '94', '134', '129', '114', '119', '145', '23', '58', '123', '136', '127', '141', '140', '89'] 255.69135802469137
58 5.113827160493828 ['96', '94', '134', '129', '114', '119', '145', '23', '58', '123', '136', '127', '141', '140', '89'] 255.69135802469137
59 5.113827160493828 ['96', '94', '134', '129', '114', '119', '145', '23', '58', '123', '136', '127', '141', '140', '89'] 255.69135802469137
60 5.113827160493828 ['96', '94', '134', '129', '114', '119', '145', '23', '58', '123', '136', '127', '141', '140', '89'] 255.69135802469137
61 5.113827160493828 ['96', '94', '134', '129', '114', '119', '145', '23', '58', '123', '136', '127', '141', '140', '89'] 255.69135802469137
62 5.113827160493828 ['96', '94', '134', '129', '114', '119', '145', '23', '58', '123', '136', '127', '141', '140', '89'] 255.69135802469137
63 5.113827160493828 ['96', '94', '134', '129', '114', '119', '145', '23', '58', '123', '136', '127', '141', '140', '89'] 255.69135802469137
64 5.113827160493828 ['96', '94', '134', '129', '114', '119', '145', '23', '58', '123', '136', '127', '141', '140', '89'] 255.69135802469137
65 5.113827160493828 ['96', '94', '134', '129', '114', '119', '145', '23', '58', '123', '136', '127', '141', '140', '89'] 255.69135802469137
66 5.113827160493828 ['96', '94', '134', '129', '114', '119', '145', '23', '58', '123', '136', '127', '141', '140', '89'] 255.69135802469137
67 5.113827160493828 ['96', '94', '134', '129', '114', '119', '145', '23', '58', '123', '136', '127', '141', '140', '89'] 255.69135802469137
68 5.113827160493828 ['96', '94', '134', '129', '114', '119', '145', '23', '58', '123', '136', '127', '141', '140', '89'] 255.69135802469137
69 5.113827160493828 ['96', '94', '134', '129', '114', '119', '145', '23', '58', '123', '136', '127', '141', '140', '89'] 255.69135802469137
70 5.113827160493828 ['96', '94', '134', '129', '114', '119', '145', '23', '58', '123', '136', '127', '141', '140', '89'] 255.69135802469137
71 5.113827160493828 ['96', '94', '134', '129', '114', '119', '145', '23', '58', '123', '136', '127', '141', '140', '89'] 255.69135802469137
72 5.113827160493828 ['96', '94', '134', '129', '114', '119', '145', '23', '58', '123', '136', '127', '141', '140', '89'] 255.69135802469137
73 5.113827160493828 ['96', '94', '134', '129', '114', '119', '145', '23', '58', '123', '136', '127', '141', '140', '89'] 255.69135802469137
74 5.113827160493828 ['96', '94', '134', '129', '114', '119', '145', '23', '58', '123', '136', '127', '141', '140', '89'] 255.69135802469137
75 5.113827160493828 ['96', '94', '134', '129', '114', '119', '145', '23', '58', '123', '136', '127', '141', '140', '89'] 255.69135802469137
76 5.113827160493828 ['96', '94', '134', '129', '114', '119', '145', '23', '58', '123', '136', '127', '141', '140', '89'] 255.69135802469137
77 5.113827160493828 ['96', '94', '134', '129', '114', '119', '145', '23', '58', '123', '136', '127', '141', '140', '89'] 255.69135802469137
78 5.113827160493828 ['96', '94', '134', '129', '114', '119', '145', '23', '58', '123', '136', '127', '141', '140', '89'] 255.69135802469137
79 5.113827160493828 ['96', '94', '134', '129', '114', '119', '145', '23', '58', '123', '136', '127', '141', '140', '89'] 255.69135802469137
80 5.113827160493828 ['96', '94', '134', '129', '114', '119', '145', '23', '58', '123', '136', '127', '141', '140', '89'] 255.69135802469137
81 5.113827160493828 ['96', '94', '134', '129', '114', '119', '145', '23', '58', '123', '136', '127', '141', '140', '89'] 255.69135802469137
82 5.113827160493828 ['96', '94', '134', '129', '114', '119', '145', '23', '58', '123', '136', '127', '141', '140', '89'] 255.69135802469137
83 5.113827160493828 ['96', '94', '134', '129', '114', '119', '145', '23', '58', '123', '136', '127', '141', '140', '89'] 255.69135802469137
84 5.113827160493828 ['96', '94', '134', '129', '114', '119', '145', '23', '58', '123', '136', '127', '141', '140', '89'] 255.69135802469137
85 5.113827160493828 ['96', '94', '134', '129', '114', '119', '145', '23', '58', '123', '136', '127', '141', '140', '89'] 255.69135802469137
86 5.113827160493828 ['96', '94', '134', '129', '114', '119', '145', '23', '58', '123', '136', '127', '141', '140', '89'] 255.69135802469137
87 5.113827160493828 ['96', '94', '134', '129', '114', '119', '145', '23', '58', '123', '136', '127', '141', '140', '89'] 255.69135802469137
88 5.113827160493828 ['96', '94', '134', '129', '114', '119', '145', '23', '58', '123', '136', '127', '141', '140', '89'] 255.69135802469137
89 5.113827160493828 ['96', '94', '134', '129', '114', '119', '145', '23', '58', '123', '136', '127', '141', '140', '89'] 255.69135802469137
90 5.113827160493828 ['96', '94', '134', '129', '114', '119', '145', '23', '58', '123', '136', '127', '141', '140', '89'] 255.69135802469137
91 5.113827160493828 ['96', '94', '134', '129', '114', '119', '145', '23', '58', '123', '136', '127', '141', '140', '89'] 255.69135802469137
92 5.113827160493828 ['96', '94', '134', '129', '114', '119', '145', '23', '58', '123', '136', '127', '141', '140', '89'] 255.69135802469137
93 5.113827160493828 ['96', '94', '134', '129', '114', '119', '145', '23', '58', '123', '136', '127', '141', '140', '89'] 255.69135802469137
94 5.113827160493828 ['96', '94', '134', '129', '114', '119', '145', '23', '58', '123', '136', '127', '141', '140', '89'] 255.69135802469137
95 5.113827160493828 ['96', '94', '134', '129', '114', '119', '145', '23', '58', '123', '136', '127', '141', '140', '89'] 255.69135802469137
96 5.113827160493828 ['96', '94', '134', '129', '114', '119', '145', '23', '58', '123', '136', '127', '141', '140', '89'] 255.69135802469137
97 5.113827160493828 ['96', '94', '134', '129', '114', '119', '145', '23', '58', '123', '136', '127', '141', '140', '89'] 255.69135802469137
98 5.113827160493828 ['96', '94', '134', '129', '114', '119', '145', '23', '58', '123', '136', '127', '141', '140', '89'] 255.69135802469137
99 5.113827160493828 ['96', '94', '134', '129', '114', '119', '145', '23', '58', '123', '136', '127', '141', '140', '89'] 255.69135802469137
100 5.113827160493828 ['96', '94', '134', '129', '114', '119', '145', '23', '58', '123', '136', '127', '141', '140', '89'] 255.69135802469137
101 5.113827160493828 ['96', '94', '134', '129', '114', '119', '145', '23', '58', '123', '136', '127', '141', '140', '89'] 255.69135802469137
102 5.113827160493828 ['96', '94', '134', '129', '114', '119', '145', '23', '58', '123', '136', '127', '141', '140', '89'] 255.69135802469137
103 5.113827160493828 ['96', '94', '134', '129', '114', '119', '145', '23', '58', '123', '136', '127', '141', '140', '89'] 255.69135802469137
104 5.113827160493828 ['96', '94', '134', '129', '114', '119', '145', '23', '58', '123', '136', '127', '141', '140', '89'] 255.69135802469137
105 5.113827160493828 ['96', '94', '134', '129', '114', '119', '145', '23', '58', '123', '136', '127', '141', '140', '89'] 255.69135802469137
106 5.113827160493828 ['96', '94', '134', '129', '114', '119', '145', '23', '58', '123', '136', '127', '141', '140', '89'] 255.69135802469137
107 5.113827160493828 ['96', '94', '134', '129', '114', '119', '145', '23', '58', '123', '136', '127', '141', '140', '89'] 255.69135802469137
108 5.113827160493828 ['96', '94', '134', '129', '114', '119', '145', '23', '58', '123', '136', '127', '141', '140', '89'] 255.69135802469137
109 5.113827160493828 ['96', '94', '134', '129', '114', '119', '145', '23', '58', '123', '136', '127', '141', '140', '89'] 255.69135802469137
110 5.113827160493828 ['96', '94', '134', '129', '114', '119', '145', '23', '58', '123', '136', '127', '141', '140', '89'] 255.69135802469137
111 5.113827160493828 ['96', '94', '134', '129', '114', '119', '145', '23', '58', '123', '136', '127', '141', '140', '89'] 255.69135802469137
112 5.113827160493828 ['96', '94', '134', '129', '114', '119', '145', '23', '58', '123', '136', '127', '141', '140', '89'] 255.69135802469137
113 5.113827160493828 ['96', '94', '134', '129', '114', '119', '145', '23', '58', '123', '136', '127', '141', '140', '89'] 255.69135802469137
114 5.113827160493828 ['96', '94', '134', '129', '114', '119', '145', '23', '58', '123', '136', '127', '141', '140', '89'] 255.69135802469137
115 5.113827160493828 ['96', '94', '134', '129', '114', '119', '145', '23', '58', '123', '136', '127', '141', '140', '89'] 255.69135802469137
116 5.113827160493828 ['96', '94', '134', '129', '114', '119', '145', '23', '58', '123', '136', '127', '141', '140', '89'] 255.69135802469137
117 5.113827160493828 ['96', '94', '134', '129', '114', '119', '145', '23', '58', '123', '136', '127', '141', '140', '89'] 255.69135802469137
118 5.113827160493828 ['96', '94', '134', '129', '114', '119', '145', '23', '58', '123', '136', '127', '141', '140', '89'] 255.69135802469137
119 5.113827160493828 ['96', '94', '134', '129', '114', '119', '145', '23', '58', '123', '136', '127', '141', '140', '89'] 255.69135802469137
120 5.113827160493828 ['96', '94', '134', '129', '114', '119', '145', '23', '58', '123', '136', '127', '141', '140', '89'] 255.69135802469137
121 5.113827160493828 ['96', '94', '134', '129', '114', '119', '145', '23', '58', '123', '136', '127', '141', '140', '89'] 255.69135802469137
122 5.113827160493828 ['96', '94', '134', '129', '114', '119', '145', '23', '58', '123', '136', '127', '141', '140', '89'] 255.69135802469137
123 5.113827160493828 ['96', '94', '134', '129', '114', '119', '145', '23', '58', '123', '136', '127', '141', '140', '89'] 255.69135802469137
124 5.113827160493828 ['96', '94', '134', '129', '114', '119', '145', '23', '58', '123', '136', '127', '141', '140', '89'] 255.69135802469137
125 5.113827160493828 ['96', '94', '134', '129', '114', '119', '145', '23', '58', '123', '136', '127', '141', '140', '89'] 255.69135802469137
126 5.113827160493828 ['96', '94', '134', '129', '114', '119', '145', '23', '58', '123', '136', '127', '141', '140', '89'] 255.69135802469137
127 5.113827160493828 ['96', '94', '134', '129', '114', '119', '145', '23', '58', '123', '136', '127', '141', '140', '89'] 255.69135802469137
128 5.113827160493828 ['96', '94', '134', '129', '114', '119', '145', '23', '58', '123', '136', '127', '141', '140', '89'] 255.69135802469137
129 5.113827160493828 ['96', '94', '134', '129', '114', '119', '145', '23', '58', '123', '136', '127', '141', '140', '89'] 255.69135802469137
130 5.113827160493828 ['96', '94', '134', '129', '114', '119', '145', '23', '58', '123', '136', '127', '141', '140', '89'] 255.69135802469137
131 5.113827160493828 ['96', '94', '134', '129', '114', '119', '145', '23', '58', '123', '136', '127', '141', '140', '89'] 255.69135802469137
132 5.113827160493828 ['96', '94', '134', '129', '114', '119', '145', '23', '58', '123', '136', '127', '141', '140', '89'] 255.69135802469137
133 5.113827160493828 ['96', '94', '134', '129', '114', '119', '145', '23', '58', '123', '136', '127', '141', '140', '89'] 255.69135802469137
134 5.113827160493828 ['96', '94', '134', '129', '114', '119', '145', '23', '58', '123', '136', '127', '141', '140', '89'] 255.69135802469137
135 5.113827160493828 ['96', '94', '134', '129', '114', '119', '145', '23', '58', '123', '136', '127', '141', '140', '89'] 255.69135802469137
136 5.113827160493828 ['96', '94', '134', '129', '114', '119', '145', '23', '58', '123', '136', '127', '141', '140', '89'] 255.69135802469137
137 5.113827160493828 ['96', '94', '134', '129', '114', '119', '145', '23', '58', '123', '136', '127', '141', '140', '89'] 255.69135802469137
138 5.113827160493828 ['96', '94', '134', '129', '114', '119', '145', '23', '58', '123', '136', '127', '141', '140', '89'] 255.69135802469137
139 5.113827160493828 ['96', '94', '134', '129', '114', '119', '145', '23', '58', '123', '136', '127', '141', '140', '89'] 255.69135802469137
140 5.113827160493828 ['96', '94', '134', '129', '114', '119', '145', '23', '58', '123', '136', '127', '141', '140', '89'] 255.69135802469137
141 5.113827160493828 ['96', '94', '134', '129', '114', '119', '145', '23', '58', '123', '136', '127', '141', '140', '89'] 255.69135802469137
142 5.113827160493828 ['96', '94', '134', '129', '114', '119', '145', '23', '58', '123', '136', '127', '141', '140', '89'] 255.69135802469137
143 5.113827160493828 ['96', '94', '134', '129', '114', '119', '145', '23', '58', '123', '136', '127', '141', '140', '89'] 255.69135802469137
144 5.113827160493828 ['96', '94', '134', '129', '114', '119', '145', '23', '58', '123', '136', '127', '141', '140', '89'] 255.69135802469137
145 5.113827160493828 ['96', '94', '134', '129', '114', '119', '145', '23', '58', '123', '136', '127', '141', '140', '89'] 255.69135802469137
146 5.113827160493828 ['96', '94', '134', '129', '114', '119', '145', '23', '58', '123', '136', '127', '141', '140', '89'] 255.69135802469137
147 5.113827160493828 ['96', '94', '134', '129', '114', '119', '145', '23', '58', '123', '136', '127', '141', '140', '89'] 255.69135802469137
148 5.113827160493828 ['96', '94', '134', '129', '114', '119', '145', '23', '58', '123', '136', '127', '141', '140', '89'] 255.69135802469137
149 5.113827160493828 ['96', '94', '134', '129', '114', '119', '145', '23', '58', '123', '136', '127', '141', '140', '89'] 255.69135802469137
150 5.113827160493828 ['96', '94', '134', '129', '114', '119', '145', '23', '58', '123', '136', '127', '141', '140', '89'] 255.69135802469137
151 5.113827160493828 ['96', '94', '134', '129', '114', '119', '145', '23', '58', '123', '136', '127', '141', '140', '89'] 255.69135802469137
152 5.113827160493828 ['96', '94', '134', '129', '114', '119', '145', '23', '58', '123', '136', '127', '141', '140', '89'] 255.69135802469137
153 5.113827160493828 ['96', '94', '134', '129', '114', '119', '145', '23', '58', '123', '136', '127', '141', '140', '89'] 255.69135802469137
154 5.113827160493828 ['96', '94', '134', '129', '114', '119', '145', '23', '58', '123', '136', '127', '141', '140', '89'] 255.69135802469137
155 5.113827160493828 ['96', '94', '134', '129', '114', '119', '145', '23', '58', '123', '136', '127', '141', '140', '89'] 255.69135802469137
156 5.113827160493828 ['96', '94', '134', '129', '114', '119', '145', '23', '58', '123', '136', '127', '141', '140', '89'] 255.69135802469137
157 5.113827160493828 ['96', '94', '134', '129', '114', '119', '145', '23', '58', '123', '136', '127', '141', '140', '89'] 255.69135802469137
158 5.113827160493828 ['96', '94', '134', '129', '114', '119', '145', '23', '58', '123', '136', '127', '141', '140', '89'] 255.69135802469137
159 5.113827160493828 ['96', '94', '134', '129', '114', '119', '145', '23', '58', '123', '136', '127', '141', '140', '89'] 255.69135802469137
160 5.113827160493828 ['96', '94', '134', '129', '114', '119', '145', '23', '58', '123', '136', '127', '141', '140', '89'] 255.69135802469137
161 5.113827160493828 ['96', '94', '134', '129', '114', '119', '145', '23', '58', '123', '136', '127', '141', '140', '89'] 255.69135802469137
162 5.113827160493828 ['96', '94', '134', '129', '114', '119', '145', '23', '58', '123', '136', '127', '141', '140', '89'] 255.69135802469137
163 5.113827160493828 ['96', '94', '134', '129', '114', '119', '145', '23', '58', '123', '136', '127', '141', '140', '89'] 255.69135802469137
164 5.113827160493828 ['96', '94', '134', '129', '114', '119', '145', '23', '58', '123', '136', '127', '141', '140', '89'] 255.69135802469137
165 5.113827160493828 ['96', '94', '134', '129', '114', '119', '145', '23', '58', '123', '136', '127', '141', '140', '89'] 255.69135802469137
166 5.113827160493828 ['96', '94', '134', '129', '114', '119', '145', '23', '58', '123', '136', '127', '141', '140', '89'] 255.69135802469137
167 5.113827160493828 ['96', '94', '134', '129', '114', '119', '145', '23', '58', '123', '136', '127', '141', '140', '89'] 255.69135802469137
168 5.113827160493828 ['96', '94', '134', '129', '114', '119', '145', '23', '58', '123', '136', '127', '141', '140', '89'] 255.69135802469137
169 5.113827160493828 ['96', '94', '134', '129', '114', '119', '145', '23', '58', '123', '136', '127', '141', '140', '89'] 255.69135802469137
170 5.113827160493828 ['96', '94', '134', '129', '114', '119', '145', '23', '58', '123', '136', '127', '141', '140', '89'] 255.69135802469137
171 5.113827160493828 ['96', '94', '134', '129', '114', '119', '145', '23', '58', '123', '136', '127', '141', '140', '89'] 255.69135802469137
172 5.113827160493828 ['96', '94', '134', '129', '114', '119', '145', '23', '58', '123', '136', '127', '141', '140', '89'] 255.69135802469137
173 5.113827160493828 ['96', '94', '134', '129', '114', '119', '145', '23', '58', '123', '136', '127', '141', '140', '89'] 255.69135802469137
174 5.113827160493828 ['96', '94', '134', '129', '114', '119', '145', '23', '58', '123', '136', '127', '141', '140', '89'] 255.69135802469137
175 5.113827160493828 ['96', '94', '134', '129', '114', '119', '145', '23', '58', '123', '136', '127', '141', '140', '89'] 255.69135802469137
176 5.113827160493828 ['96', '94', '134', '129', '114', '119', '145', '23', '58', '123', '136', '127', '141', '140', '89'] 255.69135802469137
177 5.113827160493828 ['96', '94', '134', '129', '114', '119', '145', '23', '58', '123', '136', '127', '141', '140', '89'] 255.69135802469137
178 5.113827160493828 ['96', '94', '134', '129', '114', '119', '145', '23', '58', '123', '136', '127', '141', '140', '89'] 255.69135802469137
179 5.113827160493828 ['96', '94', '134', '129', '114', '119', '145', '23', '58', '123', '136', '127', '141', '140', '89'] 255.69135802469137
180 5.113827160493828 ['96', '94', '134', '129', '114', '119', '145', '23', '58', '123', '136', '127', '141', '140', '89'] 255.69135802469137
181 5.113827160493828 ['96', '94', '134', '129', '114', '119', '145', '23', '58', '123', '136', '127', '141', '140', '89'] 255.69135802469137
182 5.113827160493828 ['96', '94', '134', '129', '114', '119', '145', '23', '58', '123', '136', '127', '141', '140', '89'] 255.69135802469137
183 5.113827160493828 ['96', '94', '134', '129', '114', '119', '145', '23', '58', '123', '136', '127', '141', '140', '89'] 255.69135802469137
184 5.113827160493828 ['96', '94', '134', '129', '114', '119', '145', '23', '58', '123', '136', '127', '141', '140', '89'] 255.69135802469137
185 5.113827160493828 ['96', '94', '134', '129', '114', '119', '145', '23', '58', '123', '136', '127', '141', '140', '89'] 255.69135802469137
186 5.113827160493828 ['96', '94', '134', '129', '114', '119', '145', '23', '58', '123', '136', '127', '141', '140', '89'] 255.69135802469137
187 5.113827160493828 ['96', '94', '134', '129', '114', '119', '145', '23', '58', '123', '136', '127', '141', '140', '89'] 255.69135802469137
188 5.113827160493828 ['96', '94', '134', '129', '114', '119', '145', '23', '58', '123', '136', '127', '141', '140', '89'] 255.69135802469137
189 5.113827160493828 ['96', '94', '134', '129', '114', '119', '145', '23', '58', '123', '136', '127', '141', '140', '89'] 255.69135802469137
190 5.113827160493828 ['96', '94', '134', '129', '114', '119', '145', '23', '58', '123', '136', '127', '141', '140', '89'] 255.69135802469137
191 5.113827160493828 ['96', '94', '134', '129', '114', '119', '145', '23', '58', '123', '136', '127', '141', '140', '89'] 255.69135802469137
192 5.113827160493828 ['96', '94', '134', '129', '114', '119', '145', '23', '58', '123', '136', '127', '141', '140', '89'] 255.69135802469137
193 5.113827160493828 ['96', '94', '134', '129', '114', '119', '145', '23', '58', '123', '136', '127', '141', '140', '89'] 255.69135802469137
194 5.113827160493828 ['96', '94', '134', '129', '114', '119', '145', '23', '58', '123', '136', '127', '141', '140', '89'] 255.69135802469137
195 5.113827160493828 ['96', '94', '134', '129', '114', '119', '145', '23', '58', '123', '136', '127', '141', '140', '89'] 255.69135802469137
196 5.113827160493828 ['96', '94', '134', '129', '114', '119', '145', '23', '58', '123', '136', '127', '141', '140', '89'] 255.69135802469137
197 5.113827160493828 ['96', '94', '134', '129', '114', '119', '145', '23', '58', '123', '136', '127', '141', '140', '89'] 255.69135802469137
198 5.113827160493828 ['96', '94', '134', '129', '114', '119', '145', '23', '58', '123', '136', '127', '141', '140', '89'] 255.69135802469137
199 5.113827160493828 ['96', '94', '134', '129', '114', '119', '145', '23', '58', '123', '136', '127', '141', '140', '89'] 255.69135802469137
