0 5.294814814814817 ['149', '124', '7', '115', '150', '129', '90', '68', '32', '81', '79', '104', '50', '35', '99'] 271.11617283950625
1 5.294814814814817 ['149', '124', '7', '115', '150', '129', '90', '68', '32', '81', '79', '104', '50', '35', '99'] 269.62000000000006
2 5.2820987654321 ['146', '150', '142', '79', '53', '134', '72', '54', '67', '138', '133', '37', '140', '117', '106'] 268.32580246913585
3 5.2820987654321 ['146', '150', '142', '79', '53', '134', '72', '54', '67', '138', '133', '37', '140', '117', '106'] 267.4560493827162
4 5.2820987654321 ['146', '150', '142', '79', '53', '134', '72', '54', '67', '138', '133', '37', '140', '117', '106'] 266.71098765432106
5 5.232345679012351 ['37', '146', '150', '54', '142', '133', '106', '73', '94', '41', '79', '140', '134', '139', '109'] 265.57320987654333
6 5.232345679012351 ['37', '146', '150', '54', '142', '133', '106', '73', '94', '41', '79', '140', '134', '139', '109'] 264.71493827160515
7 5.221604938271611 ['79', '100', '76', '61', '121', '150', '132', '112', '103', '149', '141', '105', '26', '94', '143'] 264.0741975308643
8 5.195185185185188 ['73', '150', '146', '72', '148', '109', '106', '114', '41', '140', '94', '133', '137', '37', '141'] 263.21358024691364
9 5.141604938271607 ['121', '146', '79', '139', '150', '148', '72', '76', '137', '81', '106', '16', '109', '73', '141'] 262.14049382716064
10 5.139876543209879 ['132', '121', '133', '79', '100', '150', '103', '122', '141', '127', '137', '109', '76', '129', '143'] 261.39864197530875
11 5.139876543209879 ['132', '121', '133', '79', '100', '150', '103', '122', '141', '127', '137', '109', '76', '129', '143'] 260.44074074074086
12 5.139876543209879 ['132', '121', '133', '79', '100', '150', '103', '122', '141', '127', '137', '109', '76', '129', '143'] 259.7200000000001
13 5.125802469135806 ['79', '129', '150', '121', '143', '100', '132', '76', '141', '80', '73', '106', '103', '105', '109'] 259.0090123456792
14 5.1176543209876595 ['103', '109', '150', '141', '76', '132', '79', '105', '100', '121', '106', '149', '139', '143', '129'] 258.2525925925927
15 5.117407407407413 ['105', '79', '121', '76', '106', '100', '132', '150', '146', '141', '109', '111', '103', '143', '73'] 257.677901234568
16 5.0833333333333375 ['132', '103', '121', '143', '100', '106', '150', '109', '129', '105', '76', '79', '141', '73', '149'] 257.1337037037039
17 5.082098765432102 ['76', '79', '141', '103', '100', '150', '121', '143', '132', '109', '146', '148', '127', '129', '105'] 256.6564197530866
18 5.082098765432102 ['76', '79', '141', '103', '100', '150', '121', '143', '132', '109', '146', '148', '127', '129', '105'] 256.155802469136
19 5.082098765432102 ['76', '79', '141', '103', '100', '150', '121', '143', '132', '109', '146', '148', '127', '129', '105'] 255.67518518518534
20 5.082098765432102 ['76', '79', '141', '103', '100', '150', '121', '143', '132', '109', '146', '148', '127', '129', '105'] 255.23950617283973
21 5.071851851851856 ['129', '106', '103', '141', '109', '132', '105', '150', '79', '100', '76', '121', '73', '146', '81'] 254.8797530864199
22 5.071851851851856 ['129', '106', '103', '141', '109', '132', '105', '150', '79', '100', '76', '121', '73', '146', '81'] 254.5977777777779
23 5.055555555555559 ['79', '132', '121', '103', '109', '146', '76', '150', '141', '129', '148', '105', '100', '73', '106'] 254.28765432098788
24 5.055555555555559 ['79', '132', '121', '103', '109', '146', '76', '150', '141', '129', '148', '105', '100', '73', '106'] 254.1235802469136
25 5.055555555555559 ['79', '132', '121', '103', '109', '146', '76', '150', '141', '129', '148', '105', '100', '73', '106'] 253.90160493827182
26 5.055555555555559 ['79', '132', '121', '103', '109', '146', '76', '150', '141', '129', '148', '105', '100', '73', '106'] 253.6417283950621
27 5.055555555555559 ['79', '132', '121', '103', '109', '146', '76', '150', '141', '129', '148', '105', '100', '73', '106'] 253.21024691358048
28 5.055555555555559 ['79', '132', '121', '103', '109', '146', '76', '150', '141', '129', '148', '105', '100', '73', '106'] 252.7892592592597
29 5.055555555555559 ['79', '132', '121', '103', '109', '146', '76', '150', '141', '129', '148', '105', '100', '73', '106'] 252.77777777777823
30 5.055555555555559 ['79', '132', '121', '103', '109', '146', '76', '150', '141', '129', '148', '105', '100', '73', '106'] 252.77777777777823
31 5.055555555555559 ['79', '132', '121', '103', '109', '146', '76', '150', '141', '129', '148', '105', '100', '73', '106'] 252.77777777777823
32 5.055555555555559 ['79', '132', '121', '103', '109', '146', '76', '150', '141', '129', '148', '105', '100', '73', '106'] 252.77777777777823
33 5.055555555555559 ['79', '132', '121', '103', '109', '146', '76', '150', '141', '129', '148', '105', '100', '73', '106'] 252.77777777777823
34 5.055555555555559 ['79', '132', '121', '103', '109', '146', '76', '150', '141', '129', '148', '105', '100', '73', '106'] 252.77777777777823
35 5.055555555555559 ['79', '132', '121', '103', '109', '146', '76', '150', '141', '129', '148', '105', '100', '73', '106'] 252.77777777777823
36 5.055555555555559 ['79', '132', '121', '103', '109', '146', '76', '150', '141', '129', '148', '105', '100', '73', '106'] 252.77777777777823
37 5.055555555555559 ['79', '132', '121', '103', '109', '146', '76', '150', '141', '129', '148', '105', '100', '73', '106'] 252.77777777777823
38 5.055555555555559 ['79', '132', '121', '103', '109', '146', '76', '150', '141', '129', '148', '105', '100', '73', '106'] 252.77777777777823
39 5.055555555555559 ['79', '132', '121', '103', '109', '146', '76', '150', '141', '129', '148', '105', '100', '73', '106'] 252.77777777777823
40 5.055555555555559 ['79', '132', '121', '103', '109', '146', '76', '150', '141', '129', '148', '105', '100', '73', '106'] 252.77777777777823
41 5.055555555555559 ['79', '132', '121', '103', '109', '146', '76', '150', '141', '129', '148', '105', '100', '73', '106'] 252.77777777777823
42 5.055555555555559 ['79', '132', '121', '103', '109', '146', '76', '150', '141', '129', '148', '105', '100', '73', '106'] 252.77777777777823
43 5.055555555555559 ['79', '132', '121', '103', '109', '146', '76', '150', '141', '129', '148', '105', '100', '73', '106'] 252.77777777777823
44 5.055555555555559 ['79', '132', '121', '103', '109', '146', '76', '150', '141', '129', '148', '105', '100', '73', '106'] 252.77777777777823
45 5.055555555555559 ['79', '132', '121', '103', '109', '146', '76', '150', '141', '129', '148', '105', '100', '73', '106'] 252.77777777777823
46 5.055555555555559 ['79', '132', '121', '103', '109', '146', '76', '150', '141', '129', '148', '105', '100', '73', '106'] 252.77777777777823
47 5.055555555555559 ['79', '132', '121', '103', '109', '146', '76', '150', '141', '129', '148', '105', '100', '73', '106'] 252.77777777777823
48 5.055555555555559 ['79', '132', '121', '103', '109', '146', '76', '150', '141', '129', '148', '105', '100', '73', '106'] 252.77777777777823
49 5.055555555555559 ['79', '132', '121', '103', '109', '146', '76', '150', '141', '129', '148', '105', '100', '73', '106'] 252.77777777777823
50 5.055555555555559 ['79', '132', '121', '103', '109', '146', '76', '150', '141', '129', '148', '105', '100', '73', '106'] 252.77777777777823
51 5.055555555555559 ['79', '132', '121', '103', '109', '146', '76', '150', '141', '129', '148', '105', '100', '73', '106'] 252.77777777777823
52 5.055555555555559 ['79', '132', '121', '103', '109', '146', '76', '150', '141', '129', '148', '105', '100', '73', '106'] 252.77777777777823
53 5.055555555555559 ['79', '132', '121', '103', '109', '146', '76', '150', '141', '129', '148', '105', '100', '73', '106'] 252.77777777777823
54 5.055555555555559 ['79', '132', '121', '103', '109', '146', '76', '150', '141', '129', '148', '105', '100', '73', '106'] 252.77777777777823
55 5.055555555555559 ['79', '132', '121', '103', '109', '146', '76', '150', '141', '129', '148', '105', '100', '73', '106'] 252.77777777777823
56 5.055555555555559 ['79', '132', '121', '103', '109', '146', '76', '150', '141', '129', '148', '105', '100', '73', '106'] 252.77777777777823
57 5.055555555555559 ['79', '132', '121', '103', '109', '146', '76', '150', '141', '129', '148', '105', '100', '73', '106'] 252.77777777777823
58 5.055555555555559 ['79', '132', '121', '103', '109', '146', '76', '150', '141', '129', '148', '105', '100', '73', '106'] 252.77777777777823
59 5.055555555555559 ['79', '132', '121', '103', '109', '146', '76', '150', '141', '129', '148', '105', '100', '73', '106'] 252.77777777777823
60 5.055555555555559 ['79', '132', '121', '103', '109', '146', '76', '150', '141', '129', '148', '105', '100', '73', '106'] 252.77777777777823
61 5.055555555555559 ['79', '132', '121', '103', '109', '146', '76', '150', '141', '129', '148', '105', '100', '73', '106'] 252.77777777777823
62 5.055555555555559 ['79', '132', '121', '103', '109', '146', '76', '150', '141', '129', '148', '105', '100', '73', '106'] 252.77777777777823
63 5.055555555555559 ['79', '132', '121', '103', '109', '146', '76', '150', '141', '129', '148', '105', '100', '73', '106'] 252.77777777777823
64 5.055555555555559 ['79', '132', '121', '103', '109', '146', '76', '150', '141', '129', '148', '105', '100', '73', '106'] 252.77777777777823
65 5.055555555555559 ['79', '132', '121', '103', '109', '146', '76', '150', '141', '129', '148', '105', '100', '73', '106'] 252.77777777777823
66 5.055555555555559 ['79', '132', '121', '103', '109', '146', '76', '150', '141', '129', '148', '105', '100', '73', '106'] 252.77777777777823
67 5.055555555555559 ['79', '132', '121', '103', '109', '146', '76', '150', '141', '129', '148', '105', '100', '73', '106'] 252.77777777777823
68 5.055555555555559 ['79', '132', '121', '103', '109', '146', '76', '150', '141', '129', '148', '105', '100', '73', '106'] 252.77777777777823
69 5.055555555555559 ['79', '132', '121', '103', '109', '146', '76', '150', '141', '129', '148', '105', '100', '73', '106'] 252.77777777777823
70 5.055555555555559 ['79', '132', '121', '103', '109', '146', '76', '150', '141', '129', '148', '105', '100', '73', '106'] 252.77777777777823
71 5.055555555555559 ['79', '132', '121', '103', '109', '146', '76', '150', '141', '129', '148', '105', '100', '73', '106'] 252.77777777777823
72 5.055555555555559 ['79', '132', '121', '103', '109', '146', '76', '150', '141', '129', '148', '105', '100', '73', '106'] 252.77777777777823
73 5.055555555555559 ['79', '132', '121', '103', '109', '146', '76', '150', '141', '129', '148', '105', '100', '73', '106'] 252.77777777777823
74 5.055555555555559 ['79', '132', '121', '103', '109', '146', '76', '150', '141', '129', '148', '105', '100', '73', '106'] 252.77777777777823
75 5.055555555555559 ['79', '132', '121', '103', '109', '146', '76', '150', '141', '129', '148', '105', '100', '73', '106'] 252.77777777777823
76 5.055555555555559 ['79', '132', '121', '103', '109', '146', '76', '150', '141', '129', '148', '105', '100', '73', '106'] 252.77777777777823
77 5.055555555555559 ['79', '132', '121', '103', '109', '146', '76', '150', '141', '129', '148', '105', '100', '73', '106'] 252.77777777777823
78 5.055555555555559 ['79', '132', '121', '103', '109', '146', '76', '150', '141', '129', '148', '105', '100', '73', '106'] 252.77777777777823
79 5.055555555555559 ['79', '132', '121', '103', '109', '146', '76', '150', '141', '129', '148', '105', '100', '73', '106'] 252.77777777777823
80 5.055555555555559 ['79', '132', '121', '103', '109', '146', '76', '150', '141', '129', '148', '105', '100', '73', '106'] 252.77777777777823
81 5.055555555555559 ['79', '132', '121', '103', '109', '146', '76', '150', '141', '129', '148', '105', '100', '73', '106'] 252.77777777777823
82 5.055555555555559 ['79', '132', '121', '103', '109', '146', '76', '150', '141', '129', '148', '105', '100', '73', '106'] 252.77777777777823
83 5.055555555555559 ['79', '132', '121', '103', '109', '146', '76', '150', '141', '129', '148', '105', '100', '73', '106'] 252.77777777777823
84 5.055555555555559 ['79', '132', '121', '103', '109', '146', '76', '150', '141', '129', '148', '105', '100', '73', '106'] 252.77777777777823
85 5.055555555555559 ['79', '132', '121', '103', '109', '146', '76', '150', '141', '129', '148', '105', '100', '73', '106'] 252.77777777777823
86 5.055555555555559 ['79', '132', '121', '103', '109', '146', '76', '150', '141', '129', '148', '105', '100', '73', '106'] 252.77777777777823
87 5.055555555555559 ['79', '132', '121', '103', '109', '146', '76', '150', '141', '129', '148', '105', '100', '73', '106'] 252.77777777777823
88 5.055555555555559 ['79', '132', '121', '103', '109', '146', '76', '150', '141', '129', '148', '105', '100', '73', '106'] 252.77777777777823
89 5.055555555555559 ['79', '132', '121', '103', '109', '146', '76', '150', '141', '129', '148', '105', '100', '73', '106'] 252.77777777777823
90 5.055555555555559 ['79', '132', '121', '103', '109', '146', '76', '150', '141', '129', '148', '105', '100', '73', '106'] 252.77777777777823
91 5.055555555555559 ['79', '132', '121', '103', '109', '146', '76', '150', '141', '129', '148', '105', '100', '73', '106'] 252.77777777777823
92 5.055555555555559 ['79', '132', '121', '103', '109', '146', '76', '150', '141', '129', '148', '105', '100', '73', '106'] 252.77777777777823
93 5.055555555555559 ['79', '132', '121', '103', '109', '146', '76', '150', '141', '129', '148', '105', '100', '73', '106'] 252.77777777777823
94 5.055555555555559 ['79', '132', '121', '103', '109', '146', '76', '150', '141', '129', '148', '105', '100', '73', '106'] 252.77777777777823
95 5.055555555555559 ['79', '132', '121', '103', '109', '146', '76', '150', '141', '129', '148', '105', '100', '73', '106'] 252.77777777777823
96 5.055555555555559 ['79', '132', '121', '103', '109', '146', '76', '150', '141', '129', '148', '105', '100', '73', '106'] 252.77777777777823
97 5.055555555555559 ['79', '132', '121', '103', '109', '146', '76', '150', '141', '129', '148', '105', '100', '73', '106'] 252.77777777777823
98 5.055555555555559 ['79', '132', '121', '103', '109', '146', '76', '150', '141', '129', '148', '105', '100', '73', '106'] 252.77777777777823
99 5.055555555555559 ['79', '132', '121', '103', '109', '146', '76', '150', '141', '129', '148', '105', '100', '73', '106'] 252.77777777777823
100 5.055555555555559 ['79', '132', '121', '103', '109', '146', '76', '150', '141', '129', '148', '105', '100', '73', '106'] 252.77777777777823
101 5.055555555555559 ['79', '132', '121', '103', '109', '146', '76', '150', '141', '129', '148', '105', '100', '73', '106'] 252.77777777777823
102 5.055555555555559 ['79', '132', '121', '103', '109', '146', '76', '150', '141', '129', '148', '105', '100', '73', '106'] 252.77777777777823
103 5.055555555555559 ['79', '132', '121', '103', '109', '146', '76', '150', '141', '129', '148', '105', '100', '73', '106'] 252.77777777777823
104 5.055555555555559 ['79', '132', '121', '103', '109', '146', '76', '150', '141', '129', '148', '105', '100', '73', '106'] 252.77777777777823
105 5.055555555555559 ['79', '132', '121', '103', '109', '146', '76', '150', '141', '129', '148', '105', '100', '73', '106'] 252.77777777777823
106 5.055555555555559 ['79', '132', '121', '103', '109', '146', '76', '150', '141', '129', '148', '105', '100', '73', '106'] 252.77777777777823
107 5.055555555555559 ['79', '132', '121', '103', '109', '146', '76', '150', '141', '129', '148', '105', '100', '73', '106'] 252.77777777777823
108 5.055555555555559 ['79', '132', '121', '103', '109', '146', '76', '150', '141', '129', '148', '105', '100', '73', '106'] 252.77777777777823
109 5.055555555555559 ['79', '132', '121', '103', '109', '146', '76', '150', '141', '129', '148', '105', '100', '73', '106'] 252.77777777777823
110 5.055555555555559 ['79', '132', '121', '103', '109', '146', '76', '150', '141', '129', '148', '105', '100', '73', '106'] 252.77777777777823
111 5.055555555555559 ['79', '132', '121', '103', '109', '146', '76', '150', '141', '129', '148', '105', '100', '73', '106'] 252.77777777777823
112 5.055555555555559 ['79', '132', '121', '103', '109', '146', '76', '150', '141', '129', '148', '105', '100', '73', '106'] 252.77777777777823
113 5.055555555555559 ['79', '132', '121', '103', '109', '146', '76', '150', '141', '129', '148', '105', '100', '73', '106'] 252.77777777777823
114 5.055555555555559 ['79', '132', '121', '103', '109', '146', '76', '150', '141', '129', '148', '105', '100', '73', '106'] 252.77777777777823
115 5.055555555555559 ['79', '132', '121', '103', '109', '146', '76', '150', '141', '129', '148', '105', '100', '73', '106'] 252.77777777777823
116 5.055555555555559 ['79', '132', '121', '103', '109', '146', '76', '150', '141', '129', '148', '105', '100', '73', '106'] 252.77777777777823
117 5.055555555555559 ['79', '132', '121', '103', '109', '146', '76', '150', '141', '129', '148', '105', '100', '73', '106'] 252.77777777777823
118 5.055555555555559 ['79', '132', '121', '103', '109', '146', '76', '150', '141', '129', '148', '105', '100', '73', '106'] 252.77777777777823
119 5.055555555555559 ['79', '132', '121', '103', '109', '146', '76', '150', '141', '129', '148', '105', '100', '73', '106'] 252.77777777777823
120 5.055555555555559 ['79', '132', '121', '103', '109', '146', '76', '150', '141', '129', '148', '105', '100', '73', '106'] 252.77777777777823
121 5.055555555555559 ['79', '132', '121', '103', '109', '146', '76', '150', '141', '129', '148', '105', '100', '73', '106'] 252.77777777777823
122 5.055555555555559 ['79', '132', '121', '103', '109', '146', '76', '150', '141', '129', '148', '105', '100', '73', '106'] 252.77777777777823
123 5.055555555555559 ['79', '132', '121', '103', '109', '146', '76', '150', '141', '129', '148', '105', '100', '73', '106'] 252.77777777777823
124 5.055555555555559 ['79', '132', '121', '103', '109', '146', '76', '150', '141', '129', '148', '105', '100', '73', '106'] 252.77777777777823
125 5.055555555555559 ['79', '132', '121', '103', '109', '146', '76', '150', '141', '129', '148', '105', '100', '73', '106'] 252.77777777777823
126 5.055555555555559 ['79', '132', '121', '103', '109', '146', '76', '150', '141', '129', '148', '105', '100', '73', '106'] 252.77777777777823
127 5.055555555555559 ['79', '132', '121', '103', '109', '146', '76', '150', '141', '129', '148', '105', '100', '73', '106'] 252.77777777777823
128 5.055555555555559 ['79', '132', '121', '103', '109', '146', '76', '150', '141', '129', '148', '105', '100', '73', '106'] 252.77777777777823
129 5.055555555555559 ['79', '132', '121', '103', '109', '146', '76', '150', '141', '129', '148', '105', '100', '73', '106'] 252.77777777777823
130 5.055555555555559 ['79', '132', '121', '103', '109', '146', '76', '150', '141', '129', '148', '105', '100', '73', '106'] 252.77777777777823
131 5.055555555555559 ['79', '132', '121', '103', '109', '146', '76', '150', '141', '129', '148', '105', '100', '73', '106'] 252.77777777777823
132 5.055555555555559 ['79', '132', '121', '103', '109', '146', '76', '150', '141', '129', '148', '105', '100', '73', '106'] 252.77777777777823
133 5.055555555555559 ['79', '132', '121', '103', '109', '146', '76', '150', '141', '129', '148', '105', '100', '73', '106'] 252.77777777777823
134 5.055555555555559 ['79', '132', '121', '103', '109', '146', '76', '150', '141', '129', '148', '105', '100', '73', '106'] 252.77777777777823
135 5.055555555555559 ['79', '132', '121', '103', '109', '146', '76', '150', '141', '129', '148', '105', '100', '73', '106'] 252.77777777777823
136 5.055555555555559 ['79', '132', '121', '103', '109', '146', '76', '150', '141', '129', '148', '105', '100', '73', '106'] 252.77777777777823
137 5.055555555555559 ['79', '132', '121', '103', '109', '146', '76', '150', '141', '129', '148', '105', '100', '73', '106'] 252.77777777777823
138 5.055555555555559 ['79', '132', '121', '103', '109', '146', '76', '150', '141', '129', '148', '105', '100', '73', '106'] 252.77777777777823
139 5.055555555555559 ['79', '132', '121', '103', '109', '146', '76', '150', '141', '129', '148', '105', '100', '73', '106'] 252.77777777777823
140 5.055555555555559 ['79', '132', '121', '103', '109', '146', '76', '150', '141', '129', '148', '105', '100', '73', '106'] 252.77777777777823
141 5.055555555555559 ['79', '132', '121', '103', '109', '146', '76', '150', '141', '129', '148', '105', '100', '73', '106'] 252.77777777777823
142 5.055555555555559 ['79', '132', '121', '103', '109', '146', '76', '150', '141', '129', '148', '105', '100', '73', '106'] 252.77777777777823
143 5.055555555555559 ['79', '132', '121', '103', '109', '146', '76', '150', '141', '129', '148', '105', '100', '73', '106'] 252.77777777777823
144 5.055555555555559 ['79', '132', '121', '103', '109', '146', '76', '150', '141', '129', '148', '105', '100', '73', '106'] 252.77777777777823
145 5.055555555555559 ['79', '132', '121', '103', '109', '146', '76', '150', '141', '129', '148', '105', '100', '73', '106'] 252.77777777777823
146 5.055555555555559 ['79', '132', '121', '103', '109', '146', '76', '150', '141', '129', '148', '105', '100', '73', '106'] 252.77777777777823
147 5.055555555555559 ['79', '132', '121', '103', '109', '146', '76', '150', '141', '129', '148', '105', '100', '73', '106'] 252.77777777777823
148 5.055555555555559 ['79', '132', '121', '103', '109', '146', '76', '150', '141', '129', '148', '105', '100', '73', '106'] 252.77777777777823
149 5.055555555555559 ['79', '132', '121', '103', '109', '146', '76', '150', '141', '129', '148', '105', '100', '73', '106'] 252.77777777777823
150 5.055555555555559 ['79', '132', '121', '103', '109', '146', '76', '150', '141', '129', '148', '105', '100', '73', '106'] 252.77777777777823
151 5.055555555555559 ['79', '132', '121', '103', '109', '146', '76', '150', '141', '129', '148', '105', '100', '73', '106'] 252.77777777777823
152 5.055555555555559 ['79', '132', '121', '103', '109', '146', '76', '150', '141', '129', '148', '105', '100', '73', '106'] 252.77777777777823
153 5.055555555555559 ['79', '132', '121', '103', '109', '146', '76', '150', '141', '129', '148', '105', '100', '73', '106'] 252.77777777777823
154 5.055555555555559 ['79', '132', '121', '103', '109', '146', '76', '150', '141', '129', '148', '105', '100', '73', '106'] 252.77777777777823
155 5.055555555555559 ['79', '132', '121', '103', '109', '146', '76', '150', '141', '129', '148', '105', '100', '73', '106'] 252.77777777777823
156 5.055555555555559 ['79', '132', '121', '103', '109', '146', '76', '150', '141', '129', '148', '105', '100', '73', '106'] 252.77777777777823
157 5.055555555555559 ['79', '132', '121', '103', '109', '146', '76', '150', '141', '129', '148', '105', '100', '73', '106'] 252.77777777777823
158 5.055555555555559 ['79', '132', '121', '103', '109', '146', '76', '150', '141', '129', '148', '105', '100', '73', '106'] 252.77777777777823
159 5.055555555555559 ['79', '132', '121', '103', '109', '146', '76', '150', '141', '129', '148', '105', '100', '73', '106'] 252.77777777777823
160 5.055555555555559 ['79', '132', '121', '103', '109', '146', '76', '150', '141', '129', '148', '105', '100', '73', '106'] 252.77777777777823
161 5.055555555555559 ['79', '132', '121', '103', '109', '146', '76', '150', '141', '129', '148', '105', '100', '73', '106'] 252.77777777777823
162 5.055555555555559 ['79', '132', '121', '103', '109', '146', '76', '150', '141', '129', '148', '105', '100', '73', '106'] 252.77777777777823
163 5.055555555555559 ['79', '132', '121', '103', '109', '146', '76', '150', '141', '129', '148', '105', '100', '73', '106'] 252.77777777777823
164 5.055555555555559 ['79', '132', '121', '103', '109', '146', '76', '150', '141', '129', '148', '105', '100', '73', '106'] 252.77777777777823
165 5.055555555555559 ['79', '132', '121', '103', '109', '146', '76', '150', '141', '129', '148', '105', '100', '73', '106'] 252.77777777777823
166 5.055555555555559 ['79', '132', '121', '103', '109', '146', '76', '150', '141', '129', '148', '105', '100', '73', '106'] 252.77777777777823
167 5.055555555555559 ['79', '132', '121', '103', '109', '146', '76', '150', '141', '129', '148', '105', '100', '73', '106'] 252.77777777777823
168 5.055555555555559 ['79', '132', '121', '103', '109', '146', '76', '150', '141', '129', '148', '105', '100', '73', '106'] 252.77777777777823
169 5.055555555555559 ['79', '132', '121', '103', '109', '146', '76', '150', '141', '129', '148', '105', '100', '73', '106'] 252.77777777777823
170 5.055555555555559 ['79', '132', '121', '103', '109', '146', '76', '150', '141', '129', '148', '105', '100', '73', '106'] 252.77777777777823
171 5.055555555555559 ['79', '132', '121', '103', '109', '146', '76', '150', '141', '129', '148', '105', '100', '73', '106'] 252.77777777777823
172 5.055555555555559 ['79', '132', '121', '103', '109', '146', '76', '150', '141', '129', '148', '105', '100', '73', '106'] 252.77777777777823
173 5.055555555555559 ['79', '132', '121', '103', '109', '146', '76', '150', '141', '129', '148', '105', '100', '73', '106'] 252.77777777777823
174 5.055555555555559 ['79', '132', '121', '103', '109', '146', '76', '150', '141', '129', '148', '105', '100', '73', '106'] 252.77777777777823
175 5.055555555555559 ['79', '132', '121', '103', '109', '146', '76', '150', '141', '129', '148', '105', '100', '73', '106'] 252.77777777777823
176 5.055555555555559 ['79', '132', '121', '103', '109', '146', '76', '150', '141', '129', '148', '105', '100', '73', '106'] 252.77777777777823
177 5.055555555555559 ['79', '132', '121', '103', '109', '146', '76', '150', '141', '129', '148', '105', '100', '73', '106'] 252.77777777777823
178 5.055555555555559 ['79', '132', '121', '103', '109', '146', '76', '150', '141', '129', '148', '105', '100', '73', '106'] 252.77777777777823
179 5.055555555555559 ['79', '132', '121', '103', '109', '146', '76', '150', '141', '129', '148', '105', '100', '73', '106'] 252.77777777777823
180 5.055555555555559 ['79', '132', '121', '103', '109', '146', '76', '150', '141', '129', '148', '105', '100', '73', '106'] 252.77777777777823
181 5.055555555555559 ['79', '132', '121', '103', '109', '146', '76', '150', '141', '129', '148', '105', '100', '73', '106'] 252.77777777777823
182 5.055555555555559 ['79', '132', '121', '103', '109', '146', '76', '150', '141', '129', '148', '105', '100', '73', '106'] 252.77777777777823
183 5.055555555555559 ['79', '132', '121', '103', '109', '146', '76', '150', '141', '129', '148', '105', '100', '73', '106'] 252.77777777777823
184 5.055555555555559 ['79', '132', '121', '103', '109', '146', '76', '150', '141', '129', '148', '105', '100', '73', '106'] 252.77777777777823
185 5.055555555555559 ['79', '132', '121', '103', '109', '146', '76', '150', '141', '129', '148', '105', '100', '73', '106'] 252.77777777777823
186 5.055555555555559 ['79', '132', '121', '103', '109', '146', '76', '150', '141', '129', '148', '105', '100', '73', '106'] 252.77777777777823
187 5.055555555555559 ['79', '132', '121', '103', '109', '146', '76', '150', '141', '129', '148', '105', '100', '73', '106'] 252.77777777777823
188 5.055555555555559 ['79', '132', '121', '103', '109', '146', '76', '150', '141', '129', '148', '105', '100', '73', '106'] 252.77777777777823
189 5.055555555555559 ['79', '132', '121', '103', '109', '146', '76', '150', '141', '129', '148', '105', '100', '73', '106'] 252.77777777777823
190 5.055555555555559 ['79', '132', '121', '103', '109', '146', '76', '150', '141', '129', '148', '105', '100', '73', '106'] 252.77777777777823
191 5.055555555555559 ['79', '132', '121', '103', '109', '146', '76', '150', '141', '129', '148', '105', '100', '73', '106'] 252.77777777777823
192 5.055555555555559 ['79', '132', '121', '103', '109', '146', '76', '150', '141', '129', '148', '105', '100', '73', '106'] 252.77777777777823
193 5.055555555555559 ['79', '132', '121', '103', '109', '146', '76', '150', '141', '129', '148', '105', '100', '73', '106'] 252.77777777777823
194 5.055555555555559 ['79', '132', '121', '103', '109', '146', '76', '150', '141', '129', '148', '105', '100', '73', '106'] 252.77777777777823
195 5.055555555555559 ['79', '132', '121', '103', '109', '146', '76', '150', '141', '129', '148', '105', '100', '73', '106'] 252.77777777777823
196 5.055555555555559 ['79', '132', '121', '103', '109', '146', '76', '150', '141', '129', '148', '105', '100', '73', '106'] 252.77777777777823
197 5.055555555555559 ['79', '132', '121', '103', '109', '146', '76', '150', '141', '129', '148', '105', '100', '73', '106'] 252.77777777777823
198 5.055555555555559 ['79', '132', '121', '103', '109', '146', '76', '150', '141', '129', '148', '105', '100', '73', '106'] 252.77777777777823
199 5.055555555555559 ['79', '132', '121', '103', '109', '146', '76', '150', '141', '129', '148', '105', '100', '73', '106'] 252.77777777777823
