0 5.111111111111111 ['30', '19', '34', '10'] 298.7777777777778
1 5.111111111111111 ['30', '19', '34', '10'] 289.2222222222222
2 5.111111111111111 ['30', '19', '34', '10'] 278.111111111111
3 5.0 ['19', '6', '10', '34'] 269.9999999999998
4 4.888888888888889 ['19', '5', '4', '34'] 261.2222222222225
5 4.888888888888889 ['19', '5', '4', '34'] 255.00000000000014
6 4.777777777777778 ['19', '34', '10', '4'] 252.44444444444454
7 4.777777777777778 ['19', '34', '10', '4'] 249.66666666666669
8 4.777777777777778 ['19', '34', '10', '4'] 248.1111111111111
9 4.777777777777778 ['19', '34', '10', '4'] 245.66666666666663
10 4.777777777777778 ['19', '34', '10', '4'] 241.66666666666652
11 4.777777777777778 ['19', '34', '10', '4'] 238.88888888888866
12 4.777777777777778 ['19', '34', '10', '4'] 238.88888888888866
13 4.777777777777778 ['19', '34', '10', '4'] 238.88888888888866
14 4.777777777777778 ['19', '34', '10', '4'] 238.88888888888866
15 4.777777777777778 ['19', '34', '10', '4'] 238.88888888888866
16 4.777777777777778 ['19', '34', '10', '4'] 238.88888888888866
17 4.777777777777778 ['19', '34', '10', '4'] 238.88888888888866
18 4.777777777777778 ['19', '34', '10', '4'] 238.88888888888866
19 4.777777777777778 ['19', '34', '10', '4'] 238.88888888888866
20 4.777777777777778 ['19', '34', '10', '4'] 238.88888888888866
21 4.777777777777778 ['19', '34', '10', '4'] 238.88888888888866
22 4.777777777777778 ['19', '34', '10', '4'] 238.88888888888866
23 4.777777777777778 ['19', '34', '10', '4'] 238.88888888888866
24 4.777777777777778 ['19', '34', '10', '4'] 238.88888888888866
25 4.777777777777778 ['19', '34', '10', '4'] 238.88888888888866
26 4.777777777777778 ['19', '34', '10', '4'] 238.88888888888866
27 4.777777777777778 ['19', '34', '10', '4'] 238.88888888888866
28 4.777777777777778 ['19', '34', '10', '4'] 238.88888888888866
29 4.777777777777778 ['19', '34', '10', '4'] 238.88888888888866
30 4.777777777777778 ['19', '34', '10', '4'] 238.88888888888866
31 4.777777777777778 ['19', '34', '10', '4'] 238.88888888888866
32 4.777777777777778 ['19', '34', '10', '4'] 238.88888888888866
33 4.777777777777778 ['19', '34', '10', '4'] 238.88888888888866
34 4.777777777777778 ['19', '34', '10', '4'] 238.88888888888866
35 4.777777777777778 ['19', '34', '10', '4'] 238.88888888888866
36 4.777777777777778 ['19', '34', '10', '4'] 238.88888888888866
37 4.777777777777778 ['19', '34', '10', '4'] 238.88888888888866
38 4.777777777777778 ['19', '34', '10', '4'] 238.88888888888866
39 4.777777777777778 ['19', '34', '10', '4'] 238.88888888888866
40 4.777777777777778 ['19', '34', '10', '4'] 238.88888888888866
41 4.777777777777778 ['19', '34', '10', '4'] 238.88888888888866
42 4.777777777777778 ['19', '34', '10', '4'] 238.88888888888866
43 4.777777777777778 ['19', '34', '10', '4'] 238.88888888888866
44 4.777777777777778 ['19', '34', '10', '4'] 238.88888888888866
45 4.777777777777778 ['19', '34', '10', '4'] 238.88888888888866
46 4.777777777777778 ['19', '34', '10', '4'] 238.88888888888866
47 4.777777777777778 ['19', '34', '10', '4'] 238.88888888888866
48 4.777777777777778 ['19', '34', '10', '4'] 238.88888888888866
49 4.777777777777778 ['19', '34', '10', '4'] 238.88888888888866
50 4.777777777777778 ['19', '34', '10', '4'] 238.88888888888866
51 4.777777777777778 ['19', '34', '10', '4'] 238.88888888888866
52 4.777777777777778 ['19', '34', '10', '4'] 238.88888888888866
53 4.777777777777778 ['19', '34', '10', '4'] 238.88888888888866
54 4.777777777777778 ['19', '34', '10', '4'] 238.88888888888866
55 4.777777777777778 ['19', '34', '10', '4'] 238.88888888888866
56 4.777777777777778 ['19', '34', '10', '4'] 238.88888888888866
57 4.777777777777778 ['19', '34', '10', '4'] 238.88888888888866
58 4.777777777777778 ['19', '34', '10', '4'] 238.88888888888866
59 4.777777777777778 ['19', '34', '10', '4'] 238.88888888888866
60 4.777777777777778 ['19', '34', '10', '4'] 238.88888888888866
61 4.777777777777778 ['19', '34', '10', '4'] 238.88888888888866
62 4.777777777777778 ['19', '34', '10', '4'] 238.88888888888866
63 4.777777777777778 ['19', '34', '10', '4'] 238.88888888888866
64 4.777777777777778 ['19', '34', '10', '4'] 238.88888888888866
65 4.777777777777778 ['19', '34', '10', '4'] 238.88888888888866
66 4.777777777777778 ['19', '34', '10', '4'] 238.88888888888866
67 4.777777777777778 ['19', '34', '10', '4'] 238.88888888888866
68 4.777777777777778 ['19', '34', '10', '4'] 238.88888888888866
69 4.777777777777778 ['19', '34', '10', '4'] 238.88888888888866
70 4.777777777777778 ['19', '34', '10', '4'] 238.88888888888866
71 4.777777777777778 ['19', '34', '10', '4'] 238.88888888888866
72 4.777777777777778 ['19', '34', '10', '4'] 238.88888888888866
73 4.777777777777778 ['19', '34', '10', '4'] 238.88888888888866
74 4.777777777777778 ['19', '34', '10', '4'] 238.88888888888866
75 4.777777777777778 ['19', '34', '10', '4'] 238.88888888888866
76 4.777777777777778 ['19', '34', '10', '4'] 238.88888888888866
77 4.777777777777778 ['19', '34', '10', '4'] 238.88888888888866
78 4.777777777777778 ['19', '34', '10', '4'] 238.88888888888866
79 4.777777777777778 ['19', '34', '10', '4'] 238.88888888888866
80 4.777777777777778 ['19', '34', '10', '4'] 238.88888888888866
81 4.777777777777778 ['19', '34', '10', '4'] 238.88888888888866
82 4.777777777777778 ['19', '34', '10', '4'] 238.88888888888866
83 4.777777777777778 ['19', '34', '10', '4'] 238.88888888888866
84 4.777777777777778 ['19', '34', '10', '4'] 238.88888888888866
85 4.777777777777778 ['19', '34', '10', '4'] 238.88888888888866
86 4.777777777777778 ['19', '34', '10', '4'] 238.88888888888866
87 4.777777777777778 ['19', '34', '10', '4'] 238.88888888888866
88 4.777777777777778 ['19', '34', '10', '4'] 238.88888888888866
89 4.777777777777778 ['19', '34', '10', '4'] 238.88888888888866
90 4.777777777777778 ['19', '34', '10', '4'] 238.88888888888866
91 4.777777777777778 ['19', '34', '10', '4'] 238.88888888888866
92 4.777777777777778 ['19', '34', '10', '4'] 238.88888888888866
93 4.777777777777778 ['19', '34', '10', '4'] 238.88888888888866
94 4.777777777777778 ['19', '34', '10', '4'] 238.88888888888866
95 4.777777777777778 ['19', '34', '10', '4'] 238.88888888888866
96 4.777777777777778 ['19', '34', '10', '4'] 238.88888888888866
97 4.777777777777778 ['19', '34', '10', '4'] 238.88888888888866
98 4.777777777777778 ['19', '34', '10', '4'] 238.88888888888866
99 4.777777777777778 ['19', '34', '10', '4'] 238.88888888888866
100 4.777777777777778 ['19', '34', '10', '4'] 238.88888888888866
101 4.777777777777778 ['19', '34', '10', '4'] 238.88888888888866
102 4.777777777777778 ['19', '34', '10', '4'] 238.88888888888866
103 4.777777777777778 ['19', '34', '10', '4'] 238.88888888888866
104 4.777777777777778 ['19', '34', '10', '4'] 238.88888888888866
105 4.777777777777778 ['19', '34', '10', '4'] 238.88888888888866
106 4.777777777777778 ['19', '34', '10', '4'] 238.88888888888866
107 4.777777777777778 ['19', '34', '10', '4'] 238.88888888888866
108 4.777777777777778 ['19', '34', '10', '4'] 238.88888888888866
109 4.777777777777778 ['19', '34', '10', '4'] 238.88888888888866
110 4.777777777777778 ['19', '34', '10', '4'] 238.88888888888866
111 4.777777777777778 ['19', '34', '10', '4'] 238.88888888888866
112 4.777777777777778 ['19', '34', '10', '4'] 238.88888888888866
113 4.777777777777778 ['19', '34', '10', '4'] 238.88888888888866
114 4.777777777777778 ['19', '34', '10', '4'] 238.88888888888866
115 4.777777777777778 ['19', '34', '10', '4'] 238.88888888888866
116 4.777777777777778 ['19', '34', '10', '4'] 238.88888888888866
117 4.777777777777778 ['19', '34', '10', '4'] 238.88888888888866
118 4.777777777777778 ['19', '34', '10', '4'] 238.88888888888866
119 4.777777777777778 ['19', '34', '10', '4'] 238.88888888888866
120 4.777777777777778 ['19', '34', '10', '4'] 238.88888888888866
121 4.777777777777778 ['19', '34', '10', '4'] 238.88888888888866
122 4.777777777777778 ['19', '34', '10', '4'] 238.88888888888866
123 4.777777777777778 ['19', '34', '10', '4'] 238.88888888888866
124 4.777777777777778 ['19', '34', '10', '4'] 238.88888888888866
125 4.777777777777778 ['19', '34', '10', '4'] 238.88888888888866
126 4.777777777777778 ['19', '34', '10', '4'] 238.88888888888866
127 4.777777777777778 ['19', '34', '10', '4'] 238.88888888888866
128 4.777777777777778 ['19', '34', '10', '4'] 238.88888888888866
129 4.777777777777778 ['19', '34', '10', '4'] 238.88888888888866
130 4.777777777777778 ['19', '34', '10', '4'] 238.88888888888866
131 4.777777777777778 ['19', '34', '10', '4'] 238.88888888888866
132 4.777777777777778 ['19', '34', '10', '4'] 238.88888888888866
133 4.777777777777778 ['19', '34', '10', '4'] 238.88888888888866
134 4.777777777777778 ['19', '34', '10', '4'] 238.88888888888866
135 4.777777777777778 ['19', '34', '10', '4'] 238.88888888888866
136 4.777777777777778 ['19', '34', '10', '4'] 238.88888888888866
137 4.777777777777778 ['19', '34', '10', '4'] 238.88888888888866
138 4.777777777777778 ['19', '34', '10', '4'] 238.88888888888866
139 4.777777777777778 ['19', '34', '10', '4'] 238.88888888888866
140 4.777777777777778 ['19', '34', '10', '4'] 238.88888888888866
141 4.777777777777778 ['19', '34', '10', '4'] 238.88888888888866
142 4.777777777777778 ['19', '34', '10', '4'] 238.88888888888866
143 4.777777777777778 ['19', '34', '10', '4'] 238.88888888888866
144 4.777777777777778 ['19', '34', '10', '4'] 238.88888888888866
145 4.777777777777778 ['19', '34', '10', '4'] 238.88888888888866
146 4.777777777777778 ['19', '34', '10', '4'] 238.88888888888866
147 4.777777777777778 ['19', '34', '10', '4'] 238.88888888888866
148 4.777777777777778 ['19', '34', '10', '4'] 238.88888888888866
149 4.777777777777778 ['19', '34', '10', '4'] 238.88888888888866
150 4.777777777777778 ['19', '34', '10', '4'] 238.88888888888866
151 4.777777777777778 ['19', '34', '10', '4'] 238.88888888888866
152 4.777777777777778 ['19', '34', '10', '4'] 238.88888888888866
153 4.777777777777778 ['19', '34', '10', '4'] 238.88888888888866
154 4.777777777777778 ['19', '34', '10', '4'] 238.88888888888866
155 4.777777777777778 ['19', '34', '10', '4'] 238.88888888888866
156 4.777777777777778 ['19', '34', '10', '4'] 238.88888888888866
157 4.777777777777778 ['19', '34', '10', '4'] 238.88888888888866
158 4.777777777777778 ['19', '34', '10', '4'] 238.88888888888866
159 4.777777777777778 ['19', '34', '10', '4'] 238.88888888888866
160 4.777777777777778 ['19', '34', '10', '4'] 238.88888888888866
161 4.777777777777778 ['19', '34', '10', '4'] 238.88888888888866
162 4.777777777777778 ['19', '34', '10', '4'] 238.88888888888866
163 4.777777777777778 ['19', '34', '10', '4'] 238.88888888888866
164 4.777777777777778 ['19', '34', '10', '4'] 238.88888888888866
165 4.777777777777778 ['19', '34', '10', '4'] 238.88888888888866
166 4.777777777777778 ['19', '34', '10', '4'] 238.88888888888866
167 4.777777777777778 ['19', '34', '10', '4'] 238.88888888888866
168 4.777777777777778 ['19', '34', '10', '4'] 238.88888888888866
169 4.777777777777778 ['19', '34', '10', '4'] 238.88888888888866
170 4.777777777777778 ['19', '34', '10', '4'] 238.88888888888866
171 4.777777777777778 ['19', '34', '10', '4'] 238.88888888888866
172 4.777777777777778 ['19', '34', '10', '4'] 238.88888888888866
173 4.777777777777778 ['19', '34', '10', '4'] 238.88888888888866
174 4.777777777777778 ['19', '34', '10', '4'] 238.88888888888866
175 4.777777777777778 ['19', '34', '10', '4'] 238.88888888888866
176 4.777777777777778 ['19', '34', '10', '4'] 238.88888888888866
177 4.777777777777778 ['19', '34', '10', '4'] 238.88888888888866
178 4.777777777777778 ['19', '34', '10', '4'] 238.88888888888866
179 4.777777777777778 ['19', '34', '10', '4'] 238.88888888888866
180 4.777777777777778 ['19', '34', '10', '4'] 238.88888888888866
181 4.777777777777778 ['19', '34', '10', '4'] 238.88888888888866
182 4.777777777777778 ['19', '34', '10', '4'] 238.88888888888866
183 4.777777777777778 ['19', '34', '10', '4'] 238.88888888888866
184 4.777777777777778 ['19', '34', '10', '4'] 238.88888888888866
185 4.777777777777778 ['19', '34', '10', '4'] 238.88888888888866
186 4.777777777777778 ['19', '34', '10', '4'] 238.88888888888866
187 4.777777777777778 ['19', '34', '10', '4'] 238.88888888888866
188 4.777777777777778 ['19', '34', '10', '4'] 238.88888888888866
189 4.777777777777778 ['19', '34', '10', '4'] 238.88888888888866
190 4.777777777777778 ['19', '34', '10', '4'] 238.88888888888866
191 4.777777777777778 ['19', '34', '10', '4'] 238.88888888888866
192 4.777777777777778 ['19', '34', '10', '4'] 238.88888888888866
193 4.777777777777778 ['19', '34', '10', '4'] 238.88888888888866
194 4.777777777777778 ['19', '34', '10', '4'] 238.88888888888866
195 4.777777777777778 ['19', '34', '10', '4'] 238.88888888888866
196 4.777777777777778 ['19', '34', '10', '4'] 238.88888888888866
197 4.777777777777778 ['19', '34', '10', '4'] 238.88888888888866
198 4.777777777777778 ['19', '34', '10', '4'] 238.88888888888866
199 4.777777777777778 ['19', '34', '10', '4'] 238.88888888888866
