0 15.377777777777778 ['143', '102', '100', '137', '118', '96', '116', '83', '41', '130', '132', '57', '97', '149', '38'] 793.1925925925925
1 15.37037037037037 ['149', '118', '86', '105', '114', '132', '83', '137', '131', '103', '57', '116', '96', '130', '15'] 786.3111111111109
2 15.274074074074074 ['75', '96', '134', '40', '2', '8', '122', '135', '118', '132', '69', '136', '83', '145', '130'] 780.7555555555558
3 15.237037037037037 ['78', '130', '133', '21', '67', '100', '127', '60', '72', '118', '103', '149', '124', '148', '129'] 774.1037037037039
4 15.096296296296297 ['148', '71', '107', '135', '133', '136', '41', '149', '130', '134', '78', '103', '67', '72', '84'] 768.8000000000001
5 14.91851851851852 ['100', '149', '130', '118', '116', '148', '136', '129', '72', '134', '78', '103', '137', '133', '57'] 762.9259259259259
6 14.874074074074073 ['149', '130', '134', '116', '84', '132', '123', '97', '143', '71', '72', '127', '148', '135', '103'] 757.4370370370365
7 14.666666666666666 ['130', '137', '149', '103', '134', '148', '122', '100', '132', '118', '133', '96', '136', '116', '127'] 751.9555555555556
8 14.666666666666666 ['130', '137', '149', '103', '134', '148', '122', '100', '132', '118', '133', '96', '136', '116', '127'] 746.3703703703703
9 14.607407407407408 ['149', '38', '103', '139', '132', '148', '115', '138', '143', '144', '130', '133', '134', '96', '102'] 741.6370370370378
10 14.555555555555555 ['107', '148', '116', '130', '132', '149', '83', '122', '139', '115', '138', '135', '144', '103', '134'] 737.5185185185179
11 14.555555555555555 ['107', '148', '116', '130', '132', '149', '83', '122', '139', '115', '138', '135', '144', '103', '134'] 734.7703703703706
12 14.437037037037037 ['130', '149', '148', '102', '103', '134', '132', '133', '136', '135', '127', '115', '144', '107', '116'] 731.8296296296297
13 14.437037037037037 ['130', '149', '148', '102', '103', '134', '132', '133', '136', '135', '127', '115', '144', '107', '116'] 729.74074074074
14 14.348148148148148 ['133', '130', '138', '107', '143', '132', '102', '149', '148', '137', '134', '136', '145', '103', '139'] 726.4222222222224
15 14.296296296296296 ['103', '149', '130', '148', '127', '136', '133', '102', '132', '138', '71', '139', '134', '144', '143'] 723.0370370370366
16 14.244444444444444 ['103', '127', '132', '139', '134', '102', '148', '136', '130', '149', '144', '133', '143', '107', '145'] 720.1777777777778
17 14.244444444444444 ['103', '127', '132', '139', '134', '102', '148', '136', '130', '149', '144', '133', '143', '107', '145'] 718.0666666666666
18 14.22962962962963 ['130', '133', '143', '134', '103', '132', '149', '136', '148', '127', '102', '138', '116', '144', '139'] 716.5259259259253
19 14.214814814814815 ['107', '148', '144', '133', '130', '149', '127', '132', '102', '136', '134', '139', '103', '138', '145'] 714.9925925925934
20 14.214814814814815 ['107', '148', '144', '133', '130', '149', '127', '132', '102', '136', '134', '139', '103', '138', '145'] 713.725925925926
21 14.192592592592593 ['136', '134', '132', '133', '103', '149', '102', '144', '139', '148', '138', '127', '130', '143', '145'] 712.4518518518516
22 14.192592592592593 ['136', '134', '132', '133', '103', '149', '102', '144', '139', '148', '138', '127', '130', '143', '145'] 711.1777777777775
23 14.192592592592593 ['136', '134', '132', '133', '103', '149', '102', '144', '139', '148', '138', '127', '130', '143', '145'] 710.5629629629636
24 14.192592592592593 ['136', '134', '132', '133', '103', '149', '102', '144', '139', '148', '138', '127', '130', '143', '145'] 710.3407407407415
25 14.192592592592593 ['136', '134', '132', '133', '103', '149', '102', '144', '139', '148', '138', '127', '130', '143', '145'] 709.8740740740745
26 14.192592592592593 ['136', '134', '132', '133', '103', '149', '102', '144', '139', '148', '138', '127', '130', '143', '145'] 709.6296296296299
27 14.192592592592593 ['136', '134', '132', '133', '103', '149', '102', '144', '139', '148', '138', '127', '130', '143', '145'] 709.6296296296299
28 14.192592592592593 ['136', '134', '132', '133', '103', '149', '102', '144', '139', '148', '138', '127', '130', '143', '145'] 709.6296296296299
29 14.192592592592593 ['136', '134', '132', '133', '103', '149', '102', '144', '139', '148', '138', '127', '130', '143', '145'] 709.6296296296299
30 14.192592592592593 ['136', '134', '132', '133', '103', '149', '102', '144', '139', '148', '138', '127', '130', '143', '145'] 709.6296296296299
31 14.192592592592593 ['136', '134', '132', '133', '103', '149', '102', '144', '139', '148', '138', '127', '130', '143', '145'] 709.6296296296299
32 14.192592592592593 ['136', '134', '132', '133', '103', '149', '102', '144', '139', '148', '138', '127', '130', '143', '145'] 709.6296296296299
33 14.192592592592593 ['136', '134', '132', '133', '103', '149', '102', '144', '139', '148', '138', '127', '130', '143', '145'] 709.6296296296299
34 14.192592592592593 ['136', '134', '132', '133', '103', '149', '102', '144', '139', '148', '138', '127', '130', '143', '145'] 709.6296296296299
35 14.192592592592593 ['136', '134', '132', '133', '103', '149', '102', '144', '139', '148', '138', '127', '130', '143', '145'] 709.6296296296299
36 14.192592592592593 ['136', '134', '132', '133', '103', '149', '102', '144', '139', '148', '138', '127', '130', '143', '145'] 709.6296296296299
37 14.192592592592593 ['136', '134', '132', '133', '103', '149', '102', '144', '139', '148', '138', '127', '130', '143', '145'] 709.6296296296299
38 14.192592592592593 ['136', '134', '132', '133', '103', '149', '102', '144', '139', '148', '138', '127', '130', '143', '145'] 709.6296296296299
39 14.192592592592593 ['136', '134', '132', '133', '103', '149', '102', '144', '139', '148', '138', '127', '130', '143', '145'] 709.6296296296299
40 14.192592592592593 ['136', '134', '132', '133', '103', '149', '102', '144', '139', '148', '138', '127', '130', '143', '145'] 709.6296296296299
41 14.192592592592593 ['136', '134', '132', '133', '103', '149', '102', '144', '139', '148', '138', '127', '130', '143', '145'] 709.6296296296299
42 14.192592592592593 ['136', '134', '132', '133', '103', '149', '102', '144', '139', '148', '138', '127', '130', '143', '145'] 709.6296296296299
43 14.192592592592593 ['136', '134', '132', '133', '103', '149', '102', '144', '139', '148', '138', '127', '130', '143', '145'] 709.6296296296299
44 14.192592592592593 ['136', '134', '132', '133', '103', '149', '102', '144', '139', '148', '138', '127', '130', '143', '145'] 709.6296296296299
45 14.192592592592593 ['136', '134', '132', '133', '103', '149', '102', '144', '139', '148', '138', '127', '130', '143', '145'] 709.6296296296299
46 14.192592592592593 ['136', '134', '132', '133', '103', '149', '102', '144', '139', '148', '138', '127', '130', '143', '145'] 709.6296296296299
47 14.192592592592593 ['136', '134', '132', '133', '103', '149', '102', '144', '139', '148', '138', '127', '130', '143', '145'] 709.6296296296299
48 14.192592592592593 ['136', '134', '132', '133', '103', '149', '102', '144', '139', '148', '138', '127', '130', '143', '145'] 709.6296296296299
49 14.192592592592593 ['136', '134', '132', '133', '103', '149', '102', '144', '139', '148', '138', '127', '130', '143', '145'] 709.6296296296299
50 14.192592592592593 ['136', '134', '132', '133', '103', '149', '102', '144', '139', '148', '138', '127', '130', '143', '145'] 709.6296296296299
51 14.192592592592593 ['136', '134', '132', '133', '103', '149', '102', '144', '139', '148', '138', '127', '130', '143', '145'] 709.6296296296299
52 14.192592592592593 ['136', '134', '132', '133', '103', '149', '102', '144', '139', '148', '138', '127', '130', '143', '145'] 709.6296296296299
53 14.192592592592593 ['136', '134', '132', '133', '103', '149', '102', '144', '139', '148', '138', '127', '130', '143', '145'] 709.6296296296299
54 14.192592592592593 ['136', '134', '132', '133', '103', '149', '102', '144', '139', '148', '138', '127', '130', '143', '145'] 709.6296296296299
55 14.192592592592593 ['136', '134', '132', '133', '103', '149', '102', '144', '139', '148', '138', '127', '130', '143', '145'] 709.6296296296299
56 14.192592592592593 ['136', '134', '132', '133', '103', '149', '102', '144', '139', '148', '138', '127', '130', '143', '145'] 709.6296296296299
57 14.192592592592593 ['136', '134', '132', '133', '103', '149', '102', '144', '139', '148', '138', '127', '130', '143', '145'] 709.6296296296299
58 14.192592592592593 ['136', '134', '132', '133', '103', '149', '102', '144', '139', '148', '138', '127', '130', '143', '145'] 709.6296296296299
59 14.192592592592593 ['136', '134', '132', '133', '103', '149', '102', '144', '139', '148', '138', '127', '130', '143', '145'] 709.6296296296299
60 14.192592592592593 ['136', '134', '132', '133', '103', '149', '102', '144', '139', '148', '138', '127', '130', '143', '145'] 709.6296296296299
61 14.192592592592593 ['136', '134', '132', '133', '103', '149', '102', '144', '139', '148', '138', '127', '130', '143', '145'] 709.6296296296299
62 14.192592592592593 ['136', '134', '132', '133', '103', '149', '102', '144', '139', '148', '138', '127', '130', '143', '145'] 709.6296296296299
63 14.192592592592593 ['136', '134', '132', '133', '103', '149', '102', '144', '139', '148', '138', '127', '130', '143', '145'] 709.6296296296299
64 14.192592592592593 ['136', '134', '132', '133', '103', '149', '102', '144', '139', '148', '138', '127', '130', '143', '145'] 709.6296296296299
65 14.192592592592593 ['136', '134', '132', '133', '103', '149', '102', '144', '139', '148', '138', '127', '130', '143', '145'] 709.6296296296299
66 14.192592592592593 ['136', '134', '132', '133', '103', '149', '102', '144', '139', '148', '138', '127', '130', '143', '145'] 709.6296296296299
67 14.192592592592593 ['136', '134', '132', '133', '103', '149', '102', '144', '139', '148', '138', '127', '130', '143', '145'] 709.6296296296299
68 14.192592592592593 ['136', '134', '132', '133', '103', '149', '102', '144', '139', '148', '138', '127', '130', '143', '145'] 709.6296296296299
69 14.192592592592593 ['136', '134', '132', '133', '103', '149', '102', '144', '139', '148', '138', '127', '130', '143', '145'] 709.6296296296299
70 14.192592592592593 ['136', '134', '132', '133', '103', '149', '102', '144', '139', '148', '138', '127', '130', '143', '145'] 709.6296296296299
71 14.192592592592593 ['136', '134', '132', '133', '103', '149', '102', '144', '139', '148', '138', '127', '130', '143', '145'] 709.6296296296299
72 14.192592592592593 ['136', '134', '132', '133', '103', '149', '102', '144', '139', '148', '138', '127', '130', '143', '145'] 709.6296296296299
73 14.192592592592593 ['136', '134', '132', '133', '103', '149', '102', '144', '139', '148', '138', '127', '130', '143', '145'] 709.6296296296299
74 14.192592592592593 ['136', '134', '132', '133', '103', '149', '102', '144', '139', '148', '138', '127', '130', '143', '145'] 709.6296296296299
75 14.192592592592593 ['136', '134', '132', '133', '103', '149', '102', '144', '139', '148', '138', '127', '130', '143', '145'] 709.6296296296299
76 14.192592592592593 ['136', '134', '132', '133', '103', '149', '102', '144', '139', '148', '138', '127', '130', '143', '145'] 709.6296296296299
77 14.192592592592593 ['136', '134', '132', '133', '103', '149', '102', '144', '139', '148', '138', '127', '130', '143', '145'] 709.6296296296299
78 14.192592592592593 ['136', '134', '132', '133', '103', '149', '102', '144', '139', '148', '138', '127', '130', '143', '145'] 709.6296296296299
79 14.192592592592593 ['136', '134', '132', '133', '103', '149', '102', '144', '139', '148', '138', '127', '130', '143', '145'] 709.6296296296299
80 14.192592592592593 ['136', '134', '132', '133', '103', '149', '102', '144', '139', '148', '138', '127', '130', '143', '145'] 709.6296296296299
81 14.192592592592593 ['136', '134', '132', '133', '103', '149', '102', '144', '139', '148', '138', '127', '130', '143', '145'] 709.6296296296299
82 14.192592592592593 ['136', '134', '132', '133', '103', '149', '102', '144', '139', '148', '138', '127', '130', '143', '145'] 709.6296296296299
83 14.192592592592593 ['136', '134', '132', '133', '103', '149', '102', '144', '139', '148', '138', '127', '130', '143', '145'] 709.6296296296299
84 14.192592592592593 ['136', '134', '132', '133', '103', '149', '102', '144', '139', '148', '138', '127', '130', '143', '145'] 709.6296296296299
85 14.192592592592593 ['136', '134', '132', '133', '103', '149', '102', '144', '139', '148', '138', '127', '130', '143', '145'] 709.6296296296299
86 14.192592592592593 ['136', '134', '132', '133', '103', '149', '102', '144', '139', '148', '138', '127', '130', '143', '145'] 709.6296296296299
87 14.192592592592593 ['136', '134', '132', '133', '103', '149', '102', '144', '139', '148', '138', '127', '130', '143', '145'] 709.6296296296299
88 14.192592592592593 ['136', '134', '132', '133', '103', '149', '102', '144', '139', '148', '138', '127', '130', '143', '145'] 709.6296296296299
89 14.192592592592593 ['136', '134', '132', '133', '103', '149', '102', '144', '139', '148', '138', '127', '130', '143', '145'] 709.6296296296299
90 14.192592592592593 ['136', '134', '132', '133', '103', '149', '102', '144', '139', '148', '138', '127', '130', '143', '145'] 709.6296296296299
91 14.192592592592593 ['136', '134', '132', '133', '103', '149', '102', '144', '139', '148', '138', '127', '130', '143', '145'] 709.6296296296299
92 14.192592592592593 ['136', '134', '132', '133', '103', '149', '102', '144', '139', '148', '138', '127', '130', '143', '145'] 709.6296296296299
93 14.192592592592593 ['136', '134', '132', '133', '103', '149', '102', '144', '139', '148', '138', '127', '130', '143', '145'] 709.6296296296299
94 14.192592592592593 ['136', '134', '132', '133', '103', '149', '102', '144', '139', '148', '138', '127', '130', '143', '145'] 709.6296296296299
95 14.192592592592593 ['136', '134', '132', '133', '103', '149', '102', '144', '139', '148', '138', '127', '130', '143', '145'] 709.6296296296299
96 14.192592592592593 ['136', '134', '132', '133', '103', '149', '102', '144', '139', '148', '138', '127', '130', '143', '145'] 709.6296296296299
97 14.192592592592593 ['136', '134', '132', '133', '103', '149', '102', '144', '139', '148', '138', '127', '130', '143', '145'] 709.6296296296299
98 14.192592592592593 ['136', '134', '132', '133', '103', '149', '102', '144', '139', '148', '138', '127', '130', '143', '145'] 709.6296296296299
99 14.192592592592593 ['136', '134', '132', '133', '103', '149', '102', '144', '139', '148', '138', '127', '130', '143', '145'] 709.6296296296299
100 14.192592592592593 ['136', '134', '132', '133', '103', '149', '102', '144', '139', '148', '138', '127', '130', '143', '145'] 709.6296296296299
101 14.192592592592593 ['136', '134', '132', '133', '103', '149', '102', '144', '139', '148', '138', '127', '130', '143', '145'] 709.6296296296299
102 14.192592592592593 ['136', '134', '132', '133', '103', '149', '102', '144', '139', '148', '138', '127', '130', '143', '145'] 709.6296296296299
103 14.192592592592593 ['136', '134', '132', '133', '103', '149', '102', '144', '139', '148', '138', '127', '130', '143', '145'] 709.6296296296299
104 14.192592592592593 ['136', '134', '132', '133', '103', '149', '102', '144', '139', '148', '138', '127', '130', '143', '145'] 709.6296296296299
105 14.192592592592593 ['136', '134', '132', '133', '103', '149', '102', '144', '139', '148', '138', '127', '130', '143', '145'] 709.6296296296299
106 14.192592592592593 ['136', '134', '132', '133', '103', '149', '102', '144', '139', '148', '138', '127', '130', '143', '145'] 709.6296296296299
107 14.192592592592593 ['136', '134', '132', '133', '103', '149', '102', '144', '139', '148', '138', '127', '130', '143', '145'] 709.6296296296299
108 14.192592592592593 ['136', '134', '132', '133', '103', '149', '102', '144', '139', '148', '138', '127', '130', '143', '145'] 709.6296296296299
109 14.192592592592593 ['136', '134', '132', '133', '103', '149', '102', '144', '139', '148', '138', '127', '130', '143', '145'] 709.6296296296299
110 14.192592592592593 ['136', '134', '132', '133', '103', '149', '102', '144', '139', '148', '138', '127', '130', '143', '145'] 709.6296296296299
111 14.192592592592593 ['136', '134', '132', '133', '103', '149', '102', '144', '139', '148', '138', '127', '130', '143', '145'] 709.6296296296299
112 14.192592592592593 ['136', '134', '132', '133', '103', '149', '102', '144', '139', '148', '138', '127', '130', '143', '145'] 709.6296296296299
113 14.192592592592593 ['136', '134', '132', '133', '103', '149', '102', '144', '139', '148', '138', '127', '130', '143', '145'] 709.6296296296299
114 14.192592592592593 ['136', '134', '132', '133', '103', '149', '102', '144', '139', '148', '138', '127', '130', '143', '145'] 709.6296296296299
115 14.192592592592593 ['136', '134', '132', '133', '103', '149', '102', '144', '139', '148', '138', '127', '130', '143', '145'] 709.6296296296299
116 14.192592592592593 ['136', '134', '132', '133', '103', '149', '102', '144', '139', '148', '138', '127', '130', '143', '145'] 709.6296296296299
117 14.192592592592593 ['136', '134', '132', '133', '103', '149', '102', '144', '139', '148', '138', '127', '130', '143', '145'] 709.6296296296299
118 14.192592592592593 ['136', '134', '132', '133', '103', '149', '102', '144', '139', '148', '138', '127', '130', '143', '145'] 709.6296296296299
119 14.192592592592593 ['136', '134', '132', '133', '103', '149', '102', '144', '139', '148', '138', '127', '130', '143', '145'] 709.6296296296299
120 14.192592592592593 ['136', '134', '132', '133', '103', '149', '102', '144', '139', '148', '138', '127', '130', '143', '145'] 709.6296296296299
121 14.192592592592593 ['136', '134', '132', '133', '103', '149', '102', '144', '139', '148', '138', '127', '130', '143', '145'] 709.6296296296299
122 14.192592592592593 ['136', '134', '132', '133', '103', '149', '102', '144', '139', '148', '138', '127', '130', '143', '145'] 709.6296296296299
123 14.192592592592593 ['136', '134', '132', '133', '103', '149', '102', '144', '139', '148', '138', '127', '130', '143', '145'] 709.6296296296299
124 14.192592592592593 ['136', '134', '132', '133', '103', '149', '102', '144', '139', '148', '138', '127', '130', '143', '145'] 709.6296296296299
125 14.192592592592593 ['136', '134', '132', '133', '103', '149', '102', '144', '139', '148', '138', '127', '130', '143', '145'] 709.6296296296299
126 14.192592592592593 ['136', '134', '132', '133', '103', '149', '102', '144', '139', '148', '138', '127', '130', '143', '145'] 709.6296296296299
127 14.192592592592593 ['136', '134', '132', '133', '103', '149', '102', '144', '139', '148', '138', '127', '130', '143', '145'] 709.6296296296299
128 14.192592592592593 ['136', '134', '132', '133', '103', '149', '102', '144', '139', '148', '138', '127', '130', '143', '145'] 709.6296296296299
129 14.192592592592593 ['136', '134', '132', '133', '103', '149', '102', '144', '139', '148', '138', '127', '130', '143', '145'] 709.6296296296299
130 14.192592592592593 ['136', '134', '132', '133', '103', '149', '102', '144', '139', '148', '138', '127', '130', '143', '145'] 709.6296296296299
131 14.192592592592593 ['136', '134', '132', '133', '103', '149', '102', '144', '139', '148', '138', '127', '130', '143', '145'] 709.6296296296299
132 14.192592592592593 ['136', '134', '132', '133', '103', '149', '102', '144', '139', '148', '138', '127', '130', '143', '145'] 709.6296296296299
133 14.192592592592593 ['136', '134', '132', '133', '103', '149', '102', '144', '139', '148', '138', '127', '130', '143', '145'] 709.6296296296299
134 14.192592592592593 ['136', '134', '132', '133', '103', '149', '102', '144', '139', '148', '138', '127', '130', '143', '145'] 709.6296296296299
135 14.192592592592593 ['136', '134', '132', '133', '103', '149', '102', '144', '139', '148', '138', '127', '130', '143', '145'] 709.6296296296299
136 14.192592592592593 ['136', '134', '132', '133', '103', '149', '102', '144', '139', '148', '138', '127', '130', '143', '145'] 709.6296296296299
137 14.192592592592593 ['136', '134', '132', '133', '103', '149', '102', '144', '139', '148', '138', '127', '130', '143', '145'] 709.6296296296299
138 14.192592592592593 ['136', '134', '132', '133', '103', '149', '102', '144', '139', '148', '138', '127', '130', '143', '145'] 709.6296296296299
139 14.192592592592593 ['136', '134', '132', '133', '103', '149', '102', '144', '139', '148', '138', '127', '130', '143', '145'] 709.6296296296299
140 14.192592592592593 ['136', '134', '132', '133', '103', '149', '102', '144', '139', '148', '138', '127', '130', '143', '145'] 709.6296296296299
141 14.192592592592593 ['136', '134', '132', '133', '103', '149', '102', '144', '139', '148', '138', '127', '130', '143', '145'] 709.6296296296299
142 14.192592592592593 ['136', '134', '132', '133', '103', '149', '102', '144', '139', '148', '138', '127', '130', '143', '145'] 709.6296296296299
143 14.192592592592593 ['136', '134', '132', '133', '103', '149', '102', '144', '139', '148', '138', '127', '130', '143', '145'] 709.6296296296299
144 14.192592592592593 ['136', '134', '132', '133', '103', '149', '102', '144', '139', '148', '138', '127', '130', '143', '145'] 709.6296296296299
145 14.192592592592593 ['136', '134', '132', '133', '103', '149', '102', '144', '139', '148', '138', '127', '130', '143', '145'] 709.6296296296299
146 14.192592592592593 ['136', '134', '132', '133', '103', '149', '102', '144', '139', '148', '138', '127', '130', '143', '145'] 709.6296296296299
147 14.192592592592593 ['136', '134', '132', '133', '103', '149', '102', '144', '139', '148', '138', '127', '130', '143', '145'] 709.6296296296299
148 14.192592592592593 ['136', '134', '132', '133', '103', '149', '102', '144', '139', '148', '138', '127', '130', '143', '145'] 709.6296296296299
149 14.192592592592593 ['136', '134', '132', '133', '103', '149', '102', '144', '139', '148', '138', '127', '130', '143', '145'] 709.6296296296299
150 14.192592592592593 ['136', '134', '132', '133', '103', '149', '102', '144', '139', '148', '138', '127', '130', '143', '145'] 709.6296296296299
151 14.192592592592593 ['136', '134', '132', '133', '103', '149', '102', '144', '139', '148', '138', '127', '130', '143', '145'] 709.6296296296299
152 14.192592592592593 ['136', '134', '132', '133', '103', '149', '102', '144', '139', '148', '138', '127', '130', '143', '145'] 709.6296296296299
153 14.192592592592593 ['136', '134', '132', '133', '103', '149', '102', '144', '139', '148', '138', '127', '130', '143', '145'] 709.6296296296299
154 14.192592592592593 ['136', '134', '132', '133', '103', '149', '102', '144', '139', '148', '138', '127', '130', '143', '145'] 709.6296296296299
155 14.192592592592593 ['136', '134', '132', '133', '103', '149', '102', '144', '139', '148', '138', '127', '130', '143', '145'] 709.6296296296299
156 14.192592592592593 ['136', '134', '132', '133', '103', '149', '102', '144', '139', '148', '138', '127', '130', '143', '145'] 709.6296296296299
157 14.192592592592593 ['136', '134', '132', '133', '103', '149', '102', '144', '139', '148', '138', '127', '130', '143', '145'] 709.6296296296299
158 14.192592592592593 ['136', '134', '132', '133', '103', '149', '102', '144', '139', '148', '138', '127', '130', '143', '145'] 709.6296296296299
159 14.192592592592593 ['136', '134', '132', '133', '103', '149', '102', '144', '139', '148', '138', '127', '130', '143', '145'] 709.6296296296299
160 14.192592592592593 ['136', '134', '132', '133', '103', '149', '102', '144', '139', '148', '138', '127', '130', '143', '145'] 709.6296296296299
161 14.192592592592593 ['136', '134', '132', '133', '103', '149', '102', '144', '139', '148', '138', '127', '130', '143', '145'] 709.6296296296299
162 14.192592592592593 ['136', '134', '132', '133', '103', '149', '102', '144', '139', '148', '138', '127', '130', '143', '145'] 709.6296296296299
163 14.192592592592593 ['136', '134', '132', '133', '103', '149', '102', '144', '139', '148', '138', '127', '130', '143', '145'] 709.6296296296299
164 14.192592592592593 ['136', '134', '132', '133', '103', '149', '102', '144', '139', '148', '138', '127', '130', '143', '145'] 709.6296296296299
165 14.192592592592593 ['136', '134', '132', '133', '103', '149', '102', '144', '139', '148', '138', '127', '130', '143', '145'] 709.6296296296299
166 14.192592592592593 ['136', '134', '132', '133', '103', '149', '102', '144', '139', '148', '138', '127', '130', '143', '145'] 709.6296296296299
167 14.192592592592593 ['136', '134', '132', '133', '103', '149', '102', '144', '139', '148', '138', '127', '130', '143', '145'] 709.6296296296299
168 14.192592592592593 ['136', '134', '132', '133', '103', '149', '102', '144', '139', '148', '138', '127', '130', '143', '145'] 709.6296296296299
169 14.192592592592593 ['136', '134', '132', '133', '103', '149', '102', '144', '139', '148', '138', '127', '130', '143', '145'] 709.6296296296299
170 14.192592592592593 ['136', '134', '132', '133', '103', '149', '102', '144', '139', '148', '138', '127', '130', '143', '145'] 709.6296296296299
171 14.192592592592593 ['136', '134', '132', '133', '103', '149', '102', '144', '139', '148', '138', '127', '130', '143', '145'] 709.6296296296299
172 14.192592592592593 ['136', '134', '132', '133', '103', '149', '102', '144', '139', '148', '138', '127', '130', '143', '145'] 709.6296296296299
173 14.192592592592593 ['136', '134', '132', '133', '103', '149', '102', '144', '139', '148', '138', '127', '130', '143', '145'] 709.6296296296299
174 14.192592592592593 ['136', '134', '132', '133', '103', '149', '102', '144', '139', '148', '138', '127', '130', '143', '145'] 709.6296296296299
175 14.192592592592593 ['136', '134', '132', '133', '103', '149', '102', '144', '139', '148', '138', '127', '130', '143', '145'] 709.6296296296299
176 14.192592592592593 ['136', '134', '132', '133', '103', '149', '102', '144', '139', '148', '138', '127', '130', '143', '145'] 709.6296296296299
177 14.192592592592593 ['136', '134', '132', '133', '103', '149', '102', '144', '139', '148', '138', '127', '130', '143', '145'] 709.6296296296299
178 14.192592592592593 ['136', '134', '132', '133', '103', '149', '102', '144', '139', '148', '138', '127', '130', '143', '145'] 709.6296296296299
179 14.192592592592593 ['136', '134', '132', '133', '103', '149', '102', '144', '139', '148', '138', '127', '130', '143', '145'] 709.6296296296299
180 14.192592592592593 ['136', '134', '132', '133', '103', '149', '102', '144', '139', '148', '138', '127', '130', '143', '145'] 709.6296296296299
181 14.192592592592593 ['136', '134', '132', '133', '103', '149', '102', '144', '139', '148', '138', '127', '130', '143', '145'] 709.6296296296299
182 14.192592592592593 ['136', '134', '132', '133', '103', '149', '102', '144', '139', '148', '138', '127', '130', '143', '145'] 709.6296296296299
183 14.192592592592593 ['136', '134', '132', '133', '103', '149', '102', '144', '139', '148', '138', '127', '130', '143', '145'] 709.6296296296299
184 14.192592592592593 ['136', '134', '132', '133', '103', '149', '102', '144', '139', '148', '138', '127', '130', '143', '145'] 709.6296296296299
185 14.192592592592593 ['136', '134', '132', '133', '103', '149', '102', '144', '139', '148', '138', '127', '130', '143', '145'] 709.6296296296299
186 14.192592592592593 ['136', '134', '132', '133', '103', '149', '102', '144', '139', '148', '138', '127', '130', '143', '145'] 709.6296296296299
187 14.192592592592593 ['136', '134', '132', '133', '103', '149', '102', '144', '139', '148', '138', '127', '130', '143', '145'] 709.6296296296299
188 14.192592592592593 ['136', '134', '132', '133', '103', '149', '102', '144', '139', '148', '138', '127', '130', '143', '145'] 709.6296296296299
189 14.192592592592593 ['136', '134', '132', '133', '103', '149', '102', '144', '139', '148', '138', '127', '130', '143', '145'] 709.6296296296299
190 14.192592592592593 ['136', '134', '132', '133', '103', '149', '102', '144', '139', '148', '138', '127', '130', '143', '145'] 709.6296296296299
191 14.192592592592593 ['136', '134', '132', '133', '103', '149', '102', '144', '139', '148', '138', '127', '130', '143', '145'] 709.6296296296299
192 14.192592592592593 ['136', '134', '132', '133', '103', '149', '102', '144', '139', '148', '138', '127', '130', '143', '145'] 709.6296296296299
193 14.192592592592593 ['136', '134', '132', '133', '103', '149', '102', '144', '139', '148', '138', '127', '130', '143', '145'] 709.6296296296299
194 14.192592592592593 ['136', '134', '132', '133', '103', '149', '102', '144', '139', '148', '138', '127', '130', '143', '145'] 709.6296296296299
195 14.192592592592593 ['136', '134', '132', '133', '103', '149', '102', '144', '139', '148', '138', '127', '130', '143', '145'] 709.6296296296299
196 14.192592592592593 ['136', '134', '132', '133', '103', '149', '102', '144', '139', '148', '138', '127', '130', '143', '145'] 709.6296296296299
197 14.192592592592593 ['136', '134', '132', '133', '103', '149', '102', '144', '139', '148', '138', '127', '130', '143', '145'] 709.6296296296299
198 14.192592592592593 ['136', '134', '132', '133', '103', '149', '102', '144', '139', '148', '138', '127', '130', '143', '145'] 709.6296296296299
199 14.192592592592593 ['136', '134', '132', '133', '103', '149', '102', '144', '139', '148', '138', '127', '130', '143', '145'] 709.6296296296299
