0 162.03773584905662 ['26', '50', '43', '52', '23'] 8450.754716981133
1 162.03773584905662 ['26', '50', '43', '52', '23'] 8343.245283018869
2 160.24528301886792 ['5', '18', '12', '33', '21'] 8241.773584905659
3 158.30188679245282 ['12', '45', '21', '18', '33'] 8170.792452830188
4 157.43396226415095 ['21', '33', '18', '12', '54'] 8132.415094339624
5 156.1320754716981 ['21', '18', '12', '41', '33'] 8075.867924528303
6 156.1320754716981 ['21', '18', '12', '41', '33'] 8019.811320754719
7 156.1320754716981 ['21', '18', '12', '41', '33'] 7954.773584905657
8 156.1320754716981 ['21', '18', '12', '41', '33'] 7907.37735849056
9 155.20754716981133 ['33', '18', '21', '43', '4'] 7879.47169811321
10 154.50943396226415 ['33', '18', '54', '43', '21'] 7849.830188679247
11 153.75471698113208 ['18', '33', '43', '24', '21'] 7824.792452830192
12 153.75471698113208 ['18', '33', '43', '24', '21'] 7784.094339622639
13 153.11320754716982 ['21', '33', '18', '42', '43'] 7741.037735849058
14 153.11320754716982 ['21', '33', '18', '42', '43'] 7700.886792452821
15 153.11320754716982 ['21', '33', '18', '42', '43'] 7680.566037735852
16 153.11320754716982 ['21', '33', '18', '42', '43'] 7660.528301886791
17 153.11320754716982 ['21', '33', '18', '42', '43'] 7655.698113207541
18 153.11320754716982 ['21', '33', '18', '42', '43'] 7655.660377358484
19 153.11320754716982 ['21', '33', '18', '42', '43'] 7655.660377358484
20 153.11320754716982 ['21', '33', '18', '42', '43'] 7655.660377358484
21 153.11320754716982 ['21', '33', '18', '42', '43'] 7655.660377358484
22 153.11320754716982 ['21', '33', '18', '42', '43'] 7655.660377358484
23 153.11320754716982 ['21', '33', '18', '42', '43'] 7655.660377358484
24 153.11320754716982 ['21', '33', '18', '42', '43'] 7655.660377358484
25 153.11320754716982 ['21', '33', '18', '42', '43'] 7655.660377358484
26 153.11320754716982 ['21', '33', '18', '42', '43'] 7655.660377358484
27 153.11320754716982 ['21', '33', '18', '42', '43'] 7655.660377358484
28 153.11320754716982 ['21', '33', '18', '42', '43'] 7655.660377358484
29 153.11320754716982 ['21', '33', '18', '42', '43'] 7655.660377358484
30 153.11320754716982 ['21', '33', '18', '42', '43'] 7655.660377358484
31 153.11320754716982 ['21', '33', '18', '42', '43'] 7655.660377358484
32 153.11320754716982 ['21', '33', '18', '42', '43'] 7655.660377358484
33 153.11320754716982 ['21', '33', '18', '42', '43'] 7655.660377358484
34 153.11320754716982 ['21', '33', '18', '42', '43'] 7655.660377358484
35 153.11320754716982 ['21', '33', '18', '42', '43'] 7655.660377358484
36 153.11320754716982 ['21', '33', '18', '42', '43'] 7655.660377358484
37 153.11320754716982 ['21', '33', '18', '42', '43'] 7655.660377358484
38 153.11320754716982 ['21', '33', '18', '42', '43'] 7655.660377358484
39 153.11320754716982 ['21', '33', '18', '42', '43'] 7655.660377358484
40 153.11320754716982 ['21', '33', '18', '42', '43'] 7655.660377358484
41 153.11320754716982 ['21', '33', '18', '42', '43'] 7655.660377358484
42 153.11320754716982 ['21', '33', '18', '42', '43'] 7655.660377358484
43 153.11320754716982 ['21', '33', '18', '42', '43'] 7655.660377358484
44 153.11320754716982 ['21', '33', '18', '42', '43'] 7655.660377358484
45 153.11320754716982 ['21', '33', '18', '42', '43'] 7655.660377358484
46 153.11320754716982 ['21', '33', '18', '42', '43'] 7655.660377358484
47 153.11320754716982 ['21', '33', '18', '42', '43'] 7655.660377358484
48 153.11320754716982 ['21', '33', '18', '42', '43'] 7655.660377358484
49 153.11320754716982 ['21', '33', '18', '42', '43'] 7655.660377358484
50 153.11320754716982 ['21', '33', '18', '42', '43'] 7655.660377358484
51 153.11320754716982 ['21', '33', '18', '42', '43'] 7655.660377358484
52 153.11320754716982 ['21', '33', '18', '42', '43'] 7655.660377358484
53 153.11320754716982 ['21', '33', '18', '42', '43'] 7655.660377358484
54 153.11320754716982 ['21', '33', '18', '42', '43'] 7655.660377358484
55 153.11320754716982 ['21', '33', '18', '42', '43'] 7655.660377358484
56 153.11320754716982 ['21', '33', '18', '42', '43'] 7655.660377358484
57 153.11320754716982 ['21', '33', '18', '42', '43'] 7655.660377358484
58 153.11320754716982 ['21', '33', '18', '42', '43'] 7655.660377358484
59 153.11320754716982 ['21', '33', '18', '42', '43'] 7655.660377358484
60 153.11320754716982 ['21', '33', '18', '42', '43'] 7655.660377358484
61 153.11320754716982 ['21', '33', '18', '42', '43'] 7655.660377358484
62 153.11320754716982 ['21', '33', '18', '42', '43'] 7655.660377358484
63 153.11320754716982 ['21', '33', '18', '42', '43'] 7655.660377358484
64 153.11320754716982 ['21', '33', '18', '42', '43'] 7655.660377358484
65 153.11320754716982 ['21', '33', '18', '42', '43'] 7655.660377358484
66 153.11320754716982 ['21', '33', '18', '42', '43'] 7655.660377358484
67 153.11320754716982 ['21', '33', '18', '42', '43'] 7655.660377358484
68 153.11320754716982 ['21', '33', '18', '42', '43'] 7655.660377358484
69 153.11320754716982 ['21', '33', '18', '42', '43'] 7655.660377358484
70 153.11320754716982 ['21', '33', '18', '42', '43'] 7655.660377358484
71 153.11320754716982 ['21', '33', '18', '42', '43'] 7655.660377358484
72 153.11320754716982 ['21', '33', '18', '42', '43'] 7655.660377358484
73 153.11320754716982 ['21', '33', '18', '42', '43'] 7655.660377358484
74 153.11320754716982 ['21', '33', '18', '42', '43'] 7655.660377358484
75 153.11320754716982 ['21', '33', '18', '42', '43'] 7655.660377358484
76 153.11320754716982 ['21', '33', '18', '42', '43'] 7655.660377358484
77 153.11320754716982 ['21', '33', '18', '42', '43'] 7655.660377358484
78 153.11320754716982 ['21', '33', '18', '42', '43'] 7655.660377358484
79 153.11320754716982 ['21', '33', '18', '42', '43'] 7655.660377358484
80 153.11320754716982 ['21', '33', '18', '42', '43'] 7655.660377358484
81 153.11320754716982 ['21', '33', '18', '42', '43'] 7655.660377358484
82 153.11320754716982 ['21', '33', '18', '42', '43'] 7655.660377358484
83 153.11320754716982 ['21', '33', '18', '42', '43'] 7655.660377358484
84 153.11320754716982 ['21', '33', '18', '42', '43'] 7655.660377358484
85 153.11320754716982 ['21', '33', '18', '42', '43'] 7655.660377358484
86 153.11320754716982 ['21', '33', '18', '42', '43'] 7655.660377358484
87 153.11320754716982 ['21', '33', '18', '42', '43'] 7655.660377358484
88 153.11320754716982 ['21', '33', '18', '42', '43'] 7655.660377358484
89 153.11320754716982 ['21', '33', '18', '42', '43'] 7655.660377358484
90 153.11320754716982 ['21', '33', '18', '42', '43'] 7655.660377358484
91 153.11320754716982 ['21', '33', '18', '42', '43'] 7655.660377358484
92 153.11320754716982 ['21', '33', '18', '42', '43'] 7655.660377358484
93 153.11320754716982 ['21', '33', '18', '42', '43'] 7655.660377358484
94 153.11320754716982 ['21', '33', '18', '42', '43'] 7655.660377358484
95 153.11320754716982 ['21', '33', '18', '42', '43'] 7655.660377358484
96 153.11320754716982 ['21', '33', '18', '42', '43'] 7655.660377358484
97 153.11320754716982 ['21', '33', '18', '42', '43'] 7655.660377358484
98 153.11320754716982 ['21', '33', '18', '42', '43'] 7655.660377358484
99 153.11320754716982 ['21', '33', '18', '42', '43'] 7655.660377358484
100 153.11320754716982 ['21', '33', '18', '42', '43'] 7655.660377358484
101 153.11320754716982 ['21', '33', '18', '42', '43'] 7655.660377358484
102 153.11320754716982 ['21', '33', '18', '42', '43'] 7655.660377358484
103 153.11320754716982 ['21', '33', '18', '42', '43'] 7655.660377358484
104 153.11320754716982 ['21', '33', '18', '42', '43'] 7655.660377358484
105 153.11320754716982 ['21', '33', '18', '42', '43'] 7655.660377358484
106 153.11320754716982 ['21', '33', '18', '42', '43'] 7655.660377358484
107 153.11320754716982 ['21', '33', '18', '42', '43'] 7655.660377358484
108 153.11320754716982 ['21', '33', '18', '42', '43'] 7655.660377358484
109 153.11320754716982 ['21', '33', '18', '42', '43'] 7655.660377358484
110 153.11320754716982 ['21', '33', '18', '42', '43'] 7655.660377358484
111 153.11320754716982 ['21', '33', '18', '42', '43'] 7655.660377358484
112 153.11320754716982 ['21', '33', '18', '42', '43'] 7655.660377358484
113 153.11320754716982 ['21', '33', '18', '42', '43'] 7655.660377358484
114 153.11320754716982 ['21', '33', '18', '42', '43'] 7655.660377358484
115 153.11320754716982 ['21', '33', '18', '42', '43'] 7655.660377358484
116 153.11320754716982 ['21', '33', '18', '42', '43'] 7655.660377358484
117 153.11320754716982 ['21', '33', '18', '42', '43'] 7655.660377358484
118 153.11320754716982 ['21', '33', '18', '42', '43'] 7655.660377358484
119 153.11320754716982 ['21', '33', '18', '42', '43'] 7655.660377358484
120 153.11320754716982 ['21', '33', '18', '42', '43'] 7655.660377358484
121 153.11320754716982 ['21', '33', '18', '42', '43'] 7655.660377358484
122 153.11320754716982 ['21', '33', '18', '42', '43'] 7655.660377358484
123 153.11320754716982 ['21', '33', '18', '42', '43'] 7655.660377358484
124 153.11320754716982 ['21', '33', '18', '42', '43'] 7655.660377358484
125 153.11320754716982 ['21', '33', '18', '42', '43'] 7655.660377358484
126 153.11320754716982 ['21', '33', '18', '42', '43'] 7655.660377358484
127 153.11320754716982 ['21', '33', '18', '42', '43'] 7655.660377358484
128 153.11320754716982 ['21', '33', '18', '42', '43'] 7655.660377358484
129 153.11320754716982 ['21', '33', '18', '42', '43'] 7655.660377358484
130 153.11320754716982 ['21', '33', '18', '42', '43'] 7655.660377358484
131 153.11320754716982 ['21', '33', '18', '42', '43'] 7655.660377358484
132 153.11320754716982 ['21', '33', '18', '42', '43'] 7655.660377358484
133 153.11320754716982 ['21', '33', '18', '42', '43'] 7655.660377358484
134 153.11320754716982 ['21', '33', '18', '42', '43'] 7655.660377358484
135 153.11320754716982 ['21', '33', '18', '42', '43'] 7655.660377358484
136 153.11320754716982 ['21', '33', '18', '42', '43'] 7655.660377358484
137 153.11320754716982 ['21', '33', '18', '42', '43'] 7655.660377358484
138 153.11320754716982 ['21', '33', '18', '42', '43'] 7655.660377358484
139 153.11320754716982 ['21', '33', '18', '42', '43'] 7655.660377358484
140 153.11320754716982 ['21', '33', '18', '42', '43'] 7655.660377358484
141 153.11320754716982 ['21', '33', '18', '42', '43'] 7655.660377358484
142 153.11320754716982 ['21', '33', '18', '42', '43'] 7655.660377358484
143 153.11320754716982 ['21', '33', '18', '42', '43'] 7655.660377358484
144 153.11320754716982 ['21', '33', '18', '42', '43'] 7655.660377358484
145 153.11320754716982 ['21', '33', '18', '42', '43'] 7655.660377358484
146 153.11320754716982 ['21', '33', '18', '42', '43'] 7655.660377358484
147 153.11320754716982 ['21', '33', '18', '42', '43'] 7655.660377358484
148 153.11320754716982 ['21', '33', '18', '42', '43'] 7655.660377358484
149 153.11320754716982 ['21', '33', '18', '42', '43'] 7655.660377358484
150 153.11320754716982 ['21', '33', '18', '42', '43'] 7655.660377358484
151 153.11320754716982 ['21', '33', '18', '42', '43'] 7655.660377358484
152 153.11320754716982 ['21', '33', '18', '42', '43'] 7655.660377358484
153 153.11320754716982 ['21', '33', '18', '42', '43'] 7655.660377358484
154 153.11320754716982 ['21', '33', '18', '42', '43'] 7655.660377358484
155 153.11320754716982 ['21', '33', '18', '42', '43'] 7655.660377358484
156 153.11320754716982 ['21', '33', '18', '42', '43'] 7655.660377358484
157 153.11320754716982 ['21', '33', '18', '42', '43'] 7655.660377358484
158 153.11320754716982 ['21', '33', '18', '42', '43'] 7655.660377358484
159 153.11320754716982 ['21', '33', '18', '42', '43'] 7655.660377358484
160 153.11320754716982 ['21', '33', '18', '42', '43'] 7655.660377358484
161 153.11320754716982 ['21', '33', '18', '42', '43'] 7655.660377358484
162 153.11320754716982 ['21', '33', '18', '42', '43'] 7655.660377358484
163 153.11320754716982 ['21', '33', '18', '42', '43'] 7655.660377358484
164 153.11320754716982 ['21', '33', '18', '42', '43'] 7655.660377358484
165 153.11320754716982 ['21', '33', '18', '42', '43'] 7655.660377358484
166 153.11320754716982 ['21', '33', '18', '42', '43'] 7655.660377358484
167 153.11320754716982 ['21', '33', '18', '42', '43'] 7655.660377358484
168 153.11320754716982 ['21', '33', '18', '42', '43'] 7655.660377358484
169 153.11320754716982 ['21', '33', '18', '42', '43'] 7655.660377358484
170 153.11320754716982 ['21', '33', '18', '42', '43'] 7655.660377358484
171 153.11320754716982 ['21', '33', '18', '42', '43'] 7655.660377358484
172 153.11320754716982 ['21', '33', '18', '42', '43'] 7655.660377358484
173 153.11320754716982 ['21', '33', '18', '42', '43'] 7655.660377358484
174 153.11320754716982 ['21', '33', '18', '42', '43'] 7655.660377358484
175 153.11320754716982 ['21', '33', '18', '42', '43'] 7655.660377358484
176 153.11320754716982 ['21', '33', '18', '42', '43'] 7655.660377358484
177 153.11320754716982 ['21', '33', '18', '42', '43'] 7655.660377358484
178 153.11320754716982 ['21', '33', '18', '42', '43'] 7655.660377358484
179 153.11320754716982 ['21', '33', '18', '42', '43'] 7655.660377358484
180 153.11320754716982 ['21', '33', '18', '42', '43'] 7655.660377358484
181 153.11320754716982 ['21', '33', '18', '42', '43'] 7655.660377358484
182 153.11320754716982 ['21', '33', '18', '42', '43'] 7655.660377358484
183 153.11320754716982 ['21', '33', '18', '42', '43'] 7655.660377358484
184 153.11320754716982 ['21', '33', '18', '42', '43'] 7655.660377358484
185 153.11320754716982 ['21', '33', '18', '42', '43'] 7655.660377358484
186 153.11320754716982 ['21', '33', '18', '42', '43'] 7655.660377358484
187 153.11320754716982 ['21', '33', '18', '42', '43'] 7655.660377358484
188 153.11320754716982 ['21', '33', '18', '42', '43'] 7655.660377358484
189 153.11320754716982 ['21', '33', '18', '42', '43'] 7655.660377358484
190 153.11320754716982 ['21', '33', '18', '42', '43'] 7655.660377358484
191 153.11320754716982 ['21', '33', '18', '42', '43'] 7655.660377358484
192 153.11320754716982 ['21', '33', '18', '42', '43'] 7655.660377358484
193 153.11320754716982 ['21', '33', '18', '42', '43'] 7655.660377358484
194 153.11320754716982 ['21', '33', '18', '42', '43'] 7655.660377358484
195 153.11320754716982 ['21', '33', '18', '42', '43'] 7655.660377358484
196 153.11320754716982 ['21', '33', '18', '42', '43'] 7655.660377358484
197 153.11320754716982 ['21', '33', '18', '42', '43'] 7655.660377358484
198 153.11320754716982 ['21', '33', '18', '42', '43'] 7655.660377358484
199 153.11320754716982 ['21', '33', '18', '42', '43'] 7655.660377358484
