0 14.318518518518518 ['95', '123', '145', '45', '115', '70', '113', '144', '124', '80', '102', '126', '118', '87', '88'] 739.2000000000003
1 14.155555555555555 ['87', '126', '45', '136', '119', '118', '123', '113', '124', '72', '71', '70', '145', '142', '138'] 733.6888888888886
2 14.155555555555555 ['87', '126', '45', '136', '119', '118', '123', '113', '124', '72', '71', '70', '145', '142', '138'] 726.7259259259256
3 14.125925925925927 ['126', '145', '142', '136', '138', '146', '143', '92', '59', '87', '119', '113', '89', '72', '124'] 721.3259259259255
4 13.992592592592592 ['114', '24', '142', '73', '144', '149', '118', '5', '146', '126', '69', '148', '70', '139', '137'] 715.688888888889
5 13.977777777777778 ['59', '145', '126', '87', '148', '143', '146', '150', '97', '142', '119', '115', '149', '95', '67'] 711.0000000000002
6 13.91851851851852 ['142', '115', '148', '126', '34', '97', '118', '136', '87', '149', '106', '146', '143', '138', '150'] 706.77037037037
7 13.725925925925926 ['115', '146', '87', '126', '149', '118', '148', '138', '102', '106', '136', '142', '139', '95', '114'] 701.5333333333333
8 13.681481481481482 ['146', '149', '145', '126', '139', '95', '124', '87', '118', '144', '24', '148', '142', '119', '102'] 696.7185185185187
9 13.681481481481482 ['146', '149', '145', '126', '139', '95', '124', '87', '118', '144', '24', '148', '142', '119', '102'] 692.4962962962964
10 13.622222222222222 ['138', '115', '118', '126', '148', '149', '142', '136', '114', '102', '147', '110', '146', '87', '139'] 688.6666666666665
11 13.592592592592593 ['115', '95', '149', '124', '138', '148', '142', '126', '87', '136', '129', '118', '147', '146', '139'] 686.1407407407412
12 13.57037037037037 ['142', '149', '126', '139', '95', '138', '148', '118', '87', '124', '115', '144', '146', '147', '114'] 683.777777777778
13 13.555555555555555 ['142', '136', '148', '144', '115', '132', '149', '126', '146', '139', '137', '145', '124', '89', '147'] 681.9185185185181
14 13.488888888888889 ['115', '126', '149', '136', '132', '142', '148', '139', '146', '145', '147', '144', '137', '124', '118'] 680.4666666666668
15 13.488888888888889 ['115', '126', '149', '136', '132', '142', '148', '139', '146', '145', '147', '144', '137', '124', '118'] 678.8222222222228
16 13.474074074074075 ['115', '132', '142', '124', '147', '149', '126', '144', '146', '145', '148', '139', '118', '138', '137'] 677.1925925925925
17 13.466666666666667 ['146', '126', '115', '144', '95', '149', '145', '139', '147', '118', '142', '148', '124', '136', '132'] 675.8000000000001
18 13.451851851851853 ['148', '144', '142', '126', '95', '115', '147', '149', '146', '139', '118', '145', '124', '138', '132'] 674.9555555555551
19 13.444444444444445 ['115', '148', '126', '147', '124', '136', '118', '142', '132', '145', '144', '149', '146', '138', '139'] 673.925925925926
20 13.444444444444445 ['115', '148', '126', '147', '124', '136', '118', '142', '132', '145', '144', '149', '146', '138', '139'] 673.148148148148
21 13.444444444444445 ['115', '148', '126', '147', '124', '136', '118', '142', '132', '145', '144', '149', '146', '138', '139'] 672.6740740740747
22 13.444444444444445 ['115', '148', '126', '147', '124', '136', '118', '142', '132', '145', '144', '149', '146', '138', '139'] 672.2296296296302
23 13.444444444444445 ['115', '148', '126', '147', '124', '136', '118', '142', '132', '145', '144', '149', '146', '138', '139'] 672.2222222222227
24 13.444444444444445 ['115', '148', '126', '147', '124', '136', '118', '142', '132', '145', '144', '149', '146', '138', '139'] 672.2222222222227
25 13.444444444444445 ['115', '148', '126', '147', '124', '136', '118', '142', '132', '145', '144', '149', '146', '138', '139'] 672.2222222222227
26 13.444444444444445 ['115', '148', '126', '147', '124', '136', '118', '142', '132', '145', '144', '149', '146', '138', '139'] 672.2222222222227
27 13.444444444444445 ['115', '148', '126', '147', '124', '136', '118', '142', '132', '145', '144', '149', '146', '138', '139'] 672.2222222222227
28 13.444444444444445 ['115', '148', '126', '147', '124', '136', '118', '142', '132', '145', '144', '149', '146', '138', '139'] 672.2222222222227
29 13.444444444444445 ['115', '148', '126', '147', '124', '136', '118', '142', '132', '145', '144', '149', '146', '138', '139'] 672.2222222222227
30 13.444444444444445 ['115', '148', '126', '147', '124', '136', '118', '142', '132', '145', '144', '149', '146', '138', '139'] 672.2222222222227
31 13.444444444444445 ['115', '148', '126', '147', '124', '136', '118', '142', '132', '145', '144', '149', '146', '138', '139'] 672.2222222222227
32 13.444444444444445 ['115', '148', '126', '147', '124', '136', '118', '142', '132', '145', '144', '149', '146', '138', '139'] 672.2222222222227
33 13.444444444444445 ['115', '148', '126', '147', '124', '136', '118', '142', '132', '145', '144', '149', '146', '138', '139'] 672.2222222222227
34 13.444444444444445 ['115', '148', '126', '147', '124', '136', '118', '142', '132', '145', '144', '149', '146', '138', '139'] 672.2222222222227
35 13.444444444444445 ['115', '148', '126', '147', '124', '136', '118', '142', '132', '145', '144', '149', '146', '138', '139'] 672.2222222222227
36 13.444444444444445 ['115', '148', '126', '147', '124', '136', '118', '142', '132', '145', '144', '149', '146', '138', '139'] 672.2222222222227
37 13.444444444444445 ['115', '148', '126', '147', '124', '136', '118', '142', '132', '145', '144', '149', '146', '138', '139'] 672.2222222222227
38 13.444444444444445 ['115', '148', '126', '147', '124', '136', '118', '142', '132', '145', '144', '149', '146', '138', '139'] 672.2222222222227
39 13.444444444444445 ['115', '148', '126', '147', '124', '136', '118', '142', '132', '145', '144', '149', '146', '138', '139'] 672.2222222222227
40 13.444444444444445 ['115', '148', '126', '147', '124', '136', '118', '142', '132', '145', '144', '149', '146', '138', '139'] 672.2222222222227
41 13.444444444444445 ['115', '148', '126', '147', '124', '136', '118', '142', '132', '145', '144', '149', '146', '138', '139'] 672.2222222222227
42 13.444444444444445 ['115', '148', '126', '147', '124', '136', '118', '142', '132', '145', '144', '149', '146', '138', '139'] 672.2222222222227
43 13.444444444444445 ['115', '148', '126', '147', '124', '136', '118', '142', '132', '145', '144', '149', '146', '138', '139'] 672.2222222222227
44 13.444444444444445 ['115', '148', '126', '147', '124', '136', '118', '142', '132', '145', '144', '149', '146', '138', '139'] 672.2222222222227
45 13.444444444444445 ['115', '148', '126', '147', '124', '136', '118', '142', '132', '145', '144', '149', '146', '138', '139'] 672.2222222222227
46 13.444444444444445 ['115', '148', '126', '147', '124', '136', '118', '142', '132', '145', '144', '149', '146', '138', '139'] 672.2222222222227
47 13.444444444444445 ['115', '148', '126', '147', '124', '136', '118', '142', '132', '145', '144', '149', '146', '138', '139'] 672.2222222222227
48 13.444444444444445 ['115', '148', '126', '147', '124', '136', '118', '142', '132', '145', '144', '149', '146', '138', '139'] 672.2222222222227
49 13.444444444444445 ['115', '148', '126', '147', '124', '136', '118', '142', '132', '145', '144', '149', '146', '138', '139'] 672.2222222222227
50 13.444444444444445 ['115', '148', '126', '147', '124', '136', '118', '142', '132', '145', '144', '149', '146', '138', '139'] 672.2222222222227
51 13.444444444444445 ['115', '148', '126', '147', '124', '136', '118', '142', '132', '145', '144', '149', '146', '138', '139'] 672.2222222222227
52 13.444444444444445 ['115', '148', '126', '147', '124', '136', '118', '142', '132', '145', '144', '149', '146', '138', '139'] 672.2222222222227
53 13.444444444444445 ['115', '148', '126', '147', '124', '136', '118', '142', '132', '145', '144', '149', '146', '138', '139'] 672.2222222222227
54 13.444444444444445 ['115', '148', '126', '147', '124', '136', '118', '142', '132', '145', '144', '149', '146', '138', '139'] 672.2222222222227
55 13.444444444444445 ['115', '148', '126', '147', '124', '136', '118', '142', '132', '145', '144', '149', '146', '138', '139'] 672.2222222222227
56 13.444444444444445 ['115', '148', '126', '147', '124', '136', '118', '142', '132', '145', '144', '149', '146', '138', '139'] 672.2222222222227
57 13.444444444444445 ['115', '148', '126', '147', '124', '136', '118', '142', '132', '145', '144', '149', '146', '138', '139'] 672.2222222222227
58 13.444444444444445 ['115', '148', '126', '147', '124', '136', '118', '142', '132', '145', '144', '149', '146', '138', '139'] 672.2222222222227
59 13.444444444444445 ['115', '148', '126', '147', '124', '136', '118', '142', '132', '145', '144', '149', '146', '138', '139'] 672.2222222222227
60 13.444444444444445 ['115', '148', '126', '147', '124', '136', '118', '142', '132', '145', '144', '149', '146', '138', '139'] 672.2222222222227
61 13.444444444444445 ['115', '148', '126', '147', '124', '136', '118', '142', '132', '145', '144', '149', '146', '138', '139'] 672.2222222222227
62 13.444444444444445 ['115', '148', '126', '147', '124', '136', '118', '142', '132', '145', '144', '149', '146', '138', '139'] 672.2222222222227
63 13.444444444444445 ['115', '148', '126', '147', '124', '136', '118', '142', '132', '145', '144', '149', '146', '138', '139'] 672.2222222222227
64 13.444444444444445 ['115', '148', '126', '147', '124', '136', '118', '142', '132', '145', '144', '149', '146', '138', '139'] 672.2222222222227
65 13.444444444444445 ['115', '148', '126', '147', '124', '136', '118', '142', '132', '145', '144', '149', '146', '138', '139'] 672.2222222222227
66 13.444444444444445 ['115', '148', '126', '147', '124', '136', '118', '142', '132', '145', '144', '149', '146', '138', '139'] 672.2222222222227
67 13.444444444444445 ['115', '148', '126', '147', '124', '136', '118', '142', '132', '145', '144', '149', '146', '138', '139'] 672.2222222222227
68 13.444444444444445 ['115', '148', '126', '147', '124', '136', '118', '142', '132', '145', '144', '149', '146', '138', '139'] 672.2222222222227
69 13.444444444444445 ['115', '148', '126', '147', '124', '136', '118', '142', '132', '145', '144', '149', '146', '138', '139'] 672.2222222222227
70 13.444444444444445 ['115', '148', '126', '147', '124', '136', '118', '142', '132', '145', '144', '149', '146', '138', '139'] 672.2222222222227
71 13.444444444444445 ['115', '148', '126', '147', '124', '136', '118', '142', '132', '145', '144', '149', '146', '138', '139'] 672.2222222222227
72 13.444444444444445 ['115', '148', '126', '147', '124', '136', '118', '142', '132', '145', '144', '149', '146', '138', '139'] 672.2222222222227
73 13.444444444444445 ['115', '148', '126', '147', '124', '136', '118', '142', '132', '145', '144', '149', '146', '138', '139'] 672.2222222222227
74 13.444444444444445 ['115', '148', '126', '147', '124', '136', '118', '142', '132', '145', '144', '149', '146', '138', '139'] 672.2222222222227
75 13.444444444444445 ['115', '148', '126', '147', '124', '136', '118', '142', '132', '145', '144', '149', '146', '138', '139'] 672.2222222222227
76 13.444444444444445 ['115', '148', '126', '147', '124', '136', '118', '142', '132', '145', '144', '149', '146', '138', '139'] 672.2222222222227
77 13.444444444444445 ['115', '148', '126', '147', '124', '136', '118', '142', '132', '145', '144', '149', '146', '138', '139'] 672.2222222222227
78 13.444444444444445 ['115', '148', '126', '147', '124', '136', '118', '142', '132', '145', '144', '149', '146', '138', '139'] 672.2222222222227
79 13.444444444444445 ['115', '148', '126', '147', '124', '136', '118', '142', '132', '145', '144', '149', '146', '138', '139'] 672.2222222222227
80 13.444444444444445 ['115', '148', '126', '147', '124', '136', '118', '142', '132', '145', '144', '149', '146', '138', '139'] 672.2222222222227
81 13.444444444444445 ['115', '148', '126', '147', '124', '136', '118', '142', '132', '145', '144', '149', '146', '138', '139'] 672.2222222222227
82 13.444444444444445 ['115', '148', '126', '147', '124', '136', '118', '142', '132', '145', '144', '149', '146', '138', '139'] 672.2222222222227
83 13.444444444444445 ['115', '148', '126', '147', '124', '136', '118', '142', '132', '145', '144', '149', '146', '138', '139'] 672.2222222222227
84 13.444444444444445 ['115', '148', '126', '147', '124', '136', '118', '142', '132', '145', '144', '149', '146', '138', '139'] 672.2222222222227
85 13.444444444444445 ['115', '148', '126', '147', '124', '136', '118', '142', '132', '145', '144', '149', '146', '138', '139'] 672.2222222222227
86 13.444444444444445 ['115', '148', '126', '147', '124', '136', '118', '142', '132', '145', '144', '149', '146', '138', '139'] 672.2222222222227
87 13.444444444444445 ['115', '148', '126', '147', '124', '136', '118', '142', '132', '145', '144', '149', '146', '138', '139'] 672.2222222222227
88 13.444444444444445 ['115', '148', '126', '147', '124', '136', '118', '142', '132', '145', '144', '149', '146', '138', '139'] 672.2222222222227
89 13.444444444444445 ['115', '148', '126', '147', '124', '136', '118', '142', '132', '145', '144', '149', '146', '138', '139'] 672.2222222222227
90 13.444444444444445 ['115', '148', '126', '147', '124', '136', '118', '142', '132', '145', '144', '149', '146', '138', '139'] 672.2222222222227
91 13.444444444444445 ['115', '148', '126', '147', '124', '136', '118', '142', '132', '145', '144', '149', '146', '138', '139'] 672.2222222222227
92 13.444444444444445 ['115', '148', '126', '147', '124', '136', '118', '142', '132', '145', '144', '149', '146', '138', '139'] 672.2222222222227
93 13.444444444444445 ['115', '148', '126', '147', '124', '136', '118', '142', '132', '145', '144', '149', '146', '138', '139'] 672.2222222222227
94 13.444444444444445 ['115', '148', '126', '147', '124', '136', '118', '142', '132', '145', '144', '149', '146', '138', '139'] 672.2222222222227
95 13.444444444444445 ['115', '148', '126', '147', '124', '136', '118', '142', '132', '145', '144', '149', '146', '138', '139'] 672.2222222222227
96 13.444444444444445 ['115', '148', '126', '147', '124', '136', '118', '142', '132', '145', '144', '149', '146', '138', '139'] 672.2222222222227
97 13.444444444444445 ['115', '148', '126', '147', '124', '136', '118', '142', '132', '145', '144', '149', '146', '138', '139'] 672.2222222222227
98 13.444444444444445 ['115', '148', '126', '147', '124', '136', '118', '142', '132', '145', '144', '149', '146', '138', '139'] 672.2222222222227
99 13.444444444444445 ['115', '148', '126', '147', '124', '136', '118', '142', '132', '145', '144', '149', '146', '138', '139'] 672.2222222222227
100 13.444444444444445 ['115', '148', '126', '147', '124', '136', '118', '142', '132', '145', '144', '149', '146', '138', '139'] 672.2222222222227
101 13.444444444444445 ['115', '148', '126', '147', '124', '136', '118', '142', '132', '145', '144', '149', '146', '138', '139'] 672.2222222222227
102 13.444444444444445 ['115', '148', '126', '147', '124', '136', '118', '142', '132', '145', '144', '149', '146', '138', '139'] 672.2222222222227
103 13.444444444444445 ['115', '148', '126', '147', '124', '136', '118', '142', '132', '145', '144', '149', '146', '138', '139'] 672.2222222222227
104 13.444444444444445 ['115', '148', '126', '147', '124', '136', '118', '142', '132', '145', '144', '149', '146', '138', '139'] 672.2222222222227
105 13.444444444444445 ['115', '148', '126', '147', '124', '136', '118', '142', '132', '145', '144', '149', '146', '138', '139'] 672.2222222222227
106 13.444444444444445 ['115', '148', '126', '147', '124', '136', '118', '142', '132', '145', '144', '149', '146', '138', '139'] 672.2222222222227
107 13.444444444444445 ['115', '148', '126', '147', '124', '136', '118', '142', '132', '145', '144', '149', '146', '138', '139'] 672.2222222222227
108 13.444444444444445 ['115', '148', '126', '147', '124', '136', '118', '142', '132', '145', '144', '149', '146', '138', '139'] 672.2222222222227
109 13.444444444444445 ['115', '148', '126', '147', '124', '136', '118', '142', '132', '145', '144', '149', '146', '138', '139'] 672.2222222222227
110 13.444444444444445 ['115', '148', '126', '147', '124', '136', '118', '142', '132', '145', '144', '149', '146', '138', '139'] 672.2222222222227
111 13.444444444444445 ['115', '148', '126', '147', '124', '136', '118', '142', '132', '145', '144', '149', '146', '138', '139'] 672.2222222222227
112 13.444444444444445 ['115', '148', '126', '147', '124', '136', '118', '142', '132', '145', '144', '149', '146', '138', '139'] 672.2222222222227
113 13.444444444444445 ['115', '148', '126', '147', '124', '136', '118', '142', '132', '145', '144', '149', '146', '138', '139'] 672.2222222222227
114 13.444444444444445 ['115', '148', '126', '147', '124', '136', '118', '142', '132', '145', '144', '149', '146', '138', '139'] 672.2222222222227
115 13.444444444444445 ['115', '148', '126', '147', '124', '136', '118', '142', '132', '145', '144', '149', '146', '138', '139'] 672.2222222222227
116 13.444444444444445 ['115', '148', '126', '147', '124', '136', '118', '142', '132', '145', '144', '149', '146', '138', '139'] 672.2222222222227
117 13.444444444444445 ['115', '148', '126', '147', '124', '136', '118', '142', '132', '145', '144', '149', '146', '138', '139'] 672.2222222222227
118 13.444444444444445 ['115', '148', '126', '147', '124', '136', '118', '142', '132', '145', '144', '149', '146', '138', '139'] 672.2222222222227
119 13.444444444444445 ['115', '148', '126', '147', '124', '136', '118', '142', '132', '145', '144', '149', '146', '138', '139'] 672.2222222222227
120 13.444444444444445 ['115', '148', '126', '147', '124', '136', '118', '142', '132', '145', '144', '149', '146', '138', '139'] 672.2222222222227
121 13.444444444444445 ['115', '148', '126', '147', '124', '136', '118', '142', '132', '145', '144', '149', '146', '138', '139'] 672.2222222222227
122 13.444444444444445 ['115', '148', '126', '147', '124', '136', '118', '142', '132', '145', '144', '149', '146', '138', '139'] 672.2222222222227
123 13.444444444444445 ['115', '148', '126', '147', '124', '136', '118', '142', '132', '145', '144', '149', '146', '138', '139'] 672.2222222222227
124 13.444444444444445 ['115', '148', '126', '147', '124', '136', '118', '142', '132', '145', '144', '149', '146', '138', '139'] 672.2222222222227
125 13.444444444444445 ['115', '148', '126', '147', '124', '136', '118', '142', '132', '145', '144', '149', '146', '138', '139'] 672.2222222222227
126 13.444444444444445 ['115', '148', '126', '147', '124', '136', '118', '142', '132', '145', '144', '149', '146', '138', '139'] 672.2222222222227
127 13.444444444444445 ['115', '148', '126', '147', '124', '136', '118', '142', '132', '145', '144', '149', '146', '138', '139'] 672.2222222222227
128 13.444444444444445 ['115', '148', '126', '147', '124', '136', '118', '142', '132', '145', '144', '149', '146', '138', '139'] 672.2222222222227
129 13.444444444444445 ['115', '148', '126', '147', '124', '136', '118', '142', '132', '145', '144', '149', '146', '138', '139'] 672.2222222222227
130 13.444444444444445 ['115', '148', '126', '147', '124', '136', '118', '142', '132', '145', '144', '149', '146', '138', '139'] 672.2222222222227
131 13.444444444444445 ['115', '148', '126', '147', '124', '136', '118', '142', '132', '145', '144', '149', '146', '138', '139'] 672.2222222222227
132 13.444444444444445 ['115', '148', '126', '147', '124', '136', '118', '142', '132', '145', '144', '149', '146', '138', '139'] 672.2222222222227
133 13.444444444444445 ['115', '148', '126', '147', '124', '136', '118', '142', '132', '145', '144', '149', '146', '138', '139'] 672.2222222222227
134 13.444444444444445 ['115', '148', '126', '147', '124', '136', '118', '142', '132', '145', '144', '149', '146', '138', '139'] 672.2222222222227
135 13.444444444444445 ['115', '148', '126', '147', '124', '136', '118', '142', '132', '145', '144', '149', '146', '138', '139'] 672.2222222222227
136 13.444444444444445 ['115', '148', '126', '147', '124', '136', '118', '142', '132', '145', '144', '149', '146', '138', '139'] 672.2222222222227
137 13.444444444444445 ['115', '148', '126', '147', '124', '136', '118', '142', '132', '145', '144', '149', '146', '138', '139'] 672.2222222222227
138 13.444444444444445 ['115', '148', '126', '147', '124', '136', '118', '142', '132', '145', '144', '149', '146', '138', '139'] 672.2222222222227
139 13.444444444444445 ['115', '148', '126', '147', '124', '136', '118', '142', '132', '145', '144', '149', '146', '138', '139'] 672.2222222222227
140 13.444444444444445 ['115', '148', '126', '147', '124', '136', '118', '142', '132', '145', '144', '149', '146', '138', '139'] 672.2222222222227
141 13.444444444444445 ['115', '148', '126', '147', '124', '136', '118', '142', '132', '145', '144', '149', '146', '138', '139'] 672.2222222222227
142 13.444444444444445 ['115', '148', '126', '147', '124', '136', '118', '142', '132', '145', '144', '149', '146', '138', '139'] 672.2222222222227
143 13.444444444444445 ['115', '148', '126', '147', '124', '136', '118', '142', '132', '145', '144', '149', '146', '138', '139'] 672.2222222222227
144 13.444444444444445 ['115', '148', '126', '147', '124', '136', '118', '142', '132', '145', '144', '149', '146', '138', '139'] 672.2222222222227
145 13.444444444444445 ['115', '148', '126', '147', '124', '136', '118', '142', '132', '145', '144', '149', '146', '138', '139'] 672.2222222222227
146 13.444444444444445 ['115', '148', '126', '147', '124', '136', '118', '142', '132', '145', '144', '149', '146', '138', '139'] 672.2222222222227
147 13.444444444444445 ['115', '148', '126', '147', '124', '136', '118', '142', '132', '145', '144', '149', '146', '138', '139'] 672.2222222222227
148 13.444444444444445 ['115', '148', '126', '147', '124', '136', '118', '142', '132', '145', '144', '149', '146', '138', '139'] 672.2222222222227
149 13.444444444444445 ['115', '148', '126', '147', '124', '136', '118', '142', '132', '145', '144', '149', '146', '138', '139'] 672.2222222222227
150 13.444444444444445 ['115', '148', '126', '147', '124', '136', '118', '142', '132', '145', '144', '149', '146', '138', '139'] 672.2222222222227
151 13.444444444444445 ['115', '148', '126', '147', '124', '136', '118', '142', '132', '145', '144', '149', '146', '138', '139'] 672.2222222222227
152 13.444444444444445 ['115', '148', '126', '147', '124', '136', '118', '142', '132', '145', '144', '149', '146', '138', '139'] 672.2222222222227
153 13.444444444444445 ['115', '148', '126', '147', '124', '136', '118', '142', '132', '145', '144', '149', '146', '138', '139'] 672.2222222222227
154 13.444444444444445 ['115', '148', '126', '147', '124', '136', '118', '142', '132', '145', '144', '149', '146', '138', '139'] 672.2222222222227
155 13.444444444444445 ['115', '148', '126', '147', '124', '136', '118', '142', '132', '145', '144', '149', '146', '138', '139'] 672.2222222222227
156 13.444444444444445 ['115', '148', '126', '147', '124', '136', '118', '142', '132', '145', '144', '149', '146', '138', '139'] 672.2222222222227
157 13.444444444444445 ['115', '148', '126', '147', '124', '136', '118', '142', '132', '145', '144', '149', '146', '138', '139'] 672.2222222222227
158 13.444444444444445 ['115', '148', '126', '147', '124', '136', '118', '142', '132', '145', '144', '149', '146', '138', '139'] 672.2222222222227
159 13.444444444444445 ['115', '148', '126', '147', '124', '136', '118', '142', '132', '145', '144', '149', '146', '138', '139'] 672.2222222222227
160 13.444444444444445 ['115', '148', '126', '147', '124', '136', '118', '142', '132', '145', '144', '149', '146', '138', '139'] 672.2222222222227
161 13.444444444444445 ['115', '148', '126', '147', '124', '136', '118', '142', '132', '145', '144', '149', '146', '138', '139'] 672.2222222222227
162 13.444444444444445 ['115', '148', '126', '147', '124', '136', '118', '142', '132', '145', '144', '149', '146', '138', '139'] 672.2222222222227
163 13.444444444444445 ['115', '148', '126', '147', '124', '136', '118', '142', '132', '145', '144', '149', '146', '138', '139'] 672.2222222222227
164 13.444444444444445 ['115', '148', '126', '147', '124', '136', '118', '142', '132', '145', '144', '149', '146', '138', '139'] 672.2222222222227
165 13.444444444444445 ['115', '148', '126', '147', '124', '136', '118', '142', '132', '145', '144', '149', '146', '138', '139'] 672.2222222222227
166 13.444444444444445 ['115', '148', '126', '147', '124', '136', '118', '142', '132', '145', '144', '149', '146', '138', '139'] 672.2222222222227
167 13.444444444444445 ['115', '148', '126', '147', '124', '136', '118', '142', '132', '145', '144', '149', '146', '138', '139'] 672.2222222222227
168 13.444444444444445 ['115', '148', '126', '147', '124', '136', '118', '142', '132', '145', '144', '149', '146', '138', '139'] 672.2222222222227
169 13.444444444444445 ['115', '148', '126', '147', '124', '136', '118', '142', '132', '145', '144', '149', '146', '138', '139'] 672.2222222222227
170 13.444444444444445 ['115', '148', '126', '147', '124', '136', '118', '142', '132', '145', '144', '149', '146', '138', '139'] 672.2222222222227
171 13.444444444444445 ['115', '148', '126', '147', '124', '136', '118', '142', '132', '145', '144', '149', '146', '138', '139'] 672.2222222222227
172 13.444444444444445 ['115', '148', '126', '147', '124', '136', '118', '142', '132', '145', '144', '149', '146', '138', '139'] 672.2222222222227
173 13.444444444444445 ['115', '148', '126', '147', '124', '136', '118', '142', '132', '145', '144', '149', '146', '138', '139'] 672.2222222222227
174 13.444444444444445 ['115', '148', '126', '147', '124', '136', '118', '142', '132', '145', '144', '149', '146', '138', '139'] 672.2222222222227
175 13.444444444444445 ['115', '148', '126', '147', '124', '136', '118', '142', '132', '145', '144', '149', '146', '138', '139'] 672.2222222222227
176 13.444444444444445 ['115', '148', '126', '147', '124', '136', '118', '142', '132', '145', '144', '149', '146', '138', '139'] 672.2222222222227
177 13.444444444444445 ['115', '148', '126', '147', '124', '136', '118', '142', '132', '145', '144', '149', '146', '138', '139'] 672.2222222222227
178 13.444444444444445 ['115', '148', '126', '147', '124', '136', '118', '142', '132', '145', '144', '149', '146', '138', '139'] 672.2222222222227
179 13.444444444444445 ['115', '148', '126', '147', '124', '136', '118', '142', '132', '145', '144', '149', '146', '138', '139'] 672.2222222222227
180 13.444444444444445 ['115', '148', '126', '147', '124', '136', '118', '142', '132', '145', '144', '149', '146', '138', '139'] 672.2222222222227
181 13.444444444444445 ['115', '148', '126', '147', '124', '136', '118', '142', '132', '145', '144', '149', '146', '138', '139'] 672.2222222222227
182 13.444444444444445 ['115', '148', '126', '147', '124', '136', '118', '142', '132', '145', '144', '149', '146', '138', '139'] 672.2222222222227
183 13.444444444444445 ['115', '148', '126', '147', '124', '136', '118', '142', '132', '145', '144', '149', '146', '138', '139'] 672.2222222222227
184 13.444444444444445 ['115', '148', '126', '147', '124', '136', '118', '142', '132', '145', '144', '149', '146', '138', '139'] 672.2222222222227
185 13.444444444444445 ['115', '148', '126', '147', '124', '136', '118', '142', '132', '145', '144', '149', '146', '138', '139'] 672.2222222222227
186 13.444444444444445 ['115', '148', '126', '147', '124', '136', '118', '142', '132', '145', '144', '149', '146', '138', '139'] 672.2222222222227
187 13.444444444444445 ['115', '148', '126', '147', '124', '136', '118', '142', '132', '145', '144', '149', '146', '138', '139'] 672.2222222222227
188 13.444444444444445 ['115', '148', '126', '147', '124', '136', '118', '142', '132', '145', '144', '149', '146', '138', '139'] 672.2222222222227
189 13.444444444444445 ['115', '148', '126', '147', '124', '136', '118', '142', '132', '145', '144', '149', '146', '138', '139'] 672.2222222222227
190 13.444444444444445 ['115', '148', '126', '147', '124', '136', '118', '142', '132', '145', '144', '149', '146', '138', '139'] 672.2222222222227
191 13.444444444444445 ['115', '148', '126', '147', '124', '136', '118', '142', '132', '145', '144', '149', '146', '138', '139'] 672.2222222222227
192 13.444444444444445 ['115', '148', '126', '147', '124', '136', '118', '142', '132', '145', '144', '149', '146', '138', '139'] 672.2222222222227
193 13.444444444444445 ['115', '148', '126', '147', '124', '136', '118', '142', '132', '145', '144', '149', '146', '138', '139'] 672.2222222222227
194 13.444444444444445 ['115', '148', '126', '147', '124', '136', '118', '142', '132', '145', '144', '149', '146', '138', '139'] 672.2222222222227
195 13.444444444444445 ['115', '148', '126', '147', '124', '136', '118', '142', '132', '145', '144', '149', '146', '138', '139'] 672.2222222222227
196 13.444444444444445 ['115', '148', '126', '147', '124', '136', '118', '142', '132', '145', '144', '149', '146', '138', '139'] 672.2222222222227
197 13.444444444444445 ['115', '148', '126', '147', '124', '136', '118', '142', '132', '145', '144', '149', '146', '138', '139'] 672.2222222222227
198 13.444444444444445 ['115', '148', '126', '147', '124', '136', '118', '142', '132', '145', '144', '149', '146', '138', '139'] 672.2222222222227
199 13.444444444444445 ['115', '148', '126', '147', '124', '136', '118', '142', '132', '145', '144', '149', '146', '138', '139'] 672.2222222222227
