0 15.57037037037037 ['140', '150', '119', '121', '29', '135', '58', '89', '65', '141', '27', '85', '99', '73', '130'] 792.7851851851854
1 15.518518518518519 ['84', '129', '62', '96', '150', '50', '43', '33', '135', '145', '147', '3', '73', '134', '78'] 787.4148148148146
2 15.303703703703704 ['127', '144', '18', '30', '128', '58', '108', '145', '121', '139', '140', '85', '150', '88', '77'] 782.2814814814819
3 15.222222222222221 ['150', '128', '144', '132', '58', '78', '108', '94', '114', '61', '145', '143', '119', '30', '140'] 776.9999999999999
4 15.185185185185185 ['108', '58', '94', '144', '143', '61', '99', '122', '145', '140', '150', '132', '89', '30', '115'] 772.2370370370365
5 15.118518518518519 ['22', '26', '119', '132', '98', '149', '78', '135', '89', '85', '150', '144', '130', '115', '143'] 767.1481481481485
6 15.088888888888889 ['140', '150', '145', '143', '30', '128', '148', '139', '114', '121', '41', '137', '18', '108', '144'] 762.6962962962962
7 14.881481481481481 ['128', '144', '150', '140', '114', '148', '145', '30', '121', '65', '141', '108', '139', '130', '89'] 759.2666666666661
8 14.881481481481481 ['128', '144', '150', '140', '114', '148', '145', '30', '121', '65', '141', '108', '139', '130', '89'] 755.5555555555561
9 14.822222222222223 ['150', '143', '144', '115', '61', '122', '140', '108', '129', '145', '136', '127', '89', '113', '118'] 751.607407407407
10 14.792592592592593 ['108', '122', '144', '89', '143', '145', '115', '150', '130', '129', '30', '147', '139', '118', '113'] 747.6074074074078
11 14.748148148148148 ['136', '30', '115', '144', '145', '128', '143', '108', '150', '114', '132', '129', '127', '140', '130'] 744.0444444444446
12 14.74074074074074 ['122', '144', '118', '108', '130', '143', '115', '139', '150', '99', '147', '145', '61', '114', '129'] 741.888888888889
13 14.614814814814816 ['143', '135', '150', '108', '128', '89', '145', '139', '144', '132', '130', '115', '147', '127', '113'] 739.6296296296296
14 14.614814814814816 ['143', '135', '150', '108', '128', '89', '145', '139', '144', '132', '130', '115', '147', '127', '113'] 737.54074074074
15 14.57037037037037 ['115', '143', '140', '144', '145', '150', '108', '130', '139', '99', '136', '147', '113', '118', '127'] 735.4370370370376
16 14.57037037037037 ['115', '143', '140', '144', '145', '150', '108', '130', '139', '99', '136', '147', '113', '118', '127'] 733.5333333333332
17 14.548148148148147 ['118', '108', '145', '115', '143', '150', '144', '122', '139', '130', '140', '129', '136', '127', '147'] 731.8296296296292
18 14.548148148148147 ['118', '108', '145', '115', '143', '150', '144', '122', '139', '130', '140', '129', '136', '127', '147'] 730.5111111111116
19 14.548148148148147 ['118', '108', '145', '115', '143', '150', '144', '122', '139', '130', '140', '129', '136', '127', '147'] 729.4888888888897
20 14.518518518518519 ['145', '150', '127', '130', '132', '115', '140', '139', '144', '129', '108', '143', '128', '136', '113'] 728.5481481481482
21 14.488888888888889 ['140', '145', '130', '108', '139', '127', '113', '144', '143', '150', '115', '128', '147', '136', '129'] 727.5037037037035
22 14.481481481481481 ['147', '145', '130', '144', '140', '108', '139', '150', '115', '143', '127', '129', '148', '136', '128'] 726.7037037037036
23 14.481481481481481 ['147', '145', '130', '144', '140', '108', '139', '150', '115', '143', '127', '129', '148', '136', '128'] 726.0148148148148
24 14.481481481481481 ['147', '145', '130', '144', '140', '108', '139', '150', '115', '143', '127', '129', '148', '136', '128'] 725.155555555555
25 14.481481481481481 ['147', '145', '130', '144', '140', '108', '139', '150', '115', '143', '127', '129', '148', '136', '128'] 724.3925925925925
26 14.481481481481481 ['147', '145', '130', '144', '140', '108', '139', '150', '115', '143', '127', '129', '148', '136', '128'] 724.140740740741
27 14.481481481481481 ['147', '145', '130', '144', '140', '108', '139', '150', '115', '143', '127', '129', '148', '136', '128'] 724.0740740740742
28 14.481481481481481 ['147', '145', '130', '144', '140', '108', '139', '150', '115', '143', '127', '129', '148', '136', '128'] 724.0740740740742
29 14.481481481481481 ['147', '145', '130', '144', '140', '108', '139', '150', '115', '143', '127', '129', '148', '136', '128'] 724.0740740740742
30 14.481481481481481 ['147', '145', '130', '144', '140', '108', '139', '150', '115', '143', '127', '129', '148', '136', '128'] 724.0740740740742
31 14.481481481481481 ['147', '145', '130', '144', '140', '108', '139', '150', '115', '143', '127', '129', '148', '136', '128'] 724.0740740740742
32 14.481481481481481 ['147', '145', '130', '144', '140', '108', '139', '150', '115', '143', '127', '129', '148', '136', '128'] 724.0740740740742
33 14.481481481481481 ['147', '145', '130', '144', '140', '108', '139', '150', '115', '143', '127', '129', '148', '136', '128'] 724.0740740740742
34 14.481481481481481 ['147', '145', '130', '144', '140', '108', '139', '150', '115', '143', '127', '129', '148', '136', '128'] 724.0740740740742
35 14.481481481481481 ['147', '145', '130', '144', '140', '108', '139', '150', '115', '143', '127', '129', '148', '136', '128'] 724.0740740740742
36 14.481481481481481 ['147', '145', '130', '144', '140', '108', '139', '150', '115', '143', '127', '129', '148', '136', '128'] 724.0740740740742
37 14.481481481481481 ['147', '145', '130', '144', '140', '108', '139', '150', '115', '143', '127', '129', '148', '136', '128'] 724.0740740740742
38 14.481481481481481 ['147', '145', '130', '144', '140', '108', '139', '150', '115', '143', '127', '129', '148', '136', '128'] 724.0740740740742
39 14.481481481481481 ['147', '145', '130', '144', '140', '108', '139', '150', '115', '143', '127', '129', '148', '136', '128'] 724.0740740740742
40 14.481481481481481 ['147', '145', '130', '144', '140', '108', '139', '150', '115', '143', '127', '129', '148', '136', '128'] 724.0740740740742
41 14.481481481481481 ['147', '145', '130', '144', '140', '108', '139', '150', '115', '143', '127', '129', '148', '136', '128'] 724.0740740740742
42 14.481481481481481 ['147', '145', '130', '144', '140', '108', '139', '150', '115', '143', '127', '129', '148', '136', '128'] 724.0740740740742
43 14.481481481481481 ['147', '145', '130', '144', '140', '108', '139', '150', '115', '143', '127', '129', '148', '136', '128'] 724.0740740740742
44 14.481481481481481 ['147', '145', '130', '144', '140', '108', '139', '150', '115', '143', '127', '129', '148', '136', '128'] 724.0740740740742
45 14.481481481481481 ['147', '145', '130', '144', '140', '108', '139', '150', '115', '143', '127', '129', '148', '136', '128'] 724.0740740740742
46 14.481481481481481 ['147', '145', '130', '144', '140', '108', '139', '150', '115', '143', '127', '129', '148', '136', '128'] 724.0740740740742
47 14.481481481481481 ['147', '145', '130', '144', '140', '108', '139', '150', '115', '143', '127', '129', '148', '136', '128'] 724.0740740740742
48 14.481481481481481 ['147', '145', '130', '144', '140', '108', '139', '150', '115', '143', '127', '129', '148', '136', '128'] 724.0740740740742
49 14.481481481481481 ['147', '145', '130', '144', '140', '108', '139', '150', '115', '143', '127', '129', '148', '136', '128'] 724.0740740740742
50 14.481481481481481 ['147', '145', '130', '144', '140', '108', '139', '150', '115', '143', '127', '129', '148', '136', '128'] 724.0740740740742
51 14.481481481481481 ['147', '145', '130', '144', '140', '108', '139', '150', '115', '143', '127', '129', '148', '136', '128'] 724.0740740740742
52 14.481481481481481 ['147', '145', '130', '144', '140', '108', '139', '150', '115', '143', '127', '129', '148', '136', '128'] 724.0740740740742
53 14.481481481481481 ['147', '145', '130', '144', '140', '108', '139', '150', '115', '143', '127', '129', '148', '136', '128'] 724.0740740740742
54 14.481481481481481 ['147', '145', '130', '144', '140', '108', '139', '150', '115', '143', '127', '129', '148', '136', '128'] 724.0740740740742
55 14.481481481481481 ['147', '145', '130', '144', '140', '108', '139', '150', '115', '143', '127', '129', '148', '136', '128'] 724.0740740740742
56 14.481481481481481 ['147', '145', '130', '144', '140', '108', '139', '150', '115', '143', '127', '129', '148', '136', '128'] 724.0740740740742
57 14.481481481481481 ['147', '145', '130', '144', '140', '108', '139', '150', '115', '143', '127', '129', '148', '136', '128'] 724.0740740740742
58 14.481481481481481 ['147', '145', '130', '144', '140', '108', '139', '150', '115', '143', '127', '129', '148', '136', '128'] 724.0740740740742
59 14.481481481481481 ['147', '145', '130', '144', '140', '108', '139', '150', '115', '143', '127', '129', '148', '136', '128'] 724.0740740740742
60 14.481481481481481 ['147', '145', '130', '144', '140', '108', '139', '150', '115', '143', '127', '129', '148', '136', '128'] 724.0740740740742
61 14.481481481481481 ['147', '145', '130', '144', '140', '108', '139', '150', '115', '143', '127', '129', '148', '136', '128'] 724.0740740740742
62 14.481481481481481 ['147', '145', '130', '144', '140', '108', '139', '150', '115', '143', '127', '129', '148', '136', '128'] 724.0740740740742
63 14.481481481481481 ['147', '145', '130', '144', '140', '108', '139', '150', '115', '143', '127', '129', '148', '136', '128'] 724.0740740740742
64 14.481481481481481 ['147', '145', '130', '144', '140', '108', '139', '150', '115', '143', '127', '129', '148', '136', '128'] 724.0740740740742
65 14.481481481481481 ['147', '145', '130', '144', '140', '108', '139', '150', '115', '143', '127', '129', '148', '136', '128'] 724.0740740740742
66 14.481481481481481 ['147', '145', '130', '144', '140', '108', '139', '150', '115', '143', '127', '129', '148', '136', '128'] 724.0740740740742
67 14.481481481481481 ['147', '145', '130', '144', '140', '108', '139', '150', '115', '143', '127', '129', '148', '136', '128'] 724.0740740740742
68 14.481481481481481 ['147', '145', '130', '144', '140', '108', '139', '150', '115', '143', '127', '129', '148', '136', '128'] 724.0740740740742
69 14.481481481481481 ['147', '145', '130', '144', '140', '108', '139', '150', '115', '143', '127', '129', '148', '136', '128'] 724.0740740740742
70 14.481481481481481 ['147', '145', '130', '144', '140', '108', '139', '150', '115', '143', '127', '129', '148', '136', '128'] 724.0740740740742
71 14.481481481481481 ['147', '145', '130', '144', '140', '108', '139', '150', '115', '143', '127', '129', '148', '136', '128'] 724.0740740740742
72 14.481481481481481 ['147', '145', '130', '144', '140', '108', '139', '150', '115', '143', '127', '129', '148', '136', '128'] 724.0740740740742
73 14.481481481481481 ['147', '145', '130', '144', '140', '108', '139', '150', '115', '143', '127', '129', '148', '136', '128'] 724.0740740740742
74 14.481481481481481 ['147', '145', '130', '144', '140', '108', '139', '150', '115', '143', '127', '129', '148', '136', '128'] 724.0740740740742
75 14.481481481481481 ['147', '145', '130', '144', '140', '108', '139', '150', '115', '143', '127', '129', '148', '136', '128'] 724.0740740740742
76 14.481481481481481 ['147', '145', '130', '144', '140', '108', '139', '150', '115', '143', '127', '129', '148', '136', '128'] 724.0740740740742
77 14.481481481481481 ['147', '145', '130', '144', '140', '108', '139', '150', '115', '143', '127', '129', '148', '136', '128'] 724.0740740740742
78 14.481481481481481 ['147', '145', '130', '144', '140', '108', '139', '150', '115', '143', '127', '129', '148', '136', '128'] 724.0740740740742
79 14.481481481481481 ['147', '145', '130', '144', '140', '108', '139', '150', '115', '143', '127', '129', '148', '136', '128'] 724.0740740740742
80 14.481481481481481 ['147', '145', '130', '144', '140', '108', '139', '150', '115', '143', '127', '129', '148', '136', '128'] 724.0740740740742
81 14.481481481481481 ['147', '145', '130', '144', '140', '108', '139', '150', '115', '143', '127', '129', '148', '136', '128'] 724.0740740740742
82 14.481481481481481 ['147', '145', '130', '144', '140', '108', '139', '150', '115', '143', '127', '129', '148', '136', '128'] 724.0740740740742
83 14.481481481481481 ['147', '145', '130', '144', '140', '108', '139', '150', '115', '143', '127', '129', '148', '136', '128'] 724.0740740740742
84 14.481481481481481 ['147', '145', '130', '144', '140', '108', '139', '150', '115', '143', '127', '129', '148', '136', '128'] 724.0740740740742
85 14.481481481481481 ['147', '145', '130', '144', '140', '108', '139', '150', '115', '143', '127', '129', '148', '136', '128'] 724.0740740740742
86 14.481481481481481 ['147', '145', '130', '144', '140', '108', '139', '150', '115', '143', '127', '129', '148', '136', '128'] 724.0740740740742
87 14.481481481481481 ['147', '145', '130', '144', '140', '108', '139', '150', '115', '143', '127', '129', '148', '136', '128'] 724.0740740740742
88 14.481481481481481 ['147', '145', '130', '144', '140', '108', '139', '150', '115', '143', '127', '129', '148', '136', '128'] 724.0740740740742
89 14.481481481481481 ['147', '145', '130', '144', '140', '108', '139', '150', '115', '143', '127', '129', '148', '136', '128'] 724.0740740740742
90 14.481481481481481 ['147', '145', '130', '144', '140', '108', '139', '150', '115', '143', '127', '129', '148', '136', '128'] 724.0740740740742
91 14.481481481481481 ['147', '145', '130', '144', '140', '108', '139', '150', '115', '143', '127', '129', '148', '136', '128'] 724.0740740740742
92 14.481481481481481 ['147', '145', '130', '144', '140', '108', '139', '150', '115', '143', '127', '129', '148', '136', '128'] 724.0740740740742
93 14.481481481481481 ['147', '145', '130', '144', '140', '108', '139', '150', '115', '143', '127', '129', '148', '136', '128'] 724.0740740740742
94 14.481481481481481 ['147', '145', '130', '144', '140', '108', '139', '150', '115', '143', '127', '129', '148', '136', '128'] 724.0740740740742
95 14.481481481481481 ['147', '145', '130', '144', '140', '108', '139', '150', '115', '143', '127', '129', '148', '136', '128'] 724.0740740740742
96 14.481481481481481 ['147', '145', '130', '144', '140', '108', '139', '150', '115', '143', '127', '129', '148', '136', '128'] 724.0740740740742
97 14.481481481481481 ['147', '145', '130', '144', '140', '108', '139', '150', '115', '143', '127', '129', '148', '136', '128'] 724.0740740740742
98 14.481481481481481 ['147', '145', '130', '144', '140', '108', '139', '150', '115', '143', '127', '129', '148', '136', '128'] 724.0740740740742
99 14.481481481481481 ['147', '145', '130', '144', '140', '108', '139', '150', '115', '143', '127', '129', '148', '136', '128'] 724.0740740740742
100 14.481481481481481 ['147', '145', '130', '144', '140', '108', '139', '150', '115', '143', '127', '129', '148', '136', '128'] 724.0740740740742
101 14.481481481481481 ['147', '145', '130', '144', '140', '108', '139', '150', '115', '143', '127', '129', '148', '136', '128'] 724.0740740740742
102 14.481481481481481 ['147', '145', '130', '144', '140', '108', '139', '150', '115', '143', '127', '129', '148', '136', '128'] 724.0740740740742
103 14.481481481481481 ['147', '145', '130', '144', '140', '108', '139', '150', '115', '143', '127', '129', '148', '136', '128'] 724.0740740740742
104 14.481481481481481 ['147', '145', '130', '144', '140', '108', '139', '150', '115', '143', '127', '129', '148', '136', '128'] 724.0740740740742
105 14.481481481481481 ['147', '145', '130', '144', '140', '108', '139', '150', '115', '143', '127', '129', '148', '136', '128'] 724.0740740740742
106 14.481481481481481 ['147', '145', '130', '144', '140', '108', '139', '150', '115', '143', '127', '129', '148', '136', '128'] 724.0740740740742
107 14.481481481481481 ['147', '145', '130', '144', '140', '108', '139', '150', '115', '143', '127', '129', '148', '136', '128'] 724.0740740740742
108 14.481481481481481 ['147', '145', '130', '144', '140', '108', '139', '150', '115', '143', '127', '129', '148', '136', '128'] 724.0740740740742
109 14.481481481481481 ['147', '145', '130', '144', '140', '108', '139', '150', '115', '143', '127', '129', '148', '136', '128'] 724.0740740740742
110 14.481481481481481 ['147', '145', '130', '144', '140', '108', '139', '150', '115', '143', '127', '129', '148', '136', '128'] 724.0740740740742
111 14.481481481481481 ['147', '145', '130', '144', '140', '108', '139', '150', '115', '143', '127', '129', '148', '136', '128'] 724.0740740740742
112 14.481481481481481 ['147', '145', '130', '144', '140', '108', '139', '150', '115', '143', '127', '129', '148', '136', '128'] 724.0740740740742
113 14.481481481481481 ['147', '145', '130', '144', '140', '108', '139', '150', '115', '143', '127', '129', '148', '136', '128'] 724.0740740740742
114 14.481481481481481 ['147', '145', '130', '144', '140', '108', '139', '150', '115', '143', '127', '129', '148', '136', '128'] 724.0740740740742
115 14.481481481481481 ['147', '145', '130', '144', '140', '108', '139', '150', '115', '143', '127', '129', '148', '136', '128'] 724.0740740740742
116 14.481481481481481 ['147', '145', '130', '144', '140', '108', '139', '150', '115', '143', '127', '129', '148', '136', '128'] 724.0740740740742
117 14.481481481481481 ['147', '145', '130', '144', '140', '108', '139', '150', '115', '143', '127', '129', '148', '136', '128'] 724.0740740740742
118 14.481481481481481 ['147', '145', '130', '144', '140', '108', '139', '150', '115', '143', '127', '129', '148', '136', '128'] 724.0740740740742
119 14.481481481481481 ['147', '145', '130', '144', '140', '108', '139', '150', '115', '143', '127', '129', '148', '136', '128'] 724.0740740740742
120 14.481481481481481 ['147', '145', '130', '144', '140', '108', '139', '150', '115', '143', '127', '129', '148', '136', '128'] 724.0740740740742
121 14.481481481481481 ['147', '145', '130', '144', '140', '108', '139', '150', '115', '143', '127', '129', '148', '136', '128'] 724.0740740740742
122 14.481481481481481 ['147', '145', '130', '144', '140', '108', '139', '150', '115', '143', '127', '129', '148', '136', '128'] 724.0740740740742
123 14.481481481481481 ['147', '145', '130', '144', '140', '108', '139', '150', '115', '143', '127', '129', '148', '136', '128'] 724.0740740740742
124 14.481481481481481 ['147', '145', '130', '144', '140', '108', '139', '150', '115', '143', '127', '129', '148', '136', '128'] 724.0740740740742
125 14.481481481481481 ['147', '145', '130', '144', '140', '108', '139', '150', '115', '143', '127', '129', '148', '136', '128'] 724.0740740740742
126 14.481481481481481 ['147', '145', '130', '144', '140', '108', '139', '150', '115', '143', '127', '129', '148', '136', '128'] 724.0740740740742
127 14.481481481481481 ['147', '145', '130', '144', '140', '108', '139', '150', '115', '143', '127', '129', '148', '136', '128'] 724.0740740740742
128 14.481481481481481 ['147', '145', '130', '144', '140', '108', '139', '150', '115', '143', '127', '129', '148', '136', '128'] 724.0740740740742
129 14.481481481481481 ['147', '145', '130', '144', '140', '108', '139', '150', '115', '143', '127', '129', '148', '136', '128'] 724.0740740740742
130 14.481481481481481 ['147', '145', '130', '144', '140', '108', '139', '150', '115', '143', '127', '129', '148', '136', '128'] 724.0740740740742
131 14.481481481481481 ['147', '145', '130', '144', '140', '108', '139', '150', '115', '143', '127', '129', '148', '136', '128'] 724.0740740740742
132 14.481481481481481 ['147', '145', '130', '144', '140', '108', '139', '150', '115', '143', '127', '129', '148', '136', '128'] 724.0740740740742
133 14.481481481481481 ['147', '145', '130', '144', '140', '108', '139', '150', '115', '143', '127', '129', '148', '136', '128'] 724.0740740740742
134 14.481481481481481 ['147', '145', '130', '144', '140', '108', '139', '150', '115', '143', '127', '129', '148', '136', '128'] 724.0740740740742
135 14.481481481481481 ['147', '145', '130', '144', '140', '108', '139', '150', '115', '143', '127', '129', '148', '136', '128'] 724.0740740740742
136 14.451851851851853 ['136', '127', '139', '145', '108', '130', '129', '128', '150', '147', '143', '115', '144', '140', '146'] 724.0444444444447
137 14.42962962962963 ['115', '140', '108', '150', '130', '127', '145', '136', '139', '147', '143', '128', '144', '146', '148'] 723.9629629629632
138 14.42962962962963 ['115', '140', '108', '150', '130', '127', '145', '136', '139', '147', '143', '128', '144', '146', '148'] 723.8592592592595
139 14.42962962962963 ['115', '140', '108', '150', '130', '127', '145', '136', '139', '147', '143', '128', '144', '146', '148'] 723.540740740741
140 14.42962962962963 ['115', '140', '108', '150', '130', '127', '145', '136', '139', '147', '143', '128', '144', '146', '148'] 722.696296296297
141 14.42962962962963 ['115', '140', '108', '150', '130', '127', '145', '136', '139', '147', '143', '128', '144', '146', '148'] 721.4814814814815
142 14.42962962962963 ['115', '140', '108', '150', '130', '127', '145', '136', '139', '147', '143', '128', '144', '146', '148'] 721.4814814814815
143 14.42962962962963 ['115', '140', '108', '150', '130', '127', '145', '136', '139', '147', '143', '128', '144', '146', '148'] 721.4814814814815
144 14.42962962962963 ['115', '140', '108', '150', '130', '127', '145', '136', '139', '147', '143', '128', '144', '146', '148'] 721.4814814814815
145 14.42962962962963 ['115', '140', '108', '150', '130', '127', '145', '136', '139', '147', '143', '128', '144', '146', '148'] 721.4814814814815
146 14.42962962962963 ['115', '140', '108', '150', '130', '127', '145', '136', '139', '147', '143', '128', '144', '146', '148'] 721.4814814814815
147 14.42962962962963 ['115', '140', '108', '150', '130', '127', '145', '136', '139', '147', '143', '128', '144', '146', '148'] 721.4814814814815
148 14.42962962962963 ['115', '140', '108', '150', '130', '127', '145', '136', '139', '147', '143', '128', '144', '146', '148'] 721.4814814814815
149 14.42962962962963 ['115', '140', '108', '150', '130', '127', '145', '136', '139', '147', '143', '128', '144', '146', '148'] 721.4814814814815
150 14.42962962962963 ['115', '140', '108', '150', '130', '127', '145', '136', '139', '147', '143', '128', '144', '146', '148'] 721.4814814814815
151 14.42962962962963 ['115', '140', '108', '150', '130', '127', '145', '136', '139', '147', '143', '128', '144', '146', '148'] 721.4814814814815
152 14.42962962962963 ['115', '140', '108', '150', '130', '127', '145', '136', '139', '147', '143', '128', '144', '146', '148'] 721.4814814814815
153 14.42962962962963 ['115', '140', '108', '150', '130', '127', '145', '136', '139', '147', '143', '128', '144', '146', '148'] 721.4814814814815
154 14.42962962962963 ['115', '140', '108', '150', '130', '127', '145', '136', '139', '147', '143', '128', '144', '146', '148'] 721.4814814814815
155 14.42962962962963 ['115', '140', '108', '150', '130', '127', '145', '136', '139', '147', '143', '128', '144', '146', '148'] 721.4814814814815
156 14.42962962962963 ['115', '140', '108', '150', '130', '127', '145', '136', '139', '147', '143', '128', '144', '146', '148'] 721.4814814814815
157 14.42962962962963 ['115', '140', '108', '150', '130', '127', '145', '136', '139', '147', '143', '128', '144', '146', '148'] 721.4814814814815
158 14.42962962962963 ['115', '140', '108', '150', '130', '127', '145', '136', '139', '147', '143', '128', '144', '146', '148'] 721.4814814814815
159 14.42962962962963 ['115', '140', '108', '150', '130', '127', '145', '136', '139', '147', '143', '128', '144', '146', '148'] 721.4814814814815
160 14.42962962962963 ['115', '140', '108', '150', '130', '127', '145', '136', '139', '147', '143', '128', '144', '146', '148'] 721.4814814814815
161 14.42962962962963 ['115', '140', '108', '150', '130', '127', '145', '136', '139', '147', '143', '128', '144', '146', '148'] 721.4814814814815
162 14.42962962962963 ['115', '140', '108', '150', '130', '127', '145', '136', '139', '147', '143', '128', '144', '146', '148'] 721.4814814814815
163 14.42962962962963 ['115', '140', '108', '150', '130', '127', '145', '136', '139', '147', '143', '128', '144', '146', '148'] 721.4814814814815
164 14.42962962962963 ['115', '140', '108', '150', '130', '127', '145', '136', '139', '147', '143', '128', '144', '146', '148'] 721.4814814814815
165 14.42962962962963 ['115', '140', '108', '150', '130', '127', '145', '136', '139', '147', '143', '128', '144', '146', '148'] 721.4814814814815
166 14.42962962962963 ['115', '140', '108', '150', '130', '127', '145', '136', '139', '147', '143', '128', '144', '146', '148'] 721.4814814814815
167 14.42962962962963 ['115', '140', '108', '150', '130', '127', '145', '136', '139', '147', '143', '128', '144', '146', '148'] 721.4814814814815
168 14.42962962962963 ['115', '140', '108', '150', '130', '127', '145', '136', '139', '147', '143', '128', '144', '146', '148'] 721.4814814814815
169 14.42962962962963 ['115', '140', '108', '150', '130', '127', '145', '136', '139', '147', '143', '128', '144', '146', '148'] 721.4814814814815
170 14.42962962962963 ['115', '140', '108', '150', '130', '127', '145', '136', '139', '147', '143', '128', '144', '146', '148'] 721.4814814814815
171 14.42962962962963 ['115', '140', '108', '150', '130', '127', '145', '136', '139', '147', '143', '128', '144', '146', '148'] 721.4814814814815
172 14.42962962962963 ['115', '140', '108', '150', '130', '127', '145', '136', '139', '147', '143', '128', '144', '146', '148'] 721.4814814814815
173 14.42962962962963 ['115', '140', '108', '150', '130', '127', '145', '136', '139', '147', '143', '128', '144', '146', '148'] 721.4814814814815
174 14.42962962962963 ['115', '140', '108', '150', '130', '127', '145', '136', '139', '147', '143', '128', '144', '146', '148'] 721.4814814814815
175 14.42962962962963 ['115', '140', '108', '150', '130', '127', '145', '136', '139', '147', '143', '128', '144', '146', '148'] 721.4814814814815
176 14.42962962962963 ['115', '140', '108', '150', '130', '127', '145', '136', '139', '147', '143', '128', '144', '146', '148'] 721.4814814814815
177 14.42962962962963 ['115', '140', '108', '150', '130', '127', '145', '136', '139', '147', '143', '128', '144', '146', '148'] 721.4814814814815
178 14.42962962962963 ['115', '140', '108', '150', '130', '127', '145', '136', '139', '147', '143', '128', '144', '146', '148'] 721.4814814814815
179 14.42962962962963 ['115', '140', '108', '150', '130', '127', '145', '136', '139', '147', '143', '128', '144', '146', '148'] 721.4814814814815
180 14.42962962962963 ['115', '140', '108', '150', '130', '127', '145', '136', '139', '147', '143', '128', '144', '146', '148'] 721.4814814814815
181 14.42962962962963 ['115', '140', '108', '150', '130', '127', '145', '136', '139', '147', '143', '128', '144', '146', '148'] 721.4814814814815
182 14.42962962962963 ['115', '140', '108', '150', '130', '127', '145', '136', '139', '147', '143', '128', '144', '146', '148'] 721.4814814814815
183 14.42962962962963 ['115', '140', '108', '150', '130', '127', '145', '136', '139', '147', '143', '128', '144', '146', '148'] 721.4814814814815
184 14.42962962962963 ['115', '140', '108', '150', '130', '127', '145', '136', '139', '147', '143', '128', '144', '146', '148'] 721.4814814814815
185 14.42962962962963 ['115', '140', '108', '150', '130', '127', '145', '136', '139', '147', '143', '128', '144', '146', '148'] 721.4814814814815
186 14.42962962962963 ['115', '140', '108', '150', '130', '127', '145', '136', '139', '147', '143', '128', '144', '146', '148'] 721.4814814814815
187 14.42962962962963 ['115', '140', '108', '150', '130', '127', '145', '136', '139', '147', '143', '128', '144', '146', '148'] 721.4814814814815
188 14.42962962962963 ['115', '140', '108', '150', '130', '127', '145', '136', '139', '147', '143', '128', '144', '146', '148'] 721.4814814814815
189 14.42962962962963 ['115', '140', '108', '150', '130', '127', '145', '136', '139', '147', '143', '128', '144', '146', '148'] 721.4814814814815
190 14.42962962962963 ['115', '140', '108', '150', '130', '127', '145', '136', '139', '147', '143', '128', '144', '146', '148'] 721.4814814814815
191 14.42962962962963 ['115', '140', '108', '150', '130', '127', '145', '136', '139', '147', '143', '128', '144', '146', '148'] 721.4814814814815
192 14.42962962962963 ['115', '140', '108', '150', '130', '127', '145', '136', '139', '147', '143', '128', '144', '146', '148'] 721.4814814814815
193 14.42962962962963 ['115', '140', '108', '150', '130', '127', '145', '136', '139', '147', '143', '128', '144', '146', '148'] 721.4814814814815
194 14.42962962962963 ['115', '140', '108', '150', '130', '127', '145', '136', '139', '147', '143', '128', '144', '146', '148'] 721.4814814814815
195 14.42962962962963 ['115', '140', '108', '150', '130', '127', '145', '136', '139', '147', '143', '128', '144', '146', '148'] 721.4814814814815
196 14.42962962962963 ['115', '140', '108', '150', '130', '127', '145', '136', '139', '147', '143', '128', '144', '146', '148'] 721.4814814814815
197 14.42962962962963 ['115', '140', '108', '150', '130', '127', '145', '136', '139', '147', '143', '128', '144', '146', '148'] 721.4814814814815
198 14.42962962962963 ['115', '140', '108', '150', '130', '127', '145', '136', '139', '147', '143', '128', '144', '146', '148'] 721.4814814814815
199 14.42962962962963 ['115', '140', '108', '150', '130', '127', '145', '136', '139', '147', '143', '128', '144', '146', '148'] 721.4814814814815
