0 5.888888888888889 ['34', '3', '27'] 319.6666666666668
1 5.777777777777778 ['4', '5', '27'] 313.0000000000003
2 5.666666666666667 ['27', '22', '4'] 304.77777777777777
3 5.666666666666667 ['27', '22', '4'] 296.22222222222206
4 5.666666666666667 ['27', '22', '4'] 290.22222222222223
5 5.666666666666667 ['27', '22', '4'] 287.222222222222
6 5.666666666666667 ['27', '22', '4'] 285.6666666666665
7 5.666666666666667 ['27', '22', '4'] 283.33333333333326
8 5.666666666666667 ['27', '22', '4'] 283.33333333333326
9 5.666666666666667 ['27', '22', '4'] 283.33333333333326
10 5.666666666666667 ['27', '22', '4'] 283.33333333333326
11 5.666666666666667 ['27', '22', '4'] 283.33333333333326
12 5.666666666666667 ['27', '22', '4'] 283.33333333333326
13 5.666666666666667 ['27', '22', '4'] 283.33333333333326
14 5.666666666666667 ['27', '22', '4'] 283.33333333333326
15 5.666666666666667 ['27', '22', '4'] 283.33333333333326
16 5.666666666666667 ['27', '22', '4'] 283.33333333333326
17 5.666666666666667 ['27', '22', '4'] 283.33333333333326
18 5.666666666666667 ['27', '22', '4'] 283.33333333333326
19 5.666666666666667 ['27', '22', '4'] 283.33333333333326
20 5.666666666666667 ['27', '22', '4'] 283.33333333333326
21 5.666666666666667 ['27', '22', '4'] 283.33333333333326
22 5.666666666666667 ['27', '22', '4'] 283.33333333333326
23 5.666666666666667 ['27', '22', '4'] 283.33333333333326
24 5.666666666666667 ['27', '22', '4'] 283.33333333333326
25 5.666666666666667 ['27', '22', '4'] 283.33333333333326
26 5.666666666666667 ['27', '22', '4'] 283.33333333333326
27 5.666666666666667 ['27', '22', '4'] 283.33333333333326
28 5.666666666666667 ['27', '22', '4'] 283.33333333333326
29 5.666666666666667 ['27', '22', '4'] 283.33333333333326
30 5.666666666666667 ['27', '22', '4'] 283.33333333333326
31 5.666666666666667 ['27', '22', '4'] 283.33333333333326
32 5.666666666666667 ['27', '22', '4'] 283.33333333333326
33 5.666666666666667 ['27', '22', '4'] 283.33333333333326
34 5.666666666666667 ['27', '22', '4'] 283.33333333333326
35 5.666666666666667 ['27', '22', '4'] 283.33333333333326
36 5.666666666666667 ['27', '22', '4'] 283.33333333333326
37 5.666666666666667 ['27', '22', '4'] 283.33333333333326
38 5.666666666666667 ['27', '22', '4'] 283.33333333333326
39 5.666666666666667 ['27', '22', '4'] 283.33333333333326
40 5.666666666666667 ['27', '22', '4'] 283.33333333333326
41 5.666666666666667 ['27', '22', '4'] 283.33333333333326
42 5.666666666666667 ['27', '22', '4'] 283.33333333333326
43 5.666666666666667 ['27', '22', '4'] 283.33333333333326
44 5.666666666666667 ['27', '22', '4'] 283.33333333333326
45 5.666666666666667 ['27', '22', '4'] 283.33333333333326
46 5.666666666666667 ['27', '22', '4'] 283.33333333333326
47 5.666666666666667 ['27', '22', '4'] 283.33333333333326
48 5.666666666666667 ['27', '22', '4'] 283.33333333333326
49 5.666666666666667 ['27', '22', '4'] 283.33333333333326
50 5.666666666666667 ['27', '22', '4'] 283.33333333333326
51 5.666666666666667 ['27', '22', '4'] 283.33333333333326
52 5.666666666666667 ['27', '22', '4'] 283.33333333333326
53 5.666666666666667 ['27', '22', '4'] 283.33333333333326
54 5.666666666666667 ['27', '22', '4'] 283.33333333333326
55 5.666666666666667 ['27', '22', '4'] 283.33333333333326
56 5.666666666666667 ['27', '22', '4'] 283.33333333333326
57 5.666666666666667 ['27', '22', '4'] 283.33333333333326
58 5.666666666666667 ['27', '22', '4'] 283.33333333333326
59 5.666666666666667 ['27', '22', '4'] 283.33333333333326
60 5.666666666666667 ['27', '22', '4'] 283.33333333333326
61 5.666666666666667 ['27', '22', '4'] 283.33333333333326
62 5.666666666666667 ['27', '22', '4'] 283.33333333333326
63 5.666666666666667 ['27', '22', '4'] 283.33333333333326
64 5.666666666666667 ['27', '22', '4'] 283.33333333333326
65 5.666666666666667 ['27', '22', '4'] 283.33333333333326
66 5.666666666666667 ['27', '22', '4'] 283.33333333333326
67 5.666666666666667 ['27', '22', '4'] 283.33333333333326
68 5.666666666666667 ['27', '22', '4'] 283.33333333333326
69 5.666666666666667 ['27', '22', '4'] 283.33333333333326
70 5.666666666666667 ['27', '22', '4'] 283.33333333333326
71 5.666666666666667 ['27', '22', '4'] 283.33333333333326
72 5.666666666666667 ['27', '22', '4'] 283.33333333333326
73 5.666666666666667 ['27', '22', '4'] 283.33333333333326
74 5.666666666666667 ['27', '22', '4'] 283.33333333333326
75 5.666666666666667 ['27', '22', '4'] 283.33333333333326
76 5.666666666666667 ['27', '22', '4'] 283.33333333333326
77 5.666666666666667 ['27', '22', '4'] 283.33333333333326
78 5.666666666666667 ['27', '22', '4'] 283.33333333333326
79 5.666666666666667 ['27', '22', '4'] 283.33333333333326
80 5.666666666666667 ['27', '22', '4'] 283.33333333333326
81 5.666666666666667 ['27', '22', '4'] 283.33333333333326
82 5.666666666666667 ['27', '22', '4'] 283.33333333333326
83 5.666666666666667 ['27', '22', '4'] 283.33333333333326
84 5.666666666666667 ['27', '22', '4'] 283.33333333333326
85 5.666666666666667 ['27', '22', '4'] 283.33333333333326
86 5.666666666666667 ['27', '22', '4'] 283.33333333333326
87 5.666666666666667 ['27', '22', '4'] 283.33333333333326
88 5.666666666666667 ['27', '22', '4'] 283.33333333333326
89 5.666666666666667 ['27', '22', '4'] 283.33333333333326
90 5.666666666666667 ['27', '22', '4'] 283.33333333333326
91 5.666666666666667 ['27', '22', '4'] 283.33333333333326
92 5.666666666666667 ['27', '22', '4'] 283.33333333333326
93 5.666666666666667 ['27', '22', '4'] 283.33333333333326
94 5.666666666666667 ['27', '22', '4'] 283.33333333333326
95 5.666666666666667 ['27', '22', '4'] 283.33333333333326
96 5.666666666666667 ['27', '22', '4'] 283.33333333333326
97 5.666666666666667 ['27', '22', '4'] 283.33333333333326
98 5.666666666666667 ['27', '22', '4'] 283.33333333333326
99 5.666666666666667 ['27', '22', '4'] 283.33333333333326
100 5.666666666666667 ['27', '22', '4'] 283.33333333333326
101 5.666666666666667 ['27', '22', '4'] 283.33333333333326
102 5.666666666666667 ['27', '22', '4'] 283.33333333333326
103 5.666666666666667 ['27', '22', '4'] 283.33333333333326
104 5.666666666666667 ['27', '22', '4'] 283.33333333333326
105 5.666666666666667 ['27', '22', '4'] 283.33333333333326
106 5.666666666666667 ['27', '22', '4'] 283.33333333333326
107 5.666666666666667 ['27', '22', '4'] 283.33333333333326
108 5.666666666666667 ['27', '22', '4'] 283.33333333333326
109 5.666666666666667 ['27', '22', '4'] 283.33333333333326
110 5.666666666666667 ['27', '22', '4'] 283.33333333333326
111 5.666666666666667 ['27', '22', '4'] 283.33333333333326
112 5.666666666666667 ['27', '22', '4'] 283.33333333333326
113 5.666666666666667 ['27', '22', '4'] 283.33333333333326
114 5.666666666666667 ['27', '22', '4'] 283.33333333333326
115 5.666666666666667 ['27', '22', '4'] 283.33333333333326
116 5.666666666666667 ['27', '22', '4'] 283.33333333333326
117 5.666666666666667 ['27', '22', '4'] 283.33333333333326
118 5.666666666666667 ['27', '22', '4'] 283.33333333333326
119 5.666666666666667 ['27', '22', '4'] 283.33333333333326
120 5.666666666666667 ['27', '22', '4'] 283.33333333333326
121 5.666666666666667 ['27', '22', '4'] 283.33333333333326
122 5.666666666666667 ['27', '22', '4'] 283.33333333333326
123 5.666666666666667 ['27', '22', '4'] 283.33333333333326
124 5.666666666666667 ['27', '22', '4'] 283.33333333333326
125 5.666666666666667 ['27', '22', '4'] 283.33333333333326
126 5.666666666666667 ['27', '22', '4'] 283.33333333333326
127 5.666666666666667 ['27', '22', '4'] 283.33333333333326
128 5.666666666666667 ['27', '22', '4'] 283.33333333333326
129 5.666666666666667 ['27', '22', '4'] 283.33333333333326
130 5.666666666666667 ['27', '22', '4'] 283.33333333333326
131 5.666666666666667 ['27', '22', '4'] 283.33333333333326
132 5.666666666666667 ['27', '22', '4'] 283.33333333333326
133 5.666666666666667 ['27', '22', '4'] 283.33333333333326
134 5.666666666666667 ['27', '22', '4'] 283.33333333333326
135 5.666666666666667 ['27', '22', '4'] 283.33333333333326
136 5.666666666666667 ['27', '22', '4'] 283.33333333333326
137 5.666666666666667 ['27', '22', '4'] 283.33333333333326
138 5.666666666666667 ['27', '22', '4'] 283.33333333333326
139 5.666666666666667 ['27', '22', '4'] 283.33333333333326
140 5.666666666666667 ['27', '22', '4'] 283.33333333333326
141 5.666666666666667 ['27', '22', '4'] 283.33333333333326
142 5.666666666666667 ['27', '22', '4'] 283.33333333333326
143 5.666666666666667 ['27', '22', '4'] 283.33333333333326
144 5.666666666666667 ['27', '22', '4'] 283.33333333333326
145 5.666666666666667 ['27', '22', '4'] 283.33333333333326
146 5.666666666666667 ['27', '22', '4'] 283.33333333333326
147 5.666666666666667 ['27', '22', '4'] 283.33333333333326
148 5.666666666666667 ['27', '22', '4'] 283.33333333333326
149 5.666666666666667 ['27', '22', '4'] 283.33333333333326
150 5.666666666666667 ['27', '22', '4'] 283.33333333333326
151 5.666666666666667 ['27', '22', '4'] 283.33333333333326
152 5.666666666666667 ['27', '22', '4'] 283.33333333333326
153 5.666666666666667 ['27', '22', '4'] 283.33333333333326
154 5.666666666666667 ['27', '22', '4'] 283.33333333333326
155 5.666666666666667 ['27', '22', '4'] 283.33333333333326
156 5.666666666666667 ['27', '22', '4'] 283.33333333333326
157 5.666666666666667 ['27', '22', '4'] 283.33333333333326
158 5.666666666666667 ['27', '22', '4'] 283.33333333333326
159 5.666666666666667 ['27', '22', '4'] 283.33333333333326
160 5.666666666666667 ['27', '22', '4'] 283.33333333333326
161 5.666666666666667 ['27', '22', '4'] 283.33333333333326
162 5.666666666666667 ['27', '22', '4'] 283.33333333333326
163 5.666666666666667 ['27', '22', '4'] 283.33333333333326
164 5.666666666666667 ['27', '22', '4'] 283.33333333333326
165 5.666666666666667 ['27', '22', '4'] 283.33333333333326
166 5.666666666666667 ['27', '22', '4'] 283.33333333333326
167 5.666666666666667 ['27', '22', '4'] 283.33333333333326
168 5.666666666666667 ['27', '22', '4'] 283.33333333333326
169 5.666666666666667 ['27', '22', '4'] 283.33333333333326
170 5.666666666666667 ['27', '22', '4'] 283.33333333333326
171 5.666666666666667 ['27', '22', '4'] 283.33333333333326
172 5.666666666666667 ['27', '22', '4'] 283.33333333333326
173 5.666666666666667 ['27', '22', '4'] 283.33333333333326
174 5.666666666666667 ['27', '22', '4'] 283.33333333333326
175 5.666666666666667 ['27', '22', '4'] 283.33333333333326
176 5.666666666666667 ['27', '22', '4'] 283.33333333333326
177 5.666666666666667 ['27', '22', '4'] 283.33333333333326
178 5.666666666666667 ['27', '22', '4'] 283.33333333333326
179 5.666666666666667 ['27', '22', '4'] 283.33333333333326
180 5.666666666666667 ['27', '22', '4'] 283.33333333333326
181 5.666666666666667 ['27', '22', '4'] 283.33333333333326
182 5.666666666666667 ['27', '22', '4'] 283.33333333333326
183 5.666666666666667 ['27', '22', '4'] 283.33333333333326
184 5.666666666666667 ['27', '22', '4'] 283.33333333333326
185 5.666666666666667 ['27', '22', '4'] 283.33333333333326
186 5.666666666666667 ['27', '22', '4'] 283.33333333333326
187 5.666666666666667 ['27', '22', '4'] 283.33333333333326
188 5.666666666666667 ['27', '22', '4'] 283.33333333333326
189 5.666666666666667 ['27', '22', '4'] 283.33333333333326
190 5.666666666666667 ['27', '22', '4'] 283.33333333333326
191 5.666666666666667 ['27', '22', '4'] 283.33333333333326
192 5.666666666666667 ['27', '22', '4'] 283.33333333333326
193 5.666666666666667 ['27', '22', '4'] 283.33333333333326
194 5.666666666666667 ['27', '22', '4'] 283.33333333333326
195 5.666666666666667 ['27', '22', '4'] 283.33333333333326
196 5.666666666666667 ['27', '22', '4'] 283.33333333333326
197 5.666666666666667 ['27', '22', '4'] 283.33333333333326
198 5.666666666666667 ['27', '22', '4'] 283.33333333333326
199 5.666666666666667 ['27', '22', '4'] 283.33333333333326
