0 268.2340425531915 ['31', '19', '26', '23', '17'] 13942.957446808512
1 266.21276595744683 ['19', '23', '7', '17', '26'] 13727.553191489364
2 265.9574468085106 ['44', '20', '46', '34', '8'] 13586.893617021275
3 258.48936170212767 ['8', '41', '19', '34', '20'] 13442.127659574466
4 253.5531914893617 ['19', '8', '2', '20', '1'] 13226.340425531916
5 251.08510638297872 ['8', '46', '19', '20', '17'] 12992.042553191492
6 243.59574468085106 ['19', '8', '23', '17', '20'] 12766.638297872343
7 243.59574468085106 ['19', '8', '23', '17', '20'] 12590.340425531916
8 243.59574468085106 ['19', '8', '23', '17', '20'] 12421.872340425534
9 243.59574468085106 ['19', '8', '23', '17', '20'] 12233.4255319149
10 243.5531914893617 ['20', '23', '19', '8', '3'] 12179.808510638297
11 243.5531914893617 ['20', '23', '19', '8', '3'] 12179.702127659577
12 243.5531914893617 ['20', '23', '19', '8', '3'] 12179.617021276597
13 243.5531914893617 ['20', '23', '19', '8', '3'] 12179.40425531915
14 243.5531914893617 ['20', '23', '19', '8', '3'] 12178.978723404258
15 243.5531914893617 ['20', '23', '19', '8', '3'] 12178.127659574475
16 243.5531914893617 ['20', '23', '19', '8', '3'] 12177.659574468087
17 243.5531914893617 ['20', '23', '19', '8', '3'] 12177.659574468087
18 243.5531914893617 ['20', '23', '19', '8', '3'] 12177.659574468087
19 243.5531914893617 ['20', '23', '19', '8', '3'] 12177.659574468087
20 243.5531914893617 ['20', '23', '19', '8', '3'] 12177.659574468087
21 243.5531914893617 ['20', '23', '19', '8', '3'] 12177.659574468087
22 243.5531914893617 ['20', '23', '19', '8', '3'] 12177.659574468087
23 243.5531914893617 ['20', '23', '19', '8', '3'] 12177.659574468087
24 243.5531914893617 ['20', '23', '19', '8', '3'] 12177.659574468087
25 243.5531914893617 ['20', '23', '19', '8', '3'] 12177.659574468087
26 243.5531914893617 ['20', '23', '19', '8', '3'] 12177.659574468087
27 243.5531914893617 ['20', '23', '19', '8', '3'] 12177.659574468087
28 243.5531914893617 ['20', '23', '19', '8', '3'] 12177.659574468087
29 243.5531914893617 ['20', '23', '19', '8', '3'] 12177.659574468087
30 243.5531914893617 ['20', '23', '19', '8', '3'] 12177.659574468087
31 243.5531914893617 ['20', '23', '19', '8', '3'] 12177.659574468087
32 243.5531914893617 ['20', '23', '19', '8', '3'] 12177.659574468087
33 243.5531914893617 ['20', '23', '19', '8', '3'] 12177.659574468087
34 243.5531914893617 ['20', '23', '19', '8', '3'] 12177.659574468087
35 243.5531914893617 ['20', '23', '19', '8', '3'] 12177.659574468087
36 243.5531914893617 ['20', '23', '19', '8', '3'] 12177.659574468087
37 243.5531914893617 ['20', '23', '19', '8', '3'] 12177.659574468087
38 243.5531914893617 ['20', '23', '19', '8', '3'] 12177.659574468087
39 243.5531914893617 ['20', '23', '19', '8', '3'] 12177.659574468087
40 243.5531914893617 ['20', '23', '19', '8', '3'] 12177.659574468087
41 243.5531914893617 ['20', '23', '19', '8', '3'] 12177.659574468087
42 243.5531914893617 ['20', '23', '19', '8', '3'] 12177.659574468087
43 243.5531914893617 ['20', '23', '19', '8', '3'] 12177.659574468087
44 243.5531914893617 ['20', '23', '19', '8', '3'] 12177.659574468087
45 243.5531914893617 ['20', '23', '19', '8', '3'] 12177.659574468087
46 243.5531914893617 ['20', '23', '19', '8', '3'] 12177.659574468087
47 243.5531914893617 ['20', '23', '19', '8', '3'] 12177.659574468087
48 243.5531914893617 ['20', '23', '19', '8', '3'] 12177.659574468087
49 243.5531914893617 ['20', '23', '19', '8', '3'] 12177.659574468087
50 243.5531914893617 ['20', '23', '19', '8', '3'] 12177.659574468087
51 243.5531914893617 ['20', '23', '19', '8', '3'] 12177.659574468087
52 243.5531914893617 ['20', '23', '19', '8', '3'] 12177.659574468087
53 243.5531914893617 ['20', '23', '19', '8', '3'] 12177.659574468087
54 243.5531914893617 ['20', '23', '19', '8', '3'] 12177.659574468087
55 243.5531914893617 ['20', '23', '19', '8', '3'] 12177.659574468087
56 243.5531914893617 ['20', '23', '19', '8', '3'] 12177.659574468087
57 243.5531914893617 ['20', '23', '19', '8', '3'] 12177.659574468087
58 243.5531914893617 ['20', '23', '19', '8', '3'] 12177.659574468087
59 243.5531914893617 ['20', '23', '19', '8', '3'] 12177.659574468087
60 243.5531914893617 ['20', '23', '19', '8', '3'] 12177.659574468087
61 243.5531914893617 ['20', '23', '19', '8', '3'] 12177.659574468087
62 243.5531914893617 ['20', '23', '19', '8', '3'] 12177.659574468087
63 243.5531914893617 ['20', '23', '19', '8', '3'] 12177.659574468087
64 243.5531914893617 ['20', '23', '19', '8', '3'] 12177.659574468087
65 243.5531914893617 ['20', '23', '19', '8', '3'] 12177.659574468087
66 243.5531914893617 ['20', '23', '19', '8', '3'] 12177.659574468087
67 243.5531914893617 ['20', '23', '19', '8', '3'] 12177.659574468087
68 243.5531914893617 ['20', '23', '19', '8', '3'] 12177.659574468087
69 243.5531914893617 ['20', '23', '19', '8', '3'] 12177.659574468087
70 243.5531914893617 ['20', '23', '19', '8', '3'] 12177.659574468087
71 243.5531914893617 ['20', '23', '19', '8', '3'] 12177.659574468087
72 243.5531914893617 ['20', '23', '19', '8', '3'] 12177.659574468087
73 243.5531914893617 ['20', '23', '19', '8', '3'] 12177.659574468087
74 243.5531914893617 ['20', '23', '19', '8', '3'] 12177.659574468087
75 243.5531914893617 ['20', '23', '19', '8', '3'] 12177.659574468087
76 243.5531914893617 ['20', '23', '19', '8', '3'] 12177.659574468087
77 243.5531914893617 ['20', '23', '19', '8', '3'] 12177.659574468087
78 243.5531914893617 ['20', '23', '19', '8', '3'] 12177.659574468087
79 243.5531914893617 ['20', '23', '19', '8', '3'] 12177.659574468087
80 243.5531914893617 ['20', '23', '19', '8', '3'] 12177.659574468087
81 243.5531914893617 ['20', '23', '19', '8', '3'] 12177.659574468087
82 243.5531914893617 ['20', '23', '19', '8', '3'] 12177.659574468087
83 243.5531914893617 ['20', '23', '19', '8', '3'] 12177.659574468087
84 243.5531914893617 ['20', '23', '19', '8', '3'] 12177.659574468087
85 243.5531914893617 ['20', '23', '19', '8', '3'] 12177.659574468087
86 243.5531914893617 ['20', '23', '19', '8', '3'] 12177.659574468087
87 243.5531914893617 ['20', '23', '19', '8', '3'] 12177.659574468087
88 243.5531914893617 ['20', '23', '19', '8', '3'] 12177.659574468087
89 243.5531914893617 ['20', '23', '19', '8', '3'] 12177.659574468087
90 243.5531914893617 ['20', '23', '19', '8', '3'] 12177.659574468087
91 243.5531914893617 ['20', '23', '19', '8', '3'] 12177.659574468087
92 243.5531914893617 ['20', '23', '19', '8', '3'] 12177.659574468087
93 243.5531914893617 ['20', '23', '19', '8', '3'] 12177.659574468087
94 243.5531914893617 ['20', '23', '19', '8', '3'] 12177.659574468087
95 243.5531914893617 ['20', '23', '19', '8', '3'] 12177.659574468087
96 243.5531914893617 ['20', '23', '19', '8', '3'] 12177.659574468087
97 243.5531914893617 ['20', '23', '19', '8', '3'] 12177.659574468087
98 243.5531914893617 ['20', '23', '19', '8', '3'] 12177.659574468087
99 243.5531914893617 ['20', '23', '19', '8', '3'] 12177.659574468087
100 243.5531914893617 ['20', '23', '19', '8', '3'] 12177.659574468087
101 243.5531914893617 ['20', '23', '19', '8', '3'] 12177.659574468087
102 243.5531914893617 ['20', '23', '19', '8', '3'] 12177.659574468087
103 243.5531914893617 ['20', '23', '19', '8', '3'] 12177.659574468087
104 243.5531914893617 ['20', '23', '19', '8', '3'] 12177.659574468087
105 243.5531914893617 ['20', '23', '19', '8', '3'] 12177.659574468087
106 243.5531914893617 ['20', '23', '19', '8', '3'] 12177.659574468087
107 243.5531914893617 ['20', '23', '19', '8', '3'] 12177.659574468087
108 243.5531914893617 ['20', '23', '19', '8', '3'] 12177.659574468087
109 243.5531914893617 ['20', '23', '19', '8', '3'] 12177.659574468087
110 243.5531914893617 ['20', '23', '19', '8', '3'] 12177.659574468087
111 243.5531914893617 ['20', '23', '19', '8', '3'] 12177.659574468087
112 243.5531914893617 ['20', '23', '19', '8', '3'] 12177.659574468087
113 243.5531914893617 ['20', '23', '19', '8', '3'] 12177.659574468087
114 243.5531914893617 ['20', '23', '19', '8', '3'] 12177.659574468087
115 243.5531914893617 ['20', '23', '19', '8', '3'] 12177.659574468087
116 243.5531914893617 ['20', '23', '19', '8', '3'] 12177.659574468087
117 243.5531914893617 ['20', '23', '19', '8', '3'] 12177.659574468087
118 243.5531914893617 ['20', '23', '19', '8', '3'] 12177.659574468087
119 243.5531914893617 ['20', '23', '19', '8', '3'] 12177.659574468087
120 243.5531914893617 ['20', '23', '19', '8', '3'] 12177.659574468087
121 243.5531914893617 ['20', '23', '19', '8', '3'] 12177.659574468087
122 243.5531914893617 ['20', '23', '19', '8', '3'] 12177.659574468087
123 243.5531914893617 ['20', '23', '19', '8', '3'] 12177.659574468087
124 243.5531914893617 ['20', '23', '19', '8', '3'] 12177.659574468087
125 243.5531914893617 ['20', '23', '19', '8', '3'] 12177.659574468087
126 243.5531914893617 ['20', '23', '19', '8', '3'] 12177.659574468087
127 243.5531914893617 ['20', '23', '19', '8', '3'] 12177.659574468087
128 243.5531914893617 ['20', '23', '19', '8', '3'] 12177.659574468087
129 243.5531914893617 ['20', '23', '19', '8', '3'] 12177.659574468087
130 243.5531914893617 ['20', '23', '19', '8', '3'] 12177.659574468087
131 243.5531914893617 ['20', '23', '19', '8', '3'] 12177.659574468087
132 243.5531914893617 ['20', '23', '19', '8', '3'] 12177.659574468087
133 243.5531914893617 ['20', '23', '19', '8', '3'] 12177.659574468087
134 243.5531914893617 ['20', '23', '19', '8', '3'] 12177.659574468087
135 243.5531914893617 ['20', '23', '19', '8', '3'] 12177.659574468087
136 243.5531914893617 ['20', '23', '19', '8', '3'] 12177.659574468087
137 243.5531914893617 ['20', '23', '19', '8', '3'] 12177.659574468087
138 243.5531914893617 ['20', '23', '19', '8', '3'] 12177.659574468087
139 243.5531914893617 ['20', '23', '19', '8', '3'] 12177.659574468087
140 243.5531914893617 ['20', '23', '19', '8', '3'] 12177.659574468087
141 243.5531914893617 ['20', '23', '19', '8', '3'] 12177.659574468087
142 243.5531914893617 ['20', '23', '19', '8', '3'] 12177.659574468087
143 243.5531914893617 ['20', '23', '19', '8', '3'] 12177.659574468087
144 243.5531914893617 ['20', '23', '19', '8', '3'] 12177.659574468087
145 243.5531914893617 ['20', '23', '19', '8', '3'] 12177.659574468087
146 243.5531914893617 ['20', '23', '19', '8', '3'] 12177.659574468087
147 243.5531914893617 ['20', '23', '19', '8', '3'] 12177.659574468087
148 243.5531914893617 ['20', '23', '19', '8', '3'] 12177.659574468087
149 243.5531914893617 ['20', '23', '19', '8', '3'] 12177.659574468087
150 243.5531914893617 ['20', '23', '19', '8', '3'] 12177.659574468087
151 243.5531914893617 ['20', '23', '19', '8', '3'] 12177.659574468087
152 243.5531914893617 ['20', '23', '19', '8', '3'] 12177.659574468087
153 243.5531914893617 ['20', '23', '19', '8', '3'] 12177.659574468087
154 243.5531914893617 ['20', '23', '19', '8', '3'] 12177.659574468087
155 243.5531914893617 ['20', '23', '19', '8', '3'] 12177.659574468087
156 243.5531914893617 ['20', '23', '19', '8', '3'] 12177.659574468087
157 243.5531914893617 ['20', '23', '19', '8', '3'] 12177.659574468087
158 243.5531914893617 ['20', '23', '19', '8', '3'] 12177.659574468087
159 243.5531914893617 ['20', '23', '19', '8', '3'] 12177.659574468087
160 243.5531914893617 ['20', '23', '19', '8', '3'] 12177.659574468087
161 243.5531914893617 ['20', '23', '19', '8', '3'] 12177.659574468087
162 243.5531914893617 ['20', '23', '19', '8', '3'] 12177.659574468087
163 243.5531914893617 ['20', '23', '19', '8', '3'] 12177.659574468087
164 243.5531914893617 ['20', '23', '19', '8', '3'] 12177.659574468087
165 243.5531914893617 ['20', '23', '19', '8', '3'] 12177.659574468087
166 243.5531914893617 ['20', '23', '19', '8', '3'] 12177.659574468087
167 243.5531914893617 ['20', '23', '19', '8', '3'] 12177.659574468087
168 243.5531914893617 ['20', '23', '19', '8', '3'] 12177.659574468087
169 243.5531914893617 ['20', '23', '19', '8', '3'] 12177.659574468087
170 243.5531914893617 ['20', '23', '19', '8', '3'] 12177.659574468087
171 243.5531914893617 ['20', '23', '19', '8', '3'] 12177.659574468087
172 243.5531914893617 ['20', '23', '19', '8', '3'] 12177.659574468087
173 243.5531914893617 ['20', '23', '19', '8', '3'] 12177.659574468087
174 243.5531914893617 ['20', '23', '19', '8', '3'] 12177.659574468087
175 243.5531914893617 ['20', '23', '19', '8', '3'] 12177.659574468087
176 243.5531914893617 ['20', '23', '19', '8', '3'] 12177.659574468087
177 243.5531914893617 ['20', '23', '19', '8', '3'] 12177.659574468087
178 243.5531914893617 ['20', '23', '19', '8', '3'] 12177.659574468087
179 243.5531914893617 ['20', '23', '19', '8', '3'] 12177.659574468087
180 243.5531914893617 ['20', '23', '19', '8', '3'] 12177.659574468087
181 243.5531914893617 ['20', '23', '19', '8', '3'] 12177.659574468087
182 243.5531914893617 ['20', '23', '19', '8', '3'] 12177.659574468087
183 243.5531914893617 ['20', '23', '19', '8', '3'] 12177.659574468087
184 243.5531914893617 ['20', '23', '19', '8', '3'] 12177.659574468087
185 243.5531914893617 ['20', '23', '19', '8', '3'] 12177.659574468087
186 243.5531914893617 ['20', '23', '19', '8', '3'] 12177.659574468087
187 243.5531914893617 ['20', '23', '19', '8', '3'] 12177.659574468087
188 243.5531914893617 ['20', '23', '19', '8', '3'] 12177.659574468087
189 243.5531914893617 ['20', '23', '19', '8', '3'] 12177.659574468087
190 243.5531914893617 ['20', '23', '19', '8', '3'] 12177.659574468087
191 243.5531914893617 ['20', '23', '19', '8', '3'] 12177.659574468087
192 243.5531914893617 ['20', '23', '19', '8', '3'] 12177.659574468087
193 243.5531914893617 ['20', '23', '19', '8', '3'] 12177.659574468087
194 243.5531914893617 ['20', '23', '19', '8', '3'] 12177.659574468087
195 243.5531914893617 ['20', '23', '19', '8', '3'] 12177.659574468087
196 243.5531914893617 ['20', '23', '19', '8', '3'] 12177.659574468087
197 243.5531914893617 ['20', '23', '19', '8', '3'] 12177.659574468087
198 243.5531914893617 ['20', '23', '19', '8', '3'] 12177.659574468087
199 243.5531914893617 ['20', '23', '19', '8', '3'] 12177.659574468087
