0 14.407407407407407 ['143', '128', '118', '15', '104', '116', '81', '97', '123', '108', '124', '31', '78', '136', '41'] 736.6592592592591
1 14.296296296296296 ['138', '44', '131', '136', '42', '111', '99', '130', '126', '132', '5', '93', '32', '109', '120'] 729.6
2 14.037037037037036 ['111', '79', '89', '45', '130', '138', '93', '81', '126', '136', '119', '131', '132', '137', '139'] 723.2074074074075
3 14.0 ['131', '138', '93', '149', '147', '5', '55', '109', '130', '136', '111', '112', '67', '38', '128'] 719.0592592592599
4 13.933333333333334 ['112', '138', '67', '41', '130', '149', '124', '131', '15', '143', '111', '32', '136', '109', '147'] 714.8148148148147
5 13.874074074074073 ['143', '136', '138', '83', '128', '111', '130', '112', '124', '77', '150', '109', '67', '149', '79'] 708.5777777777778
6 13.74074074074074 ['150', '112', '136', '143', '109', '138', '76', '128', '132', '29', '64', '149', '91', '147', '124'] 703.1185185185188
7 13.718518518518518 ['124', '32', '41', '130', '138', '136', '147', '131', '149', '112', '109', '143', '111', '132', '150'] 697.8592592592594
8 13.525925925925925 ['112', '130', '138', '131', '128', '111', '147', '149', '93', '132', '76', '109', '67', '143', '136'] 692.2370370370365
9 13.525925925925925 ['112', '130', '138', '131', '128', '111', '147', '149', '93', '132', '76', '109', '67', '143', '136'] 687.2296296296296
10 13.496296296296297 ['138', '147', '136', '109', '132', '143', '131', '112', '29', '111', '130', '128', '124', '150', '127'] 683.4962962962965
11 13.444444444444445 ['138', '111', '112', '130', '128', '143', '109', '147', '132', '131', '136', '149', '127', '76', '29'] 679.844444444444
12 13.362962962962962 ['131', '109', '143', '149', '76', '128', '138', '130', '111', '136', '112', '132', '141', '147', '123'] 676.0666666666668
13 13.333333333333334 ['136', '138', '112', '131', '111', '132', '143', '109', '149', '147', '128', '124', '130', '76', '141'] 672.9037037037033
14 13.325925925925926 ['138', '112', '136', '128', '124', '76', '147', '132', '111', '130', '131', '139', '143', '149', '120'] 670.8518518518522
15 13.325925925925926 ['138', '112', '136', '128', '124', '76', '147', '132', '111', '130', '131', '139', '143', '149', '120'] 669.0148148148146
16 13.281481481481482 ['130', '147', '132', '143', '138', '76', '109', '136', '131', '111', '149', '112', '128', '141', '139'] 667.6296296296293
17 13.281481481481482 ['130', '147', '132', '143', '138', '76', '109', '136', '131', '111', '149', '112', '128', '141', '139'] 666.5481481481482
18 13.266666666666667 ['139', '138', '112', '109', '130', '143', '147', '149', '136', '132', '111', '131', '141', '128', '137'] 665.8296296296295
19 13.266666666666667 ['139', '138', '112', '109', '130', '143', '147', '149', '136', '132', '111', '131', '141', '128', '137'] 665.4074074074076
20 13.266666666666667 ['139', '138', '112', '109', '130', '143', '147', '149', '136', '132', '111', '131', '141', '128', '137'] 664.4370370370373
21 13.266666666666667 ['139', '138', '112', '109', '130', '143', '147', '149', '136', '132', '111', '131', '141', '128', '137'] 663.9555555555555
22 13.266666666666667 ['139', '138', '112', '109', '130', '143', '147', '149', '136', '132', '111', '131', '141', '128', '137'] 663.7333333333333
23 13.266666666666667 ['139', '138', '112', '109', '130', '143', '147', '149', '136', '132', '111', '131', '141', '128', '137'] 663.4074074074072
24 13.266666666666667 ['139', '138', '112', '109', '130', '143', '147', '149', '136', '132', '111', '131', '141', '128', '137'] 663.333333333333
25 13.266666666666667 ['139', '138', '112', '109', '130', '143', '147', '149', '136', '132', '111', '131', '141', '128', '137'] 663.333333333333
26 13.266666666666667 ['139', '138', '112', '109', '130', '143', '147', '149', '136', '132', '111', '131', '141', '128', '137'] 663.333333333333
27 13.266666666666667 ['139', '138', '112', '109', '130', '143', '147', '149', '136', '132', '111', '131', '141', '128', '137'] 663.333333333333
28 13.266666666666667 ['139', '138', '112', '109', '130', '143', '147', '149', '136', '132', '111', '131', '141', '128', '137'] 663.333333333333
29 13.266666666666667 ['139', '138', '112', '109', '130', '143', '147', '149', '136', '132', '111', '131', '141', '128', '137'] 663.333333333333
30 13.266666666666667 ['139', '138', '112', '109', '130', '143', '147', '149', '136', '132', '111', '131', '141', '128', '137'] 663.333333333333
31 13.266666666666667 ['139', '138', '112', '109', '130', '143', '147', '149', '136', '132', '111', '131', '141', '128', '137'] 663.333333333333
32 13.266666666666667 ['139', '138', '112', '109', '130', '143', '147', '149', '136', '132', '111', '131', '141', '128', '137'] 663.333333333333
33 13.266666666666667 ['139', '138', '112', '109', '130', '143', '147', '149', '136', '132', '111', '131', '141', '128', '137'] 663.333333333333
34 13.266666666666667 ['139', '138', '112', '109', '130', '143', '147', '149', '136', '132', '111', '131', '141', '128', '137'] 663.333333333333
35 13.266666666666667 ['139', '138', '112', '109', '130', '143', '147', '149', '136', '132', '111', '131', '141', '128', '137'] 663.333333333333
36 13.266666666666667 ['139', '138', '112', '109', '130', '143', '147', '149', '136', '132', '111', '131', '141', '128', '137'] 663.333333333333
37 13.266666666666667 ['139', '138', '112', '109', '130', '143', '147', '149', '136', '132', '111', '131', '141', '128', '137'] 663.333333333333
38 13.266666666666667 ['139', '138', '112', '109', '130', '143', '147', '149', '136', '132', '111', '131', '141', '128', '137'] 663.333333333333
39 13.266666666666667 ['139', '138', '112', '109', '130', '143', '147', '149', '136', '132', '111', '131', '141', '128', '137'] 663.333333333333
40 13.266666666666667 ['139', '138', '112', '109', '130', '143', '147', '149', '136', '132', '111', '131', '141', '128', '137'] 663.333333333333
41 13.266666666666667 ['139', '138', '112', '109', '130', '143', '147', '149', '136', '132', '111', '131', '141', '128', '137'] 663.333333333333
42 13.266666666666667 ['139', '138', '112', '109', '130', '143', '147', '149', '136', '132', '111', '131', '141', '128', '137'] 663.333333333333
43 13.266666666666667 ['139', '138', '112', '109', '130', '143', '147', '149', '136', '132', '111', '131', '141', '128', '137'] 663.333333333333
44 13.266666666666667 ['139', '138', '112', '109', '130', '143', '147', '149', '136', '132', '111', '131', '141', '128', '137'] 663.333333333333
45 13.266666666666667 ['139', '138', '112', '109', '130', '143', '147', '149', '136', '132', '111', '131', '141', '128', '137'] 663.333333333333
46 13.266666666666667 ['139', '138', '112', '109', '130', '143', '147', '149', '136', '132', '111', '131', '141', '128', '137'] 663.333333333333
47 13.266666666666667 ['139', '138', '112', '109', '130', '143', '147', '149', '136', '132', '111', '131', '141', '128', '137'] 663.333333333333
48 13.266666666666667 ['139', '138', '112', '109', '130', '143', '147', '149', '136', '132', '111', '131', '141', '128', '137'] 663.333333333333
49 13.266666666666667 ['139', '138', '112', '109', '130', '143', '147', '149', '136', '132', '111', '131', '141', '128', '137'] 663.333333333333
50 13.266666666666667 ['139', '138', '112', '109', '130', '143', '147', '149', '136', '132', '111', '131', '141', '128', '137'] 663.333333333333
51 13.266666666666667 ['139', '138', '112', '109', '130', '143', '147', '149', '136', '132', '111', '131', '141', '128', '137'] 663.333333333333
52 13.266666666666667 ['139', '138', '112', '109', '130', '143', '147', '149', '136', '132', '111', '131', '141', '128', '137'] 663.333333333333
53 13.266666666666667 ['139', '138', '112', '109', '130', '143', '147', '149', '136', '132', '111', '131', '141', '128', '137'] 663.333333333333
54 13.266666666666667 ['139', '138', '112', '109', '130', '143', '147', '149', '136', '132', '111', '131', '141', '128', '137'] 663.333333333333
55 13.266666666666667 ['139', '138', '112', '109', '130', '143', '147', '149', '136', '132', '111', '131', '141', '128', '137'] 663.333333333333
56 13.266666666666667 ['139', '138', '112', '109', '130', '143', '147', '149', '136', '132', '111', '131', '141', '128', '137'] 663.333333333333
57 13.266666666666667 ['139', '138', '112', '109', '130', '143', '147', '149', '136', '132', '111', '131', '141', '128', '137'] 663.333333333333
58 13.266666666666667 ['139', '138', '112', '109', '130', '143', '147', '149', '136', '132', '111', '131', '141', '128', '137'] 663.333333333333
59 13.266666666666667 ['139', '138', '112', '109', '130', '143', '147', '149', '136', '132', '111', '131', '141', '128', '137'] 663.333333333333
60 13.266666666666667 ['139', '138', '112', '109', '130', '143', '147', '149', '136', '132', '111', '131', '141', '128', '137'] 663.333333333333
61 13.266666666666667 ['139', '138', '112', '109', '130', '143', '147', '149', '136', '132', '111', '131', '141', '128', '137'] 663.333333333333
62 13.266666666666667 ['139', '138', '112', '109', '130', '143', '147', '149', '136', '132', '111', '131', '141', '128', '137'] 663.333333333333
63 13.266666666666667 ['139', '138', '112', '109', '130', '143', '147', '149', '136', '132', '111', '131', '141', '128', '137'] 663.333333333333
64 13.266666666666667 ['139', '138', '112', '109', '130', '143', '147', '149', '136', '132', '111', '131', '141', '128', '137'] 663.333333333333
65 13.266666666666667 ['139', '138', '112', '109', '130', '143', '147', '149', '136', '132', '111', '131', '141', '128', '137'] 663.333333333333
66 13.266666666666667 ['139', '138', '112', '109', '130', '143', '147', '149', '136', '132', '111', '131', '141', '128', '137'] 663.333333333333
67 13.266666666666667 ['139', '138', '112', '109', '130', '143', '147', '149', '136', '132', '111', '131', '141', '128', '137'] 663.333333333333
68 13.266666666666667 ['139', '138', '112', '109', '130', '143', '147', '149', '136', '132', '111', '131', '141', '128', '137'] 663.333333333333
69 13.266666666666667 ['139', '138', '112', '109', '130', '143', '147', '149', '136', '132', '111', '131', '141', '128', '137'] 663.333333333333
70 13.266666666666667 ['139', '138', '112', '109', '130', '143', '147', '149', '136', '132', '111', '131', '141', '128', '137'] 663.333333333333
71 13.266666666666667 ['139', '138', '112', '109', '130', '143', '147', '149', '136', '132', '111', '131', '141', '128', '137'] 663.333333333333
72 13.266666666666667 ['139', '138', '112', '109', '130', '143', '147', '149', '136', '132', '111', '131', '141', '128', '137'] 663.333333333333
73 13.266666666666667 ['139', '138', '112', '109', '130', '143', '147', '149', '136', '132', '111', '131', '141', '128', '137'] 663.333333333333
74 13.266666666666667 ['139', '138', '112', '109', '130', '143', '147', '149', '136', '132', '111', '131', '141', '128', '137'] 663.333333333333
75 13.266666666666667 ['139', '138', '112', '109', '130', '143', '147', '149', '136', '132', '111', '131', '141', '128', '137'] 663.333333333333
76 13.266666666666667 ['139', '138', '112', '109', '130', '143', '147', '149', '136', '132', '111', '131', '141', '128', '137'] 663.333333333333
77 13.266666666666667 ['139', '138', '112', '109', '130', '143', '147', '149', '136', '132', '111', '131', '141', '128', '137'] 663.333333333333
78 13.266666666666667 ['139', '138', '112', '109', '130', '143', '147', '149', '136', '132', '111', '131', '141', '128', '137'] 663.333333333333
79 13.266666666666667 ['139', '138', '112', '109', '130', '143', '147', '149', '136', '132', '111', '131', '141', '128', '137'] 663.333333333333
80 13.266666666666667 ['139', '138', '112', '109', '130', '143', '147', '149', '136', '132', '111', '131', '141', '128', '137'] 663.333333333333
81 13.266666666666667 ['139', '138', '112', '109', '130', '143', '147', '149', '136', '132', '111', '131', '141', '128', '137'] 663.333333333333
82 13.266666666666667 ['139', '138', '112', '109', '130', '143', '147', '149', '136', '132', '111', '131', '141', '128', '137'] 663.333333333333
83 13.266666666666667 ['139', '138', '112', '109', '130', '143', '147', '149', '136', '132', '111', '131', '141', '128', '137'] 663.333333333333
84 13.266666666666667 ['139', '138', '112', '109', '130', '143', '147', '149', '136', '132', '111', '131', '141', '128', '137'] 663.333333333333
85 13.266666666666667 ['139', '138', '112', '109', '130', '143', '147', '149', '136', '132', '111', '131', '141', '128', '137'] 663.333333333333
86 13.266666666666667 ['139', '138', '112', '109', '130', '143', '147', '149', '136', '132', '111', '131', '141', '128', '137'] 663.333333333333
87 13.266666666666667 ['139', '138', '112', '109', '130', '143', '147', '149', '136', '132', '111', '131', '141', '128', '137'] 663.333333333333
88 13.266666666666667 ['139', '138', '112', '109', '130', '143', '147', '149', '136', '132', '111', '131', '141', '128', '137'] 663.333333333333
89 13.266666666666667 ['139', '138', '112', '109', '130', '143', '147', '149', '136', '132', '111', '131', '141', '128', '137'] 663.333333333333
90 13.266666666666667 ['139', '138', '112', '109', '130', '143', '147', '149', '136', '132', '111', '131', '141', '128', '137'] 663.333333333333
91 13.266666666666667 ['139', '138', '112', '109', '130', '143', '147', '149', '136', '132', '111', '131', '141', '128', '137'] 663.333333333333
92 13.266666666666667 ['139', '138', '112', '109', '130', '143', '147', '149', '136', '132', '111', '131', '141', '128', '137'] 663.333333333333
93 13.266666666666667 ['139', '138', '112', '109', '130', '143', '147', '149', '136', '132', '111', '131', '141', '128', '137'] 663.333333333333
94 13.266666666666667 ['139', '138', '112', '109', '130', '143', '147', '149', '136', '132', '111', '131', '141', '128', '137'] 663.333333333333
95 13.266666666666667 ['139', '138', '112', '109', '130', '143', '147', '149', '136', '132', '111', '131', '141', '128', '137'] 663.333333333333
96 13.266666666666667 ['139', '138', '112', '109', '130', '143', '147', '149', '136', '132', '111', '131', '141', '128', '137'] 663.333333333333
97 13.266666666666667 ['139', '138', '112', '109', '130', '143', '147', '149', '136', '132', '111', '131', '141', '128', '137'] 663.333333333333
98 13.266666666666667 ['139', '138', '112', '109', '130', '143', '147', '149', '136', '132', '111', '131', '141', '128', '137'] 663.333333333333
99 13.266666666666667 ['139', '138', '112', '109', '130', '143', '147', '149', '136', '132', '111', '131', '141', '128', '137'] 663.333333333333
100 13.266666666666667 ['139', '138', '112', '109', '130', '143', '147', '149', '136', '132', '111', '131', '141', '128', '137'] 663.333333333333
101 13.266666666666667 ['139', '138', '112', '109', '130', '143', '147', '149', '136', '132', '111', '131', '141', '128', '137'] 663.333333333333
102 13.266666666666667 ['139', '138', '112', '109', '130', '143', '147', '149', '136', '132', '111', '131', '141', '128', '137'] 663.333333333333
103 13.266666666666667 ['139', '138', '112', '109', '130', '143', '147', '149', '136', '132', '111', '131', '141', '128', '137'] 663.333333333333
104 13.266666666666667 ['139', '138', '112', '109', '130', '143', '147', '149', '136', '132', '111', '131', '141', '128', '137'] 663.333333333333
105 13.266666666666667 ['139', '138', '112', '109', '130', '143', '147', '149', '136', '132', '111', '131', '141', '128', '137'] 663.333333333333
106 13.266666666666667 ['139', '138', '112', '109', '130', '143', '147', '149', '136', '132', '111', '131', '141', '128', '137'] 663.333333333333
107 13.266666666666667 ['139', '138', '112', '109', '130', '143', '147', '149', '136', '132', '111', '131', '141', '128', '137'] 663.333333333333
108 13.266666666666667 ['139', '138', '112', '109', '130', '143', '147', '149', '136', '132', '111', '131', '141', '128', '137'] 663.333333333333
109 13.266666666666667 ['139', '138', '112', '109', '130', '143', '147', '149', '136', '132', '111', '131', '141', '128', '137'] 663.333333333333
110 13.266666666666667 ['139', '138', '112', '109', '130', '143', '147', '149', '136', '132', '111', '131', '141', '128', '137'] 663.333333333333
111 13.266666666666667 ['139', '138', '112', '109', '130', '143', '147', '149', '136', '132', '111', '131', '141', '128', '137'] 663.333333333333
112 13.266666666666667 ['139', '138', '112', '109', '130', '143', '147', '149', '136', '132', '111', '131', '141', '128', '137'] 663.333333333333
113 13.266666666666667 ['139', '138', '112', '109', '130', '143', '147', '149', '136', '132', '111', '131', '141', '128', '137'] 663.333333333333
114 13.266666666666667 ['139', '138', '112', '109', '130', '143', '147', '149', '136', '132', '111', '131', '141', '128', '137'] 663.333333333333
115 13.266666666666667 ['139', '138', '112', '109', '130', '143', '147', '149', '136', '132', '111', '131', '141', '128', '137'] 663.333333333333
116 13.266666666666667 ['139', '138', '112', '109', '130', '143', '147', '149', '136', '132', '111', '131', '141', '128', '137'] 663.333333333333
117 13.266666666666667 ['139', '138', '112', '109', '130', '143', '147', '149', '136', '132', '111', '131', '141', '128', '137'] 663.333333333333
118 13.266666666666667 ['139', '138', '112', '109', '130', '143', '147', '149', '136', '132', '111', '131', '141', '128', '137'] 663.333333333333
119 13.266666666666667 ['139', '138', '112', '109', '130', '143', '147', '149', '136', '132', '111', '131', '141', '128', '137'] 663.333333333333
120 13.266666666666667 ['139', '138', '112', '109', '130', '143', '147', '149', '136', '132', '111', '131', '141', '128', '137'] 663.333333333333
121 13.266666666666667 ['139', '138', '112', '109', '130', '143', '147', '149', '136', '132', '111', '131', '141', '128', '137'] 663.333333333333
122 13.266666666666667 ['139', '138', '112', '109', '130', '143', '147', '149', '136', '132', '111', '131', '141', '128', '137'] 663.333333333333
123 13.266666666666667 ['139', '138', '112', '109', '130', '143', '147', '149', '136', '132', '111', '131', '141', '128', '137'] 663.333333333333
124 13.266666666666667 ['139', '138', '112', '109', '130', '143', '147', '149', '136', '132', '111', '131', '141', '128', '137'] 663.333333333333
125 13.266666666666667 ['139', '138', '112', '109', '130', '143', '147', '149', '136', '132', '111', '131', '141', '128', '137'] 663.333333333333
126 13.266666666666667 ['139', '138', '112', '109', '130', '143', '147', '149', '136', '132', '111', '131', '141', '128', '137'] 663.333333333333
127 13.266666666666667 ['139', '138', '112', '109', '130', '143', '147', '149', '136', '132', '111', '131', '141', '128', '137'] 663.333333333333
128 13.266666666666667 ['139', '138', '112', '109', '130', '143', '147', '149', '136', '132', '111', '131', '141', '128', '137'] 663.333333333333
129 13.266666666666667 ['139', '138', '112', '109', '130', '143', '147', '149', '136', '132', '111', '131', '141', '128', '137'] 663.333333333333
130 13.266666666666667 ['139', '138', '112', '109', '130', '143', '147', '149', '136', '132', '111', '131', '141', '128', '137'] 663.333333333333
131 13.266666666666667 ['139', '138', '112', '109', '130', '143', '147', '149', '136', '132', '111', '131', '141', '128', '137'] 663.333333333333
132 13.266666666666667 ['139', '138', '112', '109', '130', '143', '147', '149', '136', '132', '111', '131', '141', '128', '137'] 663.333333333333
133 13.266666666666667 ['139', '138', '112', '109', '130', '143', '147', '149', '136', '132', '111', '131', '141', '128', '137'] 663.333333333333
134 13.266666666666667 ['139', '138', '112', '109', '130', '143', '147', '149', '136', '132', '111', '131', '141', '128', '137'] 663.333333333333
135 13.266666666666667 ['139', '138', '112', '109', '130', '143', '147', '149', '136', '132', '111', '131', '141', '128', '137'] 663.333333333333
136 13.266666666666667 ['139', '138', '112', '109', '130', '143', '147', '149', '136', '132', '111', '131', '141', '128', '137'] 663.333333333333
137 13.266666666666667 ['139', '138', '112', '109', '130', '143', '147', '149', '136', '132', '111', '131', '141', '128', '137'] 663.333333333333
138 13.266666666666667 ['139', '138', '112', '109', '130', '143', '147', '149', '136', '132', '111', '131', '141', '128', '137'] 663.333333333333
139 13.266666666666667 ['139', '138', '112', '109', '130', '143', '147', '149', '136', '132', '111', '131', '141', '128', '137'] 663.333333333333
140 13.266666666666667 ['139', '138', '112', '109', '130', '143', '147', '149', '136', '132', '111', '131', '141', '128', '137'] 663.333333333333
141 13.266666666666667 ['139', '138', '112', '109', '130', '143', '147', '149', '136', '132', '111', '131', '141', '128', '137'] 663.333333333333
142 13.266666666666667 ['139', '138', '112', '109', '130', '143', '147', '149', '136', '132', '111', '131', '141', '128', '137'] 663.333333333333
143 13.266666666666667 ['139', '138', '112', '109', '130', '143', '147', '149', '136', '132', '111', '131', '141', '128', '137'] 663.333333333333
144 13.266666666666667 ['139', '138', '112', '109', '130', '143', '147', '149', '136', '132', '111', '131', '141', '128', '137'] 663.333333333333
145 13.266666666666667 ['139', '138', '112', '109', '130', '143', '147', '149', '136', '132', '111', '131', '141', '128', '137'] 663.333333333333
146 13.266666666666667 ['139', '138', '112', '109', '130', '143', '147', '149', '136', '132', '111', '131', '141', '128', '137'] 663.333333333333
147 13.266666666666667 ['139', '138', '112', '109', '130', '143', '147', '149', '136', '132', '111', '131', '141', '128', '137'] 663.333333333333
148 13.266666666666667 ['139', '138', '112', '109', '130', '143', '147', '149', '136', '132', '111', '131', '141', '128', '137'] 663.333333333333
149 13.266666666666667 ['139', '138', '112', '109', '130', '143', '147', '149', '136', '132', '111', '131', '141', '128', '137'] 663.333333333333
150 13.266666666666667 ['139', '138', '112', '109', '130', '143', '147', '149', '136', '132', '111', '131', '141', '128', '137'] 663.333333333333
151 13.266666666666667 ['139', '138', '112', '109', '130', '143', '147', '149', '136', '132', '111', '131', '141', '128', '137'] 663.333333333333
152 13.266666666666667 ['139', '138', '112', '109', '130', '143', '147', '149', '136', '132', '111', '131', '141', '128', '137'] 663.333333333333
153 13.266666666666667 ['139', '138', '112', '109', '130', '143', '147', '149', '136', '132', '111', '131', '141', '128', '137'] 663.333333333333
154 13.266666666666667 ['139', '138', '112', '109', '130', '143', '147', '149', '136', '132', '111', '131', '141', '128', '137'] 663.333333333333
155 13.266666666666667 ['139', '138', '112', '109', '130', '143', '147', '149', '136', '132', '111', '131', '141', '128', '137'] 663.333333333333
156 13.266666666666667 ['139', '138', '112', '109', '130', '143', '147', '149', '136', '132', '111', '131', '141', '128', '137'] 663.333333333333
157 13.266666666666667 ['139', '138', '112', '109', '130', '143', '147', '149', '136', '132', '111', '131', '141', '128', '137'] 663.333333333333
158 13.266666666666667 ['139', '138', '112', '109', '130', '143', '147', '149', '136', '132', '111', '131', '141', '128', '137'] 663.333333333333
159 13.266666666666667 ['139', '138', '112', '109', '130', '143', '147', '149', '136', '132', '111', '131', '141', '128', '137'] 663.333333333333
160 13.266666666666667 ['139', '138', '112', '109', '130', '143', '147', '149', '136', '132', '111', '131', '141', '128', '137'] 663.333333333333
161 13.266666666666667 ['139', '138', '112', '109', '130', '143', '147', '149', '136', '132', '111', '131', '141', '128', '137'] 663.333333333333
162 13.266666666666667 ['139', '138', '112', '109', '130', '143', '147', '149', '136', '132', '111', '131', '141', '128', '137'] 663.333333333333
163 13.266666666666667 ['139', '138', '112', '109', '130', '143', '147', '149', '136', '132', '111', '131', '141', '128', '137'] 663.333333333333
164 13.266666666666667 ['139', '138', '112', '109', '130', '143', '147', '149', '136', '132', '111', '131', '141', '128', '137'] 663.333333333333
165 13.266666666666667 ['139', '138', '112', '109', '130', '143', '147', '149', '136', '132', '111', '131', '141', '128', '137'] 663.333333333333
166 13.266666666666667 ['139', '138', '112', '109', '130', '143', '147', '149', '136', '132', '111', '131', '141', '128', '137'] 663.333333333333
167 13.266666666666667 ['139', '138', '112', '109', '130', '143', '147', '149', '136', '132', '111', '131', '141', '128', '137'] 663.333333333333
168 13.266666666666667 ['139', '138', '112', '109', '130', '143', '147', '149', '136', '132', '111', '131', '141', '128', '137'] 663.333333333333
169 13.266666666666667 ['139', '138', '112', '109', '130', '143', '147', '149', '136', '132', '111', '131', '141', '128', '137'] 663.333333333333
170 13.266666666666667 ['139', '138', '112', '109', '130', '143', '147', '149', '136', '132', '111', '131', '141', '128', '137'] 663.333333333333
171 13.266666666666667 ['139', '138', '112', '109', '130', '143', '147', '149', '136', '132', '111', '131', '141', '128', '137'] 663.333333333333
172 13.266666666666667 ['139', '138', '112', '109', '130', '143', '147', '149', '136', '132', '111', '131', '141', '128', '137'] 663.333333333333
173 13.266666666666667 ['139', '138', '112', '109', '130', '143', '147', '149', '136', '132', '111', '131', '141', '128', '137'] 663.333333333333
174 13.266666666666667 ['139', '138', '112', '109', '130', '143', '147', '149', '136', '132', '111', '131', '141', '128', '137'] 663.333333333333
175 13.266666666666667 ['139', '138', '112', '109', '130', '143', '147', '149', '136', '132', '111', '131', '141', '128', '137'] 663.333333333333
176 13.266666666666667 ['139', '138', '112', '109', '130', '143', '147', '149', '136', '132', '111', '131', '141', '128', '137'] 663.333333333333
177 13.266666666666667 ['139', '138', '112', '109', '130', '143', '147', '149', '136', '132', '111', '131', '141', '128', '137'] 663.333333333333
178 13.266666666666667 ['139', '138', '112', '109', '130', '143', '147', '149', '136', '132', '111', '131', '141', '128', '137'] 663.333333333333
179 13.266666666666667 ['139', '138', '112', '109', '130', '143', '147', '149', '136', '132', '111', '131', '141', '128', '137'] 663.333333333333
180 13.266666666666667 ['139', '138', '112', '109', '130', '143', '147', '149', '136', '132', '111', '131', '141', '128', '137'] 663.333333333333
181 13.266666666666667 ['139', '138', '112', '109', '130', '143', '147', '149', '136', '132', '111', '131', '141', '128', '137'] 663.333333333333
182 13.266666666666667 ['139', '138', '112', '109', '130', '143', '147', '149', '136', '132', '111', '131', '141', '128', '137'] 663.333333333333
183 13.266666666666667 ['139', '138', '112', '109', '130', '143', '147', '149', '136', '132', '111', '131', '141', '128', '137'] 663.333333333333
184 13.266666666666667 ['139', '138', '112', '109', '130', '143', '147', '149', '136', '132', '111', '131', '141', '128', '137'] 663.333333333333
185 13.266666666666667 ['139', '138', '112', '109', '130', '143', '147', '149', '136', '132', '111', '131', '141', '128', '137'] 663.333333333333
186 13.266666666666667 ['139', '138', '112', '109', '130', '143', '147', '149', '136', '132', '111', '131', '141', '128', '137'] 663.333333333333
187 13.266666666666667 ['139', '138', '112', '109', '130', '143', '147', '149', '136', '132', '111', '131', '141', '128', '137'] 663.333333333333
188 13.266666666666667 ['139', '138', '112', '109', '130', '143', '147', '149', '136', '132', '111', '131', '141', '128', '137'] 663.333333333333
189 13.266666666666667 ['139', '138', '112', '109', '130', '143', '147', '149', '136', '132', '111', '131', '141', '128', '137'] 663.333333333333
190 13.266666666666667 ['139', '138', '112', '109', '130', '143', '147', '149', '136', '132', '111', '131', '141', '128', '137'] 663.333333333333
191 13.266666666666667 ['139', '138', '112', '109', '130', '143', '147', '149', '136', '132', '111', '131', '141', '128', '137'] 663.333333333333
192 13.266666666666667 ['139', '138', '112', '109', '130', '143', '147', '149', '136', '132', '111', '131', '141', '128', '137'] 663.333333333333
193 13.266666666666667 ['139', '138', '112', '109', '130', '143', '147', '149', '136', '132', '111', '131', '141', '128', '137'] 663.333333333333
194 13.266666666666667 ['139', '138', '112', '109', '130', '143', '147', '149', '136', '132', '111', '131', '141', '128', '137'] 663.333333333333
195 13.266666666666667 ['139', '138', '112', '109', '130', '143', '147', '149', '136', '132', '111', '131', '141', '128', '137'] 663.333333333333
196 13.266666666666667 ['139', '138', '112', '109', '130', '143', '147', '149', '136', '132', '111', '131', '141', '128', '137'] 663.333333333333
197 13.266666666666667 ['139', '138', '112', '109', '130', '143', '147', '149', '136', '132', '111', '131', '141', '128', '137'] 663.333333333333
198 13.266666666666667 ['139', '138', '112', '109', '130', '143', '147', '149', '136', '132', '111', '131', '141', '128', '137'] 663.333333333333
199 13.266666666666667 ['139', '138', '112', '109', '130', '143', '147', '149', '136', '132', '111', '131', '141', '128', '137'] 663.333333333333
