0 28.754716981132077 ['34', '9', '43', '42', '39'] 1510.5660377358492
1 28.0 ['34', '16', '38', '43', '39'] 1478.7169811320762
2 28.0 ['34', '16', '38', '43', '39'] 1451.773584905661
3 27.62264150943396 ['16', '51', '32', '43', '8'] 1426.6415094339623
4 26.867924528301888 ['32', '53', '43', '29', '39'] 1405.2075471698106
5 26.71698113207547 ['16', '32', '14', '53', '56'] 1387.2452830188681
6 26.49056603773585 ['23', '43', '53', '21', '32'] 1368.6792452830182
7 26.339622641509433 ['32', '55', '14', '53', '16'] 1353.283018867925
8 25.88679245283019 ['43', '32', '21', '53', '16'] 1338.4905660377353
9 25.88679245283019 ['43', '32', '21', '53', '16'] 1325.0566037735855
10 25.735849056603772 ['43', '16', '32', '55', '53'] 1310.4905660377353
11 25.735849056603772 ['43', '16', '32', '55', '53'] 1298.4905660377367
12 25.735849056603772 ['43', '16', '32', '55', '53'] 1291.0188679245275
13 25.735849056603772 ['43', '16', '32', '55', '53'] 1287.0943396226414
14 25.735849056603772 ['43', '16', '32', '55', '53'] 1286.7924528301885
15 25.735849056603772 ['43', '16', '32', '55', '53'] 1286.7924528301885
16 25.735849056603772 ['43', '16', '32', '55', '53'] 1286.7924528301885
17 25.735849056603772 ['43', '16', '32', '55', '53'] 1286.7924528301885
18 25.735849056603772 ['43', '16', '32', '55', '53'] 1286.7924528301885
19 25.735849056603772 ['43', '16', '32', '55', '53'] 1286.7924528301885
20 25.735849056603772 ['43', '16', '32', '55', '53'] 1286.7924528301885
21 25.735849056603772 ['43', '16', '32', '55', '53'] 1286.7924528301885
22 25.735849056603772 ['43', '16', '32', '55', '53'] 1286.7924528301885
23 25.735849056603772 ['43', '16', '32', '55', '53'] 1286.7924528301885
24 25.735849056603772 ['43', '16', '32', '55', '53'] 1286.7924528301885
25 25.735849056603772 ['43', '16', '32', '55', '53'] 1286.7924528301885
26 25.735849056603772 ['43', '16', '32', '55', '53'] 1286.7924528301885
27 25.735849056603772 ['43', '16', '32', '55', '53'] 1286.7924528301885
28 25.735849056603772 ['43', '16', '32', '55', '53'] 1286.7924528301885
29 25.735849056603772 ['43', '16', '32', '55', '53'] 1286.7924528301885
30 25.735849056603772 ['43', '16', '32', '55', '53'] 1286.7924528301885
31 25.735849056603772 ['43', '16', '32', '55', '53'] 1286.7924528301885
32 25.735849056603772 ['43', '16', '32', '55', '53'] 1286.7924528301885
33 25.735849056603772 ['43', '16', '32', '55', '53'] 1286.7924528301885
34 25.735849056603772 ['43', '16', '32', '55', '53'] 1286.7924528301885
35 25.735849056603772 ['43', '16', '32', '55', '53'] 1286.7924528301885
36 25.735849056603772 ['43', '16', '32', '55', '53'] 1286.7924528301885
37 25.735849056603772 ['43', '16', '32', '55', '53'] 1286.7924528301885
38 25.735849056603772 ['43', '16', '32', '55', '53'] 1286.7924528301885
39 25.735849056603772 ['43', '16', '32', '55', '53'] 1286.7924528301885
40 25.735849056603772 ['43', '16', '32', '55', '53'] 1286.7924528301885
41 25.735849056603772 ['43', '16', '32', '55', '53'] 1286.7924528301885
42 25.735849056603772 ['43', '16', '32', '55', '53'] 1286.7924528301885
43 25.735849056603772 ['43', '16', '32', '55', '53'] 1286.7924528301885
44 25.735849056603772 ['43', '16', '32', '55', '53'] 1286.7924528301885
45 25.735849056603772 ['43', '16', '32', '55', '53'] 1286.7924528301885
46 25.735849056603772 ['43', '16', '32', '55', '53'] 1286.7924528301885
47 25.735849056603772 ['43', '16', '32', '55', '53'] 1286.7924528301885
48 25.735849056603772 ['43', '16', '32', '55', '53'] 1286.7924528301885
49 25.735849056603772 ['43', '16', '32', '55', '53'] 1286.7924528301885
50 25.735849056603772 ['43', '16', '32', '55', '53'] 1286.7924528301885
51 25.735849056603772 ['43', '16', '32', '55', '53'] 1286.7924528301885
52 25.735849056603772 ['43', '16', '32', '55', '53'] 1286.7924528301885
53 25.735849056603772 ['43', '16', '32', '55', '53'] 1286.7924528301885
54 25.735849056603772 ['43', '16', '32', '55', '53'] 1286.7924528301885
55 25.735849056603772 ['43', '16', '32', '55', '53'] 1286.7924528301885
56 25.735849056603772 ['43', '16', '32', '55', '53'] 1286.7924528301885
57 25.735849056603772 ['43', '16', '32', '55', '53'] 1286.7924528301885
58 25.735849056603772 ['43', '16', '32', '55', '53'] 1286.7924528301885
59 25.735849056603772 ['43', '16', '32', '55', '53'] 1286.7924528301885
60 25.735849056603772 ['43', '16', '32', '55', '53'] 1286.7924528301885
61 25.735849056603772 ['43', '16', '32', '55', '53'] 1286.7924528301885
62 25.735849056603772 ['43', '16', '32', '55', '53'] 1286.7924528301885
63 25.735849056603772 ['43', '16', '32', '55', '53'] 1286.7924528301885
64 25.735849056603772 ['43', '16', '32', '55', '53'] 1286.7924528301885
65 25.735849056603772 ['43', '16', '32', '55', '53'] 1286.7924528301885
66 25.735849056603772 ['43', '16', '32', '55', '53'] 1286.7924528301885
67 25.735849056603772 ['43', '16', '32', '55', '53'] 1286.7924528301885
68 25.735849056603772 ['43', '16', '32', '55', '53'] 1286.7924528301885
69 25.735849056603772 ['43', '16', '32', '55', '53'] 1286.7924528301885
70 25.735849056603772 ['43', '16', '32', '55', '53'] 1286.7924528301885
71 25.735849056603772 ['43', '16', '32', '55', '53'] 1286.7924528301885
72 25.735849056603772 ['43', '16', '32', '55', '53'] 1286.7924528301885
73 25.735849056603772 ['43', '16', '32', '55', '53'] 1286.7924528301885
74 25.735849056603772 ['43', '16', '32', '55', '53'] 1286.7924528301885
75 25.735849056603772 ['43', '16', '32', '55', '53'] 1286.7924528301885
76 25.735849056603772 ['43', '16', '32', '55', '53'] 1286.7924528301885
77 25.735849056603772 ['43', '16', '32', '55', '53'] 1286.7924528301885
78 25.735849056603772 ['43', '16', '32', '55', '53'] 1286.7924528301885
79 25.735849056603772 ['43', '16', '32', '55', '53'] 1286.7924528301885
80 25.735849056603772 ['43', '16', '32', '55', '53'] 1286.7924528301885
81 25.735849056603772 ['43', '16', '32', '55', '53'] 1286.7924528301885
82 25.735849056603772 ['43', '16', '32', '55', '53'] 1286.7924528301885
83 25.735849056603772 ['43', '16', '32', '55', '53'] 1286.7924528301885
84 25.735849056603772 ['43', '16', '32', '55', '53'] 1286.7924528301885
85 25.735849056603772 ['43', '16', '32', '55', '53'] 1286.7924528301885
86 25.735849056603772 ['43', '16', '32', '55', '53'] 1286.7924528301885
87 25.735849056603772 ['43', '16', '32', '55', '53'] 1286.7924528301885
88 25.735849056603772 ['43', '16', '32', '55', '53'] 1286.7924528301885
89 25.735849056603772 ['43', '16', '32', '55', '53'] 1286.7924528301885
90 25.735849056603772 ['43', '16', '32', '55', '53'] 1286.7924528301885
91 25.735849056603772 ['43', '16', '32', '55', '53'] 1286.7924528301885
92 25.735849056603772 ['43', '16', '32', '55', '53'] 1286.7924528301885
93 25.735849056603772 ['43', '16', '32', '55', '53'] 1286.7924528301885
94 25.735849056603772 ['43', '16', '32', '55', '53'] 1286.7924528301885
95 25.735849056603772 ['43', '16', '32', '55', '53'] 1286.7924528301885
96 25.735849056603772 ['43', '16', '32', '55', '53'] 1286.7924528301885
97 25.735849056603772 ['43', '16', '32', '55', '53'] 1286.7924528301885
98 25.735849056603772 ['43', '16', '32', '55', '53'] 1286.7924528301885
99 25.735849056603772 ['43', '16', '32', '55', '53'] 1286.7924528301885
100 25.735849056603772 ['43', '16', '32', '55', '53'] 1286.7924528301885
101 25.735849056603772 ['43', '16', '32', '55', '53'] 1286.7924528301885
102 25.735849056603772 ['43', '16', '32', '55', '53'] 1286.7924528301885
103 25.735849056603772 ['43', '16', '32', '55', '53'] 1286.7924528301885
104 25.735849056603772 ['43', '16', '32', '55', '53'] 1286.7924528301885
105 25.735849056603772 ['43', '16', '32', '55', '53'] 1286.7924528301885
106 25.735849056603772 ['43', '16', '32', '55', '53'] 1286.7924528301885
107 25.735849056603772 ['43', '16', '32', '55', '53'] 1286.7924528301885
108 25.735849056603772 ['43', '16', '32', '55', '53'] 1286.7924528301885
109 25.735849056603772 ['43', '16', '32', '55', '53'] 1286.7924528301885
110 25.735849056603772 ['43', '16', '32', '55', '53'] 1286.7924528301885
111 25.735849056603772 ['43', '16', '32', '55', '53'] 1286.7924528301885
112 25.735849056603772 ['43', '16', '32', '55', '53'] 1286.7924528301885
113 25.735849056603772 ['43', '16', '32', '55', '53'] 1286.7924528301885
114 25.735849056603772 ['43', '16', '32', '55', '53'] 1286.7924528301885
115 25.735849056603772 ['43', '16', '32', '55', '53'] 1286.7924528301885
116 25.735849056603772 ['43', '16', '32', '55', '53'] 1286.7924528301885
117 25.735849056603772 ['43', '16', '32', '55', '53'] 1286.7924528301885
118 25.735849056603772 ['43', '16', '32', '55', '53'] 1286.7924528301885
119 25.735849056603772 ['43', '16', '32', '55', '53'] 1286.7924528301885
120 25.735849056603772 ['43', '16', '32', '55', '53'] 1286.7924528301885
121 25.735849056603772 ['43', '16', '32', '55', '53'] 1286.7924528301885
122 25.735849056603772 ['43', '16', '32', '55', '53'] 1286.7924528301885
123 25.735849056603772 ['43', '16', '32', '55', '53'] 1286.7924528301885
124 25.735849056603772 ['43', '16', '32', '55', '53'] 1286.7924528301885
125 25.735849056603772 ['43', '16', '32', '55', '53'] 1286.7924528301885
126 25.735849056603772 ['43', '16', '32', '55', '53'] 1286.7924528301885
127 25.735849056603772 ['43', '16', '32', '55', '53'] 1286.7924528301885
128 25.735849056603772 ['43', '16', '32', '55', '53'] 1286.7924528301885
129 25.735849056603772 ['43', '16', '32', '55', '53'] 1286.7924528301885
130 25.735849056603772 ['43', '16', '32', '55', '53'] 1286.7924528301885
131 25.735849056603772 ['43', '16', '32', '55', '53'] 1286.7924528301885
132 25.735849056603772 ['43', '16', '32', '55', '53'] 1286.7924528301885
133 25.735849056603772 ['43', '16', '32', '55', '53'] 1286.7924528301885
134 25.735849056603772 ['43', '16', '32', '55', '53'] 1286.7924528301885
135 25.735849056603772 ['43', '16', '32', '55', '53'] 1286.7924528301885
136 25.735849056603772 ['43', '16', '32', '55', '53'] 1286.7924528301885
137 25.735849056603772 ['43', '16', '32', '55', '53'] 1286.7924528301885
138 25.735849056603772 ['43', '16', '32', '55', '53'] 1286.7924528301885
139 25.735849056603772 ['43', '16', '32', '55', '53'] 1286.7924528301885
140 25.735849056603772 ['43', '16', '32', '55', '53'] 1286.7924528301885
141 25.735849056603772 ['43', '16', '32', '55', '53'] 1286.7924528301885
142 25.735849056603772 ['43', '16', '32', '55', '53'] 1286.7924528301885
143 25.735849056603772 ['43', '16', '32', '55', '53'] 1286.7924528301885
144 25.735849056603772 ['43', '16', '32', '55', '53'] 1286.7924528301885
145 25.735849056603772 ['43', '16', '32', '55', '53'] 1286.7924528301885
146 25.735849056603772 ['43', '16', '32', '55', '53'] 1286.7924528301885
147 25.735849056603772 ['43', '16', '32', '55', '53'] 1286.7924528301885
148 25.735849056603772 ['43', '16', '32', '55', '53'] 1286.7924528301885
149 25.735849056603772 ['43', '16', '32', '55', '53'] 1286.7924528301885
150 25.735849056603772 ['43', '16', '32', '55', '53'] 1286.7924528301885
151 25.735849056603772 ['43', '16', '32', '55', '53'] 1286.7924528301885
152 25.735849056603772 ['43', '16', '32', '55', '53'] 1286.7924528301885
153 25.735849056603772 ['43', '16', '32', '55', '53'] 1286.7924528301885
154 25.735849056603772 ['43', '16', '32', '55', '53'] 1286.7924528301885
155 25.735849056603772 ['43', '16', '32', '55', '53'] 1286.7924528301885
156 25.735849056603772 ['43', '16', '32', '55', '53'] 1286.7924528301885
157 25.735849056603772 ['43', '16', '32', '55', '53'] 1286.7924528301885
158 25.735849056603772 ['43', '16', '32', '55', '53'] 1286.7924528301885
159 25.735849056603772 ['43', '16', '32', '55', '53'] 1286.7924528301885
160 25.735849056603772 ['43', '16', '32', '55', '53'] 1286.7924528301885
161 25.735849056603772 ['43', '16', '32', '55', '53'] 1286.7924528301885
162 25.735849056603772 ['43', '16', '32', '55', '53'] 1286.7924528301885
163 25.735849056603772 ['43', '16', '32', '55', '53'] 1286.7924528301885
164 25.735849056603772 ['43', '16', '32', '55', '53'] 1286.7924528301885
165 25.735849056603772 ['43', '16', '32', '55', '53'] 1286.7924528301885
166 25.735849056603772 ['43', '16', '32', '55', '53'] 1286.7924528301885
167 25.735849056603772 ['43', '16', '32', '55', '53'] 1286.7924528301885
168 25.735849056603772 ['43', '16', '32', '55', '53'] 1286.7924528301885
169 25.735849056603772 ['43', '16', '32', '55', '53'] 1286.7924528301885
170 25.735849056603772 ['43', '16', '32', '55', '53'] 1286.7924528301885
171 25.735849056603772 ['43', '16', '32', '55', '53'] 1286.7924528301885
172 25.735849056603772 ['43', '16', '32', '55', '53'] 1286.7924528301885
173 25.735849056603772 ['43', '16', '32', '55', '53'] 1286.7924528301885
174 25.735849056603772 ['43', '16', '32', '55', '53'] 1286.7924528301885
175 25.735849056603772 ['43', '16', '32', '55', '53'] 1286.7924528301885
176 25.735849056603772 ['43', '16', '32', '55', '53'] 1286.7924528301885
177 25.735849056603772 ['43', '16', '32', '55', '53'] 1286.7924528301885
178 25.735849056603772 ['43', '16', '32', '55', '53'] 1286.7924528301885
179 25.735849056603772 ['43', '16', '32', '55', '53'] 1286.7924528301885
180 25.735849056603772 ['43', '16', '32', '55', '53'] 1286.7924528301885
181 25.735849056603772 ['43', '16', '32', '55', '53'] 1286.7924528301885
182 25.735849056603772 ['43', '16', '32', '55', '53'] 1286.7924528301885
183 25.735849056603772 ['43', '16', '32', '55', '53'] 1286.7924528301885
184 25.735849056603772 ['43', '16', '32', '55', '53'] 1286.7924528301885
185 25.735849056603772 ['43', '16', '32', '55', '53'] 1286.7924528301885
186 25.735849056603772 ['43', '16', '32', '55', '53'] 1286.7924528301885
187 25.735849056603772 ['43', '16', '32', '55', '53'] 1286.7924528301885
188 25.735849056603772 ['43', '16', '32', '55', '53'] 1286.7924528301885
189 25.735849056603772 ['43', '16', '32', '55', '53'] 1286.7924528301885
190 25.735849056603772 ['43', '16', '32', '55', '53'] 1286.7924528301885
191 25.735849056603772 ['43', '16', '32', '55', '53'] 1286.7924528301885
192 25.735849056603772 ['43', '16', '32', '55', '53'] 1286.7924528301885
193 25.735849056603772 ['43', '16', '32', '55', '53'] 1286.7924528301885
194 25.735849056603772 ['43', '16', '32', '55', '53'] 1286.7924528301885
195 25.735849056603772 ['43', '16', '32', '55', '53'] 1286.7924528301885
196 25.735849056603772 ['43', '16', '32', '55', '53'] 1286.7924528301885
197 25.735849056603772 ['43', '16', '32', '55', '53'] 1286.7924528301885
198 25.735849056603772 ['43', '16', '32', '55', '53'] 1286.7924528301885
199 25.735849056603772 ['43', '16', '32', '55', '53'] 1286.7924528301885
