0 16.21875 ['14', '7', '20'] 842.0625
1 15.53125 ['1', '5', '16'] 827.53125
2 15.53125 ['1', '5', '16'] 815.21875
3 15.53125 ['1', '5', '16'] 801.03125
4 15.53125 ['1', '5', '16'] 790.1875
5 15.40625 ['14', '1', '5'] 782.6875
6 15.40625 ['14', '1', '5'] 779.15625
7 15.40625 ['14', '1', '5'] 777.875
8 15.40625 ['14', '1', '5'] 776.75
9 15.40625 ['14', '1', '5'] 774.3125
10 15.40625 ['14', '1', '5'] 771.9375
11 15.40625 ['14', '1', '5'] 770.3125
12 15.40625 ['14', '1', '5'] 770.3125
13 15.40625 ['14', '1', '5'] 770.3125
14 15.40625 ['14', '1', '5'] 770.3125
15 15.40625 ['14', '1', '5'] 770.3125
16 15.40625 ['14', '1', '5'] 770.3125
17 15.40625 ['14', '1', '5'] 770.3125
18 15.40625 ['14', '1', '5'] 770.3125
19 15.40625 ['14', '1', '5'] 770.3125
20 15.40625 ['14', '1', '5'] 770.3125
21 15.40625 ['14', '1', '5'] 770.3125
22 15.40625 ['14', '1', '5'] 770.3125
23 15.40625 ['14', '1', '5'] 770.3125
24 15.40625 ['14', '1', '5'] 770.3125
25 15.40625 ['14', '1', '5'] 770.3125
26 15.40625 ['14', '1', '5'] 770.3125
27 15.40625 ['14', '1', '5'] 770.3125
28 15.40625 ['14', '1', '5'] 770.3125
29 15.40625 ['14', '1', '5'] 770.3125
30 15.40625 ['14', '1', '5'] 770.3125
31 15.40625 ['14', '1', '5'] 770.3125
32 15.40625 ['14', '1', '5'] 770.3125
33 15.40625 ['14', '1', '5'] 770.3125
34 15.40625 ['14', '1', '5'] 770.3125
35 15.40625 ['14', '1', '5'] 770.3125
36 15.40625 ['14', '1', '5'] 770.3125
37 15.40625 ['14', '1', '5'] 770.3125
38 15.40625 ['14', '1', '5'] 770.3125
39 15.40625 ['14', '1', '5'] 770.3125
40 15.40625 ['14', '1', '5'] 770.3125
41 15.40625 ['14', '1', '5'] 770.3125
42 15.40625 ['14', '1', '5'] 770.3125
43 15.40625 ['14', '1', '5'] 770.3125
44 15.40625 ['14', '1', '5'] 770.3125
45 15.40625 ['14', '1', '5'] 770.3125
46 15.40625 ['14', '1', '5'] 770.3125
47 15.40625 ['14', '1', '5'] 770.3125
48 15.40625 ['14', '1', '5'] 770.3125
49 15.40625 ['14', '1', '5'] 770.3125
50 15.40625 ['14', '1', '5'] 770.3125
51 15.40625 ['14', '1', '5'] 770.3125
52 15.40625 ['14', '1', '5'] 770.3125
53 15.40625 ['14', '1', '5'] 770.3125
54 15.40625 ['14', '1', '5'] 770.3125
55 15.40625 ['14', '1', '5'] 770.3125
56 15.40625 ['14', '1', '5'] 770.3125
57 15.40625 ['14', '1', '5'] 770.3125
58 15.40625 ['14', '1', '5'] 770.3125
59 15.40625 ['14', '1', '5'] 770.3125
60 15.40625 ['14', '1', '5'] 770.3125
61 15.40625 ['14', '1', '5'] 770.3125
62 15.40625 ['14', '1', '5'] 770.3125
63 15.40625 ['14', '1', '5'] 770.3125
64 15.40625 ['14', '1', '5'] 770.3125
65 15.40625 ['14', '1', '5'] 770.3125
66 15.40625 ['14', '1', '5'] 770.3125
67 15.40625 ['14', '1', '5'] 770.3125
68 15.40625 ['14', '1', '5'] 770.3125
69 15.40625 ['14', '1', '5'] 770.3125
70 15.40625 ['14', '1', '5'] 770.3125
71 15.40625 ['14', '1', '5'] 770.3125
72 15.40625 ['14', '1', '5'] 770.3125
73 15.40625 ['14', '1', '5'] 770.3125
74 15.40625 ['14', '1', '5'] 770.3125
75 15.40625 ['14', '1', '5'] 770.3125
76 15.40625 ['14', '1', '5'] 770.3125
77 15.40625 ['14', '1', '5'] 770.3125
78 15.40625 ['14', '1', '5'] 770.3125
79 15.40625 ['14', '1', '5'] 770.3125
80 15.40625 ['14', '1', '5'] 770.3125
81 15.40625 ['14', '1', '5'] 770.3125
82 15.40625 ['14', '1', '5'] 770.3125
83 15.40625 ['14', '1', '5'] 770.3125
84 15.40625 ['14', '1', '5'] 770.3125
85 15.40625 ['14', '1', '5'] 770.3125
86 15.40625 ['14', '1', '5'] 770.3125
87 15.40625 ['14', '1', '5'] 770.3125
88 15.40625 ['14', '1', '5'] 770.3125
89 15.40625 ['14', '1', '5'] 770.3125
90 15.40625 ['14', '1', '5'] 770.3125
91 15.40625 ['14', '1', '5'] 770.3125
92 15.40625 ['14', '1', '5'] 770.3125
93 15.40625 ['14', '1', '5'] 770.3125
94 15.40625 ['14', '1', '5'] 770.3125
95 15.40625 ['14', '1', '5'] 770.3125
96 15.40625 ['14', '1', '5'] 770.3125
97 15.40625 ['14', '1', '5'] 770.3125
98 15.40625 ['14', '1', '5'] 770.3125
99 15.40625 ['14', '1', '5'] 770.3125
100 15.40625 ['14', '1', '5'] 770.3125
101 15.40625 ['14', '1', '5'] 770.3125
102 15.40625 ['14', '1', '5'] 770.3125
103 15.40625 ['14', '1', '5'] 770.3125
104 15.40625 ['14', '1', '5'] 770.3125
105 15.40625 ['14', '1', '5'] 770.3125
106 15.40625 ['14', '1', '5'] 770.3125
107 15.40625 ['14', '1', '5'] 770.3125
108 15.40625 ['14', '1', '5'] 770.3125
109 15.40625 ['14', '1', '5'] 770.3125
110 15.40625 ['14', '1', '5'] 770.3125
111 15.40625 ['14', '1', '5'] 770.3125
112 15.40625 ['14', '1', '5'] 770.3125
113 15.40625 ['14', '1', '5'] 770.3125
114 15.40625 ['14', '1', '5'] 770.3125
115 15.40625 ['14', '1', '5'] 770.3125
116 15.40625 ['14', '1', '5'] 770.3125
117 15.40625 ['14', '1', '5'] 770.3125
118 15.40625 ['14', '1', '5'] 770.3125
119 15.40625 ['14', '1', '5'] 770.3125
120 15.40625 ['14', '1', '5'] 770.3125
121 15.40625 ['14', '1', '5'] 770.3125
122 15.40625 ['14', '1', '5'] 770.3125
123 15.40625 ['14', '1', '5'] 770.3125
124 15.40625 ['14', '1', '5'] 770.3125
125 15.40625 ['14', '1', '5'] 770.3125
126 15.40625 ['14', '1', '5'] 770.3125
127 15.40625 ['14', '1', '5'] 770.3125
128 15.40625 ['14', '1', '5'] 770.3125
129 15.40625 ['14', '1', '5'] 770.3125
130 15.40625 ['14', '1', '5'] 770.3125
131 15.40625 ['14', '1', '5'] 770.3125
132 15.40625 ['14', '1', '5'] 770.3125
133 15.40625 ['14', '1', '5'] 770.3125
134 15.40625 ['14', '1', '5'] 770.3125
135 15.40625 ['14', '1', '5'] 770.3125
136 15.40625 ['14', '1', '5'] 770.3125
137 15.40625 ['14', '1', '5'] 770.3125
138 15.40625 ['14', '1', '5'] 770.3125
139 15.40625 ['14', '1', '5'] 770.3125
140 15.40625 ['14', '1', '5'] 770.3125
141 15.40625 ['14', '1', '5'] 770.3125
142 15.40625 ['14', '1', '5'] 770.3125
143 15.40625 ['14', '1', '5'] 770.3125
144 15.40625 ['14', '1', '5'] 770.3125
145 15.40625 ['14', '1', '5'] 770.3125
146 15.40625 ['14', '1', '5'] 770.3125
147 15.40625 ['14', '1', '5'] 770.3125
148 15.40625 ['14', '1', '5'] 770.3125
149 15.40625 ['14', '1', '5'] 770.3125
150 15.40625 ['14', '1', '5'] 770.3125
151 15.40625 ['14', '1', '5'] 770.3125
152 15.40625 ['14', '1', '5'] 770.3125
153 15.40625 ['14', '1', '5'] 770.3125
154 15.40625 ['14', '1', '5'] 770.3125
155 15.40625 ['14', '1', '5'] 770.3125
156 15.40625 ['14', '1', '5'] 770.3125
157 15.40625 ['14', '1', '5'] 770.3125
158 15.40625 ['14', '1', '5'] 770.3125
159 15.40625 ['14', '1', '5'] 770.3125
160 15.40625 ['14', '1', '5'] 770.3125
161 15.40625 ['14', '1', '5'] 770.3125
162 15.40625 ['14', '1', '5'] 770.3125
163 15.40625 ['14', '1', '5'] 770.3125
164 15.40625 ['14', '1', '5'] 770.3125
165 15.40625 ['14', '1', '5'] 770.3125
166 15.40625 ['14', '1', '5'] 770.3125
167 15.40625 ['14', '1', '5'] 770.3125
168 15.40625 ['14', '1', '5'] 770.3125
169 15.40625 ['14', '1', '5'] 770.3125
170 15.40625 ['14', '1', '5'] 770.3125
171 15.40625 ['14', '1', '5'] 770.3125
172 15.40625 ['14', '1', '5'] 770.3125
173 15.40625 ['14', '1', '5'] 770.3125
174 15.40625 ['14', '1', '5'] 770.3125
175 15.40625 ['14', '1', '5'] 770.3125
176 15.40625 ['14', '1', '5'] 770.3125
177 15.40625 ['14', '1', '5'] 770.3125
178 15.40625 ['14', '1', '5'] 770.3125
179 15.40625 ['14', '1', '5'] 770.3125
180 15.40625 ['14', '1', '5'] 770.3125
181 15.40625 ['14', '1', '5'] 770.3125
182 15.40625 ['14', '1', '5'] 770.3125
183 15.40625 ['14', '1', '5'] 770.3125
184 15.40625 ['14', '1', '5'] 770.3125
185 15.40625 ['14', '1', '5'] 770.3125
186 15.40625 ['14', '1', '5'] 770.3125
187 15.40625 ['14', '1', '5'] 770.3125
188 15.40625 ['14', '1', '5'] 770.3125
189 15.40625 ['14', '1', '5'] 770.3125
190 15.40625 ['14', '1', '5'] 770.3125
191 15.40625 ['14', '1', '5'] 770.3125
192 15.40625 ['14', '1', '5'] 770.3125
193 15.40625 ['14', '1', '5'] 770.3125
194 15.40625 ['14', '1', '5'] 770.3125
195 15.40625 ['14', '1', '5'] 770.3125
196 15.40625 ['14', '1', '5'] 770.3125
197 15.40625 ['14', '1', '5'] 770.3125
198 15.40625 ['14', '1', '5'] 770.3125
199 15.40625 ['14', '1', '5'] 770.3125
