0 245.26 ['37', '5', '47', '25', '1'] 12980.099999999999
1 234.98 ['47', '40', '31', '39', '1'] 12737.2
2 233.7 ['47', '39', '31', '27', '1'] 12449.859999999999
3 226.98 ['47', '39', '1', '37', '31'] 12128.540000000003
4 226.04 ['1', '15', '39', '31', '45'] 11853.199999999999
5 226.04 ['1', '15', '39', '31', '45'] 11661.320000000002
6 226.04 ['1', '15', '39', '31', '45'] 11516.019999999999
7 224.6 ['39', '1', '37', '6', '45'] 11385.139999999994
8 224.42 ['31', '1', '39', '45', '6'] 11325.339999999997
9 224.42 ['31', '1', '39', '45', '6'] 11297.580000000004
10 224.42 ['31', '1', '39', '45', '6'] 11290.000000000011
11 224.42 ['31', '1', '39', '45', '6'] 11279.32000000001
12 224.42 ['31', '1', '39', '45', '6'] 11258.800000000012
13 224.42 ['31', '1', '39', '45', '6'] 11222.440000000002
14 224.42 ['31', '1', '39', '45', '6'] 11221.000000000002
15 224.42 ['31', '1', '39', '45', '6'] 11221.000000000002
16 224.42 ['31', '1', '39', '45', '6'] 11221.000000000002
17 224.42 ['31', '1', '39', '45', '6'] 11221.000000000002
18 224.42 ['31', '1', '39', '45', '6'] 11221.000000000002
19 224.42 ['31', '1', '39', '45', '6'] 11221.000000000002
20 224.42 ['31', '1', '39', '45', '6'] 11221.000000000002
21 224.42 ['31', '1', '39', '45', '6'] 11221.000000000002
22 224.42 ['31', '1', '39', '45', '6'] 11221.000000000002
23 224.42 ['31', '1', '39', '45', '6'] 11221.000000000002
24 224.42 ['31', '1', '39', '45', '6'] 11221.000000000002
25 224.42 ['31', '1', '39', '45', '6'] 11221.000000000002
26 224.42 ['31', '1', '39', '45', '6'] 11221.000000000002
27 224.42 ['31', '1', '39', '45', '6'] 11221.000000000002
28 224.42 ['31', '1', '39', '45', '6'] 11221.000000000002
29 224.42 ['31', '1', '39', '45', '6'] 11221.000000000002
30 224.42 ['31', '1', '39', '45', '6'] 11221.000000000002
31 224.42 ['31', '1', '39', '45', '6'] 11221.000000000002
32 224.42 ['31', '1', '39', '45', '6'] 11221.000000000002
33 224.42 ['31', '1', '39', '45', '6'] 11221.000000000002
34 224.42 ['31', '1', '39', '45', '6'] 11221.000000000002
35 224.42 ['31', '1', '39', '45', '6'] 11221.000000000002
36 224.42 ['31', '1', '39', '45', '6'] 11221.000000000002
37 224.42 ['31', '1', '39', '45', '6'] 11221.000000000002
38 224.42 ['31', '1', '39', '45', '6'] 11221.000000000002
39 224.42 ['31', '1', '39', '45', '6'] 11221.000000000002
40 224.42 ['31', '1', '39', '45', '6'] 11221.000000000002
41 224.42 ['31', '1', '39', '45', '6'] 11221.000000000002
42 224.42 ['31', '1', '39', '45', '6'] 11221.000000000002
43 224.42 ['31', '1', '39', '45', '6'] 11221.000000000002
44 224.42 ['31', '1', '39', '45', '6'] 11221.000000000002
45 224.42 ['31', '1', '39', '45', '6'] 11221.000000000002
46 224.42 ['31', '1', '39', '45', '6'] 11221.000000000002
47 224.42 ['31', '1', '39', '45', '6'] 11221.000000000002
48 224.42 ['31', '1', '39', '45', '6'] 11221.000000000002
49 224.42 ['31', '1', '39', '45', '6'] 11221.000000000002
50 224.42 ['31', '1', '39', '45', '6'] 11221.000000000002
51 224.42 ['31', '1', '39', '45', '6'] 11221.000000000002
52 224.42 ['31', '1', '39', '45', '6'] 11221.000000000002
53 224.42 ['31', '1', '39', '45', '6'] 11221.000000000002
54 224.42 ['31', '1', '39', '45', '6'] 11221.000000000002
55 224.42 ['31', '1', '39', '45', '6'] 11221.000000000002
56 224.42 ['31', '1', '39', '45', '6'] 11221.000000000002
57 224.42 ['31', '1', '39', '45', '6'] 11221.000000000002
58 224.42 ['31', '1', '39', '45', '6'] 11221.000000000002
59 224.42 ['31', '1', '39', '45', '6'] 11221.000000000002
60 224.42 ['31', '1', '39', '45', '6'] 11221.000000000002
61 224.42 ['31', '1', '39', '45', '6'] 11221.000000000002
62 224.42 ['31', '1', '39', '45', '6'] 11221.000000000002
63 224.42 ['31', '1', '39', '45', '6'] 11221.000000000002
64 224.42 ['31', '1', '39', '45', '6'] 11221.000000000002
65 224.42 ['31', '1', '39', '45', '6'] 11221.000000000002
66 224.42 ['31', '1', '39', '45', '6'] 11221.000000000002
67 224.42 ['31', '1', '39', '45', '6'] 11221.000000000002
68 224.42 ['31', '1', '39', '45', '6'] 11221.000000000002
69 224.42 ['31', '1', '39', '45', '6'] 11221.000000000002
70 224.42 ['31', '1', '39', '45', '6'] 11221.000000000002
71 224.42 ['31', '1', '39', '45', '6'] 11221.000000000002
72 224.42 ['31', '1', '39', '45', '6'] 11221.000000000002
73 224.42 ['31', '1', '39', '45', '6'] 11221.000000000002
74 224.42 ['31', '1', '39', '45', '6'] 11221.000000000002
75 224.42 ['31', '1', '39', '45', '6'] 11221.000000000002
76 224.42 ['31', '1', '39', '45', '6'] 11221.000000000002
77 224.42 ['31', '1', '39', '45', '6'] 11221.000000000002
78 224.42 ['31', '1', '39', '45', '6'] 11221.000000000002
79 224.42 ['31', '1', '39', '45', '6'] 11221.000000000002
80 224.42 ['31', '1', '39', '45', '6'] 11221.000000000002
81 224.42 ['31', '1', '39', '45', '6'] 11221.000000000002
82 224.42 ['31', '1', '39', '45', '6'] 11221.000000000002
83 224.42 ['31', '1', '39', '45', '6'] 11221.000000000002
84 224.42 ['31', '1', '39', '45', '6'] 11221.000000000002
85 224.42 ['31', '1', '39', '45', '6'] 11221.000000000002
86 224.42 ['31', '1', '39', '45', '6'] 11221.000000000002
87 224.42 ['31', '1', '39', '45', '6'] 11221.000000000002
88 224.42 ['31', '1', '39', '45', '6'] 11221.000000000002
89 224.42 ['31', '1', '39', '45', '6'] 11221.000000000002
90 224.42 ['31', '1', '39', '45', '6'] 11221.000000000002
91 224.42 ['31', '1', '39', '45', '6'] 11221.000000000002
92 224.42 ['31', '1', '39', '45', '6'] 11221.000000000002
93 224.42 ['31', '1', '39', '45', '6'] 11221.000000000002
94 224.42 ['31', '1', '39', '45', '6'] 11221.000000000002
95 224.42 ['31', '1', '39', '45', '6'] 11221.000000000002
96 224.42 ['31', '1', '39', '45', '6'] 11221.000000000002
97 224.42 ['31', '1', '39', '45', '6'] 11221.000000000002
98 224.42 ['31', '1', '39', '45', '6'] 11221.000000000002
99 224.42 ['31', '1', '39', '45', '6'] 11221.000000000002
100 224.42 ['31', '1', '39', '45', '6'] 11221.000000000002
101 224.42 ['31', '1', '39', '45', '6'] 11221.000000000002
102 224.42 ['31', '1', '39', '45', '6'] 11221.000000000002
103 224.42 ['31', '1', '39', '45', '6'] 11221.000000000002
104 224.42 ['31', '1', '39', '45', '6'] 11221.000000000002
105 224.42 ['31', '1', '39', '45', '6'] 11221.000000000002
106 224.42 ['31', '1', '39', '45', '6'] 11221.000000000002
107 224.42 ['31', '1', '39', '45', '6'] 11221.000000000002
108 224.42 ['31', '1', '39', '45', '6'] 11221.000000000002
109 224.42 ['31', '1', '39', '45', '6'] 11221.000000000002
110 224.42 ['31', '1', '39', '45', '6'] 11221.000000000002
111 224.42 ['31', '1', '39', '45', '6'] 11221.000000000002
112 224.42 ['31', '1', '39', '45', '6'] 11221.000000000002
113 224.42 ['31', '1', '39', '45', '6'] 11221.000000000002
114 224.42 ['31', '1', '39', '45', '6'] 11221.000000000002
115 224.42 ['31', '1', '39', '45', '6'] 11221.000000000002
116 224.42 ['31', '1', '39', '45', '6'] 11221.000000000002
117 224.42 ['31', '1', '39', '45', '6'] 11221.000000000002
118 224.42 ['31', '1', '39', '45', '6'] 11221.000000000002
119 224.42 ['31', '1', '39', '45', '6'] 11221.000000000002
120 224.42 ['31', '1', '39', '45', '6'] 11221.000000000002
121 224.42 ['31', '1', '39', '45', '6'] 11221.000000000002
122 224.42 ['31', '1', '39', '45', '6'] 11221.000000000002
123 224.42 ['31', '1', '39', '45', '6'] 11221.000000000002
124 224.42 ['31', '1', '39', '45', '6'] 11221.000000000002
125 224.42 ['31', '1', '39', '45', '6'] 11221.000000000002
126 224.42 ['31', '1', '39', '45', '6'] 11221.000000000002
127 224.42 ['31', '1', '39', '45', '6'] 11221.000000000002
128 224.42 ['31', '1', '39', '45', '6'] 11221.000000000002
129 224.42 ['31', '1', '39', '45', '6'] 11221.000000000002
130 224.42 ['31', '1', '39', '45', '6'] 11221.000000000002
131 224.42 ['31', '1', '39', '45', '6'] 11221.000000000002
132 224.42 ['31', '1', '39', '45', '6'] 11221.000000000002
133 224.42 ['31', '1', '39', '45', '6'] 11221.000000000002
134 224.42 ['31', '1', '39', '45', '6'] 11221.000000000002
135 224.42 ['31', '1', '39', '45', '6'] 11221.000000000002
136 224.42 ['31', '1', '39', '45', '6'] 11221.000000000002
137 224.42 ['31', '1', '39', '45', '6'] 11221.000000000002
138 224.42 ['31', '1', '39', '45', '6'] 11221.000000000002
139 224.42 ['31', '1', '39', '45', '6'] 11221.000000000002
140 224.42 ['31', '1', '39', '45', '6'] 11221.000000000002
141 224.42 ['31', '1', '39', '45', '6'] 11221.000000000002
142 224.42 ['31', '1', '39', '45', '6'] 11221.000000000002
143 224.42 ['31', '1', '39', '45', '6'] 11221.000000000002
144 224.42 ['31', '1', '39', '45', '6'] 11221.000000000002
145 224.42 ['31', '1', '39', '45', '6'] 11221.000000000002
146 224.42 ['31', '1', '39', '45', '6'] 11221.000000000002
147 224.42 ['31', '1', '39', '45', '6'] 11221.000000000002
148 224.42 ['31', '1', '39', '45', '6'] 11221.000000000002
149 224.42 ['31', '1', '39', '45', '6'] 11221.000000000002
150 224.42 ['31', '1', '39', '45', '6'] 11221.000000000002
151 224.42 ['31', '1', '39', '45', '6'] 11221.000000000002
152 224.42 ['31', '1', '39', '45', '6'] 11221.000000000002
153 224.42 ['31', '1', '39', '45', '6'] 11221.000000000002
154 224.42 ['31', '1', '39', '45', '6'] 11221.000000000002
155 224.42 ['31', '1', '39', '45', '6'] 11221.000000000002
156 224.42 ['31', '1', '39', '45', '6'] 11221.000000000002
157 224.42 ['31', '1', '39', '45', '6'] 11221.000000000002
158 224.42 ['31', '1', '39', '45', '6'] 11221.000000000002
159 224.42 ['31', '1', '39', '45', '6'] 11221.000000000002
160 224.42 ['31', '1', '39', '45', '6'] 11221.000000000002
161 224.42 ['31', '1', '39', '45', '6'] 11221.000000000002
162 224.42 ['31', '1', '39', '45', '6'] 11221.000000000002
163 224.42 ['31', '1', '39', '45', '6'] 11221.000000000002
164 224.42 ['31', '1', '39', '45', '6'] 11221.000000000002
165 224.42 ['31', '1', '39', '45', '6'] 11221.000000000002
166 224.42 ['31', '1', '39', '45', '6'] 11221.000000000002
167 224.42 ['31', '1', '39', '45', '6'] 11221.000000000002
168 224.42 ['31', '1', '39', '45', '6'] 11221.000000000002
169 224.42 ['31', '1', '39', '45', '6'] 11221.000000000002
170 224.42 ['31', '1', '39', '45', '6'] 11221.000000000002
171 224.42 ['31', '1', '39', '45', '6'] 11221.000000000002
172 224.42 ['31', '1', '39', '45', '6'] 11221.000000000002
173 224.42 ['31', '1', '39', '45', '6'] 11221.000000000002
174 224.42 ['31', '1', '39', '45', '6'] 11221.000000000002
175 224.42 ['31', '1', '39', '45', '6'] 11221.000000000002
176 224.42 ['31', '1', '39', '45', '6'] 11221.000000000002
177 224.42 ['31', '1', '39', '45', '6'] 11221.000000000002
178 224.42 ['31', '1', '39', '45', '6'] 11221.000000000002
179 224.42 ['31', '1', '39', '45', '6'] 11221.000000000002
180 224.42 ['31', '1', '39', '45', '6'] 11221.000000000002
181 224.42 ['31', '1', '39', '45', '6'] 11221.000000000002
182 224.42 ['31', '1', '39', '45', '6'] 11221.000000000002
183 224.42 ['31', '1', '39', '45', '6'] 11221.000000000002
184 224.42 ['31', '1', '39', '45', '6'] 11221.000000000002
185 224.42 ['31', '1', '39', '45', '6'] 11221.000000000002
186 224.42 ['31', '1', '39', '45', '6'] 11221.000000000002
187 224.42 ['31', '1', '39', '45', '6'] 11221.000000000002
188 224.42 ['31', '1', '39', '45', '6'] 11221.000000000002
189 224.42 ['31', '1', '39', '45', '6'] 11221.000000000002
190 224.42 ['31', '1', '39', '45', '6'] 11221.000000000002
191 224.42 ['31', '1', '39', '45', '6'] 11221.000000000002
192 224.42 ['31', '1', '39', '45', '6'] 11221.000000000002
193 224.42 ['31', '1', '39', '45', '6'] 11221.000000000002
194 224.42 ['31', '1', '39', '45', '6'] 11221.000000000002
195 224.42 ['31', '1', '39', '45', '6'] 11221.000000000002
196 224.42 ['31', '1', '39', '45', '6'] 11221.000000000002
197 224.42 ['31', '1', '39', '45', '6'] 11221.000000000002
198 224.42 ['31', '1', '39', '45', '6'] 11221.000000000002
199 224.42 ['31', '1', '39', '45', '6'] 11221.000000000002
