0 32.46808510638298 ['30', '49', '6', '4', '28'] 1724.9148936170209
1 32.319148936170215 ['52', '49', '51', '37', '46'] 1691.8510638297876
2 32.319148936170215 ['52', '49', '51', '37', '46'] 1667.3617021276596
3 31.53191489361702 ['37', '51', '17', '39', '6'] 1647.0000000000005
4 31.25531914893617 ['37', '52', '28', '39', '49'] 1624.4893617021282
5 31.25531914893617 ['37', '52', '28', '39', '49'] 1602.4468085106387
6 30.93617021276596 ['39', '37', '28', '52', '6'] 1581.3829787234035
7 30.93617021276596 ['39', '37', '28', '52', '6'] 1569.8510638297887
8 30.93617021276596 ['39', '37', '28', '52', '6'] 1560.8723404255322
9 30.93617021276596 ['39', '37', '28', '52', '6'] 1554.2553191489365
10 30.93617021276596 ['39', '37', '28', '52', '6'] 1550.446808510637
11 30.93617021276596 ['39', '37', '28', '52', '6'] 1548.2765957446811
12 30.93617021276596 ['39', '37', '28', '52', '6'] 1546.8085106382991
13 30.93617021276596 ['39', '37', '28', '52', '6'] 1546.8085106382991
14 30.93617021276596 ['39', '37', '28', '52', '6'] 1546.8085106382991
15 30.93617021276596 ['39', '37', '28', '52', '6'] 1546.8085106382991
16 30.93617021276596 ['39', '37', '28', '52', '6'] 1546.8085106382991
17 30.93617021276596 ['39', '37', '28', '52', '6'] 1546.8085106382991
18 30.93617021276596 ['39', '37', '28', '52', '6'] 1546.8085106382991
19 30.93617021276596 ['39', '37', '28', '52', '6'] 1546.8085106382991
20 30.93617021276596 ['39', '37', '28', '52', '6'] 1546.8085106382991
21 30.93617021276596 ['39', '37', '28', '52', '6'] 1546.8085106382991
22 30.93617021276596 ['39', '37', '28', '52', '6'] 1546.8085106382991
23 30.93617021276596 ['39', '37', '28', '52', '6'] 1546.8085106382991
24 30.93617021276596 ['39', '37', '28', '52', '6'] 1546.8085106382991
25 30.93617021276596 ['39', '37', '28', '52', '6'] 1546.8085106382991
26 30.93617021276596 ['39', '37', '28', '52', '6'] 1546.8085106382991
27 30.93617021276596 ['39', '37', '28', '52', '6'] 1546.8085106382991
28 30.93617021276596 ['39', '37', '28', '52', '6'] 1546.8085106382991
29 30.93617021276596 ['39', '37', '28', '52', '6'] 1546.8085106382991
30 30.93617021276596 ['39', '37', '28', '52', '6'] 1546.8085106382991
31 30.93617021276596 ['39', '37', '28', '52', '6'] 1546.8085106382991
32 30.93617021276596 ['39', '37', '28', '52', '6'] 1546.8085106382991
33 30.93617021276596 ['39', '37', '28', '52', '6'] 1546.8085106382991
34 30.93617021276596 ['39', '37', '28', '52', '6'] 1546.8085106382991
35 30.93617021276596 ['39', '37', '28', '52', '6'] 1546.8085106382991
36 30.93617021276596 ['39', '37', '28', '52', '6'] 1546.8085106382991
37 30.93617021276596 ['39', '37', '28', '52', '6'] 1546.8085106382991
38 30.93617021276596 ['39', '37', '28', '52', '6'] 1546.8085106382991
39 30.93617021276596 ['39', '37', '28', '52', '6'] 1546.8085106382991
40 30.93617021276596 ['39', '37', '28', '52', '6'] 1546.8085106382991
41 30.93617021276596 ['39', '37', '28', '52', '6'] 1546.8085106382991
42 30.93617021276596 ['39', '37', '28', '52', '6'] 1546.8085106382991
43 30.93617021276596 ['39', '37', '28', '52', '6'] 1546.8085106382991
44 30.93617021276596 ['39', '37', '28', '52', '6'] 1546.8085106382991
45 30.93617021276596 ['39', '37', '28', '52', '6'] 1546.8085106382991
46 30.93617021276596 ['39', '37', '28', '52', '6'] 1546.8085106382991
47 30.93617021276596 ['39', '37', '28', '52', '6'] 1546.8085106382991
48 30.93617021276596 ['39', '37', '28', '52', '6'] 1546.8085106382991
49 30.93617021276596 ['39', '37', '28', '52', '6'] 1546.8085106382991
50 30.93617021276596 ['39', '37', '28', '52', '6'] 1546.8085106382991
51 30.93617021276596 ['39', '37', '28', '52', '6'] 1546.8085106382991
52 30.93617021276596 ['39', '37', '28', '52', '6'] 1546.8085106382991
53 30.93617021276596 ['39', '37', '28', '52', '6'] 1546.8085106382991
54 30.93617021276596 ['39', '37', '28', '52', '6'] 1546.8085106382991
55 30.93617021276596 ['39', '37', '28', '52', '6'] 1546.8085106382991
56 30.93617021276596 ['39', '37', '28', '52', '6'] 1546.8085106382991
57 30.93617021276596 ['39', '37', '28', '52', '6'] 1546.8085106382991
58 30.93617021276596 ['39', '37', '28', '52', '6'] 1546.8085106382991
59 30.93617021276596 ['39', '37', '28', '52', '6'] 1546.8085106382991
60 30.93617021276596 ['39', '37', '28', '52', '6'] 1546.8085106382991
61 30.93617021276596 ['39', '37', '28', '52', '6'] 1546.8085106382991
62 30.93617021276596 ['39', '37', '28', '52', '6'] 1546.8085106382991
63 30.93617021276596 ['39', '37', '28', '52', '6'] 1546.8085106382991
64 30.93617021276596 ['39', '37', '28', '52', '6'] 1546.8085106382991
65 30.93617021276596 ['39', '37', '28', '52', '6'] 1546.8085106382991
66 30.93617021276596 ['39', '37', '28', '52', '6'] 1546.8085106382991
67 30.93617021276596 ['39', '37', '28', '52', '6'] 1546.8085106382991
68 30.93617021276596 ['39', '37', '28', '52', '6'] 1546.8085106382991
69 30.93617021276596 ['39', '37', '28', '52', '6'] 1546.8085106382991
70 30.93617021276596 ['39', '37', '28', '52', '6'] 1546.8085106382991
71 30.93617021276596 ['39', '37', '28', '52', '6'] 1546.8085106382991
72 30.93617021276596 ['39', '37', '28', '52', '6'] 1546.8085106382991
73 30.93617021276596 ['39', '37', '28', '52', '6'] 1546.8085106382991
74 30.93617021276596 ['39', '37', '28', '52', '6'] 1546.8085106382991
75 30.93617021276596 ['39', '37', '28', '52', '6'] 1546.8085106382991
76 30.93617021276596 ['39', '37', '28', '52', '6'] 1546.8085106382991
77 30.93617021276596 ['39', '37', '28', '52', '6'] 1546.8085106382991
78 30.93617021276596 ['39', '37', '28', '52', '6'] 1546.8085106382991
79 30.93617021276596 ['39', '37', '28', '52', '6'] 1546.8085106382991
80 30.93617021276596 ['39', '37', '28', '52', '6'] 1546.8085106382991
81 30.93617021276596 ['39', '37', '28', '52', '6'] 1546.8085106382991
82 30.93617021276596 ['39', '37', '28', '52', '6'] 1546.8085106382991
83 30.93617021276596 ['39', '37', '28', '52', '6'] 1546.8085106382991
84 30.93617021276596 ['39', '37', '28', '52', '6'] 1546.8085106382991
85 30.93617021276596 ['39', '37', '28', '52', '6'] 1546.8085106382991
86 30.93617021276596 ['39', '37', '28', '52', '6'] 1546.8085106382991
87 30.93617021276596 ['39', '37', '28', '52', '6'] 1546.8085106382991
88 30.93617021276596 ['39', '37', '28', '52', '6'] 1546.8085106382991
89 30.93617021276596 ['39', '37', '28', '52', '6'] 1546.8085106382991
90 30.93617021276596 ['39', '37', '28', '52', '6'] 1546.8085106382991
91 30.93617021276596 ['39', '37', '28', '52', '6'] 1546.8085106382991
92 30.93617021276596 ['39', '37', '28', '52', '6'] 1546.8085106382991
93 30.93617021276596 ['39', '37', '28', '52', '6'] 1546.8085106382991
94 30.93617021276596 ['39', '37', '28', '52', '6'] 1546.8085106382991
95 30.93617021276596 ['39', '37', '28', '52', '6'] 1546.8085106382991
96 30.93617021276596 ['39', '37', '28', '52', '6'] 1546.8085106382991
97 30.93617021276596 ['39', '37', '28', '52', '6'] 1546.8085106382991
98 30.93617021276596 ['39', '37', '28', '52', '6'] 1546.8085106382991
99 30.93617021276596 ['39', '37', '28', '52', '6'] 1546.8085106382991
100 30.93617021276596 ['39', '37', '28', '52', '6'] 1546.8085106382991
101 30.93617021276596 ['39', '37', '28', '52', '6'] 1546.8085106382991
102 30.93617021276596 ['39', '37', '28', '52', '6'] 1546.8085106382991
103 30.93617021276596 ['39', '37', '28', '52', '6'] 1546.8085106382991
104 30.93617021276596 ['39', '37', '28', '52', '6'] 1546.8085106382991
105 30.93617021276596 ['39', '37', '28', '52', '6'] 1546.8085106382991
106 30.93617021276596 ['39', '37', '28', '52', '6'] 1546.8085106382991
107 30.93617021276596 ['39', '37', '28', '52', '6'] 1546.8085106382991
108 30.93617021276596 ['39', '37', '28', '52', '6'] 1546.8085106382991
109 30.93617021276596 ['39', '37', '28', '52', '6'] 1546.8085106382991
110 30.93617021276596 ['39', '37', '28', '52', '6'] 1546.8085106382991
111 30.93617021276596 ['39', '37', '28', '52', '6'] 1546.8085106382991
112 30.93617021276596 ['39', '37', '28', '52', '6'] 1546.8085106382991
113 30.93617021276596 ['39', '37', '28', '52', '6'] 1546.8085106382991
114 30.93617021276596 ['39', '37', '28', '52', '6'] 1546.8085106382991
115 30.93617021276596 ['39', '37', '28', '52', '6'] 1546.8085106382991
116 30.93617021276596 ['39', '37', '28', '52', '6'] 1546.8085106382991
117 30.93617021276596 ['39', '37', '28', '52', '6'] 1546.8085106382991
118 30.93617021276596 ['39', '37', '28', '52', '6'] 1546.8085106382991
119 30.93617021276596 ['39', '37', '28', '52', '6'] 1546.8085106382991
120 30.93617021276596 ['39', '37', '28', '52', '6'] 1546.8085106382991
121 30.93617021276596 ['39', '37', '28', '52', '6'] 1546.8085106382991
122 30.93617021276596 ['39', '37', '28', '52', '6'] 1546.8085106382991
123 30.93617021276596 ['39', '37', '28', '52', '6'] 1546.8085106382991
124 30.93617021276596 ['39', '37', '28', '52', '6'] 1546.8085106382991
125 30.93617021276596 ['39', '37', '28', '52', '6'] 1546.8085106382991
126 30.93617021276596 ['39', '37', '28', '52', '6'] 1546.8085106382991
127 30.93617021276596 ['39', '37', '28', '52', '6'] 1546.8085106382991
128 30.93617021276596 ['39', '37', '28', '52', '6'] 1546.8085106382991
129 30.93617021276596 ['39', '37', '28', '52', '6'] 1546.8085106382991
130 30.93617021276596 ['39', '37', '28', '52', '6'] 1546.8085106382991
131 30.93617021276596 ['39', '37', '28', '52', '6'] 1546.8085106382991
132 30.93617021276596 ['39', '37', '28', '52', '6'] 1546.8085106382991
133 30.93617021276596 ['39', '37', '28', '52', '6'] 1546.8085106382991
134 30.93617021276596 ['39', '37', '28', '52', '6'] 1546.8085106382991
135 30.93617021276596 ['39', '37', '28', '52', '6'] 1546.8085106382991
136 30.93617021276596 ['39', '37', '28', '52', '6'] 1546.8085106382991
137 30.93617021276596 ['39', '37', '28', '52', '6'] 1546.8085106382991
138 30.93617021276596 ['39', '37', '28', '52', '6'] 1546.8085106382991
139 30.93617021276596 ['39', '37', '28', '52', '6'] 1546.8085106382991
140 30.93617021276596 ['39', '37', '28', '52', '6'] 1546.8085106382991
141 30.93617021276596 ['39', '37', '28', '52', '6'] 1546.8085106382991
142 30.93617021276596 ['39', '37', '28', '52', '6'] 1546.8085106382991
143 30.93617021276596 ['39', '37', '28', '52', '6'] 1546.8085106382991
144 30.93617021276596 ['39', '37', '28', '52', '6'] 1546.8085106382991
145 30.93617021276596 ['39', '37', '28', '52', '6'] 1546.8085106382991
146 30.93617021276596 ['39', '37', '28', '52', '6'] 1546.8085106382991
147 30.93617021276596 ['39', '37', '28', '52', '6'] 1546.8085106382991
148 30.93617021276596 ['39', '37', '28', '52', '6'] 1546.8085106382991
149 30.93617021276596 ['39', '37', '28', '52', '6'] 1546.8085106382991
150 30.93617021276596 ['39', '37', '28', '52', '6'] 1546.8085106382991
151 30.93617021276596 ['39', '37', '28', '52', '6'] 1546.8085106382991
152 30.93617021276596 ['39', '37', '28', '52', '6'] 1546.8085106382991
153 30.93617021276596 ['39', '37', '28', '52', '6'] 1546.8085106382991
154 30.93617021276596 ['39', '37', '28', '52', '6'] 1546.8085106382991
155 30.93617021276596 ['39', '37', '28', '52', '6'] 1546.8085106382991
156 30.93617021276596 ['39', '37', '28', '52', '6'] 1546.8085106382991
157 30.93617021276596 ['39', '37', '28', '52', '6'] 1546.8085106382991
158 30.93617021276596 ['39', '37', '28', '52', '6'] 1546.8085106382991
159 30.93617021276596 ['39', '37', '28', '52', '6'] 1546.8085106382991
160 30.93617021276596 ['39', '37', '28', '52', '6'] 1546.8085106382991
161 30.93617021276596 ['39', '37', '28', '52', '6'] 1546.8085106382991
162 30.93617021276596 ['39', '37', '28', '52', '6'] 1546.8085106382991
163 30.93617021276596 ['39', '37', '28', '52', '6'] 1546.8085106382991
164 30.93617021276596 ['39', '37', '28', '52', '6'] 1546.8085106382991
165 30.93617021276596 ['39', '37', '28', '52', '6'] 1546.8085106382991
166 30.93617021276596 ['39', '37', '28', '52', '6'] 1546.8085106382991
167 30.93617021276596 ['39', '37', '28', '52', '6'] 1546.8085106382991
168 30.93617021276596 ['39', '37', '28', '52', '6'] 1546.8085106382991
169 30.93617021276596 ['39', '37', '28', '52', '6'] 1546.8085106382991
170 30.93617021276596 ['39', '37', '28', '52', '6'] 1546.8085106382991
171 30.93617021276596 ['39', '37', '28', '52', '6'] 1546.8085106382991
172 30.93617021276596 ['39', '37', '28', '52', '6'] 1546.8085106382991
173 30.93617021276596 ['39', '37', '28', '52', '6'] 1546.8085106382991
174 30.93617021276596 ['39', '37', '28', '52', '6'] 1546.8085106382991
175 30.93617021276596 ['39', '37', '28', '52', '6'] 1546.8085106382991
176 30.93617021276596 ['39', '37', '28', '52', '6'] 1546.8085106382991
177 30.93617021276596 ['39', '37', '28', '52', '6'] 1546.8085106382991
178 30.93617021276596 ['39', '37', '28', '52', '6'] 1546.8085106382991
179 30.93617021276596 ['39', '37', '28', '52', '6'] 1546.8085106382991
180 30.93617021276596 ['39', '37', '28', '52', '6'] 1546.8085106382991
181 30.93617021276596 ['39', '37', '28', '52', '6'] 1546.8085106382991
182 30.93617021276596 ['39', '37', '28', '52', '6'] 1546.8085106382991
183 30.93617021276596 ['39', '37', '28', '52', '6'] 1546.8085106382991
184 30.93617021276596 ['39', '37', '28', '52', '6'] 1546.8085106382991
185 30.93617021276596 ['39', '37', '28', '52', '6'] 1546.8085106382991
186 30.93617021276596 ['39', '37', '28', '52', '6'] 1546.8085106382991
187 30.93617021276596 ['39', '37', '28', '52', '6'] 1546.8085106382991
188 30.93617021276596 ['39', '37', '28', '52', '6'] 1546.8085106382991
189 30.93617021276596 ['39', '37', '28', '52', '6'] 1546.8085106382991
190 30.93617021276596 ['39', '37', '28', '52', '6'] 1546.8085106382991
191 30.93617021276596 ['39', '37', '28', '52', '6'] 1546.8085106382991
192 30.93617021276596 ['39', '37', '28', '52', '6'] 1546.8085106382991
193 30.93617021276596 ['39', '37', '28', '52', '6'] 1546.8085106382991
194 30.93617021276596 ['39', '37', '28', '52', '6'] 1546.8085106382991
195 30.93617021276596 ['39', '37', '28', '52', '6'] 1546.8085106382991
196 30.93617021276596 ['39', '37', '28', '52', '6'] 1546.8085106382991
197 30.93617021276596 ['39', '37', '28', '52', '6'] 1546.8085106382991
198 30.93617021276596 ['39', '37', '28', '52', '6'] 1546.8085106382991
199 30.93617021276596 ['39', '37', '28', '52', '6'] 1546.8085106382991
