0 5.7407407407407405 ['12', '1', '22'] 304.0370370370372
1 5.666666666666667 ['1', '11', '4'] 297.14814814814804
2 5.666666666666667 ['1', '11', '4'] 291.85185185185173
3 5.666666666666667 ['1', '11', '4'] 289.0740740740739
4 5.62962962962963 ['1', '11', '12'] 286.22222222222206
5 5.62962962962963 ['1', '11', '12'] 283.7777777777777
6 5.62962962962963 ['1', '11', '12'] 282.4814814814814
7 5.62962962962963 ['1', '11', '12'] 281.5185185185183
8 5.62962962962963 ['1', '11', '12'] 281.48148148148124
9 5.62962962962963 ['1', '11', '12'] 281.48148148148124
10 5.62962962962963 ['1', '11', '12'] 281.48148148148124
11 5.62962962962963 ['1', '11', '12'] 281.48148148148124
12 5.62962962962963 ['1', '11', '12'] 281.48148148148124
13 5.62962962962963 ['1', '11', '12'] 281.48148148148124
14 5.62962962962963 ['1', '11', '12'] 281.48148148148124
15 5.62962962962963 ['1', '11', '12'] 281.48148148148124
16 5.62962962962963 ['1', '11', '12'] 281.48148148148124
17 5.62962962962963 ['1', '11', '12'] 281.48148148148124
18 5.62962962962963 ['1', '11', '12'] 281.48148148148124
19 5.62962962962963 ['1', '11', '12'] 281.48148148148124
20 5.62962962962963 ['1', '11', '12'] 281.48148148148124
21 5.62962962962963 ['1', '11', '12'] 281.48148148148124
22 5.62962962962963 ['1', '11', '12'] 281.48148148148124
23 5.62962962962963 ['1', '11', '12'] 281.48148148148124
24 5.62962962962963 ['1', '11', '12'] 281.48148148148124
25 5.62962962962963 ['1', '11', '12'] 281.48148148148124
26 5.62962962962963 ['1', '11', '12'] 281.48148148148124
27 5.62962962962963 ['1', '11', '12'] 281.48148148148124
28 5.62962962962963 ['1', '11', '12'] 281.48148148148124
29 5.62962962962963 ['1', '11', '12'] 281.48148148148124
30 5.62962962962963 ['1', '11', '12'] 281.48148148148124
31 5.62962962962963 ['1', '11', '12'] 281.48148148148124
32 5.62962962962963 ['1', '11', '12'] 281.48148148148124
33 5.62962962962963 ['1', '11', '12'] 281.48148148148124
34 5.62962962962963 ['1', '11', '12'] 281.48148148148124
35 5.62962962962963 ['1', '11', '12'] 281.48148148148124
36 5.62962962962963 ['1', '11', '12'] 281.48148148148124
37 5.62962962962963 ['1', '11', '12'] 281.48148148148124
38 5.62962962962963 ['1', '11', '12'] 281.48148148148124
39 5.62962962962963 ['1', '11', '12'] 281.48148148148124
40 5.62962962962963 ['1', '11', '12'] 281.48148148148124
41 5.62962962962963 ['1', '11', '12'] 281.48148148148124
42 5.62962962962963 ['1', '11', '12'] 281.48148148148124
43 5.62962962962963 ['1', '11', '12'] 281.48148148148124
44 5.62962962962963 ['1', '11', '12'] 281.48148148148124
45 5.62962962962963 ['1', '11', '12'] 281.48148148148124
46 5.62962962962963 ['1', '11', '12'] 281.48148148148124
47 5.62962962962963 ['1', '11', '12'] 281.48148148148124
48 5.62962962962963 ['1', '11', '12'] 281.48148148148124
49 5.62962962962963 ['1', '11', '12'] 281.48148148148124
50 5.62962962962963 ['1', '11', '12'] 281.48148148148124
51 5.62962962962963 ['1', '11', '12'] 281.48148148148124
52 5.62962962962963 ['1', '11', '12'] 281.48148148148124
53 5.62962962962963 ['1', '11', '12'] 281.48148148148124
54 5.62962962962963 ['1', '11', '12'] 281.48148148148124
55 5.62962962962963 ['1', '11', '12'] 281.48148148148124
56 5.62962962962963 ['1', '11', '12'] 281.48148148148124
57 5.62962962962963 ['1', '11', '12'] 281.48148148148124
58 5.62962962962963 ['1', '11', '12'] 281.48148148148124
59 5.62962962962963 ['1', '11', '12'] 281.48148148148124
60 5.62962962962963 ['1', '11', '12'] 281.48148148148124
61 5.62962962962963 ['1', '11', '12'] 281.48148148148124
62 5.62962962962963 ['1', '11', '12'] 281.48148148148124
63 5.62962962962963 ['1', '11', '12'] 281.48148148148124
64 5.62962962962963 ['1', '11', '12'] 281.48148148148124
65 5.62962962962963 ['1', '11', '12'] 281.48148148148124
66 5.62962962962963 ['1', '11', '12'] 281.48148148148124
67 5.62962962962963 ['1', '11', '12'] 281.48148148148124
68 5.62962962962963 ['1', '11', '12'] 281.48148148148124
69 5.62962962962963 ['1', '11', '12'] 281.48148148148124
70 5.62962962962963 ['1', '11', '12'] 281.48148148148124
71 5.62962962962963 ['1', '11', '12'] 281.48148148148124
72 5.62962962962963 ['1', '11', '12'] 281.48148148148124
73 5.62962962962963 ['1', '11', '12'] 281.48148148148124
74 5.62962962962963 ['1', '11', '12'] 281.48148148148124
75 5.62962962962963 ['1', '11', '12'] 281.48148148148124
76 5.62962962962963 ['1', '11', '12'] 281.48148148148124
77 5.62962962962963 ['1', '11', '12'] 281.48148148148124
78 5.62962962962963 ['1', '11', '12'] 281.48148148148124
79 5.62962962962963 ['1', '11', '12'] 281.48148148148124
80 5.62962962962963 ['1', '11', '12'] 281.48148148148124
81 5.62962962962963 ['1', '11', '12'] 281.48148148148124
82 5.62962962962963 ['1', '11', '12'] 281.48148148148124
83 5.62962962962963 ['1', '11', '12'] 281.48148148148124
84 5.62962962962963 ['1', '11', '12'] 281.48148148148124
85 5.62962962962963 ['1', '11', '12'] 281.48148148148124
86 5.62962962962963 ['1', '11', '12'] 281.48148148148124
87 5.62962962962963 ['1', '11', '12'] 281.48148148148124
88 5.62962962962963 ['1', '11', '12'] 281.48148148148124
89 5.62962962962963 ['1', '11', '12'] 281.48148148148124
90 5.62962962962963 ['1', '11', '12'] 281.48148148148124
91 5.62962962962963 ['1', '11', '12'] 281.48148148148124
92 5.62962962962963 ['1', '11', '12'] 281.48148148148124
93 5.62962962962963 ['1', '11', '12'] 281.48148148148124
94 5.62962962962963 ['1', '11', '12'] 281.48148148148124
95 5.62962962962963 ['1', '11', '12'] 281.48148148148124
96 5.62962962962963 ['1', '11', '12'] 281.48148148148124
97 5.62962962962963 ['1', '11', '12'] 281.48148148148124
98 5.62962962962963 ['1', '11', '12'] 281.48148148148124
99 5.62962962962963 ['1', '11', '12'] 281.48148148148124
100 5.62962962962963 ['1', '11', '12'] 281.48148148148124
101 5.62962962962963 ['1', '11', '12'] 281.48148148148124
102 5.62962962962963 ['1', '11', '12'] 281.48148148148124
103 5.62962962962963 ['1', '11', '12'] 281.48148148148124
104 5.62962962962963 ['1', '11', '12'] 281.48148148148124
105 5.62962962962963 ['1', '11', '12'] 281.48148148148124
106 5.62962962962963 ['1', '11', '12'] 281.48148148148124
107 5.62962962962963 ['1', '11', '12'] 281.48148148148124
108 5.62962962962963 ['1', '11', '12'] 281.48148148148124
109 5.62962962962963 ['1', '11', '12'] 281.48148148148124
110 5.62962962962963 ['1', '11', '12'] 281.48148148148124
111 5.62962962962963 ['1', '11', '12'] 281.48148148148124
112 5.62962962962963 ['1', '11', '12'] 281.48148148148124
113 5.62962962962963 ['1', '11', '12'] 281.48148148148124
114 5.62962962962963 ['1', '11', '12'] 281.48148148148124
115 5.62962962962963 ['1', '11', '12'] 281.48148148148124
116 5.62962962962963 ['1', '11', '12'] 281.48148148148124
117 5.62962962962963 ['1', '11', '12'] 281.48148148148124
118 5.62962962962963 ['1', '11', '12'] 281.48148148148124
119 5.62962962962963 ['1', '11', '12'] 281.48148148148124
120 5.62962962962963 ['1', '11', '12'] 281.48148148148124
121 5.62962962962963 ['1', '11', '12'] 281.48148148148124
122 5.62962962962963 ['1', '11', '12'] 281.48148148148124
123 5.62962962962963 ['1', '11', '12'] 281.48148148148124
124 5.62962962962963 ['1', '11', '12'] 281.48148148148124
125 5.62962962962963 ['1', '11', '12'] 281.48148148148124
126 5.62962962962963 ['1', '11', '12'] 281.48148148148124
127 5.62962962962963 ['1', '11', '12'] 281.48148148148124
128 5.62962962962963 ['1', '11', '12'] 281.48148148148124
129 5.62962962962963 ['1', '11', '12'] 281.48148148148124
130 5.62962962962963 ['1', '11', '12'] 281.48148148148124
131 5.62962962962963 ['1', '11', '12'] 281.48148148148124
132 5.62962962962963 ['1', '11', '12'] 281.48148148148124
133 5.62962962962963 ['1', '11', '12'] 281.48148148148124
134 5.62962962962963 ['1', '11', '12'] 281.48148148148124
135 5.62962962962963 ['1', '11', '12'] 281.48148148148124
136 5.62962962962963 ['1', '11', '12'] 281.48148148148124
137 5.62962962962963 ['1', '11', '12'] 281.48148148148124
138 5.62962962962963 ['1', '11', '12'] 281.48148148148124
139 5.62962962962963 ['1', '11', '12'] 281.48148148148124
140 5.62962962962963 ['1', '11', '12'] 281.48148148148124
141 5.62962962962963 ['1', '11', '12'] 281.48148148148124
142 5.62962962962963 ['1', '11', '12'] 281.48148148148124
143 5.62962962962963 ['1', '11', '12'] 281.48148148148124
144 5.62962962962963 ['1', '11', '12'] 281.48148148148124
145 5.62962962962963 ['1', '11', '12'] 281.48148148148124
146 5.62962962962963 ['1', '11', '12'] 281.48148148148124
147 5.62962962962963 ['1', '11', '12'] 281.48148148148124
148 5.62962962962963 ['1', '11', '12'] 281.48148148148124
149 5.62962962962963 ['1', '11', '12'] 281.48148148148124
150 5.62962962962963 ['1', '11', '12'] 281.48148148148124
151 5.62962962962963 ['1', '11', '12'] 281.48148148148124
152 5.62962962962963 ['1', '11', '12'] 281.48148148148124
153 5.62962962962963 ['1', '11', '12'] 281.48148148148124
154 5.62962962962963 ['1', '11', '12'] 281.48148148148124
155 5.62962962962963 ['1', '11', '12'] 281.48148148148124
156 5.62962962962963 ['1', '11', '12'] 281.48148148148124
157 5.62962962962963 ['1', '11', '12'] 281.48148148148124
158 5.62962962962963 ['1', '11', '12'] 281.48148148148124
159 5.62962962962963 ['1', '11', '12'] 281.48148148148124
160 5.62962962962963 ['1', '11', '12'] 281.48148148148124
161 5.62962962962963 ['1', '11', '12'] 281.48148148148124
162 5.62962962962963 ['1', '11', '12'] 281.48148148148124
163 5.62962962962963 ['1', '11', '12'] 281.48148148148124
164 5.62962962962963 ['1', '11', '12'] 281.48148148148124
165 5.62962962962963 ['1', '11', '12'] 281.48148148148124
166 5.62962962962963 ['1', '11', '12'] 281.48148148148124
167 5.62962962962963 ['1', '11', '12'] 281.48148148148124
168 5.62962962962963 ['1', '11', '12'] 281.48148148148124
169 5.62962962962963 ['1', '11', '12'] 281.48148148148124
170 5.62962962962963 ['1', '11', '12'] 281.48148148148124
171 5.62962962962963 ['1', '11', '12'] 281.48148148148124
172 5.62962962962963 ['1', '11', '12'] 281.48148148148124
173 5.62962962962963 ['1', '11', '12'] 281.48148148148124
174 5.62962962962963 ['1', '11', '12'] 281.48148148148124
175 5.62962962962963 ['1', '11', '12'] 281.48148148148124
176 5.62962962962963 ['1', '11', '12'] 281.48148148148124
177 5.62962962962963 ['1', '11', '12'] 281.48148148148124
178 5.62962962962963 ['1', '11', '12'] 281.48148148148124
179 5.62962962962963 ['1', '11', '12'] 281.48148148148124
180 5.62962962962963 ['1', '11', '12'] 281.48148148148124
181 5.62962962962963 ['1', '11', '12'] 281.48148148148124
182 5.62962962962963 ['1', '11', '12'] 281.48148148148124
183 5.62962962962963 ['1', '11', '12'] 281.48148148148124
184 5.62962962962963 ['1', '11', '12'] 281.48148148148124
185 5.62962962962963 ['1', '11', '12'] 281.48148148148124
186 5.62962962962963 ['1', '11', '12'] 281.48148148148124
187 5.62962962962963 ['1', '11', '12'] 281.48148148148124
188 5.62962962962963 ['1', '11', '12'] 281.48148148148124
189 5.62962962962963 ['1', '11', '12'] 281.48148148148124
190 5.62962962962963 ['1', '11', '12'] 281.48148148148124
191 5.62962962962963 ['1', '11', '12'] 281.48148148148124
192 5.62962962962963 ['1', '11', '12'] 281.48148148148124
193 5.62962962962963 ['1', '11', '12'] 281.48148148148124
194 5.62962962962963 ['1', '11', '12'] 281.48148148148124
195 5.62962962962963 ['1', '11', '12'] 281.48148148148124
196 5.62962962962963 ['1', '11', '12'] 281.48148148148124
197 5.62962962962963 ['1', '11', '12'] 281.48148148148124
198 5.62962962962963 ['1', '11', '12'] 281.48148148148124
199 5.62962962962963 ['1', '11', '12'] 281.48148148148124
