0 36.12280701754386 ['60', '41', '21', '52', '38', '20'] 1877.877192982456
1 35.666666666666664 ['41', '14', '17', '1', '24', '48'] 1849.1228070175437
2 35.19298245614035 ['38', '14', '20', '13', '41', '5'] 1823.157894736842
3 35.14035087719298 ['14', '17', '41', '49', '20', '48'] 1798.701754385965
4 34.91228070175438 ['41', '14', '13', '17', '48', '20'] 1780.228070175439
5 33.92982456140351 ['20', '48', '5', '8', '14', '52'] 1761.3157894736848
6 33.92982456140351 ['20', '48', '5', '8', '14', '52'] 1744.8596491228066
7 33.85964912280702 ['52', '5', '48', '8', '14', '41'] 1730.2456140350873
8 33.75438596491228 ['5', '48', '14', '52', '17', '8'] 1716.40350877193
9 33.75438596491228 ['5', '48', '14', '52', '17', '8'] 1704.2280701754385
10 33.75438596491228 ['5', '48', '14', '52', '17', '8'] 1696.5087719298253
11 33.75438596491228 ['5', '48', '14', '52', '17', '8'] 1692.8070175438588
12 33.75438596491228 ['5', '48', '14', '52', '17', '8'] 1691.140350877193
13 33.75438596491228 ['5', '48', '14', '52', '17', '8'] 1689.087719298246
14 33.75438596491228 ['5', '48', '14', '52', '17', '8'] 1687.7192982456136
15 33.75438596491228 ['5', '48', '14', '52', '17', '8'] 1687.7192982456136
16 33.75438596491228 ['5', '48', '14', '52', '17', '8'] 1687.7192982456136
17 33.75438596491228 ['5', '48', '14', '52', '17', '8'] 1687.7192982456136
18 33.75438596491228 ['5', '48', '14', '52', '17', '8'] 1687.7192982456136
19 33.75438596491228 ['5', '48', '14', '52', '17', '8'] 1687.7192982456136
20 33.75438596491228 ['5', '48', '14', '52', '17', '8'] 1687.7192982456136
21 33.75438596491228 ['5', '48', '14', '52', '17', '8'] 1687.7192982456136
22 33.75438596491228 ['5', '48', '14', '52', '17', '8'] 1687.7192982456136
23 33.75438596491228 ['5', '48', '14', '52', '17', '8'] 1687.7192982456136
24 33.75438596491228 ['5', '48', '14', '52', '17', '8'] 1687.7192982456136
25 33.75438596491228 ['5', '48', '14', '52', '17', '8'] 1687.7192982456136
26 33.75438596491228 ['5', '48', '14', '52', '17', '8'] 1687.7192982456136
27 33.75438596491228 ['5', '48', '14', '52', '17', '8'] 1687.7192982456136
28 33.75438596491228 ['5', '48', '14', '52', '17', '8'] 1687.7192982456136
29 33.75438596491228 ['5', '48', '14', '52', '17', '8'] 1687.7192982456136
30 33.75438596491228 ['5', '48', '14', '52', '17', '8'] 1687.7192982456136
31 33.75438596491228 ['5', '48', '14', '52', '17', '8'] 1687.7192982456136
32 33.75438596491228 ['5', '48', '14', '52', '17', '8'] 1687.7192982456136
33 33.75438596491228 ['5', '48', '14', '52', '17', '8'] 1687.7192982456136
34 33.75438596491228 ['5', '48', '14', '52', '17', '8'] 1687.7192982456136
35 33.75438596491228 ['5', '48', '14', '52', '17', '8'] 1687.7192982456136
36 33.75438596491228 ['5', '48', '14', '52', '17', '8'] 1687.7192982456136
37 33.75438596491228 ['5', '48', '14', '52', '17', '8'] 1687.7192982456136
38 33.75438596491228 ['5', '48', '14', '52', '17', '8'] 1687.7192982456136
39 33.75438596491228 ['5', '48', '14', '52', '17', '8'] 1687.7192982456136
40 33.75438596491228 ['5', '48', '14', '52', '17', '8'] 1687.7192982456136
41 33.75438596491228 ['5', '48', '14', '52', '17', '8'] 1687.7192982456136
42 33.75438596491228 ['5', '48', '14', '52', '17', '8'] 1687.7192982456136
43 33.75438596491228 ['5', '48', '14', '52', '17', '8'] 1687.7192982456136
44 33.75438596491228 ['5', '48', '14', '52', '17', '8'] 1687.7192982456136
45 33.75438596491228 ['5', '48', '14', '52', '17', '8'] 1687.7192982456136
46 33.75438596491228 ['5', '48', '14', '52', '17', '8'] 1687.7192982456136
47 33.75438596491228 ['5', '48', '14', '52', '17', '8'] 1687.7192982456136
48 33.75438596491228 ['5', '48', '14', '52', '17', '8'] 1687.7192982456136
49 33.75438596491228 ['5', '48', '14', '52', '17', '8'] 1687.7192982456136
50 33.75438596491228 ['5', '48', '14', '52', '17', '8'] 1687.7192982456136
51 33.75438596491228 ['5', '48', '14', '52', '17', '8'] 1687.7192982456136
52 33.75438596491228 ['5', '48', '14', '52', '17', '8'] 1687.7192982456136
53 33.75438596491228 ['5', '48', '14', '52', '17', '8'] 1687.7192982456136
54 33.75438596491228 ['5', '48', '14', '52', '17', '8'] 1687.7192982456136
55 33.75438596491228 ['5', '48', '14', '52', '17', '8'] 1687.7192982456136
56 33.75438596491228 ['5', '48', '14', '52', '17', '8'] 1687.7192982456136
57 33.75438596491228 ['5', '48', '14', '52', '17', '8'] 1687.7192982456136
58 33.75438596491228 ['5', '48', '14', '52', '17', '8'] 1687.7192982456136
59 33.75438596491228 ['5', '48', '14', '52', '17', '8'] 1687.7192982456136
60 33.75438596491228 ['5', '48', '14', '52', '17', '8'] 1687.7192982456136
61 33.75438596491228 ['5', '48', '14', '52', '17', '8'] 1687.7192982456136
62 33.75438596491228 ['5', '48', '14', '52', '17', '8'] 1687.7192982456136
63 33.75438596491228 ['5', '48', '14', '52', '17', '8'] 1687.7192982456136
64 33.75438596491228 ['5', '48', '14', '52', '17', '8'] 1687.7192982456136
65 33.75438596491228 ['5', '48', '14', '52', '17', '8'] 1687.7192982456136
66 33.75438596491228 ['5', '48', '14', '52', '17', '8'] 1687.7192982456136
67 33.75438596491228 ['5', '48', '14', '52', '17', '8'] 1687.7192982456136
68 33.75438596491228 ['5', '48', '14', '52', '17', '8'] 1687.7192982456136
69 33.75438596491228 ['5', '48', '14', '52', '17', '8'] 1687.7192982456136
70 33.75438596491228 ['5', '48', '14', '52', '17', '8'] 1687.7192982456136
71 33.75438596491228 ['5', '48', '14', '52', '17', '8'] 1687.7192982456136
72 33.75438596491228 ['5', '48', '14', '52', '17', '8'] 1687.7192982456136
73 33.75438596491228 ['5', '48', '14', '52', '17', '8'] 1687.7192982456136
74 33.75438596491228 ['5', '48', '14', '52', '17', '8'] 1687.7192982456136
75 33.75438596491228 ['5', '48', '14', '52', '17', '8'] 1687.7192982456136
76 33.75438596491228 ['5', '48', '14', '52', '17', '8'] 1687.7192982456136
77 33.75438596491228 ['5', '48', '14', '52', '17', '8'] 1687.7192982456136
78 33.75438596491228 ['5', '48', '14', '52', '17', '8'] 1687.7192982456136
79 33.75438596491228 ['5', '48', '14', '52', '17', '8'] 1687.7192982456136
80 33.75438596491228 ['5', '48', '14', '52', '17', '8'] 1687.7192982456136
81 33.75438596491228 ['5', '48', '14', '52', '17', '8'] 1687.7192982456136
82 33.75438596491228 ['5', '48', '14', '52', '17', '8'] 1687.7192982456136
83 33.75438596491228 ['5', '48', '14', '52', '17', '8'] 1687.7192982456136
84 33.75438596491228 ['5', '48', '14', '52', '17', '8'] 1687.7192982456136
85 33.75438596491228 ['5', '48', '14', '52', '17', '8'] 1687.7192982456136
86 33.75438596491228 ['5', '48', '14', '52', '17', '8'] 1687.7192982456136
87 33.75438596491228 ['5', '48', '14', '52', '17', '8'] 1687.7192982456136
88 33.75438596491228 ['5', '48', '14', '52', '17', '8'] 1687.7192982456136
89 33.75438596491228 ['5', '48', '14', '52', '17', '8'] 1687.7192982456136
90 33.75438596491228 ['5', '48', '14', '52', '17', '8'] 1687.7192982456136
91 33.75438596491228 ['5', '48', '14', '52', '17', '8'] 1687.7192982456136
92 33.75438596491228 ['5', '48', '14', '52', '17', '8'] 1687.7192982456136
93 33.75438596491228 ['5', '48', '14', '52', '17', '8'] 1687.7192982456136
94 33.75438596491228 ['5', '48', '14', '52', '17', '8'] 1687.7192982456136
95 33.75438596491228 ['5', '48', '14', '52', '17', '8'] 1687.7192982456136
96 33.75438596491228 ['5', '48', '14', '52', '17', '8'] 1687.7192982456136
97 33.75438596491228 ['5', '48', '14', '52', '17', '8'] 1687.7192982456136
98 33.75438596491228 ['5', '48', '14', '52', '17', '8'] 1687.7192982456136
99 33.75438596491228 ['5', '48', '14', '52', '17', '8'] 1687.7192982456136
100 33.75438596491228 ['5', '48', '14', '52', '17', '8'] 1687.7192982456136
101 33.75438596491228 ['5', '48', '14', '52', '17', '8'] 1687.7192982456136
102 33.75438596491228 ['5', '48', '14', '52', '17', '8'] 1687.7192982456136
103 33.75438596491228 ['5', '48', '14', '52', '17', '8'] 1687.7192982456136
104 33.75438596491228 ['5', '48', '14', '52', '17', '8'] 1687.7192982456136
105 33.75438596491228 ['5', '48', '14', '52', '17', '8'] 1687.7192982456136
106 33.75438596491228 ['5', '48', '14', '52', '17', '8'] 1687.7192982456136
107 33.75438596491228 ['5', '48', '14', '52', '17', '8'] 1687.7192982456136
108 33.75438596491228 ['5', '48', '14', '52', '17', '8'] 1687.7192982456136
109 33.75438596491228 ['5', '48', '14', '52', '17', '8'] 1687.7192982456136
110 33.75438596491228 ['5', '48', '14', '52', '17', '8'] 1687.7192982456136
111 33.75438596491228 ['5', '48', '14', '52', '17', '8'] 1687.7192982456136
112 33.75438596491228 ['5', '48', '14', '52', '17', '8'] 1687.7192982456136
113 33.75438596491228 ['5', '48', '14', '52', '17', '8'] 1687.7192982456136
114 33.75438596491228 ['5', '48', '14', '52', '17', '8'] 1687.7192982456136
115 33.75438596491228 ['5', '48', '14', '52', '17', '8'] 1687.7192982456136
116 33.75438596491228 ['5', '48', '14', '52', '17', '8'] 1687.7192982456136
117 33.75438596491228 ['5', '48', '14', '52', '17', '8'] 1687.7192982456136
118 33.75438596491228 ['5', '48', '14', '52', '17', '8'] 1687.7192982456136
119 33.75438596491228 ['5', '48', '14', '52', '17', '8'] 1687.7192982456136
120 33.75438596491228 ['5', '48', '14', '52', '17', '8'] 1687.7192982456136
121 33.75438596491228 ['5', '48', '14', '52', '17', '8'] 1687.7192982456136
122 33.75438596491228 ['5', '48', '14', '52', '17', '8'] 1687.7192982456136
123 33.75438596491228 ['5', '48', '14', '52', '17', '8'] 1687.7192982456136
124 33.75438596491228 ['5', '48', '14', '52', '17', '8'] 1687.7192982456136
125 33.75438596491228 ['5', '48', '14', '52', '17', '8'] 1687.7192982456136
126 33.75438596491228 ['5', '48', '14', '52', '17', '8'] 1687.7192982456136
127 33.75438596491228 ['5', '48', '14', '52', '17', '8'] 1687.7192982456136
128 33.75438596491228 ['5', '48', '14', '52', '17', '8'] 1687.7192982456136
129 33.75438596491228 ['5', '48', '14', '52', '17', '8'] 1687.7192982456136
130 33.75438596491228 ['5', '48', '14', '52', '17', '8'] 1687.7192982456136
131 33.75438596491228 ['5', '48', '14', '52', '17', '8'] 1687.7192982456136
132 33.75438596491228 ['5', '48', '14', '52', '17', '8'] 1687.7192982456136
133 33.75438596491228 ['5', '48', '14', '52', '17', '8'] 1687.7192982456136
134 33.75438596491228 ['5', '48', '14', '52', '17', '8'] 1687.7192982456136
135 33.75438596491228 ['5', '48', '14', '52', '17', '8'] 1687.7192982456136
136 33.75438596491228 ['5', '48', '14', '52', '17', '8'] 1687.7192982456136
137 33.75438596491228 ['5', '48', '14', '52', '17', '8'] 1687.7192982456136
138 33.75438596491228 ['5', '48', '14', '52', '17', '8'] 1687.7192982456136
139 33.75438596491228 ['5', '48', '14', '52', '17', '8'] 1687.7192982456136
140 33.75438596491228 ['5', '48', '14', '52', '17', '8'] 1687.7192982456136
141 33.75438596491228 ['5', '48', '14', '52', '17', '8'] 1687.7192982456136
142 33.75438596491228 ['5', '48', '14', '52', '17', '8'] 1687.7192982456136
143 33.75438596491228 ['5', '48', '14', '52', '17', '8'] 1687.7192982456136
144 33.75438596491228 ['5', '48', '14', '52', '17', '8'] 1687.7192982456136
145 33.75438596491228 ['5', '48', '14', '52', '17', '8'] 1687.7192982456136
146 33.75438596491228 ['5', '48', '14', '52', '17', '8'] 1687.7192982456136
147 33.75438596491228 ['5', '48', '14', '52', '17', '8'] 1687.7192982456136
148 33.75438596491228 ['5', '48', '14', '52', '17', '8'] 1687.7192982456136
149 33.75438596491228 ['5', '48', '14', '52', '17', '8'] 1687.7192982456136
150 33.75438596491228 ['5', '48', '14', '52', '17', '8'] 1687.7192982456136
151 33.75438596491228 ['5', '48', '14', '52', '17', '8'] 1687.7192982456136
152 33.75438596491228 ['5', '48', '14', '52', '17', '8'] 1687.7192982456136
153 33.75438596491228 ['5', '48', '14', '52', '17', '8'] 1687.7192982456136
154 33.75438596491228 ['5', '48', '14', '52', '17', '8'] 1687.7192982456136
155 33.75438596491228 ['5', '48', '14', '52', '17', '8'] 1687.7192982456136
156 33.75438596491228 ['5', '48', '14', '52', '17', '8'] 1687.7192982456136
157 33.75438596491228 ['5', '48', '14', '52', '17', '8'] 1687.7192982456136
158 33.75438596491228 ['5', '48', '14', '52', '17', '8'] 1687.7192982456136
159 33.75438596491228 ['5', '48', '14', '52', '17', '8'] 1687.7192982456136
160 33.75438596491228 ['5', '48', '14', '52', '17', '8'] 1687.7192982456136
161 33.75438596491228 ['5', '48', '14', '52', '17', '8'] 1687.7192982456136
162 33.75438596491228 ['5', '48', '14', '52', '17', '8'] 1687.7192982456136
163 33.75438596491228 ['5', '48', '14', '52', '17', '8'] 1687.7192982456136
164 33.75438596491228 ['5', '48', '14', '52', '17', '8'] 1687.7192982456136
165 33.75438596491228 ['5', '48', '14', '52', '17', '8'] 1687.7192982456136
166 33.75438596491228 ['5', '48', '14', '52', '17', '8'] 1687.7192982456136
167 33.75438596491228 ['5', '48', '14', '52', '17', '8'] 1687.7192982456136
168 33.75438596491228 ['5', '48', '14', '52', '17', '8'] 1687.7192982456136
169 33.75438596491228 ['5', '48', '14', '52', '17', '8'] 1687.7192982456136
170 33.75438596491228 ['5', '48', '14', '52', '17', '8'] 1687.7192982456136
171 33.75438596491228 ['5', '48', '14', '52', '17', '8'] 1687.7192982456136
172 33.75438596491228 ['5', '48', '14', '52', '17', '8'] 1687.7192982456136
173 33.75438596491228 ['5', '48', '14', '52', '17', '8'] 1687.7192982456136
174 33.73684210526316 ['48', '52', '8', '17', '5', '35'] 1687.7017543859643
175 33.73684210526316 ['48', '52', '8', '17', '5', '35'] 1687.6315789473679
176 33.56140350877193 ['48', '52', '5', '8', '14', '35'] 1687.38596491228
177 33.50877192982456 ['48', '52', '17', '8', '14', '35'] 1685.98245614035
178 33.50877192982456 ['48', '52', '17', '8', '14', '35'] 1683.9473684210516
179 33.50877192982456 ['48', '52', '17', '8', '14', '35'] 1681.0701754385962
180 33.50877192982456 ['48', '52', '17', '8', '14', '35'] 1676.736842105263
181 33.50877192982456 ['48', '52', '17', '8', '14', '35'] 1675.877192982457
182 33.50877192982456 ['48', '52', '17', '8', '14', '35'] 1675.491228070177
183 33.50877192982456 ['48', '52', '17', '8', '14', '35'] 1675.4385964912296
184 33.50877192982456 ['48', '52', '17', '8', '14', '35'] 1675.4385964912296
185 33.50877192982456 ['48', '52', '17', '8', '14', '35'] 1675.4385964912296
186 33.50877192982456 ['48', '52', '17', '8', '14', '35'] 1675.4385964912296
187 33.50877192982456 ['48', '52', '17', '8', '14', '35'] 1675.4385964912296
188 33.50877192982456 ['48', '52', '17', '8', '14', '35'] 1675.4385964912296
189 33.50877192982456 ['48', '52', '17', '8', '14', '35'] 1675.4385964912296
190 33.50877192982456 ['48', '52', '17', '8', '14', '35'] 1675.4385964912296
191 33.50877192982456 ['48', '52', '17', '8', '14', '35'] 1675.4385964912296
192 33.50877192982456 ['48', '52', '17', '8', '14', '35'] 1675.4385964912296
193 33.50877192982456 ['48', '52', '17', '8', '14', '35'] 1675.4385964912296
194 33.50877192982456 ['48', '52', '17', '8', '14', '35'] 1675.4385964912296
195 33.50877192982456 ['48', '52', '17', '8', '14', '35'] 1675.4385964912296
196 33.50877192982456 ['48', '52', '17', '8', '14', '35'] 1675.4385964912296
197 33.50877192982456 ['48', '52', '17', '8', '14', '35'] 1675.4385964912296
198 33.50877192982456 ['48', '52', '17', '8', '14', '35'] 1675.4385964912296
199 33.50877192982456 ['48', '52', '17', '8', '14', '35'] 1675.4385964912296
