0 145.94642857142858 ['43', '17', '50', '34', '56', '10'] 7614.607142857143
1 145.64285714285714 ['22', '24', '49', '17', '43', '51'] 7496.089285714288
2 144.05357142857142 ['52', '40', '56', '43', '36', '45'] 7418.82142857143
3 142.39285714285714 ['43', '56', '15', '50', '17', '36'] 7337.999999999998
4 140.375 ['43', '45', '30', '17', '52', '36'] 7263.196428571428
5 139.78571428571428 ['43', '17', '3', '24', '51', '15'] 7192.142857142856
6 138.94642857142858 ['10', '56', '17', '36', '24', '43'] 7108.121867167921
7 138.19642857142858 ['17', '43', '56', '24', '10', '41'] 7045.65758145363
8 135.17543859649123 ['43', '24', '56', '17', '41'] 6990.264724310776
9 135.17543859649123 ['43', '24', '56', '17', '41'] 6949.812030075191
10 133.9655172413793 ['56', '24', '17', '43'] 6912.0121964393775
11 132.3793103448276 ['24', '17', '43', '41'] 6840.338561922045
12 131.27118644067798 ['43', '24', '17'] 6761.955839884636
13 131.27118644067798 ['43', '24', '17'] 6708.793245167277
14 131.27118644067798 ['43', '24', '17'] 6637.23308929835
15 131.27118644067798 ['43', '24', '17'] 6580.181180596146
16 131.27118644067798 ['43', '24', '17'] 6563.559322033902
17 131.27118644067798 ['43', '24', '17'] 6563.559322033902
18 131.27118644067798 ['43', '24', '17'] 6563.559322033902
19 131.27118644067798 ['43', '24', '17'] 6563.559322033902
20 131.27118644067798 ['43', '24', '17'] 6563.559322033902
21 131.27118644067798 ['43', '24', '17'] 6563.559322033902
22 131.27118644067798 ['43', '24', '17'] 6563.559322033902
23 131.27118644067798 ['43', '24', '17'] 6563.559322033902
24 131.27118644067798 ['43', '24', '17'] 6563.559322033902
25 131.27118644067798 ['43', '24', '17'] 6563.559322033902
26 131.27118644067798 ['43', '24', '17'] 6563.559322033902
27 131.27118644067798 ['43', '24', '17'] 6563.559322033902
28 131.27118644067798 ['43', '24', '17'] 6563.559322033902
29 131.27118644067798 ['43', '24', '17'] 6563.559322033902
30 131.27118644067798 ['43', '24', '17'] 6563.559322033902
31 131.27118644067798 ['43', '24', '17'] 6563.559322033902
32 131.27118644067798 ['43', '24', '17'] 6563.559322033902
33 131.27118644067798 ['43', '24', '17'] 6563.559322033902
34 131.27118644067798 ['43', '24', '17'] 6563.559322033902
35 131.27118644067798 ['43', '24', '17'] 6563.559322033902
36 131.27118644067798 ['43', '24', '17'] 6563.559322033902
37 131.27118644067798 ['43', '24', '17'] 6563.559322033902
38 131.27118644067798 ['43', '24', '17'] 6563.559322033902
39 131.27118644067798 ['43', '24', '17'] 6563.559322033902
40 131.27118644067798 ['43', '24', '17'] 6563.559322033902
41 131.27118644067798 ['43', '24', '17'] 6563.559322033902
42 131.27118644067798 ['43', '24', '17'] 6563.559322033902
43 131.27118644067798 ['43', '24', '17'] 6563.559322033902
44 131.27118644067798 ['43', '24', '17'] 6563.559322033902
45 131.27118644067798 ['43', '24', '17'] 6563.559322033902
46 131.27118644067798 ['43', '24', '17'] 6563.559322033902
47 131.27118644067798 ['43', '24', '17'] 6563.559322033902
48 131.27118644067798 ['43', '24', '17'] 6563.559322033902
49 131.27118644067798 ['43', '24', '17'] 6563.559322033902
50 131.27118644067798 ['43', '24', '17'] 6563.559322033902
51 131.27118644067798 ['43', '24', '17'] 6563.559322033902
52 131.27118644067798 ['43', '24', '17'] 6563.559322033902
53 131.27118644067798 ['43', '24', '17'] 6563.559322033902
54 131.27118644067798 ['43', '24', '17'] 6563.559322033902
55 131.27118644067798 ['43', '24', '17'] 6563.559322033902
56 131.27118644067798 ['43', '24', '17'] 6563.559322033902
57 131.27118644067798 ['43', '24', '17'] 6563.559322033902
58 131.27118644067798 ['43', '24', '17'] 6563.559322033902
59 131.27118644067798 ['43', '24', '17'] 6563.559322033902
60 131.27118644067798 ['43', '24', '17'] 6563.559322033902
61 131.27118644067798 ['43', '24', '17'] 6563.559322033902
62 131.27118644067798 ['43', '24', '17'] 6563.559322033902
63 131.27118644067798 ['43', '24', '17'] 6563.559322033902
64 131.27118644067798 ['43', '24', '17'] 6563.559322033902
65 131.27118644067798 ['43', '24', '17'] 6563.559322033902
66 131.27118644067798 ['43', '24', '17'] 6563.559322033902
67 131.27118644067798 ['43', '24', '17'] 6563.559322033902
68 131.27118644067798 ['43', '24', '17'] 6563.559322033902
69 131.27118644067798 ['43', '24', '17'] 6563.559322033902
70 131.27118644067798 ['43', '24', '17'] 6563.559322033902
71 131.27118644067798 ['43', '24', '17'] 6563.559322033902
72 131.27118644067798 ['43', '24', '17'] 6563.559322033902
73 131.27118644067798 ['43', '24', '17'] 6563.559322033902
74 131.27118644067798 ['43', '24', '17'] 6563.559322033902
75 131.27118644067798 ['43', '24', '17'] 6563.559322033902
76 131.27118644067798 ['43', '24', '17'] 6563.559322033902
77 131.27118644067798 ['43', '24', '17'] 6563.559322033902
78 131.27118644067798 ['43', '24', '17'] 6563.559322033902
79 131.27118644067798 ['43', '24', '17'] 6563.559322033902
80 131.27118644067798 ['43', '24', '17'] 6563.559322033902
81 131.27118644067798 ['43', '24', '17'] 6563.559322033902
82 131.27118644067798 ['43', '24', '17'] 6563.559322033902
83 131.27118644067798 ['43', '24', '17'] 6563.559322033902
84 131.27118644067798 ['43', '24', '17'] 6563.559322033902
85 131.27118644067798 ['43', '24', '17'] 6563.559322033902
86 131.27118644067798 ['43', '24', '17'] 6563.559322033902
87 131.27118644067798 ['43', '24', '17'] 6563.559322033902
88 131.27118644067798 ['43', '24', '17'] 6563.559322033902
89 131.27118644067798 ['43', '24', '17'] 6563.559322033902
90 131.27118644067798 ['43', '24', '17'] 6563.559322033902
91 131.27118644067798 ['43', '24', '17'] 6563.559322033902
92 131.27118644067798 ['43', '24', '17'] 6563.559322033902
93 131.27118644067798 ['43', '24', '17'] 6563.559322033902
94 131.27118644067798 ['43', '24', '17'] 6563.559322033902
95 131.27118644067798 ['43', '24', '17'] 6563.559322033902
96 131.27118644067798 ['43', '24', '17'] 6563.559322033902
97 131.27118644067798 ['43', '24', '17'] 6563.559322033902
98 131.27118644067798 ['43', '24', '17'] 6563.559322033902
99 131.27118644067798 ['43', '24', '17'] 6563.559322033902
100 131.27118644067798 ['43', '24', '17'] 6563.559322033902
101 131.27118644067798 ['43', '24', '17'] 6563.559322033902
102 131.27118644067798 ['43', '24', '17'] 6563.559322033902
103 131.27118644067798 ['43', '24', '17'] 6563.559322033902
104 131.27118644067798 ['43', '24', '17'] 6563.559322033902
105 131.27118644067798 ['43', '24', '17'] 6563.559322033902
106 131.27118644067798 ['43', '24', '17'] 6563.559322033902
107 131.27118644067798 ['43', '24', '17'] 6563.559322033902
108 131.27118644067798 ['43', '24', '17'] 6563.559322033902
109 131.27118644067798 ['43', '24', '17'] 6563.559322033902
110 131.27118644067798 ['43', '24', '17'] 6563.559322033902
111 131.27118644067798 ['43', '24', '17'] 6563.559322033902
112 131.27118644067798 ['43', '24', '17'] 6563.559322033902
113 131.27118644067798 ['43', '24', '17'] 6563.559322033902
114 131.27118644067798 ['43', '24', '17'] 6563.559322033902
115 131.27118644067798 ['43', '24', '17'] 6563.559322033902
116 131.27118644067798 ['43', '24', '17'] 6563.559322033902
117 131.27118644067798 ['43', '24', '17'] 6563.559322033902
118 131.27118644067798 ['43', '24', '17'] 6563.559322033902
119 131.27118644067798 ['43', '24', '17'] 6563.559322033902
120 131.27118644067798 ['43', '24', '17'] 6563.559322033902
121 131.27118644067798 ['43', '24', '17'] 6563.559322033902
122 131.27118644067798 ['43', '24', '17'] 6563.559322033902
123 131.27118644067798 ['43', '24', '17'] 6563.559322033902
124 131.27118644067798 ['43', '24', '17'] 6563.559322033902
125 131.27118644067798 ['43', '24', '17'] 6563.559322033902
126 131.27118644067798 ['43', '24', '17'] 6563.559322033902
127 131.27118644067798 ['43', '24', '17'] 6563.559322033902
128 131.27118644067798 ['43', '24', '17'] 6563.559322033902
129 131.27118644067798 ['43', '24', '17'] 6563.559322033902
130 131.27118644067798 ['43', '24', '17'] 6563.559322033902
131 131.27118644067798 ['43', '24', '17'] 6563.559322033902
132 131.27118644067798 ['43', '24', '17'] 6563.559322033902
133 131.27118644067798 ['43', '24', '17'] 6563.559322033902
134 131.27118644067798 ['43', '24', '17'] 6563.559322033902
135 131.27118644067798 ['43', '24', '17'] 6563.559322033902
136 131.27118644067798 ['43', '24', '17'] 6563.559322033902
137 131.27118644067798 ['43', '24', '17'] 6563.559322033902
138 131.27118644067798 ['43', '24', '17'] 6563.559322033902
139 131.27118644067798 ['43', '24', '17'] 6563.559322033902
140 131.27118644067798 ['43', '24', '17'] 6563.559322033902
141 131.27118644067798 ['43', '24', '17'] 6563.559322033902
142 131.27118644067798 ['43', '24', '17'] 6563.559322033902
143 131.27118644067798 ['43', '24', '17'] 6563.559322033902
144 131.27118644067798 ['43', '24', '17'] 6563.559322033902
145 131.27118644067798 ['43', '24', '17'] 6563.559322033902
146 131.27118644067798 ['43', '24', '17'] 6563.559322033902
147 131.27118644067798 ['43', '24', '17'] 6563.559322033902
148 131.27118644067798 ['43', '24', '17'] 6563.559322033902
149 131.27118644067798 ['43', '24', '17'] 6563.559322033902
150 131.27118644067798 ['43', '24', '17'] 6563.559322033902
151 131.27118644067798 ['43', '24', '17'] 6563.559322033902
152 131.27118644067798 ['43', '24', '17'] 6563.559322033902
153 131.27118644067798 ['43', '24', '17'] 6563.559322033902
154 131.27118644067798 ['43', '24', '17'] 6563.559322033902
155 131.27118644067798 ['43', '24', '17'] 6563.559322033902
156 131.27118644067798 ['43', '24', '17'] 6563.559322033902
157 131.27118644067798 ['43', '24', '17'] 6563.559322033902
158 131.27118644067798 ['43', '24', '17'] 6563.559322033902
159 131.27118644067798 ['43', '24', '17'] 6563.559322033902
160 131.27118644067798 ['43', '24', '17'] 6563.559322033902
161 131.27118644067798 ['43', '24', '17'] 6563.559322033902
162 131.27118644067798 ['43', '24', '17'] 6563.559322033902
163 131.27118644067798 ['43', '24', '17'] 6563.559322033902
164 131.27118644067798 ['43', '24', '17'] 6563.559322033902
165 131.27118644067798 ['43', '24', '17'] 6563.559322033902
166 131.27118644067798 ['43', '24', '17'] 6563.559322033902
167 131.27118644067798 ['43', '24', '17'] 6563.559322033902
168 131.27118644067798 ['43', '24', '17'] 6563.559322033902
169 131.27118644067798 ['43', '24', '17'] 6563.559322033902
170 131.27118644067798 ['43', '24', '17'] 6563.559322033902
171 131.27118644067798 ['43', '24', '17'] 6563.559322033902
172 131.27118644067798 ['43', '24', '17'] 6563.559322033902
173 131.27118644067798 ['43', '24', '17'] 6563.559322033902
174 131.27118644067798 ['43', '24', '17'] 6563.559322033902
175 131.27118644067798 ['43', '24', '17'] 6563.559322033902
176 131.27118644067798 ['43', '24', '17'] 6563.559322033902
177 131.27118644067798 ['43', '24', '17'] 6563.559322033902
178 131.27118644067798 ['43', '24', '17'] 6563.559322033902
179 131.27118644067798 ['43', '24', '17'] 6563.559322033902
180 131.27118644067798 ['43', '24', '17'] 6563.559322033902
181 131.27118644067798 ['43', '24', '17'] 6563.559322033902
182 131.27118644067798 ['43', '24', '17'] 6563.559322033902
183 131.27118644067798 ['43', '24', '17'] 6563.559322033902
184 131.27118644067798 ['43', '24', '17'] 6563.559322033902
185 131.27118644067798 ['43', '24', '17'] 6563.559322033902
186 131.27118644067798 ['43', '24', '17'] 6563.559322033902
187 131.27118644067798 ['43', '24', '17'] 6563.559322033902
188 131.27118644067798 ['43', '24', '17'] 6563.559322033902
189 131.27118644067798 ['43', '24', '17'] 6563.559322033902
190 131.27118644067798 ['43', '24', '17'] 6563.559322033902
191 131.27118644067798 ['43', '24', '17'] 6563.559322033902
192 131.27118644067798 ['43', '24', '17'] 6563.559322033902
193 131.27118644067798 ['43', '24', '17'] 6563.559322033902
194 131.27118644067798 ['43', '24', '17'] 6563.559322033902
195 131.27118644067798 ['43', '24', '17'] 6563.559322033902
196 131.27118644067798 ['43', '24', '17'] 6563.559322033902
197 131.27118644067798 ['43', '24', '17'] 6563.559322033902
198 131.27118644067798 ['43', '24', '17'] 6563.559322033902
199 131.27118644067798 ['43', '24', '17'] 6563.559322033902
