0 28.153846153846153 ['28', '8', '26', '22'] 1457.7179487179487
1 28.025641025641026 ['10', '40', '36', '14'] 1439.5128205128206
2 27.94871794871795 ['26', '28', '14', '8'] 1425.3333333333335
3 27.692307692307693 ['14', '40', '8', '36'] 1412.2564102564104
4 27.692307692307693 ['14', '40', '8', '36'] 1402.9487179487169
5 27.692307692307693 ['14', '40', '8', '36'] 1396.9999999999998
6 27.692307692307693 ['14', '40', '8', '36'] 1392.2820512820517
7 27.692307692307693 ['14', '40', '8', '36'] 1389.0256410256413
8 27.692307692307693 ['14', '40', '8', '36'] 1386.6923076923097
9 27.692307692307693 ['14', '40', '8', '36'] 1384.6153846153843
10 27.692307692307693 ['14', '40', '8', '36'] 1384.6153846153843
11 27.692307692307693 ['14', '40', '8', '36'] 1384.6153846153843
12 27.692307692307693 ['14', '40', '8', '36'] 1384.6153846153843
13 27.692307692307693 ['14', '40', '8', '36'] 1384.6153846153843
14 27.692307692307693 ['14', '40', '8', '36'] 1384.6153846153843
15 27.692307692307693 ['14', '40', '8', '36'] 1384.6153846153843
16 27.692307692307693 ['14', '40', '8', '36'] 1384.6153846153843
17 27.692307692307693 ['14', '40', '8', '36'] 1384.6153846153843
18 27.692307692307693 ['14', '40', '8', '36'] 1384.6153846153843
19 27.692307692307693 ['14', '40', '8', '36'] 1384.6153846153843
20 27.692307692307693 ['14', '40', '8', '36'] 1384.6153846153843
21 27.692307692307693 ['14', '40', '8', '36'] 1384.6153846153843
22 27.692307692307693 ['14', '40', '8', '36'] 1384.6153846153843
23 27.692307692307693 ['14', '40', '8', '36'] 1384.6153846153843
24 27.692307692307693 ['14', '40', '8', '36'] 1384.6153846153843
25 27.692307692307693 ['14', '40', '8', '36'] 1384.6153846153843
26 27.692307692307693 ['14', '40', '8', '36'] 1384.6153846153843
27 27.692307692307693 ['14', '40', '8', '36'] 1384.6153846153843
28 27.692307692307693 ['14', '40', '8', '36'] 1384.6153846153843
29 27.692307692307693 ['14', '40', '8', '36'] 1384.6153846153843
30 27.692307692307693 ['14', '40', '8', '36'] 1384.6153846153843
31 27.692307692307693 ['14', '40', '8', '36'] 1384.6153846153843
32 27.692307692307693 ['14', '40', '8', '36'] 1384.6153846153843
33 27.692307692307693 ['14', '40', '8', '36'] 1384.6153846153843
34 27.692307692307693 ['14', '40', '8', '36'] 1384.6153846153843
35 27.692307692307693 ['14', '40', '8', '36'] 1384.6153846153843
36 27.692307692307693 ['14', '40', '8', '36'] 1384.6153846153843
37 27.692307692307693 ['14', '40', '8', '36'] 1384.6153846153843
38 27.692307692307693 ['14', '40', '8', '36'] 1384.6153846153843
39 27.692307692307693 ['14', '40', '8', '36'] 1384.6153846153843
40 27.692307692307693 ['14', '40', '8', '36'] 1384.6153846153843
41 27.692307692307693 ['14', '40', '8', '36'] 1384.6153846153843
42 27.692307692307693 ['14', '40', '8', '36'] 1384.6153846153843
43 27.692307692307693 ['14', '40', '8', '36'] 1384.6153846153843
44 27.692307692307693 ['14', '40', '8', '36'] 1384.6153846153843
45 27.692307692307693 ['14', '40', '8', '36'] 1384.6153846153843
46 27.692307692307693 ['14', '40', '8', '36'] 1384.6153846153843
47 27.692307692307693 ['14', '40', '8', '36'] 1384.6153846153843
48 27.692307692307693 ['14', '40', '8', '36'] 1384.6153846153843
49 27.692307692307693 ['14', '40', '8', '36'] 1384.6153846153843
50 27.692307692307693 ['14', '40', '8', '36'] 1384.6153846153843
51 27.692307692307693 ['14', '40', '8', '36'] 1384.6153846153843
52 27.692307692307693 ['14', '40', '8', '36'] 1384.6153846153843
53 27.692307692307693 ['14', '40', '8', '36'] 1384.6153846153843
54 27.692307692307693 ['14', '40', '8', '36'] 1384.6153846153843
55 27.692307692307693 ['14', '40', '8', '36'] 1384.6153846153843
56 27.692307692307693 ['14', '40', '8', '36'] 1384.6153846153843
57 27.692307692307693 ['14', '40', '8', '36'] 1384.6153846153843
58 27.692307692307693 ['14', '40', '8', '36'] 1384.6153846153843
59 27.692307692307693 ['14', '40', '8', '36'] 1384.6153846153843
60 27.692307692307693 ['14', '40', '8', '36'] 1384.6153846153843
61 27.692307692307693 ['14', '40', '8', '36'] 1384.6153846153843
62 27.692307692307693 ['14', '40', '8', '36'] 1384.6153846153843
63 27.692307692307693 ['14', '40', '8', '36'] 1384.6153846153843
64 27.692307692307693 ['14', '40', '8', '36'] 1384.6153846153843
65 27.692307692307693 ['14', '40', '8', '36'] 1384.6153846153843
66 27.692307692307693 ['14', '40', '8', '36'] 1384.6153846153843
67 27.692307692307693 ['14', '40', '8', '36'] 1384.6153846153843
68 27.692307692307693 ['14', '40', '8', '36'] 1384.6153846153843
69 27.692307692307693 ['14', '40', '8', '36'] 1384.6153846153843
70 27.692307692307693 ['14', '40', '8', '36'] 1384.6153846153843
71 27.692307692307693 ['14', '40', '8', '36'] 1384.6153846153843
72 27.692307692307693 ['14', '40', '8', '36'] 1384.6153846153843
73 27.692307692307693 ['14', '40', '8', '36'] 1384.6153846153843
74 27.692307692307693 ['14', '40', '8', '36'] 1384.6153846153843
75 27.692307692307693 ['14', '40', '8', '36'] 1384.6153846153843
76 27.692307692307693 ['14', '40', '8', '36'] 1384.6153846153843
77 27.692307692307693 ['14', '40', '8', '36'] 1384.6153846153843
78 27.692307692307693 ['14', '40', '8', '36'] 1384.6153846153843
79 27.692307692307693 ['14', '40', '8', '36'] 1384.6153846153843
80 27.692307692307693 ['14', '40', '8', '36'] 1384.6153846153843
81 27.692307692307693 ['14', '40', '8', '36'] 1384.6153846153843
82 27.692307692307693 ['14', '40', '8', '36'] 1384.6153846153843
83 27.692307692307693 ['14', '40', '8', '36'] 1384.6153846153843
84 27.692307692307693 ['14', '40', '8', '36'] 1384.6153846153843
85 27.692307692307693 ['14', '40', '8', '36'] 1384.6153846153843
86 27.692307692307693 ['14', '40', '8', '36'] 1384.6153846153843
87 27.692307692307693 ['14', '40', '8', '36'] 1384.6153846153843
88 27.692307692307693 ['14', '40', '8', '36'] 1384.6153846153843
89 27.692307692307693 ['14', '40', '8', '36'] 1384.6153846153843
90 27.692307692307693 ['14', '40', '8', '36'] 1384.6153846153843
91 27.692307692307693 ['14', '40', '8', '36'] 1384.6153846153843
92 27.692307692307693 ['14', '40', '8', '36'] 1384.6153846153843
93 27.692307692307693 ['14', '40', '8', '36'] 1384.6153846153843
94 27.692307692307693 ['14', '40', '8', '36'] 1384.6153846153843
95 27.692307692307693 ['14', '40', '8', '36'] 1384.6153846153843
96 27.692307692307693 ['14', '40', '8', '36'] 1384.6153846153843
97 27.692307692307693 ['14', '40', '8', '36'] 1384.6153846153843
98 27.692307692307693 ['14', '40', '8', '36'] 1384.6153846153843
99 27.692307692307693 ['14', '40', '8', '36'] 1384.6153846153843
100 27.692307692307693 ['14', '40', '8', '36'] 1384.6153846153843
101 27.692307692307693 ['14', '40', '8', '36'] 1384.6153846153843
102 27.692307692307693 ['14', '40', '8', '36'] 1384.6153846153843
103 27.692307692307693 ['14', '40', '8', '36'] 1384.6153846153843
104 27.692307692307693 ['14', '40', '8', '36'] 1384.6153846153843
105 27.692307692307693 ['14', '40', '8', '36'] 1384.6153846153843
106 27.692307692307693 ['14', '40', '8', '36'] 1384.6153846153843
107 27.692307692307693 ['14', '40', '8', '36'] 1384.6153846153843
108 27.692307692307693 ['14', '40', '8', '36'] 1384.6153846153843
109 27.692307692307693 ['14', '40', '8', '36'] 1384.6153846153843
110 27.692307692307693 ['14', '40', '8', '36'] 1384.6153846153843
111 27.692307692307693 ['14', '40', '8', '36'] 1384.6153846153843
112 27.692307692307693 ['14', '40', '8', '36'] 1384.6153846153843
113 27.692307692307693 ['14', '40', '8', '36'] 1384.6153846153843
114 27.692307692307693 ['14', '40', '8', '36'] 1384.6153846153843
115 27.692307692307693 ['14', '40', '8', '36'] 1384.6153846153843
116 27.692307692307693 ['14', '40', '8', '36'] 1384.6153846153843
117 27.692307692307693 ['14', '40', '8', '36'] 1384.6153846153843
118 27.692307692307693 ['14', '40', '8', '36'] 1384.6153846153843
119 27.692307692307693 ['14', '40', '8', '36'] 1384.6153846153843
120 27.692307692307693 ['14', '40', '8', '36'] 1384.6153846153843
121 27.692307692307693 ['14', '40', '8', '36'] 1384.6153846153843
122 27.692307692307693 ['14', '40', '8', '36'] 1384.6153846153843
123 27.692307692307693 ['14', '40', '8', '36'] 1384.6153846153843
124 27.692307692307693 ['14', '40', '8', '36'] 1384.6153846153843
125 27.692307692307693 ['14', '40', '8', '36'] 1384.6153846153843
126 27.692307692307693 ['14', '40', '8', '36'] 1384.6153846153843
127 27.692307692307693 ['14', '40', '8', '36'] 1384.6153846153843
128 27.692307692307693 ['14', '40', '8', '36'] 1384.6153846153843
129 27.692307692307693 ['14', '40', '8', '36'] 1384.6153846153843
130 27.692307692307693 ['14', '40', '8', '36'] 1384.6153846153843
131 27.692307692307693 ['14', '40', '8', '36'] 1384.6153846153843
132 27.692307692307693 ['14', '40', '8', '36'] 1384.6153846153843
133 27.692307692307693 ['14', '40', '8', '36'] 1384.6153846153843
134 27.692307692307693 ['14', '40', '8', '36'] 1384.6153846153843
135 27.692307692307693 ['14', '40', '8', '36'] 1384.6153846153843
136 27.692307692307693 ['14', '40', '8', '36'] 1384.6153846153843
137 27.692307692307693 ['14', '40', '8', '36'] 1384.6153846153843
138 27.692307692307693 ['14', '40', '8', '36'] 1384.6153846153843
139 27.692307692307693 ['14', '40', '8', '36'] 1384.6153846153843
140 27.692307692307693 ['14', '40', '8', '36'] 1384.6153846153843
141 27.692307692307693 ['14', '40', '8', '36'] 1384.6153846153843
142 27.692307692307693 ['14', '40', '8', '36'] 1384.6153846153843
143 27.692307692307693 ['14', '40', '8', '36'] 1384.6153846153843
144 27.692307692307693 ['14', '40', '8', '36'] 1384.6153846153843
145 27.692307692307693 ['14', '40', '8', '36'] 1384.6153846153843
146 27.692307692307693 ['14', '40', '8', '36'] 1384.6153846153843
147 27.692307692307693 ['14', '40', '8', '36'] 1384.6153846153843
148 27.692307692307693 ['14', '40', '8', '36'] 1384.6153846153843
149 27.692307692307693 ['14', '40', '8', '36'] 1384.6153846153843
150 27.692307692307693 ['14', '40', '8', '36'] 1384.6153846153843
151 27.692307692307693 ['14', '40', '8', '36'] 1384.6153846153843
152 27.692307692307693 ['14', '40', '8', '36'] 1384.6153846153843
153 27.692307692307693 ['14', '40', '8', '36'] 1384.6153846153843
154 27.692307692307693 ['14', '40', '8', '36'] 1384.6153846153843
155 27.692307692307693 ['14', '40', '8', '36'] 1384.6153846153843
156 27.692307692307693 ['14', '40', '8', '36'] 1384.6153846153843
157 27.692307692307693 ['14', '40', '8', '36'] 1384.6153846153843
158 27.692307692307693 ['14', '40', '8', '36'] 1384.6153846153843
159 27.692307692307693 ['14', '40', '8', '36'] 1384.6153846153843
160 27.692307692307693 ['14', '40', '8', '36'] 1384.6153846153843
161 27.692307692307693 ['14', '40', '8', '36'] 1384.6153846153843
162 27.692307692307693 ['14', '40', '8', '36'] 1384.6153846153843
163 27.692307692307693 ['14', '40', '8', '36'] 1384.6153846153843
164 27.692307692307693 ['14', '40', '8', '36'] 1384.6153846153843
165 27.692307692307693 ['14', '40', '8', '36'] 1384.6153846153843
166 27.692307692307693 ['14', '40', '8', '36'] 1384.6153846153843
167 27.692307692307693 ['14', '40', '8', '36'] 1384.6153846153843
168 27.692307692307693 ['14', '40', '8', '36'] 1384.6153846153843
169 27.692307692307693 ['14', '40', '8', '36'] 1384.6153846153843
170 27.692307692307693 ['14', '40', '8', '36'] 1384.6153846153843
171 27.692307692307693 ['14', '40', '8', '36'] 1384.6153846153843
172 27.692307692307693 ['14', '40', '8', '36'] 1384.6153846153843
173 27.692307692307693 ['14', '40', '8', '36'] 1384.6153846153843
174 27.692307692307693 ['14', '40', '8', '36'] 1384.6153846153843
175 27.692307692307693 ['14', '40', '8', '36'] 1384.6153846153843
176 27.692307692307693 ['14', '40', '8', '36'] 1384.6153846153843
177 27.692307692307693 ['14', '40', '8', '36'] 1384.6153846153843
178 27.692307692307693 ['14', '40', '8', '36'] 1384.6153846153843
179 27.692307692307693 ['14', '40', '8', '36'] 1384.6153846153843
180 27.692307692307693 ['14', '40', '8', '36'] 1384.6153846153843
181 27.692307692307693 ['14', '40', '8', '36'] 1384.6153846153843
182 27.692307692307693 ['14', '40', '8', '36'] 1384.6153846153843
183 27.692307692307693 ['14', '40', '8', '36'] 1384.6153846153843
184 27.692307692307693 ['14', '40', '8', '36'] 1384.6153846153843
185 27.692307692307693 ['14', '40', '8', '36'] 1384.6153846153843
186 27.692307692307693 ['14', '40', '8', '36'] 1384.6153846153843
187 27.692307692307693 ['14', '40', '8', '36'] 1384.6153846153843
188 27.692307692307693 ['14', '40', '8', '36'] 1384.6153846153843
189 27.692307692307693 ['14', '40', '8', '36'] 1384.6153846153843
190 27.692307692307693 ['14', '40', '8', '36'] 1384.6153846153843
191 27.692307692307693 ['14', '40', '8', '36'] 1384.6153846153843
192 27.692307692307693 ['14', '40', '8', '36'] 1384.6153846153843
193 27.692307692307693 ['14', '40', '8', '36'] 1384.6153846153843
194 27.692307692307693 ['14', '40', '8', '36'] 1384.6153846153843
195 27.692307692307693 ['14', '40', '8', '36'] 1384.6153846153843
196 27.692307692307693 ['14', '40', '8', '36'] 1384.6153846153843
197 27.692307692307693 ['14', '40', '8', '36'] 1384.6153846153843
198 27.692307692307693 ['14', '40', '8', '36'] 1384.6153846153843
199 27.692307692307693 ['14', '40', '8', '36'] 1384.6153846153843
