0 7.176470588235294 ['17', '23', '16'] 379.00000000000006
1 7.147058823529412 ['23', '17', '9'] 369.6176470588233
2 7.117647058823529 ['9', '5', '23'] 363.70588235294116
3 7.117647058823529 ['9', '5', '23'] 359.264705882353
4 7.117647058823529 ['9', '5', '23'] 357.6176470588237
5 7.117647058823529 ['9', '5', '23'] 357.02941176470574
6 7.117647058823529 ['9', '5', '23'] 356.7058823529411
7 7.117647058823529 ['9', '5', '23'] 356.0588235294119
8 7.117647058823529 ['9', '5', '23'] 355.88235294117675
9 7.117647058823529 ['9', '5', '23'] 355.88235294117675
10 7.117647058823529 ['9', '5', '23'] 355.88235294117675
11 7.117647058823529 ['9', '5', '23'] 355.88235294117675
12 7.117647058823529 ['9', '5', '23'] 355.88235294117675
13 7.117647058823529 ['9', '5', '23'] 355.88235294117675
14 7.117647058823529 ['9', '5', '23'] 355.88235294117675
15 7.117647058823529 ['9', '5', '23'] 355.88235294117675
16 7.117647058823529 ['9', '5', '23'] 355.88235294117675
17 7.117647058823529 ['9', '5', '23'] 355.88235294117675
18 7.117647058823529 ['9', '5', '23'] 355.88235294117675
19 7.117647058823529 ['9', '5', '23'] 355.88235294117675
20 7.117647058823529 ['9', '5', '23'] 355.88235294117675
21 7.117647058823529 ['9', '5', '23'] 355.88235294117675
22 7.117647058823529 ['9', '5', '23'] 355.88235294117675
23 7.117647058823529 ['9', '5', '23'] 355.88235294117675
24 7.117647058823529 ['9', '5', '23'] 355.88235294117675
25 7.117647058823529 ['9', '5', '23'] 355.88235294117675
26 7.117647058823529 ['9', '5', '23'] 355.88235294117675
27 7.117647058823529 ['9', '5', '23'] 355.88235294117675
28 7.117647058823529 ['9', '5', '23'] 355.88235294117675
29 7.117647058823529 ['9', '5', '23'] 355.88235294117675
30 7.117647058823529 ['9', '5', '23'] 355.88235294117675
31 7.117647058823529 ['9', '5', '23'] 355.88235294117675
32 7.117647058823529 ['9', '5', '23'] 355.88235294117675
33 7.117647058823529 ['9', '5', '23'] 355.88235294117675
34 7.117647058823529 ['9', '5', '23'] 355.88235294117675
35 7.117647058823529 ['9', '5', '23'] 355.88235294117675
36 7.117647058823529 ['9', '5', '23'] 355.88235294117675
37 7.117647058823529 ['9', '5', '23'] 355.88235294117675
38 7.117647058823529 ['9', '5', '23'] 355.88235294117675
39 7.117647058823529 ['9', '5', '23'] 355.88235294117675
40 7.117647058823529 ['9', '5', '23'] 355.88235294117675
41 7.117647058823529 ['9', '5', '23'] 355.88235294117675
42 7.117647058823529 ['9', '5', '23'] 355.88235294117675
43 7.117647058823529 ['9', '5', '23'] 355.88235294117675
44 7.117647058823529 ['9', '5', '23'] 355.88235294117675
45 7.117647058823529 ['9', '5', '23'] 355.88235294117675
46 7.117647058823529 ['9', '5', '23'] 355.88235294117675
47 7.117647058823529 ['9', '5', '23'] 355.88235294117675
48 7.117647058823529 ['9', '5', '23'] 355.88235294117675
49 7.117647058823529 ['9', '5', '23'] 355.88235294117675
50 7.117647058823529 ['9', '5', '23'] 355.88235294117675
51 7.117647058823529 ['9', '5', '23'] 355.88235294117675
52 7.117647058823529 ['9', '5', '23'] 355.88235294117675
53 7.117647058823529 ['9', '5', '23'] 355.88235294117675
54 7.117647058823529 ['9', '5', '23'] 355.88235294117675
55 7.117647058823529 ['9', '5', '23'] 355.88235294117675
56 7.117647058823529 ['9', '5', '23'] 355.88235294117675
57 7.117647058823529 ['9', '5', '23'] 355.88235294117675
58 7.117647058823529 ['9', '5', '23'] 355.88235294117675
59 7.117647058823529 ['9', '5', '23'] 355.88235294117675
60 7.117647058823529 ['9', '5', '23'] 355.88235294117675
61 7.117647058823529 ['9', '5', '23'] 355.88235294117675
62 7.117647058823529 ['9', '5', '23'] 355.88235294117675
63 7.117647058823529 ['9', '5', '23'] 355.88235294117675
64 7.117647058823529 ['9', '5', '23'] 355.88235294117675
65 7.117647058823529 ['9', '5', '23'] 355.88235294117675
66 7.117647058823529 ['9', '5', '23'] 355.88235294117675
67 7.117647058823529 ['9', '5', '23'] 355.88235294117675
68 7.117647058823529 ['9', '5', '23'] 355.88235294117675
69 7.117647058823529 ['9', '5', '23'] 355.88235294117675
70 7.117647058823529 ['9', '5', '23'] 355.88235294117675
71 7.117647058823529 ['9', '5', '23'] 355.88235294117675
72 7.117647058823529 ['9', '5', '23'] 355.88235294117675
73 7.117647058823529 ['9', '5', '23'] 355.88235294117675
74 7.117647058823529 ['9', '5', '23'] 355.88235294117675
75 7.117647058823529 ['9', '5', '23'] 355.88235294117675
76 7.117647058823529 ['9', '5', '23'] 355.88235294117675
77 7.117647058823529 ['9', '5', '23'] 355.88235294117675
78 7.117647058823529 ['9', '5', '23'] 355.88235294117675
79 7.117647058823529 ['9', '5', '23'] 355.88235294117675
80 7.117647058823529 ['9', '5', '23'] 355.88235294117675
81 7.117647058823529 ['9', '5', '23'] 355.88235294117675
82 7.117647058823529 ['9', '5', '23'] 355.88235294117675
83 7.117647058823529 ['9', '5', '23'] 355.88235294117675
84 7.117647058823529 ['9', '5', '23'] 355.88235294117675
85 7.117647058823529 ['9', '5', '23'] 355.88235294117675
86 7.117647058823529 ['9', '5', '23'] 355.88235294117675
87 7.117647058823529 ['9', '5', '23'] 355.88235294117675
88 7.117647058823529 ['9', '5', '23'] 355.88235294117675
89 7.117647058823529 ['9', '5', '23'] 355.88235294117675
90 7.117647058823529 ['9', '5', '23'] 355.88235294117675
91 7.117647058823529 ['9', '5', '23'] 355.88235294117675
92 7.117647058823529 ['9', '5', '23'] 355.88235294117675
93 7.117647058823529 ['9', '5', '23'] 355.88235294117675
94 7.117647058823529 ['9', '5', '23'] 355.88235294117675
95 7.117647058823529 ['9', '5', '23'] 355.88235294117675
96 7.117647058823529 ['9', '5', '23'] 355.88235294117675
97 7.117647058823529 ['9', '5', '23'] 355.88235294117675
98 7.117647058823529 ['9', '5', '23'] 355.88235294117675
99 7.117647058823529 ['9', '5', '23'] 355.88235294117675
100 7.117647058823529 ['9', '5', '23'] 355.88235294117675
101 7.117647058823529 ['9', '5', '23'] 355.88235294117675
102 7.117647058823529 ['9', '5', '23'] 355.88235294117675
103 7.117647058823529 ['9', '5', '23'] 355.88235294117675
104 7.117647058823529 ['9', '5', '23'] 355.88235294117675
105 7.117647058823529 ['9', '5', '23'] 355.88235294117675
106 7.117647058823529 ['9', '5', '23'] 355.88235294117675
107 7.117647058823529 ['9', '5', '23'] 355.88235294117675
108 7.117647058823529 ['9', '5', '23'] 355.88235294117675
109 7.117647058823529 ['9', '5', '23'] 355.88235294117675
110 7.117647058823529 ['9', '5', '23'] 355.88235294117675
111 7.117647058823529 ['9', '5', '23'] 355.88235294117675
112 7.117647058823529 ['9', '5', '23'] 355.88235294117675
113 7.117647058823529 ['9', '5', '23'] 355.88235294117675
114 7.117647058823529 ['9', '5', '23'] 355.88235294117675
115 7.117647058823529 ['9', '5', '23'] 355.88235294117675
116 7.117647058823529 ['9', '5', '23'] 355.88235294117675
117 7.117647058823529 ['9', '5', '23'] 355.88235294117675
118 7.117647058823529 ['9', '5', '23'] 355.88235294117675
119 7.117647058823529 ['9', '5', '23'] 355.88235294117675
120 7.117647058823529 ['9', '5', '23'] 355.88235294117675
121 7.117647058823529 ['9', '5', '23'] 355.88235294117675
122 7.117647058823529 ['9', '5', '23'] 355.88235294117675
123 7.0588235294117645 ['9', '23', '37'] 355.823529411765
124 7.0588235294117645 ['9', '23', '37'] 355.823529411765
125 7.0588235294117645 ['9', '23', '37'] 355.823529411765
126 7.0588235294117645 ['9', '23', '37'] 355.70588235294144
127 7.0588235294117645 ['9', '23', '37'] 355.4705882352944
128 7.0588235294117645 ['9', '23', '37'] 355.058823529412
129 7.0588235294117645 ['9', '23', '37'] 353.88235294117663
130 7.0588235294117645 ['9', '23', '37'] 352.94117647058835
131 7.0588235294117645 ['9', '23', '37'] 352.94117647058835
132 7.0588235294117645 ['9', '23', '37'] 352.94117647058835
133 7.0588235294117645 ['9', '23', '37'] 352.94117647058835
134 7.0588235294117645 ['9', '23', '37'] 352.94117647058835
135 7.0588235294117645 ['9', '23', '37'] 352.94117647058835
136 7.0588235294117645 ['9', '23', '37'] 352.94117647058835
137 7.0588235294117645 ['9', '23', '37'] 352.94117647058835
138 7.0588235294117645 ['9', '23', '37'] 352.94117647058835
139 7.0588235294117645 ['9', '23', '37'] 352.94117647058835
140 7.0588235294117645 ['9', '23', '37'] 352.94117647058835
141 7.0588235294117645 ['9', '23', '37'] 352.94117647058835
142 7.0588235294117645 ['9', '23', '37'] 352.94117647058835
143 7.0588235294117645 ['9', '23', '37'] 352.94117647058835
144 7.0588235294117645 ['9', '23', '37'] 352.94117647058835
145 7.0588235294117645 ['9', '23', '37'] 352.94117647058835
146 7.0588235294117645 ['9', '23', '37'] 352.94117647058835
147 7.0588235294117645 ['9', '23', '37'] 352.94117647058835
148 7.0588235294117645 ['9', '23', '37'] 352.94117647058835
149 7.0588235294117645 ['9', '23', '37'] 352.94117647058835
150 7.0588235294117645 ['9', '23', '37'] 352.94117647058835
151 7.0588235294117645 ['9', '23', '37'] 352.94117647058835
152 7.0588235294117645 ['9', '23', '37'] 352.94117647058835
153 7.0588235294117645 ['9', '23', '37'] 352.94117647058835
154 7.0588235294117645 ['9', '23', '37'] 352.94117647058835
155 7.0588235294117645 ['9', '23', '37'] 352.94117647058835
156 7.0588235294117645 ['9', '23', '37'] 352.94117647058835
157 7.0588235294117645 ['9', '23', '37'] 352.94117647058835
158 7.0588235294117645 ['9', '23', '37'] 352.94117647058835
159 7.0588235294117645 ['9', '23', '37'] 352.94117647058835
160 7.0588235294117645 ['9', '23', '37'] 352.94117647058835
161 7.0588235294117645 ['9', '23', '37'] 352.94117647058835
162 7.0588235294117645 ['9', '23', '37'] 352.94117647058835
163 7.0588235294117645 ['9', '23', '37'] 352.94117647058835
164 7.0588235294117645 ['9', '23', '37'] 352.94117647058835
165 7.0588235294117645 ['9', '23', '37'] 352.94117647058835
166 7.0588235294117645 ['9', '23', '37'] 352.94117647058835
167 7.0588235294117645 ['9', '23', '37'] 352.94117647058835
168 7.0588235294117645 ['9', '23', '37'] 352.94117647058835
169 7.0588235294117645 ['9', '23', '37'] 352.94117647058835
170 7.0588235294117645 ['9', '23', '37'] 352.94117647058835
171 7.0588235294117645 ['9', '23', '37'] 352.94117647058835
172 7.0588235294117645 ['9', '23', '37'] 352.94117647058835
173 7.0588235294117645 ['9', '23', '37'] 352.94117647058835
174 7.0588235294117645 ['9', '23', '37'] 352.94117647058835
175 7.0588235294117645 ['9', '23', '37'] 352.94117647058835
176 7.0588235294117645 ['9', '23', '37'] 352.94117647058835
177 7.0588235294117645 ['9', '23', '37'] 352.94117647058835
178 7.0588235294117645 ['9', '23', '37'] 352.94117647058835
179 7.0588235294117645 ['9', '23', '37'] 352.94117647058835
180 7.0588235294117645 ['9', '23', '37'] 352.94117647058835
181 7.0588235294117645 ['9', '23', '37'] 352.94117647058835
182 7.0588235294117645 ['9', '23', '37'] 352.94117647058835
183 7.0588235294117645 ['9', '23', '37'] 352.94117647058835
184 7.0588235294117645 ['9', '23', '37'] 352.94117647058835
185 7.0588235294117645 ['9', '23', '37'] 352.94117647058835
186 7.0588235294117645 ['9', '23', '37'] 352.94117647058835
187 7.0588235294117645 ['9', '23', '37'] 352.94117647058835
188 7.0588235294117645 ['9', '23', '37'] 352.94117647058835
189 7.0588235294117645 ['9', '23', '37'] 352.94117647058835
190 7.0588235294117645 ['9', '23', '37'] 352.94117647058835
191 7.0588235294117645 ['9', '23', '37'] 352.94117647058835
192 7.0588235294117645 ['9', '23', '37'] 352.94117647058835
193 7.0588235294117645 ['9', '23', '37'] 352.94117647058835
194 7.0588235294117645 ['9', '23', '37'] 352.94117647058835
195 7.0588235294117645 ['9', '23', '37'] 352.94117647058835
196 7.0588235294117645 ['9', '23', '37'] 352.94117647058835
197 7.0588235294117645 ['9', '23', '37'] 352.94117647058835
198 7.0588235294117645 ['9', '23', '37'] 352.94117647058835
199 7.0588235294117645 ['9', '23', '37'] 352.94117647058835
