0 268.02127659574467 ['5', '12', '13', '23', '20'] 13973.553191489362
1 262.70212765957444 ['52', '20', '26', '8', '47'] 13759.170212765961
2 256.1276595744681 ['32', '20', '13', '8', '23'] 13543.212765957445
3 247.14893617021278 ['23', '20', '8', '19', '13'] 13290.297872340421
4 247.14893617021278 ['23', '20', '8', '19', '13'] 13073.468085106386
5 237.53191489361703 ['8', '20', '23', '12', '19'] 12835.191489361701
6 237.53191489361703 ['8', '20', '23', '12', '19'] 12568.042553191484
7 237.53191489361703 ['8', '20', '23', '12', '19'] 12337.183067375881
8 237.53191489361703 ['8', '20', '23', '12', '19'] 12244.698138297867
9 237.53191489361703 ['8', '20', '23', '12', '19'] 12078.96675531916
10 237.53191489361703 ['8', '20', '23', '12', '19'] 11972.312500000002
11 237.53191489361703 ['8', '20', '23', '12', '19'] 11913.82668439717
12 237.53191489361703 ['8', '20', '23', '12', '19'] 11876.59574468086
13 237.53191489361703 ['8', '20', '23', '12', '19'] 11876.59574468086
14 237.53191489361703 ['8', '20', '23', '12', '19'] 11876.59574468086
15 237.53191489361703 ['8', '20', '23', '12', '19'] 11876.59574468086
16 237.53191489361703 ['8', '20', '23', '12', '19'] 11876.59574468086
17 237.53191489361703 ['8', '20', '23', '12', '19'] 11876.59574468086
18 237.53191489361703 ['8', '20', '23', '12', '19'] 11876.59574468086
19 237.53191489361703 ['8', '20', '23', '12', '19'] 11876.59574468086
20 237.53191489361703 ['8', '20', '23', '12', '19'] 11876.59574468086
21 237.53191489361703 ['8', '20', '23', '12', '19'] 11876.59574468086
22 237.53191489361703 ['8', '20', '23', '12', '19'] 11876.59574468086
23 237.53191489361703 ['8', '20', '23', '12', '19'] 11876.59574468086
24 237.53191489361703 ['8', '20', '23', '12', '19'] 11876.59574468086
25 237.53191489361703 ['8', '20', '23', '12', '19'] 11876.59574468086
26 237.53191489361703 ['8', '20', '23', '12', '19'] 11876.59574468086
27 237.53191489361703 ['8', '20', '23', '12', '19'] 11876.59574468086
28 237.53191489361703 ['8', '20', '23', '12', '19'] 11876.59574468086
29 237.53191489361703 ['8', '20', '23', '12', '19'] 11876.59574468086
30 237.53191489361703 ['8', '20', '23', '12', '19'] 11876.59574468086
31 237.53191489361703 ['8', '20', '23', '12', '19'] 11876.59574468086
32 237.53191489361703 ['8', '20', '23', '12', '19'] 11876.59574468086
33 237.53191489361703 ['8', '20', '23', '12', '19'] 11876.59574468086
34 237.53191489361703 ['8', '20', '23', '12', '19'] 11876.59574468086
35 237.53191489361703 ['8', '20', '23', '12', '19'] 11876.59574468086
36 237.53191489361703 ['8', '20', '23', '12', '19'] 11876.59574468086
37 237.53191489361703 ['8', '20', '23', '12', '19'] 11876.59574468086
38 237.53191489361703 ['8', '20', '23', '12', '19'] 11876.59574468086
39 237.53191489361703 ['8', '20', '23', '12', '19'] 11876.59574468086
40 237.53191489361703 ['8', '20', '23', '12', '19'] 11876.59574468086
41 237.53191489361703 ['8', '20', '23', '12', '19'] 11876.59574468086
42 237.53191489361703 ['8', '20', '23', '12', '19'] 11876.59574468086
43 237.53191489361703 ['8', '20', '23', '12', '19'] 11876.59574468086
44 237.53191489361703 ['8', '20', '23', '12', '19'] 11876.59574468086
45 237.53191489361703 ['8', '20', '23', '12', '19'] 11876.59574468086
46 237.53191489361703 ['8', '20', '23', '12', '19'] 11876.59574468086
47 237.53191489361703 ['8', '20', '23', '12', '19'] 11876.59574468086
48 237.53191489361703 ['8', '20', '23', '12', '19'] 11876.59574468086
49 237.53191489361703 ['8', '20', '23', '12', '19'] 11876.59574468086
50 237.53191489361703 ['8', '20', '23', '12', '19'] 11876.59574468086
51 237.53191489361703 ['8', '20', '23', '12', '19'] 11876.59574468086
52 237.53191489361703 ['8', '20', '23', '12', '19'] 11876.59574468086
53 237.53191489361703 ['8', '20', '23', '12', '19'] 11876.59574468086
54 237.53191489361703 ['8', '20', '23', '12', '19'] 11876.59574468086
55 237.53191489361703 ['8', '20', '23', '12', '19'] 11876.59574468086
56 237.53191489361703 ['8', '20', '23', '12', '19'] 11876.59574468086
57 237.53191489361703 ['8', '20', '23', '12', '19'] 11876.59574468086
58 237.53191489361703 ['8', '20', '23', '12', '19'] 11876.59574468086
59 237.53191489361703 ['8', '20', '23', '12', '19'] 11876.59574468086
60 237.53191489361703 ['8', '20', '23', '12', '19'] 11876.59574468086
61 237.53191489361703 ['8', '20', '23', '12', '19'] 11876.59574468086
62 237.53191489361703 ['8', '20', '23', '12', '19'] 11876.59574468086
63 237.53191489361703 ['8', '20', '23', '12', '19'] 11876.59574468086
64 237.53191489361703 ['8', '20', '23', '12', '19'] 11876.59574468086
65 237.53191489361703 ['8', '20', '23', '12', '19'] 11876.59574468086
66 237.53191489361703 ['8', '20', '23', '12', '19'] 11876.59574468086
67 237.53191489361703 ['8', '20', '23', '12', '19'] 11876.59574468086
68 237.53191489361703 ['8', '20', '23', '12', '19'] 11876.59574468086
69 237.53191489361703 ['8', '20', '23', '12', '19'] 11876.59574468086
70 237.53191489361703 ['8', '20', '23', '12', '19'] 11876.59574468086
71 237.53191489361703 ['8', '20', '23', '12', '19'] 11876.59574468086
72 237.53191489361703 ['8', '20', '23', '12', '19'] 11876.59574468086
73 237.53191489361703 ['8', '20', '23', '12', '19'] 11876.59574468086
74 237.53191489361703 ['8', '20', '23', '12', '19'] 11876.59574468086
75 237.53191489361703 ['8', '20', '23', '12', '19'] 11876.59574468086
76 237.53191489361703 ['8', '20', '23', '12', '19'] 11876.59574468086
77 237.53191489361703 ['8', '20', '23', '12', '19'] 11876.59574468086
78 237.53191489361703 ['8', '20', '23', '12', '19'] 11876.59574468086
79 237.53191489361703 ['8', '20', '23', '12', '19'] 11876.59574468086
80 237.53191489361703 ['8', '20', '23', '12', '19'] 11876.59574468086
81 237.53191489361703 ['8', '20', '23', '12', '19'] 11876.59574468086
82 237.53191489361703 ['8', '20', '23', '12', '19'] 11876.59574468086
83 237.53191489361703 ['8', '20', '23', '12', '19'] 11876.59574468086
84 237.53191489361703 ['8', '20', '23', '12', '19'] 11876.59574468086
85 237.53191489361703 ['8', '20', '23', '12', '19'] 11876.59574468086
86 237.53191489361703 ['8', '20', '23', '12', '19'] 11876.59574468086
87 237.53191489361703 ['8', '20', '23', '12', '19'] 11876.59574468086
88 237.53191489361703 ['8', '20', '23', '12', '19'] 11876.59574468086
89 237.53191489361703 ['8', '20', '23', '12', '19'] 11876.59574468086
90 237.53191489361703 ['8', '20', '23', '12', '19'] 11876.59574468086
91 237.53191489361703 ['8', '20', '23', '12', '19'] 11876.59574468086
92 237.53191489361703 ['8', '20', '23', '12', '19'] 11876.59574468086
93 237.53191489361703 ['8', '20', '23', '12', '19'] 11876.59574468086
94 237.53191489361703 ['8', '20', '23', '12', '19'] 11876.59574468086
95 237.53191489361703 ['8', '20', '23', '12', '19'] 11876.59574468086
96 237.53191489361703 ['8', '20', '23', '12', '19'] 11876.59574468086
97 237.53191489361703 ['8', '20', '23', '12', '19'] 11876.59574468086
98 237.53191489361703 ['8', '20', '23', '12', '19'] 11876.59574468086
99 237.53191489361703 ['8', '20', '23', '12', '19'] 11876.59574468086
100 237.53191489361703 ['8', '20', '23', '12', '19'] 11876.59574468086
101 237.53191489361703 ['8', '20', '23', '12', '19'] 11876.59574468086
102 237.53191489361703 ['8', '20', '23', '12', '19'] 11876.59574468086
103 237.53191489361703 ['8', '20', '23', '12', '19'] 11876.59574468086
104 237.53191489361703 ['8', '20', '23', '12', '19'] 11876.59574468086
105 237.53191489361703 ['8', '20', '23', '12', '19'] 11876.59574468086
106 237.53191489361703 ['8', '20', '23', '12', '19'] 11876.59574468086
107 237.53191489361703 ['8', '20', '23', '12', '19'] 11876.59574468086
108 237.53191489361703 ['8', '20', '23', '12', '19'] 11876.59574468086
109 237.53191489361703 ['8', '20', '23', '12', '19'] 11876.59574468086
110 237.53191489361703 ['8', '20', '23', '12', '19'] 11876.59574468086
111 237.53191489361703 ['8', '20', '23', '12', '19'] 11876.59574468086
112 237.53191489361703 ['8', '20', '23', '12', '19'] 11876.59574468086
113 237.53191489361703 ['8', '20', '23', '12', '19'] 11876.59574468086
114 237.53191489361703 ['8', '20', '23', '12', '19'] 11876.59574468086
115 237.53191489361703 ['8', '20', '23', '12', '19'] 11876.59574468086
116 237.53191489361703 ['8', '20', '23', '12', '19'] 11876.59574468086
117 237.53191489361703 ['8', '20', '23', '12', '19'] 11876.59574468086
118 237.53191489361703 ['8', '20', '23', '12', '19'] 11876.59574468086
119 237.53191489361703 ['8', '20', '23', '12', '19'] 11876.59574468086
120 237.53191489361703 ['8', '20', '23', '12', '19'] 11876.59574468086
121 237.53191489361703 ['8', '20', '23', '12', '19'] 11876.59574468086
122 237.53191489361703 ['8', '20', '23', '12', '19'] 11876.59574468086
123 237.53191489361703 ['8', '20', '23', '12', '19'] 11876.59574468086
124 237.53191489361703 ['8', '20', '23', '12', '19'] 11876.59574468086
125 237.53191489361703 ['8', '20', '23', '12', '19'] 11876.59574468086
126 237.53191489361703 ['8', '20', '23', '12', '19'] 11876.59574468086
127 237.53191489361703 ['8', '20', '23', '12', '19'] 11876.59574468086
128 237.53191489361703 ['8', '20', '23', '12', '19'] 11876.59574468086
129 237.53191489361703 ['8', '20', '23', '12', '19'] 11876.59574468086
130 237.53191489361703 ['8', '20', '23', '12', '19'] 11876.59574468086
131 237.53191489361703 ['8', '20', '23', '12', '19'] 11876.59574468086
132 237.53191489361703 ['8', '20', '23', '12', '19'] 11876.59574468086
133 237.53191489361703 ['8', '20', '23', '12', '19'] 11876.59574468086
134 237.53191489361703 ['8', '20', '23', '12', '19'] 11876.59574468086
135 237.53191489361703 ['8', '20', '23', '12', '19'] 11876.59574468086
136 237.53191489361703 ['8', '20', '23', '12', '19'] 11876.59574468086
137 237.53191489361703 ['8', '20', '23', '12', '19'] 11876.59574468086
138 237.53191489361703 ['8', '20', '23', '12', '19'] 11876.59574468086
139 237.53191489361703 ['8', '20', '23', '12', '19'] 11876.59574468086
140 237.53191489361703 ['8', '20', '23', '12', '19'] 11876.59574468086
141 237.53191489361703 ['8', '20', '23', '12', '19'] 11876.59574468086
142 237.53191489361703 ['8', '20', '23', '12', '19'] 11876.59574468086
143 237.53191489361703 ['8', '20', '23', '12', '19'] 11876.59574468086
144 237.53191489361703 ['8', '20', '23', '12', '19'] 11876.59574468086
145 237.53191489361703 ['8', '20', '23', '12', '19'] 11876.59574468086
146 237.53191489361703 ['8', '20', '23', '12', '19'] 11876.59574468086
147 237.53191489361703 ['8', '20', '23', '12', '19'] 11876.59574468086
148 237.53191489361703 ['8', '20', '23', '12', '19'] 11876.59574468086
149 237.53191489361703 ['8', '20', '23', '12', '19'] 11876.59574468086
150 237.53191489361703 ['8', '20', '23', '12', '19'] 11876.59574468086
151 237.53191489361703 ['8', '20', '23', '12', '19'] 11876.59574468086
152 237.53191489361703 ['8', '20', '23', '12', '19'] 11876.59574468086
153 237.53191489361703 ['8', '20', '23', '12', '19'] 11876.59574468086
154 237.53191489361703 ['8', '20', '23', '12', '19'] 11876.59574468086
155 237.53191489361703 ['8', '20', '23', '12', '19'] 11876.59574468086
156 237.53191489361703 ['8', '20', '23', '12', '19'] 11876.59574468086
157 237.53191489361703 ['8', '20', '23', '12', '19'] 11876.59574468086
158 237.53191489361703 ['8', '20', '23', '12', '19'] 11876.59574468086
159 237.53191489361703 ['8', '20', '23', '12', '19'] 11876.59574468086
160 237.53191489361703 ['8', '20', '23', '12', '19'] 11876.59574468086
161 237.53191489361703 ['8', '20', '23', '12', '19'] 11876.59574468086
162 237.53191489361703 ['8', '20', '23', '12', '19'] 11876.59574468086
163 237.53191489361703 ['8', '20', '23', '12', '19'] 11876.59574468086
164 237.53191489361703 ['8', '20', '23', '12', '19'] 11876.59574468086
165 237.53191489361703 ['8', '20', '23', '12', '19'] 11876.59574468086
166 237.53191489361703 ['8', '20', '23', '12', '19'] 11876.59574468086
167 237.53191489361703 ['8', '20', '23', '12', '19'] 11876.59574468086
168 237.53191489361703 ['8', '20', '23', '12', '19'] 11876.59574468086
169 237.53191489361703 ['8', '20', '23', '12', '19'] 11876.59574468086
170 237.53191489361703 ['8', '20', '23', '12', '19'] 11876.59574468086
171 237.53191489361703 ['8', '20', '23', '12', '19'] 11876.59574468086
172 237.53191489361703 ['8', '20', '23', '12', '19'] 11876.59574468086
173 237.53191489361703 ['8', '20', '23', '12', '19'] 11876.59574468086
174 237.53191489361703 ['8', '20', '23', '12', '19'] 11876.59574468086
175 237.53191489361703 ['8', '20', '23', '12', '19'] 11876.59574468086
176 237.53191489361703 ['8', '20', '23', '12', '19'] 11876.59574468086
177 237.53191489361703 ['8', '20', '23', '12', '19'] 11876.59574468086
178 237.53191489361703 ['8', '20', '23', '12', '19'] 11876.59574468086
179 237.53191489361703 ['8', '20', '23', '12', '19'] 11876.59574468086
180 237.53191489361703 ['8', '20', '23', '12', '19'] 11876.59574468086
181 237.53191489361703 ['8', '20', '23', '12', '19'] 11876.59574468086
182 237.53191489361703 ['8', '20', '23', '12', '19'] 11876.59574468086
183 237.53191489361703 ['8', '20', '23', '12', '19'] 11876.59574468086
184 237.53191489361703 ['8', '20', '23', '12', '19'] 11876.59574468086
185 237.53191489361703 ['8', '20', '23', '12', '19'] 11876.59574468086
186 237.53191489361703 ['8', '20', '23', '12', '19'] 11876.59574468086
187 237.53191489361703 ['8', '20', '23', '12', '19'] 11876.59574468086
188 237.53191489361703 ['8', '20', '23', '12', '19'] 11876.59574468086
189 237.53191489361703 ['8', '20', '23', '12', '19'] 11876.59574468086
190 237.53191489361703 ['8', '20', '23', '12', '19'] 11876.59574468086
191 237.53191489361703 ['8', '20', '23', '12', '19'] 11876.59574468086
192 237.53191489361703 ['8', '20', '23', '12', '19'] 11876.59574468086
193 237.53191489361703 ['8', '20', '23', '12', '19'] 11876.59574468086
194 237.53191489361703 ['8', '20', '23', '12', '19'] 11876.59574468086
195 237.53191489361703 ['8', '20', '23', '12', '19'] 11876.59574468086
196 237.53191489361703 ['8', '20', '23', '12', '19'] 11876.59574468086
197 237.53191489361703 ['8', '20', '23', '12', '19'] 11876.59574468086
198 237.53191489361703 ['8', '20', '23', '12', '19'] 11876.59574468086
199 237.53191489361703 ['8', '20', '23', '12', '19'] 11876.59574468086
