0 145.87719298245614 ['58', '21', '6', '40', '29', '45'] 7538.315789473685
1 145.8421052631579 ['17', '24', '20', '37', '45', '50'] 7435.21052631579
2 144.859649122807 ['59', '29', '37', '44', '57', '58'] 7358.456140350875
3 140.3684210526316 ['29', '54', '43', '49', '59', '17'] 7304.771929824562
4 140.3684210526316 ['29', '54', '43', '49', '59', '17'] 7257.7192982456145
5 140.3684210526316 ['29', '54', '43', '49', '59', '17'] 7207.5880217785825
6 138.35087719298247 ['59', '43', '54', '11', '29', '40'] 7156.921355111916
7 138.35087719298247 ['59', '43', '54', '11', '29', '40'] 7108.632486388385
8 138.140350877193 ['59', '54', '29', '40', '17', '1'] 7062.281609195403
9 137.13793103448276 ['29', '17', '27', '59', '43'] 7015.916212946158
10 135.64406779661016 ['43', '27', '59', '17'] 6970.562285315862
11 133.47457627118644 ['29', '59', '17', '43'] 6901.54539255796
12 129.29508196721312 ['43', '59'] 6828.994698483665
13 126.09677419354838 ['59'] 6736.981457653208
14 126.09677419354838 ['59'] 6586.415762303891
15 124.82539682539682 [] 6422.8939461834925
16 124.82539682539682 [] 6325.088036060535
17 124.82539682539682 [] 6301.024577572962
18 124.82539682539682 [] 6295.939068100355
19 124.82539682539682 [] 6292.124935995901
20 124.82539682539682 [] 6279.411162314385
21 124.82539682539682 [] 6253.983614951352
22 124.82539682539682 [] 6241.2698412698355
23 124.82539682539682 [] 6241.2698412698355
24 124.82539682539682 [] 6241.2698412698355
25 124.82539682539682 [] 6241.2698412698355
26 124.82539682539682 [] 6241.2698412698355
27 124.82539682539682 [] 6241.2698412698355
28 124.82539682539682 [] 6241.2698412698355
29 124.82539682539682 [] 6241.2698412698355
30 124.82539682539682 [] 6241.2698412698355
31 124.82539682539682 [] 6241.2698412698355
32 124.82539682539682 [] 6241.2698412698355
33 124.82539682539682 [] 6241.2698412698355
34 124.82539682539682 [] 6241.2698412698355
35 124.82539682539682 [] 6241.2698412698355
36 124.82539682539682 [] 6241.2698412698355
37 124.82539682539682 [] 6241.2698412698355
38 124.82539682539682 [] 6241.2698412698355
39 124.82539682539682 [] 6241.2698412698355
40 124.82539682539682 [] 6241.2698412698355
41 124.82539682539682 [] 6241.2698412698355
