0 140.73684210526315 ['53', '11', '1', '62', '5', '8'] 7552.210526315788
1 140.73684210526315 ['53', '11', '1', '62', '5', '8'] 7411.543859649123
2 140.73684210526315 ['53', '11', '1', '62', '5', '8'] 7298.105263157894
3 138.78947368421052 ['11', '62', '41', '53', '8', '5'] 7203.508771929824
4 136.50877192982455 ['29', '60', '41', '1', '5', '35'] 7095.3684210526335
5 134.8421052631579 ['60', '51', '5', '41', '28', '8'] 6996.596491228071
6 134.57894736842104 ['29', '60', '8', '41', '13', '5'] 6907.789473684212
7 130.22413793103448 ['41', '5', '8', '60', '29'] 6814.6978221415575
8 130.22413793103448 ['41', '5', '8', '60', '29'] 6725.887477313976
9 128.864406779661 ['5', '8', '60', '29'] 6651.080982702226
10 128.72881355932202 ['29', '5', '41', '60'] 6578.080654587963
11 128.72881355932202 ['29', '5', '41', '60'] 6529.334712438603
12 128.72881355932202 ['29', '5', '41', '60'] 6490.404149620103
13 127.71666666666667 ['60', '5', '29'] 6466.958338203776
14 127.71666666666667 ['60', '5', '29'] 6438.014406779664
15 127.71666666666667 ['60', '5', '29'] 6423.29237288136
16 127.71666666666667 ['60', '5', '29'] 6400.003389830503
17 127.71666666666667 ['60', '5', '29'] 6385.833333333327
18 127.71666666666667 ['60', '5', '29'] 6385.833333333327
19 127.71666666666667 ['60', '5', '29'] 6385.833333333327
20 127.71666666666667 ['60', '5', '29'] 6385.833333333327
21 127.71666666666667 ['60', '5', '29'] 6385.833333333327
22 127.71666666666667 ['60', '5', '29'] 6385.833333333327
23 127.71666666666667 ['60', '5', '29'] 6385.833333333327
24 127.71666666666667 ['60', '5', '29'] 6385.833333333327
25 127.71666666666667 ['60', '5', '29'] 6385.833333333327
26 127.71666666666667 ['60', '5', '29'] 6385.833333333327
27 127.71666666666667 ['60', '5', '29'] 6385.833333333327
28 127.71666666666667 ['60', '5', '29'] 6385.833333333327
29 127.71666666666667 ['60', '5', '29'] 6385.833333333327
30 127.71666666666667 ['60', '5', '29'] 6385.833333333327
31 127.71666666666667 ['60', '5', '29'] 6385.833333333327
32 127.71666666666667 ['60', '5', '29'] 6385.833333333327
33 127.71666666666667 ['60', '5', '29'] 6385.833333333327
34 127.71666666666667 ['60', '5', '29'] 6385.833333333327
35 127.71666666666667 ['60', '5', '29'] 6385.833333333327
36 127.71666666666667 ['60', '5', '29'] 6385.833333333327
37 127.71666666666667 ['60', '5', '29'] 6385.833333333327
38 127.71666666666667 ['60', '5', '29'] 6385.833333333327
39 127.71666666666667 ['60', '5', '29'] 6385.833333333327
40 127.71666666666667 ['60', '5', '29'] 6385.833333333327
41 127.71666666666667 ['60', '5', '29'] 6385.833333333327
42 127.71666666666667 ['60', '5', '29'] 6385.833333333327
43 127.71666666666667 ['60', '5', '29'] 6385.833333333327
44 127.71666666666667 ['60', '5', '29'] 6385.833333333327
45 127.71666666666667 ['60', '5', '29'] 6385.833333333327
46 127.71666666666667 ['60', '5', '29'] 6385.833333333327
47 127.71666666666667 ['60', '5', '29'] 6385.833333333327
48 127.71666666666667 ['60', '5', '29'] 6385.833333333327
49 127.71666666666667 ['60', '5', '29'] 6385.833333333327
50 127.71666666666667 ['60', '5', '29'] 6385.833333333327
51 127.71666666666667 ['60', '5', '29'] 6385.833333333327
52 127.71666666666667 ['60', '5', '29'] 6385.833333333327
53 127.71666666666667 ['60', '5', '29'] 6385.833333333327
54 127.71666666666667 ['60', '5', '29'] 6385.833333333327
55 127.71666666666667 ['60', '5', '29'] 6385.833333333327
56 127.71666666666667 ['60', '5', '29'] 6385.833333333327
57 127.71666666666667 ['60', '5', '29'] 6385.833333333327
58 127.71666666666667 ['60', '5', '29'] 6385.833333333327
59 127.71666666666667 ['60', '5', '29'] 6385.833333333327
60 127.71666666666667 ['60', '5', '29'] 6385.833333333327
61 127.71666666666667 ['60', '5', '29'] 6385.833333333327
62 127.71666666666667 ['60', '5', '29'] 6385.833333333327
63 127.71666666666667 ['60', '5', '29'] 6385.833333333327
64 127.71666666666667 ['60', '5', '29'] 6385.833333333327
65 127.71666666666667 ['60', '5', '29'] 6385.833333333327
66 127.71666666666667 ['60', '5', '29'] 6385.833333333327
67 127.71666666666667 ['60', '5', '29'] 6385.833333333327
68 127.71666666666667 ['60', '5', '29'] 6385.833333333327
69 127.71666666666667 ['60', '5', '29'] 6385.833333333327
70 127.71666666666667 ['60', '5', '29'] 6385.833333333327
71 127.71666666666667 ['60', '5', '29'] 6385.833333333327
72 127.71666666666667 ['60', '5', '29'] 6385.833333333327
73 127.71666666666667 ['60', '5', '29'] 6385.833333333327
74 127.71666666666667 ['60', '5', '29'] 6385.833333333327
75 127.71666666666667 ['60', '5', '29'] 6385.833333333327
76 127.71666666666667 ['60', '5', '29'] 6385.833333333327
77 127.71666666666667 ['60', '5', '29'] 6385.833333333327
78 127.71666666666667 ['60', '5', '29'] 6385.833333333327
79 127.71666666666667 ['60', '5', '29'] 6385.833333333327
80 127.71666666666667 ['60', '5', '29'] 6385.833333333327
81 127.71666666666667 ['60', '5', '29'] 6385.833333333327
82 127.71666666666667 ['60', '5', '29'] 6385.833333333327
83 127.71666666666667 ['60', '5', '29'] 6385.833333333327
84 127.71666666666667 ['60', '5', '29'] 6385.833333333327
85 127.71666666666667 ['60', '5', '29'] 6385.833333333327
86 127.71666666666667 ['60', '5', '29'] 6385.833333333327
87 127.71666666666667 ['60', '5', '29'] 6385.833333333327
88 127.71666666666667 ['60', '5', '29'] 6385.833333333327
89 127.71666666666667 ['60', '5', '29'] 6385.833333333327
90 127.71666666666667 ['60', '5', '29'] 6385.833333333327
91 127.71666666666667 ['60', '5', '29'] 6385.833333333327
92 127.71666666666667 ['60', '5', '29'] 6385.833333333327
93 127.71666666666667 ['60', '5', '29'] 6385.833333333327
94 127.71666666666667 ['60', '5', '29'] 6385.833333333327
95 127.71666666666667 ['60', '5', '29'] 6385.833333333327
96 127.71666666666667 ['60', '5', '29'] 6385.833333333327
97 127.71666666666667 ['60', '5', '29'] 6385.833333333327
98 127.71666666666667 ['60', '5', '29'] 6385.833333333327
99 127.71666666666667 ['60', '5', '29'] 6385.833333333327
100 127.71666666666667 ['60', '5', '29'] 6385.833333333327
101 127.71666666666667 ['60', '5', '29'] 6385.833333333327
102 127.71666666666667 ['60', '5', '29'] 6385.833333333327
103 127.71666666666667 ['60', '5', '29'] 6385.833333333327
104 127.71666666666667 ['60', '5', '29'] 6385.833333333327
105 127.71666666666667 ['60', '5', '29'] 6385.833333333327
106 127.71666666666667 ['60', '5', '29'] 6385.833333333327
107 127.71666666666667 ['60', '5', '29'] 6385.833333333327
108 127.71666666666667 ['60', '5', '29'] 6385.833333333327
109 127.71666666666667 ['60', '5', '29'] 6385.833333333327
110 127.71666666666667 ['60', '5', '29'] 6385.833333333327
111 127.71666666666667 ['60', '5', '29'] 6385.833333333327
112 127.71666666666667 ['60', '5', '29'] 6385.833333333327
113 127.71666666666667 ['60', '5', '29'] 6385.833333333327
114 127.71666666666667 ['60', '5', '29'] 6385.833333333327
115 127.71666666666667 ['60', '5', '29'] 6385.833333333327
116 127.71666666666667 ['60', '5', '29'] 6385.833333333327
117 127.71666666666667 ['60', '5', '29'] 6385.833333333327
118 127.71666666666667 ['60', '5', '29'] 6385.833333333327
119 127.71666666666667 ['60', '5', '29'] 6385.833333333327
120 127.71666666666667 ['60', '5', '29'] 6385.833333333327
121 127.71666666666667 ['60', '5', '29'] 6385.833333333327
122 127.71666666666667 ['60', '5', '29'] 6385.833333333327
123 127.71666666666667 ['60', '5', '29'] 6385.833333333327
124 127.71666666666667 ['60', '5', '29'] 6385.833333333327
125 127.71666666666667 ['60', '5', '29'] 6385.833333333327
126 127.71666666666667 ['60', '5', '29'] 6385.833333333327
127 127.71666666666667 ['60', '5', '29'] 6385.833333333327
128 127.71666666666667 ['60', '5', '29'] 6385.833333333327
129 127.71666666666667 ['60', '5', '29'] 6385.833333333327
130 127.71666666666667 ['60', '5', '29'] 6385.833333333327
131 127.71666666666667 ['60', '5', '29'] 6385.833333333327
132 127.71666666666667 ['60', '5', '29'] 6385.833333333327
133 127.71666666666667 ['60', '5', '29'] 6385.833333333327
134 127.71666666666667 ['60', '5', '29'] 6385.833333333327
135 127.71666666666667 ['60', '5', '29'] 6385.833333333327
136 127.71666666666667 ['60', '5', '29'] 6385.833333333327
137 127.71666666666667 ['60', '5', '29'] 6385.833333333327
138 127.71666666666667 ['60', '5', '29'] 6385.833333333327
139 127.71666666666667 ['60', '5', '29'] 6385.833333333327
140 127.71666666666667 ['60', '5', '29'] 6385.833333333327
141 127.71666666666667 ['60', '5', '29'] 6385.833333333327
142 127.71666666666667 ['60', '5', '29'] 6385.833333333327
143 127.71666666666667 ['60', '5', '29'] 6385.833333333327
144 127.71666666666667 ['60', '5', '29'] 6385.833333333327
145 127.71666666666667 ['60', '5', '29'] 6385.833333333327
146 127.71666666666667 ['60', '5', '29'] 6385.833333333327
147 127.71666666666667 ['60', '5', '29'] 6385.833333333327
148 127.71666666666667 ['60', '5', '29'] 6385.833333333327
149 127.71666666666667 ['60', '5', '29'] 6385.833333333327
150 127.71666666666667 ['60', '5', '29'] 6385.833333333327
151 127.71666666666667 ['60', '5', '29'] 6385.833333333327
152 127.71666666666667 ['60', '5', '29'] 6385.833333333327
153 127.71666666666667 ['60', '5', '29'] 6385.833333333327
154 127.71666666666667 ['60', '5', '29'] 6385.833333333327
155 127.71666666666667 ['60', '5', '29'] 6385.833333333327
156 127.71666666666667 ['60', '5', '29'] 6385.833333333327
157 127.71666666666667 ['60', '5', '29'] 6385.833333333327
158 127.71666666666667 ['60', '5', '29'] 6385.833333333327
159 127.71666666666667 ['60', '5', '29'] 6385.833333333327
160 127.71666666666667 ['60', '5', '29'] 6385.833333333327
161 127.71666666666667 ['60', '5', '29'] 6385.833333333327
162 127.71666666666667 ['60', '5', '29'] 6385.833333333327
163 127.71666666666667 ['60', '5', '29'] 6385.833333333327
164 127.71666666666667 ['60', '5', '29'] 6385.833333333327
165 127.71666666666667 ['60', '5', '29'] 6385.833333333327
166 127.71666666666667 ['60', '5', '29'] 6385.833333333327
167 127.71666666666667 ['60', '5', '29'] 6385.833333333327
168 127.71666666666667 ['60', '5', '29'] 6385.833333333327
169 127.71666666666667 ['60', '5', '29'] 6385.833333333327
170 127.71666666666667 ['60', '5', '29'] 6385.833333333327
171 127.71666666666667 ['60', '5', '29'] 6385.833333333327
172 127.71666666666667 ['60', '5', '29'] 6385.833333333327
173 127.71666666666667 ['60', '5', '29'] 6385.833333333327
174 127.71666666666667 ['60', '5', '29'] 6385.833333333327
175 127.71666666666667 ['60', '5', '29'] 6385.833333333327
176 127.71666666666667 ['60', '5', '29'] 6385.833333333327
177 127.71666666666667 ['60', '5', '29'] 6385.833333333327
178 127.71666666666667 ['60', '5', '29'] 6385.833333333327
179 127.71666666666667 ['60', '5', '29'] 6385.833333333327
180 127.71666666666667 ['60', '5', '29'] 6385.833333333327
181 127.71666666666667 ['60', '5', '29'] 6385.833333333327
182 127.71666666666667 ['60', '5', '29'] 6385.833333333327
183 127.71666666666667 ['60', '5', '29'] 6385.833333333327
184 127.71666666666667 ['60', '5', '29'] 6385.833333333327
185 127.71666666666667 ['60', '5', '29'] 6385.833333333327
186 127.71666666666667 ['60', '5', '29'] 6385.833333333327
187 127.71666666666667 ['60', '5', '29'] 6385.833333333327
188 127.71666666666667 ['60', '5', '29'] 6385.833333333327
189 127.71666666666667 ['60', '5', '29'] 6385.833333333327
190 127.71666666666667 ['60', '5', '29'] 6385.833333333327
191 127.71666666666667 ['60', '5', '29'] 6385.833333333327
192 127.71666666666667 ['60', '5', '29'] 6385.833333333327
193 127.71666666666667 ['60', '5', '29'] 6385.833333333327
194 127.71666666666667 ['60', '5', '29'] 6385.833333333327
195 127.71666666666667 ['60', '5', '29'] 6385.833333333327
196 127.71666666666667 ['60', '5', '29'] 6385.833333333327
197 127.71666666666667 ['60', '5', '29'] 6385.833333333327
198 127.71666666666667 ['60', '5', '29'] 6385.833333333327
199 127.71666666666667 ['60', '5', '29'] 6385.833333333327
