0 28.85185185185185 ['11', '21', '12', '55', '36', '7'] 1500.5555555555554
1 27.87037037037037 ['29', '3', '7', '55', '59', '12'] 1467.2407407407409
2 27.555555555555557 ['55', '7', '3', '12', '56', '4'] 1446.3703703703704
3 27.555555555555557 ['55', '7', '3', '12', '56', '4'] 1430.5185185185182
4 27.296296296296298 ['3', '55', '4', '29', '12', '7'] 1410.3518518518517
5 26.703703703703702 ['12', '3', '7', '53', '55', '29'] 1393.722222222222
6 26.685185185185187 ['12', '55', '53', '3', '8', '7'] 1376.9272727272726
7 26.38888888888889 ['38', '14', '55', '53', '7', '12'] 1358.7407407407418
8 26.27777777777778 ['55', '12', '53', '7', '4', '6'] 1340.2777777777771
9 26.12962962962963 ['55', '7', '53', '12', '29', '4'] 1332.3888888888898
10 26.12962962962963 ['55', '7', '53', '12', '29', '4'] 1325.9074074074076
11 25.962962962962962 ['7', '12', '53', '55', '29', '8'] 1319.6851851851854
12 25.962962962962962 ['7', '12', '53', '55', '29', '8'] 1312.1666666666665
13 25.962962962962962 ['7', '12', '53', '55', '29', '8'] 1308.462962962964
14 25.962962962962962 ['7', '12', '53', '55', '29', '8'] 1305.0370370370372
15 25.962962962962962 ['7', '12', '53', '55', '29', '8'] 1303.5925925925922
16 25.962962962962962 ['7', '12', '53', '55', '29', '8'] 1300.6111111111106
17 25.962962962962962 ['7', '12', '53', '55', '29', '8'] 1298.1481481481483
18 25.962962962962962 ['7', '12', '53', '55', '29', '8'] 1298.1481481481483
19 25.962962962962962 ['7', '12', '53', '55', '29', '8'] 1298.1481481481483
20 25.962962962962962 ['7', '12', '53', '55', '29', '8'] 1298.1481481481483
21 25.962962962962962 ['7', '12', '53', '55', '29', '8'] 1298.1481481481483
22 25.962962962962962 ['7', '12', '53', '55', '29', '8'] 1298.1481481481483
23 25.962962962962962 ['7', '12', '53', '55', '29', '8'] 1298.1481481481483
24 25.962962962962962 ['7', '12', '53', '55', '29', '8'] 1298.1481481481483
25 25.962962962962962 ['7', '12', '53', '55', '29', '8'] 1298.1481481481483
26 25.962962962962962 ['7', '12', '53', '55', '29', '8'] 1298.1481481481483
27 25.962962962962962 ['7', '12', '53', '55', '29', '8'] 1298.1481481481483
28 25.962962962962962 ['7', '12', '53', '55', '29', '8'] 1298.1481481481483
29 25.962962962962962 ['7', '12', '53', '55', '29', '8'] 1298.1481481481483
30 25.962962962962962 ['7', '12', '53', '55', '29', '8'] 1298.1481481481483
31 25.962962962962962 ['7', '12', '53', '55', '29', '8'] 1298.1481481481483
32 25.962962962962962 ['7', '12', '53', '55', '29', '8'] 1298.1481481481483
33 25.962962962962962 ['7', '12', '53', '55', '29', '8'] 1298.1481481481483
34 25.962962962962962 ['7', '12', '53', '55', '29', '8'] 1298.1481481481483
35 25.962962962962962 ['7', '12', '53', '55', '29', '8'] 1298.1481481481483
36 25.962962962962962 ['7', '12', '53', '55', '29', '8'] 1298.1481481481483
37 25.962962962962962 ['7', '12', '53', '55', '29', '8'] 1298.1481481481483
38 25.962962962962962 ['7', '12', '53', '55', '29', '8'] 1298.1481481481483
39 25.962962962962962 ['7', '12', '53', '55', '29', '8'] 1298.1481481481483
40 25.962962962962962 ['7', '12', '53', '55', '29', '8'] 1298.1481481481483
41 25.962962962962962 ['7', '12', '53', '55', '29', '8'] 1298.1481481481483
42 25.962962962962962 ['7', '12', '53', '55', '29', '8'] 1298.1481481481483
43 25.962962962962962 ['7', '12', '53', '55', '29', '8'] 1298.1481481481483
44 25.962962962962962 ['7', '12', '53', '55', '29', '8'] 1298.1481481481483
45 25.962962962962962 ['7', '12', '53', '55', '29', '8'] 1298.1481481481483
46 25.962962962962962 ['7', '12', '53', '55', '29', '8'] 1298.1481481481483
47 25.962962962962962 ['7', '12', '53', '55', '29', '8'] 1298.1481481481483
48 25.962962962962962 ['7', '12', '53', '55', '29', '8'] 1298.1481481481483
49 25.962962962962962 ['7', '12', '53', '55', '29', '8'] 1298.1481481481483
50 25.962962962962962 ['7', '12', '53', '55', '29', '8'] 1298.1481481481483
51 25.962962962962962 ['7', '12', '53', '55', '29', '8'] 1298.1481481481483
52 25.962962962962962 ['7', '12', '53', '55', '29', '8'] 1298.1481481481483
53 25.962962962962962 ['7', '12', '53', '55', '29', '8'] 1298.1481481481483
54 25.962962962962962 ['7', '12', '53', '55', '29', '8'] 1298.1481481481483
55 25.962962962962962 ['7', '12', '53', '55', '29', '8'] 1298.1481481481483
56 25.962962962962962 ['7', '12', '53', '55', '29', '8'] 1298.1481481481483
57 25.962962962962962 ['7', '12', '53', '55', '29', '8'] 1298.1481481481483
58 25.962962962962962 ['7', '12', '53', '55', '29', '8'] 1298.1481481481483
59 25.962962962962962 ['7', '12', '53', '55', '29', '8'] 1298.1481481481483
60 25.962962962962962 ['7', '12', '53', '55', '29', '8'] 1298.1481481481483
61 25.962962962962962 ['7', '12', '53', '55', '29', '8'] 1298.1481481481483
62 25.962962962962962 ['7', '12', '53', '55', '29', '8'] 1298.1481481481483
63 25.962962962962962 ['7', '12', '53', '55', '29', '8'] 1298.1481481481483
64 25.962962962962962 ['7', '12', '53', '55', '29', '8'] 1298.1481481481483
65 25.962962962962962 ['7', '12', '53', '55', '29', '8'] 1298.1481481481483
66 25.962962962962962 ['7', '12', '53', '55', '29', '8'] 1298.1481481481483
67 25.962962962962962 ['7', '12', '53', '55', '29', '8'] 1298.1481481481483
68 25.962962962962962 ['7', '12', '53', '55', '29', '8'] 1298.1481481481483
69 25.962962962962962 ['7', '12', '53', '55', '29', '8'] 1298.1481481481483
70 25.962962962962962 ['7', '12', '53', '55', '29', '8'] 1298.1481481481483
71 25.962962962962962 ['7', '12', '53', '55', '29', '8'] 1298.1481481481483
72 25.962962962962962 ['7', '12', '53', '55', '29', '8'] 1298.1481481481483
73 25.962962962962962 ['7', '12', '53', '55', '29', '8'] 1298.1481481481483
74 25.962962962962962 ['7', '12', '53', '55', '29', '8'] 1298.1481481481483
75 25.962962962962962 ['7', '12', '53', '55', '29', '8'] 1298.1481481481483
76 25.962962962962962 ['7', '12', '53', '55', '29', '8'] 1298.1481481481483
77 25.962962962962962 ['7', '12', '53', '55', '29', '8'] 1298.1481481481483
78 25.962962962962962 ['7', '12', '53', '55', '29', '8'] 1298.1481481481483
79 25.962962962962962 ['7', '12', '53', '55', '29', '8'] 1298.1481481481483
80 25.962962962962962 ['7', '12', '53', '55', '29', '8'] 1298.1481481481483
81 25.962962962962962 ['7', '12', '53', '55', '29', '8'] 1298.1481481481483
82 25.962962962962962 ['7', '12', '53', '55', '29', '8'] 1298.1481481481483
83 25.962962962962962 ['7', '12', '53', '55', '29', '8'] 1298.1481481481483
84 25.962962962962962 ['7', '12', '53', '55', '29', '8'] 1298.1481481481483
85 25.962962962962962 ['7', '12', '53', '55', '29', '8'] 1298.1481481481483
86 25.962962962962962 ['7', '12', '53', '55', '29', '8'] 1298.1481481481483
87 25.962962962962962 ['7', '12', '53', '55', '29', '8'] 1298.1481481481483
88 25.962962962962962 ['7', '12', '53', '55', '29', '8'] 1298.1481481481483
89 25.962962962962962 ['7', '12', '53', '55', '29', '8'] 1298.1481481481483
90 25.962962962962962 ['7', '12', '53', '55', '29', '8'] 1298.1481481481483
91 25.962962962962962 ['7', '12', '53', '55', '29', '8'] 1298.1481481481483
92 25.962962962962962 ['7', '12', '53', '55', '29', '8'] 1298.1481481481483
93 25.962962962962962 ['7', '12', '53', '55', '29', '8'] 1298.1481481481483
94 25.962962962962962 ['7', '12', '53', '55', '29', '8'] 1298.1481481481483
95 25.962962962962962 ['7', '12', '53', '55', '29', '8'] 1298.1481481481483
96 25.962962962962962 ['7', '12', '53', '55', '29', '8'] 1298.1481481481483
97 25.962962962962962 ['7', '12', '53', '55', '29', '8'] 1298.1481481481483
98 25.962962962962962 ['7', '12', '53', '55', '29', '8'] 1298.1481481481483
99 25.962962962962962 ['7', '12', '53', '55', '29', '8'] 1298.1481481481483
100 25.962962962962962 ['7', '12', '53', '55', '29', '8'] 1298.1481481481483
101 25.962962962962962 ['7', '12', '53', '55', '29', '8'] 1298.1481481481483
102 25.962962962962962 ['7', '12', '53', '55', '29', '8'] 1298.1481481481483
103 25.962962962962962 ['7', '12', '53', '55', '29', '8'] 1298.1481481481483
104 25.962962962962962 ['7', '12', '53', '55', '29', '8'] 1298.1481481481483
105 25.962962962962962 ['7', '12', '53', '55', '29', '8'] 1298.1481481481483
106 25.962962962962962 ['7', '12', '53', '55', '29', '8'] 1298.1481481481483
107 25.962962962962962 ['7', '12', '53', '55', '29', '8'] 1298.1481481481483
108 25.962962962962962 ['7', '12', '53', '55', '29', '8'] 1298.1481481481483
109 25.962962962962962 ['7', '12', '53', '55', '29', '8'] 1298.1481481481483
110 25.962962962962962 ['7', '12', '53', '55', '29', '8'] 1298.1481481481483
111 25.962962962962962 ['7', '12', '53', '55', '29', '8'] 1298.1481481481483
112 25.962962962962962 ['7', '12', '53', '55', '29', '8'] 1298.1481481481483
113 25.962962962962962 ['7', '12', '53', '55', '29', '8'] 1298.1481481481483
114 25.962962962962962 ['7', '12', '53', '55', '29', '8'] 1298.1481481481483
115 25.962962962962962 ['7', '12', '53', '55', '29', '8'] 1298.1481481481483
116 25.962962962962962 ['7', '12', '53', '55', '29', '8'] 1298.1481481481483
117 25.962962962962962 ['7', '12', '53', '55', '29', '8'] 1298.1481481481483
118 25.962962962962962 ['7', '12', '53', '55', '29', '8'] 1298.1481481481483
119 25.962962962962962 ['7', '12', '53', '55', '29', '8'] 1298.1481481481483
120 25.962962962962962 ['7', '12', '53', '55', '29', '8'] 1298.1481481481483
121 25.962962962962962 ['7', '12', '53', '55', '29', '8'] 1298.1481481481483
122 25.962962962962962 ['7', '12', '53', '55', '29', '8'] 1298.1481481481483
123 25.962962962962962 ['7', '12', '53', '55', '29', '8'] 1298.1481481481483
124 25.962962962962962 ['7', '12', '53', '55', '29', '8'] 1298.1481481481483
125 25.962962962962962 ['7', '12', '53', '55', '29', '8'] 1298.1481481481483
126 25.962962962962962 ['7', '12', '53', '55', '29', '8'] 1298.1481481481483
127 25.962962962962962 ['7', '12', '53', '55', '29', '8'] 1298.1481481481483
128 25.962962962962962 ['7', '12', '53', '55', '29', '8'] 1298.1481481481483
129 25.962962962962962 ['7', '12', '53', '55', '29', '8'] 1298.1481481481483
130 25.962962962962962 ['7', '12', '53', '55', '29', '8'] 1298.1481481481483
131 25.962962962962962 ['7', '12', '53', '55', '29', '8'] 1298.1481481481483
132 25.962962962962962 ['7', '12', '53', '55', '29', '8'] 1298.1481481481483
133 25.962962962962962 ['7', '12', '53', '55', '29', '8'] 1298.1481481481483
134 25.962962962962962 ['7', '12', '53', '55', '29', '8'] 1298.1481481481483
135 25.962962962962962 ['7', '12', '53', '55', '29', '8'] 1298.1481481481483
136 25.962962962962962 ['7', '12', '53', '55', '29', '8'] 1298.1481481481483
137 25.962962962962962 ['7', '12', '53', '55', '29', '8'] 1298.1481481481483
138 25.962962962962962 ['7', '12', '53', '55', '29', '8'] 1298.1481481481483
139 25.962962962962962 ['7', '12', '53', '55', '29', '8'] 1298.1481481481483
140 25.962962962962962 ['7', '12', '53', '55', '29', '8'] 1298.1481481481483
141 25.962962962962962 ['7', '12', '53', '55', '29', '8'] 1298.1481481481483
142 25.962962962962962 ['7', '12', '53', '55', '29', '8'] 1298.1481481481483
143 25.962962962962962 ['7', '12', '53', '55', '29', '8'] 1298.1481481481483
144 25.962962962962962 ['7', '12', '53', '55', '29', '8'] 1298.1481481481483
145 25.962962962962962 ['7', '12', '53', '55', '29', '8'] 1298.1481481481483
146 25.962962962962962 ['7', '12', '53', '55', '29', '8'] 1298.1481481481483
147 25.962962962962962 ['7', '12', '53', '55', '29', '8'] 1298.1481481481483
148 25.962962962962962 ['7', '12', '53', '55', '29', '8'] 1298.1481481481483
149 25.962962962962962 ['7', '12', '53', '55', '29', '8'] 1298.1481481481483
150 25.962962962962962 ['7', '12', '53', '55', '29', '8'] 1298.1481481481483
151 25.962962962962962 ['7', '12', '53', '55', '29', '8'] 1298.1481481481483
152 25.962962962962962 ['7', '12', '53', '55', '29', '8'] 1298.1481481481483
153 25.962962962962962 ['7', '12', '53', '55', '29', '8'] 1298.1481481481483
154 25.962962962962962 ['7', '12', '53', '55', '29', '8'] 1298.1481481481483
155 25.962962962962962 ['7', '12', '53', '55', '29', '8'] 1298.1481481481483
156 25.962962962962962 ['7', '12', '53', '55', '29', '8'] 1298.1481481481483
157 25.962962962962962 ['7', '12', '53', '55', '29', '8'] 1298.1481481481483
158 25.962962962962962 ['7', '12', '53', '55', '29', '8'] 1298.1481481481483
159 25.962962962962962 ['7', '12', '53', '55', '29', '8'] 1298.1481481481483
160 25.962962962962962 ['7', '12', '53', '55', '29', '8'] 1298.1481481481483
161 25.962962962962962 ['7', '12', '53', '55', '29', '8'] 1298.1481481481483
162 25.962962962962962 ['7', '12', '53', '55', '29', '8'] 1298.1481481481483
163 25.962962962962962 ['7', '12', '53', '55', '29', '8'] 1298.1481481481483
164 25.962962962962962 ['7', '12', '53', '55', '29', '8'] 1298.1481481481483
165 25.962962962962962 ['7', '12', '53', '55', '29', '8'] 1298.1481481481483
166 25.962962962962962 ['7', '12', '53', '55', '29', '8'] 1298.1481481481483
167 25.962962962962962 ['7', '12', '53', '55', '29', '8'] 1298.1481481481483
168 25.962962962962962 ['7', '12', '53', '55', '29', '8'] 1298.1481481481483
169 25.962962962962962 ['7', '12', '53', '55', '29', '8'] 1298.1481481481483
170 25.962962962962962 ['7', '12', '53', '55', '29', '8'] 1298.1481481481483
171 25.962962962962962 ['7', '12', '53', '55', '29', '8'] 1298.1481481481483
172 25.962962962962962 ['7', '12', '53', '55', '29', '8'] 1298.1481481481483
173 25.962962962962962 ['7', '12', '53', '55', '29', '8'] 1298.1481481481483
174 25.962962962962962 ['7', '12', '53', '55', '29', '8'] 1298.1481481481483
175 25.962962962962962 ['7', '12', '53', '55', '29', '8'] 1298.1481481481483
176 25.962962962962962 ['7', '12', '53', '55', '29', '8'] 1298.1481481481483
177 25.962962962962962 ['7', '12', '53', '55', '29', '8'] 1298.1481481481483
178 25.962962962962962 ['7', '12', '53', '55', '29', '8'] 1298.1481481481483
179 25.962962962962962 ['7', '12', '53', '55', '29', '8'] 1298.1481481481483
180 25.962962962962962 ['7', '12', '53', '55', '29', '8'] 1298.1481481481483
181 25.962962962962962 ['7', '12', '53', '55', '29', '8'] 1298.1481481481483
182 25.962962962962962 ['7', '12', '53', '55', '29', '8'] 1298.1481481481483
183 25.962962962962962 ['7', '12', '53', '55', '29', '8'] 1298.1481481481483
184 25.962962962962962 ['7', '12', '53', '55', '29', '8'] 1298.1481481481483
185 25.962962962962962 ['7', '12', '53', '55', '29', '8'] 1298.1481481481483
186 25.962962962962962 ['7', '12', '53', '55', '29', '8'] 1298.1481481481483
187 25.962962962962962 ['7', '12', '53', '55', '29', '8'] 1298.1481481481483
188 25.962962962962962 ['7', '12', '53', '55', '29', '8'] 1298.1481481481483
189 25.962962962962962 ['7', '12', '53', '55', '29', '8'] 1298.1481481481483
190 25.962962962962962 ['7', '12', '53', '55', '29', '8'] 1298.1481481481483
191 25.962962962962962 ['7', '12', '53', '55', '29', '8'] 1298.1481481481483
192 25.962962962962962 ['7', '12', '53', '55', '29', '8'] 1298.1481481481483
193 25.962962962962962 ['7', '12', '53', '55', '29', '8'] 1298.1481481481483
194 25.962962962962962 ['7', '12', '53', '55', '29', '8'] 1298.1481481481483
195 25.962962962962962 ['7', '12', '53', '55', '29', '8'] 1298.1481481481483
196 25.962962962962962 ['7', '12', '53', '55', '29', '8'] 1298.1481481481483
197 25.962962962962962 ['7', '12', '53', '55', '29', '8'] 1298.1481481481483
198 25.962962962962962 ['7', '12', '53', '55', '29', '8'] 1298.1481481481483
199 25.962962962962962 ['7', '12', '53', '55', '29', '8'] 1298.1481481481483
