0 7.2272727272727275 ['17', '3'] 373.36363636363626
1 7.181818181818182 ['1', '17'] 368.1363636363636
2 7.181818181818182 ['1', '17'] 365.3636363636366
3 7.181818181818182 ['1', '17'] 362.7727272727273
4 7.181818181818182 ['1', '17'] 360.54545454545445
5 7.181818181818182 ['1', '17'] 359.0909090909093
6 7.181818181818182 ['1', '17'] 359.0909090909093
7 7.181818181818182 ['1', '17'] 359.0909090909093
8 7.181818181818182 ['1', '17'] 359.0909090909093
9 7.181818181818182 ['1', '17'] 359.0909090909093
10 7.181818181818182 ['1', '17'] 359.0909090909093
11 7.181818181818182 ['1', '17'] 359.0909090909093
12 7.181818181818182 ['1', '17'] 359.0909090909093
13 7.181818181818182 ['1', '17'] 359.0909090909093
14 7.181818181818182 ['1', '17'] 359.0909090909093
15 7.181818181818182 ['1', '17'] 359.0909090909093
16 7.181818181818182 ['1', '17'] 359.0909090909093
17 7.181818181818182 ['1', '17'] 359.0909090909093
18 7.181818181818182 ['1', '17'] 359.0909090909093
19 7.181818181818182 ['1', '17'] 359.0909090909093
20 7.181818181818182 ['1', '17'] 359.0909090909093
21 7.181818181818182 ['1', '17'] 359.0909090909093
22 7.181818181818182 ['1', '17'] 359.0909090909093
23 7.181818181818182 ['1', '17'] 359.0909090909093
24 7.181818181818182 ['1', '17'] 359.0909090909093
25 7.181818181818182 ['1', '17'] 359.0909090909093
26 7.181818181818182 ['1', '17'] 359.0909090909093
27 7.181818181818182 ['1', '17'] 359.0909090909093
28 7.181818181818182 ['1', '17'] 359.0909090909093
29 7.181818181818182 ['1', '17'] 359.0909090909093
30 7.181818181818182 ['1', '17'] 359.0909090909093
31 7.181818181818182 ['1', '17'] 359.0909090909093
32 7.181818181818182 ['1', '17'] 359.0909090909093
33 7.181818181818182 ['1', '17'] 359.0909090909093
34 7.181818181818182 ['1', '17'] 359.0909090909093
35 7.181818181818182 ['1', '17'] 359.0909090909093
36 7.181818181818182 ['1', '17'] 359.0909090909093
37 7.181818181818182 ['1', '17'] 359.0909090909093
38 7.181818181818182 ['1', '17'] 359.0909090909093
39 7.181818181818182 ['1', '17'] 359.0909090909093
40 7.181818181818182 ['1', '17'] 359.0909090909093
41 7.181818181818182 ['1', '17'] 359.0909090909093
42 7.181818181818182 ['1', '17'] 359.0909090909093
43 7.181818181818182 ['1', '17'] 359.0909090909093
44 7.181818181818182 ['1', '17'] 359.0909090909093
45 7.181818181818182 ['1', '17'] 359.0909090909093
46 7.181818181818182 ['1', '17'] 359.0909090909093
47 7.181818181818182 ['1', '17'] 359.0909090909093
48 7.181818181818182 ['1', '17'] 359.0909090909093
49 7.181818181818182 ['1', '17'] 359.0909090909093
50 7.181818181818182 ['1', '17'] 359.0909090909093
51 7.181818181818182 ['1', '17'] 359.0909090909093
52 7.181818181818182 ['1', '17'] 359.0909090909093
53 7.181818181818182 ['1', '17'] 359.0909090909093
54 7.181818181818182 ['1', '17'] 359.0909090909093
55 7.181818181818182 ['1', '17'] 359.0909090909093
56 7.181818181818182 ['1', '17'] 359.0909090909093
57 7.181818181818182 ['1', '17'] 359.0909090909093
58 7.181818181818182 ['1', '17'] 359.0909090909093
59 7.181818181818182 ['1', '17'] 359.0909090909093
60 7.181818181818182 ['1', '17'] 359.0909090909093
61 7.181818181818182 ['1', '17'] 359.0909090909093
62 7.181818181818182 ['1', '17'] 359.0909090909093
63 7.181818181818182 ['1', '17'] 359.0909090909093
64 7.181818181818182 ['1', '17'] 359.0909090909093
65 7.181818181818182 ['1', '17'] 359.0909090909093
66 7.181818181818182 ['1', '17'] 359.0909090909093
67 7.181818181818182 ['1', '17'] 359.0909090909093
68 7.181818181818182 ['1', '17'] 359.0909090909093
69 7.181818181818182 ['1', '17'] 359.0909090909093
70 7.181818181818182 ['1', '17'] 359.0909090909093
71 7.181818181818182 ['1', '17'] 359.0909090909093
72 7.181818181818182 ['1', '17'] 359.0909090909093
73 7.181818181818182 ['1', '17'] 359.0909090909093
74 7.181818181818182 ['1', '17'] 359.0909090909093
75 7.181818181818182 ['1', '17'] 359.0909090909093
76 7.181818181818182 ['1', '17'] 359.0909090909093
77 7.181818181818182 ['1', '17'] 359.0909090909093
78 7.181818181818182 ['1', '17'] 359.0909090909093
79 7.181818181818182 ['1', '17'] 359.0909090909093
80 7.181818181818182 ['1', '17'] 359.0909090909093
81 7.181818181818182 ['1', '17'] 359.0909090909093
82 7.181818181818182 ['1', '17'] 359.0909090909093
83 7.181818181818182 ['1', '17'] 359.0909090909093
84 7.181818181818182 ['1', '17'] 359.0909090909093
85 7.181818181818182 ['1', '17'] 359.0909090909093
86 7.181818181818182 ['1', '17'] 359.0909090909093
87 7.181818181818182 ['1', '17'] 359.0909090909093
88 7.181818181818182 ['1', '17'] 359.0909090909093
89 7.181818181818182 ['1', '17'] 359.0909090909093
90 7.181818181818182 ['1', '17'] 359.0909090909093
91 7.181818181818182 ['1', '17'] 359.0909090909093
92 7.181818181818182 ['1', '17'] 359.0909090909093
93 7.181818181818182 ['1', '17'] 359.0909090909093
94 7.181818181818182 ['1', '17'] 359.0909090909093
95 7.181818181818182 ['1', '17'] 359.0909090909093
96 7.181818181818182 ['1', '17'] 359.0909090909093
97 7.181818181818182 ['1', '17'] 359.0909090909093
98 7.181818181818182 ['1', '17'] 359.0909090909093
99 7.181818181818182 ['1', '17'] 359.0909090909093
100 7.181818181818182 ['1', '17'] 359.0909090909093
101 7.181818181818182 ['1', '17'] 359.0909090909093
102 7.181818181818182 ['1', '17'] 359.0909090909093
103 7.181818181818182 ['1', '17'] 359.0909090909093
104 7.181818181818182 ['1', '17'] 359.0909090909093
105 7.181818181818182 ['1', '17'] 359.0909090909093
106 7.181818181818182 ['1', '17'] 359.0909090909093
107 7.181818181818182 ['1', '17'] 359.0909090909093
108 7.181818181818182 ['1', '17'] 359.0909090909093
109 7.181818181818182 ['1', '17'] 359.0909090909093
110 7.181818181818182 ['1', '17'] 359.0909090909093
111 7.181818181818182 ['1', '17'] 359.0909090909093
112 7.181818181818182 ['1', '17'] 359.0909090909093
113 7.181818181818182 ['1', '17'] 359.0909090909093
114 7.181818181818182 ['1', '17'] 359.0909090909093
115 7.181818181818182 ['1', '17'] 359.0909090909093
116 7.181818181818182 ['1', '17'] 359.0909090909093
117 7.181818181818182 ['1', '17'] 359.0909090909093
118 7.181818181818182 ['1', '17'] 359.0909090909093
119 7.181818181818182 ['1', '17'] 359.0909090909093
120 7.181818181818182 ['1', '17'] 359.0909090909093
121 7.181818181818182 ['1', '17'] 359.0909090909093
122 7.181818181818182 ['1', '17'] 359.0909090909093
123 7.181818181818182 ['1', '17'] 359.0909090909093
124 7.181818181818182 ['1', '17'] 359.0909090909093
125 7.181818181818182 ['1', '17'] 359.0909090909093
126 7.181818181818182 ['1', '17'] 359.0909090909093
127 7.181818181818182 ['1', '17'] 359.0909090909093
128 7.181818181818182 ['1', '17'] 359.0909090909093
129 7.181818181818182 ['1', '17'] 359.0909090909093
130 7.181818181818182 ['1', '17'] 359.0909090909093
131 7.181818181818182 ['1', '17'] 359.0909090909093
132 7.181818181818182 ['1', '17'] 359.0909090909093
133 7.181818181818182 ['1', '17'] 359.0909090909093
134 7.181818181818182 ['1', '17'] 359.0909090909093
135 7.181818181818182 ['1', '17'] 359.0909090909093
136 7.181818181818182 ['1', '17'] 359.0909090909093
137 7.181818181818182 ['1', '17'] 359.0909090909093
138 7.181818181818182 ['1', '17'] 359.0909090909093
139 7.181818181818182 ['1', '17'] 359.0909090909093
140 7.181818181818182 ['1', '17'] 359.0909090909093
141 7.181818181818182 ['1', '17'] 359.0909090909093
142 7.181818181818182 ['1', '17'] 359.0909090909093
143 7.181818181818182 ['1', '17'] 359.0909090909093
144 7.181818181818182 ['1', '17'] 359.0909090909093
145 7.181818181818182 ['1', '17'] 359.0909090909093
146 7.181818181818182 ['1', '17'] 359.0909090909093
147 7.181818181818182 ['1', '17'] 359.0909090909093
148 7.181818181818182 ['1', '17'] 359.0909090909093
149 7.181818181818182 ['1', '17'] 359.0909090909093
150 7.181818181818182 ['1', '17'] 359.0909090909093
151 7.181818181818182 ['1', '17'] 359.0909090909093
152 7.181818181818182 ['1', '17'] 359.0909090909093
153 7.181818181818182 ['1', '17'] 359.0909090909093
154 7.181818181818182 ['1', '17'] 359.0909090909093
155 7.181818181818182 ['1', '17'] 359.0909090909093
156 7.181818181818182 ['1', '17'] 359.0909090909093
157 7.181818181818182 ['1', '17'] 359.0909090909093
158 7.181818181818182 ['1', '17'] 359.0909090909093
159 7.181818181818182 ['1', '17'] 359.0909090909093
160 7.181818181818182 ['1', '17'] 359.0909090909093
161 7.181818181818182 ['1', '17'] 359.0909090909093
162 7.181818181818182 ['1', '17'] 359.0909090909093
163 7.181818181818182 ['1', '17'] 359.0909090909093
164 7.181818181818182 ['1', '17'] 359.0909090909093
165 7.181818181818182 ['1', '17'] 359.0909090909093
166 7.181818181818182 ['1', '17'] 359.0909090909093
167 7.181818181818182 ['1', '17'] 359.0909090909093
168 7.181818181818182 ['1', '17'] 359.0909090909093
169 7.181818181818182 ['1', '17'] 359.0909090909093
170 7.181818181818182 ['1', '17'] 359.0909090909093
171 7.181818181818182 ['1', '17'] 359.0909090909093
172 7.181818181818182 ['1', '17'] 359.0909090909093
173 7.181818181818182 ['1', '17'] 359.0909090909093
174 7.181818181818182 ['1', '17'] 359.0909090909093
175 7.181818181818182 ['1', '17'] 359.0909090909093
176 7.181818181818182 ['1', '17'] 359.0909090909093
177 7.181818181818182 ['1', '17'] 359.0909090909093
178 7.181818181818182 ['1', '17'] 359.0909090909093
179 7.181818181818182 ['1', '17'] 359.0909090909093
180 7.181818181818182 ['1', '17'] 359.0909090909093
181 7.181818181818182 ['1', '17'] 359.0909090909093
182 7.181818181818182 ['1', '17'] 359.0909090909093
183 7.181818181818182 ['1', '17'] 359.0909090909093
184 7.181818181818182 ['1', '17'] 359.0909090909093
185 7.181818181818182 ['1', '17'] 359.0909090909093
186 7.181818181818182 ['1', '17'] 359.0909090909093
187 7.181818181818182 ['1', '17'] 359.0909090909093
188 7.181818181818182 ['1', '17'] 359.0909090909093
189 7.181818181818182 ['1', '17'] 359.0909090909093
190 7.181818181818182 ['1', '17'] 359.0909090909093
191 7.181818181818182 ['1', '17'] 359.0909090909093
192 7.181818181818182 ['1', '17'] 359.0909090909093
193 7.181818181818182 ['1', '17'] 359.0909090909093
194 7.181818181818182 ['1', '17'] 359.0909090909093
195 7.181818181818182 ['1', '17'] 359.0909090909093
196 7.181818181818182 ['1', '17'] 359.0909090909093
197 7.181818181818182 ['1', '17'] 359.0909090909093
198 7.181818181818182 ['1', '17'] 359.0909090909093
199 7.181818181818182 ['1', '17'] 359.0909090909093
