0 5.851851851851852 ['15', '23', '3'] 305.14814814814815
1 5.814814814814815 ['3', '20', '23'] 301.2592592592591
2 5.777777777777778 ['1', '13', '23'] 297.33333333333326
3 5.62962962962963 ['20', '3', '1'] 292.85185185185196
4 5.592592592592593 ['15', '3', '1'] 289.7407407407406
5 5.592592592592593 ['15', '3', '1'] 286.14814814814815
6 5.592592592592593 ['15', '3', '1'] 282.29629629629613
7 5.592592592592593 ['15', '3', '1'] 280.48148148148124
8 5.592592592592593 ['15', '3', '1'] 279.6296296296295
9 5.592592592592593 ['15', '3', '1'] 279.6296296296295
10 5.592592592592593 ['15', '3', '1'] 279.6296296296295
11 5.592592592592593 ['15', '3', '1'] 279.6296296296295
12 5.592592592592593 ['15', '3', '1'] 279.6296296296295
13 5.592592592592593 ['15', '3', '1'] 279.6296296296295
14 5.592592592592593 ['15', '3', '1'] 279.6296296296295
15 5.592592592592593 ['15', '3', '1'] 279.6296296296295
16 5.592592592592593 ['15', '3', '1'] 279.6296296296295
17 5.592592592592593 ['15', '3', '1'] 279.6296296296295
18 5.592592592592593 ['15', '3', '1'] 279.6296296296295
19 5.592592592592593 ['15', '3', '1'] 279.6296296296295
20 5.592592592592593 ['15', '3', '1'] 279.6296296296295
21 5.592592592592593 ['15', '3', '1'] 279.6296296296295
22 5.592592592592593 ['15', '3', '1'] 279.6296296296295
23 5.592592592592593 ['15', '3', '1'] 279.6296296296295
24 5.592592592592593 ['15', '3', '1'] 279.6296296296295
25 5.592592592592593 ['15', '3', '1'] 279.6296296296295
26 5.592592592592593 ['15', '3', '1'] 279.6296296296295
27 5.592592592592593 ['15', '3', '1'] 279.6296296296295
28 5.592592592592593 ['15', '3', '1'] 279.6296296296295
29 5.592592592592593 ['15', '3', '1'] 279.6296296296295
30 5.592592592592593 ['15', '3', '1'] 279.6296296296295
31 5.592592592592593 ['15', '3', '1'] 279.6296296296295
32 5.592592592592593 ['15', '3', '1'] 279.6296296296295
33 5.592592592592593 ['15', '3', '1'] 279.6296296296295
34 5.592592592592593 ['15', '3', '1'] 279.6296296296295
35 5.592592592592593 ['15', '3', '1'] 279.6296296296295
36 5.592592592592593 ['15', '3', '1'] 279.6296296296295
37 5.592592592592593 ['15', '3', '1'] 279.6296296296295
38 5.592592592592593 ['15', '3', '1'] 279.6296296296295
39 5.592592592592593 ['15', '3', '1'] 279.6296296296295
40 5.592592592592593 ['15', '3', '1'] 279.6296296296295
41 5.592592592592593 ['15', '3', '1'] 279.6296296296295
42 5.592592592592593 ['15', '3', '1'] 279.6296296296295
43 5.592592592592593 ['15', '3', '1'] 279.6296296296295
44 5.592592592592593 ['15', '3', '1'] 279.6296296296295
45 5.592592592592593 ['15', '3', '1'] 279.6296296296295
46 5.592592592592593 ['15', '3', '1'] 279.6296296296295
47 5.592592592592593 ['15', '3', '1'] 279.6296296296295
48 5.592592592592593 ['15', '3', '1'] 279.6296296296295
49 5.592592592592593 ['15', '3', '1'] 279.6296296296295
50 5.592592592592593 ['15', '3', '1'] 279.6296296296295
51 5.592592592592593 ['15', '3', '1'] 279.6296296296295
52 5.592592592592593 ['15', '3', '1'] 279.6296296296295
53 5.592592592592593 ['15', '3', '1'] 279.6296296296295
54 5.592592592592593 ['15', '3', '1'] 279.6296296296295
55 5.592592592592593 ['15', '3', '1'] 279.6296296296295
56 5.592592592592593 ['15', '3', '1'] 279.6296296296295
57 5.592592592592593 ['15', '3', '1'] 279.6296296296295
58 5.592592592592593 ['15', '3', '1'] 279.6296296296295
59 5.592592592592593 ['15', '3', '1'] 279.6296296296295
60 5.592592592592593 ['15', '3', '1'] 279.6296296296295
61 5.592592592592593 ['15', '3', '1'] 279.6296296296295
62 5.592592592592593 ['15', '3', '1'] 279.6296296296295
63 5.592592592592593 ['15', '3', '1'] 279.6296296296295
64 5.592592592592593 ['15', '3', '1'] 279.6296296296295
65 5.592592592592593 ['15', '3', '1'] 279.6296296296295
66 5.592592592592593 ['15', '3', '1'] 279.6296296296295
67 5.592592592592593 ['15', '3', '1'] 279.6296296296295
68 5.592592592592593 ['15', '3', '1'] 279.6296296296295
69 5.592592592592593 ['15', '3', '1'] 279.6296296296295
70 5.592592592592593 ['15', '3', '1'] 279.6296296296295
71 5.592592592592593 ['15', '3', '1'] 279.6296296296295
72 5.592592592592593 ['15', '3', '1'] 279.6296296296295
73 5.592592592592593 ['15', '3', '1'] 279.6296296296295
74 5.592592592592593 ['15', '3', '1'] 279.6296296296295
75 5.592592592592593 ['15', '3', '1'] 279.6296296296295
76 5.592592592592593 ['15', '3', '1'] 279.6296296296295
77 5.592592592592593 ['15', '3', '1'] 279.6296296296295
78 5.592592592592593 ['15', '3', '1'] 279.6296296296295
79 5.592592592592593 ['15', '3', '1'] 279.6296296296295
80 5.592592592592593 ['15', '3', '1'] 279.6296296296295
81 5.592592592592593 ['15', '3', '1'] 279.6296296296295
82 5.592592592592593 ['15', '3', '1'] 279.6296296296295
83 5.592592592592593 ['15', '3', '1'] 279.6296296296295
84 5.592592592592593 ['15', '3', '1'] 279.6296296296295
85 5.592592592592593 ['15', '3', '1'] 279.6296296296295
86 5.592592592592593 ['15', '3', '1'] 279.6296296296295
87 5.592592592592593 ['15', '3', '1'] 279.6296296296295
88 5.592592592592593 ['15', '3', '1'] 279.6296296296295
89 5.592592592592593 ['15', '3', '1'] 279.6296296296295
90 5.592592592592593 ['15', '3', '1'] 279.6296296296295
91 5.592592592592593 ['15', '3', '1'] 279.6296296296295
92 5.592592592592593 ['15', '3', '1'] 279.6296296296295
93 5.592592592592593 ['15', '3', '1'] 279.6296296296295
94 5.592592592592593 ['15', '3', '1'] 279.6296296296295
95 5.592592592592593 ['15', '3', '1'] 279.6296296296295
96 5.592592592592593 ['15', '3', '1'] 279.6296296296295
97 5.592592592592593 ['15', '3', '1'] 279.6296296296295
98 5.592592592592593 ['15', '3', '1'] 279.6296296296295
99 5.592592592592593 ['15', '3', '1'] 279.6296296296295
100 5.592592592592593 ['15', '3', '1'] 279.6296296296295
101 5.592592592592593 ['15', '3', '1'] 279.6296296296295
102 5.592592592592593 ['15', '3', '1'] 279.6296296296295
103 5.592592592592593 ['15', '3', '1'] 279.6296296296295
104 5.592592592592593 ['15', '3', '1'] 279.6296296296295
105 5.592592592592593 ['15', '3', '1'] 279.6296296296295
106 5.592592592592593 ['15', '3', '1'] 279.6296296296295
107 5.592592592592593 ['15', '3', '1'] 279.6296296296295
108 5.592592592592593 ['15', '3', '1'] 279.6296296296295
109 5.592592592592593 ['15', '3', '1'] 279.6296296296295
110 5.592592592592593 ['15', '3', '1'] 279.6296296296295
111 5.592592592592593 ['15', '3', '1'] 279.6296296296295
112 5.592592592592593 ['15', '3', '1'] 279.6296296296295
113 5.592592592592593 ['15', '3', '1'] 279.6296296296295
114 5.592592592592593 ['15', '3', '1'] 279.6296296296295
115 5.592592592592593 ['15', '3', '1'] 279.6296296296295
116 5.592592592592593 ['15', '3', '1'] 279.6296296296295
117 5.592592592592593 ['15', '3', '1'] 279.6296296296295
118 5.592592592592593 ['15', '3', '1'] 279.6296296296295
119 5.592592592592593 ['15', '3', '1'] 279.6296296296295
120 5.592592592592593 ['15', '3', '1'] 279.6296296296295
121 5.592592592592593 ['15', '3', '1'] 279.6296296296295
122 5.592592592592593 ['15', '3', '1'] 279.6296296296295
123 5.592592592592593 ['15', '3', '1'] 279.6296296296295
124 5.592592592592593 ['15', '3', '1'] 279.6296296296295
125 5.592592592592593 ['15', '3', '1'] 279.6296296296295
126 5.592592592592593 ['15', '3', '1'] 279.6296296296295
127 5.592592592592593 ['15', '3', '1'] 279.6296296296295
128 5.592592592592593 ['15', '3', '1'] 279.6296296296295
129 5.592592592592593 ['15', '3', '1'] 279.6296296296295
130 5.592592592592593 ['15', '3', '1'] 279.6296296296295
131 5.592592592592593 ['15', '3', '1'] 279.6296296296295
132 5.592592592592593 ['15', '3', '1'] 279.6296296296295
133 5.592592592592593 ['15', '3', '1'] 279.6296296296295
134 5.592592592592593 ['15', '3', '1'] 279.6296296296295
135 5.592592592592593 ['15', '3', '1'] 279.6296296296295
136 5.592592592592593 ['15', '3', '1'] 279.6296296296295
137 5.592592592592593 ['15', '3', '1'] 279.6296296296295
138 5.592592592592593 ['15', '3', '1'] 279.6296296296295
139 5.592592592592593 ['15', '3', '1'] 279.6296296296295
140 5.592592592592593 ['15', '3', '1'] 279.6296296296295
141 5.592592592592593 ['15', '3', '1'] 279.6296296296295
142 5.592592592592593 ['15', '3', '1'] 279.6296296296295
143 5.592592592592593 ['15', '3', '1'] 279.6296296296295
144 5.592592592592593 ['15', '3', '1'] 279.6296296296295
145 5.592592592592593 ['15', '3', '1'] 279.6296296296295
146 5.592592592592593 ['15', '3', '1'] 279.6296296296295
147 5.592592592592593 ['15', '3', '1'] 279.6296296296295
148 5.592592592592593 ['15', '3', '1'] 279.6296296296295
149 5.592592592592593 ['15', '3', '1'] 279.6296296296295
150 5.592592592592593 ['15', '3', '1'] 279.6296296296295
151 5.592592592592593 ['15', '3', '1'] 279.6296296296295
152 5.592592592592593 ['15', '3', '1'] 279.6296296296295
153 5.592592592592593 ['15', '3', '1'] 279.6296296296295
154 5.592592592592593 ['15', '3', '1'] 279.6296296296295
155 5.592592592592593 ['15', '3', '1'] 279.6296296296295
156 5.592592592592593 ['15', '3', '1'] 279.6296296296295
157 5.592592592592593 ['15', '3', '1'] 279.6296296296295
158 5.592592592592593 ['15', '3', '1'] 279.6296296296295
159 5.592592592592593 ['15', '3', '1'] 279.6296296296295
160 5.592592592592593 ['15', '3', '1'] 279.6296296296295
161 5.592592592592593 ['15', '3', '1'] 279.6296296296295
162 5.592592592592593 ['15', '3', '1'] 279.6296296296295
163 5.592592592592593 ['15', '3', '1'] 279.6296296296295
164 5.592592592592593 ['15', '3', '1'] 279.6296296296295
165 5.592592592592593 ['15', '3', '1'] 279.6296296296295
166 5.592592592592593 ['15', '3', '1'] 279.6296296296295
167 5.592592592592593 ['15', '3', '1'] 279.6296296296295
168 5.592592592592593 ['15', '3', '1'] 279.6296296296295
169 5.592592592592593 ['15', '3', '1'] 279.6296296296295
170 5.592592592592593 ['15', '3', '1'] 279.6296296296295
171 5.592592592592593 ['15', '3', '1'] 279.6296296296295
172 5.592592592592593 ['15', '3', '1'] 279.6296296296295
173 5.592592592592593 ['15', '3', '1'] 279.6296296296295
174 5.592592592592593 ['15', '3', '1'] 279.6296296296295
175 5.592592592592593 ['15', '3', '1'] 279.6296296296295
176 5.592592592592593 ['15', '3', '1'] 279.6296296296295
177 5.592592592592593 ['15', '3', '1'] 279.6296296296295
178 5.592592592592593 ['15', '3', '1'] 279.6296296296295
179 5.592592592592593 ['15', '3', '1'] 279.6296296296295
180 5.592592592592593 ['15', '3', '1'] 279.6296296296295
181 5.592592592592593 ['15', '3', '1'] 279.6296296296295
182 5.592592592592593 ['15', '3', '1'] 279.6296296296295
183 5.592592592592593 ['15', '3', '1'] 279.6296296296295
184 5.592592592592593 ['15', '3', '1'] 279.6296296296295
185 5.592592592592593 ['15', '3', '1'] 279.6296296296295
186 5.592592592592593 ['15', '3', '1'] 279.6296296296295
187 5.592592592592593 ['15', '3', '1'] 279.6296296296295
188 5.592592592592593 ['15', '3', '1'] 279.6296296296295
189 5.592592592592593 ['15', '3', '1'] 279.6296296296295
190 5.592592592592593 ['15', '3', '1'] 279.6296296296295
191 5.592592592592593 ['15', '3', '1'] 279.6296296296295
192 5.592592592592593 ['15', '3', '1'] 279.6296296296295
193 5.592592592592593 ['15', '3', '1'] 279.6296296296295
194 5.592592592592593 ['15', '3', '1'] 279.6296296296295
195 5.592592592592593 ['15', '3', '1'] 279.6296296296295
196 5.592592592592593 ['15', '3', '1'] 279.6296296296295
197 5.592592592592593 ['15', '3', '1'] 279.6296296296295
198 5.592592592592593 ['15', '3', '1'] 279.6296296296295
199 5.592592592592593 ['15', '3', '1'] 279.6296296296295
