0 35.660714285714285 ['30', '36', '61', '32', '38', '35'] 1898.2142857142846
1 35.107142857142854 ['36', '30', '54', '2', '61', '32'] 1860.553571428571
2 34.875 ['61', '36', '30', '32', '35', '39'] 1827.2678571428569
3 34.642857142857146 ['30', '2', '32', '15', '53', '6'] 1793.553571428571
4 34.05357142857143 ['30', '36', '32', '26', '43', '61'] 1765.982142857143
5 33.25 ['32', '30', '36', '39', '61', '33'] 1739.482142857143
6 33.035714285714285 ['33', '61', '32', '36', '15', '30'] 1717.3571428571424
7 33.035714285714285 ['33', '61', '32', '36', '15', '30'] 1696.9642857142853
8 33.035714285714285 ['33', '61', '32', '36', '15', '30'] 1681.9821428571436
9 32.982142857142854 ['32', '61', '33', '36', '39', '15'] 1666.2499999999995
10 32.982142857142854 ['32', '61', '33', '36', '39', '15'] 1654.5178571428573
11 32.982142857142854 ['32', '61', '33', '36', '39', '15'] 1651.4642857142853
12 32.982142857142854 ['32', '61', '33', '36', '39', '15'] 1651.1428571428567
13 32.982142857142854 ['32', '61', '33', '36', '39', '15'] 1650.4999999999993
14 32.982142857142854 ['32', '61', '33', '36', '39', '15'] 1649.4821428571431
15 32.982142857142854 ['32', '61', '33', '36', '39', '15'] 1649.1071428571438
16 32.982142857142854 ['32', '61', '33', '36', '39', '15'] 1649.1071428571438
17 32.982142857142854 ['32', '61', '33', '36', '39', '15'] 1649.1071428571438
18 32.982142857142854 ['32', '61', '33', '36', '39', '15'] 1649.1071428571438
19 32.982142857142854 ['32', '61', '33', '36', '39', '15'] 1649.1071428571438
20 32.982142857142854 ['32', '61', '33', '36', '39', '15'] 1649.1071428571438
21 32.982142857142854 ['32', '61', '33', '36', '39', '15'] 1649.1071428571438
22 32.982142857142854 ['32', '61', '33', '36', '39', '15'] 1649.1071428571438
23 32.982142857142854 ['32', '61', '33', '36', '39', '15'] 1649.1071428571438
24 32.982142857142854 ['32', '61', '33', '36', '39', '15'] 1649.1071428571438
25 32.982142857142854 ['32', '61', '33', '36', '39', '15'] 1649.1071428571438
26 32.982142857142854 ['32', '61', '33', '36', '39', '15'] 1649.1071428571438
27 32.982142857142854 ['32', '61', '33', '36', '39', '15'] 1649.1071428571438
28 32.982142857142854 ['32', '61', '33', '36', '39', '15'] 1649.1071428571438
29 32.982142857142854 ['32', '61', '33', '36', '39', '15'] 1649.1071428571438
30 32.982142857142854 ['32', '61', '33', '36', '39', '15'] 1649.1071428571438
31 32.982142857142854 ['32', '61', '33', '36', '39', '15'] 1649.1071428571438
32 32.982142857142854 ['32', '61', '33', '36', '39', '15'] 1649.1071428571438
33 32.982142857142854 ['32', '61', '33', '36', '39', '15'] 1649.1071428571438
34 32.982142857142854 ['32', '61', '33', '36', '39', '15'] 1649.1071428571438
35 32.982142857142854 ['32', '61', '33', '36', '39', '15'] 1649.1071428571438
36 32.982142857142854 ['32', '61', '33', '36', '39', '15'] 1649.1071428571438
37 32.982142857142854 ['32', '61', '33', '36', '39', '15'] 1649.1071428571438
38 32.982142857142854 ['32', '61', '33', '36', '39', '15'] 1649.1071428571438
39 32.982142857142854 ['32', '61', '33', '36', '39', '15'] 1649.1071428571438
40 32.982142857142854 ['32', '61', '33', '36', '39', '15'] 1649.1071428571438
41 32.982142857142854 ['32', '61', '33', '36', '39', '15'] 1649.1071428571438
42 32.982142857142854 ['32', '61', '33', '36', '39', '15'] 1649.1071428571438
43 32.982142857142854 ['32', '61', '33', '36', '39', '15'] 1649.1071428571438
44 32.982142857142854 ['32', '61', '33', '36', '39', '15'] 1649.1071428571438
45 32.982142857142854 ['32', '61', '33', '36', '39', '15'] 1649.1071428571438
46 32.982142857142854 ['32', '61', '33', '36', '39', '15'] 1649.1071428571438
47 32.982142857142854 ['32', '61', '33', '36', '39', '15'] 1649.1071428571438
48 32.982142857142854 ['32', '61', '33', '36', '39', '15'] 1649.1071428571438
49 32.982142857142854 ['32', '61', '33', '36', '39', '15'] 1649.1071428571438
50 32.982142857142854 ['32', '61', '33', '36', '39', '15'] 1649.1071428571438
51 32.982142857142854 ['32', '61', '33', '36', '39', '15'] 1649.1071428571438
52 32.982142857142854 ['32', '61', '33', '36', '39', '15'] 1649.1071428571438
53 32.982142857142854 ['32', '61', '33', '36', '39', '15'] 1649.1071428571438
54 32.982142857142854 ['32', '61', '33', '36', '39', '15'] 1649.1071428571438
55 32.982142857142854 ['32', '61', '33', '36', '39', '15'] 1649.1071428571438
56 32.982142857142854 ['32', '61', '33', '36', '39', '15'] 1649.1071428571438
57 32.982142857142854 ['32', '61', '33', '36', '39', '15'] 1649.1071428571438
58 32.982142857142854 ['32', '61', '33', '36', '39', '15'] 1649.1071428571438
59 32.982142857142854 ['32', '61', '33', '36', '39', '15'] 1649.1071428571438
60 32.982142857142854 ['32', '61', '33', '36', '39', '15'] 1649.1071428571438
61 32.982142857142854 ['32', '61', '33', '36', '39', '15'] 1649.1071428571438
62 32.982142857142854 ['32', '61', '33', '36', '39', '15'] 1649.1071428571438
63 32.982142857142854 ['32', '61', '33', '36', '39', '15'] 1649.1071428571438
64 32.982142857142854 ['32', '61', '33', '36', '39', '15'] 1649.1071428571438
65 32.982142857142854 ['32', '61', '33', '36', '39', '15'] 1649.1071428571438
66 32.982142857142854 ['32', '61', '33', '36', '39', '15'] 1649.1071428571438
67 32.982142857142854 ['32', '61', '33', '36', '39', '15'] 1649.1071428571438
68 32.982142857142854 ['32', '61', '33', '36', '39', '15'] 1649.1071428571438
69 32.982142857142854 ['32', '61', '33', '36', '39', '15'] 1649.1071428571438
70 32.982142857142854 ['32', '61', '33', '36', '39', '15'] 1649.1071428571438
71 32.982142857142854 ['32', '61', '33', '36', '39', '15'] 1649.1071428571438
72 32.982142857142854 ['32', '61', '33', '36', '39', '15'] 1649.1071428571438
73 32.982142857142854 ['32', '61', '33', '36', '39', '15'] 1649.1071428571438
74 32.982142857142854 ['32', '61', '33', '36', '39', '15'] 1649.1071428571438
75 32.982142857142854 ['32', '61', '33', '36', '39', '15'] 1649.1071428571438
76 32.982142857142854 ['32', '61', '33', '36', '39', '15'] 1649.1071428571438
77 32.982142857142854 ['32', '61', '33', '36', '39', '15'] 1649.1071428571438
78 32.982142857142854 ['32', '61', '33', '36', '39', '15'] 1649.1071428571438
79 32.982142857142854 ['32', '61', '33', '36', '39', '15'] 1649.1071428571438
80 32.982142857142854 ['32', '61', '33', '36', '39', '15'] 1649.1071428571438
81 32.982142857142854 ['32', '61', '33', '36', '39', '15'] 1649.1071428571438
82 32.982142857142854 ['32', '61', '33', '36', '39', '15'] 1649.1071428571438
83 32.982142857142854 ['32', '61', '33', '36', '39', '15'] 1649.1071428571438
84 32.982142857142854 ['32', '61', '33', '36', '39', '15'] 1649.1071428571438
85 32.982142857142854 ['32', '61', '33', '36', '39', '15'] 1649.1071428571438
86 32.982142857142854 ['32', '61', '33', '36', '39', '15'] 1649.1071428571438
87 32.982142857142854 ['32', '61', '33', '36', '39', '15'] 1649.1071428571438
88 32.982142857142854 ['32', '61', '33', '36', '39', '15'] 1649.1071428571438
89 32.982142857142854 ['32', '61', '33', '36', '39', '15'] 1649.1071428571438
90 32.982142857142854 ['32', '61', '33', '36', '39', '15'] 1649.1071428571438
91 32.982142857142854 ['32', '61', '33', '36', '39', '15'] 1649.1071428571438
92 32.982142857142854 ['32', '61', '33', '36', '39', '15'] 1649.1071428571438
93 32.982142857142854 ['32', '61', '33', '36', '39', '15'] 1649.1071428571438
94 32.982142857142854 ['32', '61', '33', '36', '39', '15'] 1649.1071428571438
95 32.982142857142854 ['32', '61', '33', '36', '39', '15'] 1649.1071428571438
96 32.982142857142854 ['32', '61', '33', '36', '39', '15'] 1649.1071428571438
97 32.982142857142854 ['32', '61', '33', '36', '39', '15'] 1649.1071428571438
98 32.982142857142854 ['32', '61', '33', '36', '39', '15'] 1649.1071428571438
99 32.982142857142854 ['32', '61', '33', '36', '39', '15'] 1649.1071428571438
100 32.982142857142854 ['32', '61', '33', '36', '39', '15'] 1649.1071428571438
101 32.982142857142854 ['32', '61', '33', '36', '39', '15'] 1649.1071428571438
102 32.982142857142854 ['32', '61', '33', '36', '39', '15'] 1649.1071428571438
103 32.982142857142854 ['32', '61', '33', '36', '39', '15'] 1649.1071428571438
104 32.982142857142854 ['32', '61', '33', '36', '39', '15'] 1649.1071428571438
105 32.982142857142854 ['32', '61', '33', '36', '39', '15'] 1649.1071428571438
106 32.982142857142854 ['32', '61', '33', '36', '39', '15'] 1649.1071428571438
107 32.982142857142854 ['32', '61', '33', '36', '39', '15'] 1649.1071428571438
108 32.982142857142854 ['32', '61', '33', '36', '39', '15'] 1649.1071428571438
109 32.982142857142854 ['32', '61', '33', '36', '39', '15'] 1649.1071428571438
110 32.982142857142854 ['32', '61', '33', '36', '39', '15'] 1649.1071428571438
111 32.982142857142854 ['32', '61', '33', '36', '39', '15'] 1649.1071428571438
112 32.982142857142854 ['32', '61', '33', '36', '39', '15'] 1649.1071428571438
113 32.982142857142854 ['32', '61', '33', '36', '39', '15'] 1649.1071428571438
114 32.982142857142854 ['32', '61', '33', '36', '39', '15'] 1649.1071428571438
115 32.982142857142854 ['32', '61', '33', '36', '39', '15'] 1649.1071428571438
116 32.982142857142854 ['32', '61', '33', '36', '39', '15'] 1649.1071428571438
117 32.982142857142854 ['32', '61', '33', '36', '39', '15'] 1649.1071428571438
118 32.982142857142854 ['32', '61', '33', '36', '39', '15'] 1649.1071428571438
119 32.982142857142854 ['32', '61', '33', '36', '39', '15'] 1649.1071428571438
120 32.982142857142854 ['32', '61', '33', '36', '39', '15'] 1649.1071428571438
121 32.982142857142854 ['32', '61', '33', '36', '39', '15'] 1649.1071428571438
122 32.982142857142854 ['32', '61', '33', '36', '39', '15'] 1649.1071428571438
123 32.982142857142854 ['32', '61', '33', '36', '39', '15'] 1649.1071428571438
124 32.982142857142854 ['32', '61', '33', '36', '39', '15'] 1649.1071428571438
125 32.982142857142854 ['32', '61', '33', '36', '39', '15'] 1649.1071428571438
126 32.982142857142854 ['32', '61', '33', '36', '39', '15'] 1649.1071428571438
127 32.982142857142854 ['32', '61', '33', '36', '39', '15'] 1649.1071428571438
128 32.982142857142854 ['32', '61', '33', '36', '39', '15'] 1649.1071428571438
129 32.982142857142854 ['32', '61', '33', '36', '39', '15'] 1649.1071428571438
130 32.982142857142854 ['32', '61', '33', '36', '39', '15'] 1649.1071428571438
131 32.982142857142854 ['32', '61', '33', '36', '39', '15'] 1649.1071428571438
132 32.982142857142854 ['32', '61', '33', '36', '39', '15'] 1649.1071428571438
133 32.982142857142854 ['32', '61', '33', '36', '39', '15'] 1649.1071428571438
134 32.982142857142854 ['32', '61', '33', '36', '39', '15'] 1649.1071428571438
135 32.982142857142854 ['32', '61', '33', '36', '39', '15'] 1649.1071428571438
136 32.982142857142854 ['32', '61', '33', '36', '39', '15'] 1649.1071428571438
137 32.982142857142854 ['32', '61', '33', '36', '39', '15'] 1649.1071428571438
138 32.982142857142854 ['32', '61', '33', '36', '39', '15'] 1649.1071428571438
139 32.982142857142854 ['32', '61', '33', '36', '39', '15'] 1649.1071428571438
140 32.982142857142854 ['32', '61', '33', '36', '39', '15'] 1649.1071428571438
141 32.982142857142854 ['32', '61', '33', '36', '39', '15'] 1649.1071428571438
142 32.982142857142854 ['32', '61', '33', '36', '39', '15'] 1649.1071428571438
143 32.982142857142854 ['32', '61', '33', '36', '39', '15'] 1649.1071428571438
144 32.982142857142854 ['32', '61', '33', '36', '39', '15'] 1649.1071428571438
145 32.982142857142854 ['32', '61', '33', '36', '39', '15'] 1649.1071428571438
146 32.982142857142854 ['32', '61', '33', '36', '39', '15'] 1649.1071428571438
147 32.982142857142854 ['32', '61', '33', '36', '39', '15'] 1649.1071428571438
148 32.982142857142854 ['32', '61', '33', '36', '39', '15'] 1649.1071428571438
149 32.982142857142854 ['32', '61', '33', '36', '39', '15'] 1649.1071428571438
150 32.982142857142854 ['32', '61', '33', '36', '39', '15'] 1649.1071428571438
151 32.982142857142854 ['32', '61', '33', '36', '39', '15'] 1649.1071428571438
152 32.982142857142854 ['32', '61', '33', '36', '39', '15'] 1649.1071428571438
153 32.982142857142854 ['32', '61', '33', '36', '39', '15'] 1649.1071428571438
154 32.982142857142854 ['32', '61', '33', '36', '39', '15'] 1649.1071428571438
155 32.982142857142854 ['32', '61', '33', '36', '39', '15'] 1649.1071428571438
156 32.982142857142854 ['32', '61', '33', '36', '39', '15'] 1649.1071428571438
157 32.982142857142854 ['32', '61', '33', '36', '39', '15'] 1649.1071428571438
158 32.982142857142854 ['32', '61', '33', '36', '39', '15'] 1649.1071428571438
159 32.982142857142854 ['32', '61', '33', '36', '39', '15'] 1649.1071428571438
160 32.982142857142854 ['32', '61', '33', '36', '39', '15'] 1649.1071428571438
161 32.982142857142854 ['32', '61', '33', '36', '39', '15'] 1649.1071428571438
162 32.982142857142854 ['32', '61', '33', '36', '39', '15'] 1649.1071428571438
163 32.982142857142854 ['32', '61', '33', '36', '39', '15'] 1649.1071428571438
164 32.982142857142854 ['32', '61', '33', '36', '39', '15'] 1649.1071428571438
165 32.982142857142854 ['32', '61', '33', '36', '39', '15'] 1649.1071428571438
166 32.982142857142854 ['32', '61', '33', '36', '39', '15'] 1649.1071428571438
167 32.982142857142854 ['32', '61', '33', '36', '39', '15'] 1649.1071428571438
168 32.982142857142854 ['32', '61', '33', '36', '39', '15'] 1649.1071428571438
169 32.982142857142854 ['32', '61', '33', '36', '39', '15'] 1649.1071428571438
170 32.982142857142854 ['32', '61', '33', '36', '39', '15'] 1649.1071428571438
171 32.982142857142854 ['32', '61', '33', '36', '39', '15'] 1649.1071428571438
172 32.982142857142854 ['32', '61', '33', '36', '39', '15'] 1649.1071428571438
173 32.982142857142854 ['32', '61', '33', '36', '39', '15'] 1649.1071428571438
174 32.982142857142854 ['32', '61', '33', '36', '39', '15'] 1649.1071428571438
175 32.982142857142854 ['32', '61', '33', '36', '39', '15'] 1649.1071428571438
176 32.982142857142854 ['32', '61', '33', '36', '39', '15'] 1649.1071428571438
177 32.982142857142854 ['32', '61', '33', '36', '39', '15'] 1649.1071428571438
178 32.982142857142854 ['32', '61', '33', '36', '39', '15'] 1649.1071428571438
179 32.982142857142854 ['32', '61', '33', '36', '39', '15'] 1649.1071428571438
180 32.982142857142854 ['32', '61', '33', '36', '39', '15'] 1649.1071428571438
181 32.982142857142854 ['32', '61', '33', '36', '39', '15'] 1649.1071428571438
182 32.982142857142854 ['32', '61', '33', '36', '39', '15'] 1649.1071428571438
183 32.982142857142854 ['32', '61', '33', '36', '39', '15'] 1649.1071428571438
184 32.982142857142854 ['32', '61', '33', '36', '39', '15'] 1649.1071428571438
185 32.982142857142854 ['32', '61', '33', '36', '39', '15'] 1649.1071428571438
186 32.982142857142854 ['32', '61', '33', '36', '39', '15'] 1649.1071428571438
187 32.982142857142854 ['32', '61', '33', '36', '39', '15'] 1649.1071428571438
188 32.982142857142854 ['32', '61', '33', '36', '39', '15'] 1649.1071428571438
189 32.982142857142854 ['32', '61', '33', '36', '39', '15'] 1649.1071428571438
190 32.982142857142854 ['32', '61', '33', '36', '39', '15'] 1649.1071428571438
191 32.982142857142854 ['32', '61', '33', '36', '39', '15'] 1649.1071428571438
192 32.982142857142854 ['32', '61', '33', '36', '39', '15'] 1649.1071428571438
193 32.982142857142854 ['32', '61', '33', '36', '39', '15'] 1649.1071428571438
194 32.982142857142854 ['32', '61', '33', '36', '39', '15'] 1649.1071428571438
195 32.982142857142854 ['32', '61', '33', '36', '39', '15'] 1649.1071428571438
196 32.982142857142854 ['32', '61', '33', '36', '39', '15'] 1649.1071428571438
197 32.982142857142854 ['32', '61', '33', '36', '39', '15'] 1649.1071428571438
198 32.982142857142854 ['32', '61', '33', '36', '39', '15'] 1649.1071428571438
199 32.982142857142854 ['32', '61', '33', '36', '39', '15'] 1649.1071428571438
