0 35.36842105263158 ['48', '51', '62', '35', '20', '5'] 1852.5263157894735
1 34.98245614035088 ['35', '48', '5', '14', '12', '59'] 1827.0526315789477
2 34.280701754385966 ['48', '14', '36', '35', '8', '59'] 1798.1403508771925
3 34.280701754385966 ['48', '14', '36', '35', '8', '59'] 1774.8596491228072
4 33.92982456140351 ['62', '8', '48', '20', '59', '14'] 1749.824561403509
5 33.666666666666664 ['48', '62', '14', '35', '8', '59'] 1727.9824561403507
6 33.666666666666664 ['48', '62', '14', '35', '8', '59'] 1708.245614035088
7 33.63157894736842 ['5', '59', '35', '14', '8', '17'] 1697.2807017543855
8 33.56140350877193 ['14', '35', '59', '62', '8', '17'] 1687.3508771929824
9 33.56140350877193 ['14', '35', '59', '62', '8', '17'] 1684.421052631578
10 33.56140350877193 ['14', '35', '59', '62', '8', '17'] 1682.7543859649134
11 33.56140350877193 ['14', '35', '59', '62', '8', '17'] 1682.263157894738
12 33.56140350877193 ['14', '35', '59', '62', '8', '17'] 1681.1052631578948
13 33.56140350877193 ['14', '35', '59', '62', '8', '17'] 1680.228070175438
14 33.56140350877193 ['14', '35', '59', '62', '8', '17'] 1679.8596491228066
15 33.56140350877193 ['14', '35', '59', '62', '8', '17'] 1679.122807017543
16 33.56140350877193 ['14', '35', '59', '62', '8', '17'] 1678.070175438597
17 33.56140350877193 ['14', '35', '59', '62', '8', '17'] 1678.070175438597
18 33.56140350877193 ['14', '35', '59', '62', '8', '17'] 1678.070175438597
19 33.56140350877193 ['14', '35', '59', '62', '8', '17'] 1678.070175438597
20 33.56140350877193 ['14', '35', '59', '62', '8', '17'] 1678.070175438597
21 33.56140350877193 ['14', '35', '59', '62', '8', '17'] 1678.070175438597
22 33.56140350877193 ['14', '35', '59', '62', '8', '17'] 1678.070175438597
23 33.56140350877193 ['14', '35', '59', '62', '8', '17'] 1678.070175438597
24 33.56140350877193 ['14', '35', '59', '62', '8', '17'] 1678.070175438597
25 33.56140350877193 ['14', '35', '59', '62', '8', '17'] 1678.070175438597
26 33.56140350877193 ['14', '35', '59', '62', '8', '17'] 1678.070175438597
27 33.56140350877193 ['14', '35', '59', '62', '8', '17'] 1678.070175438597
28 33.56140350877193 ['14', '35', '59', '62', '8', '17'] 1678.070175438597
29 33.56140350877193 ['14', '35', '59', '62', '8', '17'] 1678.070175438597
30 33.56140350877193 ['14', '35', '59', '62', '8', '17'] 1678.070175438597
31 33.56140350877193 ['14', '35', '59', '62', '8', '17'] 1678.070175438597
32 33.56140350877193 ['14', '35', '59', '62', '8', '17'] 1678.070175438597
33 33.56140350877193 ['14', '35', '59', '62', '8', '17'] 1678.070175438597
34 33.56140350877193 ['14', '35', '59', '62', '8', '17'] 1678.070175438597
35 33.56140350877193 ['14', '35', '59', '62', '8', '17'] 1678.070175438597
36 33.56140350877193 ['14', '35', '59', '62', '8', '17'] 1678.070175438597
37 33.56140350877193 ['14', '35', '59', '62', '8', '17'] 1678.070175438597
38 33.56140350877193 ['14', '35', '59', '62', '8', '17'] 1678.070175438597
39 33.56140350877193 ['14', '35', '59', '62', '8', '17'] 1678.070175438597
40 33.56140350877193 ['14', '35', '59', '62', '8', '17'] 1678.070175438597
41 33.56140350877193 ['14', '35', '59', '62', '8', '17'] 1678.070175438597
42 33.56140350877193 ['14', '35', '59', '62', '8', '17'] 1678.070175438597
43 33.56140350877193 ['14', '35', '59', '62', '8', '17'] 1678.070175438597
44 33.56140350877193 ['14', '35', '59', '62', '8', '17'] 1678.070175438597
45 33.56140350877193 ['14', '35', '59', '62', '8', '17'] 1678.070175438597
46 33.56140350877193 ['14', '35', '59', '62', '8', '17'] 1678.070175438597
47 33.56140350877193 ['14', '35', '59', '62', '8', '17'] 1678.070175438597
48 33.56140350877193 ['14', '35', '59', '62', '8', '17'] 1678.070175438597
49 33.56140350877193 ['14', '35', '59', '62', '8', '17'] 1678.070175438597
50 33.56140350877193 ['14', '35', '59', '62', '8', '17'] 1678.070175438597
51 33.56140350877193 ['14', '35', '59', '62', '8', '17'] 1678.070175438597
52 33.56140350877193 ['14', '35', '59', '62', '8', '17'] 1678.070175438597
53 33.56140350877193 ['14', '35', '59', '62', '8', '17'] 1678.070175438597
54 33.56140350877193 ['14', '35', '59', '62', '8', '17'] 1678.070175438597
55 33.56140350877193 ['14', '35', '59', '62', '8', '17'] 1678.070175438597
56 33.56140350877193 ['14', '35', '59', '62', '8', '17'] 1678.070175438597
57 33.56140350877193 ['14', '35', '59', '62', '8', '17'] 1678.070175438597
58 33.56140350877193 ['14', '35', '59', '62', '8', '17'] 1678.070175438597
59 33.56140350877193 ['14', '35', '59', '62', '8', '17'] 1678.070175438597
60 33.56140350877193 ['14', '35', '59', '62', '8', '17'] 1678.070175438597
61 33.56140350877193 ['14', '35', '59', '62', '8', '17'] 1678.070175438597
62 33.56140350877193 ['14', '35', '59', '62', '8', '17'] 1678.070175438597
63 33.56140350877193 ['14', '35', '59', '62', '8', '17'] 1678.070175438597
64 33.56140350877193 ['14', '35', '59', '62', '8', '17'] 1678.070175438597
65 33.56140350877193 ['14', '35', '59', '62', '8', '17'] 1678.070175438597
66 33.56140350877193 ['14', '35', '59', '62', '8', '17'] 1678.070175438597
67 33.56140350877193 ['14', '35', '59', '62', '8', '17'] 1678.070175438597
68 33.56140350877193 ['14', '35', '59', '62', '8', '17'] 1678.070175438597
69 33.56140350877193 ['14', '35', '59', '62', '8', '17'] 1678.070175438597
70 33.56140350877193 ['14', '35', '59', '62', '8', '17'] 1678.070175438597
71 33.56140350877193 ['14', '35', '59', '62', '8', '17'] 1678.070175438597
72 33.56140350877193 ['14', '35', '59', '62', '8', '17'] 1678.070175438597
73 33.56140350877193 ['14', '35', '59', '62', '8', '17'] 1678.070175438597
74 33.56140350877193 ['14', '35', '59', '62', '8', '17'] 1678.070175438597
75 33.56140350877193 ['14', '35', '59', '62', '8', '17'] 1678.070175438597
76 33.56140350877193 ['14', '35', '59', '62', '8', '17'] 1678.070175438597
77 33.56140350877193 ['14', '35', '59', '62', '8', '17'] 1678.070175438597
78 33.56140350877193 ['14', '35', '59', '62', '8', '17'] 1678.070175438597
79 33.56140350877193 ['14', '35', '59', '62', '8', '17'] 1678.070175438597
80 33.56140350877193 ['14', '35', '59', '62', '8', '17'] 1678.070175438597
81 33.56140350877193 ['14', '35', '59', '62', '8', '17'] 1678.070175438597
82 33.56140350877193 ['14', '35', '59', '62', '8', '17'] 1678.070175438597
83 33.56140350877193 ['14', '35', '59', '62', '8', '17'] 1678.070175438597
84 33.56140350877193 ['14', '35', '59', '62', '8', '17'] 1678.070175438597
85 33.56140350877193 ['14', '35', '59', '62', '8', '17'] 1678.070175438597
86 33.56140350877193 ['14', '35', '59', '62', '8', '17'] 1678.070175438597
87 33.56140350877193 ['14', '35', '59', '62', '8', '17'] 1678.070175438597
88 33.56140350877193 ['14', '35', '59', '62', '8', '17'] 1678.070175438597
89 33.56140350877193 ['14', '35', '59', '62', '8', '17'] 1678.070175438597
90 33.56140350877193 ['14', '35', '59', '62', '8', '17'] 1678.070175438597
91 33.56140350877193 ['14', '35', '59', '62', '8', '17'] 1678.070175438597
92 33.56140350877193 ['14', '35', '59', '62', '8', '17'] 1678.070175438597
93 33.56140350877193 ['14', '35', '59', '62', '8', '17'] 1678.070175438597
94 33.56140350877193 ['14', '35', '59', '62', '8', '17'] 1678.070175438597
95 33.56140350877193 ['14', '35', '59', '62', '8', '17'] 1678.070175438597
96 33.56140350877193 ['14', '35', '59', '62', '8', '17'] 1678.070175438597
97 33.56140350877193 ['14', '35', '59', '62', '8', '17'] 1678.070175438597
98 33.56140350877193 ['14', '35', '59', '62', '8', '17'] 1678.070175438597
99 33.56140350877193 ['14', '35', '59', '62', '8', '17'] 1678.070175438597
100 33.56140350877193 ['14', '35', '59', '62', '8', '17'] 1678.070175438597
101 33.56140350877193 ['14', '35', '59', '62', '8', '17'] 1678.070175438597
102 33.56140350877193 ['14', '35', '59', '62', '8', '17'] 1678.070175438597
103 33.56140350877193 ['14', '35', '59', '62', '8', '17'] 1678.070175438597
104 33.56140350877193 ['14', '35', '59', '62', '8', '17'] 1678.070175438597
105 33.56140350877193 ['14', '35', '59', '62', '8', '17'] 1678.070175438597
106 33.56140350877193 ['14', '35', '59', '62', '8', '17'] 1678.070175438597
107 33.56140350877193 ['14', '35', '59', '62', '8', '17'] 1678.070175438597
108 33.56140350877193 ['14', '35', '59', '62', '8', '17'] 1678.070175438597
109 33.56140350877193 ['14', '35', '59', '62', '8', '17'] 1678.070175438597
110 33.56140350877193 ['14', '35', '59', '62', '8', '17'] 1678.070175438597
111 33.56140350877193 ['14', '35', '59', '62', '8', '17'] 1678.070175438597
112 33.56140350877193 ['14', '35', '59', '62', '8', '17'] 1678.070175438597
113 33.56140350877193 ['14', '35', '59', '62', '8', '17'] 1678.070175438597
114 33.56140350877193 ['14', '35', '59', '62', '8', '17'] 1678.070175438597
115 33.56140350877193 ['14', '35', '59', '62', '8', '17'] 1678.070175438597
116 33.56140350877193 ['14', '35', '59', '62', '8', '17'] 1678.070175438597
117 33.56140350877193 ['14', '35', '59', '62', '8', '17'] 1678.070175438597
118 33.56140350877193 ['14', '35', '59', '62', '8', '17'] 1678.070175438597
119 33.56140350877193 ['14', '35', '59', '62', '8', '17'] 1678.070175438597
120 33.56140350877193 ['14', '35', '59', '62', '8', '17'] 1678.070175438597
121 33.56140350877193 ['14', '35', '59', '62', '8', '17'] 1678.070175438597
122 33.56140350877193 ['14', '35', '59', '62', '8', '17'] 1678.070175438597
123 33.56140350877193 ['14', '35', '59', '62', '8', '17'] 1678.070175438597
124 33.56140350877193 ['14', '35', '59', '62', '8', '17'] 1678.070175438597
125 33.56140350877193 ['14', '35', '59', '62', '8', '17'] 1678.070175438597
126 33.56140350877193 ['14', '35', '59', '62', '8', '17'] 1678.070175438597
127 33.56140350877193 ['14', '35', '59', '62', '8', '17'] 1678.070175438597
128 33.56140350877193 ['14', '35', '59', '62', '8', '17'] 1678.070175438597
129 33.56140350877193 ['14', '35', '59', '62', '8', '17'] 1678.070175438597
130 33.56140350877193 ['14', '35', '59', '62', '8', '17'] 1678.070175438597
131 33.56140350877193 ['14', '35', '59', '62', '8', '17'] 1678.070175438597
132 33.56140350877193 ['14', '35', '59', '62', '8', '17'] 1678.070175438597
133 33.56140350877193 ['14', '35', '59', '62', '8', '17'] 1678.070175438597
134 33.56140350877193 ['14', '35', '59', '62', '8', '17'] 1678.070175438597
135 33.56140350877193 ['14', '35', '59', '62', '8', '17'] 1678.070175438597
136 33.56140350877193 ['14', '35', '59', '62', '8', '17'] 1678.070175438597
137 33.56140350877193 ['14', '35', '59', '62', '8', '17'] 1678.070175438597
138 33.56140350877193 ['14', '35', '59', '62', '8', '17'] 1678.070175438597
139 33.56140350877193 ['14', '35', '59', '62', '8', '17'] 1678.070175438597
140 33.56140350877193 ['14', '35', '59', '62', '8', '17'] 1678.070175438597
141 33.56140350877193 ['14', '35', '59', '62', '8', '17'] 1678.070175438597
142 33.56140350877193 ['14', '35', '59', '62', '8', '17'] 1678.070175438597
143 33.56140350877193 ['14', '35', '59', '62', '8', '17'] 1678.070175438597
144 33.56140350877193 ['14', '35', '59', '62', '8', '17'] 1678.070175438597
145 33.56140350877193 ['14', '35', '59', '62', '8', '17'] 1678.070175438597
146 33.56140350877193 ['14', '35', '59', '62', '8', '17'] 1678.070175438597
147 33.56140350877193 ['14', '35', '59', '62', '8', '17'] 1678.070175438597
148 33.56140350877193 ['14', '35', '59', '62', '8', '17'] 1678.070175438597
149 33.56140350877193 ['14', '35', '59', '62', '8', '17'] 1678.070175438597
150 33.56140350877193 ['14', '35', '59', '62', '8', '17'] 1678.070175438597
151 33.56140350877193 ['14', '35', '59', '62', '8', '17'] 1678.070175438597
152 33.56140350877193 ['14', '35', '59', '62', '8', '17'] 1678.070175438597
153 33.56140350877193 ['14', '35', '59', '62', '8', '17'] 1678.070175438597
154 33.56140350877193 ['14', '35', '59', '62', '8', '17'] 1678.070175438597
155 33.56140350877193 ['14', '35', '59', '62', '8', '17'] 1678.070175438597
156 33.56140350877193 ['14', '35', '59', '62', '8', '17'] 1678.070175438597
157 33.56140350877193 ['14', '35', '59', '62', '8', '17'] 1678.070175438597
158 33.56140350877193 ['14', '35', '59', '62', '8', '17'] 1678.070175438597
159 33.56140350877193 ['14', '35', '59', '62', '8', '17'] 1678.070175438597
160 33.56140350877193 ['14', '35', '59', '62', '8', '17'] 1678.070175438597
161 33.56140350877193 ['14', '35', '59', '62', '8', '17'] 1678.070175438597
162 33.56140350877193 ['14', '35', '59', '62', '8', '17'] 1678.070175438597
163 33.56140350877193 ['14', '35', '59', '62', '8', '17'] 1678.070175438597
164 33.56140350877193 ['14', '35', '59', '62', '8', '17'] 1678.070175438597
165 33.56140350877193 ['14', '35', '59', '62', '8', '17'] 1678.070175438597
166 33.56140350877193 ['14', '35', '59', '62', '8', '17'] 1678.070175438597
167 33.56140350877193 ['14', '35', '59', '62', '8', '17'] 1678.070175438597
168 33.56140350877193 ['14', '35', '59', '62', '8', '17'] 1678.070175438597
169 33.56140350877193 ['14', '35', '59', '62', '8', '17'] 1678.070175438597
170 33.56140350877193 ['14', '35', '59', '62', '8', '17'] 1678.070175438597
171 33.56140350877193 ['14', '35', '59', '62', '8', '17'] 1678.070175438597
172 33.56140350877193 ['14', '35', '59', '62', '8', '17'] 1678.070175438597
173 33.56140350877193 ['14', '35', '59', '62', '8', '17'] 1678.070175438597
174 33.56140350877193 ['14', '35', '59', '62', '8', '17'] 1678.070175438597
175 33.56140350877193 ['14', '35', '59', '62', '8', '17'] 1678.070175438597
176 33.56140350877193 ['14', '35', '59', '62', '8', '17'] 1678.070175438597
177 33.56140350877193 ['14', '35', '59', '62', '8', '17'] 1678.070175438597
178 33.56140350877193 ['14', '35', '59', '62', '8', '17'] 1678.070175438597
179 33.56140350877193 ['14', '35', '59', '62', '8', '17'] 1678.070175438597
180 33.56140350877193 ['14', '35', '59', '62', '8', '17'] 1678.070175438597
181 33.56140350877193 ['14', '35', '59', '62', '8', '17'] 1678.070175438597
182 33.56140350877193 ['14', '35', '59', '62', '8', '17'] 1678.070175438597
183 33.56140350877193 ['14', '35', '59', '62', '8', '17'] 1678.070175438597
184 33.56140350877193 ['14', '35', '59', '62', '8', '17'] 1678.070175438597
185 33.56140350877193 ['14', '35', '59', '62', '8', '17'] 1678.070175438597
186 33.56140350877193 ['14', '35', '59', '62', '8', '17'] 1678.070175438597
187 33.56140350877193 ['14', '35', '59', '62', '8', '17'] 1678.070175438597
188 33.56140350877193 ['14', '35', '59', '62', '8', '17'] 1678.070175438597
189 33.56140350877193 ['14', '35', '59', '62', '8', '17'] 1678.070175438597
190 33.56140350877193 ['14', '35', '59', '62', '8', '17'] 1678.070175438597
191 33.56140350877193 ['14', '35', '59', '62', '8', '17'] 1678.070175438597
192 33.56140350877193 ['14', '35', '59', '62', '8', '17'] 1678.070175438597
193 33.56140350877193 ['14', '35', '59', '62', '8', '17'] 1678.070175438597
194 33.56140350877193 ['14', '35', '59', '62', '8', '17'] 1678.070175438597
195 33.56140350877193 ['14', '35', '59', '62', '8', '17'] 1678.070175438597
196 33.56140350877193 ['14', '35', '59', '62', '8', '17'] 1678.070175438597
197 33.56140350877193 ['14', '35', '59', '62', '8', '17'] 1678.070175438597
198 33.56140350877193 ['14', '35', '59', '62', '8', '17'] 1678.070175438597
199 33.56140350877193 ['14', '35', '59', '62', '8', '17'] 1678.070175438597
