0 15.242424242424242 ['11', '7', '32'] 790.606060606061
1 15.0 ['7', '19', '28'] 776.9090909090909
2 14.484848484848484 ['28', '18', '7'] 768.1212121212125
3 14.484848484848484 ['28', '18', '7'] 757.0303030303024
4 14.484848484848484 ['28', '18', '7'] 747.4848484848483
5 14.484848484848484 ['28', '18', '7'] 740.424242424243
6 14.484848484848484 ['28', '18', '7'] 731.6363636363641
7 14.484848484848484 ['28', '18', '7'] 727.7575757575764
8 14.484848484848484 ['28', '18', '7'] 725.3333333333339
9 14.484848484848484 ['28', '18', '7'] 724.2424242424248
10 14.484848484848484 ['28', '18', '7'] 724.2424242424248
11 14.484848484848484 ['28', '18', '7'] 724.2424242424248
12 14.484848484848484 ['28', '18', '7'] 724.2424242424248
13 14.484848484848484 ['28', '18', '7'] 724.2424242424248
14 14.484848484848484 ['28', '18', '7'] 724.2424242424248
15 14.484848484848484 ['28', '18', '7'] 724.2424242424248
16 14.484848484848484 ['28', '18', '7'] 724.2424242424248
17 14.484848484848484 ['28', '18', '7'] 724.2424242424248
18 14.484848484848484 ['28', '18', '7'] 724.2424242424248
19 14.484848484848484 ['28', '18', '7'] 724.2424242424248
20 14.484848484848484 ['28', '18', '7'] 724.2424242424248
21 14.484848484848484 ['28', '18', '7'] 724.2424242424248
22 14.484848484848484 ['28', '18', '7'] 724.2424242424248
23 14.484848484848484 ['28', '18', '7'] 724.2424242424248
24 14.484848484848484 ['28', '18', '7'] 724.2424242424248
25 14.484848484848484 ['28', '18', '7'] 724.2424242424248
26 14.484848484848484 ['28', '18', '7'] 724.2424242424248
27 14.484848484848484 ['28', '18', '7'] 724.2424242424248
28 14.484848484848484 ['28', '18', '7'] 724.2424242424248
29 14.484848484848484 ['28', '18', '7'] 724.2424242424248
30 14.484848484848484 ['28', '18', '7'] 724.2424242424248
31 14.484848484848484 ['28', '18', '7'] 724.2424242424248
32 14.484848484848484 ['28', '18', '7'] 724.2424242424248
33 14.484848484848484 ['28', '18', '7'] 724.2424242424248
34 14.484848484848484 ['28', '18', '7'] 724.2424242424248
35 14.484848484848484 ['28', '18', '7'] 724.2424242424248
36 14.484848484848484 ['28', '18', '7'] 724.2424242424248
37 14.484848484848484 ['28', '18', '7'] 724.2424242424248
38 14.484848484848484 ['28', '18', '7'] 724.2424242424248
39 14.484848484848484 ['28', '18', '7'] 724.2424242424248
40 14.484848484848484 ['28', '18', '7'] 724.2424242424248
41 14.484848484848484 ['28', '18', '7'] 724.2424242424248
42 14.484848484848484 ['28', '18', '7'] 724.2424242424248
43 14.484848484848484 ['28', '18', '7'] 724.2424242424248
44 14.484848484848484 ['28', '18', '7'] 724.2424242424248
45 14.484848484848484 ['28', '18', '7'] 724.2424242424248
46 14.484848484848484 ['28', '18', '7'] 724.2424242424248
47 14.484848484848484 ['28', '18', '7'] 724.2424242424248
48 14.484848484848484 ['28', '18', '7'] 724.2424242424248
49 14.484848484848484 ['28', '18', '7'] 724.2424242424248
50 14.484848484848484 ['28', '18', '7'] 724.2424242424248
51 14.484848484848484 ['28', '18', '7'] 724.2424242424248
52 14.484848484848484 ['28', '18', '7'] 724.2424242424248
53 14.484848484848484 ['28', '18', '7'] 724.2424242424248
54 14.484848484848484 ['28', '18', '7'] 724.2424242424248
55 14.484848484848484 ['28', '18', '7'] 724.2424242424248
56 14.484848484848484 ['28', '18', '7'] 724.2424242424248
57 14.484848484848484 ['28', '18', '7'] 724.2424242424248
58 14.484848484848484 ['28', '18', '7'] 724.2424242424248
59 14.484848484848484 ['28', '18', '7'] 724.2424242424248
60 14.484848484848484 ['28', '18', '7'] 724.2424242424248
61 14.484848484848484 ['28', '18', '7'] 724.2424242424248
62 14.484848484848484 ['28', '18', '7'] 724.2424242424248
63 14.484848484848484 ['28', '18', '7'] 724.2424242424248
64 14.484848484848484 ['28', '18', '7'] 724.2424242424248
65 14.484848484848484 ['28', '18', '7'] 724.2424242424248
66 14.484848484848484 ['28', '18', '7'] 724.2424242424248
67 14.484848484848484 ['28', '18', '7'] 724.2424242424248
68 14.484848484848484 ['28', '18', '7'] 724.2424242424248
69 14.484848484848484 ['28', '18', '7'] 724.2424242424248
70 14.484848484848484 ['28', '18', '7'] 724.2424242424248
71 14.484848484848484 ['28', '18', '7'] 724.2424242424248
72 14.484848484848484 ['28', '18', '7'] 724.2424242424248
73 14.484848484848484 ['28', '18', '7'] 724.2424242424248
74 14.484848484848484 ['28', '18', '7'] 724.2424242424248
75 14.484848484848484 ['28', '18', '7'] 724.2424242424248
76 14.484848484848484 ['28', '18', '7'] 724.2424242424248
77 14.484848484848484 ['28', '18', '7'] 724.2424242424248
78 14.484848484848484 ['28', '18', '7'] 724.2424242424248
79 14.484848484848484 ['28', '18', '7'] 724.2424242424248
80 14.484848484848484 ['28', '18', '7'] 724.2424242424248
81 14.484848484848484 ['28', '18', '7'] 724.2424242424248
82 14.484848484848484 ['28', '18', '7'] 724.2424242424248
83 14.484848484848484 ['28', '18', '7'] 724.2424242424248
84 14.484848484848484 ['28', '18', '7'] 724.2424242424248
85 14.484848484848484 ['28', '18', '7'] 724.2424242424248
86 14.484848484848484 ['28', '18', '7'] 724.2424242424248
87 14.484848484848484 ['28', '18', '7'] 724.2424242424248
88 14.484848484848484 ['28', '18', '7'] 724.2424242424248
89 14.484848484848484 ['28', '18', '7'] 724.2424242424248
90 14.484848484848484 ['28', '18', '7'] 724.2424242424248
91 14.484848484848484 ['28', '18', '7'] 724.2424242424248
92 14.484848484848484 ['28', '18', '7'] 724.2424242424248
93 14.484848484848484 ['28', '18', '7'] 724.2424242424248
94 14.484848484848484 ['28', '18', '7'] 724.2424242424248
95 14.484848484848484 ['28', '18', '7'] 724.2424242424248
96 14.484848484848484 ['28', '18', '7'] 724.2424242424248
97 14.484848484848484 ['28', '18', '7'] 724.2424242424248
98 14.484848484848484 ['28', '18', '7'] 724.2424242424248
99 14.484848484848484 ['28', '18', '7'] 724.2424242424248
100 14.484848484848484 ['28', '18', '7'] 724.2424242424248
101 14.484848484848484 ['28', '18', '7'] 724.2424242424248
102 14.484848484848484 ['28', '18', '7'] 724.2424242424248
103 14.484848484848484 ['28', '18', '7'] 724.2424242424248
104 14.484848484848484 ['28', '18', '7'] 724.2424242424248
105 14.484848484848484 ['28', '18', '7'] 724.2424242424248
106 14.484848484848484 ['28', '18', '7'] 724.2424242424248
107 14.484848484848484 ['28', '18', '7'] 724.2424242424248
108 14.484848484848484 ['28', '18', '7'] 724.2424242424248
109 14.484848484848484 ['28', '18', '7'] 724.2424242424248
110 14.484848484848484 ['28', '18', '7'] 724.2424242424248
111 14.484848484848484 ['28', '18', '7'] 724.2424242424248
112 14.484848484848484 ['28', '18', '7'] 724.2424242424248
113 14.484848484848484 ['28', '18', '7'] 724.2424242424248
114 14.484848484848484 ['28', '18', '7'] 724.2424242424248
115 14.484848484848484 ['28', '18', '7'] 724.2424242424248
116 14.484848484848484 ['28', '18', '7'] 724.2424242424248
117 14.484848484848484 ['28', '18', '7'] 724.2424242424248
118 14.484848484848484 ['28', '18', '7'] 724.2424242424248
119 14.484848484848484 ['28', '18', '7'] 724.2424242424248
120 14.484848484848484 ['28', '18', '7'] 724.2424242424248
121 14.484848484848484 ['28', '18', '7'] 724.2424242424248
122 14.484848484848484 ['28', '18', '7'] 724.2424242424248
123 14.484848484848484 ['28', '18', '7'] 724.2424242424248
124 14.484848484848484 ['28', '18', '7'] 724.2424242424248
125 14.484848484848484 ['28', '18', '7'] 724.2424242424248
126 14.484848484848484 ['28', '18', '7'] 724.2424242424248
127 14.484848484848484 ['28', '18', '7'] 724.2424242424248
128 14.484848484848484 ['28', '18', '7'] 724.2424242424248
129 14.484848484848484 ['28', '18', '7'] 724.2424242424248
130 14.484848484848484 ['28', '18', '7'] 724.2424242424248
131 14.484848484848484 ['28', '18', '7'] 724.2424242424248
132 14.484848484848484 ['28', '18', '7'] 724.2424242424248
133 14.484848484848484 ['28', '18', '7'] 724.2424242424248
134 14.484848484848484 ['28', '18', '7'] 724.2424242424248
135 14.484848484848484 ['28', '18', '7'] 724.2424242424248
136 14.484848484848484 ['28', '18', '7'] 724.2424242424248
137 14.484848484848484 ['28', '18', '7'] 724.2424242424248
138 14.484848484848484 ['28', '18', '7'] 724.2424242424248
139 14.484848484848484 ['28', '18', '7'] 724.2424242424248
140 14.484848484848484 ['28', '18', '7'] 724.2424242424248
141 14.484848484848484 ['28', '18', '7'] 724.2424242424248
142 14.484848484848484 ['28', '18', '7'] 724.2424242424248
143 14.484848484848484 ['28', '18', '7'] 724.2424242424248
144 14.484848484848484 ['28', '18', '7'] 724.2424242424248
145 14.484848484848484 ['28', '18', '7'] 724.2424242424248
146 14.484848484848484 ['28', '18', '7'] 724.2424242424248
147 14.484848484848484 ['28', '18', '7'] 724.2424242424248
148 14.484848484848484 ['28', '18', '7'] 724.2424242424248
149 14.484848484848484 ['28', '18', '7'] 724.2424242424248
150 14.484848484848484 ['28', '18', '7'] 724.2424242424248
151 14.484848484848484 ['28', '18', '7'] 724.2424242424248
152 14.484848484848484 ['28', '18', '7'] 724.2424242424248
153 14.484848484848484 ['28', '18', '7'] 724.2424242424248
154 14.484848484848484 ['28', '18', '7'] 724.2424242424248
155 14.484848484848484 ['28', '18', '7'] 724.2424242424248
156 14.484848484848484 ['28', '18', '7'] 724.2424242424248
157 14.484848484848484 ['28', '18', '7'] 724.2424242424248
158 14.484848484848484 ['28', '18', '7'] 724.2424242424248
159 14.484848484848484 ['28', '18', '7'] 724.2424242424248
160 14.484848484848484 ['28', '18', '7'] 724.2424242424248
161 14.484848484848484 ['28', '18', '7'] 724.2424242424248
162 14.484848484848484 ['28', '18', '7'] 724.2424242424248
163 14.484848484848484 ['28', '18', '7'] 724.2424242424248
164 14.484848484848484 ['28', '18', '7'] 724.2424242424248
165 14.484848484848484 ['28', '18', '7'] 724.2424242424248
166 14.484848484848484 ['28', '18', '7'] 724.2424242424248
167 14.484848484848484 ['28', '18', '7'] 724.2424242424248
168 14.484848484848484 ['28', '18', '7'] 724.2424242424248
169 14.484848484848484 ['28', '18', '7'] 724.2424242424248
170 14.484848484848484 ['28', '18', '7'] 724.2424242424248
171 14.484848484848484 ['28', '18', '7'] 724.2424242424248
172 14.484848484848484 ['28', '18', '7'] 724.2424242424248
173 14.484848484848484 ['28', '18', '7'] 724.2424242424248
174 14.484848484848484 ['28', '18', '7'] 724.2424242424248
175 14.484848484848484 ['28', '18', '7'] 724.2424242424248
176 14.484848484848484 ['28', '18', '7'] 724.2424242424248
177 14.484848484848484 ['28', '18', '7'] 724.2424242424248
178 14.484848484848484 ['28', '18', '7'] 724.2424242424248
179 14.484848484848484 ['28', '18', '7'] 724.2424242424248
180 14.484848484848484 ['28', '18', '7'] 724.2424242424248
181 14.484848484848484 ['28', '18', '7'] 724.2424242424248
182 14.484848484848484 ['28', '18', '7'] 724.2424242424248
183 14.484848484848484 ['28', '18', '7'] 724.2424242424248
184 14.484848484848484 ['28', '18', '7'] 724.2424242424248
185 14.484848484848484 ['28', '18', '7'] 724.2424242424248
186 14.484848484848484 ['28', '18', '7'] 724.2424242424248
187 14.484848484848484 ['28', '18', '7'] 724.2424242424248
188 14.484848484848484 ['28', '18', '7'] 724.2424242424248
189 14.484848484848484 ['28', '18', '7'] 724.2424242424248
190 14.484848484848484 ['28', '18', '7'] 724.2424242424248
191 14.484848484848484 ['28', '18', '7'] 724.2424242424248
192 14.484848484848484 ['28', '18', '7'] 724.2424242424248
193 14.484848484848484 ['28', '18', '7'] 724.2424242424248
194 14.484848484848484 ['28', '18', '7'] 724.2424242424248
195 14.484848484848484 ['28', '18', '7'] 724.2424242424248
196 14.484848484848484 ['28', '18', '7'] 724.2424242424248
197 14.484848484848484 ['28', '18', '7'] 724.2424242424248
198 14.484848484848484 ['28', '18', '7'] 724.2424242424248
199 14.484848484848484 ['28', '18', '7'] 724.2424242424248
