0 8.266666666666667 ['16', '2', '9'] 431.3999999999998
1 8.266666666666667 ['16', '2', '9'] 425.66666666666674
2 8.166666666666666 ['33', '6', '9'] 420.3333333333334
3 8.033333333333333 ['2', '9', '33'] 415.43333333333317
4 8.033333333333333 ['2', '9', '33'] 411.9666666666665
5 8.033333333333333 ['2', '9', '33'] 408.2666666666667
6 8.033333333333333 ['2', '9', '33'] 405.2333333333336
7 8.033333333333333 ['2', '9', '33'] 402.20000000000044
8 8.033333333333333 ['2', '9', '33'] 401.66666666666714
9 8.033333333333333 ['2', '9', '33'] 401.66666666666714
10 8.033333333333333 ['2', '9', '33'] 401.66666666666714
11 8.033333333333333 ['2', '9', '33'] 401.66666666666714
12 8.033333333333333 ['2', '9', '33'] 401.66666666666714
13 8.033333333333333 ['2', '9', '33'] 401.66666666666714
14 8.033333333333333 ['2', '9', '33'] 401.66666666666714
15 8.033333333333333 ['2', '9', '33'] 401.66666666666714
16 8.033333333333333 ['2', '9', '33'] 401.66666666666714
17 8.033333333333333 ['2', '9', '33'] 401.66666666666714
18 8.033333333333333 ['2', '9', '33'] 401.66666666666714
19 8.033333333333333 ['2', '9', '33'] 401.66666666666714
20 8.033333333333333 ['2', '9', '33'] 401.66666666666714
21 8.033333333333333 ['2', '9', '33'] 401.66666666666714
22 8.033333333333333 ['2', '9', '33'] 401.66666666666714
23 8.033333333333333 ['2', '9', '33'] 401.66666666666714
24 8.033333333333333 ['2', '9', '33'] 401.66666666666714
25 8.033333333333333 ['2', '9', '33'] 401.66666666666714
26 8.033333333333333 ['2', '9', '33'] 401.66666666666714
27 8.033333333333333 ['2', '9', '33'] 401.66666666666714
28 8.033333333333333 ['2', '9', '33'] 401.66666666666714
29 8.033333333333333 ['2', '9', '33'] 401.66666666666714
30 8.033333333333333 ['2', '9', '33'] 401.66666666666714
31 8.033333333333333 ['2', '9', '33'] 401.66666666666714
32 8.033333333333333 ['2', '9', '33'] 401.66666666666714
33 8.033333333333333 ['2', '9', '33'] 401.66666666666714
34 8.033333333333333 ['2', '9', '33'] 401.66666666666714
35 8.033333333333333 ['2', '9', '33'] 401.66666666666714
36 8.033333333333333 ['2', '9', '33'] 401.66666666666714
37 8.033333333333333 ['2', '9', '33'] 401.66666666666714
38 8.033333333333333 ['2', '9', '33'] 401.66666666666714
39 8.033333333333333 ['2', '9', '33'] 401.66666666666714
40 8.033333333333333 ['2', '9', '33'] 401.66666666666714
41 8.033333333333333 ['2', '9', '33'] 401.66666666666714
42 8.033333333333333 ['2', '9', '33'] 401.66666666666714
43 8.033333333333333 ['2', '9', '33'] 401.66666666666714
44 8.033333333333333 ['2', '9', '33'] 401.66666666666714
45 8.033333333333333 ['2', '9', '33'] 401.66666666666714
46 8.033333333333333 ['2', '9', '33'] 401.66666666666714
47 8.033333333333333 ['2', '9', '33'] 401.66666666666714
48 8.033333333333333 ['2', '9', '33'] 401.66666666666714
49 8.033333333333333 ['2', '9', '33'] 401.66666666666714
50 8.033333333333333 ['2', '9', '33'] 401.66666666666714
51 8.033333333333333 ['2', '9', '33'] 401.66666666666714
52 8.033333333333333 ['2', '9', '33'] 401.66666666666714
53 8.033333333333333 ['2', '9', '33'] 401.66666666666714
54 8.033333333333333 ['2', '9', '33'] 401.66666666666714
55 8.033333333333333 ['2', '9', '33'] 401.66666666666714
56 8.033333333333333 ['2', '9', '33'] 401.66666666666714
57 8.033333333333333 ['2', '9', '33'] 401.66666666666714
58 8.033333333333333 ['2', '9', '33'] 401.66666666666714
59 8.033333333333333 ['2', '9', '33'] 401.66666666666714
60 8.033333333333333 ['2', '9', '33'] 401.66666666666714
61 8.033333333333333 ['2', '9', '33'] 401.66666666666714
62 8.033333333333333 ['2', '9', '33'] 401.66666666666714
63 8.033333333333333 ['2', '9', '33'] 401.66666666666714
64 8.033333333333333 ['2', '9', '33'] 401.66666666666714
65 8.033333333333333 ['2', '9', '33'] 401.66666666666714
66 8.033333333333333 ['2', '9', '33'] 401.66666666666714
67 8.033333333333333 ['2', '9', '33'] 401.66666666666714
68 8.033333333333333 ['2', '9', '33'] 401.66666666666714
69 8.033333333333333 ['2', '9', '33'] 401.66666666666714
70 8.033333333333333 ['2', '9', '33'] 401.66666666666714
71 8.033333333333333 ['2', '9', '33'] 401.66666666666714
72 8.033333333333333 ['2', '9', '33'] 401.66666666666714
73 8.033333333333333 ['2', '9', '33'] 401.66666666666714
74 8.033333333333333 ['2', '9', '33'] 401.66666666666714
75 8.033333333333333 ['2', '9', '33'] 401.66666666666714
76 8.033333333333333 ['2', '9', '33'] 401.66666666666714
77 8.033333333333333 ['2', '9', '33'] 401.66666666666714
78 8.033333333333333 ['2', '9', '33'] 401.66666666666714
79 8.033333333333333 ['2', '9', '33'] 401.66666666666714
80 8.033333333333333 ['2', '9', '33'] 401.66666666666714
81 8.033333333333333 ['2', '9', '33'] 401.66666666666714
82 8.033333333333333 ['2', '9', '33'] 401.66666666666714
83 8.033333333333333 ['2', '9', '33'] 401.66666666666714
84 8.033333333333333 ['2', '9', '33'] 401.66666666666714
85 8.033333333333333 ['2', '9', '33'] 401.66666666666714
86 8.033333333333333 ['2', '9', '33'] 401.66666666666714
87 8.033333333333333 ['2', '9', '33'] 401.66666666666714
88 8.033333333333333 ['2', '9', '33'] 401.66666666666714
89 8.033333333333333 ['2', '9', '33'] 401.66666666666714
90 8.033333333333333 ['2', '9', '33'] 401.66666666666714
91 8.033333333333333 ['2', '9', '33'] 401.66666666666714
92 8.033333333333333 ['2', '9', '33'] 401.66666666666714
93 8.033333333333333 ['2', '9', '33'] 401.66666666666714
94 8.033333333333333 ['2', '9', '33'] 401.66666666666714
95 8.033333333333333 ['2', '9', '33'] 401.66666666666714
96 8.033333333333333 ['2', '9', '33'] 401.66666666666714
97 8.033333333333333 ['2', '9', '33'] 401.66666666666714
98 8.033333333333333 ['2', '9', '33'] 401.66666666666714
99 8.033333333333333 ['2', '9', '33'] 401.66666666666714
100 8.033333333333333 ['2', '9', '33'] 401.66666666666714
101 8.033333333333333 ['2', '9', '33'] 401.66666666666714
102 8.033333333333333 ['2', '9', '33'] 401.66666666666714
103 8.033333333333333 ['2', '9', '33'] 401.66666666666714
104 8.033333333333333 ['2', '9', '33'] 401.66666666666714
105 8.033333333333333 ['2', '9', '33'] 401.66666666666714
106 8.033333333333333 ['2', '9', '33'] 401.66666666666714
107 8.033333333333333 ['2', '9', '33'] 401.66666666666714
108 8.033333333333333 ['2', '9', '33'] 401.66666666666714
109 8.033333333333333 ['2', '9', '33'] 401.66666666666714
110 8.033333333333333 ['2', '9', '33'] 401.66666666666714
111 8.033333333333333 ['2', '9', '33'] 401.66666666666714
112 8.033333333333333 ['2', '9', '33'] 401.66666666666714
113 8.033333333333333 ['2', '9', '33'] 401.66666666666714
114 8.033333333333333 ['2', '9', '33'] 401.66666666666714
115 8.033333333333333 ['2', '9', '33'] 401.66666666666714
116 8.033333333333333 ['2', '9', '33'] 401.66666666666714
117 8.033333333333333 ['2', '9', '33'] 401.66666666666714
118 8.033333333333333 ['2', '9', '33'] 401.66666666666714
119 8.033333333333333 ['2', '9', '33'] 401.66666666666714
120 8.033333333333333 ['2', '9', '33'] 401.66666666666714
121 8.033333333333333 ['2', '9', '33'] 401.66666666666714
122 8.033333333333333 ['2', '9', '33'] 401.66666666666714
123 8.033333333333333 ['2', '9', '33'] 401.66666666666714
124 8.033333333333333 ['2', '9', '33'] 401.66666666666714
125 8.033333333333333 ['2', '9', '33'] 401.66666666666714
126 8.033333333333333 ['2', '9', '33'] 401.66666666666714
127 8.033333333333333 ['2', '9', '33'] 401.66666666666714
128 8.033333333333333 ['2', '9', '33'] 401.66666666666714
129 8.033333333333333 ['2', '9', '33'] 401.66666666666714
130 8.033333333333333 ['2', '9', '33'] 401.66666666666714
131 8.033333333333333 ['2', '9', '33'] 401.66666666666714
132 8.033333333333333 ['2', '9', '33'] 401.66666666666714
133 8.033333333333333 ['2', '9', '33'] 401.66666666666714
134 8.033333333333333 ['2', '9', '33'] 401.66666666666714
135 8.033333333333333 ['2', '9', '33'] 401.66666666666714
136 8.033333333333333 ['2', '9', '33'] 401.66666666666714
137 8.033333333333333 ['2', '9', '33'] 401.66666666666714
138 8.033333333333333 ['2', '9', '33'] 401.66666666666714
139 8.033333333333333 ['2', '9', '33'] 401.66666666666714
140 8.033333333333333 ['2', '9', '33'] 401.66666666666714
141 8.033333333333333 ['2', '9', '33'] 401.66666666666714
142 8.033333333333333 ['2', '9', '33'] 401.66666666666714
143 8.033333333333333 ['2', '9', '33'] 401.66666666666714
144 8.033333333333333 ['2', '9', '33'] 401.66666666666714
145 8.033333333333333 ['2', '9', '33'] 401.66666666666714
146 8.033333333333333 ['2', '9', '33'] 401.66666666666714
147 8.033333333333333 ['2', '9', '33'] 401.66666666666714
148 8.033333333333333 ['2', '9', '33'] 401.66666666666714
149 8.033333333333333 ['2', '9', '33'] 401.66666666666714
150 8.033333333333333 ['2', '9', '33'] 401.66666666666714
151 8.033333333333333 ['2', '9', '33'] 401.66666666666714
152 8.033333333333333 ['2', '9', '33'] 401.66666666666714
153 8.033333333333333 ['2', '9', '33'] 401.66666666666714
154 8.033333333333333 ['2', '9', '33'] 401.66666666666714
155 8.033333333333333 ['2', '9', '33'] 401.66666666666714
156 8.033333333333333 ['2', '9', '33'] 401.66666666666714
157 8.033333333333333 ['2', '9', '33'] 401.66666666666714
158 8.033333333333333 ['2', '9', '33'] 401.66666666666714
159 8.033333333333333 ['2', '9', '33'] 401.66666666666714
160 8.033333333333333 ['2', '9', '33'] 401.66666666666714
161 8.033333333333333 ['2', '9', '33'] 401.66666666666714
162 8.033333333333333 ['2', '9', '33'] 401.66666666666714
163 8.033333333333333 ['2', '9', '33'] 401.66666666666714
164 8.033333333333333 ['2', '9', '33'] 401.66666666666714
165 8.033333333333333 ['2', '9', '33'] 401.66666666666714
166 8.033333333333333 ['2', '9', '33'] 401.66666666666714
167 8.033333333333333 ['2', '9', '33'] 401.66666666666714
168 8.033333333333333 ['2', '9', '33'] 401.66666666666714
169 8.033333333333333 ['2', '9', '33'] 401.66666666666714
170 8.033333333333333 ['2', '9', '33'] 401.66666666666714
171 8.033333333333333 ['2', '9', '33'] 401.66666666666714
172 8.033333333333333 ['2', '9', '33'] 401.66666666666714
173 8.033333333333333 ['2', '9', '33'] 401.66666666666714
174 8.033333333333333 ['2', '9', '33'] 401.66666666666714
175 8.033333333333333 ['2', '9', '33'] 401.66666666666714
176 8.033333333333333 ['2', '9', '33'] 401.66666666666714
177 8.033333333333333 ['2', '9', '33'] 401.66666666666714
178 8.033333333333333 ['2', '9', '33'] 401.66666666666714
179 8.033333333333333 ['2', '9', '33'] 401.66666666666714
180 8.033333333333333 ['2', '9', '33'] 401.66666666666714
181 8.033333333333333 ['2', '9', '33'] 401.66666666666714
182 8.033333333333333 ['2', '9', '33'] 401.66666666666714
183 8.033333333333333 ['2', '9', '33'] 401.66666666666714
184 8.033333333333333 ['2', '9', '33'] 401.66666666666714
185 8.033333333333333 ['2', '9', '33'] 401.66666666666714
186 8.033333333333333 ['2', '9', '33'] 401.66666666666714
187 8.033333333333333 ['2', '9', '33'] 401.66666666666714
188 8.033333333333333 ['2', '9', '33'] 401.66666666666714
189 8.033333333333333 ['2', '9', '33'] 401.66666666666714
190 8.033333333333333 ['2', '9', '33'] 401.66666666666714
191 8.033333333333333 ['2', '9', '33'] 401.66666666666714
192 8.033333333333333 ['2', '9', '33'] 401.66666666666714
193 8.033333333333333 ['2', '9', '33'] 401.66666666666714
194 8.033333333333333 ['2', '9', '33'] 401.66666666666714
195 8.033333333333333 ['2', '9', '33'] 401.66666666666714
196 8.033333333333333 ['2', '9', '33'] 401.66666666666714
197 8.033333333333333 ['2', '9', '33'] 401.66666666666714
198 8.033333333333333 ['2', '9', '33'] 401.66666666666714
199 8.033333333333333 ['2', '9', '33'] 401.66666666666714
