0 34.31578947368421 ['24', '50', '46', '8', '34', '19'] 1841.947368421053
1 34.175438596491226 ['34', '63', '4', '46', '3', '31'] 1807.4385964912285
2 33.14035087719298 ['46', '8', '63', '34', '50', '19'] 1776.6491228070186
3 33.14035087719298 ['46', '8', '63', '34', '50', '19'] 1749.7017543859647
4 33.14035087719298 ['46', '8', '63', '34', '50', '19'] 1728.5789473684206
5 33.14035087719298 ['46', '8', '63', '34', '50', '19'] 1707.4912280701758
6 32.89473684210526 ['50', '4', '34', '8', '3', '41'] 1686.6666666666672
7 32.78947368421053 ['8', '19', '34', '50', '63', '3'] 1670.5789473684206
8 32.78947368421053 ['8', '19', '34', '50', '63', '3'] 1660.1403508771925
9 32.78947368421053 ['8', '19', '34', '50', '63', '3'] 1650.456140350877
10 32.6140350877193 ['50', '34', '8', '3', '19', '41'] 1644.1052631578948
11 32.6140350877193 ['50', '34', '8', '3', '19', '41'] 1639.5614035087722
12 32.6140350877193 ['50', '34', '8', '3', '19', '41'] 1637.1578947368444
13 32.6140350877193 ['50', '34', '8', '3', '19', '41'] 1634.2807017543864
14 32.6140350877193 ['50', '34', '8', '3', '19', '41'] 1630.9824561403502
15 32.6140350877193 ['50', '34', '8', '3', '19', '41'] 1630.7017543859643
16 32.6140350877193 ['50', '34', '8', '3', '19', '41'] 1630.7017543859643
17 32.6140350877193 ['50', '34', '8', '3', '19', '41'] 1630.7017543859643
18 32.6140350877193 ['50', '34', '8', '3', '19', '41'] 1630.7017543859643
19 32.6140350877193 ['50', '34', '8', '3', '19', '41'] 1630.7017543859643
20 32.6140350877193 ['50', '34', '8', '3', '19', '41'] 1630.7017543859643
21 32.6140350877193 ['50', '34', '8', '3', '19', '41'] 1630.7017543859643
22 32.6140350877193 ['50', '34', '8', '3', '19', '41'] 1630.7017543859643
23 32.6140350877193 ['50', '34', '8', '3', '19', '41'] 1630.7017543859643
24 32.6140350877193 ['50', '34', '8', '3', '19', '41'] 1630.7017543859643
25 32.6140350877193 ['50', '34', '8', '3', '19', '41'] 1630.7017543859643
26 32.6140350877193 ['50', '34', '8', '3', '19', '41'] 1630.7017543859643
27 32.6140350877193 ['50', '34', '8', '3', '19', '41'] 1630.7017543859643
28 32.6140350877193 ['50', '34', '8', '3', '19', '41'] 1630.7017543859643
29 32.6140350877193 ['50', '34', '8', '3', '19', '41'] 1630.7017543859643
30 32.6140350877193 ['50', '34', '8', '3', '19', '41'] 1630.7017543859643
31 32.6140350877193 ['50', '34', '8', '3', '19', '41'] 1630.7017543859643
32 32.6140350877193 ['50', '34', '8', '3', '19', '41'] 1630.7017543859643
33 32.6140350877193 ['50', '34', '8', '3', '19', '41'] 1630.7017543859643
34 32.6140350877193 ['50', '34', '8', '3', '19', '41'] 1630.7017543859643
35 32.6140350877193 ['50', '34', '8', '3', '19', '41'] 1630.7017543859643
36 32.6140350877193 ['50', '34', '8', '3', '19', '41'] 1630.7017543859643
37 32.6140350877193 ['50', '34', '8', '3', '19', '41'] 1630.7017543859643
38 32.6140350877193 ['50', '34', '8', '3', '19', '41'] 1630.7017543859643
39 32.6140350877193 ['50', '34', '8', '3', '19', '41'] 1630.7017543859643
40 32.6140350877193 ['50', '34', '8', '3', '19', '41'] 1630.7017543859643
41 32.6140350877193 ['50', '34', '8', '3', '19', '41'] 1630.7017543859643
42 32.6140350877193 ['50', '34', '8', '3', '19', '41'] 1630.7017543859643
43 32.6140350877193 ['50', '34', '8', '3', '19', '41'] 1630.7017543859643
44 32.6140350877193 ['50', '34', '8', '3', '19', '41'] 1630.7017543859643
45 32.6140350877193 ['50', '34', '8', '3', '19', '41'] 1630.7017543859643
46 32.6140350877193 ['50', '34', '8', '3', '19', '41'] 1630.7017543859643
47 32.6140350877193 ['50', '34', '8', '3', '19', '41'] 1630.7017543859643
48 32.6140350877193 ['50', '34', '8', '3', '19', '41'] 1630.7017543859643
49 32.6140350877193 ['50', '34', '8', '3', '19', '41'] 1630.7017543859643
50 32.6140350877193 ['50', '34', '8', '3', '19', '41'] 1630.7017543859643
51 32.6140350877193 ['50', '34', '8', '3', '19', '41'] 1630.7017543859643
52 32.6140350877193 ['50', '34', '8', '3', '19', '41'] 1630.7017543859643
53 32.6140350877193 ['50', '34', '8', '3', '19', '41'] 1630.7017543859643
54 32.6140350877193 ['50', '34', '8', '3', '19', '41'] 1630.7017543859643
55 32.6140350877193 ['50', '34', '8', '3', '19', '41'] 1630.7017543859643
56 32.6140350877193 ['50', '34', '8', '3', '19', '41'] 1630.7017543859643
57 32.6140350877193 ['50', '34', '8', '3', '19', '41'] 1630.7017543859643
58 32.6140350877193 ['50', '34', '8', '3', '19', '41'] 1630.7017543859643
59 32.6140350877193 ['50', '34', '8', '3', '19', '41'] 1630.7017543859643
60 32.6140350877193 ['50', '34', '8', '3', '19', '41'] 1630.7017543859643
61 32.6140350877193 ['50', '34', '8', '3', '19', '41'] 1630.7017543859643
62 32.6140350877193 ['50', '34', '8', '3', '19', '41'] 1630.7017543859643
63 32.6140350877193 ['50', '34', '8', '3', '19', '41'] 1630.7017543859643
64 32.6140350877193 ['50', '34', '8', '3', '19', '41'] 1630.7017543859643
65 32.6140350877193 ['50', '34', '8', '3', '19', '41'] 1630.7017543859643
66 32.6140350877193 ['50', '34', '8', '3', '19', '41'] 1630.7017543859643
67 32.6140350877193 ['50', '34', '8', '3', '19', '41'] 1630.7017543859643
68 32.6140350877193 ['50', '34', '8', '3', '19', '41'] 1630.7017543859643
69 32.6140350877193 ['50', '34', '8', '3', '19', '41'] 1630.7017543859643
70 32.6140350877193 ['50', '34', '8', '3', '19', '41'] 1630.7017543859643
71 32.6140350877193 ['50', '34', '8', '3', '19', '41'] 1630.7017543859643
72 32.6140350877193 ['50', '34', '8', '3', '19', '41'] 1630.7017543859643
73 32.6140350877193 ['50', '34', '8', '3', '19', '41'] 1630.7017543859643
74 32.6140350877193 ['50', '34', '8', '3', '19', '41'] 1630.7017543859643
75 32.6140350877193 ['50', '34', '8', '3', '19', '41'] 1630.7017543859643
76 32.6140350877193 ['50', '34', '8', '3', '19', '41'] 1630.7017543859643
77 32.6140350877193 ['50', '34', '8', '3', '19', '41'] 1630.7017543859643
78 32.6140350877193 ['50', '34', '8', '3', '19', '41'] 1630.7017543859643
79 32.6140350877193 ['50', '34', '8', '3', '19', '41'] 1630.7017543859643
80 32.6140350877193 ['50', '34', '8', '3', '19', '41'] 1630.7017543859643
81 32.6140350877193 ['50', '34', '8', '3', '19', '41'] 1630.7017543859643
82 32.6140350877193 ['50', '34', '8', '3', '19', '41'] 1630.7017543859643
83 32.6140350877193 ['50', '34', '8', '3', '19', '41'] 1630.7017543859643
84 32.6140350877193 ['50', '34', '8', '3', '19', '41'] 1630.7017543859643
85 32.6140350877193 ['50', '34', '8', '3', '19', '41'] 1630.7017543859643
86 32.6140350877193 ['50', '34', '8', '3', '19', '41'] 1630.7017543859643
87 32.6140350877193 ['50', '34', '8', '3', '19', '41'] 1630.7017543859643
88 32.6140350877193 ['50', '34', '8', '3', '19', '41'] 1630.7017543859643
89 32.6140350877193 ['50', '34', '8', '3', '19', '41'] 1630.7017543859643
90 32.6140350877193 ['50', '34', '8', '3', '19', '41'] 1630.7017543859643
91 32.6140350877193 ['50', '34', '8', '3', '19', '41'] 1630.7017543859643
92 32.6140350877193 ['50', '34', '8', '3', '19', '41'] 1630.7017543859643
93 32.6140350877193 ['50', '34', '8', '3', '19', '41'] 1630.7017543859643
94 32.6140350877193 ['50', '34', '8', '3', '19', '41'] 1630.7017543859643
95 32.6140350877193 ['50', '34', '8', '3', '19', '41'] 1630.7017543859643
96 32.6140350877193 ['50', '34', '8', '3', '19', '41'] 1630.7017543859643
97 32.6140350877193 ['50', '34', '8', '3', '19', '41'] 1630.7017543859643
98 32.6140350877193 ['50', '34', '8', '3', '19', '41'] 1630.7017543859643
99 32.6140350877193 ['50', '34', '8', '3', '19', '41'] 1630.7017543859643
100 32.6140350877193 ['50', '34', '8', '3', '19', '41'] 1630.7017543859643
101 32.6140350877193 ['50', '34', '8', '3', '19', '41'] 1630.7017543859643
102 32.6140350877193 ['50', '34', '8', '3', '19', '41'] 1630.7017543859643
103 32.6140350877193 ['50', '34', '8', '3', '19', '41'] 1630.7017543859643
104 32.6140350877193 ['50', '34', '8', '3', '19', '41'] 1630.7017543859643
105 32.6140350877193 ['50', '34', '8', '3', '19', '41'] 1630.7017543859643
106 32.6140350877193 ['50', '34', '8', '3', '19', '41'] 1630.7017543859643
107 32.6140350877193 ['50', '34', '8', '3', '19', '41'] 1630.7017543859643
108 32.6140350877193 ['50', '34', '8', '3', '19', '41'] 1630.7017543859643
109 32.6140350877193 ['50', '34', '8', '3', '19', '41'] 1630.7017543859643
110 32.6140350877193 ['50', '34', '8', '3', '19', '41'] 1630.7017543859643
111 32.6140350877193 ['50', '34', '8', '3', '19', '41'] 1630.7017543859643
112 32.6140350877193 ['50', '34', '8', '3', '19', '41'] 1630.7017543859643
113 32.6140350877193 ['50', '34', '8', '3', '19', '41'] 1630.7017543859643
114 32.6140350877193 ['50', '34', '8', '3', '19', '41'] 1630.7017543859643
115 32.6140350877193 ['50', '34', '8', '3', '19', '41'] 1630.7017543859643
116 32.6140350877193 ['50', '34', '8', '3', '19', '41'] 1630.7017543859643
117 32.6140350877193 ['50', '34', '8', '3', '19', '41'] 1630.7017543859643
118 32.6140350877193 ['50', '34', '8', '3', '19', '41'] 1630.7017543859643
119 32.6140350877193 ['50', '34', '8', '3', '19', '41'] 1630.7017543859643
120 32.6140350877193 ['50', '34', '8', '3', '19', '41'] 1630.7017543859643
121 32.6140350877193 ['50', '34', '8', '3', '19', '41'] 1630.7017543859643
122 32.6140350877193 ['50', '34', '8', '3', '19', '41'] 1630.7017543859643
123 32.6140350877193 ['50', '34', '8', '3', '19', '41'] 1630.7017543859643
124 32.6140350877193 ['50', '34', '8', '3', '19', '41'] 1630.7017543859643
125 32.6140350877193 ['50', '34', '8', '3', '19', '41'] 1630.7017543859643
126 32.6140350877193 ['50', '34', '8', '3', '19', '41'] 1630.7017543859643
127 32.6140350877193 ['50', '34', '8', '3', '19', '41'] 1630.7017543859643
128 32.6140350877193 ['50', '34', '8', '3', '19', '41'] 1630.7017543859643
129 32.6140350877193 ['50', '34', '8', '3', '19', '41'] 1630.7017543859643
130 32.6140350877193 ['50', '34', '8', '3', '19', '41'] 1630.7017543859643
131 32.6140350877193 ['50', '34', '8', '3', '19', '41'] 1630.7017543859643
132 32.6140350877193 ['50', '34', '8', '3', '19', '41'] 1630.7017543859643
133 32.6140350877193 ['50', '34', '8', '3', '19', '41'] 1630.7017543859643
134 32.6140350877193 ['50', '34', '8', '3', '19', '41'] 1630.7017543859643
135 32.6140350877193 ['50', '34', '8', '3', '19', '41'] 1630.7017543859643
136 32.6140350877193 ['50', '34', '8', '3', '19', '41'] 1630.7017543859643
137 32.6140350877193 ['50', '34', '8', '3', '19', '41'] 1630.7017543859643
138 32.6140350877193 ['50', '34', '8', '3', '19', '41'] 1630.7017543859643
139 32.6140350877193 ['50', '34', '8', '3', '19', '41'] 1630.7017543859643
140 32.6140350877193 ['50', '34', '8', '3', '19', '41'] 1630.7017543859643
141 32.6140350877193 ['50', '34', '8', '3', '19', '41'] 1630.7017543859643
142 32.6140350877193 ['50', '34', '8', '3', '19', '41'] 1630.7017543859643
143 32.6140350877193 ['50', '34', '8', '3', '19', '41'] 1630.7017543859643
144 32.6140350877193 ['50', '34', '8', '3', '19', '41'] 1630.7017543859643
145 32.6140350877193 ['50', '34', '8', '3', '19', '41'] 1630.7017543859643
146 32.6140350877193 ['50', '34', '8', '3', '19', '41'] 1630.7017543859643
147 32.6140350877193 ['50', '34', '8', '3', '19', '41'] 1630.7017543859643
148 32.6140350877193 ['50', '34', '8', '3', '19', '41'] 1630.7017543859643
149 32.6140350877193 ['50', '34', '8', '3', '19', '41'] 1630.7017543859643
150 32.6140350877193 ['50', '34', '8', '3', '19', '41'] 1630.7017543859643
151 32.6140350877193 ['50', '34', '8', '3', '19', '41'] 1630.7017543859643
152 32.6140350877193 ['50', '34', '8', '3', '19', '41'] 1630.7017543859643
153 32.6140350877193 ['50', '34', '8', '3', '19', '41'] 1630.7017543859643
154 32.6140350877193 ['50', '34', '8', '3', '19', '41'] 1630.7017543859643
155 32.6140350877193 ['50', '34', '8', '3', '19', '41'] 1630.7017543859643
156 32.6140350877193 ['50', '34', '8', '3', '19', '41'] 1630.7017543859643
157 32.6140350877193 ['50', '34', '8', '3', '19', '41'] 1630.7017543859643
158 32.6140350877193 ['50', '34', '8', '3', '19', '41'] 1630.7017543859643
159 32.6140350877193 ['50', '34', '8', '3', '19', '41'] 1630.7017543859643
160 32.6140350877193 ['50', '34', '8', '3', '19', '41'] 1630.7017543859643
161 32.6140350877193 ['50', '34', '8', '3', '19', '41'] 1630.7017543859643
162 32.6140350877193 ['50', '34', '8', '3', '19', '41'] 1630.7017543859643
163 32.6140350877193 ['50', '34', '8', '3', '19', '41'] 1630.7017543859643
164 32.6140350877193 ['50', '34', '8', '3', '19', '41'] 1630.7017543859643
165 32.6140350877193 ['50', '34', '8', '3', '19', '41'] 1630.7017543859643
166 32.6140350877193 ['50', '34', '8', '3', '19', '41'] 1630.7017543859643
167 32.6140350877193 ['50', '34', '8', '3', '19', '41'] 1630.7017543859643
168 32.6140350877193 ['50', '34', '8', '3', '19', '41'] 1630.7017543859643
169 32.6140350877193 ['50', '34', '8', '3', '19', '41'] 1630.7017543859643
170 32.6140350877193 ['50', '34', '8', '3', '19', '41'] 1630.7017543859643
171 32.6140350877193 ['50', '34', '8', '3', '19', '41'] 1630.7017543859643
172 32.6140350877193 ['50', '34', '8', '3', '19', '41'] 1630.7017543859643
173 32.6140350877193 ['50', '34', '8', '3', '19', '41'] 1630.7017543859643
174 32.6140350877193 ['50', '34', '8', '3', '19', '41'] 1630.7017543859643
175 32.6140350877193 ['50', '34', '8', '3', '19', '41'] 1630.7017543859643
176 32.6140350877193 ['50', '34', '8', '3', '19', '41'] 1630.7017543859643
177 32.6140350877193 ['50', '34', '8', '3', '19', '41'] 1630.7017543859643
178 32.6140350877193 ['50', '34', '8', '3', '19', '41'] 1630.7017543859643
179 32.6140350877193 ['50', '34', '8', '3', '19', '41'] 1630.7017543859643
180 32.6140350877193 ['50', '34', '8', '3', '19', '41'] 1630.7017543859643
181 32.6140350877193 ['50', '34', '8', '3', '19', '41'] 1630.7017543859643
182 32.6140350877193 ['50', '34', '8', '3', '19', '41'] 1630.7017543859643
183 32.6140350877193 ['50', '34', '8', '3', '19', '41'] 1630.7017543859643
184 32.6140350877193 ['50', '34', '8', '3', '19', '41'] 1630.7017543859643
185 32.6140350877193 ['50', '34', '8', '3', '19', '41'] 1630.7017543859643
186 32.6140350877193 ['50', '34', '8', '3', '19', '41'] 1630.7017543859643
187 32.6140350877193 ['50', '34', '8', '3', '19', '41'] 1630.7017543859643
188 32.6140350877193 ['50', '34', '8', '3', '19', '41'] 1630.7017543859643
189 32.6140350877193 ['50', '34', '8', '3', '19', '41'] 1630.7017543859643
190 32.6140350877193 ['50', '34', '8', '3', '19', '41'] 1630.7017543859643
191 32.6140350877193 ['50', '34', '8', '3', '19', '41'] 1630.7017543859643
192 32.6140350877193 ['50', '34', '8', '3', '19', '41'] 1630.7017543859643
193 32.6140350877193 ['50', '34', '8', '3', '19', '41'] 1630.7017543859643
194 32.6140350877193 ['50', '34', '8', '3', '19', '41'] 1630.7017543859643
195 32.6140350877193 ['50', '34', '8', '3', '19', '41'] 1630.7017543859643
196 32.6140350877193 ['50', '34', '8', '3', '19', '41'] 1630.7017543859643
197 32.6140350877193 ['50', '34', '8', '3', '19', '41'] 1630.7017543859643
198 32.6140350877193 ['50', '34', '8', '3', '19', '41'] 1630.7017543859643
199 32.6140350877193 ['50', '34', '8', '3', '19', '41'] 1630.7017543859643
