0 27.25 ['17', '34', '8', '21'] 1426.7000000000003
1 27.25 ['17', '34', '8', '21'] 1410.4249999999997
2 27.0 ['34', '8', '19', '43'] 1392.475
3 27.0 ['34', '8', '19', '43'] 1379.5249999999992
4 26.825 ['34', '43', '17', '19'] 1364.7249999999997
5 26.775 ['3', '34', '19', '17'] 1353.3
6 26.775 ['3', '34', '19', '17'] 1346.7749999999999
7 26.775 ['3', '34', '19', '17'] 1342.5250000000005
8 26.775 ['3', '34', '19', '17'] 1340.300000000001
9 26.775 ['3', '34', '19', '17'] 1339.3999999999999
10 26.775 ['3', '34', '19', '17'] 1338.7500000000005
11 26.775 ['3', '34', '19', '17'] 1338.7500000000005
12 26.775 ['3', '34', '19', '17'] 1338.7500000000005
13 26.775 ['3', '34', '19', '17'] 1338.7500000000005
14 26.775 ['3', '34', '19', '17'] 1338.7500000000005
15 26.775 ['3', '34', '19', '17'] 1338.7500000000005
16 26.775 ['3', '34', '19', '17'] 1338.7500000000005
17 26.775 ['3', '34', '19', '17'] 1338.7500000000005
18 26.775 ['3', '34', '19', '17'] 1338.7500000000005
19 26.775 ['3', '34', '19', '17'] 1338.7500000000005
20 26.775 ['3', '34', '19', '17'] 1338.7500000000005
21 26.775 ['3', '34', '19', '17'] 1338.7500000000005
22 26.775 ['3', '34', '19', '17'] 1338.7500000000005
23 26.775 ['3', '34', '19', '17'] 1338.7500000000005
24 26.775 ['3', '34', '19', '17'] 1338.7500000000005
25 26.775 ['3', '34', '19', '17'] 1338.7500000000005
26 26.775 ['3', '34', '19', '17'] 1338.7500000000005
27 26.775 ['3', '34', '19', '17'] 1338.7500000000005
28 26.775 ['3', '34', '19', '17'] 1338.7500000000005
29 26.775 ['3', '34', '19', '17'] 1338.7500000000005
30 26.775 ['3', '34', '19', '17'] 1338.7500000000005
31 26.775 ['3', '34', '19', '17'] 1338.7500000000005
32 26.775 ['3', '34', '19', '17'] 1338.7500000000005
33 26.775 ['3', '34', '19', '17'] 1338.7500000000005
34 26.775 ['3', '34', '19', '17'] 1338.7500000000005
35 26.775 ['3', '34', '19', '17'] 1338.7500000000005
36 26.775 ['3', '34', '19', '17'] 1338.7500000000005
37 26.775 ['3', '34', '19', '17'] 1338.7500000000005
38 26.775 ['3', '34', '19', '17'] 1338.7500000000005
39 26.775 ['3', '34', '19', '17'] 1338.7500000000005
40 26.775 ['3', '34', '19', '17'] 1338.7500000000005
41 26.775 ['3', '34', '19', '17'] 1338.7500000000005
42 26.775 ['3', '34', '19', '17'] 1338.7500000000005
43 26.775 ['3', '34', '19', '17'] 1338.7500000000005
44 26.775 ['3', '34', '19', '17'] 1338.7500000000005
45 26.775 ['3', '34', '19', '17'] 1338.7500000000005
46 26.775 ['3', '34', '19', '17'] 1338.7500000000005
47 26.775 ['3', '34', '19', '17'] 1338.7500000000005
48 26.775 ['3', '34', '19', '17'] 1338.7500000000005
49 26.775 ['3', '34', '19', '17'] 1338.7500000000005
50 26.775 ['3', '34', '19', '17'] 1338.7500000000005
51 26.775 ['3', '34', '19', '17'] 1338.7500000000005
52 26.775 ['3', '34', '19', '17'] 1338.7500000000005
53 26.775 ['3', '34', '19', '17'] 1338.7500000000005
54 26.775 ['3', '34', '19', '17'] 1338.7500000000005
55 26.775 ['3', '34', '19', '17'] 1338.7500000000005
56 26.775 ['3', '34', '19', '17'] 1338.7500000000005
57 26.775 ['3', '34', '19', '17'] 1338.7500000000005
58 26.775 ['3', '34', '19', '17'] 1338.7500000000005
59 26.775 ['3', '34', '19', '17'] 1338.7500000000005
60 26.775 ['3', '34', '19', '17'] 1338.7500000000005
61 26.775 ['3', '34', '19', '17'] 1338.7500000000005
62 26.775 ['3', '34', '19', '17'] 1338.7500000000005
63 26.775 ['3', '34', '19', '17'] 1338.7500000000005
64 26.775 ['3', '34', '19', '17'] 1338.7500000000005
65 26.775 ['3', '34', '19', '17'] 1338.7500000000005
66 26.775 ['3', '34', '19', '17'] 1338.7500000000005
67 26.775 ['3', '34', '19', '17'] 1338.7500000000005
68 26.775 ['3', '34', '19', '17'] 1338.7500000000005
69 26.775 ['3', '34', '19', '17'] 1338.7500000000005
70 26.775 ['3', '34', '19', '17'] 1338.7500000000005
71 26.775 ['3', '34', '19', '17'] 1338.7500000000005
72 26.775 ['3', '34', '19', '17'] 1338.7500000000005
73 26.775 ['3', '34', '19', '17'] 1338.7500000000005
74 26.775 ['3', '34', '19', '17'] 1338.7500000000005
75 26.775 ['3', '34', '19', '17'] 1338.7500000000005
76 26.775 ['3', '34', '19', '17'] 1338.7500000000005
77 26.775 ['3', '34', '19', '17'] 1338.7500000000005
78 26.775 ['3', '34', '19', '17'] 1338.7500000000005
79 26.775 ['3', '34', '19', '17'] 1338.7500000000005
80 26.775 ['3', '34', '19', '17'] 1338.7500000000005
81 26.775 ['3', '34', '19', '17'] 1338.7500000000005
82 26.775 ['3', '34', '19', '17'] 1338.7500000000005
83 26.775 ['3', '34', '19', '17'] 1338.7500000000005
84 26.775 ['3', '34', '19', '17'] 1338.7500000000005
85 26.775 ['3', '34', '19', '17'] 1338.7500000000005
86 26.775 ['3', '34', '19', '17'] 1338.7500000000005
87 26.775 ['3', '34', '19', '17'] 1338.7500000000005
88 26.775 ['3', '34', '19', '17'] 1338.7500000000005
89 26.775 ['3', '34', '19', '17'] 1338.7500000000005
90 26.775 ['3', '34', '19', '17'] 1338.7500000000005
91 26.775 ['3', '34', '19', '17'] 1338.7500000000005
92 26.775 ['3', '34', '19', '17'] 1338.7500000000005
93 26.775 ['3', '34', '19', '17'] 1338.7500000000005
94 26.775 ['3', '34', '19', '17'] 1338.7500000000005
95 26.775 ['3', '34', '19', '17'] 1338.7500000000005
96 26.775 ['3', '34', '19', '17'] 1338.7500000000005
97 26.775 ['3', '34', '19', '17'] 1338.7500000000005
98 26.775 ['3', '34', '19', '17'] 1338.7500000000005
99 26.775 ['3', '34', '19', '17'] 1338.7500000000005
100 26.775 ['3', '34', '19', '17'] 1338.7500000000005
101 26.775 ['3', '34', '19', '17'] 1338.7500000000005
102 26.775 ['3', '34', '19', '17'] 1338.7500000000005
103 26.775 ['3', '34', '19', '17'] 1338.7500000000005
104 26.775 ['3', '34', '19', '17'] 1338.7500000000005
105 26.775 ['3', '34', '19', '17'] 1338.7500000000005
106 26.775 ['3', '34', '19', '17'] 1338.7500000000005
107 26.775 ['3', '34', '19', '17'] 1338.7500000000005
108 26.775 ['3', '34', '19', '17'] 1338.7500000000005
109 26.775 ['3', '34', '19', '17'] 1338.7500000000005
110 26.775 ['3', '34', '19', '17'] 1338.7500000000005
111 26.775 ['3', '34', '19', '17'] 1338.7500000000005
112 26.775 ['3', '34', '19', '17'] 1338.7500000000005
113 26.775 ['3', '34', '19', '17'] 1338.7500000000005
114 26.775 ['3', '34', '19', '17'] 1338.7500000000005
115 26.775 ['3', '34', '19', '17'] 1338.7500000000005
116 26.775 ['3', '34', '19', '17'] 1338.7500000000005
117 26.775 ['3', '34', '19', '17'] 1338.7500000000005
118 26.775 ['3', '34', '19', '17'] 1338.7500000000005
119 26.775 ['3', '34', '19', '17'] 1338.7500000000005
120 26.775 ['3', '34', '19', '17'] 1338.7500000000005
121 26.775 ['3', '34', '19', '17'] 1338.7500000000005
122 26.775 ['3', '34', '19', '17'] 1338.7500000000005
123 26.775 ['3', '34', '19', '17'] 1338.7500000000005
124 26.775 ['3', '34', '19', '17'] 1338.7500000000005
125 26.775 ['3', '34', '19', '17'] 1338.7500000000005
126 26.775 ['3', '34', '19', '17'] 1338.7500000000005
127 26.775 ['3', '34', '19', '17'] 1338.7500000000005
128 26.775 ['3', '34', '19', '17'] 1338.7500000000005
129 26.775 ['3', '34', '19', '17'] 1338.7500000000005
130 26.775 ['3', '34', '19', '17'] 1338.7500000000005
131 26.775 ['3', '34', '19', '17'] 1338.7500000000005
132 26.775 ['3', '34', '19', '17'] 1338.7500000000005
133 26.775 ['3', '34', '19', '17'] 1338.7500000000005
134 26.775 ['3', '34', '19', '17'] 1338.7500000000005
135 26.775 ['3', '34', '19', '17'] 1338.7500000000005
136 26.775 ['3', '34', '19', '17'] 1338.7500000000005
137 26.775 ['3', '34', '19', '17'] 1338.7500000000005
138 26.775 ['3', '34', '19', '17'] 1338.7500000000005
139 26.775 ['3', '34', '19', '17'] 1338.7500000000005
140 26.775 ['3', '34', '19', '17'] 1338.7500000000005
141 26.775 ['3', '34', '19', '17'] 1338.7500000000005
142 26.775 ['3', '34', '19', '17'] 1338.7500000000005
143 26.775 ['3', '34', '19', '17'] 1338.7500000000005
144 26.775 ['3', '34', '19', '17'] 1338.7500000000005
145 26.775 ['3', '34', '19', '17'] 1338.7500000000005
146 26.775 ['3', '34', '19', '17'] 1338.7500000000005
147 26.775 ['3', '34', '19', '17'] 1338.7500000000005
148 26.775 ['3', '34', '19', '17'] 1338.7500000000005
149 26.775 ['3', '34', '19', '17'] 1338.7500000000005
150 26.775 ['3', '34', '19', '17'] 1338.7500000000005
151 26.775 ['3', '34', '19', '17'] 1338.7500000000005
152 26.775 ['3', '34', '19', '17'] 1338.7500000000005
153 26.775 ['3', '34', '19', '17'] 1338.7500000000005
154 26.775 ['3', '34', '19', '17'] 1338.7500000000005
155 26.775 ['3', '34', '19', '17'] 1338.7500000000005
156 26.775 ['3', '34', '19', '17'] 1338.7500000000005
157 26.775 ['3', '34', '19', '17'] 1338.7500000000005
158 26.775 ['3', '34', '19', '17'] 1338.7500000000005
159 26.775 ['3', '34', '19', '17'] 1338.7500000000005
160 26.775 ['3', '34', '19', '17'] 1338.7500000000005
161 26.775 ['3', '34', '19', '17'] 1338.7500000000005
162 26.775 ['3', '34', '19', '17'] 1338.7500000000005
163 26.775 ['3', '34', '19', '17'] 1338.7500000000005
164 26.775 ['3', '34', '19', '17'] 1338.7500000000005
165 26.775 ['3', '34', '19', '17'] 1338.7500000000005
166 26.775 ['3', '34', '19', '17'] 1338.7500000000005
167 26.775 ['3', '34', '19', '17'] 1338.7500000000005
168 26.775 ['3', '34', '19', '17'] 1338.7500000000005
169 26.775 ['3', '34', '19', '17'] 1338.7500000000005
170 26.775 ['3', '34', '19', '17'] 1338.7500000000005
171 26.775 ['3', '34', '19', '17'] 1338.7500000000005
172 26.775 ['3', '34', '19', '17'] 1338.7500000000005
173 26.775 ['3', '34', '19', '17'] 1338.7500000000005
174 26.775 ['3', '34', '19', '17'] 1338.7500000000005
175 26.775 ['3', '34', '19', '17'] 1338.7500000000005
176 26.775 ['3', '34', '19', '17'] 1338.7500000000005
177 26.775 ['3', '34', '19', '17'] 1338.7500000000005
178 26.775 ['3', '34', '19', '17'] 1338.7500000000005
179 26.775 ['3', '34', '19', '17'] 1338.7500000000005
180 26.775 ['3', '34', '19', '17'] 1338.7500000000005
181 26.775 ['3', '34', '19', '17'] 1338.7500000000005
182 26.775 ['3', '34', '19', '17'] 1338.7500000000005
183 26.775 ['3', '34', '19', '17'] 1338.7500000000005
184 26.775 ['3', '34', '19', '17'] 1338.7500000000005
185 26.775 ['3', '34', '19', '17'] 1338.7500000000005
186 26.775 ['3', '34', '19', '17'] 1338.7500000000005
187 26.775 ['3', '34', '19', '17'] 1338.7500000000005
188 26.775 ['3', '34', '19', '17'] 1338.7500000000005
189 26.775 ['3', '34', '19', '17'] 1338.7500000000005
190 26.775 ['3', '34', '19', '17'] 1338.7500000000005
191 26.775 ['3', '34', '19', '17'] 1338.7500000000005
192 26.775 ['3', '34', '19', '17'] 1338.7500000000005
193 26.775 ['3', '34', '19', '17'] 1338.7500000000005
194 26.775 ['3', '34', '19', '17'] 1338.7500000000005
195 26.775 ['3', '34', '19', '17'] 1338.7500000000005
196 26.775 ['3', '34', '19', '17'] 1338.7500000000005
197 26.775 ['3', '34', '19', '17'] 1338.7500000000005
198 26.775 ['3', '34', '19', '17'] 1338.7500000000005
199 26.775 ['3', '34', '19', '17'] 1338.7500000000005
