0 451.9767441860465 ['17', '8', '31', '2'] 2297.6279069767443
1 446.83720930232556 ['17', '8', '33', '31'] 2263.0697674418607
2 446.83720930232556 ['17', '8', '33', '31'] 2240.3720930232557
3 446.83720930232556 ['17', '8', '33', '31'] 2234.186046511628
4 446.83720930232556 ['17', '8', '33', '31'] 2234.186046511628
