0 272.97872340425533 ['42', '39', '30', '44', '32'] 14476.680851063831
1 272.51063829787233 ['32', '44', '21', '39', '47'] 14227.021276595748
2 262.78723404255317 ['32', '30', '37', '39', '42'] 13995.297872340423
3 262.78723404255317 ['32', '30', '37', '39', '42'] 13738.425531914898
4 262.531914893617 ['30', '37', '32', '7', '42'] 13565.063829787228
5 253.10638297872342 ['37', '42', '39', '47', '30'] 13356.021276595748
6 253.10638297872342 ['37', '42', '39', '47', '30'] 13103.127659574466
7 253.10638297872342 ['37', '42', '39', '47', '30'] 12929.094858156033
8 253.10638297872342 ['37', '42', '39', '47', '30'] 12790.544769503547
9 253.10638297872342 ['37', '42', '39', '47', '30'] 12700.77881205674
10 253.10638297872342 ['37', '42', '39', '47', '30'] 12658.829787234052
11 253.10638297872342 ['37', '42', '39', '47', '30'] 12655.319148936176
12 253.10638297872342 ['37', '42', '39', '47', '30'] 12655.319148936176
13 253.10638297872342 ['37', '42', '39', '47', '30'] 12655.319148936176
14 253.10638297872342 ['37', '42', '39', '47', '30'] 12655.319148936176
15 253.10638297872342 ['37', '42', '39', '47', '30'] 12655.319148936176
16 253.10638297872342 ['37', '42', '39', '47', '30'] 12655.319148936176
17 253.10638297872342 ['37', '42', '39', '47', '30'] 12655.319148936176
18 253.10638297872342 ['37', '42', '39', '47', '30'] 12655.319148936176
19 253.10638297872342 ['37', '42', '39', '47', '30'] 12655.319148936176
20 253.10638297872342 ['37', '42', '39', '47', '30'] 12655.319148936176
21 253.10638297872342 ['37', '42', '39', '47', '30'] 12655.319148936176
22 253.10638297872342 ['37', '42', '39', '47', '30'] 12655.319148936176
23 253.10638297872342 ['37', '42', '39', '47', '30'] 12655.319148936176
24 253.10638297872342 ['37', '42', '39', '47', '30'] 12655.319148936176
25 253.10638297872342 ['37', '42', '39', '47', '30'] 12655.319148936176
26 253.10638297872342 ['37', '42', '39', '47', '30'] 12655.319148936176
27 253.10638297872342 ['37', '42', '39', '47', '30'] 12655.319148936176
28 253.10638297872342 ['37', '42', '39', '47', '30'] 12655.319148936176
29 253.10638297872342 ['37', '42', '39', '47', '30'] 12655.319148936176
30 253.10638297872342 ['37', '42', '39', '47', '30'] 12655.319148936176
31 253.10638297872342 ['37', '42', '39', '47', '30'] 12655.319148936176
32 253.10638297872342 ['37', '42', '39', '47', '30'] 12655.319148936176
33 253.10638297872342 ['37', '42', '39', '47', '30'] 12655.319148936176
34 253.10638297872342 ['37', '42', '39', '47', '30'] 12655.319148936176
35 253.10638297872342 ['37', '42', '39', '47', '30'] 12655.319148936176
36 253.10638297872342 ['37', '42', '39', '47', '30'] 12655.319148936176
37 253.10638297872342 ['37', '42', '39', '47', '30'] 12655.319148936176
38 253.10638297872342 ['37', '42', '39', '47', '30'] 12655.319148936176
39 253.10638297872342 ['37', '42', '39', '47', '30'] 12655.319148936176
40 253.10638297872342 ['37', '42', '39', '47', '30'] 12655.319148936176
41 253.10638297872342 ['37', '42', '39', '47', '30'] 12655.319148936176
42 253.10638297872342 ['37', '42', '39', '47', '30'] 12655.319148936176
43 253.10638297872342 ['37', '42', '39', '47', '30'] 12655.319148936176
44 253.10638297872342 ['37', '42', '39', '47', '30'] 12655.319148936176
45 253.10638297872342 ['37', '42', '39', '47', '30'] 12655.319148936176
46 253.10638297872342 ['37', '42', '39', '47', '30'] 12655.319148936176
47 253.10638297872342 ['37', '42', '39', '47', '30'] 12655.319148936176
48 253.10638297872342 ['37', '42', '39', '47', '30'] 12655.319148936176
49 253.10638297872342 ['37', '42', '39', '47', '30'] 12655.319148936176
50 253.10638297872342 ['37', '42', '39', '47', '30'] 12655.319148936176
51 253.10638297872342 ['37', '42', '39', '47', '30'] 12655.319148936176
52 253.10638297872342 ['37', '42', '39', '47', '30'] 12655.319148936176
53 253.10638297872342 ['37', '42', '39', '47', '30'] 12655.319148936176
54 253.10638297872342 ['37', '42', '39', '47', '30'] 12655.319148936176
55 253.10638297872342 ['37', '42', '39', '47', '30'] 12655.319148936176
56 253.10638297872342 ['37', '42', '39', '47', '30'] 12655.319148936176
57 253.10638297872342 ['37', '42', '39', '47', '30'] 12655.319148936176
58 253.10638297872342 ['37', '42', '39', '47', '30'] 12655.319148936176
59 253.10638297872342 ['37', '42', '39', '47', '30'] 12655.319148936176
60 253.10638297872342 ['37', '42', '39', '47', '30'] 12655.319148936176
61 253.10638297872342 ['37', '42', '39', '47', '30'] 12655.319148936176
62 253.10638297872342 ['37', '42', '39', '47', '30'] 12655.319148936176
63 253.10638297872342 ['37', '42', '39', '47', '30'] 12655.319148936176
64 253.10638297872342 ['37', '42', '39', '47', '30'] 12655.319148936176
65 253.10638297872342 ['37', '42', '39', '47', '30'] 12655.319148936176
66 253.10638297872342 ['37', '42', '39', '47', '30'] 12655.319148936176
67 253.10638297872342 ['37', '42', '39', '47', '30'] 12655.319148936176
68 253.10638297872342 ['37', '42', '39', '47', '30'] 12655.319148936176
69 253.10638297872342 ['37', '42', '39', '47', '30'] 12655.319148936176
70 253.10638297872342 ['37', '42', '39', '47', '30'] 12655.319148936176
71 253.10638297872342 ['37', '42', '39', '47', '30'] 12655.319148936176
72 253.10638297872342 ['37', '42', '39', '47', '30'] 12655.319148936176
73 253.10638297872342 ['37', '42', '39', '47', '30'] 12655.319148936176
74 253.10638297872342 ['37', '42', '39', '47', '30'] 12655.319148936176
75 253.10638297872342 ['37', '42', '39', '47', '30'] 12655.319148936176
76 253.10638297872342 ['37', '42', '39', '47', '30'] 12655.319148936176
77 253.10638297872342 ['37', '42', '39', '47', '30'] 12655.319148936176
78 253.10638297872342 ['37', '42', '39', '47', '30'] 12655.319148936176
79 253.10638297872342 ['37', '42', '39', '47', '30'] 12655.319148936176
80 253.10638297872342 ['37', '42', '39', '47', '30'] 12655.319148936176
81 253.10638297872342 ['37', '42', '39', '47', '30'] 12655.319148936176
82 253.10638297872342 ['37', '42', '39', '47', '30'] 12655.319148936176
83 253.10638297872342 ['37', '42', '39', '47', '30'] 12655.319148936176
84 253.10638297872342 ['37', '42', '39', '47', '30'] 12655.319148936176
85 253.10638297872342 ['37', '42', '39', '47', '30'] 12655.319148936176
86 253.10638297872342 ['37', '42', '39', '47', '30'] 12655.319148936176
87 253.10638297872342 ['37', '42', '39', '47', '30'] 12655.319148936176
88 253.10638297872342 ['37', '42', '39', '47', '30'] 12655.319148936176
89 253.10638297872342 ['37', '42', '39', '47', '30'] 12655.319148936176
90 253.10638297872342 ['37', '42', '39', '47', '30'] 12655.319148936176
91 253.10638297872342 ['37', '42', '39', '47', '30'] 12655.319148936176
92 253.10638297872342 ['37', '42', '39', '47', '30'] 12655.319148936176
93 253.10638297872342 ['37', '42', '39', '47', '30'] 12655.319148936176
94 253.10638297872342 ['37', '42', '39', '47', '30'] 12655.319148936176
95 253.10638297872342 ['37', '42', '39', '47', '30'] 12655.319148936176
96 253.10638297872342 ['37', '42', '39', '47', '30'] 12655.319148936176
97 253.10638297872342 ['37', '42', '39', '47', '30'] 12655.319148936176
98 253.10638297872342 ['37', '42', '39', '47', '30'] 12655.319148936176
99 253.10638297872342 ['37', '42', '39', '47', '30'] 12655.319148936176
100 253.10638297872342 ['37', '42', '39', '47', '30'] 12655.319148936176
101 253.10638297872342 ['37', '42', '39', '47', '30'] 12655.319148936176
102 253.10638297872342 ['37', '42', '39', '47', '30'] 12655.319148936176
103 253.10638297872342 ['37', '42', '39', '47', '30'] 12655.319148936176
104 253.10638297872342 ['37', '42', '39', '47', '30'] 12655.319148936176
105 253.10638297872342 ['37', '42', '39', '47', '30'] 12655.319148936176
106 253.10638297872342 ['37', '42', '39', '47', '30'] 12655.319148936176
107 253.10638297872342 ['37', '42', '39', '47', '30'] 12655.319148936176
108 253.10638297872342 ['37', '42', '39', '47', '30'] 12655.319148936176
109 253.10638297872342 ['37', '42', '39', '47', '30'] 12655.319148936176
110 253.10638297872342 ['37', '42', '39', '47', '30'] 12655.319148936176
111 253.10638297872342 ['37', '42', '39', '47', '30'] 12655.319148936176
112 253.10638297872342 ['37', '42', '39', '47', '30'] 12655.319148936176
113 253.10638297872342 ['37', '42', '39', '47', '30'] 12655.319148936176
114 253.10638297872342 ['37', '42', '39', '47', '30'] 12655.319148936176
115 253.10638297872342 ['37', '42', '39', '47', '30'] 12655.319148936176
116 253.10638297872342 ['37', '42', '39', '47', '30'] 12655.319148936176
117 253.10638297872342 ['37', '42', '39', '47', '30'] 12655.319148936176
118 253.10638297872342 ['37', '42', '39', '47', '30'] 12655.319148936176
119 253.10638297872342 ['37', '42', '39', '47', '30'] 12655.319148936176
120 253.10638297872342 ['37', '42', '39', '47', '30'] 12655.319148936176
121 253.10638297872342 ['37', '42', '39', '47', '30'] 12655.319148936176
122 253.10638297872342 ['37', '42', '39', '47', '30'] 12655.319148936176
123 253.10638297872342 ['37', '42', '39', '47', '30'] 12655.319148936176
124 253.10638297872342 ['37', '42', '39', '47', '30'] 12655.319148936176
125 253.10638297872342 ['37', '42', '39', '47', '30'] 12655.319148936176
126 253.10638297872342 ['37', '42', '39', '47', '30'] 12655.319148936176
127 253.10638297872342 ['37', '42', '39', '47', '30'] 12655.319148936176
128 253.10638297872342 ['37', '42', '39', '47', '30'] 12655.319148936176
129 253.10638297872342 ['37', '42', '39', '47', '30'] 12655.319148936176
130 253.10638297872342 ['37', '42', '39', '47', '30'] 12655.319148936176
131 253.10638297872342 ['37', '42', '39', '47', '30'] 12655.319148936176
132 253.10638297872342 ['37', '42', '39', '47', '30'] 12655.319148936176
133 253.10638297872342 ['37', '42', '39', '47', '30'] 12655.319148936176
134 253.10638297872342 ['37', '42', '39', '47', '30'] 12655.319148936176
135 253.10638297872342 ['37', '42', '39', '47', '30'] 12655.319148936176
136 253.10638297872342 ['37', '42', '39', '47', '30'] 12655.319148936176
137 253.10638297872342 ['37', '42', '39', '47', '30'] 12655.319148936176
138 253.10638297872342 ['37', '42', '39', '47', '30'] 12655.319148936176
139 253.10638297872342 ['37', '42', '39', '47', '30'] 12655.319148936176
140 253.10638297872342 ['37', '42', '39', '47', '30'] 12655.319148936176
141 253.10638297872342 ['37', '42', '39', '47', '30'] 12655.319148936176
142 253.10638297872342 ['37', '42', '39', '47', '30'] 12655.319148936176
143 253.10638297872342 ['37', '42', '39', '47', '30'] 12655.319148936176
144 253.10638297872342 ['37', '42', '39', '47', '30'] 12655.319148936176
145 253.10638297872342 ['37', '42', '39', '47', '30'] 12655.319148936176
146 253.10638297872342 ['37', '42', '39', '47', '30'] 12655.319148936176
147 253.10638297872342 ['37', '42', '39', '47', '30'] 12655.319148936176
148 253.10638297872342 ['37', '42', '39', '47', '30'] 12655.319148936176
149 253.10638297872342 ['37', '42', '39', '47', '30'] 12655.319148936176
150 253.10638297872342 ['37', '42', '39', '47', '30'] 12655.319148936176
151 253.10638297872342 ['37', '42', '39', '47', '30'] 12655.319148936176
152 253.10638297872342 ['37', '42', '39', '47', '30'] 12655.319148936176
153 253.10638297872342 ['37', '42', '39', '47', '30'] 12655.319148936176
154 253.10638297872342 ['37', '42', '39', '47', '30'] 12655.319148936176
155 253.10638297872342 ['37', '42', '39', '47', '30'] 12655.319148936176
156 253.10638297872342 ['37', '42', '39', '47', '30'] 12655.319148936176
157 253.10638297872342 ['37', '42', '39', '47', '30'] 12655.319148936176
158 253.10638297872342 ['37', '42', '39', '47', '30'] 12655.319148936176
159 253.10638297872342 ['37', '42', '39', '47', '30'] 12655.319148936176
160 253.10638297872342 ['37', '42', '39', '47', '30'] 12655.319148936176
161 253.10638297872342 ['37', '42', '39', '47', '30'] 12655.319148936176
162 253.10638297872342 ['37', '42', '39', '47', '30'] 12655.319148936176
163 253.10638297872342 ['37', '42', '39', '47', '30'] 12655.319148936176
164 253.10638297872342 ['37', '42', '39', '47', '30'] 12655.319148936176
165 253.10638297872342 ['37', '42', '39', '47', '30'] 12655.319148936176
166 253.10638297872342 ['37', '42', '39', '47', '30'] 12655.319148936176
167 253.10638297872342 ['37', '42', '39', '47', '30'] 12655.319148936176
168 253.10638297872342 ['37', '42', '39', '47', '30'] 12655.319148936176
169 253.10638297872342 ['37', '42', '39', '47', '30'] 12655.319148936176
170 253.10638297872342 ['37', '42', '39', '47', '30'] 12655.319148936176
171 253.10638297872342 ['37', '42', '39', '47', '30'] 12655.319148936176
172 253.10638297872342 ['37', '42', '39', '47', '30'] 12655.319148936176
173 253.10638297872342 ['37', '42', '39', '47', '30'] 12655.319148936176
174 253.10638297872342 ['37', '42', '39', '47', '30'] 12655.319148936176
175 253.10638297872342 ['37', '42', '39', '47', '30'] 12655.319148936176
176 253.10638297872342 ['37', '42', '39', '47', '30'] 12655.319148936176
177 253.10638297872342 ['37', '42', '39', '47', '30'] 12655.319148936176
178 253.10638297872342 ['37', '42', '39', '47', '30'] 12655.319148936176
179 253.10638297872342 ['37', '42', '39', '47', '30'] 12655.319148936176
180 253.10638297872342 ['37', '42', '39', '47', '30'] 12655.319148936176
181 253.10638297872342 ['37', '42', '39', '47', '30'] 12655.319148936176
182 253.10638297872342 ['37', '42', '39', '47', '30'] 12655.319148936176
183 253.10638297872342 ['37', '42', '39', '47', '30'] 12655.319148936176
184 253.10638297872342 ['37', '42', '39', '47', '30'] 12655.319148936176
185 253.10638297872342 ['37', '42', '39', '47', '30'] 12655.319148936176
186 253.10638297872342 ['37', '42', '39', '47', '30'] 12655.319148936176
187 253.10638297872342 ['37', '42', '39', '47', '30'] 12655.319148936176
188 253.10638297872342 ['37', '42', '39', '47', '30'] 12655.319148936176
189 253.10638297872342 ['37', '42', '39', '47', '30'] 12655.319148936176
190 253.10638297872342 ['37', '42', '39', '47', '30'] 12655.319148936176
191 253.10638297872342 ['37', '42', '39', '47', '30'] 12655.319148936176
192 253.10638297872342 ['37', '42', '39', '47', '30'] 12655.319148936176
193 253.10638297872342 ['37', '42', '39', '47', '30'] 12655.319148936176
194 253.10638297872342 ['37', '42', '39', '47', '30'] 12655.319148936176
195 253.10638297872342 ['37', '42', '39', '47', '30'] 12655.319148936176
196 253.10638297872342 ['37', '42', '39', '47', '30'] 12655.319148936176
197 253.10638297872342 ['37', '42', '39', '47', '30'] 12655.319148936176
198 253.10638297872342 ['37', '42', '39', '47', '30'] 12655.319148936176
199 253.10638297872342 ['37', '42', '39', '47', '30'] 12655.319148936176
