0 454.875 ['3', '8', '35', '43'] 25096.9
1 454.875 ['3', '8', '35', '43'] 24628.37500000001
2 454.875 ['3', '8', '35', '43'] 24142.775000000005
3 444.25 ['3', '43', '34', '25'] 23638.399999999994
4 442.525 ['43', '34', '3', '35'] 23135.1
5 440.5 ['34', '35', '23', '43'] 22696.500000000007
6 440.5 ['34', '35', '23', '43'] 22319.599999999995
7 438.425 ['43', '34', '35', '25'] 22132.42499999999
8 438.425 ['43', '34', '35', '25'] 22085.35000000001
9 438.425 ['43', '34', '35', '25'] 22050.825000000015
10 438.425 ['43', '34', '35', '25'] 22000.100000000002
11 438.425 ['43', '34', '35', '25'] 21973.125
12 438.425 ['43', '34', '35', '25'] 21929.549999999985
13 438.425 ['43', '34', '35', '25'] 21921.24999999998
14 438.425 ['43', '34', '35', '25'] 21921.24999999998
15 438.425 ['43', '34', '35', '25'] 21921.24999999998
16 438.425 ['43', '34', '35', '25'] 21921.24999999998
17 438.425 ['43', '34', '35', '25'] 21921.24999999998
18 438.425 ['43', '34', '35', '25'] 21921.24999999998
19 438.425 ['43', '34', '35', '25'] 21921.24999999998
20 438.425 ['43', '34', '35', '25'] 21921.24999999998
21 438.425 ['43', '34', '35', '25'] 21921.24999999998
22 438.425 ['43', '34', '35', '25'] 21921.24999999998
23 438.425 ['43', '34', '35', '25'] 21921.24999999998
24 438.425 ['43', '34', '35', '25'] 21921.24999999998
25 438.425 ['43', '34', '35', '25'] 21921.24999999998
26 438.425 ['43', '34', '35', '25'] 21921.24999999998
27 438.425 ['43', '34', '35', '25'] 21921.24999999998
28 438.425 ['43', '34', '35', '25'] 21921.24999999998
29 438.425 ['43', '34', '35', '25'] 21921.24999999998
30 438.425 ['43', '34', '35', '25'] 21921.24999999998
31 438.425 ['43', '34', '35', '25'] 21921.24999999998
32 438.425 ['43', '34', '35', '25'] 21921.24999999998
33 438.425 ['43', '34', '35', '25'] 21921.24999999998
34 438.425 ['43', '34', '35', '25'] 21921.24999999998
35 438.425 ['43', '34', '35', '25'] 21921.24999999998
36 438.425 ['43', '34', '35', '25'] 21921.24999999998
37 438.425 ['43', '34', '35', '25'] 21921.24999999998
38 438.425 ['43', '34', '35', '25'] 21921.24999999998
39 438.425 ['43', '34', '35', '25'] 21921.24999999998
40 438.425 ['43', '34', '35', '25'] 21921.24999999998
41 438.425 ['43', '34', '35', '25'] 21921.24999999998
42 438.425 ['43', '34', '35', '25'] 21921.24999999998
43 438.425 ['43', '34', '35', '25'] 21921.24999999998
44 438.425 ['43', '34', '35', '25'] 21921.24999999998
45 438.425 ['43', '34', '35', '25'] 21921.24999999998
46 438.425 ['43', '34', '35', '25'] 21921.24999999998
47 438.425 ['43', '34', '35', '25'] 21921.24999999998
48 438.425 ['43', '34', '35', '25'] 21921.24999999998
49 438.425 ['43', '34', '35', '25'] 21921.24999999998
50 438.425 ['43', '34', '35', '25'] 21921.24999999998
51 438.425 ['43', '34', '35', '25'] 21921.24999999998
52 438.425 ['43', '34', '35', '25'] 21921.24999999998
53 438.425 ['43', '34', '35', '25'] 21921.24999999998
54 438.425 ['43', '34', '35', '25'] 21921.24999999998
55 438.425 ['43', '34', '35', '25'] 21921.24999999998
56 438.425 ['43', '34', '35', '25'] 21921.24999999998
57 438.425 ['43', '34', '35', '25'] 21921.24999999998
58 438.425 ['43', '34', '35', '25'] 21921.24999999998
59 438.425 ['43', '34', '35', '25'] 21921.24999999998
60 438.425 ['43', '34', '35', '25'] 21921.24999999998
61 438.425 ['43', '34', '35', '25'] 21921.24999999998
62 438.425 ['43', '34', '35', '25'] 21921.24999999998
63 438.425 ['43', '34', '35', '25'] 21921.24999999998
64 438.425 ['43', '34', '35', '25'] 21921.24999999998
65 438.425 ['43', '34', '35', '25'] 21921.24999999998
66 438.425 ['43', '34', '35', '25'] 21921.24999999998
67 438.425 ['43', '34', '35', '25'] 21921.24999999998
68 438.425 ['43', '34', '35', '25'] 21921.24999999998
69 438.425 ['43', '34', '35', '25'] 21921.24999999998
70 438.425 ['43', '34', '35', '25'] 21921.24999999998
71 438.425 ['43', '34', '35', '25'] 21921.24999999998
72 438.425 ['43', '34', '35', '25'] 21921.24999999998
73 438.425 ['43', '34', '35', '25'] 21921.24999999998
74 438.425 ['43', '34', '35', '25'] 21921.24999999998
75 438.425 ['43', '34', '35', '25'] 21921.24999999998
76 438.425 ['43', '34', '35', '25'] 21921.24999999998
77 438.425 ['43', '34', '35', '25'] 21921.24999999998
78 438.425 ['43', '34', '35', '25'] 21921.24999999998
79 438.425 ['43', '34', '35', '25'] 21921.24999999998
80 438.425 ['43', '34', '35', '25'] 21921.24999999998
81 438.425 ['43', '34', '35', '25'] 21921.24999999998
82 438.425 ['43', '34', '35', '25'] 21921.24999999998
83 438.425 ['43', '34', '35', '25'] 21921.24999999998
84 438.425 ['43', '34', '35', '25'] 21921.24999999998
85 438.425 ['43', '34', '35', '25'] 21921.24999999998
86 438.425 ['43', '34', '35', '25'] 21921.24999999998
87 438.425 ['43', '34', '35', '25'] 21921.24999999998
88 438.425 ['43', '34', '35', '25'] 21921.24999999998
89 438.425 ['43', '34', '35', '25'] 21921.24999999998
90 438.425 ['43', '34', '35', '25'] 21921.24999999998
91 438.425 ['43', '34', '35', '25'] 21921.24999999998
92 438.425 ['43', '34', '35', '25'] 21921.24999999998
93 438.425 ['43', '34', '35', '25'] 21921.24999999998
94 438.425 ['43', '34', '35', '25'] 21921.24999999998
95 438.425 ['43', '34', '35', '25'] 21921.24999999998
96 438.425 ['43', '34', '35', '25'] 21921.24999999998
97 438.425 ['43', '34', '35', '25'] 21921.24999999998
98 438.425 ['43', '34', '35', '25'] 21921.24999999998
99 438.425 ['43', '34', '35', '25'] 21921.24999999998
100 438.425 ['43', '34', '35', '25'] 21921.24999999998
101 438.425 ['43', '34', '35', '25'] 21921.24999999998
102 438.425 ['43', '34', '35', '25'] 21921.24999999998
103 438.425 ['43', '34', '35', '25'] 21921.24999999998
104 438.425 ['43', '34', '35', '25'] 21921.24999999998
105 438.425 ['43', '34', '35', '25'] 21921.24999999998
106 438.425 ['43', '34', '35', '25'] 21921.24999999998
107 438.425 ['43', '34', '35', '25'] 21921.24999999998
108 438.425 ['43', '34', '35', '25'] 21921.24999999998
109 438.425 ['43', '34', '35', '25'] 21921.24999999998
110 438.425 ['43', '34', '35', '25'] 21921.24999999998
111 438.425 ['43', '34', '35', '25'] 21921.24999999998
112 438.425 ['43', '34', '35', '25'] 21921.24999999998
113 438.425 ['43', '34', '35', '25'] 21921.24999999998
114 438.425 ['43', '34', '35', '25'] 21921.24999999998
115 438.425 ['43', '34', '35', '25'] 21921.24999999998
116 438.425 ['43', '34', '35', '25'] 21921.24999999998
117 438.425 ['43', '34', '35', '25'] 21921.24999999998
118 438.425 ['43', '34', '35', '25'] 21921.24999999998
119 438.425 ['43', '34', '35', '25'] 21921.24999999998
120 438.425 ['43', '34', '35', '25'] 21921.24999999998
121 438.425 ['43', '34', '35', '25'] 21921.24999999998
122 438.425 ['43', '34', '35', '25'] 21921.24999999998
123 438.425 ['43', '34', '35', '25'] 21921.24999999998
124 438.425 ['43', '34', '35', '25'] 21921.24999999998
125 438.425 ['43', '34', '35', '25'] 21921.24999999998
126 438.425 ['43', '34', '35', '25'] 21921.24999999998
127 438.425 ['43', '34', '35', '25'] 21921.24999999998
128 438.425 ['43', '34', '35', '25'] 21921.24999999998
129 438.425 ['43', '34', '35', '25'] 21921.24999999998
130 438.425 ['43', '34', '35', '25'] 21921.24999999998
131 438.425 ['43', '34', '35', '25'] 21921.24999999998
132 438.425 ['43', '34', '35', '25'] 21921.24999999998
133 438.425 ['43', '34', '35', '25'] 21921.24999999998
134 438.425 ['43', '34', '35', '25'] 21921.24999999998
135 438.425 ['43', '34', '35', '25'] 21921.24999999998
136 438.425 ['43', '34', '35', '25'] 21921.24999999998
137 438.425 ['43', '34', '35', '25'] 21921.24999999998
138 438.425 ['43', '34', '35', '25'] 21921.24999999998
139 438.425 ['43', '34', '35', '25'] 21921.24999999998
140 438.425 ['43', '34', '35', '25'] 21921.24999999998
141 438.425 ['43', '34', '35', '25'] 21921.24999999998
142 438.425 ['43', '34', '35', '25'] 21921.24999999998
143 438.425 ['43', '34', '35', '25'] 21921.24999999998
144 438.425 ['43', '34', '35', '25'] 21921.24999999998
145 438.425 ['43', '34', '35', '25'] 21921.24999999998
146 438.425 ['43', '34', '35', '25'] 21921.24999999998
147 438.425 ['43', '34', '35', '25'] 21921.24999999998
148 438.425 ['43', '34', '35', '25'] 21921.24999999998
149 438.425 ['43', '34', '35', '25'] 21921.24999999998
150 438.425 ['43', '34', '35', '25'] 21921.24999999998
151 438.425 ['43', '34', '35', '25'] 21921.24999999998
152 438.425 ['43', '34', '35', '25'] 21921.24999999998
153 438.425 ['43', '34', '35', '25'] 21921.24999999998
154 438.425 ['43', '34', '35', '25'] 21921.24999999998
155 438.425 ['43', '34', '35', '25'] 21921.24999999998
156 438.425 ['43', '34', '35', '25'] 21921.24999999998
157 438.425 ['43', '34', '35', '25'] 21921.24999999998
158 438.425 ['43', '34', '35', '25'] 21921.24999999998
159 438.425 ['43', '34', '35', '25'] 21921.24999999998
160 438.425 ['43', '34', '35', '25'] 21921.24999999998
161 438.425 ['43', '34', '35', '25'] 21921.24999999998
162 438.425 ['43', '34', '35', '25'] 21921.24999999998
163 438.425 ['43', '34', '35', '25'] 21921.24999999998
164 438.425 ['43', '34', '35', '25'] 21921.24999999998
165 438.425 ['43', '34', '35', '25'] 21921.24999999998
166 438.425 ['43', '34', '35', '25'] 21921.24999999998
167 438.425 ['43', '34', '35', '25'] 21921.24999999998
168 438.425 ['43', '34', '35', '25'] 21921.24999999998
169 438.425 ['43', '34', '35', '25'] 21921.24999999998
170 438.425 ['43', '34', '35', '25'] 21921.24999999998
171 438.425 ['43', '34', '35', '25'] 21921.24999999998
172 438.425 ['43', '34', '35', '25'] 21921.24999999998
173 438.425 ['43', '34', '35', '25'] 21921.24999999998
174 438.425 ['43', '34', '35', '25'] 21921.24999999998
175 438.425 ['43', '34', '35', '25'] 21921.24999999998
176 438.425 ['43', '34', '35', '25'] 21921.24999999998
177 438.425 ['43', '34', '35', '25'] 21921.24999999998
178 438.425 ['43', '34', '35', '25'] 21921.24999999998
179 438.425 ['43', '34', '35', '25'] 21921.24999999998
180 438.425 ['43', '34', '35', '25'] 21921.24999999998
181 438.425 ['43', '34', '35', '25'] 21921.24999999998
182 438.425 ['43', '34', '35', '25'] 21921.24999999998
183 438.425 ['43', '34', '35', '25'] 21921.24999999998
184 438.425 ['43', '34', '35', '25'] 21921.24999999998
185 438.425 ['43', '34', '35', '25'] 21921.24999999998
186 438.425 ['43', '34', '35', '25'] 21921.24999999998
187 438.425 ['43', '34', '35', '25'] 21921.24999999998
188 438.425 ['43', '34', '35', '25'] 21921.24999999998
189 438.425 ['43', '34', '35', '25'] 21921.24999999998
190 438.425 ['43', '34', '35', '25'] 21921.24999999998
191 438.425 ['43', '34', '35', '25'] 21921.24999999998
192 438.425 ['43', '34', '35', '25'] 21921.24999999998
193 438.425 ['43', '34', '35', '25'] 21921.24999999998
194 438.425 ['43', '34', '35', '25'] 21921.24999999998
195 438.425 ['43', '34', '35', '25'] 21921.24999999998
196 438.425 ['43', '34', '35', '25'] 21921.24999999998
197 438.425 ['43', '34', '35', '25'] 21921.24999999998
198 438.425 ['43', '34', '35', '25'] 21921.24999999998
199 438.425 ['43', '34', '35', '25'] 21921.24999999998
