0 13.277777777777779 ['26', '28', '23', '25'] 726.1666666666667
1 13.277777777777779 ['26', '28', '23', '25'] 709.0000000000001
2 13.277777777777779 ['26', '28', '23', '25'] 692.583333333333
3 13.194444444444445 ['23', '2', '25', '28'] 679.6666666666669
4 12.86111111111111 ['23', '26', '28', '21'] 670.6666666666667
5 12.86111111111111 ['23', '26', '28', '21'] 664.6914414414413
6 12.86111111111111 ['23', '26', '28', '21'] 659.7162162162168
7 12.86111111111111 ['23', '26', '28', '21'] 654.0743243243243
8 12.86111111111111 ['23', '26', '28', '21'] 646.599099099099
9 12.86111111111111 ['23', '26', '28', '21'] 643.0555555555549
10 12.86111111111111 ['23', '26', '28', '21'] 643.0555555555549
11 12.86111111111111 ['23', '26', '28', '21'] 643.0555555555549
12 12.86111111111111 ['23', '26', '28', '21'] 643.0555555555549
13 12.86111111111111 ['23', '26', '28', '21'] 643.0555555555549
14 12.86111111111111 ['23', '26', '28', '21'] 643.0555555555549
15 12.86111111111111 ['23', '26', '28', '21'] 643.0555555555549
16 12.86111111111111 ['23', '26', '28', '21'] 643.0555555555549
17 12.86111111111111 ['23', '26', '28', '21'] 643.0555555555549
18 12.86111111111111 ['23', '26', '28', '21'] 643.0555555555549
19 12.86111111111111 ['23', '26', '28', '21'] 643.0555555555549
20 12.86111111111111 ['23', '26', '28', '21'] 643.0555555555549
21 12.86111111111111 ['23', '26', '28', '21'] 643.0555555555549
22 12.86111111111111 ['23', '26', '28', '21'] 643.0555555555549
23 12.86111111111111 ['23', '26', '28', '21'] 643.0555555555549
24 12.86111111111111 ['23', '26', '28', '21'] 643.0555555555549
25 12.86111111111111 ['23', '26', '28', '21'] 643.0555555555549
26 12.86111111111111 ['23', '26', '28', '21'] 643.0555555555549
27 12.86111111111111 ['23', '26', '28', '21'] 643.0555555555549
28 12.86111111111111 ['23', '26', '28', '21'] 643.0555555555549
29 12.86111111111111 ['23', '26', '28', '21'] 643.0555555555549
30 12.86111111111111 ['23', '26', '28', '21'] 643.0555555555549
31 12.86111111111111 ['23', '26', '28', '21'] 643.0555555555549
32 12.86111111111111 ['23', '26', '28', '21'] 643.0555555555549
33 12.86111111111111 ['23', '26', '28', '21'] 643.0555555555549
34 12.86111111111111 ['23', '26', '28', '21'] 643.0555555555549
35 12.86111111111111 ['23', '26', '28', '21'] 643.0555555555549
36 12.86111111111111 ['23', '26', '28', '21'] 643.0555555555549
37 12.86111111111111 ['23', '26', '28', '21'] 643.0555555555549
38 12.86111111111111 ['23', '26', '28', '21'] 643.0555555555549
39 12.86111111111111 ['23', '26', '28', '21'] 643.0555555555549
40 12.86111111111111 ['23', '26', '28', '21'] 643.0555555555549
41 12.86111111111111 ['23', '26', '28', '21'] 643.0555555555549
42 12.86111111111111 ['23', '26', '28', '21'] 643.0555555555549
43 12.86111111111111 ['23', '26', '28', '21'] 643.0555555555549
44 12.86111111111111 ['23', '26', '28', '21'] 643.0555555555549
45 12.86111111111111 ['23', '26', '28', '21'] 643.0555555555549
46 12.86111111111111 ['23', '26', '28', '21'] 643.0555555555549
47 12.86111111111111 ['23', '26', '28', '21'] 643.0555555555549
48 12.86111111111111 ['23', '26', '28', '21'] 643.0555555555549
49 12.86111111111111 ['23', '26', '28', '21'] 643.0555555555549
50 12.86111111111111 ['23', '26', '28', '21'] 643.0555555555549
51 12.86111111111111 ['23', '26', '28', '21'] 643.0555555555549
52 12.86111111111111 ['23', '26', '28', '21'] 643.0555555555549
53 12.86111111111111 ['23', '26', '28', '21'] 643.0555555555549
54 12.86111111111111 ['23', '26', '28', '21'] 643.0555555555549
55 12.86111111111111 ['23', '26', '28', '21'] 643.0555555555549
56 12.86111111111111 ['23', '26', '28', '21'] 643.0555555555549
57 12.86111111111111 ['23', '26', '28', '21'] 643.0555555555549
58 12.86111111111111 ['23', '26', '28', '21'] 643.0555555555549
59 12.86111111111111 ['23', '26', '28', '21'] 643.0555555555549
60 12.86111111111111 ['23', '26', '28', '21'] 643.0555555555549
61 12.86111111111111 ['23', '26', '28', '21'] 643.0555555555549
62 12.86111111111111 ['23', '26', '28', '21'] 643.0555555555549
63 12.86111111111111 ['23', '26', '28', '21'] 643.0555555555549
64 12.86111111111111 ['23', '26', '28', '21'] 643.0555555555549
65 12.86111111111111 ['23', '26', '28', '21'] 643.0555555555549
66 12.86111111111111 ['23', '26', '28', '21'] 643.0555555555549
67 12.86111111111111 ['23', '26', '28', '21'] 643.0555555555549
68 12.86111111111111 ['23', '26', '28', '21'] 643.0555555555549
69 12.86111111111111 ['23', '26', '28', '21'] 643.0555555555549
70 12.86111111111111 ['23', '26', '28', '21'] 643.0555555555549
71 12.86111111111111 ['23', '26', '28', '21'] 643.0555555555549
72 12.86111111111111 ['23', '26', '28', '21'] 643.0555555555549
73 12.86111111111111 ['23', '26', '28', '21'] 643.0555555555549
74 12.86111111111111 ['23', '26', '28', '21'] 643.0555555555549
75 12.86111111111111 ['23', '26', '28', '21'] 643.0555555555549
76 12.86111111111111 ['23', '26', '28', '21'] 643.0555555555549
77 12.86111111111111 ['23', '26', '28', '21'] 643.0555555555549
78 12.86111111111111 ['23', '26', '28', '21'] 643.0555555555549
79 12.86111111111111 ['23', '26', '28', '21'] 643.0555555555549
80 12.86111111111111 ['23', '26', '28', '21'] 643.0555555555549
81 12.86111111111111 ['23', '26', '28', '21'] 643.0555555555549
82 12.86111111111111 ['23', '26', '28', '21'] 643.0555555555549
83 12.86111111111111 ['23', '26', '28', '21'] 643.0555555555549
84 12.86111111111111 ['23', '26', '28', '21'] 643.0555555555549
85 12.86111111111111 ['23', '26', '28', '21'] 643.0555555555549
86 12.86111111111111 ['23', '26', '28', '21'] 643.0555555555549
87 12.86111111111111 ['23', '26', '28', '21'] 643.0555555555549
88 12.86111111111111 ['23', '26', '28', '21'] 643.0555555555549
89 12.86111111111111 ['23', '26', '28', '21'] 643.0555555555549
90 12.86111111111111 ['23', '26', '28', '21'] 643.0555555555549
91 12.86111111111111 ['23', '26', '28', '21'] 643.0555555555549
92 12.86111111111111 ['23', '26', '28', '21'] 643.0555555555549
93 12.86111111111111 ['23', '26', '28', '21'] 643.0555555555549
94 12.86111111111111 ['23', '26', '28', '21'] 643.0555555555549
95 12.86111111111111 ['23', '26', '28', '21'] 643.0555555555549
96 12.86111111111111 ['23', '26', '28', '21'] 643.0555555555549
97 12.86111111111111 ['23', '26', '28', '21'] 643.0555555555549
98 12.86111111111111 ['23', '26', '28', '21'] 643.0555555555549
99 12.86111111111111 ['23', '26', '28', '21'] 643.0555555555549
100 12.86111111111111 ['23', '26', '28', '21'] 643.0555555555549
101 12.86111111111111 ['23', '26', '28', '21'] 643.0555555555549
102 12.86111111111111 ['23', '26', '28', '21'] 643.0555555555549
103 12.86111111111111 ['23', '26', '28', '21'] 643.0555555555549
104 12.86111111111111 ['23', '26', '28', '21'] 643.0555555555549
105 12.86111111111111 ['23', '26', '28', '21'] 643.0555555555549
106 12.86111111111111 ['23', '26', '28', '21'] 643.0555555555549
107 12.86111111111111 ['23', '26', '28', '21'] 643.0555555555549
108 12.86111111111111 ['23', '26', '28', '21'] 643.0555555555549
109 12.86111111111111 ['23', '26', '28', '21'] 643.0555555555549
110 12.86111111111111 ['23', '26', '28', '21'] 643.0555555555549
111 12.86111111111111 ['23', '26', '28', '21'] 643.0555555555549
112 12.86111111111111 ['23', '26', '28', '21'] 643.0555555555549
113 12.86111111111111 ['23', '26', '28', '21'] 643.0555555555549
114 12.86111111111111 ['23', '26', '28', '21'] 643.0555555555549
115 12.86111111111111 ['23', '26', '28', '21'] 643.0555555555549
116 12.86111111111111 ['23', '26', '28', '21'] 643.0555555555549
117 12.86111111111111 ['23', '26', '28', '21'] 643.0555555555549
118 12.86111111111111 ['23', '26', '28', '21'] 643.0555555555549
119 12.86111111111111 ['23', '26', '28', '21'] 643.0555555555549
120 12.86111111111111 ['23', '26', '28', '21'] 643.0555555555549
121 12.86111111111111 ['23', '26', '28', '21'] 643.0555555555549
122 12.86111111111111 ['23', '26', '28', '21'] 643.0555555555549
123 12.86111111111111 ['23', '26', '28', '21'] 643.0555555555549
124 12.86111111111111 ['23', '26', '28', '21'] 643.0555555555549
125 12.805555555555555 ['23', '26', '28', '19'] 642.9999999999993
126 12.805555555555555 ['23', '26', '28', '19'] 642.9999999999993
127 12.805555555555555 ['23', '26', '28', '19'] 642.9999999999993
128 12.805555555555555 ['23', '26', '28', '19'] 642.8333333333326
129 12.805555555555555 ['23', '26', '28', '19'] 642.6111111111104
130 12.805555555555555 ['23', '26', '28', '19'] 642.0555555555547
131 12.61111111111111 ['28', '23', '19', '21'] 640.6944444444439
132 12.61111111111111 ['28', '23', '19', '21'] 640.0833333333329
133 12.61111111111111 ['28', '23', '19', '21'] 639.8888888888885
134 12.61111111111111 ['28', '23', '19', '21'] 639.4999999999995
135 12.61111111111111 ['28', '23', '19', '21'] 638.7222222222218
136 12.61111111111111 ['28', '23', '19', '21'] 635.9999999999997
137 12.61111111111111 ['28', '23', '19', '21'] 631.5277777777771
138 12.61111111111111 ['28', '23', '19', '21'] 630.5555555555549
139 12.61111111111111 ['28', '23', '19', '21'] 630.5555555555549
140 12.61111111111111 ['28', '23', '19', '21'] 630.5555555555549
141 12.61111111111111 ['28', '23', '19', '21'] 630.5555555555549
142 12.61111111111111 ['28', '23', '19', '21'] 630.5555555555549
143 12.61111111111111 ['28', '23', '19', '21'] 630.5555555555549
144 12.61111111111111 ['28', '23', '19', '21'] 630.5555555555549
145 12.61111111111111 ['28', '23', '19', '21'] 630.5555555555549
146 12.61111111111111 ['28', '23', '19', '21'] 630.5555555555549
147 12.61111111111111 ['28', '23', '19', '21'] 630.5555555555549
148 12.61111111111111 ['28', '23', '19', '21'] 630.5555555555549
149 12.61111111111111 ['28', '23', '19', '21'] 630.5555555555549
150 12.61111111111111 ['28', '23', '19', '21'] 630.5555555555549
151 12.61111111111111 ['28', '23', '19', '21'] 630.5555555555549
152 12.61111111111111 ['28', '23', '19', '21'] 630.5555555555549
153 12.61111111111111 ['28', '23', '19', '21'] 630.5555555555549
154 12.61111111111111 ['28', '23', '19', '21'] 630.5555555555549
155 12.61111111111111 ['28', '23', '19', '21'] 630.5555555555549
156 12.61111111111111 ['28', '23', '19', '21'] 630.5555555555549
157 12.61111111111111 ['28', '23', '19', '21'] 630.5555555555549
158 12.61111111111111 ['28', '23', '19', '21'] 630.5555555555549
159 12.61111111111111 ['28', '23', '19', '21'] 630.5555555555549
160 12.61111111111111 ['28', '23', '19', '21'] 630.5555555555549
161 12.61111111111111 ['28', '23', '19', '21'] 630.5555555555549
162 12.61111111111111 ['28', '23', '19', '21'] 630.5555555555549
163 12.61111111111111 ['28', '23', '19', '21'] 630.5555555555549
164 12.61111111111111 ['28', '23', '19', '21'] 630.5555555555549
165 12.61111111111111 ['28', '23', '19', '21'] 630.5555555555549
166 12.61111111111111 ['28', '23', '19', '21'] 630.5555555555549
167 12.61111111111111 ['28', '23', '19', '21'] 630.5555555555549
168 12.61111111111111 ['28', '23', '19', '21'] 630.5555555555549
169 12.61111111111111 ['28', '23', '19', '21'] 630.5555555555549
170 12.61111111111111 ['28', '23', '19', '21'] 630.5555555555549
171 12.61111111111111 ['28', '23', '19', '21'] 630.5555555555549
172 12.61111111111111 ['28', '23', '19', '21'] 630.5555555555549
173 12.61111111111111 ['28', '23', '19', '21'] 630.5555555555549
174 12.61111111111111 ['28', '23', '19', '21'] 630.5555555555549
175 12.61111111111111 ['28', '23', '19', '21'] 630.5555555555549
176 12.61111111111111 ['28', '23', '19', '21'] 630.5555555555549
177 12.61111111111111 ['28', '23', '19', '21'] 630.5555555555549
178 12.61111111111111 ['28', '23', '19', '21'] 630.5555555555549
179 12.61111111111111 ['28', '23', '19', '21'] 630.5555555555549
180 12.61111111111111 ['28', '23', '19', '21'] 630.5555555555549
181 12.61111111111111 ['28', '23', '19', '21'] 630.5555555555549
182 12.61111111111111 ['28', '23', '19', '21'] 630.5555555555549
183 12.61111111111111 ['28', '23', '19', '21'] 630.5555555555549
184 12.61111111111111 ['28', '23', '19', '21'] 630.5555555555549
185 12.61111111111111 ['28', '23', '19', '21'] 630.5555555555549
186 12.61111111111111 ['28', '23', '19', '21'] 630.5555555555549
187 12.61111111111111 ['28', '23', '19', '21'] 630.5555555555549
188 12.61111111111111 ['28', '23', '19', '21'] 630.5555555555549
189 12.61111111111111 ['28', '23', '19', '21'] 630.5555555555549
190 12.61111111111111 ['28', '23', '19', '21'] 630.5555555555549
191 12.61111111111111 ['28', '23', '19', '21'] 630.5555555555549
192 12.61111111111111 ['28', '23', '19', '21'] 630.5555555555549
193 12.61111111111111 ['28', '23', '19', '21'] 630.5555555555549
194 12.61111111111111 ['28', '23', '19', '21'] 630.5555555555549
195 12.61111111111111 ['28', '23', '19', '21'] 630.5555555555549
196 12.61111111111111 ['28', '23', '19', '21'] 630.5555555555549
197 12.61111111111111 ['28', '23', '19', '21'] 630.5555555555549
198 12.61111111111111 ['28', '23', '19', '21'] 630.5555555555549
199 12.61111111111111 ['28', '23', '19', '21'] 630.5555555555549
