0 27.94871794871795 ['26', '19', '40', '33'] 1456.9230769230774
1 27.94871794871795 ['26', '19', '40', '33'] 1437.410256410256
2 27.794871794871796 ['33', '28', '8', '14'] 1421.5384615384617
3 27.794871794871796 ['33', '28', '8', '14'] 1409.5128205128206
4 27.794871794871796 ['33', '28', '8', '14'] 1402.1282051282049
5 27.641025641025642 ['33', '8', '40', '28'] 1395.8717948717951
6 27.641025641025642 ['33', '8', '40', '28'] 1391.846153846153
7 27.641025641025642 ['33', '8', '40', '28'] 1388.179487179488
8 27.641025641025642 ['33', '8', '40', '28'] 1384.7948717948718
9 27.641025641025642 ['33', '8', '40', '28'] 1382.8717948717951
10 27.641025641025642 ['33', '8', '40', '28'] 1382.282051282052
11 27.641025641025642 ['33', '8', '40', '28'] 1382.051282051282
12 27.641025641025642 ['33', '8', '40', '28'] 1382.051282051282
13 27.641025641025642 ['33', '8', '40', '28'] 1382.051282051282
14 27.641025641025642 ['33', '8', '40', '28'] 1382.051282051282
15 27.641025641025642 ['33', '8', '40', '28'] 1382.051282051282
16 27.641025641025642 ['33', '8', '40', '28'] 1382.051282051282
17 27.641025641025642 ['33', '8', '40', '28'] 1382.051282051282
18 27.641025641025642 ['33', '8', '40', '28'] 1382.051282051282
19 27.641025641025642 ['33', '8', '40', '28'] 1382.051282051282
20 27.641025641025642 ['33', '8', '40', '28'] 1382.051282051282
21 27.641025641025642 ['33', '8', '40', '28'] 1382.051282051282
22 27.641025641025642 ['33', '8', '40', '28'] 1382.051282051282
23 27.641025641025642 ['33', '8', '40', '28'] 1382.051282051282
24 27.641025641025642 ['33', '8', '40', '28'] 1382.051282051282
25 27.641025641025642 ['33', '8', '40', '28'] 1382.051282051282
26 27.641025641025642 ['33', '8', '40', '28'] 1382.051282051282
27 27.641025641025642 ['33', '8', '40', '28'] 1382.051282051282
28 27.641025641025642 ['33', '8', '40', '28'] 1382.051282051282
29 27.641025641025642 ['33', '8', '40', '28'] 1382.051282051282
30 27.641025641025642 ['33', '8', '40', '28'] 1382.051282051282
31 27.641025641025642 ['33', '8', '40', '28'] 1382.051282051282
32 27.641025641025642 ['33', '8', '40', '28'] 1382.051282051282
33 27.641025641025642 ['33', '8', '40', '28'] 1382.051282051282
34 27.641025641025642 ['33', '8', '40', '28'] 1382.051282051282
35 27.641025641025642 ['33', '8', '40', '28'] 1382.051282051282
36 27.641025641025642 ['33', '8', '40', '28'] 1382.051282051282
37 27.641025641025642 ['33', '8', '40', '28'] 1382.051282051282
38 27.641025641025642 ['33', '8', '40', '28'] 1382.051282051282
39 27.641025641025642 ['33', '8', '40', '28'] 1382.051282051282
40 27.641025641025642 ['33', '8', '40', '28'] 1382.051282051282
41 27.641025641025642 ['33', '8', '40', '28'] 1382.051282051282
42 27.641025641025642 ['33', '8', '40', '28'] 1382.051282051282
43 27.641025641025642 ['33', '8', '40', '28'] 1382.051282051282
44 27.641025641025642 ['33', '8', '40', '28'] 1382.051282051282
45 27.641025641025642 ['33', '8', '40', '28'] 1382.051282051282
46 27.641025641025642 ['33', '8', '40', '28'] 1382.051282051282
47 27.641025641025642 ['33', '8', '40', '28'] 1382.051282051282
48 27.641025641025642 ['33', '8', '40', '28'] 1382.051282051282
49 27.641025641025642 ['33', '8', '40', '28'] 1382.051282051282
50 27.641025641025642 ['33', '8', '40', '28'] 1382.051282051282
51 27.641025641025642 ['33', '8', '40', '28'] 1382.051282051282
52 27.641025641025642 ['33', '8', '40', '28'] 1382.051282051282
53 27.641025641025642 ['33', '8', '40', '28'] 1382.051282051282
54 27.641025641025642 ['33', '8', '40', '28'] 1382.051282051282
55 27.641025641025642 ['33', '8', '40', '28'] 1382.051282051282
56 27.641025641025642 ['33', '8', '40', '28'] 1382.051282051282
57 27.641025641025642 ['33', '8', '40', '28'] 1382.051282051282
58 27.641025641025642 ['33', '8', '40', '28'] 1382.051282051282
59 27.641025641025642 ['33', '8', '40', '28'] 1382.051282051282
60 27.641025641025642 ['33', '8', '40', '28'] 1382.051282051282
61 27.641025641025642 ['33', '8', '40', '28'] 1382.051282051282
62 27.641025641025642 ['33', '8', '40', '28'] 1382.051282051282
63 27.641025641025642 ['33', '8', '40', '28'] 1382.051282051282
64 27.641025641025642 ['33', '8', '40', '28'] 1382.051282051282
65 27.641025641025642 ['33', '8', '40', '28'] 1382.051282051282
66 27.641025641025642 ['33', '8', '40', '28'] 1382.051282051282
67 27.641025641025642 ['33', '8', '40', '28'] 1382.051282051282
68 27.641025641025642 ['33', '8', '40', '28'] 1382.051282051282
69 27.641025641025642 ['33', '8', '40', '28'] 1382.051282051282
70 27.641025641025642 ['33', '8', '40', '28'] 1382.051282051282
71 27.641025641025642 ['33', '8', '40', '28'] 1382.051282051282
72 27.641025641025642 ['33', '8', '40', '28'] 1382.051282051282
73 27.641025641025642 ['33', '8', '40', '28'] 1382.051282051282
74 27.641025641025642 ['33', '8', '40', '28'] 1382.051282051282
75 27.641025641025642 ['33', '8', '40', '28'] 1382.051282051282
76 27.641025641025642 ['33', '8', '40', '28'] 1382.051282051282
77 27.641025641025642 ['33', '8', '40', '28'] 1382.051282051282
78 27.641025641025642 ['33', '8', '40', '28'] 1382.051282051282
79 27.641025641025642 ['33', '8', '40', '28'] 1382.051282051282
80 27.641025641025642 ['33', '8', '40', '28'] 1382.051282051282
81 27.641025641025642 ['33', '8', '40', '28'] 1382.051282051282
82 27.641025641025642 ['33', '8', '40', '28'] 1382.051282051282
83 27.641025641025642 ['33', '8', '40', '28'] 1382.051282051282
84 27.641025641025642 ['33', '8', '40', '28'] 1382.051282051282
85 27.641025641025642 ['33', '8', '40', '28'] 1382.051282051282
86 27.641025641025642 ['33', '8', '40', '28'] 1382.051282051282
87 27.641025641025642 ['33', '8', '40', '28'] 1382.051282051282
88 27.641025641025642 ['33', '8', '40', '28'] 1382.051282051282
89 27.641025641025642 ['33', '8', '40', '28'] 1382.051282051282
90 27.641025641025642 ['33', '8', '40', '28'] 1382.051282051282
91 27.641025641025642 ['33', '8', '40', '28'] 1382.051282051282
92 27.641025641025642 ['33', '8', '40', '28'] 1382.051282051282
93 27.641025641025642 ['33', '8', '40', '28'] 1382.051282051282
94 27.641025641025642 ['33', '8', '40', '28'] 1382.051282051282
95 27.641025641025642 ['33', '8', '40', '28'] 1382.051282051282
96 27.641025641025642 ['33', '8', '40', '28'] 1382.051282051282
97 27.641025641025642 ['33', '8', '40', '28'] 1382.051282051282
98 27.641025641025642 ['33', '8', '40', '28'] 1382.051282051282
99 27.641025641025642 ['33', '8', '40', '28'] 1382.051282051282
100 27.641025641025642 ['33', '8', '40', '28'] 1382.051282051282
101 27.641025641025642 ['33', '8', '40', '28'] 1382.051282051282
102 27.641025641025642 ['33', '8', '40', '28'] 1382.051282051282
103 27.641025641025642 ['33', '8', '40', '28'] 1382.051282051282
104 27.641025641025642 ['33', '8', '40', '28'] 1382.051282051282
105 27.641025641025642 ['33', '8', '40', '28'] 1382.051282051282
106 27.641025641025642 ['33', '8', '40', '28'] 1382.051282051282
107 27.641025641025642 ['33', '8', '40', '28'] 1382.051282051282
108 27.641025641025642 ['33', '8', '40', '28'] 1382.051282051282
109 27.641025641025642 ['33', '8', '40', '28'] 1382.051282051282
110 27.641025641025642 ['33', '8', '40', '28'] 1382.051282051282
111 27.641025641025642 ['33', '8', '40', '28'] 1382.051282051282
112 27.641025641025642 ['33', '8', '40', '28'] 1382.051282051282
113 27.641025641025642 ['33', '8', '40', '28'] 1382.051282051282
114 27.641025641025642 ['33', '8', '40', '28'] 1382.051282051282
115 27.641025641025642 ['33', '8', '40', '28'] 1382.051282051282
116 27.641025641025642 ['33', '8', '40', '28'] 1382.051282051282
117 27.641025641025642 ['33', '8', '40', '28'] 1382.051282051282
118 27.641025641025642 ['33', '8', '40', '28'] 1382.051282051282
119 27.641025641025642 ['33', '8', '40', '28'] 1382.051282051282
120 27.641025641025642 ['33', '8', '40', '28'] 1382.051282051282
121 27.641025641025642 ['33', '8', '40', '28'] 1382.051282051282
122 27.641025641025642 ['33', '8', '40', '28'] 1382.051282051282
123 27.641025641025642 ['33', '8', '40', '28'] 1382.051282051282
124 27.641025641025642 ['33', '8', '40', '28'] 1382.051282051282
125 27.641025641025642 ['33', '8', '40', '28'] 1382.051282051282
126 27.641025641025642 ['33', '8', '40', '28'] 1382.051282051282
127 27.641025641025642 ['33', '8', '40', '28'] 1382.051282051282
128 27.641025641025642 ['33', '8', '40', '28'] 1382.051282051282
129 27.641025641025642 ['33', '8', '40', '28'] 1382.051282051282
130 27.641025641025642 ['33', '8', '40', '28'] 1382.051282051282
131 27.641025641025642 ['33', '8', '40', '28'] 1382.051282051282
132 27.641025641025642 ['33', '8', '40', '28'] 1382.051282051282
133 27.641025641025642 ['33', '8', '40', '28'] 1382.051282051282
134 27.641025641025642 ['33', '8', '40', '28'] 1382.051282051282
135 27.641025641025642 ['33', '8', '40', '28'] 1382.051282051282
136 27.641025641025642 ['33', '8', '40', '28'] 1382.051282051282
137 27.641025641025642 ['33', '8', '40', '28'] 1382.051282051282
138 27.641025641025642 ['33', '8', '40', '28'] 1382.051282051282
139 27.641025641025642 ['33', '8', '40', '28'] 1382.051282051282
140 27.641025641025642 ['33', '8', '40', '28'] 1382.051282051282
141 27.641025641025642 ['33', '8', '40', '28'] 1382.051282051282
142 27.641025641025642 ['33', '8', '40', '28'] 1382.051282051282
143 27.641025641025642 ['33', '8', '40', '28'] 1382.051282051282
144 27.641025641025642 ['33', '8', '40', '28'] 1382.051282051282
145 27.641025641025642 ['33', '8', '40', '28'] 1382.051282051282
146 27.641025641025642 ['33', '8', '40', '28'] 1382.051282051282
147 27.641025641025642 ['33', '8', '40', '28'] 1382.051282051282
148 27.641025641025642 ['33', '8', '40', '28'] 1382.051282051282
149 27.641025641025642 ['33', '8', '40', '28'] 1382.051282051282
150 27.641025641025642 ['33', '8', '40', '28'] 1382.051282051282
151 27.641025641025642 ['33', '8', '40', '28'] 1382.051282051282
152 27.641025641025642 ['33', '8', '40', '28'] 1382.051282051282
153 27.641025641025642 ['33', '8', '40', '28'] 1382.051282051282
154 27.641025641025642 ['33', '8', '40', '28'] 1382.051282051282
155 27.641025641025642 ['33', '8', '40', '28'] 1382.051282051282
156 27.641025641025642 ['33', '8', '40', '28'] 1382.051282051282
157 27.641025641025642 ['33', '8', '40', '28'] 1382.051282051282
158 27.641025641025642 ['33', '8', '40', '28'] 1382.051282051282
159 27.641025641025642 ['33', '8', '40', '28'] 1382.051282051282
160 27.641025641025642 ['33', '8', '40', '28'] 1382.051282051282
161 27.641025641025642 ['33', '8', '40', '28'] 1382.051282051282
162 27.641025641025642 ['33', '8', '40', '28'] 1382.051282051282
163 27.641025641025642 ['33', '8', '40', '28'] 1382.051282051282
164 27.641025641025642 ['33', '8', '40', '28'] 1382.051282051282
165 27.641025641025642 ['33', '8', '40', '28'] 1382.051282051282
166 27.641025641025642 ['33', '8', '40', '28'] 1382.051282051282
167 27.641025641025642 ['33', '8', '40', '28'] 1382.051282051282
168 27.641025641025642 ['33', '8', '40', '28'] 1382.051282051282
169 27.641025641025642 ['33', '8', '40', '28'] 1382.051282051282
170 27.641025641025642 ['33', '8', '40', '28'] 1382.051282051282
171 27.641025641025642 ['33', '8', '40', '28'] 1382.051282051282
172 27.641025641025642 ['33', '8', '40', '28'] 1382.051282051282
173 27.641025641025642 ['33', '8', '40', '28'] 1382.051282051282
174 27.641025641025642 ['33', '8', '40', '28'] 1382.051282051282
175 27.641025641025642 ['33', '8', '40', '28'] 1382.051282051282
176 27.641025641025642 ['33', '8', '40', '28'] 1382.051282051282
177 27.641025641025642 ['33', '8', '40', '28'] 1382.051282051282
178 27.641025641025642 ['33', '8', '40', '28'] 1382.051282051282
179 27.641025641025642 ['33', '8', '40', '28'] 1382.051282051282
180 27.641025641025642 ['33', '8', '40', '28'] 1382.051282051282
181 27.641025641025642 ['33', '8', '40', '28'] 1382.051282051282
182 27.641025641025642 ['33', '8', '40', '28'] 1382.051282051282
183 27.641025641025642 ['33', '8', '40', '28'] 1382.051282051282
184 27.641025641025642 ['33', '8', '40', '28'] 1382.051282051282
185 27.641025641025642 ['33', '8', '40', '28'] 1382.051282051282
186 27.641025641025642 ['33', '8', '40', '28'] 1382.051282051282
187 27.641025641025642 ['33', '8', '40', '28'] 1382.051282051282
188 27.641025641025642 ['33', '8', '40', '28'] 1382.051282051282
189 27.641025641025642 ['33', '8', '40', '28'] 1382.051282051282
190 27.641025641025642 ['33', '8', '40', '28'] 1382.051282051282
191 27.641025641025642 ['33', '8', '40', '28'] 1382.051282051282
192 27.641025641025642 ['33', '8', '40', '28'] 1382.051282051282
193 27.641025641025642 ['33', '8', '40', '28'] 1382.051282051282
194 27.641025641025642 ['33', '8', '40', '28'] 1382.051282051282
195 27.641025641025642 ['33', '8', '40', '28'] 1382.051282051282
196 27.641025641025642 ['33', '8', '40', '28'] 1382.051282051282
197 27.641025641025642 ['33', '8', '40', '28'] 1382.051282051282
198 27.641025641025642 ['33', '8', '40', '28'] 1382.051282051282
199 27.641025641025642 ['33', '8', '40', '28'] 1382.051282051282
