0 9.375 ['31', '16', '33'] 488.6875
1 9.3125 ['2', '3', '29'] 481.4375
2 9.21875 ['3', '29', '25'] 475.71875
3 9.15625 ['3', '33', '16'] 470.96875
4 9.15625 ['3', '33', '16'] 466.03125
5 9.15625 ['3', '33', '16'] 461.71875
6 9.15625 ['3', '33', '16'] 459.09375
7 9.09375 ['3', '29', '33'] 457.625
8 9.09375 ['3', '29', '33'] 457.375
9 9.09375 ['3', '29', '33'] 456.8125
10 9.09375 ['3', '29', '33'] 455.4375
11 9.09375 ['3', '29', '33'] 454.6875
12 9.09375 ['3', '29', '33'] 454.6875
13 9.09375 ['3', '29', '33'] 454.6875
14 9.09375 ['3', '29', '33'] 454.6875
15 9.09375 ['3', '29', '33'] 454.6875
16 9.09375 ['3', '29', '33'] 454.6875
17 9.09375 ['3', '29', '33'] 454.6875
18 9.09375 ['3', '29', '33'] 454.6875
19 9.09375 ['3', '29', '33'] 454.6875
20 9.09375 ['3', '29', '33'] 454.6875
21 9.09375 ['3', '29', '33'] 454.6875
22 9.09375 ['3', '29', '33'] 454.6875
23 9.09375 ['3', '29', '33'] 454.6875
24 9.09375 ['3', '29', '33'] 454.6875
25 9.09375 ['3', '29', '33'] 454.6875
26 9.09375 ['3', '29', '33'] 454.6875
27 9.09375 ['3', '29', '33'] 454.6875
28 9.09375 ['3', '29', '33'] 454.6875
29 9.09375 ['3', '29', '33'] 454.6875
30 9.09375 ['3', '29', '33'] 454.6875
31 9.09375 ['3', '29', '33'] 454.6875
32 9.09375 ['3', '29', '33'] 454.6875
33 9.09375 ['3', '29', '33'] 454.6875
34 9.09375 ['3', '29', '33'] 454.6875
35 9.09375 ['3', '29', '33'] 454.6875
36 9.09375 ['3', '29', '33'] 454.6875
37 9.09375 ['3', '29', '33'] 454.6875
38 9.09375 ['3', '29', '33'] 454.6875
39 9.09375 ['3', '29', '33'] 454.6875
40 9.09375 ['3', '29', '33'] 454.6875
41 9.09375 ['3', '29', '33'] 454.6875
42 9.09375 ['3', '29', '33'] 454.6875
43 9.09375 ['3', '29', '33'] 454.6875
44 9.09375 ['3', '29', '33'] 454.6875
45 9.09375 ['3', '29', '33'] 454.6875
46 9.09375 ['3', '29', '33'] 454.6875
47 9.09375 ['3', '29', '33'] 454.6875
48 9.09375 ['3', '29', '33'] 454.6875
49 9.09375 ['3', '29', '33'] 454.6875
50 9.09375 ['3', '29', '33'] 454.6875
51 9.09375 ['3', '29', '33'] 454.6875
52 9.09375 ['3', '29', '33'] 454.6875
53 9.09375 ['3', '29', '33'] 454.6875
54 9.09375 ['3', '29', '33'] 454.6875
55 9.09375 ['3', '29', '33'] 454.6875
56 9.09375 ['3', '29', '33'] 454.6875
57 9.09375 ['3', '29', '33'] 454.6875
58 9.09375 ['3', '29', '33'] 454.6875
59 9.09375 ['3', '29', '33'] 454.6875
60 9.09375 ['3', '29', '33'] 454.6875
61 9.09375 ['3', '29', '33'] 454.6875
62 9.09375 ['3', '29', '33'] 454.6875
63 9.09375 ['3', '29', '33'] 454.6875
64 9.09375 ['3', '29', '33'] 454.6875
65 9.09375 ['3', '29', '33'] 454.6875
66 9.09375 ['3', '29', '33'] 454.6875
67 9.09375 ['3', '29', '33'] 454.6875
68 9.09375 ['3', '29', '33'] 454.6875
69 9.09375 ['3', '29', '33'] 454.6875
70 9.09375 ['3', '29', '33'] 454.6875
71 9.09375 ['3', '29', '33'] 454.6875
72 9.09375 ['3', '29', '33'] 454.6875
73 9.09375 ['3', '29', '33'] 454.6875
74 9.09375 ['3', '29', '33'] 454.6875
75 9.09375 ['3', '29', '33'] 454.6875
76 9.09375 ['3', '29', '33'] 454.6875
77 9.09375 ['3', '29', '33'] 454.6875
78 9.09375 ['3', '29', '33'] 454.6875
79 9.09375 ['3', '29', '33'] 454.6875
80 9.09375 ['3', '29', '33'] 454.6875
81 9.09375 ['3', '29', '33'] 454.6875
82 9.09375 ['3', '29', '33'] 454.6875
83 9.09375 ['3', '29', '33'] 454.6875
84 9.09375 ['3', '29', '33'] 454.6875
85 9.09375 ['3', '29', '33'] 454.6875
86 9.09375 ['3', '29', '33'] 454.6875
87 9.09375 ['3', '29', '33'] 454.6875
88 9.09375 ['3', '29', '33'] 454.6875
89 9.09375 ['3', '29', '33'] 454.6875
90 9.09375 ['3', '29', '33'] 454.6875
91 9.09375 ['3', '29', '33'] 454.6875
92 9.09375 ['3', '29', '33'] 454.6875
93 9.09375 ['3', '29', '33'] 454.6875
94 9.09375 ['3', '29', '33'] 454.6875
95 9.09375 ['3', '29', '33'] 454.6875
96 9.09375 ['3', '29', '33'] 454.6875
97 9.09375 ['3', '29', '33'] 454.6875
98 9.09375 ['3', '29', '33'] 454.6875
99 9.09375 ['3', '29', '33'] 454.6875
100 9.09375 ['3', '29', '33'] 454.6875
101 9.09375 ['3', '29', '33'] 454.6875
102 9.09375 ['3', '29', '33'] 454.6875
103 9.09375 ['3', '29', '33'] 454.6875
104 9.09375 ['3', '29', '33'] 454.6875
105 9.09375 ['3', '29', '33'] 454.6875
106 9.09375 ['3', '29', '33'] 454.6875
107 9.09375 ['3', '29', '33'] 454.6875
108 9.09375 ['3', '29', '33'] 454.6875
109 9.09375 ['3', '29', '33'] 454.6875
110 9.09375 ['3', '29', '33'] 454.6875
111 9.09375 ['3', '29', '33'] 454.6875
112 9.09375 ['3', '29', '33'] 454.6875
113 9.09375 ['3', '29', '33'] 454.6875
114 9.09375 ['3', '29', '33'] 454.6875
115 9.09375 ['3', '29', '33'] 454.6875
116 9.09375 ['3', '29', '33'] 454.6875
117 9.09375 ['3', '29', '33'] 454.6875
118 9.09375 ['3', '29', '33'] 454.6875
119 9.09375 ['3', '29', '33'] 454.6875
120 9.09375 ['3', '29', '33'] 454.6875
121 9.09375 ['3', '29', '33'] 454.6875
122 9.09375 ['3', '29', '33'] 454.6875
123 9.09375 ['3', '29', '33'] 454.6875
124 9.09375 ['3', '29', '33'] 454.6875
125 9.09375 ['3', '29', '33'] 454.6875
126 9.09375 ['3', '29', '33'] 454.6875
127 9.09375 ['3', '29', '33'] 454.6875
128 9.09375 ['3', '29', '33'] 454.6875
129 9.09375 ['3', '29', '33'] 454.6875
130 9.09375 ['3', '29', '33'] 454.6875
131 9.09375 ['3', '29', '33'] 454.6875
132 9.09375 ['3', '29', '33'] 454.6875
133 9.09375 ['3', '29', '33'] 454.6875
134 9.09375 ['3', '29', '33'] 454.6875
135 9.09375 ['3', '29', '33'] 454.6875
136 9.09375 ['3', '29', '33'] 454.6875
137 9.09375 ['3', '29', '33'] 454.6875
138 9.09375 ['3', '29', '33'] 454.6875
139 9.09375 ['3', '29', '33'] 454.6875
140 9.09375 ['3', '29', '33'] 454.6875
141 9.09375 ['3', '29', '33'] 454.6875
142 9.09375 ['3', '29', '33'] 454.6875
143 9.09375 ['3', '29', '33'] 454.6875
144 9.09375 ['3', '29', '33'] 454.6875
145 9.09375 ['3', '29', '33'] 454.6875
146 9.09375 ['3', '29', '33'] 454.6875
147 9.09375 ['3', '29', '33'] 454.6875
148 9.09375 ['3', '29', '33'] 454.6875
149 9.09375 ['3', '29', '33'] 454.6875
150 9.09375 ['3', '29', '33'] 454.6875
151 9.09375 ['3', '29', '33'] 454.6875
152 9.09375 ['3', '29', '33'] 454.6875
153 9.09375 ['3', '29', '33'] 454.6875
154 9.09375 ['3', '29', '33'] 454.6875
155 9.09375 ['3', '29', '33'] 454.6875
156 9.09375 ['3', '29', '33'] 454.6875
157 9.09375 ['3', '29', '33'] 454.6875
158 9.09375 ['3', '29', '33'] 454.6875
159 9.09375 ['3', '29', '33'] 454.6875
160 9.09375 ['3', '29', '33'] 454.6875
161 9.09375 ['3', '29', '33'] 454.6875
162 9.09375 ['3', '29', '33'] 454.6875
163 9.09375 ['3', '29', '33'] 454.6875
164 9.09375 ['3', '29', '33'] 454.6875
165 9.09375 ['3', '29', '33'] 454.6875
166 9.09375 ['3', '29', '33'] 454.6875
167 9.09375 ['3', '29', '33'] 454.6875
168 9.09375 ['3', '29', '33'] 454.6875
169 9.09375 ['3', '29', '33'] 454.6875
170 9.09375 ['3', '29', '33'] 454.6875
171 9.09375 ['3', '29', '33'] 454.6875
172 9.09375 ['3', '29', '33'] 454.6875
173 9.09375 ['3', '29', '33'] 454.6875
174 9.09375 ['3', '29', '33'] 454.6875
175 9.09375 ['3', '29', '33'] 454.6875
176 9.09375 ['3', '29', '33'] 454.6875
177 9.09375 ['3', '29', '33'] 454.6875
178 9.09375 ['3', '29', '33'] 454.6875
179 9.09375 ['3', '29', '33'] 454.6875
180 9.09375 ['3', '29', '33'] 454.6875
181 9.09375 ['3', '29', '33'] 454.6875
182 9.09375 ['3', '29', '33'] 454.6875
183 9.09375 ['3', '29', '33'] 454.6875
184 9.09375 ['3', '29', '33'] 454.6875
185 9.09375 ['3', '29', '33'] 454.6875
186 9.09375 ['3', '29', '33'] 454.6875
187 9.09375 ['3', '29', '33'] 454.6875
188 9.09375 ['3', '29', '33'] 454.6875
189 9.09375 ['3', '29', '33'] 454.6875
190 9.09375 ['3', '29', '33'] 454.6875
191 9.09375 ['3', '29', '33'] 454.6875
192 9.09375 ['3', '29', '33'] 454.6875
193 9.09375 ['3', '29', '33'] 454.6875
194 9.09375 ['3', '29', '33'] 454.6875
195 9.09375 ['3', '29', '33'] 454.6875
196 9.09375 ['3', '29', '33'] 454.6875
197 9.09375 ['3', '29', '33'] 454.6875
198 9.09375 ['3', '29', '33'] 454.6875
199 9.09375 ['3', '29', '33'] 454.6875
