0 146.47368421052633 ['61', '59', '41', '57', '35', '23'] 7604.0350877193
1 143.78947368421052 ['16', '61', '59', '6', '45', '41'] 7500.140350877193
2 143.78947368421052 ['16', '61', '59', '6', '45', '41'] 7414.90532365396
3 141.43103448275863 ['40', '26', '59', '27', '49'] 7338.810042347247
4 141.43103448275863 ['40', '26', '59', '27', '49'] 7282.058076225045
5 139.72413793103448 ['17', '49', '35', '27', '59'] 7207.398064125831
6 139.68421052631578 ['40', '17', '59', '21', '16', '54'] 7134.030550514216
7 136.67796610169492 ['59', '61', '27', '41'] 7066.604463379375
8 136.67796610169492 ['59', '61', '27', '41'] 7018.241599762117
9 129.78688524590163 ['27', '59'] 6927.710829384449
10 129.45 ['59', '40', '54'] 6823.402835414894
11 126.09677419354838 ['59'] 6666.925432135548
12 126.09677419354838 ['59'] 6473.090334680778
13 126.09677419354838 ['59'] 6339.954468535165
14 126.09677419354838 ['59'] 6304.838709677416
15 126.09677419354838 ['59'] 6304.838709677416
16 126.09677419354838 ['59'] 6304.838709677416
17 126.09677419354838 ['59'] 6304.838709677416
18 126.09677419354838 ['59'] 6304.838709677416
19 126.09677419354838 ['59'] 6304.838709677416
20 126.09677419354838 ['59'] 6304.838709677416
21 126.09677419354838 ['59'] 6304.838709677416
22 126.09677419354838 ['59'] 6304.838709677416
23 126.09677419354838 ['59'] 6304.838709677416
24 126.09677419354838 ['59'] 6304.838709677416
25 126.09677419354838 ['59'] 6304.838709677416
26 126.09677419354838 ['59'] 6304.838709677416
27 126.09677419354838 ['59'] 6304.838709677416
28 126.09677419354838 ['59'] 6304.838709677416
29 126.09677419354838 ['59'] 6304.838709677416
30 126.09677419354838 ['59'] 6304.838709677416
31 126.09677419354838 ['59'] 6304.838709677416
32 126.09677419354838 ['59'] 6304.838709677416
33 126.09677419354838 ['59'] 6304.838709677416
34 126.09677419354838 ['59'] 6304.838709677416
35 126.09677419354838 ['59'] 6304.838709677416
36 126.09677419354838 ['59'] 6304.838709677416
37 126.09677419354838 ['59'] 6304.838709677416
38 126.09677419354838 ['59'] 6304.838709677416
39 126.09677419354838 ['59'] 6304.838709677416
40 126.09677419354838 ['59'] 6304.838709677416
41 126.09677419354838 ['59'] 6304.838709677416
42 126.09677419354838 ['59'] 6304.838709677416
43 126.09677419354838 ['59'] 6304.838709677416
44 126.09677419354838 ['59'] 6304.838709677416
45 126.09677419354838 ['59'] 6304.838709677416
46 126.09677419354838 ['59'] 6304.838709677416
47 126.09677419354838 ['59'] 6304.838709677416
48 126.09677419354838 ['59'] 6304.838709677416
49 126.09677419354838 ['59'] 6304.838709677416
50 126.09677419354838 ['59'] 6304.838709677416
51 126.09677419354838 ['59'] 6304.838709677416
52 126.09677419354838 ['59'] 6304.838709677416
53 126.09677419354838 ['59'] 6304.838709677416
54 126.09677419354838 ['59'] 6304.838709677416
55 126.09677419354838 ['59'] 6304.838709677416
56 126.09677419354838 ['59'] 6304.838709677416
57 126.09677419354838 ['59'] 6304.838709677416
58 126.09677419354838 ['59'] 6304.838709677416
59 126.09677419354838 ['59'] 6304.838709677416
60 126.09677419354838 ['59'] 6304.838709677416
61 126.09677419354838 ['59'] 6304.838709677416
62 126.09677419354838 ['59'] 6304.838709677416
63 126.09677419354838 ['59'] 6304.838709677416
64 126.09677419354838 ['59'] 6304.838709677416
65 126.09677419354838 ['59'] 6304.838709677416
66 126.09677419354838 ['59'] 6304.838709677416
67 126.09677419354838 ['59'] 6304.838709677416
68 126.09677419354838 ['59'] 6304.838709677416
69 126.09677419354838 ['59'] 6304.838709677416
70 126.09677419354838 ['59'] 6304.838709677416
71 126.09677419354838 ['59'] 6304.838709677416
72 126.09677419354838 ['59'] 6304.838709677416
73 126.09677419354838 ['59'] 6304.838709677416
74 126.09677419354838 ['59'] 6304.838709677416
75 126.09677419354838 ['59'] 6304.838709677416
76 126.09677419354838 ['59'] 6304.838709677416
77 126.09677419354838 ['59'] 6304.838709677416
78 126.09677419354838 ['59'] 6304.838709677416
79 126.09677419354838 ['59'] 6304.838709677416
80 126.09677419354838 ['59'] 6304.838709677416
81 126.09677419354838 ['59'] 6304.838709677416
82 126.09677419354838 ['59'] 6304.838709677416
83 126.09677419354838 ['59'] 6304.838709677416
84 126.09677419354838 ['59'] 6304.838709677416
85 126.09677419354838 ['59'] 6304.838709677416
86 126.09677419354838 ['59'] 6304.838709677416
87 126.09677419354838 ['59'] 6304.838709677416
88 126.09677419354838 ['59'] 6304.838709677416
89 126.09677419354838 ['59'] 6304.838709677416
90 126.09677419354838 ['59'] 6304.838709677416
91 126.09677419354838 ['59'] 6304.838709677416
92 126.09677419354838 ['59'] 6304.838709677416
93 126.09677419354838 ['59'] 6304.838709677416
94 126.09677419354838 ['59'] 6304.838709677416
95 126.09677419354838 ['59'] 6304.838709677416
96 126.09677419354838 ['59'] 6304.838709677416
97 126.09677419354838 ['59'] 6304.838709677416
98 126.09677419354838 ['59'] 6304.838709677416
99 126.09677419354838 ['59'] 6304.838709677416
100 126.09677419354838 ['59'] 6304.838709677416
101 126.09677419354838 ['59'] 6304.838709677416
102 126.09677419354838 ['59'] 6304.838709677416
103 126.09677419354838 ['59'] 6304.838709677416
104 126.09677419354838 ['59'] 6304.838709677416
105 126.09677419354838 ['59'] 6304.838709677416
106 126.09677419354838 ['59'] 6304.838709677416
107 126.09677419354838 ['59'] 6304.838709677416
108 126.09677419354838 ['59'] 6304.838709677416
109 126.09677419354838 ['59'] 6304.838709677416
110 126.09677419354838 ['59'] 6304.838709677416
111 126.09677419354838 ['59'] 6304.838709677416
112 126.09677419354838 ['59'] 6304.838709677416
113 126.09677419354838 ['59'] 6304.838709677416
114 126.09677419354838 ['59'] 6304.838709677416
115 126.09677419354838 ['59'] 6304.838709677416
116 126.09677419354838 ['59'] 6304.838709677416
117 126.09677419354838 ['59'] 6304.838709677416
118 126.09677419354838 ['59'] 6304.838709677416
119 126.09677419354838 ['59'] 6304.838709677416
120 126.09677419354838 ['59'] 6304.838709677416
121 126.09677419354838 ['59'] 6304.838709677416
122 126.09677419354838 ['59'] 6304.838709677416
123 126.09677419354838 ['59'] 6304.838709677416
124 126.09677419354838 ['59'] 6304.838709677416
125 126.09677419354838 ['59'] 6304.838709677416
126 126.09677419354838 ['59'] 6304.838709677416
127 126.09677419354838 ['59'] 6304.838709677416
128 126.09677419354838 ['59'] 6304.838709677416
129 126.09677419354838 ['59'] 6304.838709677416
130 126.09677419354838 ['59'] 6304.838709677416
131 126.09677419354838 ['59'] 6304.838709677416
132 126.09677419354838 ['59'] 6304.838709677416
133 126.09677419354838 ['59'] 6304.838709677416
134 126.09677419354838 ['59'] 6304.838709677416
135 126.09677419354838 ['59'] 6304.838709677416
136 126.09677419354838 ['59'] 6304.838709677416
137 126.09677419354838 ['59'] 6304.838709677416
138 126.09677419354838 ['59'] 6304.838709677416
139 126.09677419354838 ['59'] 6304.838709677416
140 126.09677419354838 ['59'] 6304.838709677416
141 126.09677419354838 ['59'] 6304.838709677416
142 126.09677419354838 ['59'] 6304.838709677416
143 126.09677419354838 ['59'] 6304.838709677416
144 126.09677419354838 ['59'] 6304.838709677416
145 126.09677419354838 ['59'] 6304.838709677416
146 126.09677419354838 ['59'] 6304.838709677416
147 126.09677419354838 ['59'] 6304.838709677416
148 126.09677419354838 ['59'] 6304.838709677416
149 126.09677419354838 ['59'] 6304.838709677416
150 126.09677419354838 ['59'] 6304.838709677416
151 126.09677419354838 ['59'] 6304.838709677416
152 126.09677419354838 ['59'] 6304.838709677416
153 126.09677419354838 ['59'] 6304.838709677416
154 126.09677419354838 ['59'] 6304.838709677416
155 126.09677419354838 ['59'] 6304.838709677416
156 126.09677419354838 ['59'] 6304.838709677416
157 126.09677419354838 ['59'] 6304.838709677416
158 126.09677419354838 ['59'] 6304.838709677416
159 126.09677419354838 ['59'] 6304.838709677416
160 126.09677419354838 ['59'] 6304.838709677416
161 126.09677419354838 ['59'] 6304.838709677416
162 126.09677419354838 ['59'] 6304.838709677416
163 126.09677419354838 ['59'] 6304.838709677416
164 126.09677419354838 ['59'] 6304.838709677416
165 126.09677419354838 ['59'] 6304.838709677416
166 126.09677419354838 ['59'] 6304.838709677416
167 126.09677419354838 ['59'] 6304.838709677416
168 126.09677419354838 ['59'] 6304.838709677416
169 126.09677419354838 ['59'] 6304.838709677416
170 126.09677419354838 ['59'] 6304.838709677416
171 126.09677419354838 ['59'] 6304.838709677416
172 126.09677419354838 ['59'] 6304.838709677416
173 126.09677419354838 ['59'] 6304.838709677416
174 126.09677419354838 ['59'] 6304.838709677416
175 126.09677419354838 ['59'] 6304.838709677416
176 126.09677419354838 ['59'] 6304.838709677416
177 126.09677419354838 ['59'] 6304.838709677416
178 126.09677419354838 ['59'] 6304.838709677416
179 126.09677419354838 ['59'] 6304.838709677416
180 126.09677419354838 ['59'] 6304.838709677416
181 126.09677419354838 ['59'] 6304.838709677416
182 126.09677419354838 ['59'] 6304.838709677416
183 126.09677419354838 ['59'] 6304.838709677416
184 126.09677419354838 ['59'] 6304.838709677416
185 126.09677419354838 ['59'] 6304.838709677416
186 126.09677419354838 ['59'] 6304.838709677416
187 126.09677419354838 ['59'] 6304.838709677416
188 126.09677419354838 ['59'] 6304.838709677416
189 126.09677419354838 ['59'] 6304.838709677416
190 126.09677419354838 ['59'] 6304.838709677416
191 126.09677419354838 ['59'] 6304.838709677416
192 126.09677419354838 ['59'] 6304.838709677416
193 126.09677419354838 ['59'] 6304.838709677416
194 126.09677419354838 ['59'] 6304.838709677416
195 126.09677419354838 ['59'] 6304.838709677416
196 126.09677419354838 ['59'] 6304.838709677416
197 126.09677419354838 ['59'] 6304.838709677416
198 126.09677419354838 ['59'] 6304.838709677416
199 126.09677419354838 ['59'] 6304.838709677416
