0 272.27659574468083 ['23', '17', '44', '47', '30'] 14464.340425531918
1 270.70212765957444 ['44', '17', '38', '42', '47'] 14182.000000000004
2 265.4468085106383 ['7', '37', '49', '47', '42'] 13961.617021276601
3 257.40425531914894 ['7', '39', '30', '47', '42'] 13721.000000000007
4 257.40425531914894 ['7', '39', '30', '47', '42'] 13530.14893617021
5 257.40425531914894 ['7', '39', '30', '47', '42'] 13302.169326241137
6 255.27659574468086 ['7', '47', '30', '37', '42'] 13118.792109929074
7 253.10638297872342 ['30', '42', '47', '37', '39'] 12992.312500000007
8 252.89361702127658 ['37', '47', '39', '17', '7'] 12852.902482269514
9 252.89361702127658 ['37', '47', '39', '17', '7'] 12763.81515957446
10 252.89361702127658 ['37', '47', '39', '17', '7'] 12700.648492907803
11 252.89361702127658 ['37', '47', '39', '17', '7'] 12668.446808510655
12 252.89361702127658 ['37', '47', '39', '17', '7'] 12655.106382978729
13 252.89361702127658 ['37', '47', '39', '17', '7'] 12655.106382978729
14 252.89361702127658 ['37', '47', '39', '17', '7'] 12655.106382978729
15 252.89361702127658 ['37', '47', '39', '17', '7'] 12654.893617021282
16 252.89361702127658 ['37', '47', '39', '17', '7'] 12654.680851063835
17 252.89361702127658 ['37', '47', '39', '17', '7'] 12654.255319148942
18 252.89361702127658 ['37', '47', '39', '17', '7'] 12653.829787234048
19 252.89361702127658 ['37', '47', '39', '17', '7'] 12652.765957446813
20 252.89361702127658 ['37', '47', '39', '17', '7'] 12651.914893617024
21 252.89361702127658 ['37', '47', '39', '17', '7'] 12649.148936170213
22 252.89361702127658 ['37', '47', '39', '17', '7'] 12644.680851063824
23 252.89361702127658 ['37', '47', '39', '17', '7'] 12644.680851063824
24 252.89361702127658 ['37', '47', '39', '17', '7'] 12644.680851063824
25 252.89361702127658 ['37', '47', '39', '17', '7'] 12644.680851063824
26 252.89361702127658 ['37', '47', '39', '17', '7'] 12644.680851063824
27 252.89361702127658 ['37', '47', '39', '17', '7'] 12644.680851063824
28 252.89361702127658 ['37', '47', '39', '17', '7'] 12644.680851063824
29 252.89361702127658 ['37', '47', '39', '17', '7'] 12644.680851063824
30 252.89361702127658 ['37', '47', '39', '17', '7'] 12644.680851063824
31 252.89361702127658 ['37', '47', '39', '17', '7'] 12644.680851063824
32 252.89361702127658 ['37', '47', '39', '17', '7'] 12644.680851063824
33 252.89361702127658 ['37', '47', '39', '17', '7'] 12644.680851063824
34 252.89361702127658 ['37', '47', '39', '17', '7'] 12644.680851063824
35 252.89361702127658 ['37', '47', '39', '17', '7'] 12644.680851063824
36 252.89361702127658 ['37', '47', '39', '17', '7'] 12644.680851063824
37 252.89361702127658 ['37', '47', '39', '17', '7'] 12644.680851063824
38 252.89361702127658 ['37', '47', '39', '17', '7'] 12644.680851063824
39 252.89361702127658 ['37', '47', '39', '17', '7'] 12644.680851063824
40 252.89361702127658 ['37', '47', '39', '17', '7'] 12644.680851063824
41 252.89361702127658 ['37', '47', '39', '17', '7'] 12644.680851063824
42 252.89361702127658 ['37', '47', '39', '17', '7'] 12644.680851063824
43 252.89361702127658 ['37', '47', '39', '17', '7'] 12644.680851063824
44 252.89361702127658 ['37', '47', '39', '17', '7'] 12644.680851063824
45 252.89361702127658 ['37', '47', '39', '17', '7'] 12644.680851063824
46 252.89361702127658 ['37', '47', '39', '17', '7'] 12644.680851063824
47 252.89361702127658 ['37', '47', '39', '17', '7'] 12644.680851063824
48 252.89361702127658 ['37', '47', '39', '17', '7'] 12644.680851063824
49 252.89361702127658 ['37', '47', '39', '17', '7'] 12644.680851063824
50 252.89361702127658 ['37', '47', '39', '17', '7'] 12644.680851063824
51 252.89361702127658 ['37', '47', '39', '17', '7'] 12644.680851063824
52 252.89361702127658 ['37', '47', '39', '17', '7'] 12644.680851063824
53 252.89361702127658 ['37', '47', '39', '17', '7'] 12644.680851063824
54 252.89361702127658 ['37', '47', '39', '17', '7'] 12644.680851063824
55 252.89361702127658 ['37', '47', '39', '17', '7'] 12644.680851063824
56 252.89361702127658 ['37', '47', '39', '17', '7'] 12644.680851063824
57 252.89361702127658 ['37', '47', '39', '17', '7'] 12644.680851063824
58 252.89361702127658 ['37', '47', '39', '17', '7'] 12644.680851063824
59 252.89361702127658 ['37', '47', '39', '17', '7'] 12644.680851063824
60 252.89361702127658 ['37', '47', '39', '17', '7'] 12644.680851063824
61 252.89361702127658 ['37', '47', '39', '17', '7'] 12644.680851063824
62 252.89361702127658 ['37', '47', '39', '17', '7'] 12644.680851063824
63 252.89361702127658 ['37', '47', '39', '17', '7'] 12644.680851063824
64 252.89361702127658 ['37', '47', '39', '17', '7'] 12644.680851063824
65 252.89361702127658 ['37', '47', '39', '17', '7'] 12644.680851063824
66 252.89361702127658 ['37', '47', '39', '17', '7'] 12644.680851063824
67 252.89361702127658 ['37', '47', '39', '17', '7'] 12644.680851063824
68 252.89361702127658 ['37', '47', '39', '17', '7'] 12644.680851063824
69 252.89361702127658 ['37', '47', '39', '17', '7'] 12644.680851063824
70 252.89361702127658 ['37', '47', '39', '17', '7'] 12644.680851063824
71 252.89361702127658 ['37', '47', '39', '17', '7'] 12644.680851063824
72 252.89361702127658 ['37', '47', '39', '17', '7'] 12644.680851063824
73 252.89361702127658 ['37', '47', '39', '17', '7'] 12644.680851063824
74 252.89361702127658 ['37', '47', '39', '17', '7'] 12644.680851063824
75 252.89361702127658 ['37', '47', '39', '17', '7'] 12644.680851063824
76 252.89361702127658 ['37', '47', '39', '17', '7'] 12644.680851063824
77 252.89361702127658 ['37', '47', '39', '17', '7'] 12644.680851063824
78 252.89361702127658 ['37', '47', '39', '17', '7'] 12644.680851063824
79 252.89361702127658 ['37', '47', '39', '17', '7'] 12644.680851063824
80 252.89361702127658 ['37', '47', '39', '17', '7'] 12644.680851063824
81 252.89361702127658 ['37', '47', '39', '17', '7'] 12644.680851063824
82 252.89361702127658 ['37', '47', '39', '17', '7'] 12644.680851063824
83 252.89361702127658 ['37', '47', '39', '17', '7'] 12644.680851063824
84 252.89361702127658 ['37', '47', '39', '17', '7'] 12644.680851063824
85 252.89361702127658 ['37', '47', '39', '17', '7'] 12644.680851063824
86 252.89361702127658 ['37', '47', '39', '17', '7'] 12644.680851063824
87 252.89361702127658 ['37', '47', '39', '17', '7'] 12644.680851063824
88 252.89361702127658 ['37', '47', '39', '17', '7'] 12644.680851063824
89 252.89361702127658 ['37', '47', '39', '17', '7'] 12644.680851063824
90 252.89361702127658 ['37', '47', '39', '17', '7'] 12644.680851063824
91 252.89361702127658 ['37', '47', '39', '17', '7'] 12644.680851063824
92 252.89361702127658 ['37', '47', '39', '17', '7'] 12644.680851063824
93 252.89361702127658 ['37', '47', '39', '17', '7'] 12644.680851063824
94 252.89361702127658 ['37', '47', '39', '17', '7'] 12644.680851063824
95 252.89361702127658 ['37', '47', '39', '17', '7'] 12644.680851063824
96 252.89361702127658 ['37', '47', '39', '17', '7'] 12644.680851063824
97 252.89361702127658 ['37', '47', '39', '17', '7'] 12644.680851063824
98 252.89361702127658 ['37', '47', '39', '17', '7'] 12644.680851063824
99 252.89361702127658 ['37', '47', '39', '17', '7'] 12644.680851063824
100 252.89361702127658 ['37', '47', '39', '17', '7'] 12644.680851063824
101 252.89361702127658 ['37', '47', '39', '17', '7'] 12644.680851063824
102 252.89361702127658 ['37', '47', '39', '17', '7'] 12644.680851063824
103 252.89361702127658 ['37', '47', '39', '17', '7'] 12644.680851063824
104 252.89361702127658 ['37', '47', '39', '17', '7'] 12644.680851063824
105 252.89361702127658 ['37', '47', '39', '17', '7'] 12644.680851063824
106 252.89361702127658 ['37', '47', '39', '17', '7'] 12644.680851063824
107 252.89361702127658 ['37', '47', '39', '17', '7'] 12644.680851063824
108 252.89361702127658 ['37', '47', '39', '17', '7'] 12644.680851063824
109 252.89361702127658 ['37', '47', '39', '17', '7'] 12644.680851063824
110 252.89361702127658 ['37', '47', '39', '17', '7'] 12644.680851063824
111 252.89361702127658 ['37', '47', '39', '17', '7'] 12644.680851063824
112 252.89361702127658 ['37', '47', '39', '17', '7'] 12644.680851063824
113 252.89361702127658 ['37', '47', '39', '17', '7'] 12644.680851063824
114 252.89361702127658 ['37', '47', '39', '17', '7'] 12644.680851063824
115 252.89361702127658 ['37', '47', '39', '17', '7'] 12644.680851063824
116 252.89361702127658 ['37', '47', '39', '17', '7'] 12644.680851063824
117 252.89361702127658 ['37', '47', '39', '17', '7'] 12644.680851063824
118 252.89361702127658 ['37', '47', '39', '17', '7'] 12644.680851063824
119 252.89361702127658 ['37', '47', '39', '17', '7'] 12644.680851063824
120 252.89361702127658 ['37', '47', '39', '17', '7'] 12644.680851063824
121 252.89361702127658 ['37', '47', '39', '17', '7'] 12644.680851063824
122 252.89361702127658 ['37', '47', '39', '17', '7'] 12644.680851063824
123 252.89361702127658 ['37', '47', '39', '17', '7'] 12644.680851063824
124 252.89361702127658 ['37', '47', '39', '17', '7'] 12644.680851063824
125 252.89361702127658 ['37', '47', '39', '17', '7'] 12644.680851063824
126 252.89361702127658 ['37', '47', '39', '17', '7'] 12644.680851063824
127 252.89361702127658 ['37', '47', '39', '17', '7'] 12644.680851063824
128 252.89361702127658 ['37', '47', '39', '17', '7'] 12644.680851063824
129 252.89361702127658 ['37', '47', '39', '17', '7'] 12644.680851063824
130 252.89361702127658 ['37', '47', '39', '17', '7'] 12644.680851063824
131 252.89361702127658 ['37', '47', '39', '17', '7'] 12644.680851063824
132 252.89361702127658 ['37', '47', '39', '17', '7'] 12644.680851063824
133 252.89361702127658 ['37', '47', '39', '17', '7'] 12644.680851063824
134 252.89361702127658 ['37', '47', '39', '17', '7'] 12644.680851063824
135 252.89361702127658 ['37', '47', '39', '17', '7'] 12644.680851063824
136 252.89361702127658 ['37', '47', '39', '17', '7'] 12644.680851063824
137 252.89361702127658 ['37', '47', '39', '17', '7'] 12644.680851063824
138 252.89361702127658 ['37', '47', '39', '17', '7'] 12644.680851063824
139 252.89361702127658 ['37', '47', '39', '17', '7'] 12644.680851063824
140 252.89361702127658 ['37', '47', '39', '17', '7'] 12644.680851063824
141 252.89361702127658 ['37', '47', '39', '17', '7'] 12644.680851063824
142 252.89361702127658 ['37', '47', '39', '17', '7'] 12644.680851063824
143 252.89361702127658 ['37', '47', '39', '17', '7'] 12644.680851063824
144 252.89361702127658 ['37', '47', '39', '17', '7'] 12644.680851063824
145 252.89361702127658 ['37', '47', '39', '17', '7'] 12644.680851063824
146 252.89361702127658 ['37', '47', '39', '17', '7'] 12644.680851063824
147 252.89361702127658 ['37', '47', '39', '17', '7'] 12644.680851063824
148 252.89361702127658 ['37', '47', '39', '17', '7'] 12644.680851063824
149 252.89361702127658 ['37', '47', '39', '17', '7'] 12644.680851063824
150 252.89361702127658 ['37', '47', '39', '17', '7'] 12644.680851063824
151 252.89361702127658 ['37', '47', '39', '17', '7'] 12644.680851063824
152 252.89361702127658 ['37', '47', '39', '17', '7'] 12644.680851063824
153 252.89361702127658 ['37', '47', '39', '17', '7'] 12644.680851063824
154 252.89361702127658 ['37', '47', '39', '17', '7'] 12644.680851063824
155 252.89361702127658 ['37', '47', '39', '17', '7'] 12644.680851063824
156 252.89361702127658 ['37', '47', '39', '17', '7'] 12644.680851063824
157 252.89361702127658 ['37', '47', '39', '17', '7'] 12644.680851063824
158 252.89361702127658 ['37', '47', '39', '17', '7'] 12644.680851063824
159 252.89361702127658 ['37', '47', '39', '17', '7'] 12644.680851063824
160 252.89361702127658 ['37', '47', '39', '17', '7'] 12644.680851063824
161 252.89361702127658 ['37', '47', '39', '17', '7'] 12644.680851063824
162 252.89361702127658 ['37', '47', '39', '17', '7'] 12644.680851063824
163 252.89361702127658 ['37', '47', '39', '17', '7'] 12644.680851063824
164 252.89361702127658 ['37', '47', '39', '17', '7'] 12644.680851063824
165 252.89361702127658 ['37', '47', '39', '17', '7'] 12644.680851063824
166 252.89361702127658 ['37', '47', '39', '17', '7'] 12644.680851063824
167 252.89361702127658 ['37', '47', '39', '17', '7'] 12644.680851063824
168 252.89361702127658 ['37', '47', '39', '17', '7'] 12644.680851063824
169 252.89361702127658 ['37', '47', '39', '17', '7'] 12644.680851063824
170 252.89361702127658 ['37', '47', '39', '17', '7'] 12644.680851063824
171 252.89361702127658 ['37', '47', '39', '17', '7'] 12644.680851063824
172 252.89361702127658 ['37', '47', '39', '17', '7'] 12644.680851063824
173 252.89361702127658 ['37', '47', '39', '17', '7'] 12644.680851063824
174 252.89361702127658 ['37', '47', '39', '17', '7'] 12644.680851063824
175 252.89361702127658 ['37', '47', '39', '17', '7'] 12644.680851063824
176 252.89361702127658 ['37', '47', '39', '17', '7'] 12644.680851063824
177 252.89361702127658 ['37', '47', '39', '17', '7'] 12644.680851063824
178 252.89361702127658 ['37', '47', '39', '17', '7'] 12644.680851063824
179 252.89361702127658 ['37', '47', '39', '17', '7'] 12644.680851063824
180 252.89361702127658 ['37', '47', '39', '17', '7'] 12644.680851063824
181 252.89361702127658 ['37', '47', '39', '17', '7'] 12644.680851063824
182 252.89361702127658 ['37', '47', '39', '17', '7'] 12644.680851063824
183 252.89361702127658 ['37', '47', '39', '17', '7'] 12644.680851063824
184 252.89361702127658 ['37', '47', '39', '17', '7'] 12644.680851063824
185 252.89361702127658 ['37', '47', '39', '17', '7'] 12644.680851063824
186 252.89361702127658 ['37', '47', '39', '17', '7'] 12644.680851063824
187 252.89361702127658 ['37', '47', '39', '17', '7'] 12644.680851063824
188 252.89361702127658 ['37', '47', '39', '17', '7'] 12644.680851063824
189 252.89361702127658 ['37', '47', '39', '17', '7'] 12644.680851063824
190 252.89361702127658 ['37', '47', '39', '17', '7'] 12644.680851063824
191 252.89361702127658 ['37', '47', '39', '17', '7'] 12644.680851063824
192 252.89361702127658 ['37', '47', '39', '17', '7'] 12644.680851063824
193 252.89361702127658 ['37', '47', '39', '17', '7'] 12644.680851063824
194 252.89361702127658 ['37', '47', '39', '17', '7'] 12644.680851063824
195 252.89361702127658 ['37', '47', '39', '17', '7'] 12644.680851063824
196 252.89361702127658 ['37', '47', '39', '17', '7'] 12644.680851063824
197 252.89361702127658 ['37', '47', '39', '17', '7'] 12644.680851063824
198 252.89361702127658 ['37', '47', '39', '17', '7'] 12644.680851063824
199 252.89361702127658 ['37', '47', '39', '17', '7'] 12644.680851063824
