0 244.2 ['37', '20', '1', '48', '24'] 13034.340000000004
1 244.2 ['37', '20', '1', '48', '24'] 12804.020000000002
2 242.74 ['2', '6', '22', '14', '45'] 12614.787450980395
3 236.1 ['13', '31', '6', '1', '42'] 12448.622745098035
4 236.1 ['13', '31', '6', '1', '42'] 12275.195294117648
5 234.06 ['6', '14', '45', '1', '22'] 12129.22431372549
6 230.31372549019608 ['6', '31', '37', '1'] 11970.433333333332
7 227.76 ['6', '22', '1', '24', '45'] 11832.708265460033
8 227.76 ['6', '22', '1', '24', '45'] 11719.39449472096
9 227.76 ['6', '22', '1', '24', '45'] 11607.763122171953
10 227.76 ['6', '22', '1', '24', '45'] 11507.250920060325
11 227.76 ['6', '22', '1', '24', '45'] 11446.26901960785
12 227.28 ['45', '1', '6', '31', '24'] 11398.196862745097
13 227.28 ['45', '1', '6', '31', '24'] 11386.080000000009
14 227.28 ['45', '1', '6', '31', '24'] 11383.200000000008
15 227.28 ['45', '1', '6', '31', '24'] 11380.320000000009
16 227.28 ['45', '1', '6', '31', '24'] 11370.72
17 227.28 ['45', '1', '6', '31', '24'] 11364.000000000005
18 227.28 ['45', '1', '6', '31', '24'] 11364.000000000005
19 227.28 ['45', '1', '6', '31', '24'] 11364.000000000005
20 227.28 ['45', '1', '6', '31', '24'] 11364.000000000005
21 227.28 ['45', '1', '6', '31', '24'] 11364.000000000005
22 227.28 ['45', '1', '6', '31', '24'] 11364.000000000005
23 227.28 ['45', '1', '6', '31', '24'] 11364.000000000005
24 227.28 ['45', '1', '6', '31', '24'] 11364.000000000005
25 227.28 ['45', '1', '6', '31', '24'] 11364.000000000005
26 227.28 ['45', '1', '6', '31', '24'] 11364.000000000005
27 227.28 ['45', '1', '6', '31', '24'] 11364.000000000005
28 227.28 ['45', '1', '6', '31', '24'] 11364.000000000005
29 227.28 ['45', '1', '6', '31', '24'] 11364.000000000005
30 227.28 ['45', '1', '6', '31', '24'] 11364.000000000005
31 227.28 ['45', '1', '6', '31', '24'] 11364.000000000005
32 227.28 ['45', '1', '6', '31', '24'] 11364.000000000005
33 227.28 ['45', '1', '6', '31', '24'] 11364.000000000005
34 227.28 ['45', '1', '6', '31', '24'] 11364.000000000005
35 227.28 ['45', '1', '6', '31', '24'] 11364.000000000005
36 227.28 ['45', '1', '6', '31', '24'] 11364.000000000005
37 227.28 ['45', '1', '6', '31', '24'] 11364.000000000005
38 227.28 ['45', '1', '6', '31', '24'] 11364.000000000005
39 227.28 ['45', '1', '6', '31', '24'] 11364.000000000005
40 227.28 ['45', '1', '6', '31', '24'] 11364.000000000005
41 227.28 ['45', '1', '6', '31', '24'] 11364.000000000005
42 227.28 ['45', '1', '6', '31', '24'] 11364.000000000005
43 227.28 ['45', '1', '6', '31', '24'] 11364.000000000005
44 227.28 ['45', '1', '6', '31', '24'] 11364.000000000005
45 227.28 ['45', '1', '6', '31', '24'] 11364.000000000005
46 227.28 ['45', '1', '6', '31', '24'] 11364.000000000005
47 227.28 ['45', '1', '6', '31', '24'] 11364.000000000005
48 227.28 ['45', '1', '6', '31', '24'] 11364.000000000005
49 227.28 ['45', '1', '6', '31', '24'] 11364.000000000005
50 227.28 ['45', '1', '6', '31', '24'] 11364.000000000005
51 227.28 ['45', '1', '6', '31', '24'] 11364.000000000005
52 227.28 ['45', '1', '6', '31', '24'] 11364.000000000005
53 227.28 ['45', '1', '6', '31', '24'] 11364.000000000005
54 227.28 ['45', '1', '6', '31', '24'] 11364.000000000005
55 227.28 ['45', '1', '6', '31', '24'] 11364.000000000005
56 227.28 ['45', '1', '6', '31', '24'] 11364.000000000005
57 227.28 ['45', '1', '6', '31', '24'] 11364.000000000005
58 227.28 ['45', '1', '6', '31', '24'] 11364.000000000005
59 227.28 ['45', '1', '6', '31', '24'] 11364.000000000005
60 227.28 ['45', '1', '6', '31', '24'] 11364.000000000005
61 227.28 ['45', '1', '6', '31', '24'] 11364.000000000005
62 227.28 ['45', '1', '6', '31', '24'] 11364.000000000005
63 227.28 ['45', '1', '6', '31', '24'] 11364.000000000005
64 227.28 ['45', '1', '6', '31', '24'] 11364.000000000005
65 227.28 ['45', '1', '6', '31', '24'] 11364.000000000005
66 227.28 ['45', '1', '6', '31', '24'] 11364.000000000005
67 227.28 ['45', '1', '6', '31', '24'] 11364.000000000005
68 227.28 ['45', '1', '6', '31', '24'] 11364.000000000005
69 227.28 ['45', '1', '6', '31', '24'] 11364.000000000005
70 227.28 ['45', '1', '6', '31', '24'] 11364.000000000005
71 227.28 ['45', '1', '6', '31', '24'] 11364.000000000005
72 227.28 ['45', '1', '6', '31', '24'] 11364.000000000005
73 227.28 ['45', '1', '6', '31', '24'] 11364.000000000005
74 227.28 ['45', '1', '6', '31', '24'] 11364.000000000005
75 227.28 ['45', '1', '6', '31', '24'] 11364.000000000005
76 227.28 ['45', '1', '6', '31', '24'] 11364.000000000005
77 227.28 ['45', '1', '6', '31', '24'] 11364.000000000005
78 227.28 ['45', '1', '6', '31', '24'] 11364.000000000005
79 227.28 ['45', '1', '6', '31', '24'] 11364.000000000005
80 227.28 ['45', '1', '6', '31', '24'] 11364.000000000005
81 227.28 ['45', '1', '6', '31', '24'] 11364.000000000005
82 227.28 ['45', '1', '6', '31', '24'] 11364.000000000005
83 227.28 ['45', '1', '6', '31', '24'] 11364.000000000005
84 227.28 ['45', '1', '6', '31', '24'] 11364.000000000005
85 227.28 ['45', '1', '6', '31', '24'] 11364.000000000005
86 227.28 ['45', '1', '6', '31', '24'] 11364.000000000005
87 227.28 ['45', '1', '6', '31', '24'] 11364.000000000005
88 227.28 ['45', '1', '6', '31', '24'] 11364.000000000005
89 227.28 ['45', '1', '6', '31', '24'] 11364.000000000005
90 227.28 ['45', '1', '6', '31', '24'] 11364.000000000005
91 227.28 ['45', '1', '6', '31', '24'] 11364.000000000005
92 227.28 ['45', '1', '6', '31', '24'] 11364.000000000005
93 227.28 ['45', '1', '6', '31', '24'] 11364.000000000005
94 227.28 ['45', '1', '6', '31', '24'] 11364.000000000005
95 227.28 ['45', '1', '6', '31', '24'] 11364.000000000005
96 227.28 ['45', '1', '6', '31', '24'] 11364.000000000005
97 227.28 ['45', '1', '6', '31', '24'] 11364.000000000005
98 227.28 ['45', '1', '6', '31', '24'] 11364.000000000005
99 227.28 ['45', '1', '6', '31', '24'] 11364.000000000005
100 227.28 ['45', '1', '6', '31', '24'] 11364.000000000005
101 227.28 ['45', '1', '6', '31', '24'] 11364.000000000005
102 227.28 ['45', '1', '6', '31', '24'] 11364.000000000005
103 227.28 ['45', '1', '6', '31', '24'] 11364.000000000005
104 227.28 ['45', '1', '6', '31', '24'] 11364.000000000005
105 227.28 ['45', '1', '6', '31', '24'] 11364.000000000005
106 227.28 ['45', '1', '6', '31', '24'] 11364.000000000005
107 227.28 ['45', '1', '6', '31', '24'] 11364.000000000005
108 227.28 ['45', '1', '6', '31', '24'] 11364.000000000005
109 227.28 ['45', '1', '6', '31', '24'] 11364.000000000005
110 227.28 ['45', '1', '6', '31', '24'] 11364.000000000005
111 227.28 ['45', '1', '6', '31', '24'] 11364.000000000005
112 227.28 ['45', '1', '6', '31', '24'] 11364.000000000005
113 227.28 ['45', '1', '6', '31', '24'] 11364.000000000005
114 227.28 ['45', '1', '6', '31', '24'] 11364.000000000005
115 227.28 ['45', '1', '6', '31', '24'] 11364.000000000005
116 227.28 ['45', '1', '6', '31', '24'] 11364.000000000005
117 227.28 ['45', '1', '6', '31', '24'] 11364.000000000005
118 227.28 ['45', '1', '6', '31', '24'] 11364.000000000005
119 227.28 ['45', '1', '6', '31', '24'] 11364.000000000005
120 227.28 ['45', '1', '6', '31', '24'] 11364.000000000005
121 227.28 ['45', '1', '6', '31', '24'] 11364.000000000005
122 227.28 ['45', '1', '6', '31', '24'] 11364.000000000005
123 227.28 ['45', '1', '6', '31', '24'] 11364.000000000005
124 227.28 ['45', '1', '6', '31', '24'] 11364.000000000005
125 227.28 ['45', '1', '6', '31', '24'] 11364.000000000005
126 227.28 ['45', '1', '6', '31', '24'] 11364.000000000005
127 227.28 ['45', '1', '6', '31', '24'] 11364.000000000005
128 227.28 ['45', '1', '6', '31', '24'] 11364.000000000005
129 227.28 ['45', '1', '6', '31', '24'] 11364.000000000005
130 227.28 ['45', '1', '6', '31', '24'] 11364.000000000005
131 227.28 ['45', '1', '6', '31', '24'] 11364.000000000005
132 227.28 ['45', '1', '6', '31', '24'] 11364.000000000005
133 227.28 ['45', '1', '6', '31', '24'] 11364.000000000005
134 227.28 ['45', '1', '6', '31', '24'] 11364.000000000005
135 227.28 ['45', '1', '6', '31', '24'] 11364.000000000005
136 227.28 ['45', '1', '6', '31', '24'] 11364.000000000005
137 227.28 ['45', '1', '6', '31', '24'] 11364.000000000005
138 227.28 ['45', '1', '6', '31', '24'] 11364.000000000005
139 227.28 ['45', '1', '6', '31', '24'] 11364.000000000005
140 227.28 ['45', '1', '6', '31', '24'] 11364.000000000005
141 227.28 ['45', '1', '6', '31', '24'] 11364.000000000005
142 227.28 ['45', '1', '6', '31', '24'] 11364.000000000005
143 227.28 ['45', '1', '6', '31', '24'] 11364.000000000005
144 227.28 ['45', '1', '6', '31', '24'] 11364.000000000005
145 227.28 ['45', '1', '6', '31', '24'] 11364.000000000005
146 227.28 ['45', '1', '6', '31', '24'] 11364.000000000005
147 227.28 ['45', '1', '6', '31', '24'] 11364.000000000005
148 227.28 ['45', '1', '6', '31', '24'] 11364.000000000005
149 227.28 ['45', '1', '6', '31', '24'] 11364.000000000005
150 227.28 ['45', '1', '6', '31', '24'] 11364.000000000005
151 227.28 ['45', '1', '6', '31', '24'] 11364.000000000005
152 227.28 ['45', '1', '6', '31', '24'] 11364.000000000005
153 227.28 ['45', '1', '6', '31', '24'] 11364.000000000005
154 227.28 ['45', '1', '6', '31', '24'] 11364.000000000005
155 227.28 ['45', '1', '6', '31', '24'] 11364.000000000005
156 227.28 ['45', '1', '6', '31', '24'] 11364.000000000005
157 227.28 ['45', '1', '6', '31', '24'] 11364.000000000005
158 227.28 ['45', '1', '6', '31', '24'] 11364.000000000005
159 227.28 ['45', '1', '6', '31', '24'] 11364.000000000005
160 227.28 ['45', '1', '6', '31', '24'] 11364.000000000005
161 227.28 ['45', '1', '6', '31', '24'] 11364.000000000005
162 227.28 ['45', '1', '6', '31', '24'] 11364.000000000005
163 227.28 ['45', '1', '6', '31', '24'] 11364.000000000005
164 227.28 ['45', '1', '6', '31', '24'] 11364.000000000005
165 227.28 ['45', '1', '6', '31', '24'] 11364.000000000005
166 227.28 ['45', '1', '6', '31', '24'] 11364.000000000005
167 227.28 ['45', '1', '6', '31', '24'] 11364.000000000005
168 227.28 ['45', '1', '6', '31', '24'] 11364.000000000005
169 227.28 ['45', '1', '6', '31', '24'] 11364.000000000005
170 227.28 ['45', '1', '6', '31', '24'] 11364.000000000005
171 227.28 ['45', '1', '6', '31', '24'] 11364.000000000005
172 227.28 ['45', '1', '6', '31', '24'] 11364.000000000005
173 227.28 ['45', '1', '6', '31', '24'] 11364.000000000005
174 227.28 ['45', '1', '6', '31', '24'] 11364.000000000005
175 227.28 ['45', '1', '6', '31', '24'] 11364.000000000005
176 227.28 ['45', '1', '6', '31', '24'] 11364.000000000005
177 227.28 ['45', '1', '6', '31', '24'] 11364.000000000005
178 227.28 ['45', '1', '6', '31', '24'] 11364.000000000005
179 227.28 ['45', '1', '6', '31', '24'] 11364.000000000005
180 227.28 ['45', '1', '6', '31', '24'] 11364.000000000005
181 227.28 ['45', '1', '6', '31', '24'] 11364.000000000005
182 227.28 ['45', '1', '6', '31', '24'] 11364.000000000005
183 227.28 ['45', '1', '6', '31', '24'] 11364.000000000005
184 227.28 ['45', '1', '6', '31', '24'] 11364.000000000005
185 227.28 ['45', '1', '6', '31', '24'] 11364.000000000005
186 227.28 ['45', '1', '6', '31', '24'] 11364.000000000005
187 227.28 ['45', '1', '6', '31', '24'] 11364.000000000005
188 227.28 ['45', '1', '6', '31', '24'] 11364.000000000005
189 227.28 ['45', '1', '6', '31', '24'] 11364.000000000005
190 227.28 ['45', '1', '6', '31', '24'] 11364.000000000005
191 227.28 ['45', '1', '6', '31', '24'] 11364.000000000005
192 227.28 ['45', '1', '6', '31', '24'] 11364.000000000005
193 227.28 ['45', '1', '6', '31', '24'] 11364.000000000005
194 227.28 ['45', '1', '6', '31', '24'] 11364.000000000005
195 227.28 ['45', '1', '6', '31', '24'] 11364.000000000005
196 227.28 ['45', '1', '6', '31', '24'] 11364.000000000005
197 227.28 ['45', '1', '6', '31', '24'] 11364.000000000005
198 227.28 ['45', '1', '6', '31', '24'] 11364.000000000005
199 227.28 ['45', '1', '6', '31', '24'] 11364.000000000005
