0 7.870967741935484 ['6', '34', '24'] 420.1612903225804
1 7.838709677419355 ['11', '34', '23'] 412.4838709677419
2 7.645161290322581 ['34', '11', '21'] 406.0000000000001
3 7.645161290322581 ['34', '11', '21'] 400.35483870967755
4 7.645161290322581 ['34', '11', '21'] 395.6129032258068
5 7.645161290322581 ['34', '11', '21'] 390.74193548387103
6 7.645161290322581 ['34', '11', '21'] 388.4516129032255
7 7.645161290322581 ['34', '11', '21'] 385.09677419354813
8 7.645161290322581 ['34', '11', '21'] 382.25806451612885
9 7.645161290322581 ['34', '11', '21'] 382.25806451612885
10 7.645161290322581 ['34', '11', '21'] 382.25806451612885
11 7.645161290322581 ['34', '11', '21'] 382.25806451612885
12 7.645161290322581 ['34', '11', '21'] 382.25806451612885
13 7.645161290322581 ['34', '11', '21'] 382.25806451612885
14 7.645161290322581 ['34', '11', '21'] 382.25806451612885
15 7.645161290322581 ['34', '11', '21'] 382.25806451612885
16 7.645161290322581 ['34', '11', '21'] 382.25806451612885
17 7.645161290322581 ['34', '11', '21'] 382.25806451612885
18 7.645161290322581 ['34', '11', '21'] 382.25806451612885
19 7.645161290322581 ['34', '11', '21'] 382.25806451612885
20 7.645161290322581 ['34', '11', '21'] 382.25806451612885
21 7.645161290322581 ['34', '11', '21'] 382.25806451612885
22 7.645161290322581 ['34', '11', '21'] 382.25806451612885
23 7.645161290322581 ['34', '11', '21'] 382.25806451612885
24 7.645161290322581 ['34', '11', '21'] 382.25806451612885
25 7.645161290322581 ['34', '11', '21'] 382.25806451612885
26 7.645161290322581 ['34', '11', '21'] 382.25806451612885
27 7.645161290322581 ['34', '11', '21'] 382.25806451612885
28 7.645161290322581 ['34', '11', '21'] 382.25806451612885
29 7.645161290322581 ['34', '11', '21'] 382.25806451612885
30 7.645161290322581 ['34', '11', '21'] 382.25806451612885
31 7.645161290322581 ['34', '11', '21'] 382.25806451612885
32 7.645161290322581 ['34', '11', '21'] 382.25806451612885
33 7.645161290322581 ['34', '11', '21'] 382.25806451612885
34 7.645161290322581 ['34', '11', '21'] 382.25806451612885
35 7.645161290322581 ['34', '11', '21'] 382.25806451612885
36 7.645161290322581 ['34', '11', '21'] 382.25806451612885
37 7.645161290322581 ['34', '11', '21'] 382.25806451612885
38 7.645161290322581 ['34', '11', '21'] 382.25806451612885
39 7.645161290322581 ['34', '11', '21'] 382.25806451612885
40 7.645161290322581 ['34', '11', '21'] 382.25806451612885
41 7.645161290322581 ['34', '11', '21'] 382.25806451612885
42 7.645161290322581 ['34', '11', '21'] 382.25806451612885
43 7.645161290322581 ['34', '11', '21'] 382.25806451612885
44 7.645161290322581 ['34', '11', '21'] 382.25806451612885
45 7.645161290322581 ['34', '11', '21'] 382.25806451612885
46 7.645161290322581 ['34', '11', '21'] 382.25806451612885
47 7.645161290322581 ['34', '11', '21'] 382.25806451612885
48 7.645161290322581 ['34', '11', '21'] 382.25806451612885
49 7.645161290322581 ['34', '11', '21'] 382.25806451612885
50 7.645161290322581 ['34', '11', '21'] 382.25806451612885
51 7.645161290322581 ['34', '11', '21'] 382.25806451612885
52 7.645161290322581 ['34', '11', '21'] 382.25806451612885
53 7.645161290322581 ['34', '11', '21'] 382.25806451612885
54 7.645161290322581 ['34', '11', '21'] 382.25806451612885
55 7.645161290322581 ['34', '11', '21'] 382.25806451612885
56 7.645161290322581 ['34', '11', '21'] 382.25806451612885
57 7.645161290322581 ['34', '11', '21'] 382.25806451612885
58 7.645161290322581 ['34', '11', '21'] 382.25806451612885
59 7.645161290322581 ['34', '11', '21'] 382.25806451612885
60 7.645161290322581 ['34', '11', '21'] 382.25806451612885
61 7.645161290322581 ['34', '11', '21'] 382.25806451612885
62 7.645161290322581 ['34', '11', '21'] 382.25806451612885
63 7.645161290322581 ['34', '11', '21'] 382.25806451612885
64 7.645161290322581 ['34', '11', '21'] 382.25806451612885
65 7.645161290322581 ['34', '11', '21'] 382.25806451612885
66 7.645161290322581 ['34', '11', '21'] 382.25806451612885
67 7.645161290322581 ['34', '11', '21'] 382.25806451612885
68 7.645161290322581 ['34', '11', '21'] 382.25806451612885
69 7.645161290322581 ['34', '11', '21'] 382.25806451612885
70 7.645161290322581 ['34', '11', '21'] 382.25806451612885
71 7.645161290322581 ['34', '11', '21'] 382.25806451612885
72 7.645161290322581 ['34', '11', '21'] 382.25806451612885
73 7.645161290322581 ['34', '11', '21'] 382.25806451612885
74 7.645161290322581 ['34', '11', '21'] 382.25806451612885
75 7.645161290322581 ['34', '11', '21'] 382.25806451612885
76 7.645161290322581 ['34', '11', '21'] 382.25806451612885
77 7.645161290322581 ['34', '11', '21'] 382.25806451612885
78 7.645161290322581 ['34', '11', '21'] 382.25806451612885
79 7.645161290322581 ['34', '11', '21'] 382.25806451612885
80 7.645161290322581 ['34', '11', '21'] 382.25806451612885
81 7.645161290322581 ['34', '11', '21'] 382.25806451612885
82 7.645161290322581 ['34', '11', '21'] 382.25806451612885
83 7.645161290322581 ['34', '11', '21'] 382.25806451612885
84 7.645161290322581 ['34', '11', '21'] 382.25806451612885
85 7.645161290322581 ['34', '11', '21'] 382.25806451612885
86 7.645161290322581 ['34', '11', '21'] 382.25806451612885
87 7.645161290322581 ['34', '11', '21'] 382.25806451612885
88 7.645161290322581 ['34', '11', '21'] 382.25806451612885
89 7.645161290322581 ['34', '11', '21'] 382.25806451612885
90 7.645161290322581 ['34', '11', '21'] 382.25806451612885
91 7.645161290322581 ['34', '11', '21'] 382.25806451612885
92 7.645161290322581 ['34', '11', '21'] 382.25806451612885
93 7.645161290322581 ['34', '11', '21'] 382.25806451612885
94 7.645161290322581 ['34', '11', '21'] 382.25806451612885
95 7.645161290322581 ['34', '11', '21'] 382.25806451612885
96 7.645161290322581 ['34', '11', '21'] 382.25806451612885
97 7.645161290322581 ['34', '11', '21'] 382.25806451612885
98 7.645161290322581 ['34', '11', '21'] 382.25806451612885
99 7.645161290322581 ['34', '11', '21'] 382.25806451612885
100 7.645161290322581 ['34', '11', '21'] 382.25806451612885
101 7.645161290322581 ['34', '11', '21'] 382.25806451612885
102 7.645161290322581 ['34', '11', '21'] 382.25806451612885
103 7.645161290322581 ['34', '11', '21'] 382.25806451612885
104 7.645161290322581 ['34', '11', '21'] 382.25806451612885
105 7.645161290322581 ['34', '11', '21'] 382.25806451612885
106 7.645161290322581 ['34', '11', '21'] 382.25806451612885
107 7.645161290322581 ['34', '11', '21'] 382.25806451612885
108 7.645161290322581 ['34', '11', '21'] 382.25806451612885
109 7.645161290322581 ['34', '11', '21'] 382.25806451612885
110 7.645161290322581 ['34', '11', '21'] 382.25806451612885
111 7.645161290322581 ['34', '11', '21'] 382.25806451612885
112 7.645161290322581 ['34', '11', '21'] 382.25806451612885
113 7.645161290322581 ['34', '11', '21'] 382.25806451612885
114 7.645161290322581 ['34', '11', '21'] 382.25806451612885
115 7.645161290322581 ['34', '11', '21'] 382.25806451612885
116 7.516129032258065 ['21', '34', '31'] 382.12903225806434
117 7.516129032258065 ['21', '34', '31'] 382.12903225806434
118 7.516129032258065 ['21', '34', '31'] 381.99999999999983
119 7.516129032258065 ['21', '34', '31'] 381.99999999999983
120 7.516129032258065 ['21', '34', '31'] 381.7419354838708
121 7.516129032258065 ['21', '34', '31'] 381.22580645161275
122 7.516129032258065 ['21', '34', '31'] 380.32258064516117
123 7.516129032258065 ['21', '34', '31'] 377.99999999999994
124 7.516129032258065 ['21', '34', '31'] 375.80645161290323
125 7.516129032258065 ['21', '34', '31'] 375.80645161290323
126 7.516129032258065 ['21', '34', '31'] 375.80645161290323
127 7.516129032258065 ['21', '34', '31'] 375.80645161290323
128 7.516129032258065 ['21', '34', '31'] 375.80645161290323
129 7.516129032258065 ['21', '34', '31'] 375.80645161290323
130 7.516129032258065 ['21', '34', '31'] 375.80645161290323
131 7.516129032258065 ['21', '34', '31'] 375.80645161290323
132 7.516129032258065 ['21', '34', '31'] 375.80645161290323
133 7.516129032258065 ['21', '34', '31'] 375.80645161290323
134 7.516129032258065 ['21', '34', '31'] 375.80645161290323
135 7.516129032258065 ['21', '34', '31'] 375.80645161290323
136 7.516129032258065 ['21', '34', '31'] 375.80645161290323
137 7.516129032258065 ['21', '34', '31'] 375.80645161290323
138 7.516129032258065 ['21', '34', '31'] 375.80645161290323
139 7.516129032258065 ['21', '34', '31'] 375.80645161290323
140 7.516129032258065 ['21', '34', '31'] 375.80645161290323
141 7.516129032258065 ['21', '34', '31'] 375.80645161290323
142 7.516129032258065 ['21', '34', '31'] 375.80645161290323
143 7.516129032258065 ['21', '34', '31'] 375.80645161290323
144 7.516129032258065 ['21', '34', '31'] 375.80645161290323
145 7.516129032258065 ['21', '34', '31'] 375.80645161290323
146 7.516129032258065 ['21', '34', '31'] 375.80645161290323
147 7.516129032258065 ['21', '34', '31'] 375.80645161290323
148 7.516129032258065 ['21', '34', '31'] 375.80645161290323
149 7.516129032258065 ['21', '34', '31'] 375.80645161290323
150 7.516129032258065 ['21', '34', '31'] 375.80645161290323
151 7.516129032258065 ['21', '34', '31'] 375.80645161290323
152 7.516129032258065 ['21', '34', '31'] 375.80645161290323
153 7.516129032258065 ['21', '34', '31'] 375.80645161290323
154 7.516129032258065 ['21', '34', '31'] 375.80645161290323
155 7.516129032258065 ['21', '34', '31'] 375.80645161290323
156 7.516129032258065 ['21', '34', '31'] 375.80645161290323
157 7.516129032258065 ['21', '34', '31'] 375.80645161290323
158 7.516129032258065 ['21', '34', '31'] 375.80645161290323
159 7.516129032258065 ['21', '34', '31'] 375.80645161290323
160 7.516129032258065 ['21', '34', '31'] 375.80645161290323
161 7.516129032258065 ['21', '34', '31'] 375.80645161290323
162 7.516129032258065 ['21', '34', '31'] 375.80645161290323
163 7.516129032258065 ['21', '34', '31'] 375.80645161290323
164 7.516129032258065 ['21', '34', '31'] 375.80645161290323
165 7.516129032258065 ['21', '34', '31'] 375.80645161290323
166 7.516129032258065 ['21', '34', '31'] 375.80645161290323
167 7.516129032258065 ['21', '34', '31'] 375.80645161290323
168 7.516129032258065 ['21', '34', '31'] 375.80645161290323
169 7.516129032258065 ['21', '34', '31'] 375.80645161290323
170 7.516129032258065 ['21', '34', '31'] 375.80645161290323
171 7.516129032258065 ['21', '34', '31'] 375.80645161290323
172 7.516129032258065 ['21', '34', '31'] 375.80645161290323
173 7.516129032258065 ['21', '34', '31'] 375.80645161290323
174 7.516129032258065 ['21', '34', '31'] 375.80645161290323
175 7.516129032258065 ['21', '34', '31'] 375.80645161290323
176 7.516129032258065 ['21', '34', '31'] 375.80645161290323
177 7.516129032258065 ['21', '34', '31'] 375.80645161290323
178 7.516129032258065 ['21', '34', '31'] 375.80645161290323
179 7.516129032258065 ['21', '34', '31'] 375.80645161290323
180 7.516129032258065 ['21', '34', '31'] 375.80645161290323
181 7.516129032258065 ['21', '34', '31'] 375.80645161290323
182 7.516129032258065 ['21', '34', '31'] 375.80645161290323
183 7.516129032258065 ['21', '34', '31'] 375.80645161290323
184 7.516129032258065 ['21', '34', '31'] 375.80645161290323
185 7.516129032258065 ['21', '34', '31'] 375.80645161290323
186 7.516129032258065 ['21', '34', '31'] 375.80645161290323
187 7.516129032258065 ['21', '34', '31'] 375.80645161290323
188 7.516129032258065 ['21', '34', '31'] 375.80645161290323
189 7.516129032258065 ['21', '34', '31'] 375.80645161290323
190 7.516129032258065 ['21', '34', '31'] 375.80645161290323
191 7.516129032258065 ['21', '34', '31'] 375.80645161290323
192 7.516129032258065 ['21', '34', '31'] 375.80645161290323
193 7.516129032258065 ['21', '34', '31'] 375.80645161290323
194 7.516129032258065 ['21', '34', '31'] 375.80645161290323
195 7.516129032258065 ['21', '34', '31'] 375.80645161290323
196 7.516129032258065 ['21', '34', '31'] 375.80645161290323
197 7.516129032258065 ['21', '34', '31'] 375.80645161290323
198 7.516129032258065 ['21', '34', '31'] 375.80645161290323
199 7.516129032258065 ['21', '34', '31'] 375.80645161290323
