0 146.859649122807 ['28', '40', '53', '17', '43', '24'] 7552.035087719299
1 144.5438596491228 ['11', '40', '41', '36', '43', '55'] 7472.333333333333
2 144.5438596491228 ['11', '40', '41', '36', '43', '55'] 7394.964912280702
3 144.05263157894737 ['28', '17', '15', '40', '35', '2'] 7338.456140350878
4 141.8421052631579 ['28', '59', '27', '17', '15', '36'] 7282.140350877191
5 141.31578947368422 ['40', '15', '59', '17', '11', '43'] 7233.140350877191
6 140.50877192982455 ['59', '43', '40', '11', '41', '17'] 7180.122807017542
7 137.86206896551724 ['40', '11', '35', '15', '59'] 7130.2129461585
8 137.86206896551724 ['40', '11', '35', '15', '59'] 7082.839685420446
9 137.3793103448276 ['17', '40', '59', '15', '11'] 7038.16575922565
10 137.3793103448276 ['17', '40', '59', '15', '11'] 6984.291591046583
11 134.01694915254237 ['40', '59', '11', '15'] 6887.100259415342
12 128.91803278688525 ['40', '59'] 6774.864574770129
13 128.91803278688525 ['40', '59'] 6642.769778642217
14 128.91803278688525 ['40', '59'] 6536.3954015004165
15 128.91803278688525 ['40', '59'] 6455.712841530058
16 128.91803278688525 ['40', '59'] 6445.901639344264
17 128.91803278688525 ['40', '59'] 6445.901639344264
18 128.91803278688525 ['40', '59'] 6445.901639344264
19 128.91803278688525 ['40', '59'] 6445.901639344264
20 128.91803278688525 ['40', '59'] 6445.901639344264
21 128.91803278688525 ['40', '59'] 6445.901639344264
22 128.91803278688525 ['40', '59'] 6445.901639344264
23 128.91803278688525 ['40', '59'] 6445.901639344264
24 128.91803278688525 ['40', '59'] 6445.901639344264
25 128.91803278688525 ['40', '59'] 6445.901639344264
26 128.91803278688525 ['40', '59'] 6445.901639344264
27 128.91803278688525 ['40', '59'] 6445.901639344264
28 128.91803278688525 ['40', '59'] 6445.901639344264
29 128.91803278688525 ['40', '59'] 6445.901639344264
30 128.91803278688525 ['40', '59'] 6445.901639344264
31 128.91803278688525 ['40', '59'] 6445.901639344264
32 128.91803278688525 ['40', '59'] 6445.901639344264
33 128.91803278688525 ['40', '59'] 6445.901639344264
34 128.91803278688525 ['40', '59'] 6445.901639344264
35 128.91803278688525 ['40', '59'] 6445.901639344264
36 128.91803278688525 ['40', '59'] 6445.901639344264
37 128.91803278688525 ['40', '59'] 6445.901639344264
38 128.91803278688525 ['40', '59'] 6445.901639344264
39 128.91803278688525 ['40', '59'] 6445.901639344264
40 128.91803278688525 ['40', '59'] 6445.901639344264
41 128.91803278688525 ['40', '59'] 6445.901639344264
42 128.91803278688525 ['40', '59'] 6445.901639344264
43 128.91803278688525 ['40', '59'] 6445.901639344264
44 128.91803278688525 ['40', '59'] 6445.901639344264
45 128.91803278688525 ['40', '59'] 6445.901639344264
46 128.91803278688525 ['40', '59'] 6445.901639344264
47 128.91803278688525 ['40', '59'] 6445.901639344264
48 128.91803278688525 ['40', '59'] 6445.901639344264
49 128.91803278688525 ['40', '59'] 6445.901639344264
50 128.91803278688525 ['40', '59'] 6445.901639344264
51 128.91803278688525 ['40', '59'] 6445.901639344264
52 128.91803278688525 ['40', '59'] 6445.901639344264
53 128.91803278688525 ['40', '59'] 6445.901639344264
54 128.91803278688525 ['40', '59'] 6445.901639344264
55 128.91803278688525 ['40', '59'] 6445.901639344264
56 128.91803278688525 ['40', '59'] 6445.901639344264
57 128.91803278688525 ['40', '59'] 6445.901639344264
58 128.91803278688525 ['40', '59'] 6445.901639344264
59 128.91803278688525 ['40', '59'] 6445.901639344264
60 128.91803278688525 ['40', '59'] 6445.901639344264
61 128.91803278688525 ['40', '59'] 6445.901639344264
62 128.91803278688525 ['40', '59'] 6445.901639344264
63 128.91803278688525 ['40', '59'] 6445.901639344264
64 128.91803278688525 ['40', '59'] 6445.901639344264
65 128.91803278688525 ['40', '59'] 6445.901639344264
66 128.91803278688525 ['40', '59'] 6445.901639344264
67 128.91803278688525 ['40', '59'] 6445.901639344264
68 128.91803278688525 ['40', '59'] 6445.901639344264
69 128.91803278688525 ['40', '59'] 6445.901639344264
70 128.91803278688525 ['40', '59'] 6445.901639344264
71 128.91803278688525 ['40', '59'] 6445.901639344264
72 128.91803278688525 ['40', '59'] 6445.901639344264
73 128.91803278688525 ['40', '59'] 6445.901639344264
74 128.91803278688525 ['40', '59'] 6445.901639344264
75 128.91803278688525 ['40', '59'] 6445.901639344264
76 128.91803278688525 ['40', '59'] 6445.901639344264
77 128.91803278688525 ['40', '59'] 6445.901639344264
78 128.91803278688525 ['40', '59'] 6445.901639344264
79 128.91803278688525 ['40', '59'] 6445.901639344264
80 128.91803278688525 ['40', '59'] 6445.901639344264
81 128.91803278688525 ['40', '59'] 6445.901639344264
82 128.91803278688525 ['40', '59'] 6445.901639344264
83 128.91803278688525 ['40', '59'] 6445.901639344264
84 128.91803278688525 ['40', '59'] 6445.901639344264
85 128.91803278688525 ['40', '59'] 6445.901639344264
86 128.91803278688525 ['40', '59'] 6445.901639344264
87 128.91803278688525 ['40', '59'] 6445.901639344264
88 128.91803278688525 ['40', '59'] 6445.901639344264
89 128.91803278688525 ['40', '59'] 6445.901639344264
90 128.91803278688525 ['40', '59'] 6445.901639344264
91 128.91803278688525 ['40', '59'] 6445.901639344264
92 128.91803278688525 ['40', '59'] 6445.901639344264
93 128.91803278688525 ['40', '59'] 6445.901639344264
94 128.91803278688525 ['40', '59'] 6445.901639344264
95 128.91803278688525 ['40', '59'] 6445.901639344264
96 128.91803278688525 ['40', '59'] 6445.901639344264
97 128.91803278688525 ['40', '59'] 6445.901639344264
98 128.91803278688525 ['40', '59'] 6445.901639344264
99 128.91803278688525 ['40', '59'] 6445.901639344264
100 128.91803278688525 ['40', '59'] 6445.901639344264
101 128.91803278688525 ['40', '59'] 6445.901639344264
102 128.91803278688525 ['40', '59'] 6445.901639344264
103 128.91803278688525 ['40', '59'] 6445.901639344264
104 128.91803278688525 ['40', '59'] 6445.901639344264
105 128.91803278688525 ['40', '59'] 6445.901639344264
106 128.91803278688525 ['40', '59'] 6445.901639344264
107 128.91803278688525 ['40', '59'] 6445.901639344264
108 128.91803278688525 ['40', '59'] 6445.901639344264
109 128.91803278688525 ['40', '59'] 6445.901639344264
110 128.91803278688525 ['40', '59'] 6445.901639344264
111 128.91803278688525 ['40', '59'] 6445.901639344264
112 128.91803278688525 ['40', '59'] 6445.901639344264
113 128.91803278688525 ['40', '59'] 6445.901639344264
114 128.91803278688525 ['40', '59'] 6445.901639344264
115 128.91803278688525 ['40', '59'] 6445.901639344264
116 128.91803278688525 ['40', '59'] 6445.901639344264
117 128.91803278688525 ['40', '59'] 6445.901639344264
118 128.91803278688525 ['40', '59'] 6445.901639344264
119 128.91803278688525 ['40', '59'] 6445.901639344264
120 128.91803278688525 ['40', '59'] 6445.901639344264
121 128.91803278688525 ['40', '59'] 6445.901639344264
122 128.91803278688525 ['40', '59'] 6445.901639344264
123 128.91803278688525 ['40', '59'] 6445.901639344264
124 128.91803278688525 ['40', '59'] 6445.901639344264
125 128.91803278688525 ['40', '59'] 6445.901639344264
126 128.91803278688525 ['40', '59'] 6445.901639344264
127 128.91803278688525 ['40', '59'] 6445.901639344264
128 128.91803278688525 ['40', '59'] 6445.901639344264
129 128.91803278688525 ['40', '59'] 6445.901639344264
130 128.91803278688525 ['40', '59'] 6445.901639344264
131 128.91803278688525 ['40', '59'] 6445.901639344264
132 128.91803278688525 ['40', '59'] 6445.901639344264
133 128.91803278688525 ['40', '59'] 6445.901639344264
134 128.91803278688525 ['40', '59'] 6445.901639344264
135 128.91803278688525 ['40', '59'] 6445.901639344264
136 128.91803278688525 ['40', '59'] 6445.901639344264
137 128.91803278688525 ['40', '59'] 6445.901639344264
138 128.91803278688525 ['40', '59'] 6445.901639344264
139 128.91803278688525 ['40', '59'] 6445.901639344264
140 128.91803278688525 ['40', '59'] 6445.901639344264
141 128.91803278688525 ['40', '59'] 6445.901639344264
142 128.91803278688525 ['40', '59'] 6445.901639344264
143 128.91803278688525 ['40', '59'] 6445.901639344264
144 128.91803278688525 ['40', '59'] 6445.901639344264
145 128.91803278688525 ['40', '59'] 6445.901639344264
146 128.91803278688525 ['40', '59'] 6445.901639344264
147 128.91803278688525 ['40', '59'] 6445.901639344264
148 128.91803278688525 ['40', '59'] 6445.901639344264
149 128.91803278688525 ['40', '59'] 6445.901639344264
150 128.91803278688525 ['40', '59'] 6445.901639344264
151 128.91803278688525 ['40', '59'] 6445.901639344264
152 128.91803278688525 ['40', '59'] 6445.901639344264
153 128.91803278688525 ['40', '59'] 6445.901639344264
154 128.91803278688525 ['40', '59'] 6445.901639344264
155 128.91803278688525 ['40', '59'] 6445.901639344264
156 128.91803278688525 ['40', '59'] 6445.901639344264
157 128.91803278688525 ['40', '59'] 6445.901639344264
158 128.91803278688525 ['40', '59'] 6445.901639344264
159 128.91803278688525 ['40', '59'] 6445.901639344264
160 128.91803278688525 ['40', '59'] 6445.901639344264
161 128.91803278688525 ['40', '59'] 6445.901639344264
162 128.91803278688525 ['40', '59'] 6445.901639344264
163 128.91803278688525 ['40', '59'] 6445.901639344264
164 128.91803278688525 ['40', '59'] 6445.901639344264
165 128.91803278688525 ['40', '59'] 6445.901639344264
166 128.91803278688525 ['40', '59'] 6445.901639344264
167 128.91803278688525 ['40', '59'] 6445.901639344264
168 128.91803278688525 ['40', '59'] 6445.901639344264
169 128.91803278688525 ['40', '59'] 6445.901639344264
170 128.91803278688525 ['40', '59'] 6445.901639344264
171 128.91803278688525 ['40', '59'] 6445.901639344264
172 128.91803278688525 ['40', '59'] 6445.901639344264
173 128.91803278688525 ['40', '59'] 6445.901639344264
174 128.91803278688525 ['40', '59'] 6445.901639344264
175 128.91803278688525 ['40', '59'] 6445.901639344264
176 128.91803278688525 ['40', '59'] 6445.901639344264
177 128.91803278688525 ['40', '59'] 6445.901639344264
178 128.91803278688525 ['40', '59'] 6445.901639344264
179 128.91803278688525 ['40', '59'] 6445.901639344264
180 128.91803278688525 ['40', '59'] 6445.901639344264
181 128.91803278688525 ['40', '59'] 6445.901639344264
182 128.91803278688525 ['40', '59'] 6445.901639344264
183 128.91803278688525 ['40', '59'] 6445.901639344264
184 128.91803278688525 ['40', '59'] 6445.901639344264
185 128.91803278688525 ['40', '59'] 6445.901639344264
186 128.91803278688525 ['40', '59'] 6445.901639344264
187 128.91803278688525 ['40', '59'] 6445.901639344264
188 128.91803278688525 ['40', '59'] 6445.901639344264
189 128.91803278688525 ['40', '59'] 6445.901639344264
190 128.91803278688525 ['40', '59'] 6445.901639344264
191 128.91803278688525 ['40', '59'] 6445.901639344264
192 128.91803278688525 ['40', '59'] 6445.901639344264
193 128.91803278688525 ['40', '59'] 6445.901639344264
194 128.91803278688525 ['40', '59'] 6445.901639344264
195 128.91803278688525 ['40', '59'] 6445.901639344264
196 128.91803278688525 ['40', '59'] 6445.901639344264
197 128.91803278688525 ['40', '59'] 6445.901639344264
198 128.91803278688525 ['40', '59'] 6445.901639344264
199 128.91803278688525 ['40', '59'] 6445.901639344264
