0 9.151515151515152 ['30', '21', '11'] 470.78787878787875
1 9.06060606060606 ['30', '33', '7'] 466.27272727272754
2 8.969696969696969 ['28', '30', '11'] 462.3030303030302
3 8.969696969696969 ['28', '30', '11'] 458.03030303030306
4 8.93939393939394 ['33', '30', '11'] 454.06060606060595
5 8.93939393939394 ['33', '30', '11'] 450.5151515151514
6 8.93939393939394 ['33', '30', '11'] 448.4242424242426
7 8.93939393939394 ['33', '30', '11'] 447.6666666666672
8 8.93939393939394 ['33', '30', '11'] 446.96969696969694
9 8.93939393939394 ['33', '30', '11'] 446.96969696969694
10 8.93939393939394 ['33', '30', '11'] 446.96969696969694
11 8.93939393939394 ['33', '30', '11'] 446.96969696969694
12 8.93939393939394 ['33', '30', '11'] 446.96969696969694
13 8.93939393939394 ['33', '30', '11'] 446.96969696969694
14 8.93939393939394 ['33', '30', '11'] 446.96969696969694
15 8.93939393939394 ['33', '30', '11'] 446.96969696969694
16 8.93939393939394 ['33', '30', '11'] 446.96969696969694
17 8.93939393939394 ['33', '30', '11'] 446.96969696969694
18 8.93939393939394 ['33', '30', '11'] 446.96969696969694
19 8.93939393939394 ['33', '30', '11'] 446.96969696969694
20 8.93939393939394 ['33', '30', '11'] 446.96969696969694
21 8.93939393939394 ['33', '30', '11'] 446.96969696969694
22 8.93939393939394 ['33', '30', '11'] 446.96969696969694
23 8.93939393939394 ['33', '30', '11'] 446.96969696969694
24 8.93939393939394 ['33', '30', '11'] 446.96969696969694
25 8.93939393939394 ['33', '30', '11'] 446.96969696969694
26 8.93939393939394 ['33', '30', '11'] 446.96969696969694
27 8.93939393939394 ['33', '30', '11'] 446.96969696969694
28 8.93939393939394 ['33', '30', '11'] 446.96969696969694
29 8.93939393939394 ['33', '30', '11'] 446.96969696969694
30 8.93939393939394 ['33', '30', '11'] 446.96969696969694
31 8.93939393939394 ['33', '30', '11'] 446.96969696969694
32 8.93939393939394 ['33', '30', '11'] 446.96969696969694
33 8.93939393939394 ['33', '30', '11'] 446.96969696969694
34 8.93939393939394 ['33', '30', '11'] 446.96969696969694
35 8.93939393939394 ['33', '30', '11'] 446.96969696969694
36 8.93939393939394 ['33', '30', '11'] 446.96969696969694
37 8.93939393939394 ['33', '30', '11'] 446.96969696969694
38 8.93939393939394 ['33', '30', '11'] 446.96969696969694
39 8.93939393939394 ['33', '30', '11'] 446.96969696969694
40 8.93939393939394 ['33', '30', '11'] 446.96969696969694
41 8.93939393939394 ['33', '30', '11'] 446.96969696969694
42 8.93939393939394 ['33', '30', '11'] 446.96969696969694
43 8.93939393939394 ['33', '30', '11'] 446.96969696969694
44 8.93939393939394 ['33', '30', '11'] 446.96969696969694
45 8.93939393939394 ['33', '30', '11'] 446.96969696969694
46 8.93939393939394 ['33', '30', '11'] 446.96969696969694
47 8.93939393939394 ['33', '30', '11'] 446.96969696969694
48 8.93939393939394 ['33', '30', '11'] 446.96969696969694
49 8.93939393939394 ['33', '30', '11'] 446.96969696969694
50 8.93939393939394 ['33', '30', '11'] 446.96969696969694
51 8.93939393939394 ['33', '30', '11'] 446.96969696969694
52 8.93939393939394 ['33', '30', '11'] 446.96969696969694
53 8.93939393939394 ['33', '30', '11'] 446.96969696969694
54 8.93939393939394 ['33', '30', '11'] 446.96969696969694
55 8.93939393939394 ['33', '30', '11'] 446.96969696969694
56 8.93939393939394 ['33', '30', '11'] 446.96969696969694
57 8.93939393939394 ['33', '30', '11'] 446.96969696969694
58 8.93939393939394 ['33', '30', '11'] 446.96969696969694
59 8.93939393939394 ['33', '30', '11'] 446.96969696969694
60 8.93939393939394 ['33', '30', '11'] 446.96969696969694
61 8.93939393939394 ['33', '30', '11'] 446.96969696969694
62 8.93939393939394 ['33', '30', '11'] 446.96969696969694
63 8.93939393939394 ['33', '30', '11'] 446.96969696969694
64 8.93939393939394 ['33', '30', '11'] 446.96969696969694
65 8.93939393939394 ['33', '30', '11'] 446.96969696969694
66 8.93939393939394 ['33', '30', '11'] 446.96969696969694
67 8.93939393939394 ['33', '30', '11'] 446.96969696969694
68 8.93939393939394 ['33', '30', '11'] 446.96969696969694
69 8.93939393939394 ['33', '30', '11'] 446.96969696969694
70 8.93939393939394 ['33', '30', '11'] 446.96969696969694
71 8.93939393939394 ['33', '30', '11'] 446.96969696969694
72 8.93939393939394 ['33', '30', '11'] 446.96969696969694
73 8.93939393939394 ['33', '30', '11'] 446.96969696969694
74 8.93939393939394 ['33', '30', '11'] 446.96969696969694
75 8.93939393939394 ['33', '30', '11'] 446.96969696969694
76 8.93939393939394 ['33', '30', '11'] 446.96969696969694
77 8.93939393939394 ['33', '30', '11'] 446.96969696969694
78 8.93939393939394 ['33', '30', '11'] 446.96969696969694
79 8.93939393939394 ['33', '30', '11'] 446.96969696969694
80 8.93939393939394 ['33', '30', '11'] 446.96969696969694
81 8.93939393939394 ['33', '30', '11'] 446.96969696969694
82 8.93939393939394 ['33', '30', '11'] 446.96969696969694
83 8.93939393939394 ['33', '30', '11'] 446.96969696969694
84 8.93939393939394 ['33', '30', '11'] 446.96969696969694
85 8.93939393939394 ['33', '30', '11'] 446.96969696969694
86 8.93939393939394 ['33', '30', '11'] 446.96969696969694
87 8.93939393939394 ['33', '30', '11'] 446.96969696969694
88 8.93939393939394 ['33', '30', '11'] 446.96969696969694
89 8.93939393939394 ['33', '30', '11'] 446.96969696969694
90 8.93939393939394 ['33', '30', '11'] 446.96969696969694
91 8.93939393939394 ['33', '30', '11'] 446.96969696969694
92 8.93939393939394 ['33', '30', '11'] 446.96969696969694
93 8.93939393939394 ['33', '30', '11'] 446.96969696969694
94 8.93939393939394 ['33', '30', '11'] 446.96969696969694
95 8.93939393939394 ['33', '30', '11'] 446.96969696969694
96 8.93939393939394 ['33', '30', '11'] 446.96969696969694
97 8.93939393939394 ['33', '30', '11'] 446.96969696969694
98 8.93939393939394 ['33', '30', '11'] 446.96969696969694
99 8.93939393939394 ['33', '30', '11'] 446.96969696969694
100 8.93939393939394 ['33', '30', '11'] 446.96969696969694
101 8.93939393939394 ['33', '30', '11'] 446.96969696969694
102 8.93939393939394 ['33', '30', '11'] 446.96969696969694
103 8.93939393939394 ['33', '30', '11'] 446.96969696969694
104 8.93939393939394 ['33', '30', '11'] 446.96969696969694
105 8.93939393939394 ['33', '30', '11'] 446.96969696969694
106 8.93939393939394 ['33', '30', '11'] 446.96969696969694
107 8.93939393939394 ['33', '30', '11'] 446.96969696969694
108 8.93939393939394 ['33', '30', '11'] 446.96969696969694
109 8.93939393939394 ['33', '30', '11'] 446.96969696969694
110 8.93939393939394 ['33', '30', '11'] 446.96969696969694
111 8.93939393939394 ['33', '30', '11'] 446.96969696969694
112 8.93939393939394 ['33', '30', '11'] 446.96969696969694
113 8.93939393939394 ['33', '30', '11'] 446.96969696969694
114 8.93939393939394 ['33', '30', '11'] 446.96969696969694
115 8.93939393939394 ['33', '30', '11'] 446.96969696969694
116 8.93939393939394 ['33', '30', '11'] 446.96969696969694
117 8.93939393939394 ['33', '30', '11'] 446.96969696969694
118 8.93939393939394 ['33', '30', '11'] 446.96969696969694
119 8.93939393939394 ['33', '30', '11'] 446.96969696969694
120 8.93939393939394 ['33', '30', '11'] 446.96969696969694
121 8.93939393939394 ['33', '30', '11'] 446.96969696969694
122 8.93939393939394 ['33', '30', '11'] 446.96969696969694
123 8.93939393939394 ['33', '30', '11'] 446.96969696969694
124 8.93939393939394 ['33', '30', '11'] 446.96969696969694
125 8.93939393939394 ['33', '30', '11'] 446.96969696969694
126 8.93939393939394 ['33', '30', '11'] 446.96969696969694
127 8.93939393939394 ['33', '30', '11'] 446.96969696969694
128 8.93939393939394 ['33', '30', '11'] 446.96969696969694
129 8.93939393939394 ['33', '30', '11'] 446.96969696969694
130 8.93939393939394 ['33', '30', '11'] 446.96969696969694
131 8.93939393939394 ['33', '30', '11'] 446.96969696969694
132 8.93939393939394 ['33', '30', '11'] 446.96969696969694
133 8.93939393939394 ['33', '30', '11'] 446.96969696969694
134 8.93939393939394 ['33', '30', '11'] 446.96969696969694
135 8.93939393939394 ['33', '30', '11'] 446.96969696969694
136 8.93939393939394 ['33', '30', '11'] 446.96969696969694
137 8.93939393939394 ['33', '30', '11'] 446.96969696969694
138 8.93939393939394 ['33', '30', '11'] 446.96969696969694
139 8.93939393939394 ['33', '30', '11'] 446.96969696969694
140 8.93939393939394 ['33', '30', '11'] 446.96969696969694
141 8.93939393939394 ['33', '30', '11'] 446.96969696969694
142 8.93939393939394 ['33', '30', '11'] 446.96969696969694
143 8.93939393939394 ['33', '30', '11'] 446.96969696969694
144 8.93939393939394 ['33', '30', '11'] 446.96969696969694
145 8.93939393939394 ['33', '30', '11'] 446.96969696969694
146 8.93939393939394 ['33', '30', '11'] 446.96969696969694
147 8.93939393939394 ['33', '30', '11'] 446.96969696969694
148 8.93939393939394 ['33', '30', '11'] 446.96969696969694
149 8.93939393939394 ['33', '30', '11'] 446.96969696969694
150 8.93939393939394 ['33', '30', '11'] 446.96969696969694
151 8.93939393939394 ['33', '30', '11'] 446.96969696969694
152 8.93939393939394 ['33', '30', '11'] 446.96969696969694
153 8.93939393939394 ['33', '30', '11'] 446.96969696969694
154 8.93939393939394 ['33', '30', '11'] 446.96969696969694
155 8.93939393939394 ['33', '30', '11'] 446.96969696969694
156 8.93939393939394 ['33', '30', '11'] 446.96969696969694
157 8.93939393939394 ['33', '30', '11'] 446.96969696969694
158 8.93939393939394 ['33', '30', '11'] 446.96969696969694
159 8.93939393939394 ['33', '30', '11'] 446.96969696969694
160 8.93939393939394 ['33', '30', '11'] 446.96969696969694
161 8.93939393939394 ['33', '30', '11'] 446.96969696969694
162 8.93939393939394 ['33', '30', '11'] 446.96969696969694
163 8.93939393939394 ['33', '30', '11'] 446.96969696969694
164 8.93939393939394 ['33', '30', '11'] 446.96969696969694
165 8.93939393939394 ['33', '30', '11'] 446.96969696969694
166 8.93939393939394 ['33', '30', '11'] 446.96969696969694
167 8.93939393939394 ['33', '30', '11'] 446.96969696969694
168 8.93939393939394 ['33', '30', '11'] 446.96969696969694
169 8.93939393939394 ['33', '30', '11'] 446.96969696969694
170 8.93939393939394 ['33', '30', '11'] 446.96969696969694
171 8.93939393939394 ['33', '30', '11'] 446.96969696969694
172 8.93939393939394 ['33', '30', '11'] 446.96969696969694
173 8.93939393939394 ['33', '30', '11'] 446.96969696969694
174 8.93939393939394 ['33', '30', '11'] 446.96969696969694
175 8.93939393939394 ['33', '30', '11'] 446.96969696969694
176 8.93939393939394 ['33', '30', '11'] 446.96969696969694
177 8.93939393939394 ['33', '30', '11'] 446.96969696969694
178 8.93939393939394 ['33', '30', '11'] 446.96969696969694
179 8.93939393939394 ['33', '30', '11'] 446.96969696969694
180 8.93939393939394 ['33', '30', '11'] 446.96969696969694
181 8.93939393939394 ['33', '30', '11'] 446.96969696969694
182 8.93939393939394 ['33', '30', '11'] 446.96969696969694
183 8.93939393939394 ['33', '30', '11'] 446.96969696969694
184 8.93939393939394 ['33', '30', '11'] 446.96969696969694
185 8.93939393939394 ['33', '30', '11'] 446.96969696969694
186 8.93939393939394 ['33', '30', '11'] 446.96969696969694
187 8.93939393939394 ['33', '30', '11'] 446.96969696969694
188 8.93939393939394 ['33', '30', '11'] 446.96969696969694
189 8.93939393939394 ['33', '30', '11'] 446.96969696969694
190 8.93939393939394 ['33', '30', '11'] 446.96969696969694
191 8.93939393939394 ['33', '30', '11'] 446.96969696969694
192 8.93939393939394 ['33', '30', '11'] 446.96969696969694
193 8.93939393939394 ['33', '30', '11'] 446.96969696969694
194 8.93939393939394 ['33', '30', '11'] 446.96969696969694
195 8.93939393939394 ['33', '30', '11'] 446.96969696969694
196 8.93939393939394 ['33', '30', '11'] 446.96969696969694
197 8.93939393939394 ['33', '30', '11'] 446.96969696969694
198 8.93939393939394 ['33', '30', '11'] 446.96969696969694
199 8.93939393939394 ['33', '30', '11'] 446.96969696969694
