0 16.838709677419356 ['19', '23', '34'] 950.516129032258
1 16.838709677419356 ['19', '23', '34'] 912.6774193548388
2 16.322580645161292 ['23', '8', '19'] 885.2580645161293
3 15.806451612903226 ['23', '24', '19'] 856.1935483870964
4 15.806451612903226 ['23', '24', '19'] 839.4516129032257
5 15.806451612903226 ['23', '24', '19'] 826.5806451612904
6 15.806451612903226 ['23', '24', '19'] 815.354838709677
7 15.806451612903226 ['23', '24', '19'] 800.3870967741943
8 15.806451612903226 ['23', '24', '19'] 790.3225806451605
9 15.806451612903226 ['23', '24', '19'] 790.3225806451605
10 15.806451612903226 ['23', '24', '19'] 790.3225806451605
11 15.806451612903226 ['23', '24', '19'] 790.3225806451605
12 15.806451612903226 ['23', '24', '19'] 790.3225806451605
13 15.806451612903226 ['23', '24', '19'] 790.3225806451605
14 15.806451612903226 ['23', '24', '19'] 790.3225806451605
15 15.806451612903226 ['23', '24', '19'] 790.3225806451605
16 15.806451612903226 ['23', '24', '19'] 790.3225806451605
17 15.806451612903226 ['23', '24', '19'] 790.3225806451605
18 15.806451612903226 ['23', '24', '19'] 790.3225806451605
19 15.806451612903226 ['23', '24', '19'] 790.3225806451605
20 15.806451612903226 ['23', '24', '19'] 790.3225806451605
21 15.806451612903226 ['23', '24', '19'] 790.3225806451605
22 15.806451612903226 ['23', '24', '19'] 790.3225806451605
23 15.806451612903226 ['23', '24', '19'] 790.3225806451605
24 15.806451612903226 ['23', '24', '19'] 790.3225806451605
25 15.806451612903226 ['23', '24', '19'] 790.3225806451605
26 15.806451612903226 ['23', '24', '19'] 790.3225806451605
27 15.806451612903226 ['23', '24', '19'] 790.3225806451605
28 15.806451612903226 ['23', '24', '19'] 790.3225806451605
29 15.806451612903226 ['23', '24', '19'] 790.3225806451605
30 15.806451612903226 ['23', '24', '19'] 790.3225806451605
31 15.806451612903226 ['23', '24', '19'] 790.3225806451605
32 15.806451612903226 ['23', '24', '19'] 790.3225806451605
33 15.806451612903226 ['23', '24', '19'] 790.3225806451605
34 15.806451612903226 ['23', '24', '19'] 790.3225806451605
35 15.806451612903226 ['23', '24', '19'] 790.3225806451605
36 15.806451612903226 ['23', '24', '19'] 790.3225806451605
37 15.806451612903226 ['23', '24', '19'] 790.3225806451605
38 15.806451612903226 ['23', '24', '19'] 790.3225806451605
39 15.806451612903226 ['23', '24', '19'] 790.3225806451605
40 15.806451612903226 ['23', '24', '19'] 790.3225806451605
41 15.806451612903226 ['23', '24', '19'] 790.3225806451605
42 15.806451612903226 ['23', '24', '19'] 790.3225806451605
43 15.806451612903226 ['23', '24', '19'] 790.3225806451605
44 15.806451612903226 ['23', '24', '19'] 790.3225806451605
45 15.806451612903226 ['23', '24', '19'] 790.3225806451605
46 15.806451612903226 ['23', '24', '19'] 790.3225806451605
47 15.806451612903226 ['23', '24', '19'] 790.3225806451605
48 15.806451612903226 ['23', '24', '19'] 790.3225806451605
49 15.806451612903226 ['23', '24', '19'] 790.3225806451605
50 15.806451612903226 ['23', '24', '19'] 790.3225806451605
51 15.806451612903226 ['23', '24', '19'] 790.3225806451605
52 15.806451612903226 ['23', '24', '19'] 790.3225806451605
53 15.806451612903226 ['23', '24', '19'] 790.3225806451605
54 15.806451612903226 ['23', '24', '19'] 790.3225806451605
55 15.806451612903226 ['23', '24', '19'] 790.3225806451605
56 15.806451612903226 ['23', '24', '19'] 790.3225806451605
57 15.806451612903226 ['23', '24', '19'] 790.3225806451605
58 15.806451612903226 ['23', '24', '19'] 790.3225806451605
59 15.806451612903226 ['23', '24', '19'] 790.3225806451605
60 15.806451612903226 ['23', '24', '19'] 790.3225806451605
61 15.806451612903226 ['23', '24', '19'] 790.3225806451605
62 15.806451612903226 ['23', '24', '19'] 790.3225806451605
63 15.806451612903226 ['23', '24', '19'] 790.3225806451605
64 15.806451612903226 ['23', '24', '19'] 790.3225806451605
65 15.806451612903226 ['23', '24', '19'] 790.3225806451605
66 15.806451612903226 ['23', '24', '19'] 790.3225806451605
67 15.806451612903226 ['23', '24', '19'] 790.3225806451605
68 15.806451612903226 ['23', '24', '19'] 790.3225806451605
69 15.806451612903226 ['23', '24', '19'] 790.3225806451605
70 15.806451612903226 ['23', '24', '19'] 790.3225806451605
71 15.806451612903226 ['23', '24', '19'] 790.3225806451605
72 15.806451612903226 ['23', '24', '19'] 790.3225806451605
73 15.806451612903226 ['23', '24', '19'] 790.3225806451605
74 15.806451612903226 ['23', '24', '19'] 790.3225806451605
75 15.806451612903226 ['23', '24', '19'] 790.3225806451605
76 15.806451612903226 ['23', '24', '19'] 790.3225806451605
77 15.806451612903226 ['23', '24', '19'] 790.3225806451605
78 15.806451612903226 ['23', '24', '19'] 790.3225806451605
79 15.806451612903226 ['23', '24', '19'] 790.3225806451605
80 15.806451612903226 ['23', '24', '19'] 790.3225806451605
81 15.806451612903226 ['23', '24', '19'] 790.3225806451605
82 15.806451612903226 ['23', '24', '19'] 790.3225806451605
83 15.806451612903226 ['23', '24', '19'] 790.3225806451605
84 15.806451612903226 ['23', '24', '19'] 790.3225806451605
85 15.806451612903226 ['23', '24', '19'] 790.3225806451605
86 15.806451612903226 ['23', '24', '19'] 790.3225806451605
87 15.806451612903226 ['23', '24', '19'] 790.3225806451605
88 15.806451612903226 ['23', '24', '19'] 790.3225806451605
89 15.806451612903226 ['23', '24', '19'] 790.3225806451605
90 15.806451612903226 ['23', '24', '19'] 790.3225806451605
91 15.806451612903226 ['23', '24', '19'] 790.3225806451605
92 15.806451612903226 ['23', '24', '19'] 790.3225806451605
93 15.806451612903226 ['23', '24', '19'] 790.3225806451605
94 15.806451612903226 ['23', '24', '19'] 790.3225806451605
95 15.806451612903226 ['23', '24', '19'] 790.3225806451605
96 15.806451612903226 ['23', '24', '19'] 790.3225806451605
97 15.806451612903226 ['23', '24', '19'] 790.3225806451605
98 15.806451612903226 ['23', '24', '19'] 790.3225806451605
99 15.806451612903226 ['23', '24', '19'] 790.3225806451605
100 15.806451612903226 ['23', '24', '19'] 790.3225806451605
101 15.806451612903226 ['23', '24', '19'] 790.3225806451605
102 15.806451612903226 ['23', '24', '19'] 790.3225806451605
103 15.806451612903226 ['23', '24', '19'] 790.3225806451605
104 15.806451612903226 ['23', '24', '19'] 790.3225806451605
105 15.806451612903226 ['23', '24', '19'] 790.3225806451605
106 15.806451612903226 ['23', '24', '19'] 790.3225806451605
107 15.806451612903226 ['23', '24', '19'] 790.3225806451605
108 15.806451612903226 ['23', '24', '19'] 790.3225806451605
109 15.806451612903226 ['23', '24', '19'] 790.3225806451605
110 15.806451612903226 ['23', '24', '19'] 790.3225806451605
111 15.806451612903226 ['23', '24', '19'] 790.3225806451605
112 15.806451612903226 ['23', '24', '19'] 790.3225806451605
113 15.806451612903226 ['23', '24', '19'] 790.3225806451605
114 15.806451612903226 ['23', '24', '19'] 790.3225806451605
115 15.806451612903226 ['23', '24', '19'] 790.3225806451605
116 15.806451612903226 ['23', '24', '19'] 790.3225806451605
117 15.806451612903226 ['23', '24', '19'] 790.3225806451605
118 15.806451612903226 ['23', '24', '19'] 790.3225806451605
119 15.806451612903226 ['23', '24', '19'] 790.3225806451605
120 15.806451612903226 ['23', '24', '19'] 790.3225806451605
121 15.806451612903226 ['23', '24', '19'] 790.3225806451605
122 15.806451612903226 ['23', '24', '19'] 790.3225806451605
123 15.806451612903226 ['23', '24', '19'] 790.3225806451605
124 15.806451612903226 ['23', '24', '19'] 790.3225806451605
125 15.806451612903226 ['23', '24', '19'] 790.3225806451605
126 15.806451612903226 ['23', '24', '19'] 790.3225806451605
127 15.806451612903226 ['23', '24', '19'] 790.3225806451605
128 15.806451612903226 ['23', '24', '19'] 790.3225806451605
129 15.806451612903226 ['23', '24', '19'] 790.3225806451605
130 15.806451612903226 ['23', '24', '19'] 790.3225806451605
131 15.806451612903226 ['23', '24', '19'] 790.3225806451605
132 15.806451612903226 ['23', '24', '19'] 790.3225806451605
133 15.806451612903226 ['23', '24', '19'] 790.3225806451605
134 15.806451612903226 ['23', '24', '19'] 790.3225806451605
135 15.806451612903226 ['23', '24', '19'] 790.3225806451605
136 15.806451612903226 ['23', '24', '19'] 790.3225806451605
137 15.806451612903226 ['23', '24', '19'] 790.3225806451605
138 15.806451612903226 ['23', '24', '19'] 790.3225806451605
139 15.806451612903226 ['23', '24', '19'] 790.3225806451605
140 15.806451612903226 ['23', '24', '19'] 790.3225806451605
141 15.806451612903226 ['23', '24', '19'] 790.3225806451605
142 15.806451612903226 ['23', '24', '19'] 790.3225806451605
143 15.806451612903226 ['23', '24', '19'] 790.3225806451605
144 15.806451612903226 ['23', '24', '19'] 790.3225806451605
145 15.806451612903226 ['23', '24', '19'] 790.3225806451605
146 15.806451612903226 ['23', '24', '19'] 790.3225806451605
147 15.806451612903226 ['23', '24', '19'] 790.3225806451605
148 15.806451612903226 ['23', '24', '19'] 790.3225806451605
149 15.806451612903226 ['23', '24', '19'] 790.3225806451605
150 15.806451612903226 ['23', '24', '19'] 790.3225806451605
151 15.806451612903226 ['23', '24', '19'] 790.3225806451605
152 15.806451612903226 ['23', '24', '19'] 790.3225806451605
153 15.806451612903226 ['23', '24', '19'] 790.3225806451605
154 15.806451612903226 ['23', '24', '19'] 790.3225806451605
155 15.806451612903226 ['23', '24', '19'] 790.3225806451605
156 15.806451612903226 ['23', '24', '19'] 790.3225806451605
157 15.806451612903226 ['23', '24', '19'] 790.3225806451605
158 15.806451612903226 ['23', '24', '19'] 790.3225806451605
159 15.806451612903226 ['23', '24', '19'] 790.3225806451605
160 15.806451612903226 ['23', '24', '19'] 790.3225806451605
161 15.806451612903226 ['23', '24', '19'] 790.3225806451605
162 15.806451612903226 ['23', '24', '19'] 790.3225806451605
163 15.806451612903226 ['23', '24', '19'] 790.3225806451605
164 15.806451612903226 ['23', '24', '19'] 790.3225806451605
165 15.806451612903226 ['23', '24', '19'] 790.3225806451605
166 15.806451612903226 ['23', '24', '19'] 790.3225806451605
167 15.806451612903226 ['23', '24', '19'] 790.3225806451605
168 15.806451612903226 ['23', '24', '19'] 790.3225806451605
169 15.806451612903226 ['23', '24', '19'] 790.3225806451605
170 15.806451612903226 ['23', '24', '19'] 790.3225806451605
171 15.806451612903226 ['23', '24', '19'] 790.3225806451605
172 15.806451612903226 ['23', '24', '19'] 790.3225806451605
173 15.806451612903226 ['23', '24', '19'] 790.3225806451605
174 15.806451612903226 ['23', '24', '19'] 790.3225806451605
175 15.806451612903226 ['23', '24', '19'] 790.3225806451605
176 15.806451612903226 ['23', '24', '19'] 790.3225806451605
177 15.806451612903226 ['23', '24', '19'] 790.3225806451605
178 15.806451612903226 ['23', '24', '19'] 790.3225806451605
179 15.806451612903226 ['23', '24', '19'] 790.3225806451605
180 15.806451612903226 ['23', '24', '19'] 790.3225806451605
181 15.806451612903226 ['23', '24', '19'] 790.3225806451605
182 15.806451612903226 ['23', '24', '19'] 790.3225806451605
183 15.806451612903226 ['23', '24', '19'] 790.3225806451605
184 15.806451612903226 ['23', '24', '19'] 790.3225806451605
185 15.806451612903226 ['23', '24', '19'] 790.3225806451605
186 15.806451612903226 ['23', '24', '19'] 790.3225806451605
187 15.806451612903226 ['23', '24', '19'] 790.3225806451605
188 15.806451612903226 ['23', '24', '19'] 790.3225806451605
189 15.806451612903226 ['23', '24', '19'] 790.3225806451605
190 15.806451612903226 ['23', '24', '19'] 790.3225806451605
191 15.806451612903226 ['23', '24', '19'] 790.3225806451605
192 15.806451612903226 ['23', '24', '19'] 790.3225806451605
193 15.806451612903226 ['23', '24', '19'] 790.3225806451605
194 15.806451612903226 ['23', '24', '19'] 790.3225806451605
195 15.806451612903226 ['23', '24', '19'] 790.3225806451605
196 15.806451612903226 ['23', '24', '19'] 790.3225806451605
197 15.806451612903226 ['23', '24', '19'] 790.3225806451605
198 15.806451612903226 ['23', '24', '19'] 790.3225806451605
199 15.806451612903226 ['23', '24', '19'] 790.3225806451605
