0 145.51785714285714 ['43', '34', '2', '27', '29', '24'] 7622.339285714284
1 144.16071428571428 ['40', '29', '24', '2', '55', '43'] 7505.517857142857
2 141.64285714285714 ['9', '24', '62', '56', '41', '45'] 7381.125000000001
3 141.30357142857142 ['24', '56', '22', '41', '29', '43'] 7265.0535714285725
4 140.48214285714286 ['24', '51', '9', '29', '43', '56'] 7197.17857142857
5 138.17857142857142 ['43', '24', '36', '41', '9', '22'] 7120.822681704259
6 138.05263157894737 ['24', '22', '51', '41', '43'] 7066.360275689223
7 137.08771929824562 ['24', '43', '56', '41', '62'] 7012.776942355891
8 134.18965517241378 ['24', '13', '43', '29'] 6954.661308443519
9 131.01694915254237 ['43', '24', '29'] 6875.432719181063
10 128.13333333333333 ['43', '24'] 6794.404430238367
11 128.13333333333333 ['43', '24'] 6693.1723699957065
12 128.13333333333333 ['43', '24'] 6562.874637792613
13 128.13333333333333 ['43', '24'] 6438.920903954795
14 128.13333333333333 ['43', '24'] 6406.6666666666615
15 128.13333333333333 ['43', '24'] 6406.6666666666615
16 128.13333333333333 ['43', '24'] 6406.6666666666615
17 128.13333333333333 ['43', '24'] 6406.6666666666615
18 128.13333333333333 ['43', '24'] 6406.6666666666615
19 128.13333333333333 ['43', '24'] 6406.6666666666615
20 128.13333333333333 ['43', '24'] 6406.6666666666615
21 128.13333333333333 ['43', '24'] 6406.6666666666615
22 128.13333333333333 ['43', '24'] 6406.6666666666615
23 128.13333333333333 ['43', '24'] 6406.6666666666615
24 128.13333333333333 ['43', '24'] 6406.6666666666615
25 128.13333333333333 ['43', '24'] 6406.6666666666615
26 128.13333333333333 ['43', '24'] 6406.6666666666615
27 128.13333333333333 ['43', '24'] 6406.6666666666615
28 128.13333333333333 ['43', '24'] 6406.6666666666615
29 128.13333333333333 ['43', '24'] 6406.6666666666615
30 128.13333333333333 ['43', '24'] 6406.6666666666615
31 128.13333333333333 ['43', '24'] 6406.6666666666615
32 128.13333333333333 ['43', '24'] 6406.6666666666615
33 128.13333333333333 ['43', '24'] 6406.6666666666615
34 128.13333333333333 ['43', '24'] 6406.6666666666615
35 128.13333333333333 ['43', '24'] 6406.6666666666615
36 128.13333333333333 ['43', '24'] 6406.6666666666615
37 128.13333333333333 ['43', '24'] 6406.6666666666615
38 128.13333333333333 ['43', '24'] 6406.6666666666615
39 128.13333333333333 ['43', '24'] 6406.6666666666615
40 128.13333333333333 ['43', '24'] 6406.6666666666615
41 128.13333333333333 ['43', '24'] 6406.6666666666615
42 128.13333333333333 ['43', '24'] 6406.6666666666615
43 128.13333333333333 ['43', '24'] 6406.6666666666615
44 128.13333333333333 ['43', '24'] 6406.6666666666615
45 128.13333333333333 ['43', '24'] 6406.6666666666615
46 128.13333333333333 ['43', '24'] 6406.6666666666615
47 128.13333333333333 ['43', '24'] 6406.6666666666615
48 128.13333333333333 ['43', '24'] 6406.6666666666615
49 128.13333333333333 ['43', '24'] 6406.6666666666615
50 128.13333333333333 ['43', '24'] 6406.6666666666615
51 128.13333333333333 ['43', '24'] 6406.6666666666615
52 128.13333333333333 ['43', '24'] 6406.6666666666615
53 128.13333333333333 ['43', '24'] 6406.6666666666615
54 128.13333333333333 ['43', '24'] 6406.6666666666615
55 128.13333333333333 ['43', '24'] 6406.6666666666615
56 128.13333333333333 ['43', '24'] 6406.6666666666615
57 128.13333333333333 ['43', '24'] 6406.6666666666615
58 128.13333333333333 ['43', '24'] 6406.6666666666615
59 128.13333333333333 ['43', '24'] 6406.6666666666615
60 128.13333333333333 ['43', '24'] 6406.6666666666615
61 128.13333333333333 ['43', '24'] 6406.6666666666615
62 128.13333333333333 ['43', '24'] 6406.6666666666615
63 128.13333333333333 ['43', '24'] 6406.6666666666615
64 128.13333333333333 ['43', '24'] 6406.6666666666615
65 128.13333333333333 ['43', '24'] 6406.6666666666615
66 128.13333333333333 ['43', '24'] 6406.6666666666615
67 128.13333333333333 ['43', '24'] 6406.6666666666615
68 128.13333333333333 ['43', '24'] 6406.6666666666615
69 128.13333333333333 ['43', '24'] 6406.6666666666615
70 128.13333333333333 ['43', '24'] 6406.6666666666615
71 128.13333333333333 ['43', '24'] 6406.6666666666615
72 128.13333333333333 ['43', '24'] 6406.6666666666615
73 128.13333333333333 ['43', '24'] 6406.6666666666615
74 128.13333333333333 ['43', '24'] 6406.6666666666615
75 128.13333333333333 ['43', '24'] 6406.6666666666615
76 128.13333333333333 ['43', '24'] 6406.6666666666615
77 128.13333333333333 ['43', '24'] 6406.6666666666615
78 128.13333333333333 ['43', '24'] 6406.6666666666615
79 128.13333333333333 ['43', '24'] 6406.6666666666615
80 128.13333333333333 ['43', '24'] 6406.6666666666615
81 128.13333333333333 ['43', '24'] 6406.6666666666615
82 128.13333333333333 ['43', '24'] 6406.6666666666615
83 128.13333333333333 ['43', '24'] 6406.6666666666615
84 128.13333333333333 ['43', '24'] 6406.6666666666615
85 128.13333333333333 ['43', '24'] 6406.6666666666615
86 128.13333333333333 ['43', '24'] 6406.6666666666615
87 128.13333333333333 ['43', '24'] 6406.6666666666615
88 128.13333333333333 ['43', '24'] 6406.6666666666615
89 128.13333333333333 ['43', '24'] 6406.6666666666615
90 128.13333333333333 ['43', '24'] 6406.6666666666615
91 128.13333333333333 ['43', '24'] 6406.6666666666615
92 128.13333333333333 ['43', '24'] 6406.6666666666615
93 128.13333333333333 ['43', '24'] 6406.6666666666615
94 128.13333333333333 ['43', '24'] 6406.6666666666615
95 128.13333333333333 ['43', '24'] 6406.6666666666615
96 128.13333333333333 ['43', '24'] 6406.6666666666615
97 128.13333333333333 ['43', '24'] 6406.6666666666615
98 128.13333333333333 ['43', '24'] 6406.6666666666615
99 128.13333333333333 ['43', '24'] 6406.6666666666615
100 128.13333333333333 ['43', '24'] 6406.6666666666615
101 128.13333333333333 ['43', '24'] 6406.6666666666615
102 128.13333333333333 ['43', '24'] 6406.6666666666615
103 128.13333333333333 ['43', '24'] 6406.6666666666615
104 128.13333333333333 ['43', '24'] 6406.6666666666615
105 128.13333333333333 ['43', '24'] 6406.6666666666615
106 128.13333333333333 ['43', '24'] 6406.6666666666615
107 128.13333333333333 ['43', '24'] 6406.6666666666615
108 128.13333333333333 ['43', '24'] 6406.6666666666615
109 128.13333333333333 ['43', '24'] 6406.6666666666615
110 128.13333333333333 ['43', '24'] 6406.6666666666615
111 128.13333333333333 ['43', '24'] 6406.6666666666615
112 128.13333333333333 ['43', '24'] 6406.6666666666615
113 128.13333333333333 ['43', '24'] 6406.6666666666615
114 128.13333333333333 ['43', '24'] 6406.6666666666615
115 128.13333333333333 ['43', '24'] 6406.6666666666615
116 128.13333333333333 ['43', '24'] 6406.6666666666615
117 128.13333333333333 ['43', '24'] 6406.6666666666615
118 128.13333333333333 ['43', '24'] 6406.6666666666615
119 128.13333333333333 ['43', '24'] 6406.6666666666615
120 128.13333333333333 ['43', '24'] 6406.6666666666615
121 128.13333333333333 ['43', '24'] 6406.6666666666615
122 128.13333333333333 ['43', '24'] 6406.6666666666615
123 128.13333333333333 ['43', '24'] 6406.6666666666615
124 128.13333333333333 ['43', '24'] 6406.6666666666615
125 128.13333333333333 ['43', '24'] 6406.6666666666615
126 128.13333333333333 ['43', '24'] 6406.6666666666615
127 128.13333333333333 ['43', '24'] 6406.6666666666615
128 128.13333333333333 ['43', '24'] 6406.6666666666615
129 128.13333333333333 ['43', '24'] 6406.6666666666615
130 128.13333333333333 ['43', '24'] 6406.6666666666615
131 128.13333333333333 ['43', '24'] 6406.6666666666615
132 128.13333333333333 ['43', '24'] 6406.6666666666615
133 128.13333333333333 ['43', '24'] 6406.6666666666615
134 128.13333333333333 ['43', '24'] 6406.6666666666615
135 128.13333333333333 ['43', '24'] 6406.6666666666615
136 128.13333333333333 ['43', '24'] 6406.6666666666615
137 128.13333333333333 ['43', '24'] 6406.6666666666615
138 128.13333333333333 ['43', '24'] 6406.6666666666615
139 128.13333333333333 ['43', '24'] 6406.6666666666615
140 128.13333333333333 ['43', '24'] 6406.6666666666615
141 128.13333333333333 ['43', '24'] 6406.6666666666615
142 128.13333333333333 ['43', '24'] 6406.6666666666615
143 128.13333333333333 ['43', '24'] 6406.6666666666615
144 128.13333333333333 ['43', '24'] 6406.6666666666615
145 128.13333333333333 ['43', '24'] 6406.6666666666615
146 128.13333333333333 ['43', '24'] 6406.6666666666615
147 128.13333333333333 ['43', '24'] 6406.6666666666615
148 128.13333333333333 ['43', '24'] 6406.6666666666615
149 128.13333333333333 ['43', '24'] 6406.6666666666615
150 128.13333333333333 ['43', '24'] 6406.6666666666615
151 128.13333333333333 ['43', '24'] 6406.6666666666615
152 128.13333333333333 ['43', '24'] 6406.6666666666615
153 128.13333333333333 ['43', '24'] 6406.6666666666615
154 128.13333333333333 ['43', '24'] 6406.6666666666615
155 128.13333333333333 ['43', '24'] 6406.6666666666615
156 128.13333333333333 ['43', '24'] 6406.6666666666615
157 128.13333333333333 ['43', '24'] 6406.6666666666615
158 128.13333333333333 ['43', '24'] 6406.6666666666615
159 128.13333333333333 ['43', '24'] 6406.6666666666615
160 128.13333333333333 ['43', '24'] 6406.6666666666615
161 128.13333333333333 ['43', '24'] 6406.6666666666615
162 128.13333333333333 ['43', '24'] 6406.6666666666615
163 128.13333333333333 ['43', '24'] 6406.6666666666615
164 128.13333333333333 ['43', '24'] 6406.6666666666615
165 128.13333333333333 ['43', '24'] 6406.6666666666615
166 128.13333333333333 ['43', '24'] 6406.6666666666615
167 128.13333333333333 ['43', '24'] 6406.6666666666615
168 128.13333333333333 ['43', '24'] 6406.6666666666615
169 128.13333333333333 ['43', '24'] 6406.6666666666615
170 128.13333333333333 ['43', '24'] 6406.6666666666615
171 128.13333333333333 ['43', '24'] 6406.6666666666615
172 128.13333333333333 ['43', '24'] 6406.6666666666615
173 128.13333333333333 ['43', '24'] 6406.6666666666615
174 128.13333333333333 ['43', '24'] 6406.6666666666615
175 128.13333333333333 ['43', '24'] 6406.6666666666615
176 128.13333333333333 ['43', '24'] 6406.6666666666615
177 128.13333333333333 ['43', '24'] 6406.6666666666615
178 128.13333333333333 ['43', '24'] 6406.6666666666615
179 128.13333333333333 ['43', '24'] 6406.6666666666615
180 128.13333333333333 ['43', '24'] 6406.6666666666615
181 128.13333333333333 ['43', '24'] 6406.6666666666615
182 128.13333333333333 ['43', '24'] 6406.6666666666615
183 128.13333333333333 ['43', '24'] 6406.6666666666615
184 128.13333333333333 ['43', '24'] 6406.6666666666615
185 128.13333333333333 ['43', '24'] 6406.6666666666615
186 128.13333333333333 ['43', '24'] 6406.6666666666615
187 128.13333333333333 ['43', '24'] 6406.6666666666615
188 128.13333333333333 ['43', '24'] 6406.6666666666615
189 128.13333333333333 ['43', '24'] 6406.6666666666615
190 128.13333333333333 ['43', '24'] 6406.6666666666615
191 128.13333333333333 ['43', '24'] 6406.6666666666615
192 128.13333333333333 ['43', '24'] 6406.6666666666615
193 128.13333333333333 ['43', '24'] 6406.6666666666615
194 128.13333333333333 ['43', '24'] 6406.6666666666615
195 128.13333333333333 ['43', '24'] 6406.6666666666615
196 128.13333333333333 ['43', '24'] 6406.6666666666615
197 128.13333333333333 ['43', '24'] 6406.6666666666615
198 128.13333333333333 ['43', '24'] 6406.6666666666615
199 128.13333333333333 ['43', '24'] 6406.6666666666615
