0 35.526315789473685 ['39', '34', '4', '30', '50', '47'] 1882.0175438596484
1 35.50877192982456 ['50', '46', '40', '53', '17', '19'] 1854.9122807017545
2 34.94736842105263 ['19', '8', '59', '41', '30', '4'] 1819.964912280702
3 34.40350877192982 ['30', '41', '34', '8', '23', '19'] 1787.947368421053
4 33.14035087719298 ['50', '8', '4', '34', '40', '41'] 1760.263157894737
5 33.14035087719298 ['50', '8', '4', '34', '40', '41'] 1726.5438596491224
6 33.03508771929825 ['19', '8', '30', '50', '34', '40'] 1700.7894736842104
7 33.03508771929825 ['19', '8', '30', '50', '34', '40'] 1681.473684210527
8 32.96491228070175 ['50', '8', '40', '34', '19', '4'] 1667.2631578947369
9 32.85964912280702 ['8', '34', '50', '40', '19', '41'] 1658.719298245613
10 32.85964912280702 ['8', '34', '50', '40', '19', '41'] 1651.9824561403498
11 32.85964912280702 ['8', '34', '50', '40', '19', '41'] 1648.1052631578948
12 32.85964912280702 ['8', '34', '50', '40', '19', '41'] 1646.3508771929842
13 32.85964912280702 ['8', '34', '50', '40', '19', '41'] 1644.456140350878
14 32.85964912280702 ['8', '34', '50', '40', '19', '41'] 1642.982456140351
15 32.85964912280702 ['8', '34', '50', '40', '19', '41'] 1642.982456140351
16 32.85964912280702 ['8', '34', '50', '40', '19', '41'] 1642.982456140351
17 32.85964912280702 ['8', '34', '50', '40', '19', '41'] 1642.982456140351
18 32.85964912280702 ['8', '34', '50', '40', '19', '41'] 1642.982456140351
19 32.85964912280702 ['8', '34', '50', '40', '19', '41'] 1642.982456140351
20 32.85964912280702 ['8', '34', '50', '40', '19', '41'] 1642.982456140351
21 32.85964912280702 ['8', '34', '50', '40', '19', '41'] 1642.982456140351
22 32.85964912280702 ['8', '34', '50', '40', '19', '41'] 1642.982456140351
23 32.85964912280702 ['8', '34', '50', '40', '19', '41'] 1642.982456140351
24 32.85964912280702 ['8', '34', '50', '40', '19', '41'] 1642.982456140351
25 32.85964912280702 ['8', '34', '50', '40', '19', '41'] 1642.982456140351
26 32.85964912280702 ['8', '34', '50', '40', '19', '41'] 1642.982456140351
27 32.85964912280702 ['8', '34', '50', '40', '19', '41'] 1642.982456140351
28 32.85964912280702 ['8', '34', '50', '40', '19', '41'] 1642.982456140351
29 32.85964912280702 ['8', '34', '50', '40', '19', '41'] 1642.982456140351
30 32.85964912280702 ['8', '34', '50', '40', '19', '41'] 1642.982456140351
31 32.85964912280702 ['8', '34', '50', '40', '19', '41'] 1642.982456140351
32 32.85964912280702 ['8', '34', '50', '40', '19', '41'] 1642.982456140351
33 32.85964912280702 ['8', '34', '50', '40', '19', '41'] 1642.982456140351
34 32.85964912280702 ['8', '34', '50', '40', '19', '41'] 1642.982456140351
35 32.85964912280702 ['8', '34', '50', '40', '19', '41'] 1642.982456140351
36 32.85964912280702 ['8', '34', '50', '40', '19', '41'] 1642.982456140351
37 32.85964912280702 ['8', '34', '50', '40', '19', '41'] 1642.982456140351
38 32.85964912280702 ['8', '34', '50', '40', '19', '41'] 1642.982456140351
39 32.85964912280702 ['8', '34', '50', '40', '19', '41'] 1642.982456140351
40 32.85964912280702 ['8', '34', '50', '40', '19', '41'] 1642.982456140351
41 32.85964912280702 ['8', '34', '50', '40', '19', '41'] 1642.982456140351
42 32.85964912280702 ['8', '34', '50', '40', '19', '41'] 1642.982456140351
43 32.85964912280702 ['8', '34', '50', '40', '19', '41'] 1642.982456140351
44 32.85964912280702 ['8', '34', '50', '40', '19', '41'] 1642.982456140351
45 32.85964912280702 ['8', '34', '50', '40', '19', '41'] 1642.982456140351
46 32.85964912280702 ['8', '34', '50', '40', '19', '41'] 1642.982456140351
47 32.85964912280702 ['8', '34', '50', '40', '19', '41'] 1642.982456140351
48 32.85964912280702 ['8', '34', '50', '40', '19', '41'] 1642.982456140351
49 32.85964912280702 ['8', '34', '50', '40', '19', '41'] 1642.982456140351
50 32.85964912280702 ['8', '34', '50', '40', '19', '41'] 1642.982456140351
51 32.85964912280702 ['8', '34', '50', '40', '19', '41'] 1642.982456140351
52 32.85964912280702 ['8', '34', '50', '40', '19', '41'] 1642.982456140351
53 32.85964912280702 ['8', '34', '50', '40', '19', '41'] 1642.982456140351
54 32.85964912280702 ['8', '34', '50', '40', '19', '41'] 1642.982456140351
55 32.85964912280702 ['8', '34', '50', '40', '19', '41'] 1642.982456140351
56 32.85964912280702 ['8', '34', '50', '40', '19', '41'] 1642.982456140351
57 32.85964912280702 ['8', '34', '50', '40', '19', '41'] 1642.982456140351
58 32.85964912280702 ['8', '34', '50', '40', '19', '41'] 1642.982456140351
59 32.85964912280702 ['8', '34', '50', '40', '19', '41'] 1642.982456140351
60 32.85964912280702 ['8', '34', '50', '40', '19', '41'] 1642.982456140351
61 32.85964912280702 ['8', '34', '50', '40', '19', '41'] 1642.982456140351
62 32.85964912280702 ['8', '34', '50', '40', '19', '41'] 1642.982456140351
63 32.85964912280702 ['8', '34', '50', '40', '19', '41'] 1642.982456140351
64 32.85964912280702 ['8', '34', '50', '40', '19', '41'] 1642.982456140351
65 32.85964912280702 ['8', '34', '50', '40', '19', '41'] 1642.982456140351
66 32.85964912280702 ['8', '34', '50', '40', '19', '41'] 1642.982456140351
67 32.85964912280702 ['8', '34', '50', '40', '19', '41'] 1642.982456140351
68 32.85964912280702 ['8', '34', '50', '40', '19', '41'] 1642.982456140351
69 32.85964912280702 ['8', '34', '50', '40', '19', '41'] 1642.982456140351
70 32.85964912280702 ['8', '34', '50', '40', '19', '41'] 1642.982456140351
71 32.85964912280702 ['8', '34', '50', '40', '19', '41'] 1642.982456140351
72 32.85964912280702 ['8', '34', '50', '40', '19', '41'] 1642.982456140351
73 32.85964912280702 ['8', '34', '50', '40', '19', '41'] 1642.982456140351
74 32.85964912280702 ['8', '34', '50', '40', '19', '41'] 1642.982456140351
75 32.85964912280702 ['8', '34', '50', '40', '19', '41'] 1642.982456140351
76 32.85964912280702 ['8', '34', '50', '40', '19', '41'] 1642.982456140351
77 32.85964912280702 ['8', '34', '50', '40', '19', '41'] 1642.982456140351
78 32.85964912280702 ['8', '34', '50', '40', '19', '41'] 1642.982456140351
79 32.85964912280702 ['8', '34', '50', '40', '19', '41'] 1642.982456140351
80 32.85964912280702 ['8', '34', '50', '40', '19', '41'] 1642.982456140351
81 32.85964912280702 ['8', '34', '50', '40', '19', '41'] 1642.982456140351
82 32.85964912280702 ['8', '34', '50', '40', '19', '41'] 1642.982456140351
83 32.85964912280702 ['8', '34', '50', '40', '19', '41'] 1642.982456140351
84 32.85964912280702 ['8', '34', '50', '40', '19', '41'] 1642.982456140351
85 32.85964912280702 ['8', '34', '50', '40', '19', '41'] 1642.982456140351
86 32.85964912280702 ['8', '34', '50', '40', '19', '41'] 1642.982456140351
87 32.85964912280702 ['8', '34', '50', '40', '19', '41'] 1642.982456140351
88 32.85964912280702 ['8', '34', '50', '40', '19', '41'] 1642.982456140351
89 32.85964912280702 ['8', '34', '50', '40', '19', '41'] 1642.982456140351
90 32.85964912280702 ['8', '34', '50', '40', '19', '41'] 1642.982456140351
91 32.85964912280702 ['8', '34', '50', '40', '19', '41'] 1642.982456140351
92 32.85964912280702 ['8', '34', '50', '40', '19', '41'] 1642.982456140351
93 32.85964912280702 ['8', '34', '50', '40', '19', '41'] 1642.982456140351
94 32.85964912280702 ['8', '34', '50', '40', '19', '41'] 1642.982456140351
95 32.85964912280702 ['8', '34', '50', '40', '19', '41'] 1642.982456140351
96 32.85964912280702 ['8', '34', '50', '40', '19', '41'] 1642.982456140351
97 32.85964912280702 ['8', '34', '50', '40', '19', '41'] 1642.982456140351
98 32.85964912280702 ['8', '34', '50', '40', '19', '41'] 1642.982456140351
99 32.85964912280702 ['8', '34', '50', '40', '19', '41'] 1642.982456140351
100 32.85964912280702 ['8', '34', '50', '40', '19', '41'] 1642.982456140351
101 32.85964912280702 ['8', '34', '50', '40', '19', '41'] 1642.982456140351
102 32.85964912280702 ['8', '34', '50', '40', '19', '41'] 1642.982456140351
103 32.85964912280702 ['8', '34', '50', '40', '19', '41'] 1642.982456140351
104 32.85964912280702 ['8', '34', '50', '40', '19', '41'] 1642.982456140351
105 32.85964912280702 ['8', '34', '50', '40', '19', '41'] 1642.982456140351
106 32.85964912280702 ['8', '34', '50', '40', '19', '41'] 1642.982456140351
107 32.85964912280702 ['8', '34', '50', '40', '19', '41'] 1642.982456140351
108 32.85964912280702 ['8', '34', '50', '40', '19', '41'] 1642.982456140351
109 32.85964912280702 ['8', '34', '50', '40', '19', '41'] 1642.982456140351
110 32.85964912280702 ['8', '34', '50', '40', '19', '41'] 1642.982456140351
111 32.85964912280702 ['8', '34', '50', '40', '19', '41'] 1642.982456140351
112 32.85964912280702 ['8', '34', '50', '40', '19', '41'] 1642.982456140351
113 32.85964912280702 ['8', '34', '50', '40', '19', '41'] 1642.982456140351
114 32.85964912280702 ['8', '34', '50', '40', '19', '41'] 1642.982456140351
115 32.85964912280702 ['8', '34', '50', '40', '19', '41'] 1642.982456140351
116 32.85964912280702 ['8', '34', '50', '40', '19', '41'] 1642.982456140351
117 32.85964912280702 ['8', '34', '50', '40', '19', '41'] 1642.982456140351
118 32.85964912280702 ['8', '34', '50', '40', '19', '41'] 1642.982456140351
119 32.85964912280702 ['8', '34', '50', '40', '19', '41'] 1642.982456140351
120 32.85964912280702 ['8', '34', '50', '40', '19', '41'] 1642.982456140351
121 32.85964912280702 ['8', '34', '50', '40', '19', '41'] 1642.982456140351
122 32.85964912280702 ['8', '34', '50', '40', '19', '41'] 1642.982456140351
123 32.85964912280702 ['8', '34', '50', '40', '19', '41'] 1642.982456140351
124 32.85964912280702 ['8', '34', '50', '40', '19', '41'] 1642.982456140351
125 32.85964912280702 ['8', '34', '50', '40', '19', '41'] 1642.982456140351
126 32.85964912280702 ['8', '34', '50', '40', '19', '41'] 1642.982456140351
127 32.85964912280702 ['8', '34', '50', '40', '19', '41'] 1642.982456140351
128 32.85964912280702 ['8', '34', '50', '40', '19', '41'] 1642.982456140351
129 32.85964912280702 ['8', '34', '50', '40', '19', '41'] 1642.982456140351
130 32.85964912280702 ['8', '34', '50', '40', '19', '41'] 1642.982456140351
131 32.85964912280702 ['8', '34', '50', '40', '19', '41'] 1642.982456140351
132 32.85964912280702 ['8', '34', '50', '40', '19', '41'] 1642.982456140351
133 32.85964912280702 ['8', '34', '50', '40', '19', '41'] 1642.982456140351
134 32.85964912280702 ['8', '34', '50', '40', '19', '41'] 1642.982456140351
135 32.85964912280702 ['8', '34', '50', '40', '19', '41'] 1642.982456140351
136 32.85964912280702 ['8', '34', '50', '40', '19', '41'] 1642.982456140351
137 32.85964912280702 ['8', '34', '50', '40', '19', '41'] 1642.982456140351
138 32.85964912280702 ['8', '34', '50', '40', '19', '41'] 1642.982456140351
139 32.85964912280702 ['8', '34', '50', '40', '19', '41'] 1642.982456140351
140 32.85964912280702 ['8', '34', '50', '40', '19', '41'] 1642.982456140351
141 32.85964912280702 ['8', '34', '50', '40', '19', '41'] 1642.982456140351
142 32.85964912280702 ['8', '34', '50', '40', '19', '41'] 1642.982456140351
143 32.85964912280702 ['8', '34', '50', '40', '19', '41'] 1642.982456140351
144 32.85964912280702 ['8', '34', '50', '40', '19', '41'] 1642.982456140351
145 32.85964912280702 ['8', '34', '50', '40', '19', '41'] 1642.982456140351
146 32.85964912280702 ['8', '34', '50', '40', '19', '41'] 1642.982456140351
147 32.85964912280702 ['8', '34', '50', '40', '19', '41'] 1642.982456140351
148 32.85964912280702 ['8', '34', '50', '40', '19', '41'] 1642.982456140351
149 32.85964912280702 ['8', '34', '50', '40', '19', '41'] 1642.982456140351
150 32.85964912280702 ['8', '34', '50', '40', '19', '41'] 1642.982456140351
151 32.85964912280702 ['8', '34', '50', '40', '19', '41'] 1642.982456140351
152 32.85964912280702 ['8', '34', '50', '40', '19', '41'] 1642.982456140351
153 32.85964912280702 ['8', '34', '50', '40', '19', '41'] 1642.982456140351
154 32.85964912280702 ['8', '34', '50', '40', '19', '41'] 1642.982456140351
155 32.85964912280702 ['8', '34', '50', '40', '19', '41'] 1642.982456140351
156 32.85964912280702 ['8', '34', '50', '40', '19', '41'] 1642.982456140351
157 32.85964912280702 ['8', '34', '50', '40', '19', '41'] 1642.982456140351
158 32.85964912280702 ['8', '34', '50', '40', '19', '41'] 1642.982456140351
159 32.85964912280702 ['8', '34', '50', '40', '19', '41'] 1642.982456140351
160 32.85964912280702 ['8', '34', '50', '40', '19', '41'] 1642.982456140351
161 32.85964912280702 ['8', '34', '50', '40', '19', '41'] 1642.982456140351
162 32.85964912280702 ['8', '34', '50', '40', '19', '41'] 1642.982456140351
163 32.85964912280702 ['8', '34', '50', '40', '19', '41'] 1642.982456140351
164 32.85964912280702 ['8', '34', '50', '40', '19', '41'] 1642.982456140351
165 32.85964912280702 ['8', '34', '50', '40', '19', '41'] 1642.982456140351
166 32.85964912280702 ['8', '34', '50', '40', '19', '41'] 1642.982456140351
167 32.85964912280702 ['8', '34', '50', '40', '19', '41'] 1642.982456140351
168 32.85964912280702 ['8', '34', '50', '40', '19', '41'] 1642.982456140351
169 32.85964912280702 ['8', '34', '50', '40', '19', '41'] 1642.982456140351
170 32.85964912280702 ['8', '34', '50', '40', '19', '41'] 1642.982456140351
171 32.85964912280702 ['8', '34', '50', '40', '19', '41'] 1642.982456140351
172 32.85964912280702 ['8', '34', '50', '40', '19', '41'] 1642.982456140351
173 32.85964912280702 ['8', '34', '50', '40', '19', '41'] 1642.982456140351
174 32.85964912280702 ['8', '34', '50', '40', '19', '41'] 1642.982456140351
175 32.85964912280702 ['8', '34', '50', '40', '19', '41'] 1642.982456140351
176 32.85964912280702 ['8', '34', '50', '40', '19', '41'] 1642.982456140351
177 32.85964912280702 ['8', '34', '50', '40', '19', '41'] 1642.982456140351
178 32.85964912280702 ['8', '34', '50', '40', '19', '41'] 1642.982456140351
179 32.85964912280702 ['8', '34', '50', '40', '19', '41'] 1642.982456140351
180 32.85964912280702 ['8', '34', '50', '40', '19', '41'] 1642.982456140351
181 32.85964912280702 ['8', '34', '50', '40', '19', '41'] 1642.982456140351
182 32.85964912280702 ['8', '34', '50', '40', '19', '41'] 1642.982456140351
183 32.85964912280702 ['8', '34', '50', '40', '19', '41'] 1642.982456140351
184 32.85964912280702 ['8', '34', '50', '40', '19', '41'] 1642.982456140351
185 32.85964912280702 ['8', '34', '50', '40', '19', '41'] 1642.982456140351
186 32.85964912280702 ['8', '34', '50', '40', '19', '41'] 1642.982456140351
187 32.85964912280702 ['8', '34', '50', '40', '19', '41'] 1642.982456140351
188 32.85964912280702 ['8', '34', '50', '40', '19', '41'] 1642.982456140351
189 32.85964912280702 ['8', '34', '50', '40', '19', '41'] 1642.982456140351
190 32.85964912280702 ['8', '34', '50', '40', '19', '41'] 1642.982456140351
191 32.85964912280702 ['8', '34', '50', '40', '19', '41'] 1642.982456140351
192 32.85964912280702 ['8', '34', '50', '40', '19', '41'] 1642.982456140351
193 32.85964912280702 ['8', '34', '50', '40', '19', '41'] 1642.982456140351
194 32.85964912280702 ['8', '34', '50', '40', '19', '41'] 1642.982456140351
195 32.85964912280702 ['8', '34', '50', '40', '19', '41'] 1642.982456140351
196 32.85964912280702 ['8', '34', '50', '40', '19', '41'] 1642.982456140351
197 32.85964912280702 ['8', '34', '50', '40', '19', '41'] 1642.982456140351
198 32.85964912280702 ['8', '34', '50', '40', '19', '41'] 1642.982456140351
199 32.85964912280702 ['8', '34', '50', '40', '19', '41'] 1642.982456140351
