0 8.11111111111111 ['32', '23', '19', '15'] 425.388888888889
1 8.027777777777779 ['22', '34', '19', '38'] 416.55555555555566
2 7.888888888888889 ['19', '10', '34', '24'] 409.91666666666646
3 7.694444444444445 ['34', '6', '10', '19'] 403.11111111111154
4 7.694444444444445 ['34', '6', '10', '19'] 397.3611111111109
5 7.694444444444445 ['34', '6', '10', '19'] 392.3370870870873
6 7.611111111111111 ['34', '10', '28', '19'] 387.1148648648648
7 7.583333333333333 ['19', '34', '2', '28'] 384.58333333333366
8 7.583333333333333 ['19', '34', '2', '28'] 383.166666666667
9 7.583333333333333 ['19', '34', '2', '28'] 381.4444444444448
10 7.583333333333333 ['19', '34', '2', '28'] 380.1388888888885
11 7.583333333333333 ['19', '34', '2', '28'] 379.8055555555552
12 7.583333333333333 ['19', '34', '2', '28'] 379.16666666666646
13 7.583333333333333 ['19', '34', '2', '28'] 379.16666666666646
14 7.583333333333333 ['19', '34', '2', '28'] 379.16666666666646
15 7.583333333333333 ['19', '34', '2', '28'] 379.16666666666646
16 7.583333333333333 ['19', '34', '2', '28'] 379.16666666666646
17 7.583333333333333 ['19', '34', '2', '28'] 379.16666666666646
18 7.583333333333333 ['19', '34', '2', '28'] 379.16666666666646
19 7.583333333333333 ['19', '34', '2', '28'] 379.16666666666646
20 7.583333333333333 ['19', '34', '2', '28'] 379.16666666666646
21 7.583333333333333 ['19', '34', '2', '28'] 379.16666666666646
22 7.583333333333333 ['19', '34', '2', '28'] 379.16666666666646
23 7.583333333333333 ['19', '34', '2', '28'] 379.16666666666646
24 7.583333333333333 ['19', '34', '2', '28'] 379.16666666666646
25 7.583333333333333 ['19', '34', '2', '28'] 379.16666666666646
26 7.583333333333333 ['19', '34', '2', '28'] 379.16666666666646
27 7.583333333333333 ['19', '34', '2', '28'] 379.16666666666646
28 7.583333333333333 ['19', '34', '2', '28'] 379.16666666666646
29 7.583333333333333 ['19', '34', '2', '28'] 379.16666666666646
30 7.583333333333333 ['19', '34', '2', '28'] 379.16666666666646
31 7.583333333333333 ['19', '34', '2', '28'] 379.16666666666646
32 7.583333333333333 ['19', '34', '2', '28'] 379.16666666666646
33 7.583333333333333 ['19', '34', '2', '28'] 379.16666666666646
34 7.583333333333333 ['19', '34', '2', '28'] 379.16666666666646
35 7.583333333333333 ['19', '34', '2', '28'] 379.16666666666646
36 7.583333333333333 ['19', '34', '2', '28'] 379.16666666666646
37 7.583333333333333 ['19', '34', '2', '28'] 379.16666666666646
38 7.583333333333333 ['19', '34', '2', '28'] 379.16666666666646
39 7.583333333333333 ['19', '34', '2', '28'] 379.16666666666646
40 7.583333333333333 ['19', '34', '2', '28'] 379.16666666666646
41 7.583333333333333 ['19', '34', '2', '28'] 379.16666666666646
42 7.583333333333333 ['19', '34', '2', '28'] 379.16666666666646
43 7.583333333333333 ['19', '34', '2', '28'] 379.16666666666646
44 7.583333333333333 ['19', '34', '2', '28'] 379.16666666666646
45 7.583333333333333 ['19', '34', '2', '28'] 379.16666666666646
46 7.583333333333333 ['19', '34', '2', '28'] 379.16666666666646
47 7.583333333333333 ['19', '34', '2', '28'] 379.16666666666646
48 7.583333333333333 ['19', '34', '2', '28'] 379.16666666666646
49 7.583333333333333 ['19', '34', '2', '28'] 379.16666666666646
50 7.583333333333333 ['19', '34', '2', '28'] 379.16666666666646
51 7.583333333333333 ['19', '34', '2', '28'] 379.16666666666646
52 7.583333333333333 ['19', '34', '2', '28'] 379.16666666666646
53 7.583333333333333 ['19', '34', '2', '28'] 379.16666666666646
54 7.583333333333333 ['19', '34', '2', '28'] 379.16666666666646
55 7.583333333333333 ['19', '34', '2', '28'] 379.16666666666646
56 7.583333333333333 ['19', '34', '2', '28'] 379.16666666666646
57 7.583333333333333 ['19', '34', '2', '28'] 379.16666666666646
58 7.583333333333333 ['19', '34', '2', '28'] 379.16666666666646
59 7.583333333333333 ['19', '34', '2', '28'] 379.16666666666646
60 7.583333333333333 ['19', '34', '2', '28'] 379.16666666666646
61 7.583333333333333 ['19', '34', '2', '28'] 379.16666666666646
62 7.583333333333333 ['19', '34', '2', '28'] 379.16666666666646
63 7.583333333333333 ['19', '34', '2', '28'] 379.16666666666646
64 7.583333333333333 ['19', '34', '2', '28'] 379.16666666666646
65 7.583333333333333 ['19', '34', '2', '28'] 379.16666666666646
66 7.583333333333333 ['19', '34', '2', '28'] 379.16666666666646
67 7.583333333333333 ['19', '34', '2', '28'] 379.16666666666646
68 7.583333333333333 ['19', '34', '2', '28'] 379.16666666666646
69 7.583333333333333 ['19', '34', '2', '28'] 379.16666666666646
70 7.583333333333333 ['19', '34', '2', '28'] 379.16666666666646
71 7.583333333333333 ['19', '34', '2', '28'] 379.16666666666646
72 7.583333333333333 ['19', '34', '2', '28'] 379.16666666666646
73 7.583333333333333 ['19', '34', '2', '28'] 379.16666666666646
74 7.583333333333333 ['19', '34', '2', '28'] 379.16666666666646
75 7.583333333333333 ['19', '34', '2', '28'] 379.16666666666646
76 7.583333333333333 ['19', '34', '2', '28'] 379.16666666666646
77 7.583333333333333 ['19', '34', '2', '28'] 379.16666666666646
78 7.583333333333333 ['19', '34', '2', '28'] 379.16666666666646
79 7.583333333333333 ['19', '34', '2', '28'] 379.16666666666646
80 7.583333333333333 ['19', '34', '2', '28'] 379.16666666666646
81 7.583333333333333 ['19', '34', '2', '28'] 379.16666666666646
82 7.583333333333333 ['19', '34', '2', '28'] 379.16666666666646
83 7.583333333333333 ['19', '34', '2', '28'] 379.16666666666646
84 7.583333333333333 ['19', '34', '2', '28'] 379.16666666666646
85 7.583333333333333 ['19', '34', '2', '28'] 379.16666666666646
86 7.583333333333333 ['19', '34', '2', '28'] 379.16666666666646
87 7.583333333333333 ['19', '34', '2', '28'] 379.16666666666646
88 7.583333333333333 ['19', '34', '2', '28'] 379.16666666666646
89 7.583333333333333 ['19', '34', '2', '28'] 379.16666666666646
90 7.583333333333333 ['19', '34', '2', '28'] 379.16666666666646
91 7.583333333333333 ['19', '34', '2', '28'] 379.16666666666646
92 7.583333333333333 ['19', '34', '2', '28'] 379.16666666666646
93 7.583333333333333 ['19', '34', '2', '28'] 379.16666666666646
94 7.583333333333333 ['19', '34', '2', '28'] 379.16666666666646
95 7.583333333333333 ['19', '34', '2', '28'] 379.16666666666646
96 7.583333333333333 ['19', '34', '2', '28'] 379.16666666666646
97 7.583333333333333 ['19', '34', '2', '28'] 379.16666666666646
98 7.583333333333333 ['19', '34', '2', '28'] 379.16666666666646
99 7.583333333333333 ['19', '34', '2', '28'] 379.16666666666646
100 7.583333333333333 ['19', '34', '2', '28'] 379.16666666666646
101 7.583333333333333 ['19', '34', '2', '28'] 379.16666666666646
102 7.583333333333333 ['19', '34', '2', '28'] 379.16666666666646
103 7.583333333333333 ['19', '34', '2', '28'] 379.16666666666646
104 7.583333333333333 ['19', '34', '2', '28'] 379.16666666666646
105 7.583333333333333 ['19', '34', '2', '28'] 379.16666666666646
106 7.583333333333333 ['19', '34', '2', '28'] 379.16666666666646
107 7.583333333333333 ['19', '34', '2', '28'] 379.16666666666646
108 7.583333333333333 ['19', '34', '2', '28'] 379.16666666666646
109 7.583333333333333 ['19', '34', '2', '28'] 379.16666666666646
110 7.583333333333333 ['19', '34', '2', '28'] 379.16666666666646
111 7.583333333333333 ['19', '34', '2', '28'] 379.16666666666646
112 7.583333333333333 ['19', '34', '2', '28'] 379.16666666666646
113 7.583333333333333 ['19', '34', '2', '28'] 379.16666666666646
114 7.583333333333333 ['19', '34', '2', '28'] 379.16666666666646
115 7.583333333333333 ['19', '34', '2', '28'] 379.16666666666646
116 7.583333333333333 ['19', '34', '2', '28'] 379.16666666666646
117 7.583333333333333 ['19', '34', '2', '28'] 379.16666666666646
118 7.583333333333333 ['19', '34', '2', '28'] 379.16666666666646
119 7.583333333333333 ['19', '34', '2', '28'] 379.16666666666646
120 7.583333333333333 ['19', '34', '2', '28'] 379.16666666666646
121 7.583333333333333 ['19', '34', '2', '28'] 379.16666666666646
122 7.583333333333333 ['19', '34', '2', '28'] 379.16666666666646
123 7.583333333333333 ['19', '34', '2', '28'] 379.16666666666646
124 7.583333333333333 ['19', '34', '2', '28'] 379.16666666666646
125 7.583333333333333 ['19', '34', '2', '28'] 379.16666666666646
126 7.583333333333333 ['19', '34', '2', '28'] 379.16666666666646
127 7.583333333333333 ['19', '34', '2', '28'] 379.16666666666646
128 7.583333333333333 ['19', '34', '2', '28'] 379.16666666666646
129 7.583333333333333 ['19', '34', '2', '28'] 379.16666666666646
130 7.583333333333333 ['19', '34', '2', '28'] 379.16666666666646
131 7.583333333333333 ['19', '34', '2', '28'] 379.16666666666646
132 7.583333333333333 ['19', '34', '2', '28'] 379.16666666666646
133 7.583333333333333 ['19', '34', '2', '28'] 379.16666666666646
134 7.583333333333333 ['19', '34', '2', '28'] 379.16666666666646
135 7.583333333333333 ['19', '34', '2', '28'] 379.16666666666646
136 7.583333333333333 ['19', '34', '2', '28'] 379.16666666666646
137 7.583333333333333 ['19', '34', '2', '28'] 379.16666666666646
138 7.583333333333333 ['19', '34', '2', '28'] 379.16666666666646
139 7.583333333333333 ['19', '34', '2', '28'] 379.16666666666646
140 7.583333333333333 ['19', '34', '2', '28'] 379.16666666666646
141 7.583333333333333 ['19', '34', '2', '28'] 379.16666666666646
142 7.583333333333333 ['19', '34', '2', '28'] 379.16666666666646
143 7.583333333333333 ['19', '34', '2', '28'] 379.16666666666646
144 7.583333333333333 ['19', '34', '2', '28'] 379.16666666666646
145 7.583333333333333 ['19', '34', '2', '28'] 379.16666666666646
146 7.583333333333333 ['19', '34', '2', '28'] 379.16666666666646
147 7.583333333333333 ['19', '34', '2', '28'] 379.16666666666646
148 7.583333333333333 ['19', '34', '2', '28'] 379.16666666666646
149 7.583333333333333 ['19', '34', '2', '28'] 379.16666666666646
150 7.583333333333333 ['19', '34', '2', '28'] 379.16666666666646
151 7.583333333333333 ['19', '34', '2', '28'] 379.16666666666646
152 7.583333333333333 ['19', '34', '2', '28'] 379.16666666666646
153 7.583333333333333 ['19', '34', '2', '28'] 379.16666666666646
154 7.583333333333333 ['19', '34', '2', '28'] 379.16666666666646
155 7.583333333333333 ['19', '34', '2', '28'] 379.16666666666646
156 7.583333333333333 ['19', '34', '2', '28'] 379.16666666666646
157 7.583333333333333 ['19', '34', '2', '28'] 379.16666666666646
158 7.583333333333333 ['19', '34', '2', '28'] 379.16666666666646
159 7.583333333333333 ['19', '34', '2', '28'] 379.16666666666646
160 7.583333333333333 ['19', '34', '2', '28'] 379.16666666666646
161 7.583333333333333 ['19', '34', '2', '28'] 379.16666666666646
162 7.583333333333333 ['19', '34', '2', '28'] 379.16666666666646
163 7.583333333333333 ['19', '34', '2', '28'] 379.16666666666646
164 7.583333333333333 ['19', '34', '2', '28'] 379.16666666666646
165 7.583333333333333 ['19', '34', '2', '28'] 379.16666666666646
166 7.583333333333333 ['19', '34', '2', '28'] 379.16666666666646
167 7.583333333333333 ['19', '34', '2', '28'] 379.16666666666646
168 7.583333333333333 ['19', '34', '2', '28'] 379.16666666666646
169 7.583333333333333 ['19', '34', '2', '28'] 379.16666666666646
170 7.583333333333333 ['19', '34', '2', '28'] 379.16666666666646
171 7.583333333333333 ['19', '34', '2', '28'] 379.16666666666646
172 7.583333333333333 ['19', '34', '2', '28'] 379.16666666666646
173 7.583333333333333 ['19', '34', '2', '28'] 379.16666666666646
174 7.583333333333333 ['19', '34', '2', '28'] 379.16666666666646
175 7.583333333333333 ['19', '34', '2', '28'] 379.16666666666646
176 7.583333333333333 ['19', '34', '2', '28'] 379.16666666666646
177 7.583333333333333 ['19', '34', '2', '28'] 379.16666666666646
178 7.583333333333333 ['19', '34', '2', '28'] 379.16666666666646
179 7.583333333333333 ['19', '34', '2', '28'] 379.16666666666646
180 7.583333333333333 ['19', '34', '2', '28'] 379.16666666666646
181 7.583333333333333 ['19', '34', '2', '28'] 379.16666666666646
182 7.583333333333333 ['19', '34', '2', '28'] 379.16666666666646
183 7.583333333333333 ['19', '34', '2', '28'] 379.16666666666646
184 7.583333333333333 ['19', '34', '2', '28'] 379.16666666666646
185 7.583333333333333 ['19', '34', '2', '28'] 379.16666666666646
186 7.583333333333333 ['19', '34', '2', '28'] 379.16666666666646
187 7.583333333333333 ['19', '34', '2', '28'] 379.16666666666646
188 7.583333333333333 ['19', '34', '2', '28'] 379.16666666666646
189 7.583333333333333 ['19', '34', '2', '28'] 379.16666666666646
190 7.583333333333333 ['19', '34', '2', '28'] 379.16666666666646
191 7.583333333333333 ['19', '34', '2', '28'] 379.16666666666646
192 7.583333333333333 ['19', '34', '2', '28'] 379.16666666666646
193 7.583333333333333 ['19', '34', '2', '28'] 379.16666666666646
194 7.583333333333333 ['19', '34', '2', '28'] 379.16666666666646
195 7.583333333333333 ['19', '34', '2', '28'] 379.16666666666646
196 7.583333333333333 ['19', '34', '2', '28'] 379.16666666666646
197 7.583333333333333 ['19', '34', '2', '28'] 379.16666666666646
198 7.583333333333333 ['19', '34', '2', '28'] 379.16666666666646
199 7.583333333333333 ['19', '34', '2', '28'] 379.16666666666646
