0 284.468085106383 ['27', '10', '30', '41', '37'] 14553.638297872341
1 276.7659574468085 ['28', '36', '47', '32', '3'] 14381.978723404258
2 267.63829787234044 ['10', '19', '47', '38', '37'] 14161.315602836881
3 264.51063829787233 ['38', '10', '30', '37', '47'] 13923.539893617015
4 264.51063829787233 ['38', '10', '30', '37', '47'] 13710.761081560282
5 262.6734693877551 ['28', '47', '39'] 13545.721784990594
6 255.72340425531914 ['47', '39', '7', '37', '32'] 13369.20607179042
7 255.72340425531914 ['47', '39', '7', '37', '32'] 13191.997964611379
8 252.72340425531914 ['7', '19', '47', '39', '37'] 13059.349411636993
9 252.72340425531914 ['7', '19', '47', '39', '37'] 12913.68795954552
10 252.72340425531914 ['7', '19', '47', '39', '37'] 12819.977687798535
11 252.72340425531914 ['7', '19', '47', '39', '37'] 12745.310292734117
12 252.72340425531914 ['7', '19', '47', '39', '37'] 12686.752659574468
13 252.72340425531914 ['7', '19', '47', '39', '37'] 12643.127659574473
14 252.72340425531914 ['7', '19', '47', '39', '37'] 12636.170212765957
15 252.72340425531914 ['7', '19', '47', '39', '37'] 12636.170212765957
16 252.72340425531914 ['7', '19', '47', '39', '37'] 12636.170212765957
17 252.72340425531914 ['7', '19', '47', '39', '37'] 12636.170212765957
18 252.72340425531914 ['7', '19', '47', '39', '37'] 12636.170212765957
19 252.72340425531914 ['7', '19', '47', '39', '37'] 12636.170212765957
20 252.72340425531914 ['7', '19', '47', '39', '37'] 12636.170212765957
21 252.72340425531914 ['7', '19', '47', '39', '37'] 12636.170212765957
22 252.72340425531914 ['7', '19', '47', '39', '37'] 12636.170212765957
23 252.72340425531914 ['7', '19', '47', '39', '37'] 12636.170212765957
24 252.72340425531914 ['7', '19', '47', '39', '37'] 12636.170212765957
25 252.72340425531914 ['7', '19', '47', '39', '37'] 12636.170212765957
26 252.72340425531914 ['7', '19', '47', '39', '37'] 12636.170212765957
27 252.72340425531914 ['7', '19', '47', '39', '37'] 12636.170212765957
28 252.72340425531914 ['7', '19', '47', '39', '37'] 12636.170212765957
29 252.72340425531914 ['7', '19', '47', '39', '37'] 12636.170212765957
30 252.72340425531914 ['7', '19', '47', '39', '37'] 12636.170212765957
31 252.72340425531914 ['7', '19', '47', '39', '37'] 12636.170212765957
32 252.72340425531914 ['7', '19', '47', '39', '37'] 12636.170212765957
33 252.72340425531914 ['7', '19', '47', '39', '37'] 12636.170212765957
34 252.72340425531914 ['7', '19', '47', '39', '37'] 12636.170212765957
35 252.72340425531914 ['7', '19', '47', '39', '37'] 12636.170212765957
36 252.72340425531914 ['7', '19', '47', '39', '37'] 12636.170212765957
37 252.72340425531914 ['7', '19', '47', '39', '37'] 12636.170212765957
38 252.72340425531914 ['7', '19', '47', '39', '37'] 12636.170212765957
39 252.72340425531914 ['7', '19', '47', '39', '37'] 12636.170212765957
40 252.72340425531914 ['7', '19', '47', '39', '37'] 12636.170212765957
41 252.72340425531914 ['7', '19', '47', '39', '37'] 12636.170212765957
42 252.72340425531914 ['7', '19', '47', '39', '37'] 12636.170212765957
43 252.72340425531914 ['7', '19', '47', '39', '37'] 12636.170212765957
44 252.72340425531914 ['7', '19', '47', '39', '37'] 12636.170212765957
45 252.72340425531914 ['7', '19', '47', '39', '37'] 12636.170212765957
46 252.72340425531914 ['7', '19', '47', '39', '37'] 12636.170212765957
47 252.72340425531914 ['7', '19', '47', '39', '37'] 12636.170212765957
48 252.72340425531914 ['7', '19', '47', '39', '37'] 12636.170212765957
49 252.72340425531914 ['7', '19', '47', '39', '37'] 12636.170212765957
50 252.72340425531914 ['7', '19', '47', '39', '37'] 12636.170212765957
51 252.72340425531914 ['7', '19', '47', '39', '37'] 12636.170212765957
52 252.72340425531914 ['7', '19', '47', '39', '37'] 12636.170212765957
53 252.72340425531914 ['7', '19', '47', '39', '37'] 12636.170212765957
54 252.72340425531914 ['7', '19', '47', '39', '37'] 12636.170212765957
55 252.72340425531914 ['7', '19', '47', '39', '37'] 12636.170212765957
56 252.72340425531914 ['7', '19', '47', '39', '37'] 12636.170212765957
57 252.72340425531914 ['7', '19', '47', '39', '37'] 12636.170212765957
58 252.72340425531914 ['7', '19', '47', '39', '37'] 12636.170212765957
59 252.72340425531914 ['7', '19', '47', '39', '37'] 12636.170212765957
60 252.72340425531914 ['7', '19', '47', '39', '37'] 12636.170212765957
61 252.72340425531914 ['7', '19', '47', '39', '37'] 12636.170212765957
62 252.72340425531914 ['7', '19', '47', '39', '37'] 12636.170212765957
63 252.72340425531914 ['7', '19', '47', '39', '37'] 12636.170212765957
64 252.72340425531914 ['7', '19', '47', '39', '37'] 12636.170212765957
65 252.72340425531914 ['7', '19', '47', '39', '37'] 12636.170212765957
66 252.72340425531914 ['7', '19', '47', '39', '37'] 12636.170212765957
67 252.72340425531914 ['7', '19', '47', '39', '37'] 12636.170212765957
68 252.72340425531914 ['7', '19', '47', '39', '37'] 12636.170212765957
69 252.72340425531914 ['7', '19', '47', '39', '37'] 12636.170212765957
70 252.72340425531914 ['7', '19', '47', '39', '37'] 12636.170212765957
71 252.72340425531914 ['7', '19', '47', '39', '37'] 12636.170212765957
72 252.72340425531914 ['7', '19', '47', '39', '37'] 12636.170212765957
73 252.72340425531914 ['7', '19', '47', '39', '37'] 12636.170212765957
74 252.72340425531914 ['7', '19', '47', '39', '37'] 12636.170212765957
75 252.72340425531914 ['7', '19', '47', '39', '37'] 12636.170212765957
76 252.72340425531914 ['7', '19', '47', '39', '37'] 12636.170212765957
77 252.72340425531914 ['7', '19', '47', '39', '37'] 12636.170212765957
78 252.72340425531914 ['7', '19', '47', '39', '37'] 12636.170212765957
79 252.72340425531914 ['7', '19', '47', '39', '37'] 12636.170212765957
80 252.72340425531914 ['7', '19', '47', '39', '37'] 12636.170212765957
81 252.72340425531914 ['7', '19', '47', '39', '37'] 12636.170212765957
82 252.72340425531914 ['7', '19', '47', '39', '37'] 12636.170212765957
83 252.72340425531914 ['7', '19', '47', '39', '37'] 12636.170212765957
84 252.72340425531914 ['7', '19', '47', '39', '37'] 12636.170212765957
85 252.72340425531914 ['7', '19', '47', '39', '37'] 12636.170212765957
86 252.72340425531914 ['7', '19', '47', '39', '37'] 12636.170212765957
87 252.72340425531914 ['7', '19', '47', '39', '37'] 12636.170212765957
88 252.72340425531914 ['7', '19', '47', '39', '37'] 12636.170212765957
89 252.72340425531914 ['7', '19', '47', '39', '37'] 12636.170212765957
90 252.72340425531914 ['7', '19', '47', '39', '37'] 12636.170212765957
91 252.72340425531914 ['7', '19', '47', '39', '37'] 12636.170212765957
92 252.72340425531914 ['7', '19', '47', '39', '37'] 12636.170212765957
93 252.72340425531914 ['7', '19', '47', '39', '37'] 12636.170212765957
94 252.72340425531914 ['7', '19', '47', '39', '37'] 12636.170212765957
95 252.72340425531914 ['7', '19', '47', '39', '37'] 12636.170212765957
96 252.72340425531914 ['7', '19', '47', '39', '37'] 12636.170212765957
97 252.72340425531914 ['7', '19', '47', '39', '37'] 12636.170212765957
98 252.72340425531914 ['7', '19', '47', '39', '37'] 12636.170212765957
99 252.72340425531914 ['7', '19', '47', '39', '37'] 12636.170212765957
100 252.72340425531914 ['7', '19', '47', '39', '37'] 12636.170212765957
101 252.72340425531914 ['7', '19', '47', '39', '37'] 12636.170212765957
102 252.72340425531914 ['7', '19', '47', '39', '37'] 12636.170212765957
103 252.72340425531914 ['7', '19', '47', '39', '37'] 12636.170212765957
104 252.72340425531914 ['7', '19', '47', '39', '37'] 12636.170212765957
105 252.72340425531914 ['7', '19', '47', '39', '37'] 12636.170212765957
106 252.72340425531914 ['7', '19', '47', '39', '37'] 12636.170212765957
107 252.72340425531914 ['7', '19', '47', '39', '37'] 12636.170212765957
108 252.72340425531914 ['7', '19', '47', '39', '37'] 12636.170212765957
109 252.72340425531914 ['7', '19', '47', '39', '37'] 12636.170212765957
110 252.72340425531914 ['7', '19', '47', '39', '37'] 12636.170212765957
111 252.72340425531914 ['7', '19', '47', '39', '37'] 12636.170212765957
112 252.72340425531914 ['7', '19', '47', '39', '37'] 12636.170212765957
113 252.72340425531914 ['7', '19', '47', '39', '37'] 12636.170212765957
114 252.72340425531914 ['7', '19', '47', '39', '37'] 12636.170212765957
115 252.72340425531914 ['7', '19', '47', '39', '37'] 12636.170212765957
116 252.72340425531914 ['7', '19', '47', '39', '37'] 12636.170212765957
117 252.72340425531914 ['7', '19', '47', '39', '37'] 12636.170212765957
118 252.72340425531914 ['7', '19', '47', '39', '37'] 12636.170212765957
119 252.72340425531914 ['7', '19', '47', '39', '37'] 12636.170212765957
120 252.72340425531914 ['7', '19', '47', '39', '37'] 12636.170212765957
121 252.72340425531914 ['7', '19', '47', '39', '37'] 12636.170212765957
122 252.72340425531914 ['7', '19', '47', '39', '37'] 12636.170212765957
123 252.72340425531914 ['7', '19', '47', '39', '37'] 12636.170212765957
124 252.72340425531914 ['7', '19', '47', '39', '37'] 12636.170212765957
125 252.72340425531914 ['7', '19', '47', '39', '37'] 12636.170212765957
126 252.72340425531914 ['7', '19', '47', '39', '37'] 12636.170212765957
127 252.72340425531914 ['7', '19', '47', '39', '37'] 12636.170212765957
128 252.72340425531914 ['7', '19', '47', '39', '37'] 12636.170212765957
129 252.72340425531914 ['7', '19', '47', '39', '37'] 12636.170212765957
130 252.72340425531914 ['7', '19', '47', '39', '37'] 12636.170212765957
131 252.72340425531914 ['7', '19', '47', '39', '37'] 12636.170212765957
132 252.72340425531914 ['7', '19', '47', '39', '37'] 12636.170212765957
133 252.72340425531914 ['7', '19', '47', '39', '37'] 12636.170212765957
134 252.72340425531914 ['7', '19', '47', '39', '37'] 12636.170212765957
135 252.72340425531914 ['7', '19', '47', '39', '37'] 12636.170212765957
136 252.72340425531914 ['7', '19', '47', '39', '37'] 12636.170212765957
137 252.72340425531914 ['7', '19', '47', '39', '37'] 12636.170212765957
138 252.72340425531914 ['7', '19', '47', '39', '37'] 12636.170212765957
139 252.72340425531914 ['7', '19', '47', '39', '37'] 12636.170212765957
140 252.72340425531914 ['7', '19', '47', '39', '37'] 12636.170212765957
141 252.72340425531914 ['7', '19', '47', '39', '37'] 12636.170212765957
142 252.72340425531914 ['7', '19', '47', '39', '37'] 12636.170212765957
143 252.72340425531914 ['7', '19', '47', '39', '37'] 12636.170212765957
144 252.72340425531914 ['7', '19', '47', '39', '37'] 12636.170212765957
145 252.72340425531914 ['7', '19', '47', '39', '37'] 12636.170212765957
146 252.72340425531914 ['7', '19', '47', '39', '37'] 12636.170212765957
147 252.72340425531914 ['7', '19', '47', '39', '37'] 12636.170212765957
148 252.72340425531914 ['7', '19', '47', '39', '37'] 12636.170212765957
149 252.72340425531914 ['7', '19', '47', '39', '37'] 12636.170212765957
150 252.72340425531914 ['7', '19', '47', '39', '37'] 12636.170212765957
151 252.72340425531914 ['7', '19', '47', '39', '37'] 12636.170212765957
152 252.72340425531914 ['7', '19', '47', '39', '37'] 12636.170212765957
153 252.72340425531914 ['7', '19', '47', '39', '37'] 12636.170212765957
154 252.72340425531914 ['7', '19', '47', '39', '37'] 12636.170212765957
155 252.72340425531914 ['7', '19', '47', '39', '37'] 12636.170212765957
156 252.72340425531914 ['7', '19', '47', '39', '37'] 12636.170212765957
157 252.72340425531914 ['7', '19', '47', '39', '37'] 12636.170212765957
158 252.72340425531914 ['7', '19', '47', '39', '37'] 12636.170212765957
159 252.72340425531914 ['7', '19', '47', '39', '37'] 12636.170212765957
160 252.72340425531914 ['7', '19', '47', '39', '37'] 12636.170212765957
161 252.72340425531914 ['7', '19', '47', '39', '37'] 12636.170212765957
162 252.72340425531914 ['7', '19', '47', '39', '37'] 12636.170212765957
163 252.72340425531914 ['7', '19', '47', '39', '37'] 12636.170212765957
164 252.72340425531914 ['7', '19', '47', '39', '37'] 12636.170212765957
165 252.72340425531914 ['7', '19', '47', '39', '37'] 12636.170212765957
166 252.72340425531914 ['7', '19', '47', '39', '37'] 12636.170212765957
167 252.72340425531914 ['7', '19', '47', '39', '37'] 12636.170212765957
168 252.72340425531914 ['7', '19', '47', '39', '37'] 12636.170212765957
169 252.72340425531914 ['7', '19', '47', '39', '37'] 12636.170212765957
170 252.72340425531914 ['7', '19', '47', '39', '37'] 12636.170212765957
171 252.72340425531914 ['7', '19', '47', '39', '37'] 12636.170212765957
172 252.72340425531914 ['7', '19', '47', '39', '37'] 12636.170212765957
173 252.72340425531914 ['7', '19', '47', '39', '37'] 12636.170212765957
174 252.72340425531914 ['7', '19', '47', '39', '37'] 12636.170212765957
175 252.72340425531914 ['7', '19', '47', '39', '37'] 12636.170212765957
176 252.72340425531914 ['7', '19', '47', '39', '37'] 12636.170212765957
177 252.72340425531914 ['7', '19', '47', '39', '37'] 12636.170212765957
178 252.72340425531914 ['7', '19', '47', '39', '37'] 12636.170212765957
179 252.72340425531914 ['7', '19', '47', '39', '37'] 12636.170212765957
180 252.72340425531914 ['7', '19', '47', '39', '37'] 12636.170212765957
181 252.72340425531914 ['7', '19', '47', '39', '37'] 12636.170212765957
182 252.72340425531914 ['7', '19', '47', '39', '37'] 12636.170212765957
183 252.72340425531914 ['7', '19', '47', '39', '37'] 12636.170212765957
184 252.72340425531914 ['7', '19', '47', '39', '37'] 12636.170212765957
185 252.72340425531914 ['7', '19', '47', '39', '37'] 12636.170212765957
186 252.72340425531914 ['7', '19', '47', '39', '37'] 12636.170212765957
187 252.72340425531914 ['7', '19', '47', '39', '37'] 12636.170212765957
188 252.72340425531914 ['7', '19', '47', '39', '37'] 12636.170212765957
189 252.72340425531914 ['7', '19', '47', '39', '37'] 12636.170212765957
190 252.72340425531914 ['7', '19', '47', '39', '37'] 12636.170212765957
191 252.72340425531914 ['7', '19', '47', '39', '37'] 12636.170212765957
192 252.72340425531914 ['7', '19', '47', '39', '37'] 12636.170212765957
193 252.72340425531914 ['7', '19', '47', '39', '37'] 12636.170212765957
194 252.72340425531914 ['7', '19', '47', '39', '37'] 12636.170212765957
195 252.72340425531914 ['7', '19', '47', '39', '37'] 12636.170212765957
196 252.72340425531914 ['7', '19', '47', '39', '37'] 12636.170212765957
197 252.72340425531914 ['7', '19', '47', '39', '37'] 12636.170212765957
198 252.72340425531914 ['7', '19', '47', '39', '37'] 12636.170212765957
199 252.72340425531914 ['7', '19', '47', '39', '37'] 12636.170212765957
