0 38.79245283018868 ['17', '53', '34', '23', '29'] 2025.5660377358488
1 38.79245283018868 ['17', '53', '34', '23', '29'] 1995.4716981132078
2 38.660377358490564 ['32', '53', '34', '36', '39'] 1967.5283018867929
3 38.339622641509436 ['8', '55', '21', '29', '16'] 1946.2830188679245
4 37.735849056603776 ['43', '53', '16', '34', '20'] 1932.2830188679245
5 37.54716981132076 ['55', '29', '32', '53', '16'] 1919.7547169811335
6 37.528301886792455 ['55', '53', '29', '32', '43'] 1905.3396226415089
7 37.301886792452834 ['53', '43', '41', '21', '55'] 1891.6981132075466
8 36.9622641509434 ['16', '43', '53', '32', '55'] 1880.8867924528297
9 36.9622641509434 ['16', '43', '53', '32', '55'] 1873.603773584906
10 36.9622641509434 ['16', '43', '53', '32', '55'] 1865.6037735849052
11 36.867924528301884 ['53', '32', '16', '43', '21'] 1857.8679245283017
12 36.77358490566038 ['53', '41', '32', '43', '16'] 1850.6037735849056
13 36.77358490566038 ['53', '41', '32', '43', '16'] 1847.7358490566032
14 36.77358490566038 ['53', '41', '32', '43', '16'] 1847.5471698113201
15 36.77358490566038 ['53', '41', '32', '43', '16'] 1846.6981132075468
16 36.77358490566038 ['53', '41', '32', '43', '16'] 1845.471698113207
17 36.77358490566038 ['53', '41', '32', '43', '16'] 1843.1132075471698
18 36.77358490566038 ['53', '41', '32', '43', '16'] 1841.0377358490584
19 36.77358490566038 ['53', '41', '32', '43', '16'] 1838.9622641509425
20 36.77358490566038 ['53', '41', '32', '43', '16'] 1838.6792452830175
21 36.77358490566038 ['53', '41', '32', '43', '16'] 1838.6792452830175
22 36.77358490566038 ['53', '41', '32', '43', '16'] 1838.6792452830175
23 36.77358490566038 ['53', '41', '32', '43', '16'] 1838.6792452830175
24 36.77358490566038 ['53', '41', '32', '43', '16'] 1838.6792452830175
25 36.77358490566038 ['53', '41', '32', '43', '16'] 1838.6792452830175
26 36.77358490566038 ['53', '41', '32', '43', '16'] 1838.6792452830175
27 36.77358490566038 ['53', '41', '32', '43', '16'] 1838.6792452830175
28 36.77358490566038 ['53', '41', '32', '43', '16'] 1838.6792452830175
29 36.77358490566038 ['53', '41', '32', '43', '16'] 1838.6792452830175
30 36.77358490566038 ['53', '41', '32', '43', '16'] 1838.6792452830175
31 36.77358490566038 ['53', '41', '32', '43', '16'] 1838.6792452830175
32 36.77358490566038 ['53', '41', '32', '43', '16'] 1838.6792452830175
33 36.77358490566038 ['53', '41', '32', '43', '16'] 1838.6792452830175
34 36.77358490566038 ['53', '41', '32', '43', '16'] 1838.6792452830175
35 36.77358490566038 ['53', '41', '32', '43', '16'] 1838.6792452830175
36 36.77358490566038 ['53', '41', '32', '43', '16'] 1838.6792452830175
37 36.77358490566038 ['53', '41', '32', '43', '16'] 1838.6792452830175
38 36.77358490566038 ['53', '41', '32', '43', '16'] 1838.6792452830175
39 36.77358490566038 ['53', '41', '32', '43', '16'] 1838.6792452830175
40 36.77358490566038 ['53', '41', '32', '43', '16'] 1838.6792452830175
41 36.77358490566038 ['53', '41', '32', '43', '16'] 1838.6792452830175
42 36.77358490566038 ['53', '41', '32', '43', '16'] 1838.6792452830175
43 36.77358490566038 ['53', '41', '32', '43', '16'] 1838.6792452830175
44 36.77358490566038 ['53', '41', '32', '43', '16'] 1838.6792452830175
45 36.77358490566038 ['53', '41', '32', '43', '16'] 1838.6792452830175
46 36.77358490566038 ['53', '41', '32', '43', '16'] 1838.6792452830175
47 36.77358490566038 ['53', '41', '32', '43', '16'] 1838.6792452830175
48 36.77358490566038 ['53', '41', '32', '43', '16'] 1838.6792452830175
49 36.77358490566038 ['53', '41', '32', '43', '16'] 1838.6792452830175
50 36.77358490566038 ['53', '41', '32', '43', '16'] 1838.6792452830175
51 36.77358490566038 ['53', '41', '32', '43', '16'] 1838.6792452830175
52 36.77358490566038 ['53', '41', '32', '43', '16'] 1838.6792452830175
53 36.77358490566038 ['53', '41', '32', '43', '16'] 1838.6792452830175
54 36.77358490566038 ['53', '41', '32', '43', '16'] 1838.6792452830175
55 36.77358490566038 ['53', '41', '32', '43', '16'] 1838.6792452830175
56 36.77358490566038 ['53', '41', '32', '43', '16'] 1838.6792452830175
57 36.77358490566038 ['53', '41', '32', '43', '16'] 1838.6792452830175
58 36.77358490566038 ['53', '41', '32', '43', '16'] 1838.6792452830175
59 36.77358490566038 ['53', '41', '32', '43', '16'] 1838.6792452830175
60 36.77358490566038 ['53', '41', '32', '43', '16'] 1838.6792452830175
61 36.77358490566038 ['53', '41', '32', '43', '16'] 1838.6792452830175
62 36.77358490566038 ['53', '41', '32', '43', '16'] 1838.6792452830175
63 36.77358490566038 ['53', '41', '32', '43', '16'] 1838.6792452830175
64 36.77358490566038 ['53', '41', '32', '43', '16'] 1838.6792452830175
65 36.77358490566038 ['53', '41', '32', '43', '16'] 1838.6792452830175
66 36.77358490566038 ['53', '41', '32', '43', '16'] 1838.6792452830175
67 36.77358490566038 ['53', '41', '32', '43', '16'] 1838.6792452830175
68 36.77358490566038 ['53', '41', '32', '43', '16'] 1838.6792452830175
69 36.77358490566038 ['53', '41', '32', '43', '16'] 1838.6792452830175
70 36.77358490566038 ['53', '41', '32', '43', '16'] 1838.6792452830175
71 36.77358490566038 ['53', '41', '32', '43', '16'] 1838.6792452830175
72 36.77358490566038 ['53', '41', '32', '43', '16'] 1838.6792452830175
73 36.77358490566038 ['53', '41', '32', '43', '16'] 1838.6792452830175
74 36.77358490566038 ['53', '41', '32', '43', '16'] 1838.6792452830175
75 36.77358490566038 ['53', '41', '32', '43', '16'] 1838.6792452830175
76 36.77358490566038 ['53', '41', '32', '43', '16'] 1838.6792452830175
77 36.77358490566038 ['53', '41', '32', '43', '16'] 1838.6792452830175
78 36.77358490566038 ['53', '41', '32', '43', '16'] 1838.6792452830175
79 36.77358490566038 ['53', '41', '32', '43', '16'] 1838.6792452830175
80 36.77358490566038 ['53', '41', '32', '43', '16'] 1838.6792452830175
81 36.77358490566038 ['53', '41', '32', '43', '16'] 1838.6792452830175
82 36.77358490566038 ['53', '41', '32', '43', '16'] 1838.6792452830175
83 36.77358490566038 ['53', '41', '32', '43', '16'] 1838.6792452830175
84 36.77358490566038 ['53', '41', '32', '43', '16'] 1838.6792452830175
85 36.77358490566038 ['53', '41', '32', '43', '16'] 1838.6792452830175
86 36.77358490566038 ['53', '41', '32', '43', '16'] 1838.6792452830175
87 36.77358490566038 ['53', '41', '32', '43', '16'] 1838.6792452830175
88 36.77358490566038 ['53', '41', '32', '43', '16'] 1838.6792452830175
89 36.77358490566038 ['53', '41', '32', '43', '16'] 1838.6792452830175
90 36.77358490566038 ['53', '41', '32', '43', '16'] 1838.6792452830175
91 36.77358490566038 ['53', '41', '32', '43', '16'] 1838.6792452830175
92 36.77358490566038 ['53', '41', '32', '43', '16'] 1838.6792452830175
93 36.77358490566038 ['53', '41', '32', '43', '16'] 1838.6792452830175
94 36.77358490566038 ['53', '41', '32', '43', '16'] 1838.6792452830175
95 36.77358490566038 ['53', '41', '32', '43', '16'] 1838.6792452830175
96 36.77358490566038 ['53', '41', '32', '43', '16'] 1838.6792452830175
97 36.77358490566038 ['53', '41', '32', '43', '16'] 1838.6792452830175
98 36.77358490566038 ['53', '41', '32', '43', '16'] 1838.6792452830175
99 36.77358490566038 ['53', '41', '32', '43', '16'] 1838.6792452830175
100 36.77358490566038 ['53', '41', '32', '43', '16'] 1838.6792452830175
101 36.77358490566038 ['53', '41', '32', '43', '16'] 1838.6792452830175
102 36.77358490566038 ['53', '41', '32', '43', '16'] 1838.6792452830175
103 36.77358490566038 ['53', '41', '32', '43', '16'] 1838.6792452830175
104 36.77358490566038 ['53', '41', '32', '43', '16'] 1838.6792452830175
105 36.77358490566038 ['53', '41', '32', '43', '16'] 1838.6792452830175
106 36.77358490566038 ['53', '41', '32', '43', '16'] 1838.6792452830175
107 36.77358490566038 ['53', '41', '32', '43', '16'] 1838.6792452830175
108 36.77358490566038 ['53', '41', '32', '43', '16'] 1838.6792452830175
109 36.77358490566038 ['53', '41', '32', '43', '16'] 1838.6792452830175
110 36.77358490566038 ['53', '41', '32', '43', '16'] 1838.6792452830175
111 36.77358490566038 ['53', '41', '32', '43', '16'] 1838.6792452830175
112 36.77358490566038 ['53', '41', '32', '43', '16'] 1838.6792452830175
113 36.77358490566038 ['53', '41', '32', '43', '16'] 1838.6792452830175
114 36.77358490566038 ['53', '41', '32', '43', '16'] 1838.6792452830175
115 36.77358490566038 ['53', '41', '32', '43', '16'] 1838.6792452830175
116 36.77358490566038 ['53', '41', '32', '43', '16'] 1838.6792452830175
117 36.77358490566038 ['53', '41', '32', '43', '16'] 1838.6792452830175
118 36.77358490566038 ['53', '41', '32', '43', '16'] 1838.6792452830175
119 36.77358490566038 ['53', '41', '32', '43', '16'] 1838.6792452830175
120 36.77358490566038 ['53', '41', '32', '43', '16'] 1838.6792452830175
121 36.77358490566038 ['53', '41', '32', '43', '16'] 1838.6792452830175
122 36.77358490566038 ['53', '41', '32', '43', '16'] 1838.6792452830175
123 36.77358490566038 ['53', '41', '32', '43', '16'] 1838.6792452830175
124 36.77358490566038 ['53', '41', '32', '43', '16'] 1838.6792452830175
125 36.77358490566038 ['53', '41', '32', '43', '16'] 1838.6792452830175
126 36.77358490566038 ['53', '41', '32', '43', '16'] 1838.6792452830175
127 36.77358490566038 ['53', '41', '32', '43', '16'] 1838.6792452830175
128 36.77358490566038 ['53', '41', '32', '43', '16'] 1838.6792452830175
129 36.77358490566038 ['53', '41', '32', '43', '16'] 1838.6792452830175
130 36.77358490566038 ['53', '41', '32', '43', '16'] 1838.6792452830175
131 36.77358490566038 ['53', '41', '32', '43', '16'] 1838.6792452830175
132 36.77358490566038 ['53', '41', '32', '43', '16'] 1838.6792452830175
133 36.77358490566038 ['53', '41', '32', '43', '16'] 1838.6792452830175
134 36.77358490566038 ['53', '41', '32', '43', '16'] 1838.6792452830175
135 36.77358490566038 ['53', '41', '32', '43', '16'] 1838.6792452830175
136 36.77358490566038 ['53', '41', '32', '43', '16'] 1838.6792452830175
137 36.77358490566038 ['53', '41', '32', '43', '16'] 1838.6792452830175
138 36.77358490566038 ['53', '41', '32', '43', '16'] 1838.6792452830175
139 36.77358490566038 ['53', '41', '32', '43', '16'] 1838.6792452830175
140 36.77358490566038 ['53', '41', '32', '43', '16'] 1838.6792452830175
141 36.77358490566038 ['53', '41', '32', '43', '16'] 1838.6792452830175
142 36.77358490566038 ['53', '41', '32', '43', '16'] 1838.6792452830175
143 36.77358490566038 ['53', '41', '32', '43', '16'] 1838.6792452830175
144 36.77358490566038 ['53', '41', '32', '43', '16'] 1838.6792452830175
145 36.77358490566038 ['53', '41', '32', '43', '16'] 1838.6792452830175
146 36.77358490566038 ['53', '41', '32', '43', '16'] 1838.6792452830175
147 36.77358490566038 ['53', '41', '32', '43', '16'] 1838.6792452830175
148 36.77358490566038 ['53', '41', '32', '43', '16'] 1838.6792452830175
149 36.77358490566038 ['53', '41', '32', '43', '16'] 1838.6792452830175
150 36.77358490566038 ['53', '41', '32', '43', '16'] 1838.6792452830175
151 36.77358490566038 ['53', '41', '32', '43', '16'] 1838.6792452830175
152 36.77358490566038 ['53', '41', '32', '43', '16'] 1838.6792452830175
153 36.77358490566038 ['53', '41', '32', '43', '16'] 1838.6792452830175
154 36.77358490566038 ['53', '41', '32', '43', '16'] 1838.6792452830175
155 36.77358490566038 ['53', '41', '32', '43', '16'] 1838.6792452830175
156 36.77358490566038 ['53', '41', '32', '43', '16'] 1838.6792452830175
157 36.77358490566038 ['53', '41', '32', '43', '16'] 1838.6792452830175
158 36.77358490566038 ['53', '41', '32', '43', '16'] 1838.6792452830175
159 36.77358490566038 ['53', '41', '32', '43', '16'] 1838.6792452830175
160 36.77358490566038 ['53', '41', '32', '43', '16'] 1838.6792452830175
161 36.77358490566038 ['53', '41', '32', '43', '16'] 1838.6792452830175
162 36.77358490566038 ['53', '41', '32', '43', '16'] 1838.6792452830175
163 36.77358490566038 ['53', '41', '32', '43', '16'] 1838.6792452830175
164 36.77358490566038 ['53', '41', '32', '43', '16'] 1838.6792452830175
165 36.77358490566038 ['53', '41', '32', '43', '16'] 1838.6792452830175
166 36.77358490566038 ['53', '41', '32', '43', '16'] 1838.6792452830175
167 36.77358490566038 ['53', '41', '32', '43', '16'] 1838.6792452830175
168 36.77358490566038 ['53', '41', '32', '43', '16'] 1838.6792452830175
169 36.77358490566038 ['53', '41', '32', '43', '16'] 1838.6792452830175
170 36.77358490566038 ['53', '41', '32', '43', '16'] 1838.6792452830175
171 36.77358490566038 ['53', '41', '32', '43', '16'] 1838.6792452830175
172 36.77358490566038 ['53', '41', '32', '43', '16'] 1838.6792452830175
173 36.77358490566038 ['53', '41', '32', '43', '16'] 1838.6792452830175
174 36.77358490566038 ['53', '41', '32', '43', '16'] 1838.6792452830175
175 36.77358490566038 ['53', '41', '32', '43', '16'] 1838.6792452830175
176 36.77358490566038 ['53', '41', '32', '43', '16'] 1838.6792452830175
177 36.77358490566038 ['53', '41', '32', '43', '16'] 1838.6792452830175
178 36.77358490566038 ['53', '41', '32', '43', '16'] 1838.6792452830175
179 36.77358490566038 ['53', '41', '32', '43', '16'] 1838.6792452830175
180 36.77358490566038 ['53', '41', '32', '43', '16'] 1838.6792452830175
181 36.77358490566038 ['53', '41', '32', '43', '16'] 1838.6792452830175
182 36.77358490566038 ['53', '41', '32', '43', '16'] 1838.6792452830175
183 36.77358490566038 ['53', '41', '32', '43', '16'] 1838.6792452830175
184 36.77358490566038 ['53', '41', '32', '43', '16'] 1838.6792452830175
185 36.77358490566038 ['53', '41', '32', '43', '16'] 1838.6792452830175
186 36.77358490566038 ['53', '41', '32', '43', '16'] 1838.6792452830175
187 36.77358490566038 ['53', '41', '32', '43', '16'] 1838.6792452830175
188 36.77358490566038 ['53', '41', '32', '43', '16'] 1838.6792452830175
189 36.77358490566038 ['53', '41', '32', '43', '16'] 1838.6792452830175
190 36.77358490566038 ['53', '41', '32', '43', '16'] 1838.6792452830175
191 36.77358490566038 ['53', '41', '32', '43', '16'] 1838.6792452830175
192 36.77358490566038 ['53', '41', '32', '43', '16'] 1838.6792452830175
193 36.77358490566038 ['53', '41', '32', '43', '16'] 1838.6792452830175
194 36.77358490566038 ['53', '41', '32', '43', '16'] 1838.6792452830175
195 36.77358490566038 ['53', '41', '32', '43', '16'] 1838.6792452830175
196 36.77358490566038 ['53', '41', '32', '43', '16'] 1838.6792452830175
197 36.77358490566038 ['53', '41', '32', '43', '16'] 1838.6792452830175
198 36.77358490566038 ['53', '41', '32', '43', '16'] 1838.6792452830175
199 36.77358490566038 ['53', '41', '32', '43', '16'] 1838.6792452830175
