0 247.58 ['1', '2', '43', '37', '34'] 13005.380000000005
1 243.8 ['2', '37', '1', '22', '34'] 12779.599999999993
2 241.78 ['37', '38', '2', '34', '15'] 12566.440000000002
3 241.78 ['37', '38', '2', '34', '15'] 12431.38
4 234.22 ['37', '6', '38', '42', '1'] 12243.6
5 233.24 ['38', '6', '24', '1', '7'] 12057.080000000002
6 229.12 ['1', '38', '24', '22', '6'] 11899.039999999999
7 229.12 ['1', '38', '24', '22', '6'] 11764.300000000001
8 229.12 ['1', '38', '24', '22', '6'] 11701.805490196077
9 229.12 ['1', '38', '24', '22', '6'] 11648.301960784313
10 229.12 ['1', '38', '24', '22', '6'] 11609.426289592764
11 229.12 ['1', '38', '24', '22', '6'] 11562.880437405725
12 229.12 ['1', '38', '24', '22', '6'] 11525.8
13 229.12 ['1', '38', '24', '22', '6'] 11499.220000000005
14 229.12 ['1', '38', '24', '22', '6'] 11477.00000000001
15 229.12 ['1', '38', '24', '22', '6'] 11471.00000000001
16 229.12 ['1', '38', '24', '22', '6'] 11461.50000000001
17 229.12 ['1', '38', '24', '22', '6'] 11456.00000000001
18 229.12 ['1', '38', '24', '22', '6'] 11456.00000000001
19 229.12 ['1', '38', '24', '22', '6'] 11456.00000000001
20 229.12 ['1', '38', '24', '22', '6'] 11456.00000000001
21 229.12 ['1', '38', '24', '22', '6'] 11456.00000000001
22 229.12 ['1', '38', '24', '22', '6'] 11456.00000000001
23 229.12 ['1', '38', '24', '22', '6'] 11456.00000000001
24 229.12 ['1', '38', '24', '22', '6'] 11456.00000000001
25 229.12 ['1', '38', '24', '22', '6'] 11456.00000000001
26 229.12 ['1', '38', '24', '22', '6'] 11456.00000000001
27 229.12 ['1', '38', '24', '22', '6'] 11456.00000000001
28 229.12 ['1', '38', '24', '22', '6'] 11456.00000000001
29 229.12 ['1', '38', '24', '22', '6'] 11456.00000000001
30 229.12 ['1', '38', '24', '22', '6'] 11456.00000000001
31 229.12 ['1', '38', '24', '22', '6'] 11456.00000000001
32 229.12 ['1', '38', '24', '22', '6'] 11456.00000000001
33 229.12 ['1', '38', '24', '22', '6'] 11456.00000000001
34 229.12 ['1', '38', '24', '22', '6'] 11456.00000000001
35 229.12 ['1', '38', '24', '22', '6'] 11456.00000000001
36 229.12 ['1', '38', '24', '22', '6'] 11456.00000000001
37 229.12 ['1', '38', '24', '22', '6'] 11456.00000000001
38 229.12 ['1', '38', '24', '22', '6'] 11456.00000000001
39 229.12 ['1', '38', '24', '22', '6'] 11456.00000000001
40 229.12 ['1', '38', '24', '22', '6'] 11456.00000000001
41 229.12 ['1', '38', '24', '22', '6'] 11456.00000000001
42 229.12 ['1', '38', '24', '22', '6'] 11456.00000000001
43 229.12 ['1', '38', '24', '22', '6'] 11456.00000000001
44 229.12 ['1', '38', '24', '22', '6'] 11456.00000000001
45 229.12 ['1', '38', '24', '22', '6'] 11456.00000000001
46 229.12 ['1', '38', '24', '22', '6'] 11456.00000000001
47 229.12 ['1', '38', '24', '22', '6'] 11456.00000000001
48 229.12 ['1', '38', '24', '22', '6'] 11456.00000000001
49 229.12 ['1', '38', '24', '22', '6'] 11456.00000000001
50 229.12 ['1', '38', '24', '22', '6'] 11456.00000000001
51 229.12 ['1', '38', '24', '22', '6'] 11456.00000000001
52 229.12 ['1', '38', '24', '22', '6'] 11456.00000000001
53 229.12 ['1', '38', '24', '22', '6'] 11456.00000000001
54 229.12 ['1', '38', '24', '22', '6'] 11456.00000000001
55 229.12 ['1', '38', '24', '22', '6'] 11456.00000000001
56 229.12 ['1', '38', '24', '22', '6'] 11456.00000000001
57 229.12 ['1', '38', '24', '22', '6'] 11456.00000000001
58 229.12 ['1', '38', '24', '22', '6'] 11456.00000000001
59 229.12 ['1', '38', '24', '22', '6'] 11456.00000000001
60 229.12 ['1', '38', '24', '22', '6'] 11456.00000000001
61 229.12 ['1', '38', '24', '22', '6'] 11456.00000000001
62 229.12 ['1', '38', '24', '22', '6'] 11456.00000000001
63 229.12 ['1', '38', '24', '22', '6'] 11456.00000000001
64 229.12 ['1', '38', '24', '22', '6'] 11456.00000000001
65 229.12 ['1', '38', '24', '22', '6'] 11456.00000000001
66 229.12 ['1', '38', '24', '22', '6'] 11456.00000000001
67 229.12 ['1', '38', '24', '22', '6'] 11456.00000000001
68 229.12 ['1', '38', '24', '22', '6'] 11456.00000000001
69 229.12 ['1', '38', '24', '22', '6'] 11456.00000000001
70 229.12 ['1', '38', '24', '22', '6'] 11456.00000000001
71 229.12 ['1', '38', '24', '22', '6'] 11456.00000000001
72 229.12 ['1', '38', '24', '22', '6'] 11456.00000000001
73 229.12 ['1', '38', '24', '22', '6'] 11456.00000000001
74 229.12 ['1', '38', '24', '22', '6'] 11456.00000000001
75 229.12 ['1', '38', '24', '22', '6'] 11456.00000000001
76 229.12 ['1', '38', '24', '22', '6'] 11456.00000000001
77 229.12 ['1', '38', '24', '22', '6'] 11456.00000000001
78 229.12 ['1', '38', '24', '22', '6'] 11456.00000000001
79 229.12 ['1', '38', '24', '22', '6'] 11456.00000000001
80 229.12 ['1', '38', '24', '22', '6'] 11456.00000000001
81 229.12 ['1', '38', '24', '22', '6'] 11456.00000000001
82 229.12 ['1', '38', '24', '22', '6'] 11456.00000000001
83 229.12 ['1', '38', '24', '22', '6'] 11456.00000000001
84 229.12 ['1', '38', '24', '22', '6'] 11456.00000000001
85 229.12 ['1', '38', '24', '22', '6'] 11456.00000000001
86 229.12 ['1', '38', '24', '22', '6'] 11456.00000000001
87 229.12 ['1', '38', '24', '22', '6'] 11456.00000000001
88 229.12 ['1', '38', '24', '22', '6'] 11456.00000000001
89 229.12 ['1', '38', '24', '22', '6'] 11456.00000000001
90 229.12 ['1', '38', '24', '22', '6'] 11456.00000000001
91 229.12 ['1', '38', '24', '22', '6'] 11456.00000000001
92 229.12 ['1', '38', '24', '22', '6'] 11456.00000000001
93 229.12 ['1', '38', '24', '22', '6'] 11456.00000000001
94 229.12 ['1', '38', '24', '22', '6'] 11456.00000000001
95 229.12 ['1', '38', '24', '22', '6'] 11456.00000000001
96 229.12 ['1', '38', '24', '22', '6'] 11456.00000000001
97 229.12 ['1', '38', '24', '22', '6'] 11456.00000000001
98 229.12 ['1', '38', '24', '22', '6'] 11456.00000000001
99 229.12 ['1', '38', '24', '22', '6'] 11456.00000000001
100 229.12 ['1', '38', '24', '22', '6'] 11456.00000000001
101 229.12 ['1', '38', '24', '22', '6'] 11456.00000000001
102 229.12 ['1', '38', '24', '22', '6'] 11456.00000000001
103 229.12 ['1', '38', '24', '22', '6'] 11456.00000000001
104 229.12 ['1', '38', '24', '22', '6'] 11456.00000000001
105 229.12 ['1', '38', '24', '22', '6'] 11456.00000000001
106 229.12 ['1', '38', '24', '22', '6'] 11456.00000000001
107 229.12 ['1', '38', '24', '22', '6'] 11456.00000000001
108 229.12 ['1', '38', '24', '22', '6'] 11456.00000000001
109 229.12 ['1', '38', '24', '22', '6'] 11456.00000000001
110 229.12 ['1', '38', '24', '22', '6'] 11456.00000000001
111 229.12 ['1', '38', '24', '22', '6'] 11456.00000000001
112 229.12 ['1', '38', '24', '22', '6'] 11456.00000000001
113 229.12 ['1', '38', '24', '22', '6'] 11456.00000000001
114 229.12 ['1', '38', '24', '22', '6'] 11456.00000000001
115 229.12 ['1', '38', '24', '22', '6'] 11456.00000000001
116 229.12 ['1', '38', '24', '22', '6'] 11456.00000000001
117 229.12 ['1', '38', '24', '22', '6'] 11456.00000000001
118 229.12 ['1', '38', '24', '22', '6'] 11456.00000000001
119 229.12 ['1', '38', '24', '22', '6'] 11456.00000000001
120 229.12 ['1', '38', '24', '22', '6'] 11456.00000000001
121 229.12 ['1', '38', '24', '22', '6'] 11456.00000000001
122 229.12 ['1', '38', '24', '22', '6'] 11456.00000000001
123 229.12 ['1', '38', '24', '22', '6'] 11456.00000000001
124 229.12 ['1', '38', '24', '22', '6'] 11456.00000000001
125 229.12 ['1', '38', '24', '22', '6'] 11456.00000000001
126 229.12 ['1', '38', '24', '22', '6'] 11456.00000000001
127 229.12 ['1', '38', '24', '22', '6'] 11456.00000000001
128 229.12 ['1', '38', '24', '22', '6'] 11456.00000000001
129 229.12 ['1', '38', '24', '22', '6'] 11456.00000000001
130 229.12 ['1', '38', '24', '22', '6'] 11456.00000000001
131 229.12 ['1', '38', '24', '22', '6'] 11456.00000000001
132 229.12 ['1', '38', '24', '22', '6'] 11456.00000000001
133 229.12 ['1', '38', '24', '22', '6'] 11456.00000000001
134 229.12 ['1', '38', '24', '22', '6'] 11456.00000000001
135 229.12 ['1', '38', '24', '22', '6'] 11456.00000000001
136 229.12 ['1', '38', '24', '22', '6'] 11456.00000000001
137 229.12 ['1', '38', '24', '22', '6'] 11456.00000000001
138 229.12 ['1', '38', '24', '22', '6'] 11456.00000000001
139 229.12 ['1', '38', '24', '22', '6'] 11456.00000000001
140 229.12 ['1', '38', '24', '22', '6'] 11456.00000000001
141 229.12 ['1', '38', '24', '22', '6'] 11456.00000000001
142 229.12 ['1', '38', '24', '22', '6'] 11456.00000000001
143 229.12 ['1', '38', '24', '22', '6'] 11456.00000000001
144 229.12 ['1', '38', '24', '22', '6'] 11456.00000000001
145 229.12 ['1', '38', '24', '22', '6'] 11456.00000000001
146 229.12 ['1', '38', '24', '22', '6'] 11456.00000000001
147 229.12 ['1', '38', '24', '22', '6'] 11456.00000000001
148 229.12 ['1', '38', '24', '22', '6'] 11456.00000000001
149 229.12 ['1', '38', '24', '22', '6'] 11456.00000000001
150 229.12 ['1', '38', '24', '22', '6'] 11456.00000000001
151 229.12 ['1', '38', '24', '22', '6'] 11456.00000000001
152 229.12 ['1', '38', '24', '22', '6'] 11456.00000000001
153 229.12 ['1', '38', '24', '22', '6'] 11456.00000000001
154 229.12 ['1', '38', '24', '22', '6'] 11456.00000000001
155 229.12 ['1', '38', '24', '22', '6'] 11456.00000000001
156 229.12 ['1', '38', '24', '22', '6'] 11456.00000000001
157 229.12 ['1', '38', '24', '22', '6'] 11456.00000000001
158 229.12 ['1', '38', '24', '22', '6'] 11456.00000000001
159 229.12 ['1', '38', '24', '22', '6'] 11456.00000000001
160 229.12 ['1', '38', '24', '22', '6'] 11456.00000000001
161 229.12 ['1', '38', '24', '22', '6'] 11456.00000000001
162 229.12 ['1', '38', '24', '22', '6'] 11456.00000000001
163 229.12 ['1', '38', '24', '22', '6'] 11456.00000000001
164 229.12 ['1', '38', '24', '22', '6'] 11456.00000000001
165 229.12 ['1', '38', '24', '22', '6'] 11456.00000000001
166 229.12 ['1', '38', '24', '22', '6'] 11456.00000000001
167 229.12 ['1', '38', '24', '22', '6'] 11456.00000000001
168 229.12 ['1', '38', '24', '22', '6'] 11456.00000000001
169 229.12 ['1', '38', '24', '22', '6'] 11456.00000000001
170 229.12 ['1', '38', '24', '22', '6'] 11456.00000000001
171 229.12 ['1', '38', '24', '22', '6'] 11456.00000000001
172 229.12 ['1', '38', '24', '22', '6'] 11456.00000000001
173 229.12 ['1', '38', '24', '22', '6'] 11456.00000000001
174 229.12 ['1', '38', '24', '22', '6'] 11456.00000000001
175 229.12 ['1', '38', '24', '22', '6'] 11456.00000000001
176 229.12 ['1', '38', '24', '22', '6'] 11456.00000000001
177 229.12 ['1', '38', '24', '22', '6'] 11456.00000000001
178 229.12 ['1', '38', '24', '22', '6'] 11456.00000000001
179 229.12 ['1', '38', '24', '22', '6'] 11456.00000000001
180 229.12 ['1', '38', '24', '22', '6'] 11456.00000000001
181 229.12 ['1', '38', '24', '22', '6'] 11456.00000000001
182 229.12 ['1', '38', '24', '22', '6'] 11456.00000000001
183 229.12 ['1', '38', '24', '22', '6'] 11456.00000000001
184 229.12 ['1', '38', '24', '22', '6'] 11456.00000000001
185 229.12 ['1', '38', '24', '22', '6'] 11456.00000000001
186 229.12 ['1', '38', '24', '22', '6'] 11456.00000000001
187 229.12 ['1', '38', '24', '22', '6'] 11456.00000000001
188 229.12 ['1', '38', '24', '22', '6'] 11456.00000000001
189 229.12 ['1', '38', '24', '22', '6'] 11456.00000000001
190 229.12 ['1', '38', '24', '22', '6'] 11456.00000000001
191 229.12 ['1', '38', '24', '22', '6'] 11456.00000000001
192 229.12 ['1', '38', '24', '22', '6'] 11456.00000000001
193 229.12 ['1', '38', '24', '22', '6'] 11456.00000000001
194 229.12 ['1', '38', '24', '22', '6'] 11456.00000000001
195 229.12 ['1', '38', '24', '22', '6'] 11456.00000000001
196 229.12 ['1', '38', '24', '22', '6'] 11456.00000000001
197 229.12 ['1', '38', '24', '22', '6'] 11456.00000000001
198 229.12 ['1', '38', '24', '22', '6'] 11456.00000000001
199 229.12 ['1', '38', '24', '22', '6'] 11456.00000000001
