0 205.33333333333334 ['38', '22', '48', '46', '41', '7'] 11010.537037037038
1 205.33333333333334 ['38', '22', '48', '46', '41', '7'] 10804.01851851852
2 198.0185185185185 ['60', '7', '9', '53', '48', '14'] 10589.407407407409
3 197.0185185185185 ['48', '7', '14', '38', '8', '21'] 10362.296296296294
4 192.90740740740742 ['38', '1', '4', '7', '12', '48'] 10146.27777777778
5 182.42592592592592 ['14', '48', '12', '42', '7', '8'] 9959.907407407407
6 182.42592592592592 ['14', '48', '12', '42', '7', '8'] 9834.449831649836
7 182.42592592592592 ['14', '48', '12', '42', '7', '8'] 9647.131313131315
8 180.3148148148148 ['48', '7', '8', '12', '21', '14'] 9454.482828282824
9 180.3148148148148 ['48', '7', '8', '12', '21', '14'] 9265.901346801347
10 177.43636363636364 ['48', '8', '12', '14', '7'] 9117.317845117845
11 177.43636363636364 ['48', '8', '12', '14', '7'] 9060.048821548822
12 177.43636363636364 ['48', '8', '12', '14', '7'] 9006.375420875418
13 177.10714285714286 ['14', '48', '7', '12'] 8967.554353054353
14 177.10714285714286 ['14', '48', '7', '12'] 8915.55026455026
15 177.10714285714286 ['14', '48', '7', '12'] 8867.538311688302
16 177.10714285714286 ['14', '48', '7', '12'] 8862.599999999991
17 177.10714285714286 ['14', '48', '7', '12'] 8855.357142857147
18 177.10714285714286 ['14', '48', '7', '12'] 8855.357142857147
19 177.10714285714286 ['14', '48', '7', '12'] 8855.357142857147
20 177.10714285714286 ['14', '48', '7', '12'] 8855.357142857147
21 177.10714285714286 ['14', '48', '7', '12'] 8855.357142857147
22 177.10714285714286 ['14', '48', '7', '12'] 8855.357142857147
23 177.10714285714286 ['14', '48', '7', '12'] 8855.357142857147
24 177.10714285714286 ['14', '48', '7', '12'] 8855.357142857147
25 177.10714285714286 ['14', '48', '7', '12'] 8855.357142857147
26 177.10714285714286 ['14', '48', '7', '12'] 8855.357142857147
27 177.10714285714286 ['14', '48', '7', '12'] 8855.357142857147
28 177.10714285714286 ['14', '48', '7', '12'] 8855.357142857147
29 177.10714285714286 ['14', '48', '7', '12'] 8855.357142857147
30 177.10714285714286 ['14', '48', '7', '12'] 8855.357142857147
31 177.10714285714286 ['14', '48', '7', '12'] 8855.357142857147
32 177.10714285714286 ['14', '48', '7', '12'] 8855.357142857147
33 177.10714285714286 ['14', '48', '7', '12'] 8855.357142857147
34 177.10714285714286 ['14', '48', '7', '12'] 8855.357142857147
35 177.10714285714286 ['14', '48', '7', '12'] 8855.357142857147
36 177.10714285714286 ['14', '48', '7', '12'] 8855.357142857147
37 177.10714285714286 ['14', '48', '7', '12'] 8855.357142857147
38 177.10714285714286 ['14', '48', '7', '12'] 8855.357142857147
39 177.10714285714286 ['14', '48', '7', '12'] 8855.357142857147
40 177.10714285714286 ['14', '48', '7', '12'] 8855.357142857147
41 177.10714285714286 ['14', '48', '7', '12'] 8855.357142857147
42 177.10714285714286 ['14', '48', '7', '12'] 8855.357142857147
43 177.10714285714286 ['14', '48', '7', '12'] 8855.357142857147
44 177.10714285714286 ['14', '48', '7', '12'] 8855.357142857147
45 177.10714285714286 ['14', '48', '7', '12'] 8855.357142857147
46 177.10714285714286 ['14', '48', '7', '12'] 8855.357142857147
47 177.10714285714286 ['14', '48', '7', '12'] 8855.357142857147
48 177.10714285714286 ['14', '48', '7', '12'] 8855.357142857147
49 177.10714285714286 ['14', '48', '7', '12'] 8855.357142857147
50 177.10714285714286 ['14', '48', '7', '12'] 8855.357142857147
51 177.10714285714286 ['14', '48', '7', '12'] 8855.357142857147
52 177.10714285714286 ['14', '48', '7', '12'] 8855.357142857147
53 177.10714285714286 ['14', '48', '7', '12'] 8855.357142857147
54 177.10714285714286 ['14', '48', '7', '12'] 8855.357142857147
55 177.10714285714286 ['14', '48', '7', '12'] 8855.357142857147
56 177.10714285714286 ['14', '48', '7', '12'] 8855.357142857147
57 177.10714285714286 ['14', '48', '7', '12'] 8855.357142857147
58 177.10714285714286 ['14', '48', '7', '12'] 8855.357142857147
59 177.10714285714286 ['14', '48', '7', '12'] 8855.357142857147
60 177.10714285714286 ['14', '48', '7', '12'] 8855.357142857147
61 177.10714285714286 ['14', '48', '7', '12'] 8855.357142857147
62 177.10714285714286 ['14', '48', '7', '12'] 8855.357142857147
63 177.10714285714286 ['14', '48', '7', '12'] 8855.357142857147
64 177.10714285714286 ['14', '48', '7', '12'] 8855.357142857147
65 177.10714285714286 ['14', '48', '7', '12'] 8855.357142857147
66 177.10714285714286 ['14', '48', '7', '12'] 8855.357142857147
67 177.10714285714286 ['14', '48', '7', '12'] 8855.357142857147
68 177.10714285714286 ['14', '48', '7', '12'] 8855.357142857147
69 177.10714285714286 ['14', '48', '7', '12'] 8855.357142857147
70 177.10714285714286 ['14', '48', '7', '12'] 8855.357142857147
71 177.10714285714286 ['14', '48', '7', '12'] 8855.357142857147
72 177.10714285714286 ['14', '48', '7', '12'] 8855.357142857147
73 177.10714285714286 ['14', '48', '7', '12'] 8855.357142857147
74 177.10714285714286 ['14', '48', '7', '12'] 8855.357142857147
75 177.10714285714286 ['14', '48', '7', '12'] 8855.357142857147
76 177.10714285714286 ['14', '48', '7', '12'] 8855.357142857147
77 177.10714285714286 ['14', '48', '7', '12'] 8855.357142857147
78 177.10714285714286 ['14', '48', '7', '12'] 8855.357142857147
79 177.10714285714286 ['14', '48', '7', '12'] 8855.357142857147
80 177.10714285714286 ['14', '48', '7', '12'] 8855.357142857147
81 177.10714285714286 ['14', '48', '7', '12'] 8855.357142857147
82 177.10714285714286 ['14', '48', '7', '12'] 8855.357142857147
83 177.10714285714286 ['14', '48', '7', '12'] 8855.357142857147
84 177.10714285714286 ['14', '48', '7', '12'] 8855.357142857147
85 177.10714285714286 ['14', '48', '7', '12'] 8855.357142857147
86 177.10714285714286 ['14', '48', '7', '12'] 8855.357142857147
87 177.10714285714286 ['14', '48', '7', '12'] 8855.357142857147
88 177.10714285714286 ['14', '48', '7', '12'] 8855.357142857147
89 177.10714285714286 ['14', '48', '7', '12'] 8855.357142857147
90 177.10714285714286 ['14', '48', '7', '12'] 8855.357142857147
91 177.10714285714286 ['14', '48', '7', '12'] 8855.357142857147
92 177.10714285714286 ['14', '48', '7', '12'] 8855.357142857147
93 177.10714285714286 ['14', '48', '7', '12'] 8855.357142857147
94 177.10714285714286 ['14', '48', '7', '12'] 8855.357142857147
95 177.10714285714286 ['14', '48', '7', '12'] 8855.357142857147
96 177.10714285714286 ['14', '48', '7', '12'] 8855.357142857147
97 177.10714285714286 ['14', '48', '7', '12'] 8855.357142857147
98 177.10714285714286 ['14', '48', '7', '12'] 8855.357142857147
99 177.10714285714286 ['14', '48', '7', '12'] 8855.357142857147
100 177.10714285714286 ['14', '48', '7', '12'] 8855.357142857147
101 177.10714285714286 ['14', '48', '7', '12'] 8855.357142857147
102 177.10714285714286 ['14', '48', '7', '12'] 8855.357142857147
103 177.10714285714286 ['14', '48', '7', '12'] 8855.357142857147
104 177.10714285714286 ['14', '48', '7', '12'] 8855.357142857147
105 177.10714285714286 ['14', '48', '7', '12'] 8855.357142857147
106 177.10714285714286 ['14', '48', '7', '12'] 8855.357142857147
107 177.10714285714286 ['14', '48', '7', '12'] 8855.357142857147
108 177.10714285714286 ['14', '48', '7', '12'] 8855.357142857147
109 177.10714285714286 ['14', '48', '7', '12'] 8855.357142857147
110 177.10714285714286 ['14', '48', '7', '12'] 8855.357142857147
111 177.10714285714286 ['14', '48', '7', '12'] 8855.357142857147
112 177.10714285714286 ['14', '48', '7', '12'] 8855.357142857147
113 177.10714285714286 ['14', '48', '7', '12'] 8855.357142857147
114 177.10714285714286 ['14', '48', '7', '12'] 8855.357142857147
115 177.10714285714286 ['14', '48', '7', '12'] 8855.357142857147
116 177.10714285714286 ['14', '48', '7', '12'] 8855.357142857147
117 177.10714285714286 ['14', '48', '7', '12'] 8855.357142857147
118 177.10714285714286 ['14', '48', '7', '12'] 8855.357142857147
119 177.10714285714286 ['14', '48', '7', '12'] 8855.357142857147
120 177.10714285714286 ['14', '48', '7', '12'] 8855.357142857147
121 177.10714285714286 ['14', '48', '7', '12'] 8855.357142857147
122 177.10714285714286 ['14', '48', '7', '12'] 8855.357142857147
123 177.10714285714286 ['14', '48', '7', '12'] 8855.357142857147
124 177.10714285714286 ['14', '48', '7', '12'] 8855.357142857147
125 177.10714285714286 ['14', '48', '7', '12'] 8855.357142857147
126 177.10714285714286 ['14', '48', '7', '12'] 8855.357142857147
127 177.10714285714286 ['14', '48', '7', '12'] 8855.357142857147
128 177.10714285714286 ['14', '48', '7', '12'] 8855.357142857147
129 177.10714285714286 ['14', '48', '7', '12'] 8855.357142857147
130 177.10714285714286 ['14', '48', '7', '12'] 8855.357142857147
131 177.10714285714286 ['14', '48', '7', '12'] 8855.357142857147
132 177.10714285714286 ['14', '48', '7', '12'] 8855.357142857147
133 177.10714285714286 ['14', '48', '7', '12'] 8855.357142857147
134 177.10714285714286 ['14', '48', '7', '12'] 8855.357142857147
135 177.10714285714286 ['14', '48', '7', '12'] 8855.357142857147
136 177.10714285714286 ['14', '48', '7', '12'] 8855.357142857147
137 177.10714285714286 ['14', '48', '7', '12'] 8855.357142857147
138 177.10714285714286 ['14', '48', '7', '12'] 8855.357142857147
139 177.10714285714286 ['14', '48', '7', '12'] 8855.357142857147
140 177.10714285714286 ['14', '48', '7', '12'] 8855.357142857147
141 177.10714285714286 ['14', '48', '7', '12'] 8855.357142857147
142 177.10714285714286 ['14', '48', '7', '12'] 8855.357142857147
143 177.10714285714286 ['14', '48', '7', '12'] 8855.357142857147
144 177.10714285714286 ['14', '48', '7', '12'] 8855.357142857147
145 177.10714285714286 ['14', '48', '7', '12'] 8855.357142857147
146 177.10714285714286 ['14', '48', '7', '12'] 8855.357142857147
147 177.10714285714286 ['14', '48', '7', '12'] 8855.357142857147
148 177.10714285714286 ['14', '48', '7', '12'] 8855.357142857147
149 177.10714285714286 ['14', '48', '7', '12'] 8855.357142857147
150 177.10714285714286 ['14', '48', '7', '12'] 8855.357142857147
151 177.10714285714286 ['14', '48', '7', '12'] 8855.357142857147
152 177.10714285714286 ['14', '48', '7', '12'] 8855.357142857147
153 177.10714285714286 ['14', '48', '7', '12'] 8855.357142857147
154 177.10714285714286 ['14', '48', '7', '12'] 8855.357142857147
155 177.10714285714286 ['14', '48', '7', '12'] 8855.357142857147
156 177.10714285714286 ['14', '48', '7', '12'] 8855.357142857147
157 177.10714285714286 ['14', '48', '7', '12'] 8855.357142857147
158 177.10714285714286 ['14', '48', '7', '12'] 8855.357142857147
159 177.10714285714286 ['14', '48', '7', '12'] 8855.357142857147
160 177.10714285714286 ['14', '48', '7', '12'] 8855.357142857147
161 177.10714285714286 ['14', '48', '7', '12'] 8855.357142857147
162 177.10714285714286 ['14', '48', '7', '12'] 8855.357142857147
163 177.10714285714286 ['14', '48', '7', '12'] 8855.357142857147
164 177.10714285714286 ['14', '48', '7', '12'] 8855.357142857147
165 177.10714285714286 ['14', '48', '7', '12'] 8855.357142857147
166 177.10714285714286 ['14', '48', '7', '12'] 8855.357142857147
167 177.10714285714286 ['14', '48', '7', '12'] 8855.357142857147
168 177.10714285714286 ['14', '48', '7', '12'] 8855.357142857147
169 177.10714285714286 ['14', '48', '7', '12'] 8855.357142857147
170 177.10714285714286 ['14', '48', '7', '12'] 8855.357142857147
171 177.10714285714286 ['14', '48', '7', '12'] 8855.357142857147
172 177.10714285714286 ['14', '48', '7', '12'] 8855.357142857147
173 177.10714285714286 ['14', '48', '7', '12'] 8855.357142857147
174 177.10714285714286 ['14', '48', '7', '12'] 8855.357142857147
175 177.10714285714286 ['14', '48', '7', '12'] 8855.357142857147
176 177.10714285714286 ['14', '48', '7', '12'] 8855.357142857147
177 177.10714285714286 ['14', '48', '7', '12'] 8855.357142857147
178 177.10714285714286 ['14', '48', '7', '12'] 8855.357142857147
179 177.10714285714286 ['14', '48', '7', '12'] 8855.357142857147
180 177.10714285714286 ['14', '48', '7', '12'] 8855.357142857147
181 177.10714285714286 ['14', '48', '7', '12'] 8855.357142857147
182 177.10714285714286 ['14', '48', '7', '12'] 8855.357142857147
183 177.10714285714286 ['14', '48', '7', '12'] 8855.357142857147
184 177.10714285714286 ['14', '48', '7', '12'] 8855.357142857147
185 177.10714285714286 ['14', '48', '7', '12'] 8855.357142857147
186 177.10714285714286 ['14', '48', '7', '12'] 8855.357142857147
187 177.10714285714286 ['14', '48', '7', '12'] 8855.357142857147
188 177.10714285714286 ['14', '48', '7', '12'] 8855.357142857147
189 177.10714285714286 ['14', '48', '7', '12'] 8855.357142857147
190 177.10714285714286 ['14', '48', '7', '12'] 8855.357142857147
191 177.10714285714286 ['14', '48', '7', '12'] 8855.357142857147
192 177.10714285714286 ['14', '48', '7', '12'] 8855.357142857147
193 177.10714285714286 ['14', '48', '7', '12'] 8855.357142857147
194 177.10714285714286 ['14', '48', '7', '12'] 8855.357142857147
195 177.10714285714286 ['14', '48', '7', '12'] 8855.357142857147
196 177.10714285714286 ['14', '48', '7', '12'] 8855.357142857147
197 177.10714285714286 ['14', '48', '7', '12'] 8855.357142857147
198 177.10714285714286 ['14', '48', '7', '12'] 8855.357142857147
199 177.10714285714286 ['14', '48', '7', '12'] 8855.357142857147
