0 32.42553191489362 ['36', '22', '8', '23', '30'] 1724.5957446808509
1 32.06382978723404 ['8', '3', '23', '22', '30'] 1693.6808510638293
2 31.51063829787234 ['45', '43', '8', '30', '19'] 1670.3404255319144
3 31.51063829787234 ['45', '43', '8', '30', '19'] 1644.6595744680856
4 31.51063829787234 ['45', '43', '8', '30', '19'] 1621.7021276595747
5 31.51063829787234 ['45', '43', '8', '30', '19'] 1604.6382978723402
6 31.319148936170212 ['8', '30', '23', '43', '19'] 1591.9361702127658
7 31.27659574468085 ['8', '45', '30', '23', '19'] 1581.2553191489349
8 31.27659574468085 ['8', '45', '30', '23', '19'] 1575.1276595744687
9 31.27659574468085 ['8', '45', '30', '23', '19'] 1571.8510638297885
10 31.27659574468085 ['8', '45', '30', '23', '19'] 1567.2978723404256
11 31.27659574468085 ['8', '45', '30', '23', '19'] 1565.5319148936173
12 31.27659574468085 ['8', '45', '30', '23', '19'] 1565.148936170213
13 31.27659574468085 ['8', '45', '30', '23', '19'] 1564.382978723405
14 31.27659574468085 ['8', '45', '30', '23', '19'] 1563.8297872340436
15 31.27659574468085 ['8', '45', '30', '23', '19'] 1563.8297872340436
16 31.27659574468085 ['8', '45', '30', '23', '19'] 1563.8297872340436
17 31.27659574468085 ['8', '45', '30', '23', '19'] 1563.8297872340436
18 31.27659574468085 ['8', '45', '30', '23', '19'] 1563.8297872340436
19 31.27659574468085 ['8', '45', '30', '23', '19'] 1563.8297872340436
20 31.27659574468085 ['8', '45', '30', '23', '19'] 1563.8297872340436
21 31.27659574468085 ['8', '45', '30', '23', '19'] 1563.8297872340436
22 31.27659574468085 ['8', '45', '30', '23', '19'] 1563.8297872340436
23 31.27659574468085 ['8', '45', '30', '23', '19'] 1563.8297872340436
24 31.27659574468085 ['8', '45', '30', '23', '19'] 1563.8297872340436
25 31.27659574468085 ['8', '45', '30', '23', '19'] 1563.8297872340436
26 31.27659574468085 ['8', '45', '30', '23', '19'] 1563.8297872340436
27 31.27659574468085 ['8', '45', '30', '23', '19'] 1563.8297872340436
28 31.27659574468085 ['8', '45', '30', '23', '19'] 1563.8297872340436
29 31.27659574468085 ['8', '45', '30', '23', '19'] 1563.8297872340436
30 31.27659574468085 ['8', '45', '30', '23', '19'] 1563.8297872340436
31 31.27659574468085 ['8', '45', '30', '23', '19'] 1563.8297872340436
32 31.27659574468085 ['8', '45', '30', '23', '19'] 1563.8297872340436
33 31.27659574468085 ['8', '45', '30', '23', '19'] 1563.8297872340436
34 31.27659574468085 ['8', '45', '30', '23', '19'] 1563.8297872340436
35 31.27659574468085 ['8', '45', '30', '23', '19'] 1563.8297872340436
36 31.27659574468085 ['8', '45', '30', '23', '19'] 1563.8297872340436
37 31.27659574468085 ['8', '45', '30', '23', '19'] 1563.8297872340436
38 31.27659574468085 ['8', '45', '30', '23', '19'] 1563.8297872340436
39 31.27659574468085 ['8', '45', '30', '23', '19'] 1563.8297872340436
40 31.27659574468085 ['8', '45', '30', '23', '19'] 1563.8297872340436
41 31.27659574468085 ['8', '45', '30', '23', '19'] 1563.8297872340436
42 31.27659574468085 ['8', '45', '30', '23', '19'] 1563.8297872340436
43 31.27659574468085 ['8', '45', '30', '23', '19'] 1563.8297872340436
44 31.27659574468085 ['8', '45', '30', '23', '19'] 1563.8297872340436
45 31.27659574468085 ['8', '45', '30', '23', '19'] 1563.8297872340436
46 31.27659574468085 ['8', '45', '30', '23', '19'] 1563.8297872340436
47 31.27659574468085 ['8', '45', '30', '23', '19'] 1563.8297872340436
48 31.27659574468085 ['8', '45', '30', '23', '19'] 1563.8297872340436
49 31.27659574468085 ['8', '45', '30', '23', '19'] 1563.8297872340436
50 31.27659574468085 ['8', '45', '30', '23', '19'] 1563.8297872340436
51 31.27659574468085 ['8', '45', '30', '23', '19'] 1563.8297872340436
52 31.27659574468085 ['8', '45', '30', '23', '19'] 1563.8297872340436
53 31.27659574468085 ['8', '45', '30', '23', '19'] 1563.8297872340436
54 31.27659574468085 ['8', '45', '30', '23', '19'] 1563.8297872340436
55 31.27659574468085 ['8', '45', '30', '23', '19'] 1563.8297872340436
56 31.27659574468085 ['8', '45', '30', '23', '19'] 1563.8297872340436
57 31.27659574468085 ['8', '45', '30', '23', '19'] 1563.8297872340436
58 31.27659574468085 ['8', '45', '30', '23', '19'] 1563.8297872340436
59 31.27659574468085 ['8', '45', '30', '23', '19'] 1563.8297872340436
60 31.27659574468085 ['8', '45', '30', '23', '19'] 1563.8297872340436
61 31.27659574468085 ['8', '45', '30', '23', '19'] 1563.8297872340436
62 31.27659574468085 ['8', '45', '30', '23', '19'] 1563.8297872340436
63 31.27659574468085 ['8', '45', '30', '23', '19'] 1563.8297872340436
64 31.27659574468085 ['8', '45', '30', '23', '19'] 1563.8297872340436
65 31.27659574468085 ['8', '45', '30', '23', '19'] 1563.8297872340436
66 31.27659574468085 ['8', '45', '30', '23', '19'] 1563.8297872340436
67 31.27659574468085 ['8', '45', '30', '23', '19'] 1563.8297872340436
68 31.27659574468085 ['8', '45', '30', '23', '19'] 1563.8297872340436
69 31.27659574468085 ['8', '45', '30', '23', '19'] 1563.8297872340436
70 31.27659574468085 ['8', '45', '30', '23', '19'] 1563.8297872340436
71 31.27659574468085 ['8', '45', '30', '23', '19'] 1563.8297872340436
72 31.27659574468085 ['8', '45', '30', '23', '19'] 1563.8297872340436
73 31.27659574468085 ['8', '45', '30', '23', '19'] 1563.8297872340436
74 31.27659574468085 ['8', '45', '30', '23', '19'] 1563.8297872340436
75 31.27659574468085 ['8', '45', '30', '23', '19'] 1563.8297872340436
76 31.27659574468085 ['8', '45', '30', '23', '19'] 1563.8297872340436
77 31.27659574468085 ['8', '45', '30', '23', '19'] 1563.8297872340436
78 31.27659574468085 ['8', '45', '30', '23', '19'] 1563.8297872340436
79 31.27659574468085 ['8', '45', '30', '23', '19'] 1563.8297872340436
80 31.27659574468085 ['8', '45', '30', '23', '19'] 1563.8297872340436
81 31.27659574468085 ['8', '45', '30', '23', '19'] 1563.8297872340436
82 31.27659574468085 ['8', '45', '30', '23', '19'] 1563.8297872340436
83 31.27659574468085 ['8', '45', '30', '23', '19'] 1563.8297872340436
84 31.27659574468085 ['8', '45', '30', '23', '19'] 1563.8297872340436
85 31.27659574468085 ['8', '45', '30', '23', '19'] 1563.8297872340436
86 31.27659574468085 ['8', '45', '30', '23', '19'] 1563.8297872340436
87 31.27659574468085 ['8', '45', '30', '23', '19'] 1563.8297872340436
88 31.27659574468085 ['8', '45', '30', '23', '19'] 1563.8297872340436
89 31.27659574468085 ['8', '45', '30', '23', '19'] 1563.8297872340436
90 31.27659574468085 ['8', '45', '30', '23', '19'] 1563.8297872340436
91 31.27659574468085 ['8', '45', '30', '23', '19'] 1563.8297872340436
92 31.27659574468085 ['8', '45', '30', '23', '19'] 1563.8297872340436
93 31.27659574468085 ['8', '45', '30', '23', '19'] 1563.8297872340436
94 31.27659574468085 ['8', '45', '30', '23', '19'] 1563.8297872340436
95 31.27659574468085 ['8', '45', '30', '23', '19'] 1563.8297872340436
96 31.27659574468085 ['8', '45', '30', '23', '19'] 1563.8297872340436
97 31.27659574468085 ['8', '45', '30', '23', '19'] 1563.8297872340436
98 31.27659574468085 ['8', '45', '30', '23', '19'] 1563.8297872340436
99 31.27659574468085 ['8', '45', '30', '23', '19'] 1563.8297872340436
100 31.27659574468085 ['8', '45', '30', '23', '19'] 1563.8297872340436
101 31.27659574468085 ['8', '45', '30', '23', '19'] 1563.8297872340436
102 31.27659574468085 ['8', '45', '30', '23', '19'] 1563.8297872340436
103 31.27659574468085 ['8', '45', '30', '23', '19'] 1563.8297872340436
104 31.27659574468085 ['8', '45', '30', '23', '19'] 1563.8297872340436
105 31.27659574468085 ['8', '45', '30', '23', '19'] 1563.8297872340436
106 31.27659574468085 ['8', '45', '30', '23', '19'] 1563.8297872340436
107 31.27659574468085 ['8', '45', '30', '23', '19'] 1563.8297872340436
108 31.27659574468085 ['8', '45', '30', '23', '19'] 1563.8297872340436
109 31.27659574468085 ['8', '45', '30', '23', '19'] 1563.8297872340436
110 31.27659574468085 ['8', '45', '30', '23', '19'] 1563.8297872340436
111 31.27659574468085 ['8', '45', '30', '23', '19'] 1563.8297872340436
112 31.27659574468085 ['8', '45', '30', '23', '19'] 1563.8297872340436
113 31.27659574468085 ['8', '45', '30', '23', '19'] 1563.8297872340436
114 31.27659574468085 ['8', '45', '30', '23', '19'] 1563.8297872340436
115 31.27659574468085 ['8', '45', '30', '23', '19'] 1563.8297872340436
116 31.27659574468085 ['8', '45', '30', '23', '19'] 1563.8297872340436
117 31.27659574468085 ['8', '45', '30', '23', '19'] 1563.8297872340436
118 31.27659574468085 ['8', '45', '30', '23', '19'] 1563.8297872340436
119 31.27659574468085 ['8', '45', '30', '23', '19'] 1563.8297872340436
120 31.27659574468085 ['8', '45', '30', '23', '19'] 1563.8297872340436
121 31.27659574468085 ['8', '45', '30', '23', '19'] 1563.8297872340436
122 31.27659574468085 ['8', '45', '30', '23', '19'] 1563.8297872340436
123 31.27659574468085 ['8', '45', '30', '23', '19'] 1563.8297872340436
124 31.27659574468085 ['8', '45', '30', '23', '19'] 1563.8297872340436
125 31.27659574468085 ['8', '45', '30', '23', '19'] 1563.8297872340436
126 31.27659574468085 ['8', '45', '30', '23', '19'] 1563.8297872340436
127 31.27659574468085 ['8', '45', '30', '23', '19'] 1563.8297872340436
128 31.27659574468085 ['8', '45', '30', '23', '19'] 1563.8297872340436
129 31.27659574468085 ['8', '45', '30', '23', '19'] 1563.8297872340436
130 31.27659574468085 ['8', '45', '30', '23', '19'] 1563.8297872340436
131 31.27659574468085 ['8', '45', '30', '23', '19'] 1563.8297872340436
132 31.27659574468085 ['8', '45', '30', '23', '19'] 1563.8297872340436
133 31.27659574468085 ['8', '45', '30', '23', '19'] 1563.8297872340436
134 31.27659574468085 ['8', '45', '30', '23', '19'] 1563.8297872340436
135 31.27659574468085 ['8', '45', '30', '23', '19'] 1563.8297872340436
136 31.27659574468085 ['8', '45', '30', '23', '19'] 1563.8297872340436
137 31.27659574468085 ['8', '45', '30', '23', '19'] 1563.8297872340436
138 31.27659574468085 ['8', '45', '30', '23', '19'] 1563.8297872340436
139 31.27659574468085 ['8', '45', '30', '23', '19'] 1563.8297872340436
140 31.27659574468085 ['8', '45', '30', '23', '19'] 1563.8297872340436
141 31.27659574468085 ['8', '45', '30', '23', '19'] 1563.8297872340436
142 31.27659574468085 ['8', '45', '30', '23', '19'] 1563.8297872340436
143 31.27659574468085 ['8', '45', '30', '23', '19'] 1563.8297872340436
144 31.27659574468085 ['8', '45', '30', '23', '19'] 1563.8297872340436
145 31.27659574468085 ['8', '45', '30', '23', '19'] 1563.8297872340436
146 31.27659574468085 ['8', '45', '30', '23', '19'] 1563.8297872340436
147 31.27659574468085 ['8', '45', '30', '23', '19'] 1563.8297872340436
148 31.27659574468085 ['8', '45', '30', '23', '19'] 1563.8297872340436
149 31.27659574468085 ['8', '45', '30', '23', '19'] 1563.8297872340436
150 31.27659574468085 ['8', '45', '30', '23', '19'] 1563.8297872340436
151 31.27659574468085 ['8', '45', '30', '23', '19'] 1563.8297872340436
152 31.27659574468085 ['8', '45', '30', '23', '19'] 1563.8297872340436
153 31.27659574468085 ['8', '45', '30', '23', '19'] 1563.8297872340436
154 31.27659574468085 ['8', '45', '30', '23', '19'] 1563.8297872340436
155 31.27659574468085 ['8', '45', '30', '23', '19'] 1563.8297872340436
156 31.27659574468085 ['8', '45', '30', '23', '19'] 1563.8297872340436
157 31.27659574468085 ['8', '45', '30', '23', '19'] 1563.8297872340436
158 31.27659574468085 ['8', '45', '30', '23', '19'] 1563.8297872340436
159 31.27659574468085 ['8', '45', '30', '23', '19'] 1563.8297872340436
160 31.27659574468085 ['8', '45', '30', '23', '19'] 1563.8297872340436
161 31.27659574468085 ['8', '45', '30', '23', '19'] 1563.8297872340436
162 31.27659574468085 ['8', '45', '30', '23', '19'] 1563.8297872340436
163 31.27659574468085 ['8', '45', '30', '23', '19'] 1563.8297872340436
164 31.27659574468085 ['8', '45', '30', '23', '19'] 1563.8297872340436
165 31.27659574468085 ['8', '45', '30', '23', '19'] 1563.8297872340436
166 31.27659574468085 ['8', '45', '30', '23', '19'] 1563.8297872340436
167 31.27659574468085 ['8', '45', '30', '23', '19'] 1563.8297872340436
168 31.27659574468085 ['8', '45', '30', '23', '19'] 1563.8297872340436
169 31.27659574468085 ['8', '45', '30', '23', '19'] 1563.8297872340436
170 31.27659574468085 ['8', '45', '30', '23', '19'] 1563.8297872340436
171 31.27659574468085 ['8', '45', '30', '23', '19'] 1563.8297872340436
172 31.27659574468085 ['8', '45', '30', '23', '19'] 1563.8297872340436
173 31.27659574468085 ['8', '45', '30', '23', '19'] 1563.8297872340436
174 31.27659574468085 ['8', '45', '30', '23', '19'] 1563.8297872340436
175 31.27659574468085 ['8', '45', '30', '23', '19'] 1563.8297872340436
176 31.27659574468085 ['8', '45', '30', '23', '19'] 1563.8297872340436
177 31.27659574468085 ['8', '45', '30', '23', '19'] 1563.8297872340436
178 31.27659574468085 ['8', '45', '30', '23', '19'] 1563.8297872340436
179 31.27659574468085 ['8', '45', '30', '23', '19'] 1563.8297872340436
180 31.27659574468085 ['8', '45', '30', '23', '19'] 1563.8297872340436
181 31.27659574468085 ['8', '45', '30', '23', '19'] 1563.8297872340436
182 31.27659574468085 ['8', '45', '30', '23', '19'] 1563.8297872340436
183 31.27659574468085 ['8', '45', '30', '23', '19'] 1563.8297872340436
184 31.27659574468085 ['8', '45', '30', '23', '19'] 1563.8297872340436
185 31.27659574468085 ['8', '45', '30', '23', '19'] 1563.8297872340436
186 31.27659574468085 ['8', '45', '30', '23', '19'] 1563.8297872340436
187 31.27659574468085 ['8', '45', '30', '23', '19'] 1563.8297872340436
188 31.27659574468085 ['8', '45', '30', '23', '19'] 1563.8297872340436
189 31.27659574468085 ['8', '45', '30', '23', '19'] 1563.8297872340436
190 31.27659574468085 ['8', '45', '30', '23', '19'] 1563.8297872340436
191 31.27659574468085 ['8', '45', '30', '23', '19'] 1563.8297872340436
192 31.27659574468085 ['8', '45', '30', '23', '19'] 1563.8297872340436
193 31.27659574468085 ['8', '45', '30', '23', '19'] 1563.8297872340436
194 31.27659574468085 ['8', '45', '30', '23', '19'] 1563.8297872340436
195 31.27659574468085 ['8', '45', '30', '23', '19'] 1563.8297872340436
196 31.27659574468085 ['8', '45', '30', '23', '19'] 1563.8297872340436
197 31.27659574468085 ['8', '45', '30', '23', '19'] 1563.8297872340436
198 31.27659574468085 ['8', '45', '30', '23', '19'] 1563.8297872340436
199 31.27659574468085 ['8', '45', '30', '23', '19'] 1563.8297872340436
