0 468.025 ['43', '23', '40', '34'] 25288.500000000007
1 460.175 ['3', '43', '8', '28'] 24734.399999999998
2 453.05 ['3', '8', '43', '25'] 24133.424999999985
3 453.05 ['3', '8', '43', '25'] 23644.64999999999
4 448.275 ['43', '17', '25', '3'] 23274.475
5 442.325 ['43', '25', '23', '34'] 22945.3
6 442.325 ['43', '25', '23', '34'] 22618.825
7 442.325 ['43', '25', '23', '34'] 22471.824999999983
8 442.325 ['43', '25', '23', '34'] 22301.325000000026
9 442.325 ['43', '25', '23', '34'] 22203.35
10 442.325 ['43', '25', '23', '34'] 22150.90000000001
11 442.325 ['43', '25', '23', '34'] 22116.25000000002
12 442.325 ['43', '25', '23', '34'] 22116.25000000002
13 442.325 ['43', '25', '23', '34'] 22116.25000000002
14 442.325 ['43', '25', '23', '34'] 22116.25000000002
15 442.325 ['43', '25', '23', '34'] 22116.25000000002
16 442.325 ['43', '25', '23', '34'] 22116.25000000002
17 442.325 ['43', '25', '23', '34'] 22116.25000000002
18 442.325 ['43', '25', '23', '34'] 22116.25000000002
19 442.325 ['43', '25', '23', '34'] 22116.25000000002
20 442.325 ['43', '25', '23', '34'] 22116.25000000002
21 442.325 ['43', '25', '23', '34'] 22116.25000000002
22 442.325 ['43', '25', '23', '34'] 22116.25000000002
23 442.325 ['43', '25', '23', '34'] 22116.25000000002
24 442.325 ['43', '25', '23', '34'] 22116.25000000002
25 442.325 ['43', '25', '23', '34'] 22116.25000000002
26 442.325 ['43', '25', '23', '34'] 22116.25000000002
27 442.325 ['43', '25', '23', '34'] 22116.25000000002
28 442.325 ['43', '25', '23', '34'] 22116.25000000002
29 442.325 ['43', '25', '23', '34'] 22116.25000000002
30 442.325 ['43', '25', '23', '34'] 22116.25000000002
31 442.325 ['43', '25', '23', '34'] 22116.25000000002
32 442.325 ['43', '25', '23', '34'] 22116.25000000002
33 442.325 ['43', '25', '23', '34'] 22116.25000000002
34 442.325 ['43', '25', '23', '34'] 22116.25000000002
35 442.325 ['43', '25', '23', '34'] 22116.25000000002
36 442.325 ['43', '25', '23', '34'] 22116.25000000002
37 442.325 ['43', '25', '23', '34'] 22116.25000000002
38 442.325 ['43', '25', '23', '34'] 22116.25000000002
39 442.325 ['43', '25', '23', '34'] 22116.25000000002
40 442.325 ['43', '25', '23', '34'] 22116.25000000002
41 442.325 ['43', '25', '23', '34'] 22116.25000000002
42 442.325 ['43', '25', '23', '34'] 22116.25000000002
43 442.325 ['43', '25', '23', '34'] 22116.25000000002
44 442.325 ['43', '25', '23', '34'] 22116.25000000002
45 442.325 ['43', '25', '23', '34'] 22116.25000000002
46 442.325 ['43', '25', '23', '34'] 22116.25000000002
47 442.325 ['43', '25', '23', '34'] 22116.25000000002
48 442.325 ['43', '25', '23', '34'] 22116.25000000002
49 442.325 ['43', '25', '23', '34'] 22116.25000000002
50 442.325 ['43', '25', '23', '34'] 22116.25000000002
51 442.325 ['43', '25', '23', '34'] 22116.25000000002
52 442.325 ['43', '25', '23', '34'] 22116.25000000002
53 442.325 ['43', '25', '23', '34'] 22116.25000000002
54 442.325 ['43', '25', '23', '34'] 22116.25000000002
55 442.325 ['43', '25', '23', '34'] 22116.25000000002
56 442.325 ['43', '25', '23', '34'] 22116.25000000002
57 442.325 ['43', '25', '23', '34'] 22116.25000000002
58 442.325 ['43', '25', '23', '34'] 22116.25000000002
59 442.325 ['43', '25', '23', '34'] 22116.25000000002
60 442.325 ['43', '25', '23', '34'] 22116.25000000002
61 442.325 ['43', '25', '23', '34'] 22116.25000000002
62 442.325 ['43', '25', '23', '34'] 22116.25000000002
63 442.325 ['43', '25', '23', '34'] 22116.25000000002
64 442.325 ['43', '25', '23', '34'] 22116.25000000002
65 442.325 ['43', '25', '23', '34'] 22116.25000000002
66 442.325 ['43', '25', '23', '34'] 22116.25000000002
67 442.325 ['43', '25', '23', '34'] 22116.25000000002
68 442.325 ['43', '25', '23', '34'] 22116.25000000002
69 442.325 ['43', '25', '23', '34'] 22116.25000000002
70 442.325 ['43', '25', '23', '34'] 22116.25000000002
71 442.325 ['43', '25', '23', '34'] 22116.25000000002
72 442.325 ['43', '25', '23', '34'] 22116.25000000002
73 442.325 ['43', '25', '23', '34'] 22116.25000000002
74 442.325 ['43', '25', '23', '34'] 22116.25000000002
75 442.325 ['43', '25', '23', '34'] 22116.25000000002
76 442.325 ['43', '25', '23', '34'] 22116.25000000002
77 442.325 ['43', '25', '23', '34'] 22116.25000000002
78 442.325 ['43', '25', '23', '34'] 22116.25000000002
79 442.325 ['43', '25', '23', '34'] 22116.25000000002
80 442.325 ['43', '25', '23', '34'] 22116.25000000002
81 442.325 ['43', '25', '23', '34'] 22116.25000000002
82 442.325 ['43', '25', '23', '34'] 22116.25000000002
83 442.325 ['43', '25', '23', '34'] 22116.25000000002
84 442.325 ['43', '25', '23', '34'] 22116.25000000002
85 442.325 ['43', '25', '23', '34'] 22116.25000000002
86 442.325 ['43', '25', '23', '34'] 22116.25000000002
87 442.325 ['43', '25', '23', '34'] 22116.25000000002
88 442.325 ['43', '25', '23', '34'] 22116.25000000002
89 442.325 ['43', '25', '23', '34'] 22116.25000000002
90 442.325 ['43', '25', '23', '34'] 22116.25000000002
91 442.325 ['43', '25', '23', '34'] 22116.25000000002
92 442.325 ['43', '25', '23', '34'] 22116.25000000002
93 442.325 ['43', '25', '23', '34'] 22116.25000000002
94 442.325 ['43', '25', '23', '34'] 22116.25000000002
95 442.325 ['43', '25', '23', '34'] 22116.25000000002
96 442.325 ['43', '25', '23', '34'] 22116.25000000002
97 442.325 ['43', '25', '23', '34'] 22116.25000000002
98 442.325 ['43', '25', '23', '34'] 22116.25000000002
99 442.325 ['43', '25', '23', '34'] 22116.25000000002
100 442.325 ['43', '25', '23', '34'] 22116.25000000002
101 442.325 ['43', '25', '23', '34'] 22116.25000000002
102 442.325 ['43', '25', '23', '34'] 22116.25000000002
103 442.325 ['43', '25', '23', '34'] 22116.25000000002
104 442.325 ['43', '25', '23', '34'] 22116.25000000002
105 442.325 ['43', '25', '23', '34'] 22116.25000000002
106 442.325 ['43', '25', '23', '34'] 22116.25000000002
107 442.325 ['43', '25', '23', '34'] 22116.25000000002
108 442.325 ['43', '25', '23', '34'] 22116.25000000002
109 442.325 ['43', '25', '23', '34'] 22116.25000000002
110 442.325 ['43', '25', '23', '34'] 22116.25000000002
111 442.325 ['43', '25', '23', '34'] 22116.25000000002
112 442.325 ['43', '25', '23', '34'] 22116.25000000002
113 442.325 ['43', '25', '23', '34'] 22116.25000000002
114 442.325 ['43', '25', '23', '34'] 22116.25000000002
115 442.325 ['43', '25', '23', '34'] 22116.25000000002
116 442.325 ['43', '25', '23', '34'] 22116.25000000002
117 442.325 ['43', '25', '23', '34'] 22116.25000000002
118 442.325 ['43', '25', '23', '34'] 22116.25000000002
119 442.325 ['43', '25', '23', '34'] 22116.25000000002
120 442.325 ['43', '25', '23', '34'] 22116.25000000002
121 442.325 ['43', '25', '23', '34'] 22116.25000000002
122 442.325 ['43', '25', '23', '34'] 22116.25000000002
123 442.325 ['43', '25', '23', '34'] 22116.25000000002
124 442.325 ['43', '25', '23', '34'] 22116.25000000002
125 442.325 ['43', '25', '23', '34'] 22116.25000000002
126 442.325 ['43', '25', '23', '34'] 22116.25000000002
127 442.325 ['43', '25', '23', '34'] 22116.25000000002
128 442.325 ['43', '25', '23', '34'] 22116.25000000002
129 442.325 ['43', '25', '23', '34'] 22116.25000000002
130 442.325 ['43', '25', '23', '34'] 22116.25000000002
131 442.325 ['43', '25', '23', '34'] 22116.25000000002
132 442.325 ['43', '25', '23', '34'] 22116.25000000002
133 442.325 ['43', '25', '23', '34'] 22116.25000000002
134 442.325 ['43', '25', '23', '34'] 22116.25000000002
135 442.325 ['43', '25', '23', '34'] 22116.25000000002
136 442.325 ['43', '25', '23', '34'] 22116.25000000002
137 442.325 ['43', '25', '23', '34'] 22116.25000000002
138 442.325 ['43', '25', '23', '34'] 22116.25000000002
139 442.325 ['43', '25', '23', '34'] 22116.25000000002
140 442.325 ['43', '25', '23', '34'] 22116.25000000002
141 442.325 ['43', '25', '23', '34'] 22116.25000000002
142 442.325 ['43', '25', '23', '34'] 22116.25000000002
143 442.325 ['43', '25', '23', '34'] 22116.25000000002
144 442.325 ['43', '25', '23', '34'] 22116.25000000002
145 442.325 ['43', '25', '23', '34'] 22116.25000000002
146 442.325 ['43', '25', '23', '34'] 22116.25000000002
147 442.325 ['43', '25', '23', '34'] 22116.25000000002
148 442.325 ['43', '25', '23', '34'] 22116.25000000002
149 442.325 ['43', '25', '23', '34'] 22116.25000000002
150 442.325 ['43', '25', '23', '34'] 22116.25000000002
151 442.325 ['43', '25', '23', '34'] 22116.25000000002
152 442.325 ['43', '25', '23', '34'] 22116.25000000002
153 442.325 ['43', '25', '23', '34'] 22116.25000000002
154 442.325 ['43', '25', '23', '34'] 22116.25000000002
155 442.325 ['43', '25', '23', '34'] 22116.25000000002
156 442.325 ['43', '25', '23', '34'] 22116.25000000002
157 442.325 ['43', '25', '23', '34'] 22116.25000000002
158 442.325 ['43', '25', '23', '34'] 22116.25000000002
159 442.325 ['43', '25', '23', '34'] 22116.25000000002
160 442.325 ['43', '25', '23', '34'] 22116.25000000002
161 442.325 ['43', '25', '23', '34'] 22116.25000000002
162 442.325 ['43', '25', '23', '34'] 22116.25000000002
163 442.325 ['43', '25', '23', '34'] 22116.25000000002
164 442.325 ['43', '25', '23', '34'] 22116.25000000002
165 442.325 ['43', '25', '23', '34'] 22116.25000000002
166 442.325 ['43', '25', '23', '34'] 22116.25000000002
167 442.325 ['43', '25', '23', '34'] 22116.25000000002
168 442.325 ['43', '25', '23', '34'] 22116.25000000002
169 442.325 ['43', '25', '23', '34'] 22116.25000000002
170 442.325 ['43', '25', '23', '34'] 22116.25000000002
171 442.325 ['43', '25', '23', '34'] 22116.25000000002
172 442.325 ['43', '25', '23', '34'] 22116.25000000002
173 442.325 ['43', '25', '23', '34'] 22116.25000000002
174 442.325 ['43', '25', '23', '34'] 22116.25000000002
175 442.325 ['43', '25', '23', '34'] 22116.25000000002
176 442.325 ['43', '25', '23', '34'] 22116.25000000002
177 442.325 ['43', '25', '23', '34'] 22116.25000000002
178 442.325 ['43', '25', '23', '34'] 22116.25000000002
179 442.325 ['43', '25', '23', '34'] 22116.25000000002
180 442.325 ['43', '25', '23', '34'] 22116.25000000002
181 442.325 ['43', '25', '23', '34'] 22116.25000000002
182 442.325 ['43', '25', '23', '34'] 22116.25000000002
183 442.325 ['43', '25', '23', '34'] 22116.25000000002
184 442.325 ['43', '25', '23', '34'] 22116.25000000002
185 442.325 ['43', '25', '23', '34'] 22116.25000000002
186 442.325 ['43', '25', '23', '34'] 22116.25000000002
187 442.325 ['43', '25', '23', '34'] 22116.25000000002
188 442.325 ['43', '25', '23', '34'] 22116.25000000002
189 442.325 ['43', '25', '23', '34'] 22116.25000000002
190 442.325 ['43', '25', '23', '34'] 22116.25000000002
191 442.325 ['43', '25', '23', '34'] 22116.25000000002
192 442.325 ['43', '25', '23', '34'] 22116.25000000002
193 442.325 ['43', '25', '23', '34'] 22116.25000000002
194 442.325 ['43', '25', '23', '34'] 22116.25000000002
195 442.325 ['43', '25', '23', '34'] 22116.25000000002
196 442.325 ['43', '25', '23', '34'] 22116.25000000002
197 442.325 ['43', '25', '23', '34'] 22116.25000000002
198 442.325 ['43', '25', '23', '34'] 22116.25000000002
199 442.325 ['43', '25', '23', '34'] 22116.25000000002
