0 23.074074074074073 ['24', '11', '8'] 1302.2222222222222
1 23.0 ['11', '8', '13'] 1252.444444444444
2 23.0 ['11', '8', '13'] 1204.5555555555554
3 22.59259259259259 ['8', '29', '11'] 1171.1481481481487
4 22.59259259259259 ['8', '29', '11'] 1150.851851851851
5 22.59259259259259 ['8', '29', '11'] 1146.888888888889
6 22.59259259259259 ['8', '29', '11'] 1142.2592592592594
7 22.59259259259259 ['8', '29', '11'] 1136.1481481481483
8 22.59259259259259 ['8', '29', '11'] 1129.62962962963
9 22.59259259259259 ['8', '29', '11'] 1129.62962962963
10 22.59259259259259 ['8', '29', '11'] 1129.62962962963
11 22.59259259259259 ['8', '29', '11'] 1129.62962962963
12 22.59259259259259 ['8', '29', '11'] 1129.62962962963
13 22.59259259259259 ['8', '29', '11'] 1129.62962962963
14 22.59259259259259 ['8', '29', '11'] 1129.62962962963
15 22.59259259259259 ['8', '29', '11'] 1129.62962962963
16 22.59259259259259 ['8', '29', '11'] 1129.62962962963
17 22.59259259259259 ['8', '29', '11'] 1129.62962962963
18 22.59259259259259 ['8', '29', '11'] 1129.62962962963
19 22.59259259259259 ['8', '29', '11'] 1129.62962962963
20 22.59259259259259 ['8', '29', '11'] 1129.62962962963
21 22.59259259259259 ['8', '29', '11'] 1129.62962962963
22 22.59259259259259 ['8', '29', '11'] 1129.62962962963
23 22.59259259259259 ['8', '29', '11'] 1129.62962962963
24 22.59259259259259 ['8', '29', '11'] 1129.62962962963
25 22.59259259259259 ['8', '29', '11'] 1129.62962962963
26 22.59259259259259 ['8', '29', '11'] 1129.62962962963
27 22.59259259259259 ['8', '29', '11'] 1129.62962962963
28 22.59259259259259 ['8', '29', '11'] 1129.62962962963
29 22.59259259259259 ['8', '29', '11'] 1129.62962962963
30 22.59259259259259 ['8', '29', '11'] 1129.62962962963
31 22.59259259259259 ['8', '29', '11'] 1129.62962962963
32 22.59259259259259 ['8', '29', '11'] 1129.62962962963
33 22.59259259259259 ['8', '29', '11'] 1129.62962962963
34 22.59259259259259 ['8', '29', '11'] 1129.62962962963
35 22.59259259259259 ['8', '29', '11'] 1129.62962962963
36 22.59259259259259 ['8', '29', '11'] 1129.62962962963
37 22.59259259259259 ['8', '29', '11'] 1129.62962962963
38 22.59259259259259 ['8', '29', '11'] 1129.62962962963
39 22.59259259259259 ['8', '29', '11'] 1129.62962962963
40 22.59259259259259 ['8', '29', '11'] 1129.62962962963
41 22.59259259259259 ['8', '29', '11'] 1129.62962962963
42 22.59259259259259 ['8', '29', '11'] 1129.62962962963
43 22.59259259259259 ['8', '29', '11'] 1129.62962962963
44 22.59259259259259 ['8', '29', '11'] 1129.62962962963
45 22.59259259259259 ['8', '29', '11'] 1129.62962962963
46 22.59259259259259 ['8', '29', '11'] 1129.62962962963
47 22.59259259259259 ['8', '29', '11'] 1129.62962962963
48 22.59259259259259 ['8', '29', '11'] 1129.62962962963
49 22.59259259259259 ['8', '29', '11'] 1129.62962962963
50 22.59259259259259 ['8', '29', '11'] 1129.62962962963
51 22.59259259259259 ['8', '29', '11'] 1129.62962962963
52 22.59259259259259 ['8', '29', '11'] 1129.62962962963
53 22.59259259259259 ['8', '29', '11'] 1129.62962962963
54 22.59259259259259 ['8', '29', '11'] 1129.62962962963
55 22.59259259259259 ['8', '29', '11'] 1129.62962962963
56 22.59259259259259 ['8', '29', '11'] 1129.62962962963
57 22.59259259259259 ['8', '29', '11'] 1129.62962962963
58 22.59259259259259 ['8', '29', '11'] 1129.62962962963
59 22.59259259259259 ['8', '29', '11'] 1129.62962962963
60 22.59259259259259 ['8', '29', '11'] 1129.62962962963
61 22.59259259259259 ['8', '29', '11'] 1129.62962962963
62 22.59259259259259 ['8', '29', '11'] 1129.62962962963
63 22.59259259259259 ['8', '29', '11'] 1129.62962962963
64 22.59259259259259 ['8', '29', '11'] 1129.62962962963
65 22.59259259259259 ['8', '29', '11'] 1129.62962962963
66 22.59259259259259 ['8', '29', '11'] 1129.62962962963
67 22.59259259259259 ['8', '29', '11'] 1129.62962962963
68 22.59259259259259 ['8', '29', '11'] 1129.62962962963
69 22.59259259259259 ['8', '29', '11'] 1129.62962962963
70 22.59259259259259 ['8', '29', '11'] 1129.62962962963
71 22.59259259259259 ['8', '29', '11'] 1129.62962962963
72 22.59259259259259 ['8', '29', '11'] 1129.62962962963
73 22.59259259259259 ['8', '29', '11'] 1129.62962962963
74 22.59259259259259 ['8', '29', '11'] 1129.62962962963
75 22.59259259259259 ['8', '29', '11'] 1129.62962962963
76 22.59259259259259 ['8', '29', '11'] 1129.62962962963
77 22.59259259259259 ['8', '29', '11'] 1129.62962962963
78 22.59259259259259 ['8', '29', '11'] 1129.62962962963
79 22.59259259259259 ['8', '29', '11'] 1129.62962962963
80 22.59259259259259 ['8', '29', '11'] 1129.62962962963
81 22.59259259259259 ['8', '29', '11'] 1129.62962962963
82 22.59259259259259 ['8', '29', '11'] 1129.62962962963
83 22.59259259259259 ['8', '29', '11'] 1129.62962962963
84 22.59259259259259 ['8', '29', '11'] 1129.62962962963
85 22.59259259259259 ['8', '29', '11'] 1129.62962962963
86 22.59259259259259 ['8', '29', '11'] 1129.62962962963
87 22.59259259259259 ['8', '29', '11'] 1129.62962962963
88 22.59259259259259 ['8', '29', '11'] 1129.62962962963
89 22.59259259259259 ['8', '29', '11'] 1129.62962962963
90 22.59259259259259 ['8', '29', '11'] 1129.62962962963
91 22.59259259259259 ['8', '29', '11'] 1129.62962962963
92 22.59259259259259 ['8', '29', '11'] 1129.62962962963
93 22.59259259259259 ['8', '29', '11'] 1129.62962962963
94 22.59259259259259 ['8', '29', '11'] 1129.62962962963
95 22.59259259259259 ['8', '29', '11'] 1129.62962962963
96 22.59259259259259 ['8', '29', '11'] 1129.62962962963
97 22.59259259259259 ['8', '29', '11'] 1129.62962962963
98 22.59259259259259 ['8', '29', '11'] 1129.62962962963
99 22.59259259259259 ['8', '29', '11'] 1129.62962962963
100 22.59259259259259 ['8', '29', '11'] 1129.62962962963
101 22.59259259259259 ['8', '29', '11'] 1129.62962962963
102 22.59259259259259 ['8', '29', '11'] 1129.62962962963
103 22.59259259259259 ['8', '29', '11'] 1129.62962962963
104 22.59259259259259 ['8', '29', '11'] 1129.62962962963
105 22.59259259259259 ['8', '29', '11'] 1129.62962962963
106 22.59259259259259 ['8', '29', '11'] 1129.62962962963
107 22.59259259259259 ['8', '29', '11'] 1129.62962962963
108 22.59259259259259 ['8', '29', '11'] 1129.62962962963
109 22.59259259259259 ['8', '29', '11'] 1129.62962962963
110 22.59259259259259 ['8', '29', '11'] 1129.62962962963
111 22.59259259259259 ['8', '29', '11'] 1129.62962962963
112 22.59259259259259 ['8', '29', '11'] 1129.62962962963
113 22.59259259259259 ['8', '29', '11'] 1129.62962962963
114 22.59259259259259 ['8', '29', '11'] 1129.62962962963
115 22.59259259259259 ['8', '29', '11'] 1129.62962962963
116 22.59259259259259 ['8', '29', '11'] 1129.62962962963
117 22.59259259259259 ['8', '29', '11'] 1129.62962962963
118 22.59259259259259 ['8', '29', '11'] 1129.62962962963
119 22.59259259259259 ['8', '29', '11'] 1129.62962962963
120 22.59259259259259 ['8', '29', '11'] 1129.62962962963
121 22.59259259259259 ['8', '29', '11'] 1129.62962962963
122 22.59259259259259 ['8', '29', '11'] 1129.62962962963
123 22.59259259259259 ['8', '29', '11'] 1129.62962962963
124 22.59259259259259 ['8', '29', '11'] 1129.62962962963
125 22.59259259259259 ['8', '29', '11'] 1129.62962962963
126 22.59259259259259 ['8', '29', '11'] 1129.62962962963
127 22.59259259259259 ['8', '29', '11'] 1129.62962962963
128 22.59259259259259 ['8', '29', '11'] 1129.62962962963
129 22.59259259259259 ['8', '29', '11'] 1129.62962962963
130 22.59259259259259 ['8', '29', '11'] 1129.62962962963
131 22.59259259259259 ['8', '29', '11'] 1129.62962962963
132 22.59259259259259 ['8', '29', '11'] 1129.62962962963
133 22.59259259259259 ['8', '29', '11'] 1129.62962962963
134 22.59259259259259 ['8', '29', '11'] 1129.62962962963
135 22.59259259259259 ['8', '29', '11'] 1129.62962962963
136 22.59259259259259 ['8', '29', '11'] 1129.62962962963
137 22.59259259259259 ['8', '29', '11'] 1129.62962962963
138 22.59259259259259 ['8', '29', '11'] 1129.62962962963
139 22.59259259259259 ['8', '29', '11'] 1129.62962962963
140 22.59259259259259 ['8', '29', '11'] 1129.62962962963
141 22.59259259259259 ['8', '29', '11'] 1129.62962962963
142 22.59259259259259 ['8', '29', '11'] 1129.62962962963
143 22.59259259259259 ['8', '29', '11'] 1129.62962962963
144 22.59259259259259 ['8', '29', '11'] 1129.62962962963
145 22.59259259259259 ['8', '29', '11'] 1129.62962962963
146 22.59259259259259 ['8', '29', '11'] 1129.62962962963
147 22.59259259259259 ['8', '29', '11'] 1129.62962962963
148 22.59259259259259 ['8', '29', '11'] 1129.62962962963
149 22.59259259259259 ['8', '29', '11'] 1129.62962962963
150 22.59259259259259 ['8', '29', '11'] 1129.62962962963
151 22.59259259259259 ['8', '29', '11'] 1129.62962962963
152 22.59259259259259 ['8', '29', '11'] 1129.62962962963
153 22.59259259259259 ['8', '29', '11'] 1129.62962962963
154 22.59259259259259 ['8', '29', '11'] 1129.62962962963
155 22.59259259259259 ['8', '29', '11'] 1129.62962962963
156 22.59259259259259 ['8', '29', '11'] 1129.62962962963
157 22.59259259259259 ['8', '29', '11'] 1129.62962962963
158 22.59259259259259 ['8', '29', '11'] 1129.62962962963
159 22.59259259259259 ['8', '29', '11'] 1129.62962962963
160 22.59259259259259 ['8', '29', '11'] 1129.62962962963
161 22.59259259259259 ['8', '29', '11'] 1129.62962962963
162 22.59259259259259 ['8', '29', '11'] 1129.62962962963
163 22.59259259259259 ['8', '29', '11'] 1129.62962962963
164 22.59259259259259 ['8', '29', '11'] 1129.62962962963
165 22.59259259259259 ['8', '29', '11'] 1129.62962962963
166 22.59259259259259 ['8', '29', '11'] 1129.62962962963
167 22.59259259259259 ['8', '29', '11'] 1129.62962962963
168 22.59259259259259 ['8', '29', '11'] 1129.62962962963
169 22.59259259259259 ['8', '29', '11'] 1129.62962962963
170 22.59259259259259 ['8', '29', '11'] 1129.62962962963
171 22.59259259259259 ['8', '29', '11'] 1129.62962962963
172 22.59259259259259 ['8', '29', '11'] 1129.62962962963
173 22.59259259259259 ['8', '29', '11'] 1129.62962962963
174 22.59259259259259 ['8', '29', '11'] 1129.62962962963
175 22.59259259259259 ['8', '29', '11'] 1129.62962962963
176 22.59259259259259 ['8', '29', '11'] 1129.62962962963
177 22.59259259259259 ['8', '29', '11'] 1129.62962962963
178 22.59259259259259 ['8', '29', '11'] 1129.62962962963
179 22.59259259259259 ['8', '29', '11'] 1129.62962962963
180 22.59259259259259 ['8', '29', '11'] 1129.62962962963
181 22.59259259259259 ['8', '29', '11'] 1129.62962962963
182 22.59259259259259 ['8', '29', '11'] 1129.62962962963
183 22.59259259259259 ['8', '29', '11'] 1129.62962962963
184 22.59259259259259 ['8', '29', '11'] 1129.62962962963
185 22.59259259259259 ['8', '29', '11'] 1129.62962962963
186 22.59259259259259 ['8', '29', '11'] 1129.62962962963
187 22.59259259259259 ['8', '29', '11'] 1129.62962962963
188 22.59259259259259 ['8', '29', '11'] 1129.62962962963
189 22.59259259259259 ['8', '29', '11'] 1129.62962962963
190 22.59259259259259 ['8', '29', '11'] 1129.62962962963
191 22.59259259259259 ['8', '29', '11'] 1129.62962962963
192 22.59259259259259 ['8', '29', '11'] 1129.62962962963
193 22.59259259259259 ['8', '29', '11'] 1129.62962962963
194 22.59259259259259 ['8', '29', '11'] 1129.62962962963
195 22.59259259259259 ['8', '29', '11'] 1129.62962962963
196 22.59259259259259 ['8', '29', '11'] 1129.62962962963
197 22.59259259259259 ['8', '29', '11'] 1129.62962962963
198 22.59259259259259 ['8', '29', '11'] 1129.62962962963
199 22.59259259259259 ['8', '29', '11'] 1129.62962962963
