0 13.277777777777779 ['17', '11', '35'] 705.6666666666665
1 13.277777777777779 ['17', '11', '35'] 692.6944444444443
2 13.083333333333334 ['8', '21', '5'] 679.9722222222225
3 12.722222222222221 ['5', '11', '21'] 671.1944444444446
4 12.555555555555555 ['11', '5', '17'] 662.0833333333328
5 12.444444444444445 ['17', '11', '21'] 651.0277777777776
6 12.444444444444445 ['17', '11', '21'] 641.7500000000002
7 12.444444444444445 ['17', '11', '21'] 632.5000000000003
8 12.444444444444445 ['17', '11', '21'] 626.2777777777774
9 12.333333333333334 ['11', '13', '21'] 622.3333333333337
10 12.166666666666666 ['11', '13', '17'] 621.2222222222226
11 12.166666666666666 ['11', '13', '17'] 619.7222222222226
12 12.166666666666666 ['11', '13', '17'] 616.6111111111112
13 12.166666666666666 ['11', '13', '17'] 612.1666666666667
14 12.166666666666666 ['11', '13', '17'] 608.3333333333334
15 12.166666666666666 ['11', '13', '17'] 608.3333333333334
16 12.166666666666666 ['11', '13', '17'] 608.3333333333334
17 12.166666666666666 ['11', '13', '17'] 608.3333333333334
18 12.166666666666666 ['11', '13', '17'] 608.3333333333334
19 12.166666666666666 ['11', '13', '17'] 608.3333333333334
20 12.166666666666666 ['11', '13', '17'] 608.3333333333334
21 12.166666666666666 ['11', '13', '17'] 608.3333333333334
22 12.166666666666666 ['11', '13', '17'] 608.3333333333334
23 12.166666666666666 ['11', '13', '17'] 608.3333333333334
24 12.166666666666666 ['11', '13', '17'] 608.3333333333334
25 12.166666666666666 ['11', '13', '17'] 608.3333333333334
26 12.166666666666666 ['11', '13', '17'] 608.3333333333334
27 12.166666666666666 ['11', '13', '17'] 608.3333333333334
28 12.166666666666666 ['11', '13', '17'] 608.3333333333334
29 12.166666666666666 ['11', '13', '17'] 608.3333333333334
30 12.166666666666666 ['11', '13', '17'] 608.3333333333334
31 12.166666666666666 ['11', '13', '17'] 608.3333333333334
32 12.166666666666666 ['11', '13', '17'] 608.3333333333334
33 12.166666666666666 ['11', '13', '17'] 608.3333333333334
34 12.166666666666666 ['11', '13', '17'] 608.3333333333334
35 12.166666666666666 ['11', '13', '17'] 608.3333333333334
36 12.166666666666666 ['11', '13', '17'] 608.3333333333334
37 12.166666666666666 ['11', '13', '17'] 608.3333333333334
38 12.166666666666666 ['11', '13', '17'] 608.3333333333334
39 12.166666666666666 ['11', '13', '17'] 608.3333333333334
40 12.166666666666666 ['11', '13', '17'] 608.3333333333334
41 12.166666666666666 ['11', '13', '17'] 608.3333333333334
42 12.166666666666666 ['11', '13', '17'] 608.3333333333334
43 12.166666666666666 ['11', '13', '17'] 608.3333333333334
44 12.166666666666666 ['11', '13', '17'] 608.3333333333334
45 12.166666666666666 ['11', '13', '17'] 608.3333333333334
46 12.166666666666666 ['11', '13', '17'] 608.3333333333334
47 12.166666666666666 ['11', '13', '17'] 608.3333333333334
48 12.166666666666666 ['11', '13', '17'] 608.3333333333334
49 12.166666666666666 ['11', '13', '17'] 608.3333333333334
50 12.166666666666666 ['11', '13', '17'] 608.3333333333334
51 12.166666666666666 ['11', '13', '17'] 608.3333333333334
52 12.166666666666666 ['11', '13', '17'] 608.3333333333334
53 12.166666666666666 ['11', '13', '17'] 608.3333333333334
54 12.166666666666666 ['11', '13', '17'] 608.3333333333334
55 12.166666666666666 ['11', '13', '17'] 608.3333333333334
56 12.166666666666666 ['11', '13', '17'] 608.3333333333334
57 12.166666666666666 ['11', '13', '17'] 608.3333333333334
58 12.166666666666666 ['11', '13', '17'] 608.3333333333334
59 12.166666666666666 ['11', '13', '17'] 608.3333333333334
60 12.166666666666666 ['11', '13', '17'] 608.3333333333334
61 12.166666666666666 ['11', '13', '17'] 608.3333333333334
62 12.166666666666666 ['11', '13', '17'] 608.3333333333334
63 12.166666666666666 ['11', '13', '17'] 608.3333333333334
64 12.166666666666666 ['11', '13', '17'] 608.3333333333334
65 12.166666666666666 ['11', '13', '17'] 608.3333333333334
66 12.166666666666666 ['11', '13', '17'] 608.3333333333334
67 12.166666666666666 ['11', '13', '17'] 608.3333333333334
68 12.166666666666666 ['11', '13', '17'] 608.3333333333334
69 12.166666666666666 ['11', '13', '17'] 608.3333333333334
70 12.166666666666666 ['11', '13', '17'] 608.3333333333334
71 12.166666666666666 ['11', '13', '17'] 608.3333333333334
72 12.166666666666666 ['11', '13', '17'] 608.3333333333334
73 12.166666666666666 ['11', '13', '17'] 608.3333333333334
74 12.166666666666666 ['11', '13', '17'] 608.3333333333334
75 12.166666666666666 ['11', '13', '17'] 608.3333333333334
76 12.166666666666666 ['11', '13', '17'] 608.3333333333334
77 12.166666666666666 ['11', '13', '17'] 608.3333333333334
78 12.166666666666666 ['11', '13', '17'] 608.3333333333334
79 12.166666666666666 ['11', '13', '17'] 608.3333333333334
80 12.166666666666666 ['11', '13', '17'] 608.3333333333334
81 12.166666666666666 ['11', '13', '17'] 608.3333333333334
82 12.166666666666666 ['11', '13', '17'] 608.3333333333334
83 12.166666666666666 ['11', '13', '17'] 608.3333333333334
84 12.166666666666666 ['11', '13', '17'] 608.3333333333334
85 12.166666666666666 ['11', '13', '17'] 608.3333333333334
86 12.166666666666666 ['11', '13', '17'] 608.3333333333334
87 12.166666666666666 ['11', '13', '17'] 608.3333333333334
88 12.166666666666666 ['11', '13', '17'] 608.3333333333334
89 12.166666666666666 ['11', '13', '17'] 608.3333333333334
90 12.166666666666666 ['11', '13', '17'] 608.3333333333334
91 12.166666666666666 ['11', '13', '17'] 608.3333333333334
92 12.166666666666666 ['11', '13', '17'] 608.3333333333334
93 12.166666666666666 ['11', '13', '17'] 608.3333333333334
94 12.166666666666666 ['11', '13', '17'] 608.3333333333334
95 12.166666666666666 ['11', '13', '17'] 608.3333333333334
96 12.166666666666666 ['11', '13', '17'] 608.3333333333334
97 12.166666666666666 ['11', '13', '17'] 608.3333333333334
98 12.166666666666666 ['11', '13', '17'] 608.3333333333334
99 12.166666666666666 ['11', '13', '17'] 608.3333333333334
100 12.166666666666666 ['11', '13', '17'] 608.3333333333334
101 12.166666666666666 ['11', '13', '17'] 608.3333333333334
102 12.166666666666666 ['11', '13', '17'] 608.3333333333334
103 12.166666666666666 ['11', '13', '17'] 608.3333333333334
104 12.166666666666666 ['11', '13', '17'] 608.3333333333334
105 12.166666666666666 ['11', '13', '17'] 608.3333333333334
106 12.166666666666666 ['11', '13', '17'] 608.3333333333334
107 12.166666666666666 ['11', '13', '17'] 608.3333333333334
108 12.166666666666666 ['11', '13', '17'] 608.3333333333334
109 12.166666666666666 ['11', '13', '17'] 608.3333333333334
110 12.166666666666666 ['11', '13', '17'] 608.3333333333334
111 12.166666666666666 ['11', '13', '17'] 608.3333333333334
112 12.166666666666666 ['11', '13', '17'] 608.3333333333334
113 12.166666666666666 ['11', '13', '17'] 608.3333333333334
114 12.166666666666666 ['11', '13', '17'] 608.3333333333334
115 12.166666666666666 ['11', '13', '17'] 608.3333333333334
116 12.166666666666666 ['11', '13', '17'] 608.3333333333334
117 12.166666666666666 ['11', '13', '17'] 608.3333333333334
118 12.166666666666666 ['11', '13', '17'] 608.3333333333334
119 12.166666666666666 ['11', '13', '17'] 608.3333333333334
120 12.166666666666666 ['11', '13', '17'] 608.3333333333334
121 12.166666666666666 ['11', '13', '17'] 608.3333333333334
122 12.166666666666666 ['11', '13', '17'] 608.3333333333334
123 12.166666666666666 ['11', '13', '17'] 608.3333333333334
124 12.166666666666666 ['11', '13', '17'] 608.3333333333334
125 12.166666666666666 ['11', '13', '17'] 608.3333333333334
126 12.166666666666666 ['11', '13', '17'] 608.3333333333334
127 12.166666666666666 ['11', '13', '17'] 608.3333333333334
128 12.166666666666666 ['11', '13', '17'] 608.3333333333334
129 12.166666666666666 ['11', '13', '17'] 608.3333333333334
130 12.166666666666666 ['11', '13', '17'] 608.3333333333334
131 12.166666666666666 ['11', '13', '17'] 608.3333333333334
132 12.166666666666666 ['11', '13', '17'] 608.3333333333334
133 12.166666666666666 ['11', '13', '17'] 608.3333333333334
134 12.166666666666666 ['11', '13', '17'] 608.3333333333334
135 12.166666666666666 ['11', '13', '17'] 608.3333333333334
136 12.166666666666666 ['11', '13', '17'] 608.3333333333334
137 12.166666666666666 ['11', '13', '17'] 608.3333333333334
138 12.166666666666666 ['11', '13', '17'] 608.3333333333334
139 12.166666666666666 ['11', '13', '17'] 608.3333333333334
140 12.166666666666666 ['11', '13', '17'] 608.3333333333334
141 12.166666666666666 ['11', '13', '17'] 608.3333333333334
142 12.166666666666666 ['11', '13', '17'] 608.3333333333334
143 12.166666666666666 ['11', '13', '17'] 608.3333333333334
144 12.166666666666666 ['11', '13', '17'] 608.3333333333334
145 12.166666666666666 ['11', '13', '17'] 608.3333333333334
146 12.166666666666666 ['11', '13', '17'] 608.3333333333334
147 12.166666666666666 ['11', '13', '17'] 608.3333333333334
148 12.166666666666666 ['11', '13', '17'] 608.3333333333334
149 12.166666666666666 ['11', '13', '17'] 608.3333333333334
150 12.166666666666666 ['11', '13', '17'] 608.3333333333334
151 12.166666666666666 ['11', '13', '17'] 608.3333333333334
152 12.166666666666666 ['11', '13', '17'] 608.3333333333334
153 12.166666666666666 ['11', '13', '17'] 608.3333333333334
154 12.166666666666666 ['11', '13', '17'] 608.3333333333334
155 12.166666666666666 ['11', '13', '17'] 608.3333333333334
156 12.166666666666666 ['11', '13', '17'] 608.3333333333334
157 12.166666666666666 ['11', '13', '17'] 608.3333333333334
158 12.166666666666666 ['11', '13', '17'] 608.3333333333334
159 12.166666666666666 ['11', '13', '17'] 608.3333333333334
160 12.166666666666666 ['11', '13', '17'] 608.3333333333334
161 12.166666666666666 ['11', '13', '17'] 608.3333333333334
162 12.166666666666666 ['11', '13', '17'] 608.3333333333334
163 12.166666666666666 ['11', '13', '17'] 608.3333333333334
164 12.166666666666666 ['11', '13', '17'] 608.3333333333334
165 12.166666666666666 ['11', '13', '17'] 608.3333333333334
166 12.166666666666666 ['11', '13', '17'] 608.3333333333334
167 12.166666666666666 ['11', '13', '17'] 608.3333333333334
168 12.166666666666666 ['11', '13', '17'] 608.3333333333334
169 12.166666666666666 ['11', '13', '17'] 608.3333333333334
170 12.166666666666666 ['11', '13', '17'] 608.3333333333334
171 12.166666666666666 ['11', '13', '17'] 608.3333333333334
172 12.166666666666666 ['11', '13', '17'] 608.3333333333334
173 12.166666666666666 ['11', '13', '17'] 608.3333333333334
174 12.166666666666666 ['11', '13', '17'] 608.3333333333334
175 12.166666666666666 ['11', '13', '17'] 608.3333333333334
176 12.166666666666666 ['11', '13', '17'] 608.3333333333334
177 12.166666666666666 ['11', '13', '17'] 608.3333333333334
178 12.166666666666666 ['11', '13', '17'] 608.3333333333334
179 12.166666666666666 ['11', '13', '17'] 608.3333333333334
180 12.166666666666666 ['11', '13', '17'] 608.3333333333334
181 12.166666666666666 ['11', '13', '17'] 608.3333333333334
182 12.166666666666666 ['11', '13', '17'] 608.3333333333334
183 12.166666666666666 ['11', '13', '17'] 608.3333333333334
184 12.166666666666666 ['11', '13', '17'] 608.3333333333334
185 12.166666666666666 ['11', '13', '17'] 608.3333333333334
186 12.166666666666666 ['11', '13', '17'] 608.3333333333334
187 12.166666666666666 ['11', '13', '17'] 608.3333333333334
188 12.166666666666666 ['11', '13', '17'] 608.3333333333334
189 12.166666666666666 ['11', '13', '17'] 608.3333333333334
190 12.166666666666666 ['11', '13', '17'] 608.3333333333334
191 12.166666666666666 ['11', '13', '17'] 608.3333333333334
192 12.166666666666666 ['11', '13', '17'] 608.3333333333334
193 12.166666666666666 ['11', '13', '17'] 608.3333333333334
194 12.166666666666666 ['11', '13', '17'] 608.3333333333334
195 12.166666666666666 ['11', '13', '17'] 608.3333333333334
196 12.166666666666666 ['11', '13', '17'] 608.3333333333334
197 12.166666666666666 ['11', '13', '17'] 608.3333333333334
198 12.166666666666666 ['11', '13', '17'] 608.3333333333334
199 12.166666666666666 ['11', '13', '17'] 608.3333333333334
