0 18.966666666666665 ['30', '18', '1'] 1046.7666666666664
1 18.966666666666665 ['30', '18', '1'] 1024.6
2 18.266666666666666 ['24', '1', '30'] 993.9333333333333
3 18.266666666666666 ['24', '1', '30'] 967.1999999999999
4 18.0 ['30', '2', '1'] 946.4000000000003
5 18.0 ['30', '2', '1'] 927.6333333333331
6 18.0 ['30', '2', '1'] 914.1666666666664
7 18.0 ['30', '2', '1'] 911.9999999999994
8 18.0 ['30', '2', '1'] 910.3999999999994
9 18.0 ['30', '2', '1'] 907.9999999999995
10 18.0 ['30', '2', '1'] 902.6666666666665
11 18.0 ['30', '2', '1'] 900.0
12 18.0 ['30', '2', '1'] 900.0
13 18.0 ['30', '2', '1'] 900.0
14 18.0 ['30', '2', '1'] 900.0
15 18.0 ['30', '2', '1'] 900.0
16 18.0 ['30', '2', '1'] 900.0
17 18.0 ['30', '2', '1'] 900.0
18 18.0 ['30', '2', '1'] 900.0
19 18.0 ['30', '2', '1'] 900.0
20 18.0 ['30', '2', '1'] 900.0
21 18.0 ['30', '2', '1'] 900.0
22 18.0 ['30', '2', '1'] 900.0
23 18.0 ['30', '2', '1'] 900.0
24 18.0 ['30', '2', '1'] 900.0
25 18.0 ['30', '2', '1'] 900.0
26 18.0 ['30', '2', '1'] 900.0
27 18.0 ['30', '2', '1'] 900.0
28 18.0 ['30', '2', '1'] 900.0
29 18.0 ['30', '2', '1'] 900.0
30 18.0 ['30', '2', '1'] 900.0
31 18.0 ['30', '2', '1'] 900.0
32 18.0 ['30', '2', '1'] 900.0
33 18.0 ['30', '2', '1'] 900.0
34 18.0 ['30', '2', '1'] 900.0
35 18.0 ['30', '2', '1'] 900.0
36 18.0 ['30', '2', '1'] 900.0
37 18.0 ['30', '2', '1'] 900.0
38 18.0 ['30', '2', '1'] 900.0
39 18.0 ['30', '2', '1'] 900.0
40 18.0 ['30', '2', '1'] 900.0
41 18.0 ['30', '2', '1'] 900.0
42 18.0 ['30', '2', '1'] 900.0
43 18.0 ['30', '2', '1'] 900.0
44 18.0 ['30', '2', '1'] 900.0
45 18.0 ['30', '2', '1'] 900.0
46 18.0 ['30', '2', '1'] 900.0
47 18.0 ['30', '2', '1'] 900.0
48 18.0 ['30', '2', '1'] 900.0
49 18.0 ['30', '2', '1'] 900.0
50 18.0 ['30', '2', '1'] 900.0
51 18.0 ['30', '2', '1'] 900.0
52 18.0 ['30', '2', '1'] 900.0
53 18.0 ['30', '2', '1'] 900.0
54 18.0 ['30', '2', '1'] 900.0
55 18.0 ['30', '2', '1'] 900.0
56 18.0 ['30', '2', '1'] 900.0
57 18.0 ['30', '2', '1'] 900.0
58 18.0 ['30', '2', '1'] 900.0
59 18.0 ['30', '2', '1'] 900.0
60 18.0 ['30', '2', '1'] 900.0
61 18.0 ['30', '2', '1'] 900.0
62 18.0 ['30', '2', '1'] 900.0
63 18.0 ['30', '2', '1'] 900.0
64 18.0 ['30', '2', '1'] 900.0
65 18.0 ['30', '2', '1'] 900.0
66 18.0 ['30', '2', '1'] 900.0
67 18.0 ['30', '2', '1'] 900.0
68 18.0 ['30', '2', '1'] 900.0
69 18.0 ['30', '2', '1'] 900.0
70 18.0 ['30', '2', '1'] 900.0
71 18.0 ['30', '2', '1'] 900.0
72 18.0 ['30', '2', '1'] 900.0
73 18.0 ['30', '2', '1'] 900.0
74 18.0 ['30', '2', '1'] 900.0
75 18.0 ['30', '2', '1'] 900.0
76 18.0 ['30', '2', '1'] 900.0
77 18.0 ['30', '2', '1'] 900.0
78 18.0 ['30', '2', '1'] 900.0
79 18.0 ['30', '2', '1'] 900.0
80 18.0 ['30', '2', '1'] 900.0
81 18.0 ['30', '2', '1'] 900.0
82 18.0 ['30', '2', '1'] 900.0
83 18.0 ['30', '2', '1'] 900.0
84 18.0 ['30', '2', '1'] 900.0
85 18.0 ['30', '2', '1'] 900.0
86 18.0 ['30', '2', '1'] 900.0
87 18.0 ['30', '2', '1'] 900.0
88 18.0 ['30', '2', '1'] 900.0
89 18.0 ['30', '2', '1'] 900.0
90 18.0 ['30', '2', '1'] 900.0
91 18.0 ['30', '2', '1'] 900.0
92 18.0 ['30', '2', '1'] 900.0
93 18.0 ['30', '2', '1'] 900.0
94 18.0 ['30', '2', '1'] 900.0
95 18.0 ['30', '2', '1'] 900.0
96 18.0 ['30', '2', '1'] 900.0
97 18.0 ['30', '2', '1'] 900.0
98 18.0 ['30', '2', '1'] 900.0
99 18.0 ['30', '2', '1'] 900.0
100 18.0 ['30', '2', '1'] 900.0
101 18.0 ['30', '2', '1'] 900.0
102 18.0 ['30', '2', '1'] 900.0
103 18.0 ['30', '2', '1'] 900.0
104 18.0 ['30', '2', '1'] 900.0
105 18.0 ['30', '2', '1'] 900.0
106 18.0 ['30', '2', '1'] 900.0
107 18.0 ['30', '2', '1'] 900.0
108 18.0 ['30', '2', '1'] 900.0
109 18.0 ['30', '2', '1'] 900.0
110 18.0 ['30', '2', '1'] 900.0
111 18.0 ['30', '2', '1'] 900.0
112 18.0 ['30', '2', '1'] 900.0
113 18.0 ['30', '2', '1'] 900.0
114 18.0 ['30', '2', '1'] 900.0
115 18.0 ['30', '2', '1'] 900.0
116 18.0 ['30', '2', '1'] 900.0
117 18.0 ['30', '2', '1'] 900.0
118 18.0 ['30', '2', '1'] 900.0
119 18.0 ['30', '2', '1'] 900.0
120 18.0 ['30', '2', '1'] 900.0
121 18.0 ['30', '2', '1'] 900.0
122 18.0 ['30', '2', '1'] 900.0
123 18.0 ['30', '2', '1'] 900.0
124 18.0 ['30', '2', '1'] 900.0
125 18.0 ['30', '2', '1'] 900.0
126 18.0 ['30', '2', '1'] 900.0
127 18.0 ['30', '2', '1'] 900.0
128 18.0 ['30', '2', '1'] 900.0
129 18.0 ['30', '2', '1'] 900.0
130 18.0 ['30', '2', '1'] 900.0
131 18.0 ['30', '2', '1'] 900.0
132 18.0 ['30', '2', '1'] 900.0
133 18.0 ['30', '2', '1'] 900.0
134 18.0 ['30', '2', '1'] 900.0
135 18.0 ['30', '2', '1'] 900.0
136 18.0 ['30', '2', '1'] 900.0
137 18.0 ['30', '2', '1'] 900.0
138 18.0 ['30', '2', '1'] 900.0
139 18.0 ['30', '2', '1'] 900.0
140 18.0 ['30', '2', '1'] 900.0
141 18.0 ['30', '2', '1'] 900.0
142 18.0 ['30', '2', '1'] 900.0
143 18.0 ['30', '2', '1'] 900.0
144 18.0 ['30', '2', '1'] 900.0
145 18.0 ['30', '2', '1'] 900.0
146 18.0 ['30', '2', '1'] 900.0
147 18.0 ['30', '2', '1'] 900.0
148 18.0 ['30', '2', '1'] 900.0
149 18.0 ['30', '2', '1'] 900.0
150 18.0 ['30', '2', '1'] 900.0
151 18.0 ['30', '2', '1'] 900.0
152 18.0 ['30', '2', '1'] 900.0
153 18.0 ['30', '2', '1'] 900.0
154 18.0 ['30', '2', '1'] 900.0
155 18.0 ['30', '2', '1'] 900.0
156 18.0 ['30', '2', '1'] 900.0
157 18.0 ['30', '2', '1'] 900.0
158 18.0 ['30', '2', '1'] 900.0
159 18.0 ['30', '2', '1'] 900.0
160 18.0 ['30', '2', '1'] 900.0
161 18.0 ['30', '2', '1'] 900.0
162 18.0 ['30', '2', '1'] 900.0
163 18.0 ['30', '2', '1'] 900.0
164 18.0 ['30', '2', '1'] 900.0
165 18.0 ['30', '2', '1'] 900.0
166 18.0 ['30', '2', '1'] 900.0
167 18.0 ['30', '2', '1'] 900.0
168 18.0 ['30', '2', '1'] 900.0
169 18.0 ['30', '2', '1'] 900.0
170 18.0 ['30', '2', '1'] 900.0
171 18.0 ['30', '2', '1'] 900.0
172 18.0 ['30', '2', '1'] 900.0
173 18.0 ['30', '2', '1'] 900.0
174 18.0 ['30', '2', '1'] 900.0
175 18.0 ['30', '2', '1'] 900.0
176 18.0 ['30', '2', '1'] 900.0
177 18.0 ['30', '2', '1'] 900.0
178 18.0 ['30', '2', '1'] 900.0
179 18.0 ['30', '2', '1'] 900.0
180 18.0 ['30', '2', '1'] 900.0
181 18.0 ['30', '2', '1'] 900.0
182 18.0 ['30', '2', '1'] 900.0
183 18.0 ['30', '2', '1'] 900.0
184 18.0 ['30', '2', '1'] 900.0
185 18.0 ['30', '2', '1'] 900.0
186 18.0 ['30', '2', '1'] 900.0
187 18.0 ['30', '2', '1'] 900.0
188 18.0 ['30', '2', '1'] 900.0
189 18.0 ['30', '2', '1'] 900.0
190 18.0 ['30', '2', '1'] 900.0
191 18.0 ['30', '2', '1'] 900.0
192 18.0 ['30', '2', '1'] 900.0
193 18.0 ['30', '2', '1'] 900.0
194 18.0 ['30', '2', '1'] 900.0
195 18.0 ['30', '2', '1'] 900.0
196 18.0 ['30', '2', '1'] 900.0
197 18.0 ['30', '2', '1'] 900.0
198 18.0 ['30', '2', '1'] 900.0
199 18.0 ['30', '2', '1'] 900.0
