0 18.933333333333334 ['2', '30', '33'] 1017.0000000000001
1 18.933333333333334 ['2', '30', '33'] 982.7666666666667
2 18.0 ['1', '2', '30'] 957.4333333333336
3 18.0 ['1', '2', '30'] 944.4666666666664
4 18.0 ['1', '2', '30'] 930.0999999999998
5 17.7 ['30', '25', '1'] 912.0666666666671
6 17.7 ['30', '25', '1'] 900.5666666666665
7 17.7 ['30', '25', '1'] 897.9
8 17.7 ['30', '25', '1'] 894.3
9 17.7 ['30', '25', '1'] 889.8000000000001
10 17.7 ['30', '25', '1'] 885.0000000000008
11 17.7 ['30', '25', '1'] 885.0000000000008
12 17.7 ['30', '25', '1'] 885.0000000000008
13 17.7 ['30', '25', '1'] 885.0000000000008
14 17.7 ['30', '25', '1'] 885.0000000000008
15 17.7 ['30', '25', '1'] 885.0000000000008
16 17.7 ['30', '25', '1'] 885.0000000000008
17 17.7 ['30', '25', '1'] 885.0000000000008
18 17.7 ['30', '25', '1'] 885.0000000000008
19 17.7 ['30', '25', '1'] 885.0000000000008
20 17.7 ['30', '25', '1'] 885.0000000000008
21 17.7 ['30', '25', '1'] 885.0000000000008
22 17.7 ['30', '25', '1'] 885.0000000000008
23 17.7 ['30', '25', '1'] 885.0000000000008
24 17.7 ['30', '25', '1'] 885.0000000000008
25 17.7 ['30', '25', '1'] 885.0000000000008
26 17.7 ['30', '25', '1'] 885.0000000000008
27 17.7 ['30', '25', '1'] 885.0000000000008
28 17.7 ['30', '25', '1'] 885.0000000000008
29 17.7 ['30', '25', '1'] 885.0000000000008
30 17.7 ['30', '25', '1'] 885.0000000000008
31 17.7 ['30', '25', '1'] 885.0000000000008
32 17.7 ['30', '25', '1'] 885.0000000000008
33 17.7 ['30', '25', '1'] 885.0000000000008
34 17.7 ['30', '25', '1'] 885.0000000000008
35 17.7 ['30', '25', '1'] 885.0000000000008
36 17.7 ['30', '25', '1'] 885.0000000000008
37 17.7 ['30', '25', '1'] 885.0000000000008
38 17.7 ['30', '25', '1'] 885.0000000000008
39 17.7 ['30', '25', '1'] 885.0000000000008
40 17.7 ['30', '25', '1'] 885.0000000000008
41 17.7 ['30', '25', '1'] 885.0000000000008
42 17.7 ['30', '25', '1'] 885.0000000000008
43 17.7 ['30', '25', '1'] 885.0000000000008
44 17.7 ['30', '25', '1'] 885.0000000000008
45 17.7 ['30', '25', '1'] 885.0000000000008
46 17.7 ['30', '25', '1'] 885.0000000000008
47 17.7 ['30', '25', '1'] 885.0000000000008
48 17.7 ['30', '25', '1'] 885.0000000000008
49 17.7 ['30', '25', '1'] 885.0000000000008
50 17.7 ['30', '25', '1'] 885.0000000000008
51 17.7 ['30', '25', '1'] 885.0000000000008
52 17.7 ['30', '25', '1'] 885.0000000000008
53 17.7 ['30', '25', '1'] 885.0000000000008
54 17.7 ['30', '25', '1'] 885.0000000000008
55 17.7 ['30', '25', '1'] 885.0000000000008
56 17.7 ['30', '25', '1'] 885.0000000000008
57 17.7 ['30', '25', '1'] 885.0000000000008
58 17.7 ['30', '25', '1'] 885.0000000000008
59 17.7 ['30', '25', '1'] 885.0000000000008
60 17.7 ['30', '25', '1'] 885.0000000000008
61 17.7 ['30', '25', '1'] 885.0000000000008
62 17.7 ['30', '25', '1'] 885.0000000000008
63 17.7 ['30', '25', '1'] 885.0000000000008
64 17.7 ['30', '25', '1'] 885.0000000000008
65 17.7 ['30', '25', '1'] 885.0000000000008
66 17.7 ['30', '25', '1'] 885.0000000000008
67 17.7 ['30', '25', '1'] 885.0000000000008
68 17.7 ['30', '25', '1'] 885.0000000000008
69 17.7 ['30', '25', '1'] 885.0000000000008
70 17.7 ['30', '25', '1'] 885.0000000000008
71 17.7 ['30', '25', '1'] 885.0000000000008
72 17.7 ['30', '25', '1'] 885.0000000000008
73 17.7 ['30', '25', '1'] 885.0000000000008
74 17.7 ['30', '25', '1'] 885.0000000000008
75 17.7 ['30', '25', '1'] 885.0000000000008
76 17.7 ['30', '25', '1'] 885.0000000000008
77 17.7 ['30', '25', '1'] 885.0000000000008
78 17.7 ['30', '25', '1'] 885.0000000000008
79 17.7 ['30', '25', '1'] 885.0000000000008
80 17.7 ['30', '25', '1'] 885.0000000000008
81 17.7 ['30', '25', '1'] 885.0000000000008
82 17.7 ['30', '25', '1'] 885.0000000000008
83 17.7 ['30', '25', '1'] 885.0000000000008
84 17.7 ['30', '25', '1'] 885.0000000000008
85 17.7 ['30', '25', '1'] 885.0000000000008
86 17.7 ['30', '25', '1'] 885.0000000000008
87 17.7 ['30', '25', '1'] 885.0000000000008
88 17.7 ['30', '25', '1'] 885.0000000000008
89 17.7 ['30', '25', '1'] 885.0000000000008
90 17.7 ['30', '25', '1'] 885.0000000000008
91 17.7 ['30', '25', '1'] 885.0000000000008
92 17.7 ['30', '25', '1'] 885.0000000000008
93 17.7 ['30', '25', '1'] 885.0000000000008
94 17.7 ['30', '25', '1'] 885.0000000000008
95 17.7 ['30', '25', '1'] 885.0000000000008
96 17.7 ['30', '25', '1'] 885.0000000000008
97 17.7 ['30', '25', '1'] 885.0000000000008
98 17.7 ['30', '25', '1'] 885.0000000000008
99 17.7 ['30', '25', '1'] 885.0000000000008
100 17.7 ['30', '25', '1'] 885.0000000000008
101 17.7 ['30', '25', '1'] 885.0000000000008
102 17.7 ['30', '25', '1'] 885.0000000000008
103 17.7 ['30', '25', '1'] 885.0000000000008
104 17.7 ['30', '25', '1'] 885.0000000000008
105 17.7 ['30', '25', '1'] 885.0000000000008
106 17.7 ['30', '25', '1'] 885.0000000000008
107 17.7 ['30', '25', '1'] 885.0000000000008
108 17.7 ['30', '25', '1'] 885.0000000000008
109 17.7 ['30', '25', '1'] 885.0000000000008
110 17.7 ['30', '25', '1'] 885.0000000000008
111 17.7 ['30', '25', '1'] 885.0000000000008
112 17.7 ['30', '25', '1'] 885.0000000000008
113 17.7 ['30', '25', '1'] 885.0000000000008
114 17.7 ['30', '25', '1'] 885.0000000000008
115 17.7 ['30', '25', '1'] 885.0000000000008
116 17.7 ['30', '25', '1'] 885.0000000000008
117 17.7 ['30', '25', '1'] 885.0000000000008
118 17.7 ['30', '25', '1'] 885.0000000000008
119 17.7 ['30', '25', '1'] 885.0000000000008
120 17.7 ['30', '25', '1'] 885.0000000000008
121 17.7 ['30', '25', '1'] 885.0000000000008
122 17.7 ['30', '25', '1'] 885.0000000000008
123 17.7 ['30', '25', '1'] 885.0000000000008
124 17.7 ['30', '25', '1'] 885.0000000000008
125 17.7 ['30', '25', '1'] 885.0000000000008
126 17.7 ['30', '25', '1'] 885.0000000000008
127 17.7 ['30', '25', '1'] 885.0000000000008
128 17.7 ['30', '25', '1'] 885.0000000000008
129 17.7 ['30', '25', '1'] 885.0000000000008
130 17.7 ['30', '25', '1'] 885.0000000000008
131 17.7 ['30', '25', '1'] 885.0000000000008
132 17.7 ['30', '25', '1'] 885.0000000000008
133 17.7 ['30', '25', '1'] 885.0000000000008
134 17.7 ['30', '25', '1'] 885.0000000000008
135 17.7 ['30', '25', '1'] 885.0000000000008
136 17.7 ['30', '25', '1'] 885.0000000000008
137 17.7 ['30', '25', '1'] 885.0000000000008
138 17.7 ['30', '25', '1'] 885.0000000000008
139 17.7 ['30', '25', '1'] 885.0000000000008
140 17.7 ['30', '25', '1'] 885.0000000000008
141 17.7 ['30', '25', '1'] 885.0000000000008
142 17.7 ['30', '25', '1'] 885.0000000000008
143 17.7 ['30', '25', '1'] 885.0000000000008
144 17.7 ['30', '25', '1'] 885.0000000000008
145 17.7 ['30', '25', '1'] 885.0000000000008
146 17.7 ['30', '25', '1'] 885.0000000000008
147 17.7 ['30', '25', '1'] 885.0000000000008
148 17.7 ['30', '25', '1'] 885.0000000000008
149 17.7 ['30', '25', '1'] 885.0000000000008
150 17.7 ['30', '25', '1'] 885.0000000000008
151 17.7 ['30', '25', '1'] 885.0000000000008
152 17.7 ['30', '25', '1'] 885.0000000000008
153 17.7 ['30', '25', '1'] 885.0000000000008
154 17.7 ['30', '25', '1'] 885.0000000000008
155 17.7 ['30', '25', '1'] 885.0000000000008
156 17.7 ['30', '25', '1'] 885.0000000000008
157 17.7 ['30', '25', '1'] 885.0000000000008
158 17.7 ['30', '25', '1'] 885.0000000000008
159 17.7 ['30', '25', '1'] 885.0000000000008
160 17.7 ['30', '25', '1'] 885.0000000000008
161 17.7 ['30', '25', '1'] 885.0000000000008
162 17.7 ['30', '25', '1'] 885.0000000000008
163 17.7 ['30', '25', '1'] 885.0000000000008
164 17.7 ['30', '25', '1'] 885.0000000000008
165 17.7 ['30', '25', '1'] 885.0000000000008
166 17.7 ['30', '25', '1'] 885.0000000000008
167 17.7 ['30', '25', '1'] 885.0000000000008
168 17.7 ['30', '25', '1'] 885.0000000000008
169 17.7 ['30', '25', '1'] 885.0000000000008
170 17.7 ['30', '25', '1'] 885.0000000000008
171 17.7 ['30', '25', '1'] 885.0000000000008
172 17.7 ['30', '25', '1'] 885.0000000000008
173 17.7 ['30', '25', '1'] 885.0000000000008
174 17.7 ['30', '25', '1'] 885.0000000000008
175 17.7 ['30', '25', '1'] 885.0000000000008
176 17.7 ['30', '25', '1'] 885.0000000000008
177 17.7 ['30', '25', '1'] 885.0000000000008
178 17.7 ['30', '25', '1'] 885.0000000000008
179 17.7 ['30', '25', '1'] 885.0000000000008
180 17.7 ['30', '25', '1'] 885.0000000000008
181 17.7 ['30', '25', '1'] 885.0000000000008
182 17.7 ['30', '25', '1'] 885.0000000000008
183 17.7 ['30', '25', '1'] 885.0000000000008
184 17.7 ['30', '25', '1'] 885.0000000000008
185 17.7 ['30', '25', '1'] 885.0000000000008
186 17.7 ['30', '25', '1'] 885.0000000000008
187 17.7 ['30', '25', '1'] 885.0000000000008
188 17.7 ['30', '25', '1'] 885.0000000000008
189 17.7 ['30', '25', '1'] 885.0000000000008
190 17.7 ['30', '25', '1'] 885.0000000000008
191 17.7 ['30', '25', '1'] 885.0000000000008
192 17.7 ['30', '25', '1'] 885.0000000000008
193 17.7 ['30', '25', '1'] 885.0000000000008
194 17.7 ['30', '25', '1'] 885.0000000000008
195 17.7 ['30', '25', '1'] 885.0000000000008
196 17.7 ['30', '25', '1'] 885.0000000000008
197 17.7 ['30', '25', '1'] 885.0000000000008
198 17.7 ['30', '25', '1'] 885.0000000000008
199 17.7 ['30', '25', '1'] 885.0000000000008
