0 159.60377358490567 ['24', '36', '51', '23', '52'] 8386.207547169812
1 159.60377358490567 ['24', '36', '51', '23', '52'] 8276.358490566035
2 159.60377358490567 ['24', '36', '51', '23', '52'] 8189.79245283019
3 159.60377358490567 ['24', '36', '51', '23', '52'] 8108.245283018868
4 157.8679245283019 ['23', '36', '24', '49', '52'] 8055.320754716983
5 157.8679245283019 ['23', '36', '24', '49', '52'] 8007.169811320754
6 155.7962962962963 ['52', '23', '36', '51'] 7967.890635918938
7 154.25925925925927 ['24', '23', '52', '36'] 7929.986722571628
8 154.2037037037037 ['23', '52', '36', '49'] 7854.205101327745
9 150.76363636363635 ['36', '23', '52'] 7758.661489104889
10 147.67857142857142 ['52', '36'] 7659.424098124097
11 147.67857142857142 ['52', '36'] 7553.667700817704
12 147.67857142857142 ['52', '36'] 7483.793506493512
13 144.98245614035088 ['36'] 7426.312314878111
14 144.98245614035088 ['36'] 7370.447994987473
15 144.98245614035088 ['36'] 7356.96741854637
16 144.98245614035088 ['36'] 7319.2218045112795
17 144.98245614035088 ['36'] 7262.603383458649
18 144.98245614035088 ['36'] 7249.122807017547
19 144.98245614035088 ['36'] 7249.122807017547
20 144.98245614035088 ['36'] 7249.122807017547
21 144.98245614035088 ['36'] 7249.122807017547
22 144.98245614035088 ['36'] 7249.122807017547
23 144.98245614035088 ['36'] 7249.122807017547
24 144.98245614035088 ['36'] 7249.122807017547
25 144.98245614035088 ['36'] 7249.122807017547
26 144.98245614035088 ['36'] 7249.122807017547
27 144.98245614035088 ['36'] 7249.122807017547
28 144.98245614035088 ['36'] 7249.122807017547
29 144.98245614035088 ['36'] 7249.122807017547
30 144.98245614035088 ['36'] 7249.122807017547
31 144.98245614035088 ['36'] 7249.122807017547
32 144.98245614035088 ['36'] 7249.122807017547
33 144.98245614035088 ['36'] 7249.122807017547
34 144.98245614035088 ['36'] 7249.122807017547
35 144.98245614035088 ['36'] 7249.122807017547
36 144.98245614035088 ['36'] 7249.122807017547
37 144.98245614035088 ['36'] 7249.122807017547
38 144.98245614035088 ['36'] 7249.122807017547
39 144.98245614035088 ['36'] 7249.122807017547
40 144.98245614035088 ['36'] 7249.122807017547
41 144.98245614035088 ['36'] 7249.122807017547
42 144.98245614035088 ['36'] 7249.122807017547
43 144.98245614035088 ['36'] 7249.122807017547
44 144.98245614035088 ['36'] 7249.122807017547
45 144.98245614035088 ['36'] 7249.122807017547
46 144.98245614035088 ['36'] 7249.122807017547
47 144.98245614035088 ['36'] 7249.122807017547
48 144.98245614035088 ['36'] 7249.122807017547
49 144.98245614035088 ['36'] 7249.122807017547
50 144.98245614035088 ['36'] 7249.122807017547
51 144.98245614035088 ['36'] 7249.122807017547
52 144.98245614035088 ['36'] 7249.122807017547
53 144.98245614035088 ['36'] 7249.122807017547
54 144.98245614035088 ['36'] 7249.122807017547
55 144.98245614035088 ['36'] 7249.122807017547
56 144.98245614035088 ['36'] 7249.122807017547
57 144.98245614035088 ['36'] 7249.122807017547
58 144.98245614035088 ['36'] 7249.122807017547
59 144.98245614035088 ['36'] 7249.122807017547
60 144.98245614035088 ['36'] 7249.122807017547
61 144.98245614035088 ['36'] 7249.122807017547
62 144.98245614035088 ['36'] 7249.122807017547
63 144.98245614035088 ['36'] 7249.122807017547
64 144.98245614035088 ['36'] 7249.122807017547
65 144.98245614035088 ['36'] 7249.122807017547
66 144.98245614035088 ['36'] 7249.122807017547
67 144.98245614035088 ['36'] 7249.122807017547
68 144.98245614035088 ['36'] 7249.122807017547
69 144.98245614035088 ['36'] 7249.122807017547
70 144.98245614035088 ['36'] 7249.122807017547
71 144.98245614035088 ['36'] 7249.122807017547
72 144.98245614035088 ['36'] 7249.122807017547
73 144.98245614035088 ['36'] 7249.122807017547
74 144.98245614035088 ['36'] 7249.122807017547
75 144.98245614035088 ['36'] 7249.122807017547
76 144.98245614035088 ['36'] 7249.122807017547
77 144.98245614035088 ['36'] 7249.122807017547
78 144.98245614035088 ['36'] 7249.122807017547
79 144.98245614035088 ['36'] 7249.122807017547
80 144.98245614035088 ['36'] 7249.122807017547
81 144.98245614035088 ['36'] 7249.122807017547
82 144.98245614035088 ['36'] 7249.122807017547
83 144.98245614035088 ['36'] 7249.122807017547
84 144.98245614035088 ['36'] 7249.122807017547
85 144.98245614035088 ['36'] 7249.122807017547
86 144.98245614035088 ['36'] 7249.122807017547
87 144.98245614035088 ['36'] 7249.122807017547
88 144.98245614035088 ['36'] 7249.122807017547
89 144.98245614035088 ['36'] 7249.122807017547
90 144.98245614035088 ['36'] 7249.122807017547
91 144.98245614035088 ['36'] 7249.122807017547
92 144.98245614035088 ['36'] 7249.122807017547
93 144.98245614035088 ['36'] 7249.122807017547
94 144.98245614035088 ['36'] 7249.122807017547
95 144.98245614035088 ['36'] 7249.122807017547
96 144.98245614035088 ['36'] 7249.122807017547
97 144.98245614035088 ['36'] 7249.122807017547
98 144.98245614035088 ['36'] 7249.122807017547
99 144.98245614035088 ['36'] 7249.122807017547
100 144.98245614035088 ['36'] 7249.122807017547
101 144.98245614035088 ['36'] 7249.122807017547
102 144.98245614035088 ['36'] 7249.122807017547
103 144.98245614035088 ['36'] 7249.122807017547
104 144.98245614035088 ['36'] 7249.122807017547
105 144.98245614035088 ['36'] 7249.122807017547
106 144.98245614035088 ['36'] 7249.122807017547
107 144.98245614035088 ['36'] 7249.122807017547
108 144.98245614035088 ['36'] 7249.122807017547
109 144.98245614035088 ['36'] 7249.122807017547
110 144.98245614035088 ['36'] 7249.122807017547
111 144.98245614035088 ['36'] 7249.122807017547
112 144.98245614035088 ['36'] 7249.122807017547
113 144.98245614035088 ['36'] 7249.122807017547
114 144.98245614035088 ['36'] 7249.122807017547
115 144.98245614035088 ['36'] 7249.122807017547
116 144.98245614035088 ['36'] 7249.122807017547
117 144.98245614035088 ['36'] 7249.122807017547
118 144.98245614035088 ['36'] 7249.122807017547
119 144.98245614035088 ['36'] 7249.122807017547
120 144.98245614035088 ['36'] 7249.122807017547
121 144.98245614035088 ['36'] 7249.122807017547
122 144.98245614035088 ['36'] 7249.122807017547
123 144.98245614035088 ['36'] 7249.122807017547
124 144.98245614035088 ['36'] 7249.122807017547
125 144.98245614035088 ['36'] 7249.122807017547
126 144.98245614035088 ['36'] 7249.122807017547
127 144.98245614035088 ['36'] 7249.122807017547
128 144.98245614035088 ['36'] 7249.122807017547
129 144.98245614035088 ['36'] 7249.122807017547
130 144.98245614035088 ['36'] 7249.122807017547
131 144.98245614035088 ['36'] 7249.122807017547
132 144.98245614035088 ['36'] 7249.122807017547
133 144.98245614035088 ['36'] 7249.122807017547
134 144.98245614035088 ['36'] 7249.122807017547
135 144.98245614035088 ['36'] 7249.122807017547
136 144.98245614035088 ['36'] 7249.122807017547
137 144.98245614035088 ['36'] 7249.122807017547
138 144.98245614035088 ['36'] 7249.122807017547
139 144.98245614035088 ['36'] 7249.122807017547
140 144.98245614035088 ['36'] 7249.122807017547
141 144.98245614035088 ['36'] 7249.122807017547
142 144.98245614035088 ['36'] 7249.122807017547
143 144.98245614035088 ['36'] 7249.122807017547
144 144.98245614035088 ['36'] 7249.122807017547
145 144.98245614035088 ['36'] 7249.122807017547
146 144.98245614035088 ['36'] 7249.122807017547
147 144.98245614035088 ['36'] 7249.122807017547
148 144.98245614035088 ['36'] 7249.122807017547
149 144.98245614035088 ['36'] 7249.122807017547
150 144.98245614035088 ['36'] 7249.122807017547
151 144.98245614035088 ['36'] 7249.122807017547
152 144.98245614035088 ['36'] 7249.122807017547
153 144.98245614035088 ['36'] 7249.122807017547
154 144.98245614035088 ['36'] 7249.122807017547
155 144.98245614035088 ['36'] 7249.122807017547
156 144.98245614035088 ['36'] 7249.122807017547
157 144.98245614035088 ['36'] 7249.122807017547
158 144.98245614035088 ['36'] 7249.122807017547
159 144.98245614035088 ['36'] 7249.122807017547
160 144.98245614035088 ['36'] 7249.122807017547
161 144.98245614035088 ['36'] 7249.122807017547
162 144.98245614035088 ['36'] 7249.122807017547
163 144.98245614035088 ['36'] 7249.122807017547
164 144.98245614035088 ['36'] 7249.122807017547
165 144.98245614035088 ['36'] 7249.122807017547
166 144.98245614035088 ['36'] 7249.122807017547
167 144.98245614035088 ['36'] 7249.122807017547
168 144.98245614035088 ['36'] 7249.122807017547
169 144.98245614035088 ['36'] 7249.122807017547
170 144.98245614035088 ['36'] 7249.122807017547
171 144.98245614035088 ['36'] 7249.122807017547
172 144.98245614035088 ['36'] 7249.122807017547
173 144.98245614035088 ['36'] 7249.122807017547
174 144.98245614035088 ['36'] 7249.122807017547
175 144.98245614035088 ['36'] 7249.122807017547
176 144.98245614035088 ['36'] 7249.122807017547
177 144.98245614035088 ['36'] 7249.122807017547
178 144.98245614035088 ['36'] 7249.122807017547
179 144.98245614035088 ['36'] 7249.122807017547
180 144.98245614035088 ['36'] 7249.122807017547
181 144.98245614035088 ['36'] 7249.122807017547
182 144.98245614035088 ['36'] 7249.122807017547
183 144.98245614035088 ['36'] 7249.122807017547
184 144.98245614035088 ['36'] 7249.122807017547
185 144.98245614035088 ['36'] 7249.122807017547
186 144.98245614035088 ['36'] 7249.122807017547
187 144.98245614035088 ['36'] 7249.122807017547
188 144.98245614035088 ['36'] 7249.122807017547
189 144.98245614035088 ['36'] 7249.122807017547
190 144.98245614035088 ['36'] 7249.122807017547
191 144.98245614035088 ['36'] 7249.122807017547
192 144.98245614035088 ['36'] 7249.122807017547
193 144.98245614035088 ['36'] 7249.122807017547
194 144.98245614035088 ['36'] 7249.122807017547
195 144.98245614035088 ['36'] 7249.122807017547
196 144.98245614035088 ['36'] 7249.122807017547
197 144.98245614035088 ['36'] 7249.122807017547
198 144.98245614035088 ['36'] 7249.122807017547
199 144.98245614035088 ['36'] 7249.122807017547
