0 200.1851851851852 ['48', '14', '11', '26', '28', '7'] 10828.351851851847
1 198.33333333333334 ['35', '12', '34', '7', '28', '24'] 10591.574074074077
2 195.53703703703704 ['12', '25', '48', '24', '7', '59'] 10289.740740740739
3 190.1851851851852 ['7', '15', '48', '12', '47', '24'] 10045.462962962964
4 186.74074074074073 ['7', '12', '31', '24', '15', '4'] 9851.85185185185
5 181.66666666666666 ['7', '12', '48', '24', '34', '14'] 9658.334006734007
6 172.38888888888889 ['7', '48', '8', '12', '31', '14'] 9491.462962962962
7 172.38888888888889 ['7', '48', '8', '12', '31', '14'] 9290.829629629628
8 172.38888888888889 ['7', '48', '8', '12', '31', '14'] 9088.667003367
9 172.38888888888889 ['7', '48', '8', '12', '31', '14'] 8911.574074074075
10 172.03636363636363 ['7', '31', '48', '14', '12'] 8743.458922558924
11 172.03636363636363 ['7', '31', '48', '14', '12'] 8633.385521885517
12 172.03636363636363 ['7', '31', '48', '14', '12'] 8615.56666666666
13 172.03636363636363 ['7', '31', '48', '14', '12'] 8613.098989898985
14 172.03636363636363 ['7', '31', '48', '14', '12'] 8606.753535353533
15 172.03636363636363 ['7', '31', '48', '14', '12'] 8601.818181818182
16 172.03636363636363 ['7', '31', '48', '14', '12'] 8601.818181818182
17 172.03636363636363 ['7', '31', '48', '14', '12'] 8601.818181818182
18 172.03636363636363 ['7', '31', '48', '14', '12'] 8601.818181818182
19 172.03636363636363 ['7', '31', '48', '14', '12'] 8601.818181818182
20 172.03636363636363 ['7', '31', '48', '14', '12'] 8601.818181818182
21 172.03636363636363 ['7', '31', '48', '14', '12'] 8601.818181818182
22 172.03636363636363 ['7', '31', '48', '14', '12'] 8601.818181818182
23 172.03636363636363 ['7', '31', '48', '14', '12'] 8601.818181818182
24 172.03636363636363 ['7', '31', '48', '14', '12'] 8601.818181818182
25 172.03636363636363 ['7', '31', '48', '14', '12'] 8601.818181818182
26 172.03636363636363 ['7', '31', '48', '14', '12'] 8601.818181818182
27 172.03636363636363 ['7', '31', '48', '14', '12'] 8601.818181818182
28 172.03636363636363 ['7', '31', '48', '14', '12'] 8601.818181818182
29 172.03636363636363 ['7', '31', '48', '14', '12'] 8601.818181818182
30 172.03636363636363 ['7', '31', '48', '14', '12'] 8601.818181818182
31 172.03636363636363 ['7', '31', '48', '14', '12'] 8601.818181818182
32 172.03636363636363 ['7', '31', '48', '14', '12'] 8601.818181818182
33 172.03636363636363 ['7', '31', '48', '14', '12'] 8601.818181818182
34 172.03636363636363 ['7', '31', '48', '14', '12'] 8601.818181818182
35 172.03636363636363 ['7', '31', '48', '14', '12'] 8601.818181818182
36 172.03636363636363 ['7', '31', '48', '14', '12'] 8601.818181818182
37 172.03636363636363 ['7', '31', '48', '14', '12'] 8601.818181818182
38 172.03636363636363 ['7', '31', '48', '14', '12'] 8601.818181818182
39 172.03636363636363 ['7', '31', '48', '14', '12'] 8601.818181818182
40 172.03636363636363 ['7', '31', '48', '14', '12'] 8601.818181818182
41 172.03636363636363 ['7', '31', '48', '14', '12'] 8601.818181818182
42 172.03636363636363 ['7', '31', '48', '14', '12'] 8601.818181818182
43 172.03636363636363 ['7', '31', '48', '14', '12'] 8601.818181818182
44 172.03636363636363 ['7', '31', '48', '14', '12'] 8601.818181818182
45 172.03636363636363 ['7', '31', '48', '14', '12'] 8601.818181818182
46 172.03636363636363 ['7', '31', '48', '14', '12'] 8601.818181818182
47 172.03636363636363 ['7', '31', '48', '14', '12'] 8601.818181818182
48 172.03636363636363 ['7', '31', '48', '14', '12'] 8601.818181818182
49 172.03636363636363 ['7', '31', '48', '14', '12'] 8601.818181818182
50 172.03636363636363 ['7', '31', '48', '14', '12'] 8601.818181818182
51 172.03636363636363 ['7', '31', '48', '14', '12'] 8601.818181818182
52 172.03636363636363 ['7', '31', '48', '14', '12'] 8601.818181818182
53 172.03636363636363 ['7', '31', '48', '14', '12'] 8601.818181818182
54 172.03636363636363 ['7', '31', '48', '14', '12'] 8601.818181818182
55 172.03636363636363 ['7', '31', '48', '14', '12'] 8601.818181818182
56 172.03636363636363 ['7', '31', '48', '14', '12'] 8601.818181818182
57 172.03636363636363 ['7', '31', '48', '14', '12'] 8601.818181818182
58 172.03636363636363 ['7', '31', '48', '14', '12'] 8601.818181818182
59 172.03636363636363 ['7', '31', '48', '14', '12'] 8601.818181818182
60 172.03636363636363 ['7', '31', '48', '14', '12'] 8601.818181818182
61 172.03636363636363 ['7', '31', '48', '14', '12'] 8601.818181818182
62 172.03636363636363 ['7', '31', '48', '14', '12'] 8601.818181818182
63 172.03636363636363 ['7', '31', '48', '14', '12'] 8601.818181818182
64 172.03636363636363 ['7', '31', '48', '14', '12'] 8601.818181818182
65 172.03636363636363 ['7', '31', '48', '14', '12'] 8601.818181818182
66 172.03636363636363 ['7', '31', '48', '14', '12'] 8601.818181818182
67 172.03636363636363 ['7', '31', '48', '14', '12'] 8601.818181818182
68 172.03636363636363 ['7', '31', '48', '14', '12'] 8601.818181818182
69 172.03636363636363 ['7', '31', '48', '14', '12'] 8601.818181818182
70 172.03636363636363 ['7', '31', '48', '14', '12'] 8601.818181818182
71 172.03636363636363 ['7', '31', '48', '14', '12'] 8601.818181818182
72 172.03636363636363 ['7', '31', '48', '14', '12'] 8601.818181818182
73 172.03636363636363 ['7', '31', '48', '14', '12'] 8601.818181818182
74 172.03636363636363 ['7', '31', '48', '14', '12'] 8601.818181818182
75 172.03636363636363 ['7', '31', '48', '14', '12'] 8601.818181818182
76 172.03636363636363 ['7', '31', '48', '14', '12'] 8601.818181818182
77 172.03636363636363 ['7', '31', '48', '14', '12'] 8601.818181818182
78 172.03636363636363 ['7', '31', '48', '14', '12'] 8601.818181818182
79 172.03636363636363 ['7', '31', '48', '14', '12'] 8601.818181818182
80 172.03636363636363 ['7', '31', '48', '14', '12'] 8601.818181818182
81 172.03636363636363 ['7', '31', '48', '14', '12'] 8601.818181818182
82 172.03636363636363 ['7', '31', '48', '14', '12'] 8601.818181818182
83 172.03636363636363 ['7', '31', '48', '14', '12'] 8601.818181818182
84 172.03636363636363 ['7', '31', '48', '14', '12'] 8601.818181818182
85 172.03636363636363 ['7', '31', '48', '14', '12'] 8601.818181818182
86 172.03636363636363 ['7', '31', '48', '14', '12'] 8601.818181818182
87 172.03636363636363 ['7', '31', '48', '14', '12'] 8601.818181818182
88 172.03636363636363 ['7', '31', '48', '14', '12'] 8601.818181818182
89 172.03636363636363 ['7', '31', '48', '14', '12'] 8601.818181818182
90 172.03636363636363 ['7', '31', '48', '14', '12'] 8601.818181818182
91 172.03636363636363 ['7', '31', '48', '14', '12'] 8601.818181818182
92 172.03636363636363 ['7', '31', '48', '14', '12'] 8601.818181818182
93 172.03636363636363 ['7', '31', '48', '14', '12'] 8601.818181818182
94 172.03636363636363 ['7', '31', '48', '14', '12'] 8601.818181818182
95 172.03636363636363 ['7', '31', '48', '14', '12'] 8601.818181818182
96 172.03636363636363 ['7', '31', '48', '14', '12'] 8601.818181818182
97 172.03636363636363 ['7', '31', '48', '14', '12'] 8601.818181818182
98 172.03636363636363 ['7', '31', '48', '14', '12'] 8601.818181818182
99 172.03636363636363 ['7', '31', '48', '14', '12'] 8601.818181818182
100 172.03636363636363 ['7', '31', '48', '14', '12'] 8601.818181818182
101 172.03636363636363 ['7', '31', '48', '14', '12'] 8601.818181818182
102 172.03636363636363 ['7', '31', '48', '14', '12'] 8601.818181818182
103 172.03636363636363 ['7', '31', '48', '14', '12'] 8601.818181818182
104 172.03636363636363 ['7', '31', '48', '14', '12'] 8601.818181818182
105 172.03636363636363 ['7', '31', '48', '14', '12'] 8601.818181818182
106 172.03636363636363 ['7', '31', '48', '14', '12'] 8601.818181818182
107 172.03636363636363 ['7', '31', '48', '14', '12'] 8601.818181818182
108 172.03636363636363 ['7', '31', '48', '14', '12'] 8601.818181818182
109 172.03636363636363 ['7', '31', '48', '14', '12'] 8601.818181818182
110 172.03636363636363 ['7', '31', '48', '14', '12'] 8601.818181818182
111 172.03636363636363 ['7', '31', '48', '14', '12'] 8601.818181818182
112 172.03636363636363 ['7', '31', '48', '14', '12'] 8601.818181818182
113 172.03636363636363 ['7', '31', '48', '14', '12'] 8601.818181818182
114 172.03636363636363 ['7', '31', '48', '14', '12'] 8601.818181818182
115 172.03636363636363 ['7', '31', '48', '14', '12'] 8601.818181818182
116 172.03636363636363 ['7', '31', '48', '14', '12'] 8601.818181818182
117 172.03636363636363 ['7', '31', '48', '14', '12'] 8601.818181818182
118 172.03636363636363 ['7', '31', '48', '14', '12'] 8601.818181818182
119 172.03636363636363 ['7', '31', '48', '14', '12'] 8601.818181818182
120 172.03636363636363 ['7', '31', '48', '14', '12'] 8601.818181818182
121 172.03636363636363 ['7', '31', '48', '14', '12'] 8601.818181818182
122 172.03636363636363 ['7', '31', '48', '14', '12'] 8601.818181818182
123 172.03636363636363 ['7', '31', '48', '14', '12'] 8601.818181818182
124 172.03636363636363 ['7', '31', '48', '14', '12'] 8601.818181818182
125 172.03636363636363 ['7', '31', '48', '14', '12'] 8601.818181818182
126 172.03636363636363 ['7', '31', '48', '14', '12'] 8601.818181818182
127 172.03636363636363 ['7', '31', '48', '14', '12'] 8601.818181818182
128 172.03636363636363 ['7', '31', '48', '14', '12'] 8601.818181818182
129 172.03636363636363 ['7', '31', '48', '14', '12'] 8601.818181818182
130 172.03636363636363 ['7', '31', '48', '14', '12'] 8601.818181818182
131 172.03636363636363 ['7', '31', '48', '14', '12'] 8601.818181818182
132 172.03636363636363 ['7', '31', '48', '14', '12'] 8601.818181818182
133 172.03636363636363 ['7', '31', '48', '14', '12'] 8601.818181818182
134 172.03636363636363 ['7', '31', '48', '14', '12'] 8601.818181818182
135 172.03636363636363 ['7', '31', '48', '14', '12'] 8601.818181818182
136 172.03636363636363 ['7', '31', '48', '14', '12'] 8601.818181818182
137 172.03636363636363 ['7', '31', '48', '14', '12'] 8601.818181818182
138 172.03636363636363 ['7', '31', '48', '14', '12'] 8601.818181818182
139 172.03636363636363 ['7', '31', '48', '14', '12'] 8601.818181818182
140 172.03636363636363 ['7', '31', '48', '14', '12'] 8601.818181818182
141 172.03636363636363 ['7', '31', '48', '14', '12'] 8601.818181818182
142 172.03636363636363 ['7', '31', '48', '14', '12'] 8601.818181818182
143 172.03636363636363 ['7', '31', '48', '14', '12'] 8601.818181818182
144 172.03636363636363 ['7', '31', '48', '14', '12'] 8601.818181818182
145 172.03636363636363 ['7', '31', '48', '14', '12'] 8601.818181818182
146 172.03636363636363 ['7', '31', '48', '14', '12'] 8601.818181818182
147 172.03636363636363 ['7', '31', '48', '14', '12'] 8601.818181818182
148 172.03636363636363 ['7', '31', '48', '14', '12'] 8601.818181818182
149 172.03636363636363 ['7', '31', '48', '14', '12'] 8601.818181818182
150 172.03636363636363 ['7', '31', '48', '14', '12'] 8601.818181818182
151 172.03636363636363 ['7', '31', '48', '14', '12'] 8601.818181818182
152 172.03636363636363 ['7', '31', '48', '14', '12'] 8601.818181818182
153 172.03636363636363 ['7', '31', '48', '14', '12'] 8601.818181818182
154 172.03636363636363 ['7', '31', '48', '14', '12'] 8601.818181818182
155 172.03636363636363 ['7', '31', '48', '14', '12'] 8601.818181818182
156 172.03636363636363 ['7', '31', '48', '14', '12'] 8601.818181818182
157 172.03636363636363 ['7', '31', '48', '14', '12'] 8601.818181818182
158 172.03636363636363 ['7', '31', '48', '14', '12'] 8601.818181818182
159 172.03636363636363 ['7', '31', '48', '14', '12'] 8601.818181818182
160 172.03636363636363 ['7', '31', '48', '14', '12'] 8601.818181818182
161 172.03636363636363 ['7', '31', '48', '14', '12'] 8601.818181818182
162 172.03636363636363 ['7', '31', '48', '14', '12'] 8601.818181818182
163 172.03636363636363 ['7', '31', '48', '14', '12'] 8601.818181818182
164 172.03636363636363 ['7', '31', '48', '14', '12'] 8601.818181818182
165 172.03636363636363 ['7', '31', '48', '14', '12'] 8601.818181818182
166 172.03636363636363 ['7', '31', '48', '14', '12'] 8601.818181818182
167 172.03636363636363 ['7', '31', '48', '14', '12'] 8601.818181818182
168 172.03636363636363 ['7', '31', '48', '14', '12'] 8601.818181818182
169 172.03636363636363 ['7', '31', '48', '14', '12'] 8601.818181818182
170 172.03636363636363 ['7', '31', '48', '14', '12'] 8601.818181818182
171 172.03636363636363 ['7', '31', '48', '14', '12'] 8601.818181818182
172 172.03636363636363 ['7', '31', '48', '14', '12'] 8601.818181818182
173 172.03636363636363 ['7', '31', '48', '14', '12'] 8601.818181818182
174 172.03636363636363 ['7', '31', '48', '14', '12'] 8601.818181818182
175 172.03636363636363 ['7', '31', '48', '14', '12'] 8601.818181818182
176 172.03636363636363 ['7', '31', '48', '14', '12'] 8601.818181818182
177 172.03636363636363 ['7', '31', '48', '14', '12'] 8601.818181818182
178 172.03636363636363 ['7', '31', '48', '14', '12'] 8601.818181818182
179 172.03636363636363 ['7', '31', '48', '14', '12'] 8601.818181818182
180 172.03636363636363 ['7', '31', '48', '14', '12'] 8601.818181818182
181 172.03636363636363 ['7', '31', '48', '14', '12'] 8601.818181818182
182 172.03636363636363 ['7', '31', '48', '14', '12'] 8601.818181818182
183 172.03636363636363 ['7', '31', '48', '14', '12'] 8601.818181818182
184 172.03636363636363 ['7', '31', '48', '14', '12'] 8601.818181818182
185 172.03636363636363 ['7', '31', '48', '14', '12'] 8601.818181818182
186 172.03636363636363 ['7', '31', '48', '14', '12'] 8601.818181818182
187 172.03636363636363 ['7', '31', '48', '14', '12'] 8601.818181818182
188 172.03636363636363 ['7', '31', '48', '14', '12'] 8601.818181818182
189 172.03636363636363 ['7', '31', '48', '14', '12'] 8601.818181818182
190 172.03636363636363 ['7', '31', '48', '14', '12'] 8601.818181818182
191 172.03636363636363 ['7', '31', '48', '14', '12'] 8601.818181818182
192 172.03636363636363 ['7', '31', '48', '14', '12'] 8601.818181818182
193 172.03636363636363 ['7', '31', '48', '14', '12'] 8601.818181818182
194 172.03636363636363 ['7', '31', '48', '14', '12'] 8601.818181818182
195 172.03636363636363 ['7', '31', '48', '14', '12'] 8601.818181818182
196 172.03636363636363 ['7', '31', '48', '14', '12'] 8601.818181818182
197 172.03636363636363 ['7', '31', '48', '14', '12'] 8601.818181818182
198 172.03636363636363 ['7', '31', '48', '14', '12'] 8601.818181818182
199 172.03636363636363 ['7', '31', '48', '14', '12'] 8601.818181818182
