0 8.36111111111111 ['34', '27', '3'] 435.75
1 8.333333333333334 ['3', '27', '16'] 429.3055555555557
2 8.277777777777779 ['3', '11', '27'] 423.47222222222194
3 8.194444444444445 ['13', '22', '27'] 419.3888888888891
4 8.194444444444445 ['13', '22', '27'] 416.8055555555556
5 8.194444444444445 ['13', '22', '27'] 414.83333333333275
6 8.194444444444445 ['13', '22', '27'] 413.36111111111086
7 8.166666666666666 ['27', '5', '13'] 411.8611111111111
8 8.166666666666666 ['27', '5', '13'] 411.05555555555566
9 8.166666666666666 ['27', '5', '13'] 409.666666666667
10 8.166666666666666 ['27', '5', '13'] 409.3888888888893
11 8.166666666666666 ['27', '5', '13'] 408.9166666666668
12 8.166666666666666 ['27', '5', '13'] 408.33333333333354
13 8.166666666666666 ['27', '5', '13'] 408.33333333333354
14 8.166666666666666 ['27', '5', '13'] 408.33333333333354
15 8.166666666666666 ['27', '5', '13'] 408.33333333333354
16 8.166666666666666 ['27', '5', '13'] 408.33333333333354
17 8.166666666666666 ['27', '5', '13'] 408.33333333333354
18 8.166666666666666 ['27', '5', '13'] 408.33333333333354
19 8.166666666666666 ['27', '5', '13'] 408.33333333333354
20 8.166666666666666 ['27', '5', '13'] 408.33333333333354
21 8.166666666666666 ['27', '5', '13'] 408.33333333333354
22 8.166666666666666 ['27', '5', '13'] 408.33333333333354
23 8.166666666666666 ['27', '5', '13'] 408.33333333333354
24 8.166666666666666 ['27', '5', '13'] 408.33333333333354
25 8.166666666666666 ['27', '5', '13'] 408.33333333333354
26 8.166666666666666 ['27', '5', '13'] 408.33333333333354
27 8.166666666666666 ['27', '5', '13'] 408.33333333333354
28 8.166666666666666 ['27', '5', '13'] 408.33333333333354
29 8.166666666666666 ['27', '5', '13'] 408.33333333333354
30 8.166666666666666 ['27', '5', '13'] 408.33333333333354
31 8.166666666666666 ['27', '5', '13'] 408.33333333333354
32 8.166666666666666 ['27', '5', '13'] 408.33333333333354
33 8.166666666666666 ['27', '5', '13'] 408.33333333333354
34 8.166666666666666 ['27', '5', '13'] 408.33333333333354
35 8.166666666666666 ['27', '5', '13'] 408.33333333333354
36 8.166666666666666 ['27', '5', '13'] 408.33333333333354
37 8.166666666666666 ['27', '5', '13'] 408.33333333333354
38 8.166666666666666 ['27', '5', '13'] 408.33333333333354
39 8.166666666666666 ['27', '5', '13'] 408.33333333333354
40 8.166666666666666 ['27', '5', '13'] 408.33333333333354
41 8.166666666666666 ['27', '5', '13'] 408.33333333333354
42 8.166666666666666 ['27', '5', '13'] 408.33333333333354
43 8.166666666666666 ['27', '5', '13'] 408.33333333333354
44 8.166666666666666 ['27', '5', '13'] 408.33333333333354
45 8.166666666666666 ['27', '5', '13'] 408.33333333333354
46 8.166666666666666 ['27', '5', '13'] 408.33333333333354
47 8.166666666666666 ['27', '5', '13'] 408.33333333333354
48 8.166666666666666 ['27', '5', '13'] 408.33333333333354
49 8.166666666666666 ['27', '5', '13'] 408.33333333333354
50 8.166666666666666 ['27', '5', '13'] 408.33333333333354
51 8.166666666666666 ['27', '5', '13'] 408.33333333333354
52 8.166666666666666 ['27', '5', '13'] 408.33333333333354
53 8.166666666666666 ['27', '5', '13'] 408.33333333333354
54 8.166666666666666 ['27', '5', '13'] 408.33333333333354
55 8.166666666666666 ['27', '5', '13'] 408.33333333333354
56 8.166666666666666 ['27', '5', '13'] 408.33333333333354
57 8.166666666666666 ['27', '5', '13'] 408.33333333333354
58 8.166666666666666 ['27', '5', '13'] 408.33333333333354
59 8.166666666666666 ['27', '5', '13'] 408.33333333333354
60 8.166666666666666 ['27', '5', '13'] 408.33333333333354
61 8.166666666666666 ['27', '5', '13'] 408.33333333333354
62 8.166666666666666 ['27', '5', '13'] 408.33333333333354
63 8.166666666666666 ['27', '5', '13'] 408.33333333333354
64 8.166666666666666 ['27', '5', '13'] 408.33333333333354
65 8.166666666666666 ['27', '5', '13'] 408.33333333333354
66 8.166666666666666 ['27', '5', '13'] 408.33333333333354
67 8.166666666666666 ['27', '5', '13'] 408.33333333333354
68 8.166666666666666 ['27', '5', '13'] 408.33333333333354
69 8.166666666666666 ['27', '5', '13'] 408.33333333333354
70 8.166666666666666 ['27', '5', '13'] 408.33333333333354
71 8.166666666666666 ['27', '5', '13'] 408.33333333333354
72 8.166666666666666 ['27', '5', '13'] 408.33333333333354
73 8.166666666666666 ['27', '5', '13'] 408.33333333333354
74 8.166666666666666 ['27', '5', '13'] 408.33333333333354
75 8.166666666666666 ['27', '5', '13'] 408.33333333333354
76 8.166666666666666 ['27', '5', '13'] 408.33333333333354
77 8.166666666666666 ['27', '5', '13'] 408.33333333333354
78 8.166666666666666 ['27', '5', '13'] 408.33333333333354
79 8.166666666666666 ['27', '5', '13'] 408.33333333333354
80 8.166666666666666 ['27', '5', '13'] 408.33333333333354
81 8.166666666666666 ['27', '5', '13'] 408.33333333333354
82 8.166666666666666 ['27', '5', '13'] 408.33333333333354
83 8.166666666666666 ['27', '5', '13'] 408.33333333333354
84 8.166666666666666 ['27', '5', '13'] 408.33333333333354
85 8.166666666666666 ['27', '5', '13'] 408.33333333333354
86 8.166666666666666 ['27', '5', '13'] 408.33333333333354
87 8.166666666666666 ['27', '5', '13'] 408.33333333333354
88 8.166666666666666 ['27', '5', '13'] 408.33333333333354
89 8.166666666666666 ['27', '5', '13'] 408.33333333333354
90 8.166666666666666 ['27', '5', '13'] 408.33333333333354
91 8.166666666666666 ['27', '5', '13'] 408.33333333333354
92 8.166666666666666 ['27', '5', '13'] 408.33333333333354
93 8.166666666666666 ['27', '5', '13'] 408.33333333333354
94 8.166666666666666 ['27', '5', '13'] 408.33333333333354
95 8.166666666666666 ['27', '5', '13'] 408.33333333333354
96 8.166666666666666 ['27', '5', '13'] 408.33333333333354
97 8.166666666666666 ['27', '5', '13'] 408.33333333333354
98 8.166666666666666 ['27', '5', '13'] 408.33333333333354
99 8.166666666666666 ['27', '5', '13'] 408.33333333333354
100 8.166666666666666 ['27', '5', '13'] 408.33333333333354
101 8.166666666666666 ['27', '5', '13'] 408.33333333333354
102 8.166666666666666 ['27', '5', '13'] 408.33333333333354
103 8.166666666666666 ['27', '5', '13'] 408.33333333333354
104 8.166666666666666 ['27', '5', '13'] 408.33333333333354
105 8.166666666666666 ['27', '5', '13'] 408.33333333333354
106 8.166666666666666 ['27', '5', '13'] 408.33333333333354
107 8.166666666666666 ['27', '5', '13'] 408.33333333333354
108 8.166666666666666 ['27', '5', '13'] 408.33333333333354
109 8.166666666666666 ['27', '5', '13'] 408.33333333333354
110 8.166666666666666 ['27', '5', '13'] 408.33333333333354
111 8.166666666666666 ['27', '5', '13'] 408.33333333333354
112 8.166666666666666 ['27', '5', '13'] 408.33333333333354
113 8.166666666666666 ['27', '5', '13'] 408.33333333333354
114 8.166666666666666 ['27', '5', '13'] 408.33333333333354
115 8.166666666666666 ['27', '5', '13'] 408.33333333333354
116 8.166666666666666 ['27', '5', '13'] 408.33333333333354
117 8.166666666666666 ['27', '5', '13'] 408.33333333333354
118 8.166666666666666 ['27', '5', '13'] 408.33333333333354
119 8.166666666666666 ['27', '5', '13'] 408.33333333333354
120 8.166666666666666 ['27', '5', '13'] 408.33333333333354
121 8.166666666666666 ['27', '5', '13'] 408.33333333333354
122 8.166666666666666 ['27', '5', '13'] 408.33333333333354
123 8.166666666666666 ['27', '5', '13'] 408.33333333333354
124 8.166666666666666 ['27', '5', '13'] 408.33333333333354
125 8.166666666666666 ['27', '5', '13'] 408.33333333333354
126 8.166666666666666 ['27', '5', '13'] 408.33333333333354
127 8.166666666666666 ['27', '5', '13'] 408.33333333333354
128 8.166666666666666 ['27', '5', '13'] 408.33333333333354
129 8.166666666666666 ['27', '5', '13'] 408.33333333333354
130 8.166666666666666 ['27', '5', '13'] 408.33333333333354
131 8.166666666666666 ['27', '5', '13'] 408.33333333333354
132 8.166666666666666 ['27', '5', '13'] 408.33333333333354
133 8.166666666666666 ['27', '5', '13'] 408.33333333333354
134 8.166666666666666 ['27', '5', '13'] 408.33333333333354
135 8.166666666666666 ['27', '5', '13'] 408.33333333333354
136 8.166666666666666 ['27', '5', '13'] 408.33333333333354
137 8.166666666666666 ['27', '5', '13'] 408.33333333333354
138 8.166666666666666 ['27', '5', '13'] 408.33333333333354
139 8.166666666666666 ['27', '5', '13'] 408.33333333333354
140 8.166666666666666 ['27', '5', '13'] 408.33333333333354
141 8.166666666666666 ['27', '5', '13'] 408.33333333333354
142 8.166666666666666 ['27', '5', '13'] 408.33333333333354
143 8.166666666666666 ['27', '5', '13'] 408.33333333333354
144 8.166666666666666 ['27', '5', '13'] 408.33333333333354
145 8.166666666666666 ['27', '5', '13'] 408.33333333333354
146 8.166666666666666 ['27', '5', '13'] 408.33333333333354
147 8.166666666666666 ['27', '5', '13'] 408.33333333333354
148 8.166666666666666 ['27', '5', '13'] 408.33333333333354
149 8.166666666666666 ['27', '5', '13'] 408.33333333333354
150 8.166666666666666 ['27', '5', '13'] 408.33333333333354
151 8.166666666666666 ['27', '5', '13'] 408.33333333333354
152 8.166666666666666 ['27', '5', '13'] 408.33333333333354
153 8.166666666666666 ['27', '5', '13'] 408.33333333333354
154 8.166666666666666 ['27', '5', '13'] 408.33333333333354
155 8.166666666666666 ['27', '5', '13'] 408.33333333333354
156 8.166666666666666 ['27', '5', '13'] 408.33333333333354
157 8.166666666666666 ['27', '5', '13'] 408.33333333333354
158 8.166666666666666 ['27', '5', '13'] 408.33333333333354
159 8.166666666666666 ['27', '5', '13'] 408.33333333333354
160 8.166666666666666 ['27', '5', '13'] 408.33333333333354
161 8.166666666666666 ['27', '5', '13'] 408.33333333333354
162 8.166666666666666 ['27', '5', '13'] 408.33333333333354
163 8.166666666666666 ['27', '5', '13'] 408.33333333333354
164 8.166666666666666 ['27', '5', '13'] 408.33333333333354
165 8.166666666666666 ['27', '5', '13'] 408.33333333333354
166 8.166666666666666 ['27', '5', '13'] 408.33333333333354
167 8.166666666666666 ['27', '5', '13'] 408.33333333333354
168 8.166666666666666 ['27', '5', '13'] 408.33333333333354
169 8.166666666666666 ['27', '5', '13'] 408.33333333333354
170 8.166666666666666 ['27', '5', '13'] 408.33333333333354
171 8.166666666666666 ['27', '5', '13'] 408.33333333333354
172 8.166666666666666 ['27', '5', '13'] 408.33333333333354
173 8.166666666666666 ['27', '5', '13'] 408.33333333333354
174 8.166666666666666 ['27', '5', '13'] 408.33333333333354
175 8.166666666666666 ['27', '5', '13'] 408.33333333333354
176 8.166666666666666 ['27', '5', '13'] 408.33333333333354
177 8.166666666666666 ['27', '5', '13'] 408.33333333333354
178 8.166666666666666 ['27', '5', '13'] 408.33333333333354
179 8.166666666666666 ['27', '5', '13'] 408.33333333333354
180 8.166666666666666 ['27', '5', '13'] 408.33333333333354
181 8.166666666666666 ['27', '5', '13'] 408.33333333333354
182 8.166666666666666 ['27', '5', '13'] 408.33333333333354
183 8.166666666666666 ['27', '5', '13'] 408.33333333333354
184 8.166666666666666 ['27', '5', '13'] 408.33333333333354
185 8.166666666666666 ['27', '5', '13'] 408.33333333333354
186 8.166666666666666 ['27', '5', '13'] 408.33333333333354
187 8.166666666666666 ['27', '5', '13'] 408.33333333333354
188 8.166666666666666 ['27', '5', '13'] 408.33333333333354
189 8.166666666666666 ['27', '5', '13'] 408.33333333333354
190 8.166666666666666 ['27', '5', '13'] 408.33333333333354
191 8.166666666666666 ['27', '5', '13'] 408.33333333333354
192 8.166666666666666 ['27', '5', '13'] 408.33333333333354
193 8.166666666666666 ['27', '5', '13'] 408.33333333333354
194 8.166666666666666 ['27', '5', '13'] 408.33333333333354
195 8.166666666666666 ['27', '5', '13'] 408.33333333333354
196 8.166666666666666 ['27', '5', '13'] 408.33333333333354
197 8.166666666666666 ['27', '5', '13'] 408.33333333333354
198 8.166666666666666 ['27', '5', '13'] 408.33333333333354
199 8.166666666666666 ['27', '5', '13'] 408.33333333333354
