0 198.88888888888889 ['5', '24', '17', '44', '12', '7'] 10901.462962962962
1 198.66666666666666 ['12', '5', '7', '24', '23', '44'] 10614.796296296294
2 193.5 ['7', '31', '29', '12', '30', '44'] 10323.685185185186
3 184.42592592592592 ['12', '31', '7', '14', '43', '9'] 10021.369696969694
4 184.42592592592592 ['12', '31', '7', '14', '43', '9'] 9781.110437710438
5 180.27777777777777 ['7', '12', '31', '9', '29', '14'] 9550.685185185182
6 179.37037037037038 ['12', '7', '31', '29', '24', '14'] 9365.192255892252
7 177.4814814814815 ['7', '31', '12', '14', '32', '29'] 9230.223388648392
8 177.4814814814815 ['7', '31', '12', '14', '32', '29'] 9087.174182299183
9 176.32142857142858 ['31', '14', '12', '7'] 8978.691125541123
10 176.32142857142858 ['31', '14', '12', '7'] 8911.208513708512
11 176.32142857142858 ['31', '14', '12', '7'] 8863.26548821549
12 176.32142857142858 ['31', '14', '12', '7'] 8847.030639730645
13 176.32142857142858 ['31', '14', '12', '7'] 8825.474025974023
14 176.32142857142858 ['31', '14', '12', '7'] 8816.071428571428
15 176.32142857142858 ['31', '14', '12', '7'] 8816.071428571428
16 176.32142857142858 ['31', '14', '12', '7'] 8816.071428571428
17 176.32142857142858 ['31', '14', '12', '7'] 8816.071428571428
18 176.32142857142858 ['31', '14', '12', '7'] 8816.071428571428
19 176.32142857142858 ['31', '14', '12', '7'] 8816.071428571428
20 176.32142857142858 ['31', '14', '12', '7'] 8816.071428571428
21 176.32142857142858 ['31', '14', '12', '7'] 8816.071428571428
22 176.32142857142858 ['31', '14', '12', '7'] 8816.071428571428
23 176.32142857142858 ['31', '14', '12', '7'] 8816.071428571428
24 176.32142857142858 ['31', '14', '12', '7'] 8816.071428571428
25 176.32142857142858 ['31', '14', '12', '7'] 8816.071428571428
26 176.32142857142858 ['31', '14', '12', '7'] 8816.071428571428
27 176.32142857142858 ['31', '14', '12', '7'] 8816.071428571428
28 176.32142857142858 ['31', '14', '12', '7'] 8816.071428571428
29 176.32142857142858 ['31', '14', '12', '7'] 8816.071428571428
30 176.32142857142858 ['31', '14', '12', '7'] 8816.071428571428
31 176.32142857142858 ['31', '14', '12', '7'] 8816.071428571428
32 176.32142857142858 ['31', '14', '12', '7'] 8816.071428571428
33 176.32142857142858 ['31', '14', '12', '7'] 8816.071428571428
34 176.32142857142858 ['31', '14', '12', '7'] 8816.071428571428
35 176.32142857142858 ['31', '14', '12', '7'] 8816.071428571428
36 176.32142857142858 ['31', '14', '12', '7'] 8816.071428571428
37 176.32142857142858 ['31', '14', '12', '7'] 8816.071428571428
38 176.32142857142858 ['31', '14', '12', '7'] 8816.071428571428
39 176.32142857142858 ['31', '14', '12', '7'] 8816.071428571428
40 176.32142857142858 ['31', '14', '12', '7'] 8816.071428571428
41 176.32142857142858 ['31', '14', '12', '7'] 8816.071428571428
42 176.32142857142858 ['31', '14', '12', '7'] 8816.071428571428
43 176.32142857142858 ['31', '14', '12', '7'] 8816.071428571428
44 176.32142857142858 ['31', '14', '12', '7'] 8816.071428571428
45 176.32142857142858 ['31', '14', '12', '7'] 8816.071428571428
46 176.32142857142858 ['31', '14', '12', '7'] 8816.071428571428
47 176.32142857142858 ['31', '14', '12', '7'] 8816.071428571428
48 176.32142857142858 ['31', '14', '12', '7'] 8816.071428571428
49 176.32142857142858 ['31', '14', '12', '7'] 8816.071428571428
50 176.32142857142858 ['31', '14', '12', '7'] 8816.071428571428
51 176.32142857142858 ['31', '14', '12', '7'] 8816.071428571428
52 176.32142857142858 ['31', '14', '12', '7'] 8816.071428571428
53 176.32142857142858 ['31', '14', '12', '7'] 8816.071428571428
54 176.32142857142858 ['31', '14', '12', '7'] 8816.071428571428
55 176.32142857142858 ['31', '14', '12', '7'] 8816.071428571428
56 176.32142857142858 ['31', '14', '12', '7'] 8816.071428571428
57 176.32142857142858 ['31', '14', '12', '7'] 8816.071428571428
58 176.32142857142858 ['31', '14', '12', '7'] 8816.071428571428
59 176.32142857142858 ['31', '14', '12', '7'] 8816.071428571428
60 176.32142857142858 ['31', '14', '12', '7'] 8816.071428571428
61 176.32142857142858 ['31', '14', '12', '7'] 8816.071428571428
62 176.32142857142858 ['31', '14', '12', '7'] 8816.071428571428
63 176.32142857142858 ['31', '14', '12', '7'] 8816.071428571428
64 176.32142857142858 ['31', '14', '12', '7'] 8816.071428571428
65 176.32142857142858 ['31', '14', '12', '7'] 8816.071428571428
66 176.32142857142858 ['31', '14', '12', '7'] 8816.071428571428
67 176.32142857142858 ['31', '14', '12', '7'] 8816.071428571428
68 176.32142857142858 ['31', '14', '12', '7'] 8816.071428571428
69 176.32142857142858 ['31', '14', '12', '7'] 8816.071428571428
70 176.32142857142858 ['31', '14', '12', '7'] 8816.071428571428
71 176.32142857142858 ['31', '14', '12', '7'] 8816.071428571428
72 176.32142857142858 ['31', '14', '12', '7'] 8816.071428571428
73 176.32142857142858 ['31', '14', '12', '7'] 8816.071428571428
74 176.32142857142858 ['31', '14', '12', '7'] 8816.071428571428
75 176.32142857142858 ['31', '14', '12', '7'] 8816.071428571428
76 176.32142857142858 ['31', '14', '12', '7'] 8816.071428571428
77 176.32142857142858 ['31', '14', '12', '7'] 8816.071428571428
78 176.32142857142858 ['31', '14', '12', '7'] 8816.071428571428
79 176.32142857142858 ['31', '14', '12', '7'] 8816.071428571428
80 176.32142857142858 ['31', '14', '12', '7'] 8816.071428571428
81 176.32142857142858 ['31', '14', '12', '7'] 8816.071428571428
82 176.32142857142858 ['31', '14', '12', '7'] 8816.071428571428
83 176.32142857142858 ['31', '14', '12', '7'] 8816.071428571428
84 176.32142857142858 ['31', '14', '12', '7'] 8816.071428571428
85 176.32142857142858 ['31', '14', '12', '7'] 8816.071428571428
86 176.32142857142858 ['31', '14', '12', '7'] 8816.071428571428
87 176.32142857142858 ['31', '14', '12', '7'] 8816.071428571428
88 176.32142857142858 ['31', '14', '12', '7'] 8816.071428571428
89 176.32142857142858 ['31', '14', '12', '7'] 8816.071428571428
90 176.32142857142858 ['31', '14', '12', '7'] 8816.071428571428
91 176.32142857142858 ['31', '14', '12', '7'] 8816.071428571428
92 176.32142857142858 ['31', '14', '12', '7'] 8816.071428571428
93 176.32142857142858 ['31', '14', '12', '7'] 8816.071428571428
94 176.32142857142858 ['31', '14', '12', '7'] 8816.071428571428
95 176.32142857142858 ['31', '14', '12', '7'] 8816.071428571428
96 176.32142857142858 ['31', '14', '12', '7'] 8816.071428571428
97 176.32142857142858 ['31', '14', '12', '7'] 8816.071428571428
98 176.32142857142858 ['31', '14', '12', '7'] 8816.071428571428
99 176.32142857142858 ['31', '14', '12', '7'] 8816.071428571428
100 176.32142857142858 ['31', '14', '12', '7'] 8816.071428571428
101 176.32142857142858 ['31', '14', '12', '7'] 8816.071428571428
102 176.32142857142858 ['31', '14', '12', '7'] 8816.071428571428
103 176.32142857142858 ['31', '14', '12', '7'] 8816.071428571428
104 176.32142857142858 ['31', '14', '12', '7'] 8816.071428571428
105 176.32142857142858 ['31', '14', '12', '7'] 8816.071428571428
106 176.32142857142858 ['31', '14', '12', '7'] 8816.071428571428
107 176.32142857142858 ['31', '14', '12', '7'] 8816.071428571428
108 176.32142857142858 ['31', '14', '12', '7'] 8816.071428571428
109 176.32142857142858 ['31', '14', '12', '7'] 8816.071428571428
110 176.32142857142858 ['31', '14', '12', '7'] 8816.071428571428
111 176.32142857142858 ['31', '14', '12', '7'] 8816.071428571428
112 176.32142857142858 ['31', '14', '12', '7'] 8816.071428571428
113 176.32142857142858 ['31', '14', '12', '7'] 8816.071428571428
114 176.32142857142858 ['31', '14', '12', '7'] 8816.071428571428
115 176.32142857142858 ['31', '14', '12', '7'] 8816.071428571428
116 176.32142857142858 ['31', '14', '12', '7'] 8816.071428571428
117 176.32142857142858 ['31', '14', '12', '7'] 8816.071428571428
118 176.32142857142858 ['31', '14', '12', '7'] 8816.071428571428
119 176.32142857142858 ['31', '14', '12', '7'] 8816.071428571428
120 176.32142857142858 ['31', '14', '12', '7'] 8816.071428571428
121 176.32142857142858 ['31', '14', '12', '7'] 8816.071428571428
122 176.32142857142858 ['31', '14', '12', '7'] 8816.071428571428
123 176.32142857142858 ['31', '14', '12', '7'] 8816.071428571428
124 176.32142857142858 ['31', '14', '12', '7'] 8816.071428571428
125 176.32142857142858 ['31', '14', '12', '7'] 8816.071428571428
126 176.32142857142858 ['31', '14', '12', '7'] 8816.071428571428
127 176.32142857142858 ['31', '14', '12', '7'] 8816.071428571428
128 176.32142857142858 ['31', '14', '12', '7'] 8816.071428571428
129 176.32142857142858 ['31', '14', '12', '7'] 8816.071428571428
130 176.32142857142858 ['31', '14', '12', '7'] 8816.071428571428
131 176.32142857142858 ['31', '14', '12', '7'] 8816.071428571428
132 176.32142857142858 ['31', '14', '12', '7'] 8816.071428571428
133 176.32142857142858 ['31', '14', '12', '7'] 8816.071428571428
134 176.32142857142858 ['31', '14', '12', '7'] 8816.071428571428
135 176.32142857142858 ['31', '14', '12', '7'] 8816.071428571428
136 176.32142857142858 ['31', '14', '12', '7'] 8816.071428571428
137 176.32142857142858 ['31', '14', '12', '7'] 8816.071428571428
138 176.32142857142858 ['31', '14', '12', '7'] 8816.071428571428
139 176.32142857142858 ['31', '14', '12', '7'] 8816.071428571428
140 176.32142857142858 ['31', '14', '12', '7'] 8816.071428571428
141 176.32142857142858 ['31', '14', '12', '7'] 8816.071428571428
142 176.32142857142858 ['31', '14', '12', '7'] 8816.071428571428
143 176.32142857142858 ['31', '14', '12', '7'] 8816.071428571428
144 176.32142857142858 ['31', '14', '12', '7'] 8816.071428571428
145 176.32142857142858 ['31', '14', '12', '7'] 8816.071428571428
146 176.32142857142858 ['31', '14', '12', '7'] 8816.071428571428
147 176.32142857142858 ['31', '14', '12', '7'] 8816.071428571428
148 176.32142857142858 ['31', '14', '12', '7'] 8816.071428571428
149 176.32142857142858 ['31', '14', '12', '7'] 8816.071428571428
150 176.32142857142858 ['31', '14', '12', '7'] 8816.071428571428
151 176.32142857142858 ['31', '14', '12', '7'] 8816.071428571428
152 176.32142857142858 ['31', '14', '12', '7'] 8816.071428571428
153 176.32142857142858 ['31', '14', '12', '7'] 8816.071428571428
154 176.32142857142858 ['31', '14', '12', '7'] 8816.071428571428
155 176.32142857142858 ['31', '14', '12', '7'] 8816.071428571428
156 176.32142857142858 ['31', '14', '12', '7'] 8816.071428571428
157 176.32142857142858 ['31', '14', '12', '7'] 8816.071428571428
158 176.32142857142858 ['31', '14', '12', '7'] 8816.071428571428
159 176.32142857142858 ['31', '14', '12', '7'] 8816.071428571428
160 176.32142857142858 ['31', '14', '12', '7'] 8816.071428571428
161 176.32142857142858 ['31', '14', '12', '7'] 8816.071428571428
162 176.32142857142858 ['31', '14', '12', '7'] 8816.071428571428
163 176.32142857142858 ['31', '14', '12', '7'] 8816.071428571428
164 176.32142857142858 ['31', '14', '12', '7'] 8816.071428571428
165 176.32142857142858 ['31', '14', '12', '7'] 8816.071428571428
166 176.32142857142858 ['31', '14', '12', '7'] 8816.071428571428
167 176.32142857142858 ['31', '14', '12', '7'] 8816.071428571428
168 176.32142857142858 ['31', '14', '12', '7'] 8816.071428571428
169 176.32142857142858 ['31', '14', '12', '7'] 8816.071428571428
170 176.32142857142858 ['31', '14', '12', '7'] 8816.071428571428
171 176.32142857142858 ['31', '14', '12', '7'] 8816.071428571428
172 176.32142857142858 ['31', '14', '12', '7'] 8816.071428571428
173 176.32142857142858 ['31', '14', '12', '7'] 8816.071428571428
174 176.32142857142858 ['31', '14', '12', '7'] 8816.071428571428
175 176.32142857142858 ['31', '14', '12', '7'] 8816.071428571428
176 176.32142857142858 ['31', '14', '12', '7'] 8816.071428571428
177 176.32142857142858 ['31', '14', '12', '7'] 8816.071428571428
178 176.32142857142858 ['31', '14', '12', '7'] 8816.071428571428
179 176.32142857142858 ['31', '14', '12', '7'] 8816.071428571428
180 176.32142857142858 ['31', '14', '12', '7'] 8816.071428571428
181 176.32142857142858 ['31', '14', '12', '7'] 8816.071428571428
182 176.32142857142858 ['31', '14', '12', '7'] 8816.071428571428
183 176.32142857142858 ['31', '14', '12', '7'] 8816.071428571428
184 176.32142857142858 ['31', '14', '12', '7'] 8816.071428571428
185 176.32142857142858 ['31', '14', '12', '7'] 8816.071428571428
186 176.32142857142858 ['31', '14', '12', '7'] 8816.071428571428
187 176.32142857142858 ['31', '14', '12', '7'] 8816.071428571428
188 176.32142857142858 ['31', '14', '12', '7'] 8816.071428571428
189 176.32142857142858 ['31', '14', '12', '7'] 8816.071428571428
190 176.32142857142858 ['31', '14', '12', '7'] 8816.071428571428
191 176.32142857142858 ['31', '14', '12', '7'] 8816.071428571428
192 176.32142857142858 ['31', '14', '12', '7'] 8816.071428571428
193 176.32142857142858 ['31', '14', '12', '7'] 8816.071428571428
194 176.32142857142858 ['31', '14', '12', '7'] 8816.071428571428
195 176.32142857142858 ['31', '14', '12', '7'] 8816.071428571428
196 176.32142857142858 ['31', '14', '12', '7'] 8816.071428571428
197 176.32142857142858 ['31', '14', '12', '7'] 8816.071428571428
198 176.32142857142858 ['31', '14', '12', '7'] 8816.071428571428
199 176.32142857142858 ['31', '14', '12', '7'] 8816.071428571428
