0 25.0 ['16', '10'] 1361.0370370370372
1 25.0 ['16', '10'] 1320.1481481481483
2 25.0 ['16', '10'] 1299.1481481481471
3 25.0 ['16', '10'] 1274.666666666667
4 25.0 ['16', '10'] 1250.0
5 25.0 ['16', '10'] 1250.0
6 25.0 ['16', '10'] 1250.0
7 25.0 ['16', '10'] 1250.0
8 25.0 ['16', '10'] 1250.0
9 25.0 ['16', '10'] 1250.0
10 25.0 ['16', '10'] 1250.0
11 25.0 ['16', '10'] 1250.0
12 25.0 ['16', '10'] 1250.0
13 25.0 ['16', '10'] 1250.0
14 25.0 ['16', '10'] 1250.0
15 25.0 ['16', '10'] 1250.0
16 25.0 ['16', '10'] 1250.0
17 25.0 ['16', '10'] 1250.0
18 25.0 ['16', '10'] 1250.0
19 25.0 ['16', '10'] 1250.0
20 25.0 ['16', '10'] 1250.0
21 25.0 ['16', '10'] 1250.0
22 25.0 ['16', '10'] 1250.0
23 25.0 ['16', '10'] 1250.0
24 25.0 ['16', '10'] 1250.0
25 25.0 ['16', '10'] 1250.0
26 25.0 ['16', '10'] 1250.0
27 25.0 ['16', '10'] 1250.0
28 25.0 ['16', '10'] 1250.0
29 25.0 ['16', '10'] 1250.0
30 25.0 ['16', '10'] 1250.0
31 25.0 ['16', '10'] 1250.0
32 25.0 ['16', '10'] 1250.0
33 25.0 ['16', '10'] 1250.0
34 25.0 ['16', '10'] 1250.0
35 25.0 ['16', '10'] 1250.0
36 25.0 ['16', '10'] 1250.0
37 25.0 ['16', '10'] 1250.0
38 25.0 ['16', '10'] 1250.0
39 25.0 ['16', '10'] 1250.0
40 25.0 ['16', '10'] 1250.0
41 25.0 ['16', '10'] 1250.0
42 25.0 ['16', '10'] 1250.0
43 25.0 ['16', '10'] 1250.0
44 25.0 ['16', '10'] 1250.0
45 25.0 ['16', '10'] 1250.0
46 25.0 ['16', '10'] 1250.0
47 25.0 ['16', '10'] 1250.0
48 25.0 ['16', '10'] 1250.0
49 25.0 ['16', '10'] 1250.0
50 25.0 ['16', '10'] 1250.0
51 25.0 ['16', '10'] 1250.0
52 25.0 ['16', '10'] 1250.0
53 25.0 ['16', '10'] 1250.0
54 25.0 ['16', '10'] 1250.0
55 25.0 ['16', '10'] 1250.0
56 25.0 ['16', '10'] 1250.0
57 25.0 ['16', '10'] 1250.0
58 25.0 ['16', '10'] 1250.0
59 25.0 ['16', '10'] 1250.0
60 25.0 ['16', '10'] 1250.0
61 25.0 ['16', '10'] 1250.0
62 25.0 ['16', '10'] 1250.0
63 25.0 ['16', '10'] 1250.0
64 25.0 ['16', '10'] 1250.0
65 25.0 ['16', '10'] 1250.0
66 25.0 ['16', '10'] 1250.0
67 25.0 ['16', '10'] 1250.0
68 25.0 ['16', '10'] 1250.0
69 25.0 ['16', '10'] 1250.0
70 25.0 ['16', '10'] 1250.0
71 25.0 ['16', '10'] 1250.0
72 25.0 ['16', '10'] 1250.0
73 25.0 ['16', '10'] 1250.0
74 25.0 ['16', '10'] 1250.0
75 25.0 ['16', '10'] 1250.0
76 25.0 ['16', '10'] 1250.0
77 25.0 ['16', '10'] 1250.0
78 25.0 ['16', '10'] 1250.0
79 25.0 ['16', '10'] 1250.0
80 25.0 ['16', '10'] 1250.0
81 25.0 ['16', '10'] 1250.0
82 25.0 ['16', '10'] 1250.0
83 25.0 ['16', '10'] 1250.0
84 25.0 ['16', '10'] 1250.0
85 25.0 ['16', '10'] 1250.0
86 25.0 ['16', '10'] 1250.0
87 25.0 ['16', '10'] 1250.0
88 25.0 ['16', '10'] 1250.0
89 25.0 ['16', '10'] 1250.0
90 25.0 ['16', '10'] 1250.0
91 25.0 ['16', '10'] 1250.0
92 25.0 ['16', '10'] 1250.0
93 25.0 ['16', '10'] 1250.0
94 25.0 ['16', '10'] 1250.0
95 25.0 ['16', '10'] 1250.0
96 25.0 ['16', '10'] 1250.0
97 25.0 ['16', '10'] 1250.0
98 25.0 ['16', '10'] 1250.0
99 25.0 ['16', '10'] 1250.0
100 25.0 ['16', '10'] 1250.0
101 25.0 ['16', '10'] 1250.0
102 25.0 ['16', '10'] 1250.0
103 25.0 ['16', '10'] 1250.0
104 25.0 ['16', '10'] 1250.0
105 25.0 ['16', '10'] 1250.0
106 25.0 ['16', '10'] 1250.0
107 25.0 ['16', '10'] 1250.0
108 25.0 ['16', '10'] 1250.0
109 25.0 ['16', '10'] 1250.0
110 25.0 ['16', '10'] 1250.0
111 25.0 ['16', '10'] 1250.0
112 25.0 ['16', '10'] 1250.0
113 25.0 ['16', '10'] 1250.0
114 25.0 ['16', '10'] 1250.0
115 25.0 ['16', '10'] 1250.0
116 25.0 ['16', '10'] 1250.0
117 25.0 ['16', '10'] 1250.0
118 25.0 ['16', '10'] 1250.0
119 25.0 ['16', '10'] 1250.0
120 25.0 ['16', '10'] 1250.0
121 25.0 ['16', '10'] 1250.0
122 25.0 ['16', '10'] 1250.0
123 25.0 ['16', '10'] 1250.0
124 25.0 ['16', '10'] 1250.0
125 25.0 ['16', '10'] 1250.0
126 25.0 ['16', '10'] 1250.0
127 25.0 ['16', '10'] 1250.0
128 25.0 ['16', '10'] 1250.0
129 25.0 ['16', '10'] 1250.0
130 25.0 ['16', '10'] 1250.0
131 25.0 ['16', '10'] 1250.0
132 25.0 ['16', '10'] 1250.0
133 25.0 ['16', '10'] 1250.0
134 25.0 ['16', '10'] 1250.0
135 25.0 ['16', '10'] 1250.0
136 25.0 ['16', '10'] 1250.0
137 25.0 ['16', '10'] 1250.0
138 25.0 ['16', '10'] 1250.0
139 25.0 ['16', '10'] 1250.0
140 25.0 ['16', '10'] 1250.0
141 25.0 ['16', '10'] 1250.0
142 25.0 ['16', '10'] 1250.0
143 25.0 ['16', '10'] 1250.0
144 25.0 ['16', '10'] 1250.0
145 25.0 ['16', '10'] 1250.0
146 25.0 ['16', '10'] 1250.0
147 25.0 ['16', '10'] 1250.0
148 25.0 ['16', '10'] 1250.0
149 25.0 ['16', '10'] 1250.0
150 25.0 ['16', '10'] 1250.0
151 25.0 ['16', '10'] 1250.0
152 25.0 ['16', '10'] 1250.0
153 25.0 ['16', '10'] 1250.0
154 25.0 ['16', '10'] 1250.0
155 25.0 ['16', '10'] 1250.0
156 25.0 ['16', '10'] 1250.0
157 25.0 ['16', '10'] 1250.0
158 25.0 ['16', '10'] 1250.0
159 25.0 ['16', '10'] 1250.0
160 25.0 ['16', '10'] 1250.0
161 25.0 ['16', '10'] 1250.0
162 25.0 ['16', '10'] 1250.0
163 25.0 ['16', '10'] 1250.0
164 25.0 ['16', '10'] 1250.0
165 25.0 ['16', '10'] 1250.0
166 25.0 ['16', '10'] 1250.0
167 25.0 ['16', '10'] 1250.0
168 25.0 ['16', '10'] 1250.0
169 25.0 ['16', '10'] 1250.0
170 25.0 ['16', '10'] 1250.0
171 25.0 ['16', '10'] 1250.0
172 25.0 ['16', '10'] 1250.0
173 25.0 ['16', '10'] 1250.0
174 25.0 ['16', '10'] 1250.0
175 25.0 ['16', '10'] 1250.0
176 25.0 ['16', '10'] 1250.0
177 25.0 ['16', '10'] 1250.0
178 25.0 ['16', '10'] 1250.0
179 25.0 ['16', '10'] 1250.0
180 25.0 ['16', '10'] 1250.0
181 25.0 ['16', '10'] 1250.0
182 25.0 ['16', '10'] 1250.0
183 25.0 ['16', '10'] 1250.0
184 25.0 ['16', '10'] 1250.0
185 25.0 ['16', '10'] 1250.0
186 25.0 ['16', '10'] 1250.0
187 25.0 ['16', '10'] 1250.0
188 25.0 ['16', '10'] 1250.0
189 25.0 ['16', '10'] 1250.0
190 25.0 ['16', '10'] 1250.0
191 25.0 ['16', '10'] 1250.0
192 25.0 ['16', '10'] 1250.0
193 25.0 ['16', '10'] 1250.0
194 25.0 ['16', '10'] 1250.0
195 25.0 ['16', '10'] 1250.0
196 25.0 ['16', '10'] 1250.0
197 25.0 ['16', '10'] 1250.0
198 25.0 ['16', '10'] 1250.0
199 25.0 ['16', '10'] 1250.0
