0 143.42105263157896 ['40', '53', '7', '54', '36', '58'] 7578.8596491228045
1 143.42105263157896 ['40', '53', '7', '54', '36', '58'] 7456.368421052633
2 143.42105263157896 ['40', '53', '7', '54', '36', '58'] 7374.877192982457
3 141.3684210526316 ['40', '16', '54', '59', '58', '21'] 7280.228070175439
4 140.82456140350877 ['58', '36', '53', '54', '59', '40'] 7209.491228070177
5 136.60344827586206 ['36', '40', '54', '58', '59'] 7129.831518451299
6 135.77586206896552 ['7', '40', '54', '17', '29'] 7066.727767695102
7 135.77586206896552 ['7', '40', '54', '17', '29'] 6999.25801572898
8 134.47457627118644 ['54', '40', '29', '7'] 6930.543321336658
9 131.72881355932202 ['40', '54', '17', '59'] 6847.244896285129
10 129.45 ['54', '59', '40'] 6740.86040327294
11 127.91803278688525 ['54', '40'] 6638.60520642707
12 127.91803278688525 ['54', '40'] 6513.043697323331
13 127.91803278688525 ['54', '40'] 6440.348087431691
14 127.91803278688525 ['54', '40'] 6395.901639344264
15 127.91803278688525 ['54', '40'] 6395.901639344264
16 127.91803278688525 ['54', '40'] 6395.901639344264
17 127.91803278688525 ['54', '40'] 6395.901639344264
18 127.91803278688525 ['54', '40'] 6395.901639344264
19 127.91803278688525 ['54', '40'] 6395.901639344264
20 127.91803278688525 ['54', '40'] 6395.901639344264
21 127.91803278688525 ['54', '40'] 6395.901639344264
22 127.91803278688525 ['54', '40'] 6395.901639344264
23 127.91803278688525 ['54', '40'] 6395.901639344264
24 127.91803278688525 ['54', '40'] 6395.901639344264
25 127.91803278688525 ['54', '40'] 6395.901639344264
26 127.91803278688525 ['54', '40'] 6395.901639344264
27 127.91803278688525 ['54', '40'] 6395.901639344264
28 127.91803278688525 ['54', '40'] 6395.901639344264
29 127.91803278688525 ['54', '40'] 6395.901639344264
30 127.91803278688525 ['54', '40'] 6395.901639344264
31 127.91803278688525 ['54', '40'] 6395.901639344264
32 127.91803278688525 ['54', '40'] 6395.901639344264
33 127.91803278688525 ['54', '40'] 6395.901639344264
34 127.91803278688525 ['54', '40'] 6395.901639344264
35 127.91803278688525 ['54', '40'] 6395.901639344264
36 127.91803278688525 ['54', '40'] 6395.901639344264
37 127.91803278688525 ['54', '40'] 6395.901639344264
38 127.91803278688525 ['54', '40'] 6395.901639344264
39 127.91803278688525 ['54', '40'] 6395.901639344264
40 127.91803278688525 ['54', '40'] 6395.901639344264
41 127.91803278688525 ['54', '40'] 6395.901639344264
42 127.91803278688525 ['54', '40'] 6395.901639344264
43 127.91803278688525 ['54', '40'] 6395.901639344264
44 127.91803278688525 ['54', '40'] 6395.901639344264
45 127.91803278688525 ['54', '40'] 6395.901639344264
46 127.91803278688525 ['54', '40'] 6395.901639344264
47 127.91803278688525 ['54', '40'] 6395.901639344264
48 127.91803278688525 ['54', '40'] 6395.901639344264
49 127.91803278688525 ['54', '40'] 6395.901639344264
50 127.91803278688525 ['54', '40'] 6395.901639344264
51 127.91803278688525 ['54', '40'] 6395.901639344264
52 127.91803278688525 ['54', '40'] 6395.901639344264
53 127.91803278688525 ['54', '40'] 6395.901639344264
54 127.91803278688525 ['54', '40'] 6395.901639344264
55 127.91803278688525 ['54', '40'] 6395.901639344264
56 127.91803278688525 ['54', '40'] 6395.901639344264
57 127.91803278688525 ['54', '40'] 6395.901639344264
58 127.91803278688525 ['54', '40'] 6395.901639344264
59 127.91803278688525 ['54', '40'] 6395.901639344264
60 127.91803278688525 ['54', '40'] 6395.901639344264
61 127.91803278688525 ['54', '40'] 6395.901639344264
62 127.91803278688525 ['54', '40'] 6395.901639344264
63 127.91803278688525 ['54', '40'] 6395.901639344264
64 127.91803278688525 ['54', '40'] 6395.901639344264
65 127.91803278688525 ['54', '40'] 6395.901639344264
66 127.91803278688525 ['54', '40'] 6395.901639344264
67 127.91803278688525 ['54', '40'] 6395.901639344264
68 127.91803278688525 ['54', '40'] 6395.901639344264
69 127.91803278688525 ['54', '40'] 6395.901639344264
70 127.91803278688525 ['54', '40'] 6395.901639344264
71 127.91803278688525 ['54', '40'] 6395.901639344264
72 127.91803278688525 ['54', '40'] 6395.901639344264
73 127.91803278688525 ['54', '40'] 6395.901639344264
74 127.91803278688525 ['54', '40'] 6395.901639344264
75 127.91803278688525 ['54', '40'] 6395.901639344264
76 127.91803278688525 ['54', '40'] 6395.901639344264
77 127.91803278688525 ['54', '40'] 6395.901639344264
78 127.91803278688525 ['54', '40'] 6395.901639344264
79 127.91803278688525 ['54', '40'] 6395.901639344264
80 127.91803278688525 ['54', '40'] 6395.901639344264
81 127.91803278688525 ['54', '40'] 6395.901639344264
82 127.91803278688525 ['54', '40'] 6395.901639344264
83 127.91803278688525 ['54', '40'] 6395.901639344264
84 127.91803278688525 ['54', '40'] 6395.901639344264
85 127.91803278688525 ['54', '40'] 6395.901639344264
86 127.91803278688525 ['54', '40'] 6395.901639344264
87 127.91803278688525 ['54', '40'] 6395.901639344264
88 127.91803278688525 ['54', '40'] 6395.901639344264
89 127.91803278688525 ['54', '40'] 6395.901639344264
90 127.91803278688525 ['54', '40'] 6395.901639344264
91 127.91803278688525 ['54', '40'] 6395.901639344264
92 127.91803278688525 ['54', '40'] 6395.901639344264
93 127.91803278688525 ['54', '40'] 6395.901639344264
94 127.91803278688525 ['54', '40'] 6395.901639344264
95 127.91803278688525 ['54', '40'] 6395.901639344264
96 127.91803278688525 ['54', '40'] 6395.901639344264
97 127.91803278688525 ['54', '40'] 6395.901639344264
98 127.91803278688525 ['54', '40'] 6395.901639344264
99 127.91803278688525 ['54', '40'] 6395.901639344264
100 127.91803278688525 ['54', '40'] 6395.901639344264
101 127.91803278688525 ['54', '40'] 6395.901639344264
102 127.91803278688525 ['54', '40'] 6395.901639344264
103 127.91803278688525 ['54', '40'] 6395.901639344264
104 127.91803278688525 ['54', '40'] 6395.901639344264
105 127.91803278688525 ['54', '40'] 6395.901639344264
106 127.91803278688525 ['54', '40'] 6395.901639344264
107 127.91803278688525 ['54', '40'] 6395.901639344264
108 127.91803278688525 ['54', '40'] 6395.901639344264
109 127.91803278688525 ['54', '40'] 6395.901639344264
110 127.91803278688525 ['54', '40'] 6395.901639344264
111 127.91803278688525 ['54', '40'] 6395.901639344264
112 127.91803278688525 ['54', '40'] 6395.901639344264
113 127.91803278688525 ['54', '40'] 6395.901639344264
114 127.91803278688525 ['54', '40'] 6395.901639344264
115 127.91803278688525 ['54', '40'] 6395.901639344264
116 127.91803278688525 ['54', '40'] 6395.901639344264
117 127.91803278688525 ['54', '40'] 6395.901639344264
118 127.91803278688525 ['54', '40'] 6395.901639344264
119 127.91803278688525 ['54', '40'] 6395.901639344264
120 127.91803278688525 ['54', '40'] 6395.901639344264
121 127.91803278688525 ['54', '40'] 6395.901639344264
122 127.91803278688525 ['54', '40'] 6395.901639344264
123 127.91803278688525 ['54', '40'] 6395.901639344264
124 127.91803278688525 ['54', '40'] 6395.901639344264
125 127.91803278688525 ['54', '40'] 6395.901639344264
126 127.91803278688525 ['54', '40'] 6395.901639344264
127 127.91803278688525 ['54', '40'] 6395.901639344264
128 127.91803278688525 ['54', '40'] 6395.901639344264
129 127.91803278688525 ['54', '40'] 6395.901639344264
130 127.91803278688525 ['54', '40'] 6395.901639344264
131 127.91803278688525 ['54', '40'] 6395.901639344264
132 127.91803278688525 ['54', '40'] 6395.901639344264
133 127.91803278688525 ['54', '40'] 6395.901639344264
134 127.91803278688525 ['54', '40'] 6395.901639344264
135 127.91803278688525 ['54', '40'] 6395.901639344264
136 127.91803278688525 ['54', '40'] 6395.901639344264
137 127.91803278688525 ['54', '40'] 6395.901639344264
138 127.91803278688525 ['54', '40'] 6395.901639344264
139 127.91803278688525 ['54', '40'] 6395.901639344264
140 127.91803278688525 ['54', '40'] 6395.901639344264
141 127.91803278688525 ['54', '40'] 6395.901639344264
142 127.91803278688525 ['54', '40'] 6395.901639344264
143 127.91803278688525 ['54', '40'] 6395.901639344264
144 127.91803278688525 ['54', '40'] 6395.901639344264
145 127.91803278688525 ['54', '40'] 6395.901639344264
146 127.91803278688525 ['54', '40'] 6395.901639344264
147 127.91803278688525 ['54', '40'] 6395.901639344264
148 127.91803278688525 ['54', '40'] 6395.901639344264
149 127.91803278688525 ['54', '40'] 6395.901639344264
150 127.91803278688525 ['54', '40'] 6395.901639344264
151 127.91803278688525 ['54', '40'] 6395.901639344264
152 127.91803278688525 ['54', '40'] 6395.901639344264
153 127.91803278688525 ['54', '40'] 6395.901639344264
154 127.91803278688525 ['54', '40'] 6395.901639344264
155 127.91803278688525 ['54', '40'] 6395.901639344264
156 127.91803278688525 ['54', '40'] 6395.901639344264
157 127.91803278688525 ['54', '40'] 6395.901639344264
158 127.91803278688525 ['54', '40'] 6395.901639344264
159 127.91803278688525 ['54', '40'] 6395.901639344264
160 127.91803278688525 ['54', '40'] 6395.901639344264
161 127.91803278688525 ['54', '40'] 6395.901639344264
162 127.91803278688525 ['54', '40'] 6395.901639344264
163 127.91803278688525 ['54', '40'] 6395.901639344264
164 127.91803278688525 ['54', '40'] 6395.901639344264
165 127.91803278688525 ['54', '40'] 6395.901639344264
166 127.91803278688525 ['54', '40'] 6395.901639344264
167 127.91803278688525 ['54', '40'] 6395.901639344264
168 127.91803278688525 ['54', '40'] 6395.901639344264
169 127.91803278688525 ['54', '40'] 6395.901639344264
170 127.91803278688525 ['54', '40'] 6395.901639344264
171 127.91803278688525 ['54', '40'] 6395.901639344264
172 127.91803278688525 ['54', '40'] 6395.901639344264
173 127.91803278688525 ['54', '40'] 6395.901639344264
174 127.91803278688525 ['54', '40'] 6395.901639344264
175 127.91803278688525 ['54', '40'] 6395.901639344264
176 127.91803278688525 ['54', '40'] 6395.901639344264
177 127.91803278688525 ['54', '40'] 6395.901639344264
178 127.91803278688525 ['54', '40'] 6395.901639344264
179 127.91803278688525 ['54', '40'] 6395.901639344264
180 127.91803278688525 ['54', '40'] 6395.901639344264
181 127.91803278688525 ['54', '40'] 6395.901639344264
182 127.91803278688525 ['54', '40'] 6395.901639344264
183 127.91803278688525 ['54', '40'] 6395.901639344264
184 127.91803278688525 ['54', '40'] 6395.901639344264
185 127.91803278688525 ['54', '40'] 6395.901639344264
186 127.91803278688525 ['54', '40'] 6395.901639344264
187 127.91803278688525 ['54', '40'] 6395.901639344264
188 127.91803278688525 ['54', '40'] 6395.901639344264
189 127.91803278688525 ['54', '40'] 6395.901639344264
190 127.91803278688525 ['54', '40'] 6395.901639344264
191 127.91803278688525 ['54', '40'] 6395.901639344264
192 127.91803278688525 ['54', '40'] 6395.901639344264
193 127.91803278688525 ['54', '40'] 6395.901639344264
194 127.91803278688525 ['54', '40'] 6395.901639344264
195 127.91803278688525 ['54', '40'] 6395.901639344264
196 127.91803278688525 ['54', '40'] 6395.901639344264
197 127.91803278688525 ['54', '40'] 6395.901639344264
198 127.91803278688525 ['54', '40'] 6395.901639344264
199 127.91803278688525 ['54', '40'] 6395.901639344264
