0 31.38 ['42', '34', '39', '24', '45'] 1649.42
1 31.38 ['42', '34', '39', '24', '45'] 1627.8399999999997
2 30.9 ['31', '44', '38', '19', '39'] 1605.4200000000008
3 30.74 ['31', '22', '38', '44', '39'] 1586.16
4 30.44 ['39', '31', '22', '42', '38'] 1569.22
5 30.0 ['31', '44', '38', '34', '39'] 1550.4599999999996
6 30.0 ['31', '44', '38', '34', '39'] 1534.9600000000005
7 29.72 ['31', '38', '34', '1', '39'] 1520.6999999999998
8 29.72 ['31', '38', '34', '1', '39'] 1507.3599999999994
9 29.72 ['31', '38', '34', '1', '39'] 1494.7199999999996
10 29.72 ['31', '38', '34', '1', '39'] 1488.699999999999
11 29.72 ['31', '38', '34', '1', '39'] 1488.639999999999
12 29.72 ['31', '38', '34', '1', '39'] 1488.1599999999992
13 29.72 ['31', '38', '34', '1', '39'] 1487.32
14 29.72 ['31', '38', '34', '1', '39'] 1486.0000000000011
15 29.72 ['31', '38', '34', '1', '39'] 1486.0000000000011
16 29.72 ['31', '38', '34', '1', '39'] 1486.0000000000011
17 29.72 ['31', '38', '34', '1', '39'] 1486.0000000000011
18 29.72 ['31', '38', '34', '1', '39'] 1486.0000000000011
19 29.72 ['31', '38', '34', '1', '39'] 1486.0000000000011
20 29.72 ['31', '38', '34', '1', '39'] 1486.0000000000011
21 29.72 ['31', '38', '34', '1', '39'] 1486.0000000000011
22 29.72 ['31', '38', '34', '1', '39'] 1486.0000000000011
23 29.72 ['31', '38', '34', '1', '39'] 1486.0000000000011
24 29.72 ['31', '38', '34', '1', '39'] 1486.0000000000011
25 29.72 ['31', '38', '34', '1', '39'] 1486.0000000000011
26 29.72 ['31', '38', '34', '1', '39'] 1486.0000000000011
27 29.72 ['31', '38', '34', '1', '39'] 1486.0000000000011
28 29.72 ['31', '38', '34', '1', '39'] 1486.0000000000011
29 29.72 ['31', '38', '34', '1', '39'] 1486.0000000000011
30 29.72 ['31', '38', '34', '1', '39'] 1486.0000000000011
31 29.72 ['31', '38', '34', '1', '39'] 1486.0000000000011
32 29.72 ['31', '38', '34', '1', '39'] 1486.0000000000011
33 29.72 ['31', '38', '34', '1', '39'] 1486.0000000000011
34 29.72 ['31', '38', '34', '1', '39'] 1486.0000000000011
35 29.72 ['31', '38', '34', '1', '39'] 1486.0000000000011
36 29.72 ['31', '38', '34', '1', '39'] 1486.0000000000011
37 29.72 ['31', '38', '34', '1', '39'] 1486.0000000000011
38 29.72 ['31', '38', '34', '1', '39'] 1486.0000000000011
39 29.72 ['31', '38', '34', '1', '39'] 1486.0000000000011
40 29.72 ['31', '38', '34', '1', '39'] 1486.0000000000011
41 29.72 ['31', '38', '34', '1', '39'] 1486.0000000000011
42 29.72 ['31', '38', '34', '1', '39'] 1486.0000000000011
43 29.72 ['31', '38', '34', '1', '39'] 1486.0000000000011
44 29.72 ['31', '38', '34', '1', '39'] 1486.0000000000011
45 29.72 ['31', '38', '34', '1', '39'] 1486.0000000000011
46 29.72 ['31', '38', '34', '1', '39'] 1486.0000000000011
47 29.72 ['31', '38', '34', '1', '39'] 1486.0000000000011
48 29.72 ['31', '38', '34', '1', '39'] 1486.0000000000011
49 29.72 ['31', '38', '34', '1', '39'] 1486.0000000000011
50 29.72 ['31', '38', '34', '1', '39'] 1486.0000000000011
51 29.72 ['31', '38', '34', '1', '39'] 1486.0000000000011
52 29.72 ['31', '38', '34', '1', '39'] 1486.0000000000011
53 29.72 ['31', '38', '34', '1', '39'] 1486.0000000000011
54 29.72 ['31', '38', '34', '1', '39'] 1486.0000000000011
55 29.72 ['31', '38', '34', '1', '39'] 1486.0000000000011
56 29.72 ['31', '38', '34', '1', '39'] 1486.0000000000011
57 29.72 ['31', '38', '34', '1', '39'] 1486.0000000000011
58 29.72 ['31', '38', '34', '1', '39'] 1486.0000000000011
59 29.72 ['31', '38', '34', '1', '39'] 1486.0000000000011
60 29.72 ['31', '38', '34', '1', '39'] 1486.0000000000011
61 29.72 ['31', '38', '34', '1', '39'] 1486.0000000000011
62 29.72 ['31', '38', '34', '1', '39'] 1486.0000000000011
63 29.72 ['31', '38', '34', '1', '39'] 1486.0000000000011
64 29.72 ['31', '38', '34', '1', '39'] 1486.0000000000011
65 29.72 ['31', '38', '34', '1', '39'] 1486.0000000000011
66 29.72 ['31', '38', '34', '1', '39'] 1486.0000000000011
67 29.72 ['31', '38', '34', '1', '39'] 1486.0000000000011
68 29.72 ['31', '38', '34', '1', '39'] 1486.0000000000011
69 29.72 ['31', '38', '34', '1', '39'] 1486.0000000000011
70 29.72 ['31', '38', '34', '1', '39'] 1486.0000000000011
71 29.72 ['31', '38', '34', '1', '39'] 1486.0000000000011
72 29.72 ['31', '38', '34', '1', '39'] 1486.0000000000011
73 29.72 ['31', '38', '34', '1', '39'] 1486.0000000000011
74 29.72 ['31', '38', '34', '1', '39'] 1486.0000000000011
75 29.72 ['31', '38', '34', '1', '39'] 1486.0000000000011
76 29.72 ['31', '38', '34', '1', '39'] 1486.0000000000011
77 29.72 ['31', '38', '34', '1', '39'] 1486.0000000000011
78 29.72 ['31', '38', '34', '1', '39'] 1486.0000000000011
79 29.72 ['31', '38', '34', '1', '39'] 1486.0000000000011
80 29.72 ['31', '38', '34', '1', '39'] 1486.0000000000011
81 29.72 ['31', '38', '34', '1', '39'] 1486.0000000000011
82 29.72 ['31', '38', '34', '1', '39'] 1486.0000000000011
83 29.72 ['31', '38', '34', '1', '39'] 1486.0000000000011
84 29.72 ['31', '38', '34', '1', '39'] 1486.0000000000011
85 29.72 ['31', '38', '34', '1', '39'] 1486.0000000000011
86 29.72 ['31', '38', '34', '1', '39'] 1486.0000000000011
87 29.72 ['31', '38', '34', '1', '39'] 1486.0000000000011
88 29.72 ['31', '38', '34', '1', '39'] 1486.0000000000011
89 29.72 ['31', '38', '34', '1', '39'] 1486.0000000000011
90 29.72 ['31', '38', '34', '1', '39'] 1486.0000000000011
91 29.72 ['31', '38', '34', '1', '39'] 1486.0000000000011
92 29.72 ['31', '38', '34', '1', '39'] 1486.0000000000011
93 29.72 ['31', '38', '34', '1', '39'] 1486.0000000000011
94 29.72 ['31', '38', '34', '1', '39'] 1486.0000000000011
95 29.72 ['31', '38', '34', '1', '39'] 1486.0000000000011
96 29.72 ['31', '38', '34', '1', '39'] 1486.0000000000011
97 29.72 ['31', '38', '34', '1', '39'] 1486.0000000000011
98 29.72 ['31', '38', '34', '1', '39'] 1486.0000000000011
99 29.72 ['31', '38', '34', '1', '39'] 1486.0000000000011
100 29.72 ['31', '38', '34', '1', '39'] 1486.0000000000011
101 29.72 ['31', '38', '34', '1', '39'] 1486.0000000000011
102 29.72 ['31', '38', '34', '1', '39'] 1486.0000000000011
103 29.72 ['31', '38', '34', '1', '39'] 1486.0000000000011
104 29.72 ['31', '38', '34', '1', '39'] 1486.0000000000011
105 29.72 ['31', '38', '34', '1', '39'] 1486.0000000000011
106 29.72 ['31', '38', '34', '1', '39'] 1486.0000000000011
107 29.72 ['31', '38', '34', '1', '39'] 1486.0000000000011
108 29.72 ['31', '38', '34', '1', '39'] 1486.0000000000011
109 29.72 ['31', '38', '34', '1', '39'] 1486.0000000000011
110 29.72 ['31', '38', '34', '1', '39'] 1486.0000000000011
111 29.72 ['31', '38', '34', '1', '39'] 1486.0000000000011
112 29.72 ['31', '38', '34', '1', '39'] 1486.0000000000011
113 29.72 ['31', '38', '34', '1', '39'] 1486.0000000000011
114 29.72 ['31', '38', '34', '1', '39'] 1486.0000000000011
115 29.72 ['31', '38', '34', '1', '39'] 1486.0000000000011
116 29.72 ['31', '38', '34', '1', '39'] 1486.0000000000011
117 29.72 ['31', '38', '34', '1', '39'] 1486.0000000000011
118 29.72 ['31', '38', '34', '1', '39'] 1486.0000000000011
119 29.72 ['31', '38', '34', '1', '39'] 1486.0000000000011
120 29.72 ['31', '38', '34', '1', '39'] 1486.0000000000011
121 29.72 ['31', '38', '34', '1', '39'] 1486.0000000000011
122 29.72 ['31', '38', '34', '1', '39'] 1486.0000000000011
123 29.72 ['31', '38', '34', '1', '39'] 1486.0000000000011
124 29.72 ['31', '38', '34', '1', '39'] 1486.0000000000011
125 29.72 ['31', '38', '34', '1', '39'] 1486.0000000000011
126 29.72 ['31', '38', '34', '1', '39'] 1486.0000000000011
127 29.72 ['31', '38', '34', '1', '39'] 1486.0000000000011
128 29.72 ['31', '38', '34', '1', '39'] 1486.0000000000011
129 29.72 ['31', '38', '34', '1', '39'] 1486.0000000000011
130 29.72 ['31', '38', '34', '1', '39'] 1486.0000000000011
131 29.72 ['31', '38', '34', '1', '39'] 1486.0000000000011
132 29.72 ['31', '38', '34', '1', '39'] 1486.0000000000011
133 29.72 ['31', '38', '34', '1', '39'] 1486.0000000000011
134 29.72 ['31', '38', '34', '1', '39'] 1486.0000000000011
135 29.72 ['31', '38', '34', '1', '39'] 1486.0000000000011
136 29.72 ['31', '38', '34', '1', '39'] 1486.0000000000011
137 29.72 ['31', '38', '34', '1', '39'] 1486.0000000000011
138 29.72 ['31', '38', '34', '1', '39'] 1486.0000000000011
139 29.72 ['31', '38', '34', '1', '39'] 1486.0000000000011
140 29.72 ['31', '38', '34', '1', '39'] 1486.0000000000011
141 29.72 ['31', '38', '34', '1', '39'] 1486.0000000000011
142 29.72 ['31', '38', '34', '1', '39'] 1486.0000000000011
143 29.72 ['31', '38', '34', '1', '39'] 1486.0000000000011
144 29.72 ['31', '38', '34', '1', '39'] 1486.0000000000011
145 29.72 ['31', '38', '34', '1', '39'] 1486.0000000000011
146 29.72 ['31', '38', '34', '1', '39'] 1486.0000000000011
147 29.72 ['31', '38', '34', '1', '39'] 1486.0000000000011
148 29.72 ['31', '38', '34', '1', '39'] 1486.0000000000011
149 29.72 ['31', '38', '34', '1', '39'] 1486.0000000000011
150 29.72 ['31', '38', '34', '1', '39'] 1486.0000000000011
151 29.72 ['31', '38', '34', '1', '39'] 1486.0000000000011
152 29.72 ['31', '38', '34', '1', '39'] 1486.0000000000011
153 29.72 ['31', '38', '34', '1', '39'] 1486.0000000000011
154 29.72 ['31', '38', '34', '1', '39'] 1486.0000000000011
155 29.72 ['31', '38', '34', '1', '39'] 1486.0000000000011
156 29.72 ['31', '38', '34', '1', '39'] 1486.0000000000011
157 29.72 ['31', '38', '34', '1', '39'] 1486.0000000000011
158 29.72 ['31', '38', '34', '1', '39'] 1486.0000000000011
159 29.72 ['31', '38', '34', '1', '39'] 1486.0000000000011
160 29.72 ['31', '38', '34', '1', '39'] 1486.0000000000011
161 29.72 ['31', '38', '34', '1', '39'] 1486.0000000000011
162 29.72 ['31', '38', '34', '1', '39'] 1486.0000000000011
163 29.72 ['31', '38', '34', '1', '39'] 1486.0000000000011
164 29.72 ['31', '38', '34', '1', '39'] 1486.0000000000011
165 29.72 ['31', '38', '34', '1', '39'] 1486.0000000000011
166 29.72 ['31', '38', '34', '1', '39'] 1486.0000000000011
167 29.72 ['31', '38', '34', '1', '39'] 1486.0000000000011
168 29.72 ['31', '38', '34', '1', '39'] 1486.0000000000011
169 29.72 ['31', '38', '34', '1', '39'] 1486.0000000000011
170 29.72 ['31', '38', '34', '1', '39'] 1486.0000000000011
171 29.72 ['31', '38', '34', '1', '39'] 1486.0000000000011
172 29.72 ['31', '38', '34', '1', '39'] 1486.0000000000011
173 29.72 ['31', '38', '34', '1', '39'] 1486.0000000000011
174 29.72 ['31', '38', '34', '1', '39'] 1486.0000000000011
175 29.72 ['31', '38', '34', '1', '39'] 1486.0000000000011
176 29.72 ['31', '38', '34', '1', '39'] 1486.0000000000011
177 29.72 ['31', '38', '34', '1', '39'] 1486.0000000000011
178 29.72 ['31', '38', '34', '1', '39'] 1486.0000000000011
179 29.72 ['31', '38', '34', '1', '39'] 1486.0000000000011
180 29.72 ['31', '38', '34', '1', '39'] 1486.0000000000011
181 29.72 ['31', '38', '34', '1', '39'] 1486.0000000000011
182 29.72 ['31', '38', '34', '1', '39'] 1486.0000000000011
183 29.72 ['31', '38', '34', '1', '39'] 1486.0000000000011
184 29.72 ['31', '38', '34', '1', '39'] 1486.0000000000011
185 29.72 ['31', '38', '34', '1', '39'] 1486.0000000000011
186 29.72 ['31', '38', '34', '1', '39'] 1486.0000000000011
187 29.72 ['31', '38', '34', '1', '39'] 1486.0000000000011
188 29.72 ['31', '38', '34', '1', '39'] 1486.0000000000011
189 29.72 ['31', '38', '34', '1', '39'] 1486.0000000000011
190 29.72 ['31', '38', '34', '1', '39'] 1486.0000000000011
191 29.72 ['31', '38', '34', '1', '39'] 1486.0000000000011
192 29.72 ['31', '38', '34', '1', '39'] 1486.0000000000011
193 29.72 ['31', '38', '34', '1', '39'] 1486.0000000000011
194 29.72 ['31', '38', '34', '1', '39'] 1486.0000000000011
195 29.72 ['31', '38', '34', '1', '39'] 1486.0000000000011
196 29.72 ['31', '38', '34', '1', '39'] 1486.0000000000011
197 29.72 ['31', '38', '34', '1', '39'] 1486.0000000000011
198 29.72 ['31', '38', '34', '1', '39'] 1486.0000000000011
199 29.72 ['31', '38', '34', '1', '39'] 1486.0000000000011
