0 7.136363636363637 ['8', '17'] 374.3636363636361
1 7.136363636363637 ['8', '17'] 367.18181818181824
2 7.136363636363637 ['8', '17'] 361.4545454545453
3 7.136363636363637 ['8', '17'] 359.04545454545496
4 7.136363636363637 ['8', '17'] 357.49999999999994
5 7.136363636363637 ['8', '17'] 356.81818181818153
6 7.136363636363637 ['8', '17'] 356.81818181818153
7 7.136363636363637 ['8', '17'] 356.81818181818153
8 7.136363636363637 ['8', '17'] 356.81818181818153
9 7.136363636363637 ['8', '17'] 356.81818181818153
10 7.136363636363637 ['8', '17'] 356.81818181818153
11 7.136363636363637 ['8', '17'] 356.81818181818153
12 7.136363636363637 ['8', '17'] 356.81818181818153
13 7.136363636363637 ['8', '17'] 356.81818181818153
14 7.136363636363637 ['8', '17'] 356.81818181818153
15 7.136363636363637 ['8', '17'] 356.81818181818153
16 7.136363636363637 ['8', '17'] 356.81818181818153
17 7.136363636363637 ['8', '17'] 356.81818181818153
18 7.136363636363637 ['8', '17'] 356.81818181818153
19 7.136363636363637 ['8', '17'] 356.81818181818153
20 7.136363636363637 ['8', '17'] 356.81818181818153
21 7.136363636363637 ['8', '17'] 356.81818181818153
22 7.136363636363637 ['8', '17'] 356.81818181818153
23 7.136363636363637 ['8', '17'] 356.81818181818153
24 7.136363636363637 ['8', '17'] 356.81818181818153
25 7.136363636363637 ['8', '17'] 356.81818181818153
26 7.136363636363637 ['8', '17'] 356.81818181818153
27 7.136363636363637 ['8', '17'] 356.81818181818153
28 7.136363636363637 ['8', '17'] 356.81818181818153
29 7.136363636363637 ['8', '17'] 356.81818181818153
30 7.136363636363637 ['8', '17'] 356.81818181818153
31 7.136363636363637 ['8', '17'] 356.81818181818153
32 7.136363636363637 ['8', '17'] 356.81818181818153
33 7.136363636363637 ['8', '17'] 356.81818181818153
34 7.136363636363637 ['8', '17'] 356.81818181818153
35 7.136363636363637 ['8', '17'] 356.81818181818153
36 7.136363636363637 ['8', '17'] 356.81818181818153
37 7.136363636363637 ['8', '17'] 356.81818181818153
38 7.136363636363637 ['8', '17'] 356.81818181818153
39 7.136363636363637 ['8', '17'] 356.81818181818153
40 7.136363636363637 ['8', '17'] 356.81818181818153
41 7.136363636363637 ['8', '17'] 356.81818181818153
42 7.136363636363637 ['8', '17'] 356.81818181818153
43 7.136363636363637 ['8', '17'] 356.81818181818153
44 7.136363636363637 ['8', '17'] 356.81818181818153
45 7.136363636363637 ['8', '17'] 356.81818181818153
46 7.136363636363637 ['8', '17'] 356.81818181818153
47 7.136363636363637 ['8', '17'] 356.81818181818153
48 7.136363636363637 ['8', '17'] 356.81818181818153
49 7.136363636363637 ['8', '17'] 356.81818181818153
50 7.136363636363637 ['8', '17'] 356.81818181818153
51 7.136363636363637 ['8', '17'] 356.81818181818153
52 7.136363636363637 ['8', '17'] 356.81818181818153
53 7.136363636363637 ['8', '17'] 356.81818181818153
54 7.136363636363637 ['8', '17'] 356.81818181818153
55 7.136363636363637 ['8', '17'] 356.81818181818153
56 7.136363636363637 ['8', '17'] 356.81818181818153
57 7.136363636363637 ['8', '17'] 356.81818181818153
58 7.136363636363637 ['8', '17'] 356.81818181818153
59 7.136363636363637 ['8', '17'] 356.81818181818153
60 7.136363636363637 ['8', '17'] 356.81818181818153
61 7.136363636363637 ['8', '17'] 356.81818181818153
62 7.136363636363637 ['8', '17'] 356.81818181818153
63 7.136363636363637 ['8', '17'] 356.81818181818153
64 7.136363636363637 ['8', '17'] 356.81818181818153
65 7.136363636363637 ['8', '17'] 356.81818181818153
66 7.136363636363637 ['8', '17'] 356.81818181818153
67 7.136363636363637 ['8', '17'] 356.81818181818153
68 7.136363636363637 ['8', '17'] 356.81818181818153
69 7.136363636363637 ['8', '17'] 356.81818181818153
70 7.136363636363637 ['8', '17'] 356.81818181818153
71 7.136363636363637 ['8', '17'] 356.81818181818153
72 7.136363636363637 ['8', '17'] 356.81818181818153
73 7.136363636363637 ['8', '17'] 356.81818181818153
74 7.136363636363637 ['8', '17'] 356.81818181818153
75 7.136363636363637 ['8', '17'] 356.81818181818153
76 7.136363636363637 ['8', '17'] 356.81818181818153
77 7.136363636363637 ['8', '17'] 356.81818181818153
78 7.136363636363637 ['8', '17'] 356.81818181818153
79 7.136363636363637 ['8', '17'] 356.81818181818153
80 7.136363636363637 ['8', '17'] 356.81818181818153
81 7.136363636363637 ['8', '17'] 356.81818181818153
82 7.136363636363637 ['8', '17'] 356.81818181818153
83 7.136363636363637 ['8', '17'] 356.81818181818153
84 7.136363636363637 ['8', '17'] 356.81818181818153
85 7.136363636363637 ['8', '17'] 356.81818181818153
86 7.136363636363637 ['8', '17'] 356.81818181818153
87 7.136363636363637 ['8', '17'] 356.81818181818153
88 7.136363636363637 ['8', '17'] 356.81818181818153
89 7.136363636363637 ['8', '17'] 356.81818181818153
90 7.136363636363637 ['8', '17'] 356.81818181818153
91 7.136363636363637 ['8', '17'] 356.81818181818153
92 7.136363636363637 ['8', '17'] 356.81818181818153
93 7.136363636363637 ['8', '17'] 356.81818181818153
94 7.136363636363637 ['8', '17'] 356.81818181818153
95 7.136363636363637 ['8', '17'] 356.81818181818153
96 7.136363636363637 ['8', '17'] 356.81818181818153
97 7.136363636363637 ['8', '17'] 356.81818181818153
98 7.136363636363637 ['8', '17'] 356.81818181818153
99 7.136363636363637 ['8', '17'] 356.81818181818153
100 7.136363636363637 ['8', '17'] 356.81818181818153
101 7.136363636363637 ['8', '17'] 356.81818181818153
102 7.136363636363637 ['8', '17'] 356.81818181818153
103 7.136363636363637 ['8', '17'] 356.81818181818153
104 7.136363636363637 ['8', '17'] 356.81818181818153
105 7.136363636363637 ['8', '17'] 356.81818181818153
106 7.136363636363637 ['8', '17'] 356.81818181818153
107 7.136363636363637 ['8', '17'] 356.81818181818153
108 7.136363636363637 ['8', '17'] 356.81818181818153
109 7.136363636363637 ['8', '17'] 356.81818181818153
110 7.136363636363637 ['8', '17'] 356.81818181818153
111 7.136363636363637 ['8', '17'] 356.81818181818153
112 7.136363636363637 ['8', '17'] 356.81818181818153
113 7.136363636363637 ['8', '17'] 356.81818181818153
114 7.136363636363637 ['8', '17'] 356.81818181818153
115 7.136363636363637 ['8', '17'] 356.81818181818153
116 7.136363636363637 ['8', '17'] 356.81818181818153
117 7.136363636363637 ['8', '17'] 356.81818181818153
118 7.136363636363637 ['8', '17'] 356.81818181818153
119 7.136363636363637 ['8', '17'] 356.81818181818153
120 7.136363636363637 ['8', '17'] 356.81818181818153
121 7.136363636363637 ['8', '17'] 356.81818181818153
122 7.136363636363637 ['8', '17'] 356.81818181818153
123 7.136363636363637 ['8', '17'] 356.81818181818153
124 7.136363636363637 ['8', '17'] 356.81818181818153
125 7.136363636363637 ['8', '17'] 356.81818181818153
126 7.136363636363637 ['8', '17'] 356.81818181818153
127 7.136363636363637 ['8', '17'] 356.81818181818153
128 7.136363636363637 ['8', '17'] 356.81818181818153
129 7.136363636363637 ['8', '17'] 356.81818181818153
130 7.136363636363637 ['8', '17'] 356.81818181818153
131 7.136363636363637 ['8', '17'] 356.81818181818153
132 7.136363636363637 ['8', '17'] 356.81818181818153
133 7.136363636363637 ['8', '17'] 356.81818181818153
134 7.136363636363637 ['8', '17'] 356.81818181818153
135 7.136363636363637 ['8', '17'] 356.81818181818153
136 7.136363636363637 ['8', '17'] 356.81818181818153
137 7.136363636363637 ['8', '17'] 356.81818181818153
138 7.136363636363637 ['8', '17'] 356.81818181818153
139 7.136363636363637 ['8', '17'] 356.81818181818153
140 7.136363636363637 ['8', '17'] 356.81818181818153
141 7.136363636363637 ['8', '17'] 356.81818181818153
142 7.136363636363637 ['8', '17'] 356.81818181818153
143 7.136363636363637 ['8', '17'] 356.81818181818153
144 7.136363636363637 ['8', '17'] 356.81818181818153
145 7.136363636363637 ['8', '17'] 356.81818181818153
146 7.136363636363637 ['8', '17'] 356.81818181818153
147 7.136363636363637 ['8', '17'] 356.81818181818153
148 7.136363636363637 ['8', '17'] 356.81818181818153
149 7.136363636363637 ['8', '17'] 356.81818181818153
150 7.136363636363637 ['8', '17'] 356.81818181818153
151 7.136363636363637 ['8', '17'] 356.81818181818153
152 7.136363636363637 ['8', '17'] 356.81818181818153
153 7.136363636363637 ['8', '17'] 356.81818181818153
154 7.136363636363637 ['8', '17'] 356.81818181818153
155 7.136363636363637 ['8', '17'] 356.81818181818153
156 7.136363636363637 ['8', '17'] 356.81818181818153
157 7.136363636363637 ['8', '17'] 356.81818181818153
158 7.136363636363637 ['8', '17'] 356.81818181818153
159 7.136363636363637 ['8', '17'] 356.81818181818153
160 7.136363636363637 ['8', '17'] 356.81818181818153
161 7.136363636363637 ['8', '17'] 356.81818181818153
162 7.136363636363637 ['8', '17'] 356.81818181818153
163 7.136363636363637 ['8', '17'] 356.81818181818153
164 7.136363636363637 ['8', '17'] 356.81818181818153
165 7.136363636363637 ['8', '17'] 356.81818181818153
166 7.136363636363637 ['8', '17'] 356.81818181818153
167 7.136363636363637 ['8', '17'] 356.81818181818153
168 7.136363636363637 ['8', '17'] 356.81818181818153
169 7.136363636363637 ['8', '17'] 356.81818181818153
170 7.136363636363637 ['8', '17'] 356.81818181818153
171 7.136363636363637 ['8', '17'] 356.81818181818153
172 7.136363636363637 ['8', '17'] 356.81818181818153
173 7.136363636363637 ['8', '17'] 356.81818181818153
174 7.136363636363637 ['8', '17'] 356.81818181818153
175 7.136363636363637 ['8', '17'] 356.81818181818153
176 7.136363636363637 ['8', '17'] 356.81818181818153
177 7.136363636363637 ['8', '17'] 356.81818181818153
178 7.136363636363637 ['8', '17'] 356.81818181818153
179 7.136363636363637 ['8', '17'] 356.81818181818153
180 7.136363636363637 ['8', '17'] 356.81818181818153
181 7.136363636363637 ['8', '17'] 356.81818181818153
182 7.136363636363637 ['8', '17'] 356.81818181818153
183 7.136363636363637 ['8', '17'] 356.81818181818153
184 7.136363636363637 ['8', '17'] 356.81818181818153
185 7.136363636363637 ['8', '17'] 356.81818181818153
186 7.136363636363637 ['8', '17'] 356.81818181818153
187 7.136363636363637 ['8', '17'] 356.81818181818153
188 7.136363636363637 ['8', '17'] 356.81818181818153
189 7.136363636363637 ['8', '17'] 356.81818181818153
190 7.136363636363637 ['8', '17'] 356.81818181818153
191 7.136363636363637 ['8', '17'] 356.81818181818153
192 7.136363636363637 ['8', '17'] 356.81818181818153
193 7.136363636363637 ['8', '17'] 356.81818181818153
194 7.136363636363637 ['8', '17'] 356.81818181818153
195 7.136363636363637 ['8', '17'] 356.81818181818153
196 7.136363636363637 ['8', '17'] 356.81818181818153
197 7.136363636363637 ['8', '17'] 356.81818181818153
198 7.136363636363637 ['8', '17'] 356.81818181818153
199 7.136363636363637 ['8', '17'] 356.81818181818153
