0 28.88888888888889 ['59', '55', '54', '24', '7', '14'] 1505.6481481481476
1 27.72222222222222 ['7', '14', '55', '59', '39', '8'] 1480.351851851852
2 27.72222222222222 ['7', '14', '55', '59', '39', '8'] 1460.7222222222217
3 27.055555555555557 ['14', '55', '7', '12', '8', '39'] 1434.611111111111
4 27.055555555555557 ['14', '55', '7', '12', '8', '39'] 1406.9074074074076
5 26.61111111111111 ['7', '14', '12', '55', '8', '29'] 1385.9074074074072
6 26.59259259259259 ['7', '8', '14', '29', '4', '55'] 1366.6296296296298
7 26.59259259259259 ['7', '8', '14', '29', '4', '55'] 1354.5804713804707
8 26.59259259259259 ['7', '8', '14', '29', '4', '55'] 1345.1666666666674
9 26.574074074074073 ['29', '8', '55', '7', '6', '4'] 1333.888888888888
10 26.51851851851852 ['55', '8', '7', '29', '4', '12'] 1330.6666666666667
11 26.51851851851852 ['55', '8', '7', '29', '4', '12'] 1329.5555555555559
12 26.51851851851852 ['55', '8', '7', '29', '4', '12'] 1329.2592592592598
13 26.51851851851852 ['55', '8', '7', '29', '4', '12'] 1328.8148148148152
14 26.51851851851852 ['55', '8', '7', '29', '4', '12'] 1328.1481481481476
15 26.51851851851852 ['55', '8', '7', '29', '4', '12'] 1327.037037037037
16 26.51851851851852 ['55', '8', '7', '29', '4', '12'] 1325.925925925925
17 26.51851851851852 ['55', '8', '7', '29', '4', '12'] 1325.925925925925
18 26.51851851851852 ['55', '8', '7', '29', '4', '12'] 1325.925925925925
19 26.51851851851852 ['55', '8', '7', '29', '4', '12'] 1325.925925925925
20 26.51851851851852 ['55', '8', '7', '29', '4', '12'] 1325.925925925925
21 26.51851851851852 ['55', '8', '7', '29', '4', '12'] 1325.925925925925
22 26.51851851851852 ['55', '8', '7', '29', '4', '12'] 1325.925925925925
23 26.51851851851852 ['55', '8', '7', '29', '4', '12'] 1325.925925925925
24 26.51851851851852 ['55', '8', '7', '29', '4', '12'] 1325.925925925925
25 26.51851851851852 ['55', '8', '7', '29', '4', '12'] 1325.925925925925
26 26.51851851851852 ['55', '8', '7', '29', '4', '12'] 1325.925925925925
27 26.51851851851852 ['55', '8', '7', '29', '4', '12'] 1325.925925925925
28 26.51851851851852 ['55', '8', '7', '29', '4', '12'] 1325.925925925925
29 26.51851851851852 ['55', '8', '7', '29', '4', '12'] 1325.925925925925
30 26.51851851851852 ['55', '8', '7', '29', '4', '12'] 1325.925925925925
31 26.51851851851852 ['55', '8', '7', '29', '4', '12'] 1325.925925925925
32 26.51851851851852 ['55', '8', '7', '29', '4', '12'] 1325.925925925925
33 26.51851851851852 ['55', '8', '7', '29', '4', '12'] 1325.925925925925
34 26.51851851851852 ['55', '8', '7', '29', '4', '12'] 1325.925925925925
35 26.51851851851852 ['55', '8', '7', '29', '4', '12'] 1325.925925925925
36 26.51851851851852 ['55', '8', '7', '29', '4', '12'] 1325.925925925925
37 26.51851851851852 ['55', '8', '7', '29', '4', '12'] 1325.925925925925
38 26.51851851851852 ['55', '8', '7', '29', '4', '12'] 1325.925925925925
39 26.51851851851852 ['55', '8', '7', '29', '4', '12'] 1325.925925925925
40 26.51851851851852 ['55', '8', '7', '29', '4', '12'] 1325.925925925925
41 26.51851851851852 ['55', '8', '7', '29', '4', '12'] 1325.925925925925
42 26.51851851851852 ['55', '8', '7', '29', '4', '12'] 1325.925925925925
43 26.51851851851852 ['55', '8', '7', '29', '4', '12'] 1325.925925925925
44 26.51851851851852 ['55', '8', '7', '29', '4', '12'] 1325.925925925925
45 26.51851851851852 ['55', '8', '7', '29', '4', '12'] 1325.925925925925
46 26.51851851851852 ['55', '8', '7', '29', '4', '12'] 1325.925925925925
47 26.51851851851852 ['55', '8', '7', '29', '4', '12'] 1325.925925925925
48 26.51851851851852 ['55', '8', '7', '29', '4', '12'] 1325.925925925925
49 26.51851851851852 ['55', '8', '7', '29', '4', '12'] 1325.925925925925
50 26.51851851851852 ['55', '8', '7', '29', '4', '12'] 1325.925925925925
51 26.51851851851852 ['55', '8', '7', '29', '4', '12'] 1325.925925925925
52 26.51851851851852 ['55', '8', '7', '29', '4', '12'] 1325.925925925925
53 26.51851851851852 ['55', '8', '7', '29', '4', '12'] 1325.925925925925
54 26.51851851851852 ['55', '8', '7', '29', '4', '12'] 1325.925925925925
55 26.51851851851852 ['55', '8', '7', '29', '4', '12'] 1325.925925925925
56 26.51851851851852 ['55', '8', '7', '29', '4', '12'] 1325.925925925925
57 26.51851851851852 ['55', '8', '7', '29', '4', '12'] 1325.925925925925
58 26.51851851851852 ['55', '8', '7', '29', '4', '12'] 1325.925925925925
59 26.51851851851852 ['55', '8', '7', '29', '4', '12'] 1325.925925925925
60 26.51851851851852 ['55', '8', '7', '29', '4', '12'] 1325.925925925925
61 26.51851851851852 ['55', '8', '7', '29', '4', '12'] 1325.925925925925
62 26.51851851851852 ['55', '8', '7', '29', '4', '12'] 1325.925925925925
63 26.51851851851852 ['55', '8', '7', '29', '4', '12'] 1325.925925925925
64 26.51851851851852 ['55', '8', '7', '29', '4', '12'] 1325.925925925925
65 26.51851851851852 ['55', '8', '7', '29', '4', '12'] 1325.925925925925
66 26.51851851851852 ['55', '8', '7', '29', '4', '12'] 1325.925925925925
67 26.51851851851852 ['55', '8', '7', '29', '4', '12'] 1325.925925925925
68 26.51851851851852 ['55', '8', '7', '29', '4', '12'] 1325.925925925925
69 26.51851851851852 ['55', '8', '7', '29', '4', '12'] 1325.925925925925
70 26.51851851851852 ['55', '8', '7', '29', '4', '12'] 1325.925925925925
71 26.51851851851852 ['55', '8', '7', '29', '4', '12'] 1325.925925925925
72 26.51851851851852 ['55', '8', '7', '29', '4', '12'] 1325.925925925925
73 26.51851851851852 ['55', '8', '7', '29', '4', '12'] 1325.925925925925
74 26.51851851851852 ['55', '8', '7', '29', '4', '12'] 1325.925925925925
75 26.51851851851852 ['55', '8', '7', '29', '4', '12'] 1325.925925925925
76 26.51851851851852 ['55', '8', '7', '29', '4', '12'] 1325.925925925925
77 26.51851851851852 ['55', '8', '7', '29', '4', '12'] 1325.925925925925
78 26.51851851851852 ['55', '8', '7', '29', '4', '12'] 1325.925925925925
79 26.51851851851852 ['55', '8', '7', '29', '4', '12'] 1325.925925925925
80 26.51851851851852 ['55', '8', '7', '29', '4', '12'] 1325.925925925925
81 26.51851851851852 ['55', '8', '7', '29', '4', '12'] 1325.925925925925
82 26.51851851851852 ['55', '8', '7', '29', '4', '12'] 1325.925925925925
83 26.51851851851852 ['55', '8', '7', '29', '4', '12'] 1325.925925925925
84 26.51851851851852 ['55', '8', '7', '29', '4', '12'] 1325.925925925925
85 26.51851851851852 ['55', '8', '7', '29', '4', '12'] 1325.925925925925
86 26.51851851851852 ['55', '8', '7', '29', '4', '12'] 1325.925925925925
87 26.51851851851852 ['55', '8', '7', '29', '4', '12'] 1325.925925925925
88 26.51851851851852 ['55', '8', '7', '29', '4', '12'] 1325.925925925925
89 26.51851851851852 ['55', '8', '7', '29', '4', '12'] 1325.925925925925
90 26.51851851851852 ['55', '8', '7', '29', '4', '12'] 1325.925925925925
91 26.51851851851852 ['55', '8', '7', '29', '4', '12'] 1325.925925925925
92 26.51851851851852 ['55', '8', '7', '29', '4', '12'] 1325.925925925925
93 26.51851851851852 ['55', '8', '7', '29', '4', '12'] 1325.925925925925
94 26.51851851851852 ['55', '8', '7', '29', '4', '12'] 1325.925925925925
95 26.51851851851852 ['55', '8', '7', '29', '4', '12'] 1325.925925925925
96 26.51851851851852 ['55', '8', '7', '29', '4', '12'] 1325.925925925925
97 26.51851851851852 ['55', '8', '7', '29', '4', '12'] 1325.925925925925
98 26.51851851851852 ['55', '8', '7', '29', '4', '12'] 1325.925925925925
99 26.51851851851852 ['55', '8', '7', '29', '4', '12'] 1325.925925925925
100 26.51851851851852 ['55', '8', '7', '29', '4', '12'] 1325.925925925925
101 26.51851851851852 ['55', '8', '7', '29', '4', '12'] 1325.925925925925
102 26.51851851851852 ['55', '8', '7', '29', '4', '12'] 1325.925925925925
103 26.51851851851852 ['55', '8', '7', '29', '4', '12'] 1325.925925925925
104 26.51851851851852 ['55', '8', '7', '29', '4', '12'] 1325.925925925925
105 26.51851851851852 ['55', '8', '7', '29', '4', '12'] 1325.925925925925
106 26.51851851851852 ['55', '8', '7', '29', '4', '12'] 1325.925925925925
107 26.51851851851852 ['55', '8', '7', '29', '4', '12'] 1325.925925925925
108 26.51851851851852 ['55', '8', '7', '29', '4', '12'] 1325.925925925925
109 26.51851851851852 ['55', '8', '7', '29', '4', '12'] 1325.925925925925
110 26.51851851851852 ['55', '8', '7', '29', '4', '12'] 1325.925925925925
111 26.51851851851852 ['55', '8', '7', '29', '4', '12'] 1325.925925925925
112 26.51851851851852 ['55', '8', '7', '29', '4', '12'] 1325.925925925925
113 26.51851851851852 ['55', '8', '7', '29', '4', '12'] 1325.925925925925
114 26.51851851851852 ['55', '8', '7', '29', '4', '12'] 1325.925925925925
115 26.51851851851852 ['55', '8', '7', '29', '4', '12'] 1325.925925925925
116 26.51851851851852 ['55', '8', '7', '29', '4', '12'] 1325.925925925925
117 26.51851851851852 ['55', '8', '7', '29', '4', '12'] 1325.925925925925
118 26.51851851851852 ['55', '8', '7', '29', '4', '12'] 1325.925925925925
119 26.51851851851852 ['55', '8', '7', '29', '4', '12'] 1325.925925925925
120 26.51851851851852 ['55', '8', '7', '29', '4', '12'] 1325.925925925925
121 26.51851851851852 ['55', '8', '7', '29', '4', '12'] 1325.925925925925
122 26.51851851851852 ['55', '8', '7', '29', '4', '12'] 1325.925925925925
123 26.51851851851852 ['55', '8', '7', '29', '4', '12'] 1325.925925925925
124 26.51851851851852 ['55', '8', '7', '29', '4', '12'] 1325.925925925925
125 26.51851851851852 ['55', '8', '7', '29', '4', '12'] 1325.925925925925
126 26.51851851851852 ['55', '8', '7', '29', '4', '12'] 1325.925925925925
127 26.51851851851852 ['55', '8', '7', '29', '4', '12'] 1325.925925925925
128 26.51851851851852 ['55', '8', '7', '29', '4', '12'] 1325.925925925925
129 26.51851851851852 ['55', '8', '7', '29', '4', '12'] 1325.925925925925
130 26.51851851851852 ['55', '8', '7', '29', '4', '12'] 1325.925925925925
131 26.51851851851852 ['55', '8', '7', '29', '4', '12'] 1325.925925925925
132 26.51851851851852 ['55', '8', '7', '29', '4', '12'] 1325.925925925925
133 26.51851851851852 ['55', '8', '7', '29', '4', '12'] 1325.925925925925
134 26.51851851851852 ['55', '8', '7', '29', '4', '12'] 1325.925925925925
135 26.51851851851852 ['55', '8', '7', '29', '4', '12'] 1325.925925925925
136 26.51851851851852 ['55', '8', '7', '29', '4', '12'] 1325.925925925925
137 26.51851851851852 ['55', '8', '7', '29', '4', '12'] 1325.925925925925
138 26.51851851851852 ['55', '8', '7', '29', '4', '12'] 1325.925925925925
139 26.51851851851852 ['55', '8', '7', '29', '4', '12'] 1325.925925925925
140 26.51851851851852 ['55', '8', '7', '29', '4', '12'] 1325.925925925925
141 26.51851851851852 ['55', '8', '7', '29', '4', '12'] 1325.925925925925
142 26.51851851851852 ['55', '8', '7', '29', '4', '12'] 1325.925925925925
143 26.51851851851852 ['55', '8', '7', '29', '4', '12'] 1325.925925925925
144 26.51851851851852 ['55', '8', '7', '29', '4', '12'] 1325.925925925925
145 26.51851851851852 ['55', '8', '7', '29', '4', '12'] 1325.925925925925
146 26.51851851851852 ['55', '8', '7', '29', '4', '12'] 1325.925925925925
147 26.51851851851852 ['55', '8', '7', '29', '4', '12'] 1325.925925925925
148 26.51851851851852 ['55', '8', '7', '29', '4', '12'] 1325.925925925925
149 26.51851851851852 ['55', '8', '7', '29', '4', '12'] 1325.925925925925
150 26.51851851851852 ['55', '8', '7', '29', '4', '12'] 1325.925925925925
151 26.51851851851852 ['55', '8', '7', '29', '4', '12'] 1325.925925925925
152 26.51851851851852 ['55', '8', '7', '29', '4', '12'] 1325.925925925925
153 26.51851851851852 ['55', '8', '7', '29', '4', '12'] 1325.925925925925
154 26.51851851851852 ['55', '8', '7', '29', '4', '12'] 1325.925925925925
155 26.51851851851852 ['55', '8', '7', '29', '4', '12'] 1325.925925925925
156 26.51851851851852 ['55', '8', '7', '29', '4', '12'] 1325.925925925925
157 26.51851851851852 ['55', '8', '7', '29', '4', '12'] 1325.925925925925
158 26.51851851851852 ['55', '8', '7', '29', '4', '12'] 1325.925925925925
159 26.51851851851852 ['55', '8', '7', '29', '4', '12'] 1325.925925925925
160 26.51851851851852 ['55', '8', '7', '29', '4', '12'] 1325.925925925925
161 26.51851851851852 ['55', '8', '7', '29', '4', '12'] 1325.925925925925
162 26.51851851851852 ['55', '8', '7', '29', '4', '12'] 1325.925925925925
163 26.51851851851852 ['55', '8', '7', '29', '4', '12'] 1325.925925925925
164 26.51851851851852 ['55', '8', '7', '29', '4', '12'] 1325.925925925925
165 26.51851851851852 ['55', '8', '7', '29', '4', '12'] 1325.925925925925
166 26.51851851851852 ['55', '8', '7', '29', '4', '12'] 1325.925925925925
167 26.51851851851852 ['55', '8', '7', '29', '4', '12'] 1325.925925925925
168 26.51851851851852 ['55', '8', '7', '29', '4', '12'] 1325.925925925925
169 26.51851851851852 ['55', '8', '7', '29', '4', '12'] 1325.925925925925
170 26.51851851851852 ['55', '8', '7', '29', '4', '12'] 1325.925925925925
171 26.51851851851852 ['55', '8', '7', '29', '4', '12'] 1325.925925925925
172 26.51851851851852 ['55', '8', '7', '29', '4', '12'] 1325.925925925925
173 26.51851851851852 ['55', '8', '7', '29', '4', '12'] 1325.925925925925
174 26.51851851851852 ['55', '8', '7', '29', '4', '12'] 1325.925925925925
175 26.51851851851852 ['55', '8', '7', '29', '4', '12'] 1325.925925925925
176 26.51851851851852 ['55', '8', '7', '29', '4', '12'] 1325.925925925925
177 26.51851851851852 ['55', '8', '7', '29', '4', '12'] 1325.925925925925
178 26.51851851851852 ['55', '8', '7', '29', '4', '12'] 1325.925925925925
179 26.51851851851852 ['55', '8', '7', '29', '4', '12'] 1325.925925925925
180 26.51851851851852 ['55', '8', '7', '29', '4', '12'] 1325.925925925925
181 26.51851851851852 ['55', '8', '7', '29', '4', '12'] 1325.925925925925
182 26.51851851851852 ['55', '8', '7', '29', '4', '12'] 1325.925925925925
183 26.51851851851852 ['55', '8', '7', '29', '4', '12'] 1325.925925925925
184 26.51851851851852 ['55', '8', '7', '29', '4', '12'] 1325.925925925925
185 26.51851851851852 ['55', '8', '7', '29', '4', '12'] 1325.925925925925
186 26.51851851851852 ['55', '8', '7', '29', '4', '12'] 1325.925925925925
187 26.51851851851852 ['55', '8', '7', '29', '4', '12'] 1325.925925925925
188 26.51851851851852 ['55', '8', '7', '29', '4', '12'] 1325.925925925925
189 26.51851851851852 ['55', '8', '7', '29', '4', '12'] 1325.925925925925
190 26.51851851851852 ['55', '8', '7', '29', '4', '12'] 1325.925925925925
191 26.51851851851852 ['55', '8', '7', '29', '4', '12'] 1325.925925925925
192 26.51851851851852 ['55', '8', '7', '29', '4', '12'] 1325.925925925925
193 26.51851851851852 ['55', '8', '7', '29', '4', '12'] 1325.925925925925
194 26.51851851851852 ['55', '8', '7', '29', '4', '12'] 1325.925925925925
195 26.51851851851852 ['55', '8', '7', '29', '4', '12'] 1325.925925925925
196 26.51851851851852 ['55', '8', '7', '29', '4', '12'] 1325.925925925925
197 26.51851851851852 ['55', '8', '7', '29', '4', '12'] 1325.925925925925
198 26.51851851851852 ['55', '8', '7', '29', '4', '12'] 1325.925925925925
199 26.51851851851852 ['55', '8', '7', '29', '4', '12'] 1325.925925925925
