0 7.411764705882353 ['35', '5', '37'] 383.9411764705886
1 7.352941176470588 ['5', '20', '9'] 377.6470588235294
2 7.117647058823529 ['9', '5', '37'] 372.73529411764696
3 7.0588235294117645 ['37', '23', '9'] 366.7058823529413
4 7.0588235294117645 ['37', '23', '9'] 361.0000000000003
5 7.0588235294117645 ['37', '23', '9'] 355.8529411764705
6 7.0588235294117645 ['37', '23', '9'] 354.05882352941194
7 7.0588235294117645 ['37', '23', '9'] 352.94117647058835
8 7.0588235294117645 ['37', '23', '9'] 352.94117647058835
9 7.0588235294117645 ['37', '23', '9'] 352.94117647058835
10 7.0588235294117645 ['37', '23', '9'] 352.94117647058835
11 7.0588235294117645 ['37', '23', '9'] 352.94117647058835
12 7.0588235294117645 ['37', '23', '9'] 352.94117647058835
13 7.0588235294117645 ['37', '23', '9'] 352.94117647058835
14 7.0588235294117645 ['37', '23', '9'] 352.94117647058835
15 7.0588235294117645 ['37', '23', '9'] 352.94117647058835
16 7.0588235294117645 ['37', '23', '9'] 352.94117647058835
17 7.0588235294117645 ['37', '23', '9'] 352.94117647058835
18 7.0588235294117645 ['37', '23', '9'] 352.94117647058835
19 7.0588235294117645 ['37', '23', '9'] 352.94117647058835
20 7.0588235294117645 ['37', '23', '9'] 352.94117647058835
21 7.0588235294117645 ['37', '23', '9'] 352.94117647058835
22 7.0588235294117645 ['37', '23', '9'] 352.94117647058835
23 7.0588235294117645 ['37', '23', '9'] 352.94117647058835
24 7.0588235294117645 ['37', '23', '9'] 352.94117647058835
25 7.0588235294117645 ['37', '23', '9'] 352.94117647058835
26 7.0588235294117645 ['37', '23', '9'] 352.94117647058835
27 7.0588235294117645 ['37', '23', '9'] 352.94117647058835
28 7.0588235294117645 ['37', '23', '9'] 352.94117647058835
29 7.0588235294117645 ['37', '23', '9'] 352.94117647058835
30 7.0588235294117645 ['37', '23', '9'] 352.94117647058835
31 7.0588235294117645 ['37', '23', '9'] 352.94117647058835
32 7.0588235294117645 ['37', '23', '9'] 352.94117647058835
33 7.0588235294117645 ['37', '23', '9'] 352.94117647058835
34 7.0588235294117645 ['37', '23', '9'] 352.94117647058835
35 7.0588235294117645 ['37', '23', '9'] 352.94117647058835
36 7.0588235294117645 ['37', '23', '9'] 352.94117647058835
37 7.0588235294117645 ['37', '23', '9'] 352.94117647058835
38 7.0588235294117645 ['37', '23', '9'] 352.94117647058835
39 7.0588235294117645 ['37', '23', '9'] 352.94117647058835
40 7.0588235294117645 ['37', '23', '9'] 352.94117647058835
41 7.0588235294117645 ['37', '23', '9'] 352.94117647058835
42 7.0588235294117645 ['37', '23', '9'] 352.94117647058835
43 7.0588235294117645 ['37', '23', '9'] 352.94117647058835
44 7.0588235294117645 ['37', '23', '9'] 352.94117647058835
45 7.0588235294117645 ['37', '23', '9'] 352.94117647058835
46 7.0588235294117645 ['37', '23', '9'] 352.94117647058835
47 7.0588235294117645 ['37', '23', '9'] 352.94117647058835
48 7.0588235294117645 ['37', '23', '9'] 352.94117647058835
49 7.0588235294117645 ['37', '23', '9'] 352.94117647058835
50 7.0588235294117645 ['37', '23', '9'] 352.94117647058835
51 7.0588235294117645 ['37', '23', '9'] 352.94117647058835
52 7.0588235294117645 ['37', '23', '9'] 352.94117647058835
53 7.0588235294117645 ['37', '23', '9'] 352.94117647058835
54 7.0588235294117645 ['37', '23', '9'] 352.94117647058835
55 7.0588235294117645 ['37', '23', '9'] 352.94117647058835
56 7.0588235294117645 ['37', '23', '9'] 352.94117647058835
57 7.0588235294117645 ['37', '23', '9'] 352.94117647058835
58 7.0588235294117645 ['37', '23', '9'] 352.94117647058835
59 7.0588235294117645 ['37', '23', '9'] 352.94117647058835
60 7.0588235294117645 ['37', '23', '9'] 352.94117647058835
61 7.0588235294117645 ['37', '23', '9'] 352.94117647058835
62 7.0588235294117645 ['37', '23', '9'] 352.94117647058835
63 7.0588235294117645 ['37', '23', '9'] 352.94117647058835
64 7.0588235294117645 ['37', '23', '9'] 352.94117647058835
65 7.0588235294117645 ['37', '23', '9'] 352.94117647058835
66 7.0588235294117645 ['37', '23', '9'] 352.94117647058835
67 7.0588235294117645 ['37', '23', '9'] 352.94117647058835
68 7.0588235294117645 ['37', '23', '9'] 352.94117647058835
69 7.0588235294117645 ['37', '23', '9'] 352.94117647058835
70 7.0588235294117645 ['37', '23', '9'] 352.94117647058835
71 7.0588235294117645 ['37', '23', '9'] 352.94117647058835
72 7.0588235294117645 ['37', '23', '9'] 352.94117647058835
73 7.0588235294117645 ['37', '23', '9'] 352.94117647058835
74 7.0588235294117645 ['37', '23', '9'] 352.94117647058835
75 7.0588235294117645 ['37', '23', '9'] 352.94117647058835
76 7.0588235294117645 ['37', '23', '9'] 352.94117647058835
77 7.0588235294117645 ['37', '23', '9'] 352.94117647058835
78 7.0588235294117645 ['37', '23', '9'] 352.94117647058835
79 7.0588235294117645 ['37', '23', '9'] 352.94117647058835
80 7.0588235294117645 ['37', '23', '9'] 352.94117647058835
81 7.0588235294117645 ['37', '23', '9'] 352.94117647058835
82 7.0588235294117645 ['37', '23', '9'] 352.94117647058835
83 7.0588235294117645 ['37', '23', '9'] 352.94117647058835
84 7.0588235294117645 ['37', '23', '9'] 352.94117647058835
85 7.0588235294117645 ['37', '23', '9'] 352.94117647058835
86 7.0588235294117645 ['37', '23', '9'] 352.94117647058835
87 7.0588235294117645 ['37', '23', '9'] 352.94117647058835
88 7.0588235294117645 ['37', '23', '9'] 352.94117647058835
89 7.0588235294117645 ['37', '23', '9'] 352.94117647058835
90 7.0588235294117645 ['37', '23', '9'] 352.94117647058835
91 7.0588235294117645 ['37', '23', '9'] 352.94117647058835
92 7.0588235294117645 ['37', '23', '9'] 352.94117647058835
93 7.0588235294117645 ['37', '23', '9'] 352.94117647058835
94 7.0588235294117645 ['37', '23', '9'] 352.94117647058835
95 7.0588235294117645 ['37', '23', '9'] 352.94117647058835
96 7.0588235294117645 ['37', '23', '9'] 352.94117647058835
97 7.0588235294117645 ['37', '23', '9'] 352.94117647058835
98 7.0588235294117645 ['37', '23', '9'] 352.94117647058835
99 7.0588235294117645 ['37', '23', '9'] 352.94117647058835
100 7.0588235294117645 ['37', '23', '9'] 352.94117647058835
101 7.0588235294117645 ['37', '23', '9'] 352.94117647058835
102 7.0588235294117645 ['37', '23', '9'] 352.94117647058835
103 7.0588235294117645 ['37', '23', '9'] 352.94117647058835
104 7.0588235294117645 ['37', '23', '9'] 352.94117647058835
105 7.0588235294117645 ['37', '23', '9'] 352.94117647058835
106 7.0588235294117645 ['37', '23', '9'] 352.94117647058835
107 7.0588235294117645 ['37', '23', '9'] 352.94117647058835
108 7.0588235294117645 ['37', '23', '9'] 352.94117647058835
109 7.0588235294117645 ['37', '23', '9'] 352.94117647058835
110 7.0588235294117645 ['37', '23', '9'] 352.94117647058835
111 7.0588235294117645 ['37', '23', '9'] 352.94117647058835
112 7.0588235294117645 ['37', '23', '9'] 352.94117647058835
113 7.0588235294117645 ['37', '23', '9'] 352.94117647058835
114 7.0588235294117645 ['37', '23', '9'] 352.94117647058835
115 7.0588235294117645 ['37', '23', '9'] 352.94117647058835
116 7.0588235294117645 ['37', '23', '9'] 352.94117647058835
117 7.0588235294117645 ['37', '23', '9'] 352.94117647058835
118 7.0588235294117645 ['37', '23', '9'] 352.94117647058835
119 7.0588235294117645 ['37', '23', '9'] 352.94117647058835
120 7.0588235294117645 ['37', '23', '9'] 352.94117647058835
121 7.0588235294117645 ['37', '23', '9'] 352.94117647058835
122 7.0588235294117645 ['37', '23', '9'] 352.94117647058835
123 7.0588235294117645 ['37', '23', '9'] 352.94117647058835
124 7.0588235294117645 ['37', '23', '9'] 352.94117647058835
125 7.0588235294117645 ['37', '23', '9'] 352.94117647058835
126 7.0588235294117645 ['37', '23', '9'] 352.94117647058835
127 7.0588235294117645 ['37', '23', '9'] 352.94117647058835
128 7.0588235294117645 ['37', '23', '9'] 352.94117647058835
129 7.0588235294117645 ['37', '23', '9'] 352.94117647058835
130 7.0588235294117645 ['37', '23', '9'] 352.94117647058835
131 7.0588235294117645 ['37', '23', '9'] 352.94117647058835
132 7.0588235294117645 ['37', '23', '9'] 352.94117647058835
133 7.0588235294117645 ['37', '23', '9'] 352.94117647058835
134 7.0588235294117645 ['37', '23', '9'] 352.94117647058835
135 7.0588235294117645 ['37', '23', '9'] 352.94117647058835
136 7.0588235294117645 ['37', '23', '9'] 352.94117647058835
137 7.0588235294117645 ['37', '23', '9'] 352.94117647058835
138 7.0588235294117645 ['37', '23', '9'] 352.94117647058835
139 7.0588235294117645 ['37', '23', '9'] 352.94117647058835
140 7.0588235294117645 ['37', '23', '9'] 352.94117647058835
141 7.0588235294117645 ['37', '23', '9'] 352.94117647058835
142 7.0588235294117645 ['37', '23', '9'] 352.94117647058835
143 7.0588235294117645 ['37', '23', '9'] 352.94117647058835
144 7.0588235294117645 ['37', '23', '9'] 352.94117647058835
145 7.0588235294117645 ['37', '23', '9'] 352.94117647058835
146 7.0588235294117645 ['37', '23', '9'] 352.94117647058835
147 7.0588235294117645 ['37', '23', '9'] 352.94117647058835
148 7.0588235294117645 ['37', '23', '9'] 352.94117647058835
149 7.0588235294117645 ['37', '23', '9'] 352.94117647058835
150 7.0588235294117645 ['37', '23', '9'] 352.94117647058835
151 7.0588235294117645 ['37', '23', '9'] 352.94117647058835
152 7.0588235294117645 ['37', '23', '9'] 352.94117647058835
153 7.0588235294117645 ['37', '23', '9'] 352.94117647058835
154 7.0588235294117645 ['37', '23', '9'] 352.94117647058835
155 7.0588235294117645 ['37', '23', '9'] 352.94117647058835
156 7.0588235294117645 ['37', '23', '9'] 352.94117647058835
157 7.0588235294117645 ['37', '23', '9'] 352.94117647058835
158 7.0588235294117645 ['37', '23', '9'] 352.94117647058835
159 7.0588235294117645 ['37', '23', '9'] 352.94117647058835
160 7.0588235294117645 ['37', '23', '9'] 352.94117647058835
161 7.0588235294117645 ['37', '23', '9'] 352.94117647058835
162 7.0588235294117645 ['37', '23', '9'] 352.94117647058835
163 7.0588235294117645 ['37', '23', '9'] 352.94117647058835
164 7.0588235294117645 ['37', '23', '9'] 352.94117647058835
165 7.0588235294117645 ['37', '23', '9'] 352.94117647058835
166 7.0588235294117645 ['37', '23', '9'] 352.94117647058835
167 7.0588235294117645 ['37', '23', '9'] 352.94117647058835
168 7.0588235294117645 ['37', '23', '9'] 352.94117647058835
169 7.0588235294117645 ['37', '23', '9'] 352.94117647058835
170 7.0588235294117645 ['37', '23', '9'] 352.94117647058835
171 7.0588235294117645 ['37', '23', '9'] 352.94117647058835
172 7.0588235294117645 ['37', '23', '9'] 352.94117647058835
173 7.0588235294117645 ['37', '23', '9'] 352.94117647058835
174 7.0588235294117645 ['37', '23', '9'] 352.94117647058835
175 7.0588235294117645 ['37', '23', '9'] 352.94117647058835
176 7.0588235294117645 ['37', '23', '9'] 352.94117647058835
177 7.0588235294117645 ['37', '23', '9'] 352.94117647058835
178 7.0588235294117645 ['37', '23', '9'] 352.94117647058835
179 7.0588235294117645 ['37', '23', '9'] 352.94117647058835
180 7.0588235294117645 ['37', '23', '9'] 352.94117647058835
181 7.0588235294117645 ['37', '23', '9'] 352.94117647058835
182 7.0588235294117645 ['37', '23', '9'] 352.94117647058835
183 7.0588235294117645 ['37', '23', '9'] 352.94117647058835
184 7.0588235294117645 ['37', '23', '9'] 352.94117647058835
185 7.0588235294117645 ['37', '23', '9'] 352.94117647058835
186 7.0588235294117645 ['37', '23', '9'] 352.94117647058835
187 7.0588235294117645 ['37', '23', '9'] 352.94117647058835
188 7.0588235294117645 ['37', '23', '9'] 352.94117647058835
189 7.0588235294117645 ['37', '23', '9'] 352.94117647058835
190 7.0588235294117645 ['37', '23', '9'] 352.94117647058835
191 7.0588235294117645 ['37', '23', '9'] 352.94117647058835
192 7.0588235294117645 ['37', '23', '9'] 352.94117647058835
193 7.0588235294117645 ['37', '23', '9'] 352.94117647058835
194 7.0588235294117645 ['37', '23', '9'] 352.94117647058835
195 7.0588235294117645 ['37', '23', '9'] 352.94117647058835
196 7.0588235294117645 ['37', '23', '9'] 352.94117647058835
197 7.0588235294117645 ['37', '23', '9'] 352.94117647058835
198 7.0588235294117645 ['37', '23', '9'] 352.94117647058835
199 7.0588235294117645 ['37', '23', '9'] 352.94117647058835
