0 38.9622641509434 ['55', '56', '21', '42', '19'] 2036.3396226415098
1 38.735849056603776 ['32', '55', '10', '14', '18'] 1998.2466806429074
2 38.35849056603774 ['19', '21', '33', '32', '56'] 1972.5485674353597
3 38.320754716981135 ['55', '43', '32', '14', '18'] 1950.7924528301892
4 38.056603773584904 ['43', '53', '19', '42', '32'] 1933.5660377358483
5 37.132075471698116 ['43', '53', '55', '21', '32'] 1918.943396226415
6 37.132075471698116 ['43', '53', '55', '21', '32'] 1906.9622641509434
7 37.132075471698116 ['43', '53', '55', '21', '32'] 1895.8679245283013
8 37.132075471698116 ['43', '53', '55', '21', '32'] 1886.7547169811332
9 36.9622641509434 ['55', '32', '43', '53', '16'] 1876.9245283018865
10 36.867924528301884 ['32', '43', '53', '16', '21'] 1870.490566037737
11 36.867924528301884 ['32', '43', '53', '16', '21'] 1862.5283018867915
12 36.867924528301884 ['32', '43', '53', '16', '21'] 1855.226415094339
13 36.867924528301884 ['32', '43', '53', '16', '21'] 1847.018867924527
14 36.867924528301884 ['32', '43', '53', '16', '21'] 1843.3962264150953
15 36.867924528301884 ['32', '43', '53', '16', '21'] 1843.3962264150953
16 36.867924528301884 ['32', '43', '53', '16', '21'] 1843.3962264150953
17 36.867924528301884 ['32', '43', '53', '16', '21'] 1843.3962264150953
18 36.867924528301884 ['32', '43', '53', '16', '21'] 1843.3962264150953
19 36.867924528301884 ['32', '43', '53', '16', '21'] 1843.3962264150953
20 36.867924528301884 ['32', '43', '53', '16', '21'] 1843.3962264150953
21 36.867924528301884 ['32', '43', '53', '16', '21'] 1843.3962264150953
22 36.867924528301884 ['32', '43', '53', '16', '21'] 1843.3962264150953
23 36.867924528301884 ['32', '43', '53', '16', '21'] 1843.3962264150953
24 36.867924528301884 ['32', '43', '53', '16', '21'] 1843.3962264150953
25 36.867924528301884 ['32', '43', '53', '16', '21'] 1843.3962264150953
26 36.867924528301884 ['32', '43', '53', '16', '21'] 1843.3962264150953
27 36.867924528301884 ['32', '43', '53', '16', '21'] 1843.3962264150953
28 36.867924528301884 ['32', '43', '53', '16', '21'] 1843.3962264150953
29 36.867924528301884 ['32', '43', '53', '16', '21'] 1843.3962264150953
30 36.867924528301884 ['32', '43', '53', '16', '21'] 1843.3962264150953
31 36.867924528301884 ['32', '43', '53', '16', '21'] 1843.3962264150953
32 36.867924528301884 ['32', '43', '53', '16', '21'] 1843.3962264150953
33 36.867924528301884 ['32', '43', '53', '16', '21'] 1843.3962264150953
34 36.867924528301884 ['32', '43', '53', '16', '21'] 1843.3962264150953
35 36.867924528301884 ['32', '43', '53', '16', '21'] 1843.3962264150953
36 36.867924528301884 ['32', '43', '53', '16', '21'] 1843.3962264150953
37 36.867924528301884 ['32', '43', '53', '16', '21'] 1843.3962264150953
38 36.867924528301884 ['32', '43', '53', '16', '21'] 1843.3962264150953
39 36.867924528301884 ['32', '43', '53', '16', '21'] 1843.3962264150953
40 36.867924528301884 ['32', '43', '53', '16', '21'] 1843.3962264150953
41 36.867924528301884 ['32', '43', '53', '16', '21'] 1843.3962264150953
42 36.867924528301884 ['32', '43', '53', '16', '21'] 1843.3962264150953
43 36.867924528301884 ['32', '43', '53', '16', '21'] 1843.3962264150953
44 36.867924528301884 ['32', '43', '53', '16', '21'] 1843.3962264150953
45 36.867924528301884 ['32', '43', '53', '16', '21'] 1843.3962264150953
46 36.867924528301884 ['32', '43', '53', '16', '21'] 1843.3962264150953
47 36.867924528301884 ['32', '43', '53', '16', '21'] 1843.3962264150953
48 36.867924528301884 ['32', '43', '53', '16', '21'] 1843.3962264150953
49 36.867924528301884 ['32', '43', '53', '16', '21'] 1843.3962264150953
50 36.867924528301884 ['32', '43', '53', '16', '21'] 1843.3962264150953
51 36.867924528301884 ['32', '43', '53', '16', '21'] 1843.3962264150953
52 36.867924528301884 ['32', '43', '53', '16', '21'] 1843.3962264150953
53 36.867924528301884 ['32', '43', '53', '16', '21'] 1843.3962264150953
54 36.867924528301884 ['32', '43', '53', '16', '21'] 1843.3962264150953
55 36.867924528301884 ['32', '43', '53', '16', '21'] 1843.3962264150953
56 36.867924528301884 ['32', '43', '53', '16', '21'] 1843.3962264150953
57 36.867924528301884 ['32', '43', '53', '16', '21'] 1843.3962264150953
58 36.867924528301884 ['32', '43', '53', '16', '21'] 1843.3962264150953
59 36.867924528301884 ['32', '43', '53', '16', '21'] 1843.3962264150953
60 36.867924528301884 ['32', '43', '53', '16', '21'] 1843.3962264150953
61 36.867924528301884 ['32', '43', '53', '16', '21'] 1843.3962264150953
62 36.867924528301884 ['32', '43', '53', '16', '21'] 1843.3962264150953
63 36.867924528301884 ['32', '43', '53', '16', '21'] 1843.3962264150953
64 36.867924528301884 ['32', '43', '53', '16', '21'] 1843.3962264150953
65 36.867924528301884 ['32', '43', '53', '16', '21'] 1843.3962264150953
66 36.867924528301884 ['32', '43', '53', '16', '21'] 1843.3962264150953
67 36.867924528301884 ['32', '43', '53', '16', '21'] 1843.3962264150953
68 36.867924528301884 ['32', '43', '53', '16', '21'] 1843.3962264150953
69 36.867924528301884 ['32', '43', '53', '16', '21'] 1843.3962264150953
70 36.867924528301884 ['32', '43', '53', '16', '21'] 1843.3962264150953
71 36.867924528301884 ['32', '43', '53', '16', '21'] 1843.3962264150953
72 36.867924528301884 ['32', '43', '53', '16', '21'] 1843.3962264150953
73 36.867924528301884 ['32', '43', '53', '16', '21'] 1843.3962264150953
74 36.867924528301884 ['32', '43', '53', '16', '21'] 1843.3962264150953
75 36.867924528301884 ['32', '43', '53', '16', '21'] 1843.3962264150953
76 36.867924528301884 ['32', '43', '53', '16', '21'] 1843.3962264150953
77 36.867924528301884 ['32', '43', '53', '16', '21'] 1843.3962264150953
78 36.867924528301884 ['32', '43', '53', '16', '21'] 1843.3962264150953
79 36.867924528301884 ['32', '43', '53', '16', '21'] 1843.3962264150953
80 36.867924528301884 ['32', '43', '53', '16', '21'] 1843.3962264150953
81 36.867924528301884 ['32', '43', '53', '16', '21'] 1843.3962264150953
82 36.867924528301884 ['32', '43', '53', '16', '21'] 1843.3962264150953
83 36.867924528301884 ['32', '43', '53', '16', '21'] 1843.3962264150953
84 36.867924528301884 ['32', '43', '53', '16', '21'] 1843.3962264150953
85 36.867924528301884 ['32', '43', '53', '16', '21'] 1843.3962264150953
86 36.867924528301884 ['32', '43', '53', '16', '21'] 1843.3962264150953
87 36.867924528301884 ['32', '43', '53', '16', '21'] 1843.3962264150953
88 36.867924528301884 ['32', '43', '53', '16', '21'] 1843.3962264150953
89 36.867924528301884 ['32', '43', '53', '16', '21'] 1843.3962264150953
90 36.867924528301884 ['32', '43', '53', '16', '21'] 1843.3962264150953
91 36.867924528301884 ['32', '43', '53', '16', '21'] 1843.3962264150953
92 36.867924528301884 ['32', '43', '53', '16', '21'] 1843.3962264150953
93 36.867924528301884 ['32', '43', '53', '16', '21'] 1843.3962264150953
94 36.867924528301884 ['32', '43', '53', '16', '21'] 1843.3962264150953
95 36.867924528301884 ['32', '43', '53', '16', '21'] 1843.3962264150953
96 36.867924528301884 ['32', '43', '53', '16', '21'] 1843.3962264150953
97 36.867924528301884 ['32', '43', '53', '16', '21'] 1843.3962264150953
98 36.867924528301884 ['32', '43', '53', '16', '21'] 1843.3962264150953
99 36.867924528301884 ['32', '43', '53', '16', '21'] 1843.3962264150953
100 36.867924528301884 ['32', '43', '53', '16', '21'] 1843.3962264150953
101 36.867924528301884 ['32', '43', '53', '16', '21'] 1843.3962264150953
102 36.867924528301884 ['32', '43', '53', '16', '21'] 1843.3962264150953
103 36.867924528301884 ['32', '43', '53', '16', '21'] 1843.3962264150953
104 36.867924528301884 ['32', '43', '53', '16', '21'] 1843.3962264150953
105 36.867924528301884 ['32', '43', '53', '16', '21'] 1843.3962264150953
106 36.867924528301884 ['32', '43', '53', '16', '21'] 1843.3962264150953
107 36.867924528301884 ['32', '43', '53', '16', '21'] 1843.3962264150953
108 36.867924528301884 ['32', '43', '53', '16', '21'] 1843.3962264150953
109 36.867924528301884 ['32', '43', '53', '16', '21'] 1843.3962264150953
110 36.867924528301884 ['32', '43', '53', '16', '21'] 1843.3962264150953
111 36.867924528301884 ['32', '43', '53', '16', '21'] 1843.3962264150953
112 36.867924528301884 ['32', '43', '53', '16', '21'] 1843.3962264150953
113 36.867924528301884 ['32', '43', '53', '16', '21'] 1843.3962264150953
114 36.867924528301884 ['32', '43', '53', '16', '21'] 1843.3962264150953
115 36.867924528301884 ['32', '43', '53', '16', '21'] 1843.3962264150953
116 36.867924528301884 ['32', '43', '53', '16', '21'] 1843.3962264150953
117 36.867924528301884 ['32', '43', '53', '16', '21'] 1843.3962264150953
118 36.867924528301884 ['32', '43', '53', '16', '21'] 1843.3962264150953
119 36.867924528301884 ['32', '43', '53', '16', '21'] 1843.3962264150953
120 36.867924528301884 ['32', '43', '53', '16', '21'] 1843.3962264150953
121 36.867924528301884 ['32', '43', '53', '16', '21'] 1843.3962264150953
122 36.867924528301884 ['32', '43', '53', '16', '21'] 1843.3962264150953
123 36.867924528301884 ['32', '43', '53', '16', '21'] 1843.3962264150953
124 36.867924528301884 ['32', '43', '53', '16', '21'] 1843.3962264150953
125 36.867924528301884 ['32', '43', '53', '16', '21'] 1843.3962264150953
126 36.867924528301884 ['32', '43', '53', '16', '21'] 1843.3962264150953
127 36.867924528301884 ['32', '43', '53', '16', '21'] 1843.3962264150953
128 36.867924528301884 ['32', '43', '53', '16', '21'] 1843.3962264150953
129 36.867924528301884 ['32', '43', '53', '16', '21'] 1843.3962264150953
130 36.867924528301884 ['32', '43', '53', '16', '21'] 1843.3962264150953
131 36.867924528301884 ['32', '43', '53', '16', '21'] 1843.3962264150953
132 36.867924528301884 ['32', '43', '53', '16', '21'] 1843.3962264150953
133 36.867924528301884 ['32', '43', '53', '16', '21'] 1843.3962264150953
134 36.867924528301884 ['32', '43', '53', '16', '21'] 1843.3962264150953
135 36.867924528301884 ['32', '43', '53', '16', '21'] 1843.3962264150953
136 36.867924528301884 ['32', '43', '53', '16', '21'] 1843.3962264150953
137 36.867924528301884 ['32', '43', '53', '16', '21'] 1843.3962264150953
138 36.867924528301884 ['32', '43', '53', '16', '21'] 1843.3962264150953
139 36.867924528301884 ['32', '43', '53', '16', '21'] 1843.3962264150953
140 36.867924528301884 ['32', '43', '53', '16', '21'] 1843.3962264150953
141 36.867924528301884 ['32', '43', '53', '16', '21'] 1843.3962264150953
142 36.867924528301884 ['32', '43', '53', '16', '21'] 1843.3962264150953
143 36.867924528301884 ['32', '43', '53', '16', '21'] 1843.3962264150953
144 36.867924528301884 ['32', '43', '53', '16', '21'] 1843.3962264150953
145 36.867924528301884 ['32', '43', '53', '16', '21'] 1843.3962264150953
146 36.867924528301884 ['32', '43', '53', '16', '21'] 1843.3962264150953
147 36.867924528301884 ['32', '43', '53', '16', '21'] 1843.3962264150953
148 36.867924528301884 ['32', '43', '53', '16', '21'] 1843.3962264150953
149 36.867924528301884 ['32', '43', '53', '16', '21'] 1843.3962264150953
150 36.867924528301884 ['32', '43', '53', '16', '21'] 1843.3962264150953
151 36.867924528301884 ['32', '43', '53', '16', '21'] 1843.3962264150953
152 36.867924528301884 ['32', '43', '53', '16', '21'] 1843.3962264150953
153 36.867924528301884 ['32', '43', '53', '16', '21'] 1843.3962264150953
154 36.867924528301884 ['32', '43', '53', '16', '21'] 1843.3962264150953
155 36.867924528301884 ['32', '43', '53', '16', '21'] 1843.3962264150953
156 36.867924528301884 ['32', '43', '53', '16', '21'] 1843.3962264150953
157 36.867924528301884 ['32', '43', '53', '16', '21'] 1843.3962264150953
158 36.867924528301884 ['32', '43', '53', '16', '21'] 1843.3962264150953
159 36.867924528301884 ['32', '43', '53', '16', '21'] 1843.3962264150953
160 36.867924528301884 ['32', '43', '53', '16', '21'] 1843.3962264150953
161 36.867924528301884 ['32', '43', '53', '16', '21'] 1843.3962264150953
162 36.867924528301884 ['32', '43', '53', '16', '21'] 1843.3962264150953
163 36.867924528301884 ['32', '43', '53', '16', '21'] 1843.3962264150953
164 36.867924528301884 ['32', '43', '53', '16', '21'] 1843.3962264150953
165 36.867924528301884 ['32', '43', '53', '16', '21'] 1843.3962264150953
166 36.867924528301884 ['32', '43', '53', '16', '21'] 1843.3962264150953
167 36.867924528301884 ['32', '43', '53', '16', '21'] 1843.3962264150953
168 36.867924528301884 ['32', '43', '53', '16', '21'] 1843.3962264150953
169 36.867924528301884 ['32', '43', '53', '16', '21'] 1843.3962264150953
170 36.867924528301884 ['32', '43', '53', '16', '21'] 1843.3962264150953
171 36.867924528301884 ['32', '43', '53', '16', '21'] 1843.3962264150953
172 36.867924528301884 ['32', '43', '53', '16', '21'] 1843.3962264150953
173 36.867924528301884 ['32', '43', '53', '16', '21'] 1843.3962264150953
174 36.867924528301884 ['32', '43', '53', '16', '21'] 1843.3962264150953
175 36.867924528301884 ['32', '43', '53', '16', '21'] 1843.3962264150953
176 36.867924528301884 ['32', '43', '53', '16', '21'] 1843.3962264150953
177 36.867924528301884 ['32', '43', '53', '16', '21'] 1843.3962264150953
178 36.867924528301884 ['32', '43', '53', '16', '21'] 1843.3962264150953
179 36.867924528301884 ['32', '43', '53', '16', '21'] 1843.3962264150953
180 36.867924528301884 ['32', '43', '53', '16', '21'] 1843.3962264150953
181 36.867924528301884 ['32', '43', '53', '16', '21'] 1843.3962264150953
182 36.867924528301884 ['32', '43', '53', '16', '21'] 1843.3962264150953
183 36.867924528301884 ['32', '43', '53', '16', '21'] 1843.3962264150953
184 36.867924528301884 ['32', '43', '53', '16', '21'] 1843.3962264150953
185 36.867924528301884 ['32', '43', '53', '16', '21'] 1843.3962264150953
186 36.867924528301884 ['32', '43', '53', '16', '21'] 1843.3962264150953
187 36.867924528301884 ['32', '43', '53', '16', '21'] 1843.3962264150953
188 36.867924528301884 ['32', '43', '53', '16', '21'] 1843.3962264150953
189 36.867924528301884 ['32', '43', '53', '16', '21'] 1843.3962264150953
190 36.867924528301884 ['32', '43', '53', '16', '21'] 1843.3962264150953
191 36.867924528301884 ['32', '43', '53', '16', '21'] 1843.3962264150953
192 36.867924528301884 ['32', '43', '53', '16', '21'] 1843.3962264150953
193 36.867924528301884 ['32', '43', '53', '16', '21'] 1843.3962264150953
194 36.867924528301884 ['32', '43', '53', '16', '21'] 1843.3962264150953
195 36.867924528301884 ['32', '43', '53', '16', '21'] 1843.3962264150953
196 36.867924528301884 ['32', '43', '53', '16', '21'] 1843.3962264150953
197 36.867924528301884 ['32', '43', '53', '16', '21'] 1843.3962264150953
198 36.867924528301884 ['32', '43', '53', '16', '21'] 1843.3962264150953
199 36.867924528301884 ['32', '43', '53', '16', '21'] 1843.3962264150953
