0 36.31818181818182 ['10', '2'] 1927.1818181818182
1 36.31818181818182 ['10', '2'] 1876.5000000000005
2 36.31818181818182 ['10', '2'] 1839.4090909090903
3 36.31818181818182 ['10', '2'] 1824.727272727273
4 36.31818181818182 ['10', '2'] 1815.9090909090903
5 36.31818181818182 ['10', '2'] 1815.9090909090903
6 36.31818181818182 ['10', '2'] 1815.9090909090903
7 36.31818181818182 ['10', '2'] 1815.9090909090903
8 36.31818181818182 ['10', '2'] 1815.9090909090903
9 36.31818181818182 ['10', '2'] 1815.9090909090903
10 36.31818181818182 ['10', '2'] 1815.9090909090903
11 36.31818181818182 ['10', '2'] 1815.9090909090903
12 36.31818181818182 ['10', '2'] 1815.9090909090903
13 36.31818181818182 ['10', '2'] 1815.9090909090903
14 36.31818181818182 ['10', '2'] 1815.9090909090903
15 36.31818181818182 ['10', '2'] 1815.9090909090903
16 36.31818181818182 ['10', '2'] 1815.9090909090903
17 36.31818181818182 ['10', '2'] 1815.9090909090903
18 36.31818181818182 ['10', '2'] 1815.9090909090903
19 36.31818181818182 ['10', '2'] 1815.9090909090903
20 36.31818181818182 ['10', '2'] 1815.9090909090903
21 36.31818181818182 ['10', '2'] 1815.9090909090903
22 36.31818181818182 ['10', '2'] 1815.9090909090903
23 36.31818181818182 ['10', '2'] 1815.9090909090903
24 36.31818181818182 ['10', '2'] 1815.9090909090903
25 36.31818181818182 ['10', '2'] 1815.9090909090903
26 36.31818181818182 ['10', '2'] 1815.9090909090903
27 36.31818181818182 ['10', '2'] 1815.9090909090903
28 36.31818181818182 ['10', '2'] 1815.9090909090903
29 36.31818181818182 ['10', '2'] 1815.9090909090903
30 36.31818181818182 ['10', '2'] 1815.9090909090903
31 36.31818181818182 ['10', '2'] 1815.9090909090903
32 36.31818181818182 ['10', '2'] 1815.9090909090903
33 36.31818181818182 ['10', '2'] 1815.9090909090903
34 36.31818181818182 ['10', '2'] 1815.9090909090903
35 36.31818181818182 ['10', '2'] 1815.9090909090903
36 36.31818181818182 ['10', '2'] 1815.9090909090903
37 36.31818181818182 ['10', '2'] 1815.9090909090903
38 36.31818181818182 ['10', '2'] 1815.9090909090903
39 36.31818181818182 ['10', '2'] 1815.9090909090903
40 36.31818181818182 ['10', '2'] 1815.9090909090903
41 36.31818181818182 ['10', '2'] 1815.9090909090903
42 36.31818181818182 ['10', '2'] 1815.9090909090903
43 36.31818181818182 ['10', '2'] 1815.9090909090903
44 36.31818181818182 ['10', '2'] 1815.9090909090903
45 36.31818181818182 ['10', '2'] 1815.9090909090903
46 36.31818181818182 ['10', '2'] 1815.9090909090903
47 36.31818181818182 ['10', '2'] 1815.9090909090903
48 36.31818181818182 ['10', '2'] 1815.9090909090903
49 36.31818181818182 ['10', '2'] 1815.9090909090903
50 36.31818181818182 ['10', '2'] 1815.9090909090903
51 36.31818181818182 ['10', '2'] 1815.9090909090903
52 36.31818181818182 ['10', '2'] 1815.9090909090903
53 36.31818181818182 ['10', '2'] 1815.9090909090903
54 36.31818181818182 ['10', '2'] 1815.9090909090903
55 36.31818181818182 ['10', '2'] 1815.9090909090903
56 36.31818181818182 ['10', '2'] 1815.9090909090903
57 36.31818181818182 ['10', '2'] 1815.9090909090903
58 36.31818181818182 ['10', '2'] 1815.9090909090903
59 36.31818181818182 ['10', '2'] 1815.9090909090903
60 36.31818181818182 ['10', '2'] 1815.9090909090903
61 36.31818181818182 ['10', '2'] 1815.9090909090903
62 36.31818181818182 ['10', '2'] 1815.9090909090903
63 36.31818181818182 ['10', '2'] 1815.9090909090903
64 36.31818181818182 ['10', '2'] 1815.9090909090903
65 36.31818181818182 ['10', '2'] 1815.9090909090903
66 36.31818181818182 ['10', '2'] 1815.9090909090903
67 36.31818181818182 ['10', '2'] 1815.9090909090903
68 36.31818181818182 ['10', '2'] 1815.9090909090903
69 36.31818181818182 ['10', '2'] 1815.9090909090903
70 36.31818181818182 ['10', '2'] 1815.9090909090903
71 36.31818181818182 ['10', '2'] 1815.9090909090903
72 36.31818181818182 ['10', '2'] 1815.9090909090903
73 36.31818181818182 ['10', '2'] 1815.9090909090903
74 36.31818181818182 ['10', '2'] 1815.9090909090903
75 36.31818181818182 ['10', '2'] 1815.9090909090903
76 36.31818181818182 ['10', '2'] 1815.9090909090903
77 36.31818181818182 ['10', '2'] 1815.9090909090903
78 36.31818181818182 ['10', '2'] 1815.9090909090903
79 36.31818181818182 ['10', '2'] 1815.9090909090903
80 36.31818181818182 ['10', '2'] 1815.9090909090903
81 36.31818181818182 ['10', '2'] 1815.9090909090903
82 36.31818181818182 ['10', '2'] 1815.9090909090903
83 36.31818181818182 ['10', '2'] 1815.9090909090903
84 36.31818181818182 ['10', '2'] 1815.9090909090903
85 36.31818181818182 ['10', '2'] 1815.9090909090903
86 36.31818181818182 ['10', '2'] 1815.9090909090903
87 36.31818181818182 ['10', '2'] 1815.9090909090903
88 36.31818181818182 ['10', '2'] 1815.9090909090903
89 36.31818181818182 ['10', '2'] 1815.9090909090903
90 36.31818181818182 ['10', '2'] 1815.9090909090903
91 36.31818181818182 ['10', '2'] 1815.9090909090903
92 36.31818181818182 ['10', '2'] 1815.9090909090903
93 36.31818181818182 ['10', '2'] 1815.9090909090903
94 36.31818181818182 ['10', '2'] 1815.9090909090903
95 36.31818181818182 ['10', '2'] 1815.9090909090903
96 36.31818181818182 ['10', '2'] 1815.9090909090903
97 36.31818181818182 ['10', '2'] 1815.9090909090903
98 36.31818181818182 ['10', '2'] 1815.9090909090903
99 36.31818181818182 ['10', '2'] 1815.9090909090903
100 36.31818181818182 ['10', '2'] 1815.9090909090903
101 36.31818181818182 ['10', '2'] 1815.9090909090903
102 36.31818181818182 ['10', '2'] 1815.9090909090903
103 36.31818181818182 ['10', '2'] 1815.9090909090903
104 36.31818181818182 ['10', '2'] 1815.9090909090903
105 36.31818181818182 ['10', '2'] 1815.9090909090903
106 36.31818181818182 ['10', '2'] 1815.9090909090903
107 36.31818181818182 ['10', '2'] 1815.9090909090903
108 36.31818181818182 ['10', '2'] 1815.9090909090903
109 36.31818181818182 ['10', '2'] 1815.9090909090903
110 36.31818181818182 ['10', '2'] 1815.9090909090903
111 36.31818181818182 ['10', '2'] 1815.9090909090903
112 36.31818181818182 ['10', '2'] 1815.9090909090903
113 36.31818181818182 ['10', '2'] 1815.9090909090903
114 36.31818181818182 ['10', '2'] 1815.9090909090903
115 36.31818181818182 ['10', '2'] 1815.9090909090903
116 36.31818181818182 ['10', '2'] 1815.9090909090903
117 36.31818181818182 ['10', '2'] 1815.9090909090903
118 36.31818181818182 ['10', '2'] 1815.9090909090903
119 36.31818181818182 ['10', '2'] 1815.9090909090903
120 36.31818181818182 ['10', '2'] 1815.9090909090903
121 36.31818181818182 ['10', '2'] 1815.9090909090903
122 36.31818181818182 ['10', '2'] 1815.9090909090903
123 36.31818181818182 ['10', '2'] 1815.9090909090903
124 36.31818181818182 ['10', '2'] 1815.9090909090903
125 36.31818181818182 ['10', '2'] 1815.9090909090903
126 36.31818181818182 ['10', '2'] 1815.9090909090903
127 36.31818181818182 ['10', '2'] 1815.9090909090903
128 36.31818181818182 ['10', '2'] 1815.9090909090903
129 36.31818181818182 ['10', '2'] 1815.9090909090903
130 36.31818181818182 ['10', '2'] 1815.9090909090903
131 36.31818181818182 ['10', '2'] 1815.9090909090903
132 36.31818181818182 ['10', '2'] 1815.9090909090903
133 36.31818181818182 ['10', '2'] 1815.9090909090903
134 36.31818181818182 ['10', '2'] 1815.9090909090903
135 36.31818181818182 ['10', '2'] 1815.9090909090903
136 36.31818181818182 ['10', '2'] 1815.9090909090903
137 36.31818181818182 ['10', '2'] 1815.9090909090903
138 36.31818181818182 ['10', '2'] 1815.9090909090903
139 36.31818181818182 ['10', '2'] 1815.9090909090903
140 36.31818181818182 ['10', '2'] 1815.9090909090903
141 36.31818181818182 ['10', '2'] 1815.9090909090903
142 36.31818181818182 ['10', '2'] 1815.9090909090903
143 36.31818181818182 ['10', '2'] 1815.9090909090903
144 36.31818181818182 ['10', '2'] 1815.9090909090903
145 36.31818181818182 ['10', '2'] 1815.9090909090903
146 36.31818181818182 ['10', '2'] 1815.9090909090903
147 36.31818181818182 ['10', '2'] 1815.9090909090903
148 36.31818181818182 ['10', '2'] 1815.9090909090903
149 36.31818181818182 ['10', '2'] 1815.9090909090903
150 36.31818181818182 ['10', '2'] 1815.9090909090903
151 36.31818181818182 ['10', '2'] 1815.9090909090903
152 36.31818181818182 ['10', '2'] 1815.9090909090903
153 36.31818181818182 ['10', '2'] 1815.9090909090903
154 36.31818181818182 ['10', '2'] 1815.9090909090903
155 36.31818181818182 ['10', '2'] 1815.9090909090903
156 36.31818181818182 ['10', '2'] 1815.9090909090903
157 36.31818181818182 ['10', '2'] 1815.9090909090903
158 36.31818181818182 ['10', '2'] 1815.9090909090903
159 36.31818181818182 ['10', '2'] 1815.9090909090903
160 36.31818181818182 ['10', '2'] 1815.9090909090903
161 36.31818181818182 ['10', '2'] 1815.9090909090903
162 36.31818181818182 ['10', '2'] 1815.9090909090903
163 36.31818181818182 ['10', '2'] 1815.9090909090903
164 36.31818181818182 ['10', '2'] 1815.9090909090903
165 36.31818181818182 ['10', '2'] 1815.9090909090903
166 36.31818181818182 ['10', '2'] 1815.9090909090903
167 36.31818181818182 ['10', '2'] 1815.9090909090903
168 36.31818181818182 ['10', '2'] 1815.9090909090903
169 36.31818181818182 ['10', '2'] 1815.9090909090903
170 36.31818181818182 ['10', '2'] 1815.9090909090903
171 36.31818181818182 ['10', '2'] 1815.9090909090903
172 36.31818181818182 ['10', '2'] 1815.9090909090903
173 36.31818181818182 ['10', '2'] 1815.9090909090903
174 36.31818181818182 ['10', '2'] 1815.9090909090903
175 36.31818181818182 ['10', '2'] 1815.9090909090903
176 36.31818181818182 ['10', '2'] 1815.9090909090903
177 36.31818181818182 ['10', '2'] 1815.9090909090903
178 36.31818181818182 ['10', '2'] 1815.9090909090903
179 36.31818181818182 ['10', '2'] 1815.9090909090903
180 36.31818181818182 ['10', '2'] 1815.9090909090903
181 36.31818181818182 ['10', '2'] 1815.9090909090903
182 36.31818181818182 ['10', '2'] 1815.9090909090903
183 36.31818181818182 ['10', '2'] 1815.9090909090903
184 36.31818181818182 ['10', '2'] 1815.9090909090903
185 36.31818181818182 ['10', '2'] 1815.9090909090903
186 36.31818181818182 ['10', '2'] 1815.9090909090903
187 36.31818181818182 ['10', '2'] 1815.9090909090903
188 36.31818181818182 ['10', '2'] 1815.9090909090903
189 36.31818181818182 ['10', '2'] 1815.9090909090903
190 36.31818181818182 ['10', '2'] 1815.9090909090903
191 36.31818181818182 ['10', '2'] 1815.9090909090903
192 36.31818181818182 ['10', '2'] 1815.9090909090903
193 36.31818181818182 ['10', '2'] 1815.9090909090903
194 36.31818181818182 ['10', '2'] 1815.9090909090903
195 36.31818181818182 ['10', '2'] 1815.9090909090903
196 36.31818181818182 ['10', '2'] 1815.9090909090903
197 36.31818181818182 ['10', '2'] 1815.9090909090903
198 36.31818181818182 ['10', '2'] 1815.9090909090903
199 36.31818181818182 ['10', '2'] 1815.9090909090903
