0 35.75438596491228 ['19', '35', '8', '23', '45', '52'] 1877.8245614035084
1 35.75438596491228 ['19', '35', '8', '23', '45', '52'] 1851.4561403508774
2 34.59649122807018 ['17', '52', '59', '30', '33', '35'] 1830.2807017543867
3 34.333333333333336 ['17', '25', '35', '20', '59', '8'] 1809.7017543859647
4 34.333333333333336 ['17', '25', '35', '20', '59', '8'] 1781.298245614035
5 33.87719298245614 ['8', '35', '17', '52', '29', '59'] 1755.6315789473683
6 33.64912280701754 ['35', '59', '8', '14', '17', '20'] 1735.3684210526314
7 33.64912280701754 ['35', '59', '8', '14', '17', '20'] 1720.5964912280701
8 33.64912280701754 ['35', '59', '8', '14', '17', '20'] 1707.0175438596498
9 33.421052631578945 ['17', '35', '8', '52', '14', '62'] 1697.1052631578946
10 33.421052631578945 ['17', '35', '8', '52', '14', '62'] 1690.9122807017545
11 33.421052631578945 ['17', '35', '8', '52', '14', '62'] 1685.0000000000007
12 33.421052631578945 ['17', '35', '8', '52', '14', '62'] 1678.9649122807027
13 33.421052631578945 ['17', '35', '8', '52', '14', '62'] 1674.824561403509
14 33.421052631578945 ['17', '35', '8', '52', '14', '62'] 1672.4736842105276
15 33.421052631578945 ['17', '35', '8', '52', '14', '62'] 1671.2105263157896
16 33.421052631578945 ['17', '35', '8', '52', '14', '62'] 1671.0526315789477
17 33.421052631578945 ['17', '35', '8', '52', '14', '62'] 1671.0526315789477
18 33.421052631578945 ['17', '35', '8', '52', '14', '62'] 1671.0526315789477
19 33.421052631578945 ['17', '35', '8', '52', '14', '62'] 1671.0526315789477
20 33.421052631578945 ['17', '35', '8', '52', '14', '62'] 1671.0526315789477
21 33.421052631578945 ['17', '35', '8', '52', '14', '62'] 1671.0526315789477
22 33.421052631578945 ['17', '35', '8', '52', '14', '62'] 1671.0526315789477
23 33.421052631578945 ['17', '35', '8', '52', '14', '62'] 1671.0526315789477
24 33.421052631578945 ['17', '35', '8', '52', '14', '62'] 1671.0526315789477
25 33.421052631578945 ['17', '35', '8', '52', '14', '62'] 1671.0526315789477
26 33.421052631578945 ['17', '35', '8', '52', '14', '62'] 1671.0526315789477
27 33.421052631578945 ['17', '35', '8', '52', '14', '62'] 1671.0526315789477
28 33.421052631578945 ['17', '35', '8', '52', '14', '62'] 1671.0526315789477
29 33.421052631578945 ['17', '35', '8', '52', '14', '62'] 1671.0526315789477
30 33.421052631578945 ['17', '35', '8', '52', '14', '62'] 1671.0526315789477
31 33.421052631578945 ['17', '35', '8', '52', '14', '62'] 1671.0526315789477
32 33.421052631578945 ['17', '35', '8', '52', '14', '62'] 1671.0526315789477
33 33.421052631578945 ['17', '35', '8', '52', '14', '62'] 1671.0526315789477
34 33.421052631578945 ['17', '35', '8', '52', '14', '62'] 1671.0526315789477
35 33.421052631578945 ['17', '35', '8', '52', '14', '62'] 1671.0526315789477
36 33.421052631578945 ['17', '35', '8', '52', '14', '62'] 1671.0526315789477
37 33.421052631578945 ['17', '35', '8', '52', '14', '62'] 1671.0526315789477
38 33.421052631578945 ['17', '35', '8', '52', '14', '62'] 1671.0526315789477
39 33.421052631578945 ['17', '35', '8', '52', '14', '62'] 1671.0526315789477
40 33.421052631578945 ['17', '35', '8', '52', '14', '62'] 1671.0526315789477
41 33.421052631578945 ['17', '35', '8', '52', '14', '62'] 1671.0526315789477
42 33.421052631578945 ['17', '35', '8', '52', '14', '62'] 1671.0526315789477
43 33.421052631578945 ['17', '35', '8', '52', '14', '62'] 1671.0526315789477
44 33.421052631578945 ['17', '35', '8', '52', '14', '62'] 1671.0526315789477
45 33.421052631578945 ['17', '35', '8', '52', '14', '62'] 1671.0526315789477
46 33.421052631578945 ['17', '35', '8', '52', '14', '62'] 1671.0526315789477
47 33.421052631578945 ['17', '35', '8', '52', '14', '62'] 1671.0526315789477
48 33.421052631578945 ['17', '35', '8', '52', '14', '62'] 1671.0526315789477
49 33.421052631578945 ['17', '35', '8', '52', '14', '62'] 1671.0526315789477
50 33.421052631578945 ['17', '35', '8', '52', '14', '62'] 1671.0526315789477
51 33.421052631578945 ['17', '35', '8', '52', '14', '62'] 1671.0526315789477
52 33.421052631578945 ['17', '35', '8', '52', '14', '62'] 1671.0526315789477
53 33.421052631578945 ['17', '35', '8', '52', '14', '62'] 1671.0526315789477
54 33.421052631578945 ['17', '35', '8', '52', '14', '62'] 1671.0526315789477
55 33.421052631578945 ['17', '35', '8', '52', '14', '62'] 1671.0526315789477
56 33.421052631578945 ['17', '35', '8', '52', '14', '62'] 1671.0526315789477
57 33.421052631578945 ['17', '35', '8', '52', '14', '62'] 1671.0526315789477
58 33.421052631578945 ['17', '35', '8', '52', '14', '62'] 1671.0526315789477
59 33.421052631578945 ['17', '35', '8', '52', '14', '62'] 1671.0526315789477
60 33.421052631578945 ['17', '35', '8', '52', '14', '62'] 1671.0526315789477
61 33.421052631578945 ['17', '35', '8', '52', '14', '62'] 1671.0526315789477
62 33.421052631578945 ['17', '35', '8', '52', '14', '62'] 1671.0526315789477
63 33.421052631578945 ['17', '35', '8', '52', '14', '62'] 1671.0526315789477
64 33.421052631578945 ['17', '35', '8', '52', '14', '62'] 1671.0526315789477
65 33.421052631578945 ['17', '35', '8', '52', '14', '62'] 1671.0526315789477
66 33.421052631578945 ['17', '35', '8', '52', '14', '62'] 1671.0526315789477
67 33.421052631578945 ['17', '35', '8', '52', '14', '62'] 1671.0526315789477
68 33.421052631578945 ['17', '35', '8', '52', '14', '62'] 1671.0526315789477
69 33.421052631578945 ['17', '35', '8', '52', '14', '62'] 1671.0526315789477
70 33.421052631578945 ['17', '35', '8', '52', '14', '62'] 1671.0526315789477
71 33.421052631578945 ['17', '35', '8', '52', '14', '62'] 1671.0526315789477
72 33.421052631578945 ['17', '35', '8', '52', '14', '62'] 1671.0526315789477
73 33.421052631578945 ['17', '35', '8', '52', '14', '62'] 1671.0526315789477
74 33.421052631578945 ['17', '35', '8', '52', '14', '62'] 1671.0526315789477
75 33.421052631578945 ['17', '35', '8', '52', '14', '62'] 1671.0526315789477
76 33.421052631578945 ['17', '35', '8', '52', '14', '62'] 1671.0526315789477
77 33.421052631578945 ['17', '35', '8', '52', '14', '62'] 1671.0526315789477
78 33.421052631578945 ['17', '35', '8', '52', '14', '62'] 1671.0526315789477
79 33.421052631578945 ['17', '35', '8', '52', '14', '62'] 1671.0526315789477
80 33.421052631578945 ['17', '35', '8', '52', '14', '62'] 1671.0526315789477
81 33.421052631578945 ['17', '35', '8', '52', '14', '62'] 1671.0526315789477
82 33.421052631578945 ['17', '35', '8', '52', '14', '62'] 1671.0526315789477
83 33.421052631578945 ['17', '35', '8', '52', '14', '62'] 1671.0526315789477
84 33.421052631578945 ['17', '35', '8', '52', '14', '62'] 1671.0526315789477
85 33.421052631578945 ['17', '35', '8', '52', '14', '62'] 1671.0526315789477
86 33.421052631578945 ['17', '35', '8', '52', '14', '62'] 1671.0526315789477
87 33.421052631578945 ['17', '35', '8', '52', '14', '62'] 1671.0526315789477
88 33.421052631578945 ['17', '35', '8', '52', '14', '62'] 1671.0526315789477
89 33.421052631578945 ['17', '35', '8', '52', '14', '62'] 1671.0526315789477
90 33.421052631578945 ['17', '35', '8', '52', '14', '62'] 1671.0526315789477
91 33.421052631578945 ['17', '35', '8', '52', '14', '62'] 1671.0526315789477
92 33.421052631578945 ['17', '35', '8', '52', '14', '62'] 1671.0526315789477
93 33.421052631578945 ['17', '35', '8', '52', '14', '62'] 1671.0526315789477
94 33.421052631578945 ['17', '35', '8', '52', '14', '62'] 1671.0526315789477
95 33.421052631578945 ['17', '35', '8', '52', '14', '62'] 1671.0526315789477
96 33.421052631578945 ['17', '35', '8', '52', '14', '62'] 1671.0526315789477
97 33.421052631578945 ['17', '35', '8', '52', '14', '62'] 1671.0526315789477
98 33.421052631578945 ['17', '35', '8', '52', '14', '62'] 1671.0526315789477
99 33.421052631578945 ['17', '35', '8', '52', '14', '62'] 1671.0526315789477
100 33.421052631578945 ['17', '35', '8', '52', '14', '62'] 1671.0526315789477
101 33.421052631578945 ['17', '35', '8', '52', '14', '62'] 1671.0526315789477
102 33.421052631578945 ['17', '35', '8', '52', '14', '62'] 1671.0526315789477
103 33.421052631578945 ['17', '35', '8', '52', '14', '62'] 1671.0526315789477
104 33.421052631578945 ['17', '35', '8', '52', '14', '62'] 1671.0526315789477
105 33.421052631578945 ['17', '35', '8', '52', '14', '62'] 1671.0526315789477
106 33.421052631578945 ['17', '35', '8', '52', '14', '62'] 1671.0526315789477
107 33.421052631578945 ['17', '35', '8', '52', '14', '62'] 1671.0526315789477
108 33.421052631578945 ['17', '35', '8', '52', '14', '62'] 1671.0526315789477
109 33.421052631578945 ['17', '35', '8', '52', '14', '62'] 1671.0526315789477
110 33.421052631578945 ['17', '35', '8', '52', '14', '62'] 1671.0526315789477
111 33.421052631578945 ['17', '35', '8', '52', '14', '62'] 1671.0526315789477
112 33.421052631578945 ['17', '35', '8', '52', '14', '62'] 1671.0526315789477
113 33.421052631578945 ['17', '35', '8', '52', '14', '62'] 1671.0526315789477
114 33.421052631578945 ['17', '35', '8', '52', '14', '62'] 1671.0526315789477
115 33.421052631578945 ['17', '35', '8', '52', '14', '62'] 1671.0526315789477
116 33.421052631578945 ['17', '35', '8', '52', '14', '62'] 1671.0526315789477
117 33.421052631578945 ['17', '35', '8', '52', '14', '62'] 1671.0526315789477
118 33.421052631578945 ['17', '35', '8', '52', '14', '62'] 1671.0526315789477
119 33.421052631578945 ['17', '35', '8', '52', '14', '62'] 1671.0526315789477
120 33.421052631578945 ['17', '35', '8', '52', '14', '62'] 1671.0526315789477
121 33.421052631578945 ['17', '35', '8', '52', '14', '62'] 1671.0526315789477
122 33.421052631578945 ['17', '35', '8', '52', '14', '62'] 1671.0526315789477
123 33.421052631578945 ['17', '35', '8', '52', '14', '62'] 1671.0526315789477
124 33.421052631578945 ['17', '35', '8', '52', '14', '62'] 1671.0526315789477
125 33.421052631578945 ['17', '35', '8', '52', '14', '62'] 1671.0526315789477
126 33.421052631578945 ['17', '35', '8', '52', '14', '62'] 1671.0526315789477
127 33.421052631578945 ['17', '35', '8', '52', '14', '62'] 1671.0526315789477
128 33.421052631578945 ['17', '35', '8', '52', '14', '62'] 1671.0526315789477
129 33.421052631578945 ['17', '35', '8', '52', '14', '62'] 1671.0526315789477
130 33.421052631578945 ['17', '35', '8', '52', '14', '62'] 1671.0526315789477
131 33.421052631578945 ['17', '35', '8', '52', '14', '62'] 1671.0526315789477
132 33.421052631578945 ['17', '35', '8', '52', '14', '62'] 1671.0526315789477
133 33.421052631578945 ['17', '35', '8', '52', '14', '62'] 1671.0526315789477
134 33.421052631578945 ['17', '35', '8', '52', '14', '62'] 1671.0526315789477
135 33.421052631578945 ['17', '35', '8', '52', '14', '62'] 1671.0526315789477
136 33.421052631578945 ['17', '35', '8', '52', '14', '62'] 1671.0526315789477
137 33.421052631578945 ['17', '35', '8', '52', '14', '62'] 1671.0526315789477
138 33.421052631578945 ['17', '35', '8', '52', '14', '62'] 1671.0526315789477
139 33.421052631578945 ['17', '35', '8', '52', '14', '62'] 1671.0526315789477
140 33.421052631578945 ['17', '35', '8', '52', '14', '62'] 1671.0526315789477
141 33.421052631578945 ['17', '35', '8', '52', '14', '62'] 1671.0526315789477
142 33.421052631578945 ['17', '35', '8', '52', '14', '62'] 1671.0526315789477
143 33.421052631578945 ['17', '35', '8', '52', '14', '62'] 1671.0526315789477
144 33.421052631578945 ['17', '35', '8', '52', '14', '62'] 1671.0526315789477
145 33.421052631578945 ['17', '35', '8', '52', '14', '62'] 1671.0526315789477
146 33.421052631578945 ['17', '35', '8', '52', '14', '62'] 1671.0526315789477
147 33.421052631578945 ['17', '35', '8', '52', '14', '62'] 1671.0526315789477
148 33.421052631578945 ['17', '35', '8', '52', '14', '62'] 1671.0526315789477
149 33.421052631578945 ['17', '35', '8', '52', '14', '62'] 1671.0526315789477
150 33.421052631578945 ['17', '35', '8', '52', '14', '62'] 1671.0526315789477
151 33.421052631578945 ['17', '35', '8', '52', '14', '62'] 1671.0526315789477
152 33.421052631578945 ['17', '35', '8', '52', '14', '62'] 1671.0526315789477
153 33.421052631578945 ['17', '35', '8', '52', '14', '62'] 1671.0526315789477
154 33.421052631578945 ['17', '35', '8', '52', '14', '62'] 1671.0526315789477
155 33.421052631578945 ['17', '35', '8', '52', '14', '62'] 1671.0526315789477
156 33.421052631578945 ['17', '35', '8', '52', '14', '62'] 1671.0526315789477
157 33.421052631578945 ['17', '35', '8', '52', '14', '62'] 1671.0526315789477
158 33.421052631578945 ['17', '35', '8', '52', '14', '62'] 1671.0526315789477
159 33.421052631578945 ['17', '35', '8', '52', '14', '62'] 1671.0526315789477
160 33.421052631578945 ['17', '35', '8', '52', '14', '62'] 1671.0526315789477
161 33.421052631578945 ['17', '35', '8', '52', '14', '62'] 1671.0526315789477
162 33.421052631578945 ['17', '35', '8', '52', '14', '62'] 1671.0526315789477
163 33.421052631578945 ['17', '35', '8', '52', '14', '62'] 1671.0526315789477
164 33.421052631578945 ['17', '35', '8', '52', '14', '62'] 1671.0526315789477
165 33.421052631578945 ['17', '35', '8', '52', '14', '62'] 1671.0526315789477
166 33.421052631578945 ['17', '35', '8', '52', '14', '62'] 1671.0526315789477
167 33.421052631578945 ['17', '35', '8', '52', '14', '62'] 1671.0526315789477
168 33.421052631578945 ['17', '35', '8', '52', '14', '62'] 1671.0526315789477
169 33.421052631578945 ['17', '35', '8', '52', '14', '62'] 1671.0526315789477
170 33.421052631578945 ['17', '35', '8', '52', '14', '62'] 1671.0526315789477
171 33.421052631578945 ['17', '35', '8', '52', '14', '62'] 1671.0526315789477
172 33.421052631578945 ['17', '35', '8', '52', '14', '62'] 1671.0526315789477
173 33.421052631578945 ['17', '35', '8', '52', '14', '62'] 1671.0526315789477
174 33.421052631578945 ['17', '35', '8', '52', '14', '62'] 1671.0526315789477
175 33.421052631578945 ['17', '35', '8', '52', '14', '62'] 1671.0526315789477
176 33.421052631578945 ['17', '35', '8', '52', '14', '62'] 1671.0526315789477
177 33.421052631578945 ['17', '35', '8', '52', '14', '62'] 1671.0526315789477
178 33.421052631578945 ['17', '35', '8', '52', '14', '62'] 1671.0526315789477
179 33.421052631578945 ['17', '35', '8', '52', '14', '62'] 1671.0526315789477
180 33.421052631578945 ['17', '35', '8', '52', '14', '62'] 1671.0526315789477
181 33.421052631578945 ['17', '35', '8', '52', '14', '62'] 1671.0526315789477
182 33.421052631578945 ['17', '35', '8', '52', '14', '62'] 1671.0526315789477
183 33.421052631578945 ['17', '35', '8', '52', '14', '62'] 1671.0526315789477
184 33.421052631578945 ['17', '35', '8', '52', '14', '62'] 1671.0526315789477
185 33.421052631578945 ['17', '35', '8', '52', '14', '62'] 1671.0526315789477
186 33.421052631578945 ['17', '35', '8', '52', '14', '62'] 1671.0526315789477
187 33.421052631578945 ['17', '35', '8', '52', '14', '62'] 1671.0526315789477
188 33.421052631578945 ['17', '35', '8', '52', '14', '62'] 1671.0526315789477
189 33.421052631578945 ['17', '35', '8', '52', '14', '62'] 1671.0526315789477
190 33.421052631578945 ['17', '35', '8', '52', '14', '62'] 1671.0526315789477
191 33.421052631578945 ['17', '35', '8', '52', '14', '62'] 1671.0526315789477
192 33.421052631578945 ['17', '35', '8', '52', '14', '62'] 1671.0526315789477
193 33.421052631578945 ['17', '35', '8', '52', '14', '62'] 1671.0526315789477
194 33.421052631578945 ['17', '35', '8', '52', '14', '62'] 1671.0526315789477
195 33.421052631578945 ['17', '35', '8', '52', '14', '62'] 1671.0526315789477
196 33.421052631578945 ['17', '35', '8', '52', '14', '62'] 1671.0526315789477
197 33.421052631578945 ['17', '35', '8', '52', '14', '62'] 1671.0526315789477
198 33.421052631578945 ['17', '35', '8', '52', '14', '62'] 1671.0526315789477
199 33.421052631578945 ['17', '35', '8', '52', '14', '62'] 1671.0526315789477
