0 148.64285714285714 ['24', '44', '11', '43', '5', '49'] 7633.321428571428
1 146.46428571428572 ['56', '36', '43', '40', '34', '32'] 7526.464285714286
2 143.41071428571428 ['1', '62', '41', '43', '49', '24'] 7456.821428571425
3 143.41071428571428 ['1', '62', '41', '43', '49', '24'] 7359.214285714286
4 140.19642857142858 ['62', '24', '43', '9', '1', '41'] 7263.951754385963
5 138.94827586206895 ['24', '34', '9', '1'] 7171.222085385877
6 138.68421052631578 ['24', '62', '43', '45', '56'] 7114.667260824476
7 133.3793103448276 ['24', '9', '43', '1'] 7047.70321277331
8 133.3793103448276 ['24', '9', '43', '1'] 6979.314525537981
9 133.3793103448276 ['24', '9', '43', '1'] 6900.40655280076
10 130.72881355932202 ['24', '43', '60'] 6791.824136978917
11 127.42622950819673 ['24'] 6645.882366631719
12 127.42622950819673 ['24'] 6505.646793010835
13 127.42622950819673 ['24'] 6400.949930536256
14 127.42622950819673 ['24'] 6374.846994535523
15 127.42622950819673 ['24'] 6371.311475409842
16 127.42622950819673 ['24'] 6371.311475409842
17 127.42622950819673 ['24'] 6371.311475409842
18 127.42622950819673 ['24'] 6371.311475409842
19 127.42622950819673 ['24'] 6371.311475409842
20 127.42622950819673 ['24'] 6371.311475409842
21 127.42622950819673 ['24'] 6371.311475409842
22 127.42622950819673 ['24'] 6371.311475409842
23 127.42622950819673 ['24'] 6371.311475409842
24 127.42622950819673 ['24'] 6371.311475409842
25 127.42622950819673 ['24'] 6371.311475409842
26 127.42622950819673 ['24'] 6371.311475409842
27 127.42622950819673 ['24'] 6371.311475409842
28 127.42622950819673 ['24'] 6371.311475409842
29 127.42622950819673 ['24'] 6371.311475409842
30 127.42622950819673 ['24'] 6371.311475409842
31 127.42622950819673 ['24'] 6371.311475409842
32 127.42622950819673 ['24'] 6371.311475409842
33 127.42622950819673 ['24'] 6371.311475409842
34 127.42622950819673 ['24'] 6371.311475409842
35 127.42622950819673 ['24'] 6371.311475409842
36 127.42622950819673 ['24'] 6371.311475409842
37 127.42622950819673 ['24'] 6371.311475409842
38 127.42622950819673 ['24'] 6371.311475409842
39 127.42622950819673 ['24'] 6371.311475409842
40 127.42622950819673 ['24'] 6371.311475409842
41 127.42622950819673 ['24'] 6371.311475409842
42 127.42622950819673 ['24'] 6371.311475409842
43 127.42622950819673 ['24'] 6371.311475409842
44 127.42622950819673 ['24'] 6371.311475409842
45 127.42622950819673 ['24'] 6371.311475409842
46 127.42622950819673 ['24'] 6371.311475409842
47 127.42622950819673 ['24'] 6371.311475409842
48 127.42622950819673 ['24'] 6371.311475409842
49 127.42622950819673 ['24'] 6371.311475409842
50 127.42622950819673 ['24'] 6371.311475409842
51 127.42622950819673 ['24'] 6371.311475409842
52 127.42622950819673 ['24'] 6371.311475409842
53 127.42622950819673 ['24'] 6371.311475409842
54 127.42622950819673 ['24'] 6371.311475409842
55 127.42622950819673 ['24'] 6371.311475409842
56 127.42622950819673 ['24'] 6371.311475409842
57 127.42622950819673 ['24'] 6371.311475409842
58 127.42622950819673 ['24'] 6371.311475409842
59 127.42622950819673 ['24'] 6371.311475409842
60 127.42622950819673 ['24'] 6371.311475409842
61 127.42622950819673 ['24'] 6371.311475409842
62 127.42622950819673 ['24'] 6371.311475409842
63 127.42622950819673 ['24'] 6371.311475409842
64 127.42622950819673 ['24'] 6371.311475409842
65 127.42622950819673 ['24'] 6371.311475409842
66 127.42622950819673 ['24'] 6371.311475409842
67 127.42622950819673 ['24'] 6371.311475409842
68 127.42622950819673 ['24'] 6371.311475409842
69 127.42622950819673 ['24'] 6371.311475409842
70 127.42622950819673 ['24'] 6371.311475409842
71 127.42622950819673 ['24'] 6371.311475409842
72 127.42622950819673 ['24'] 6371.311475409842
73 127.42622950819673 ['24'] 6371.311475409842
74 127.42622950819673 ['24'] 6371.311475409842
75 127.42622950819673 ['24'] 6371.311475409842
76 127.42622950819673 ['24'] 6371.311475409842
77 127.42622950819673 ['24'] 6371.311475409842
78 127.42622950819673 ['24'] 6371.311475409842
79 127.42622950819673 ['24'] 6371.311475409842
80 127.42622950819673 ['24'] 6371.311475409842
81 127.42622950819673 ['24'] 6371.311475409842
82 127.42622950819673 ['24'] 6371.311475409842
83 127.42622950819673 ['24'] 6371.311475409842
84 127.42622950819673 ['24'] 6371.311475409842
85 127.42622950819673 ['24'] 6371.311475409842
86 127.42622950819673 ['24'] 6371.311475409842
87 127.42622950819673 ['24'] 6371.311475409842
88 127.42622950819673 ['24'] 6371.311475409842
89 127.42622950819673 ['24'] 6371.311475409842
90 127.42622950819673 ['24'] 6371.311475409842
91 127.42622950819673 ['24'] 6371.311475409842
92 127.42622950819673 ['24'] 6371.311475409842
93 127.42622950819673 ['24'] 6371.311475409842
94 127.42622950819673 ['24'] 6371.311475409842
95 127.42622950819673 ['24'] 6371.311475409842
96 127.42622950819673 ['24'] 6371.311475409842
97 127.42622950819673 ['24'] 6371.311475409842
98 127.42622950819673 ['24'] 6371.311475409842
99 127.42622950819673 ['24'] 6371.311475409842
100 127.42622950819673 ['24'] 6371.311475409842
101 127.42622950819673 ['24'] 6371.311475409842
102 127.42622950819673 ['24'] 6371.311475409842
103 127.42622950819673 ['24'] 6371.311475409842
104 127.42622950819673 ['24'] 6371.311475409842
105 127.42622950819673 ['24'] 6371.311475409842
106 127.42622950819673 ['24'] 6371.311475409842
107 127.42622950819673 ['24'] 6371.311475409842
108 127.42622950819673 ['24'] 6371.311475409842
109 127.42622950819673 ['24'] 6371.311475409842
110 127.42622950819673 ['24'] 6371.311475409842
111 127.42622950819673 ['24'] 6371.311475409842
112 127.42622950819673 ['24'] 6371.311475409842
113 127.42622950819673 ['24'] 6371.311475409842
114 127.42622950819673 ['24'] 6371.311475409842
115 127.42622950819673 ['24'] 6371.311475409842
116 127.42622950819673 ['24'] 6371.311475409842
117 127.42622950819673 ['24'] 6371.311475409842
118 127.42622950819673 ['24'] 6371.311475409842
119 127.42622950819673 ['24'] 6371.311475409842
120 127.42622950819673 ['24'] 6371.311475409842
121 127.42622950819673 ['24'] 6371.311475409842
122 127.42622950819673 ['24'] 6371.311475409842
123 127.42622950819673 ['24'] 6371.311475409842
124 127.42622950819673 ['24'] 6371.311475409842
125 127.42622950819673 ['24'] 6371.311475409842
126 127.42622950819673 ['24'] 6371.311475409842
127 127.42622950819673 ['24'] 6371.311475409842
128 127.42622950819673 ['24'] 6371.311475409842
129 127.42622950819673 ['24'] 6371.311475409842
130 127.42622950819673 ['24'] 6371.311475409842
131 127.42622950819673 ['24'] 6371.311475409842
132 127.42622950819673 ['24'] 6371.311475409842
133 127.42622950819673 ['24'] 6371.311475409842
134 127.42622950819673 ['24'] 6371.311475409842
135 127.42622950819673 ['24'] 6371.311475409842
136 127.42622950819673 ['24'] 6371.311475409842
137 127.42622950819673 ['24'] 6371.311475409842
138 127.42622950819673 ['24'] 6371.311475409842
139 127.42622950819673 ['24'] 6371.311475409842
140 127.42622950819673 ['24'] 6371.311475409842
141 127.42622950819673 ['24'] 6371.311475409842
142 127.42622950819673 ['24'] 6371.311475409842
143 127.42622950819673 ['24'] 6371.311475409842
144 127.42622950819673 ['24'] 6371.311475409842
145 127.42622950819673 ['24'] 6371.311475409842
146 127.42622950819673 ['24'] 6371.311475409842
147 127.42622950819673 ['24'] 6371.311475409842
148 127.42622950819673 ['24'] 6371.311475409842
149 127.42622950819673 ['24'] 6371.311475409842
150 127.42622950819673 ['24'] 6371.311475409842
151 127.42622950819673 ['24'] 6371.311475409842
152 127.42622950819673 ['24'] 6371.311475409842
153 127.42622950819673 ['24'] 6371.311475409842
154 127.42622950819673 ['24'] 6371.311475409842
155 127.42622950819673 ['24'] 6371.311475409842
156 127.42622950819673 ['24'] 6371.311475409842
157 127.42622950819673 ['24'] 6371.311475409842
158 127.42622950819673 ['24'] 6371.311475409842
159 127.42622950819673 ['24'] 6371.311475409842
160 127.42622950819673 ['24'] 6371.311475409842
161 127.42622950819673 ['24'] 6371.311475409842
162 127.42622950819673 ['24'] 6371.311475409842
163 127.42622950819673 ['24'] 6371.311475409842
164 127.42622950819673 ['24'] 6371.311475409842
165 127.42622950819673 ['24'] 6371.311475409842
166 127.42622950819673 ['24'] 6371.311475409842
167 127.42622950819673 ['24'] 6371.311475409842
168 127.42622950819673 ['24'] 6371.311475409842
169 127.42622950819673 ['24'] 6371.311475409842
170 127.42622950819673 ['24'] 6371.311475409842
171 127.42622950819673 ['24'] 6371.311475409842
172 127.42622950819673 ['24'] 6371.311475409842
173 127.42622950819673 ['24'] 6371.311475409842
174 127.42622950819673 ['24'] 6371.311475409842
175 127.42622950819673 ['24'] 6371.311475409842
176 127.42622950819673 ['24'] 6371.311475409842
177 127.42622950819673 ['24'] 6371.311475409842
178 127.42622950819673 ['24'] 6371.311475409842
179 127.42622950819673 ['24'] 6371.311475409842
180 127.42622950819673 ['24'] 6371.311475409842
181 127.42622950819673 ['24'] 6371.311475409842
182 127.42622950819673 ['24'] 6371.311475409842
183 127.42622950819673 ['24'] 6371.311475409842
184 127.42622950819673 ['24'] 6371.311475409842
185 127.42622950819673 ['24'] 6371.311475409842
186 127.42622950819673 ['24'] 6371.311475409842
187 127.42622950819673 ['24'] 6371.311475409842
188 127.42622950819673 ['24'] 6371.311475409842
189 127.42622950819673 ['24'] 6371.311475409842
190 127.42622950819673 ['24'] 6371.311475409842
191 127.42622950819673 ['24'] 6371.311475409842
192 127.42622950819673 ['24'] 6371.311475409842
193 127.42622950819673 ['24'] 6371.311475409842
194 127.42622950819673 ['24'] 6371.311475409842
195 127.42622950819673 ['24'] 6371.311475409842
196 127.42622950819673 ['24'] 6371.311475409842
197 127.42622950819673 ['24'] 6371.311475409842
198 127.42622950819673 ['24'] 6371.311475409842
199 127.42622950819673 ['24'] 6371.311475409842
