0 245.18 ['6', '54', '24', '37', '39'] 13045.840000000007
1 245.08 ['1', '54', '22', '6', '12'] 12820.519999999999
2 241.62 ['1', '14', '22', '38', '7'] 12606.68
3 236.64 ['38', '31', '8', '37', '6'] 12390.2
4 232.9 ['22', '38', '24', '1', '37'] 12165.500000000002
5 229.62 ['22', '38', '6', '37', '1'] 11958.96
6 228.74 ['37', '6', '22', '1', '39'] 11762.68000000001
7 226.74 ['37', '1', '31', '38', '24'] 11629.439999999999
8 226.74 ['37', '1', '31', '38', '24'] 11498.925490196076
9 226.74 ['37', '1', '31', '38', '24'] 11445.938823529412
10 225.56 ['1', '37', '38', '39', '31'] 11394.723921568628
11 225.56 ['1', '37', '38', '39', '31'] 11352.159999999996
12 225.56 ['1', '37', '38', '39', '31'] 11335.059999999992
13 225.56 ['1', '37', '38', '39', '31'] 11331.099999999991
14 225.56 ['1', '37', '38', '39', '31'] 11322.839999999993
15 225.56 ['1', '37', '38', '39', '31'] 11314.579999999993
16 225.56 ['1', '37', '38', '39', '31'] 11288.620000000003
17 225.56 ['1', '37', '38', '39', '31'] 11278.0
18 225.56 ['1', '37', '38', '39', '31'] 11278.0
19 225.56 ['1', '37', '38', '39', '31'] 11278.0
20 225.56 ['1', '37', '38', '39', '31'] 11278.0
21 225.56 ['1', '37', '38', '39', '31'] 11278.0
22 225.56 ['1', '37', '38', '39', '31'] 11278.0
23 225.56 ['1', '37', '38', '39', '31'] 11278.0
24 225.56 ['1', '37', '38', '39', '31'] 11278.0
25 225.56 ['1', '37', '38', '39', '31'] 11278.0
26 225.56 ['1', '37', '38', '39', '31'] 11278.0
27 225.56 ['1', '37', '38', '39', '31'] 11278.0
28 225.56 ['1', '37', '38', '39', '31'] 11278.0
29 225.56 ['1', '37', '38', '39', '31'] 11278.0
30 225.56 ['1', '37', '38', '39', '31'] 11278.0
31 225.56 ['1', '37', '38', '39', '31'] 11278.0
32 225.56 ['1', '37', '38', '39', '31'] 11278.0
33 225.56 ['1', '37', '38', '39', '31'] 11278.0
34 225.56 ['1', '37', '38', '39', '31'] 11278.0
35 225.56 ['1', '37', '38', '39', '31'] 11278.0
36 225.56 ['1', '37', '38', '39', '31'] 11278.0
37 225.56 ['1', '37', '38', '39', '31'] 11278.0
38 225.56 ['1', '37', '38', '39', '31'] 11278.0
39 225.56 ['1', '37', '38', '39', '31'] 11278.0
40 225.56 ['1', '37', '38', '39', '31'] 11278.0
41 225.56 ['1', '37', '38', '39', '31'] 11278.0
42 225.56 ['1', '37', '38', '39', '31'] 11278.0
43 225.56 ['1', '37', '38', '39', '31'] 11278.0
44 225.56 ['1', '37', '38', '39', '31'] 11278.0
45 225.56 ['1', '37', '38', '39', '31'] 11278.0
46 225.56 ['1', '37', '38', '39', '31'] 11278.0
47 225.56 ['1', '37', '38', '39', '31'] 11278.0
48 225.56 ['1', '37', '38', '39', '31'] 11278.0
49 225.56 ['1', '37', '38', '39', '31'] 11278.0
50 225.56 ['1', '37', '38', '39', '31'] 11278.0
51 225.56 ['1', '37', '38', '39', '31'] 11278.0
52 225.56 ['1', '37', '38', '39', '31'] 11278.0
53 225.56 ['1', '37', '38', '39', '31'] 11278.0
54 225.56 ['1', '37', '38', '39', '31'] 11278.0
55 225.56 ['1', '37', '38', '39', '31'] 11278.0
56 225.56 ['1', '37', '38', '39', '31'] 11278.0
57 225.56 ['1', '37', '38', '39', '31'] 11278.0
58 225.56 ['1', '37', '38', '39', '31'] 11278.0
59 225.56 ['1', '37', '38', '39', '31'] 11278.0
60 225.56 ['1', '37', '38', '39', '31'] 11278.0
61 225.56 ['1', '37', '38', '39', '31'] 11278.0
62 225.56 ['1', '37', '38', '39', '31'] 11278.0
63 225.56 ['1', '37', '38', '39', '31'] 11278.0
64 225.56 ['1', '37', '38', '39', '31'] 11278.0
65 225.56 ['1', '37', '38', '39', '31'] 11278.0
66 225.56 ['1', '37', '38', '39', '31'] 11278.0
67 225.56 ['1', '37', '38', '39', '31'] 11278.0
68 225.56 ['1', '37', '38', '39', '31'] 11278.0
69 225.56 ['1', '37', '38', '39', '31'] 11278.0
70 225.56 ['1', '37', '38', '39', '31'] 11278.0
71 225.56 ['1', '37', '38', '39', '31'] 11278.0
72 225.56 ['1', '37', '38', '39', '31'] 11278.0
73 225.56 ['1', '37', '38', '39', '31'] 11278.0
74 225.56 ['1', '37', '38', '39', '31'] 11278.0
75 225.56 ['1', '37', '38', '39', '31'] 11278.0
76 225.56 ['1', '37', '38', '39', '31'] 11278.0
77 225.56 ['1', '37', '38', '39', '31'] 11278.0
78 225.56 ['1', '37', '38', '39', '31'] 11278.0
79 225.56 ['1', '37', '38', '39', '31'] 11278.0
80 225.56 ['1', '37', '38', '39', '31'] 11278.0
81 225.56 ['1', '37', '38', '39', '31'] 11278.0
82 225.56 ['1', '37', '38', '39', '31'] 11278.0
83 225.56 ['1', '37', '38', '39', '31'] 11278.0
84 225.56 ['1', '37', '38', '39', '31'] 11278.0
85 225.56 ['1', '37', '38', '39', '31'] 11278.0
86 225.56 ['1', '37', '38', '39', '31'] 11278.0
87 225.56 ['1', '37', '38', '39', '31'] 11278.0
88 225.56 ['1', '37', '38', '39', '31'] 11278.0
89 225.56 ['1', '37', '38', '39', '31'] 11278.0
90 225.56 ['1', '37', '38', '39', '31'] 11278.0
91 225.56 ['1', '37', '38', '39', '31'] 11278.0
92 225.56 ['1', '37', '38', '39', '31'] 11278.0
93 225.56 ['1', '37', '38', '39', '31'] 11278.0
94 225.56 ['1', '37', '38', '39', '31'] 11278.0
95 225.56 ['1', '37', '38', '39', '31'] 11278.0
96 225.56 ['1', '37', '38', '39', '31'] 11278.0
97 225.56 ['1', '37', '38', '39', '31'] 11278.0
98 225.56 ['1', '37', '38', '39', '31'] 11278.0
99 225.56 ['1', '37', '38', '39', '31'] 11278.0
100 225.56 ['1', '37', '38', '39', '31'] 11278.0
101 225.56 ['1', '37', '38', '39', '31'] 11278.0
102 225.56 ['1', '37', '38', '39', '31'] 11278.0
103 225.56 ['1', '37', '38', '39', '31'] 11278.0
104 225.56 ['1', '37', '38', '39', '31'] 11278.0
105 225.56 ['1', '37', '38', '39', '31'] 11278.0
106 225.56 ['1', '37', '38', '39', '31'] 11278.0
107 225.56 ['1', '37', '38', '39', '31'] 11278.0
108 225.56 ['1', '37', '38', '39', '31'] 11278.0
109 225.56 ['1', '37', '38', '39', '31'] 11278.0
110 225.56 ['1', '37', '38', '39', '31'] 11278.0
111 225.56 ['1', '37', '38', '39', '31'] 11278.0
112 225.56 ['1', '37', '38', '39', '31'] 11278.0
113 225.56 ['1', '37', '38', '39', '31'] 11278.0
114 225.56 ['1', '37', '38', '39', '31'] 11278.0
115 225.56 ['1', '37', '38', '39', '31'] 11278.0
116 225.56 ['1', '37', '38', '39', '31'] 11278.0
117 225.56 ['1', '37', '38', '39', '31'] 11278.0
118 225.56 ['1', '37', '38', '39', '31'] 11278.0
119 225.56 ['1', '37', '38', '39', '31'] 11278.0
120 225.56 ['1', '37', '38', '39', '31'] 11278.0
121 225.56 ['1', '37', '38', '39', '31'] 11278.0
122 225.56 ['1', '37', '38', '39', '31'] 11278.0
123 225.56 ['1', '37', '38', '39', '31'] 11278.0
124 225.56 ['1', '37', '38', '39', '31'] 11278.0
125 225.56 ['1', '37', '38', '39', '31'] 11278.0
126 225.56 ['1', '37', '38', '39', '31'] 11278.0
127 225.56 ['1', '37', '38', '39', '31'] 11278.0
128 225.56 ['1', '37', '38', '39', '31'] 11278.0
129 225.56 ['1', '37', '38', '39', '31'] 11278.0
130 225.56 ['1', '37', '38', '39', '31'] 11278.0
131 225.56 ['1', '37', '38', '39', '31'] 11278.0
132 225.56 ['1', '37', '38', '39', '31'] 11278.0
133 225.56 ['1', '37', '38', '39', '31'] 11278.0
134 225.56 ['1', '37', '38', '39', '31'] 11278.0
135 225.56 ['1', '37', '38', '39', '31'] 11278.0
136 225.56 ['1', '37', '38', '39', '31'] 11278.0
137 225.56 ['1', '37', '38', '39', '31'] 11278.0
138 225.56 ['1', '37', '38', '39', '31'] 11278.0
139 225.56 ['1', '37', '38', '39', '31'] 11278.0
140 225.56 ['1', '37', '38', '39', '31'] 11278.0
141 225.56 ['1', '37', '38', '39', '31'] 11278.0
142 225.56 ['1', '37', '38', '39', '31'] 11278.0
143 225.56 ['1', '37', '38', '39', '31'] 11278.0
144 225.56 ['1', '37', '38', '39', '31'] 11278.0
145 225.56 ['1', '37', '38', '39', '31'] 11278.0
146 225.56 ['1', '37', '38', '39', '31'] 11278.0
147 225.56 ['1', '37', '38', '39', '31'] 11278.0
148 225.56 ['1', '37', '38', '39', '31'] 11278.0
149 225.56 ['1', '37', '38', '39', '31'] 11278.0
150 225.56 ['1', '37', '38', '39', '31'] 11278.0
151 225.56 ['1', '37', '38', '39', '31'] 11278.0
152 225.56 ['1', '37', '38', '39', '31'] 11278.0
153 225.56 ['1', '37', '38', '39', '31'] 11278.0
154 225.56 ['1', '37', '38', '39', '31'] 11278.0
155 225.56 ['1', '37', '38', '39', '31'] 11278.0
156 225.56 ['1', '37', '38', '39', '31'] 11278.0
157 225.56 ['1', '37', '38', '39', '31'] 11278.0
158 225.56 ['1', '37', '38', '39', '31'] 11278.0
159 225.56 ['1', '37', '38', '39', '31'] 11278.0
160 225.56 ['1', '37', '38', '39', '31'] 11278.0
161 225.56 ['1', '37', '38', '39', '31'] 11278.0
162 225.56 ['1', '37', '38', '39', '31'] 11278.0
163 225.56 ['1', '37', '38', '39', '31'] 11278.0
164 225.56 ['1', '37', '38', '39', '31'] 11278.0
165 225.56 ['1', '37', '38', '39', '31'] 11278.0
166 225.56 ['1', '37', '38', '39', '31'] 11278.0
167 225.56 ['1', '37', '38', '39', '31'] 11278.0
168 225.56 ['1', '37', '38', '39', '31'] 11278.0
169 225.56 ['1', '37', '38', '39', '31'] 11278.0
170 225.56 ['1', '37', '38', '39', '31'] 11278.0
171 225.56 ['1', '37', '38', '39', '31'] 11278.0
172 225.56 ['1', '37', '38', '39', '31'] 11278.0
173 225.56 ['1', '37', '38', '39', '31'] 11278.0
174 225.56 ['1', '37', '38', '39', '31'] 11278.0
175 225.56 ['1', '37', '38', '39', '31'] 11278.0
176 225.56 ['1', '37', '38', '39', '31'] 11278.0
177 225.56 ['1', '37', '38', '39', '31'] 11278.0
178 225.56 ['1', '37', '38', '39', '31'] 11278.0
179 225.56 ['1', '37', '38', '39', '31'] 11278.0
180 225.56 ['1', '37', '38', '39', '31'] 11278.0
181 225.56 ['1', '37', '38', '39', '31'] 11278.0
182 225.56 ['1', '37', '38', '39', '31'] 11278.0
183 225.56 ['1', '37', '38', '39', '31'] 11278.0
184 225.56 ['1', '37', '38', '39', '31'] 11278.0
185 225.56 ['1', '37', '38', '39', '31'] 11278.0
186 225.56 ['1', '37', '38', '39', '31'] 11278.0
187 225.56 ['1', '37', '38', '39', '31'] 11278.0
188 225.56 ['1', '37', '38', '39', '31'] 11278.0
189 225.56 ['1', '37', '38', '39', '31'] 11278.0
190 225.56 ['1', '37', '38', '39', '31'] 11278.0
191 225.56 ['1', '37', '38', '39', '31'] 11278.0
192 225.56 ['1', '37', '38', '39', '31'] 11278.0
193 225.56 ['1', '37', '38', '39', '31'] 11278.0
194 225.56 ['1', '37', '38', '39', '31'] 11278.0
195 225.56 ['1', '37', '38', '39', '31'] 11278.0
196 225.56 ['1', '37', '38', '39', '31'] 11278.0
197 225.56 ['1', '37', '38', '39', '31'] 11278.0
198 225.56 ['1', '37', '38', '39', '31'] 11278.0
199 225.56 ['1', '37', '38', '39', '31'] 11278.0
