0 417.3181818181818 ['37', '1', '18', '24'] 22592.86363636364
1 406.8636363636364 ['5', '44', '1', '18'] 21884.136363636364
2 387.65909090909093 ['1', '21', '5', '29'] 21155.363636363643
3 381.29545454545456 ['5', '24', '18', '1'] 20501.022727272735
4 369.1363636363636 ['24', '1', '5', '16'] 19974.681818181816
5 369.1363636363636 ['24', '1', '5', '16'] 19511.863636363647
6 365.1363636363636 ['5', '1', '29', '24'] 19041.82929292929
7 365.1363636363636 ['5', '1', '29', '24'] 18719.80606060606
8 365.1363636363636 ['5', '1', '29', '24'] 18575.56818181818
9 365.1363636363636 ['5', '1', '29', '24'] 18433.204545454533
10 365.1363636363636 ['5', '1', '29', '24'] 18280.81818181819
11 365.1363636363636 ['5', '1', '29', '24'] 18256.81818181819
12 365.1363636363636 ['5', '1', '29', '24'] 18256.81818181819
13 365.1363636363636 ['5', '1', '29', '24'] 18256.81818181819
14 365.1363636363636 ['5', '1', '29', '24'] 18256.81818181819
15 365.1363636363636 ['5', '1', '29', '24'] 18256.81818181819
16 365.1363636363636 ['5', '1', '29', '24'] 18256.81818181819
17 365.1363636363636 ['5', '1', '29', '24'] 18256.81818181819
18 365.1363636363636 ['5', '1', '29', '24'] 18256.81818181819
19 365.1363636363636 ['5', '1', '29', '24'] 18256.81818181819
20 365.1363636363636 ['5', '1', '29', '24'] 18256.81818181819
21 365.1363636363636 ['5', '1', '29', '24'] 18256.81818181819
22 365.1363636363636 ['5', '1', '29', '24'] 18256.81818181819
23 365.1363636363636 ['5', '1', '29', '24'] 18256.81818181819
24 365.1363636363636 ['5', '1', '29', '24'] 18256.81818181819
25 365.1363636363636 ['5', '1', '29', '24'] 18256.81818181819
26 365.1363636363636 ['5', '1', '29', '24'] 18256.81818181819
27 365.1363636363636 ['5', '1', '29', '24'] 18256.81818181819
28 365.1363636363636 ['5', '1', '29', '24'] 18256.81818181819
29 365.1363636363636 ['5', '1', '29', '24'] 18256.81818181819
30 365.1363636363636 ['5', '1', '29', '24'] 18256.81818181819
31 365.1363636363636 ['5', '1', '29', '24'] 18256.81818181819
32 365.1363636363636 ['5', '1', '29', '24'] 18256.81818181819
33 365.1363636363636 ['5', '1', '29', '24'] 18256.81818181819
34 365.1363636363636 ['5', '1', '29', '24'] 18256.81818181819
35 365.1363636363636 ['5', '1', '29', '24'] 18256.81818181819
36 365.1363636363636 ['5', '1', '29', '24'] 18256.81818181819
37 365.1363636363636 ['5', '1', '29', '24'] 18256.81818181819
38 365.1363636363636 ['5', '1', '29', '24'] 18256.81818181819
39 365.1363636363636 ['5', '1', '29', '24'] 18256.81818181819
40 365.1363636363636 ['5', '1', '29', '24'] 18256.81818181819
41 365.1363636363636 ['5', '1', '29', '24'] 18256.81818181819
42 365.1363636363636 ['5', '1', '29', '24'] 18256.81818181819
43 365.1363636363636 ['5', '1', '29', '24'] 18256.81818181819
44 365.1363636363636 ['5', '1', '29', '24'] 18256.81818181819
45 365.1363636363636 ['5', '1', '29', '24'] 18256.81818181819
46 365.1363636363636 ['5', '1', '29', '24'] 18256.81818181819
47 365.1363636363636 ['5', '1', '29', '24'] 18256.81818181819
48 365.1363636363636 ['5', '1', '29', '24'] 18256.81818181819
49 365.1363636363636 ['5', '1', '29', '24'] 18256.81818181819
50 365.1363636363636 ['5', '1', '29', '24'] 18256.81818181819
51 365.1363636363636 ['5', '1', '29', '24'] 18256.81818181819
52 365.1363636363636 ['5', '1', '29', '24'] 18256.81818181819
53 365.1363636363636 ['5', '1', '29', '24'] 18256.81818181819
54 365.1363636363636 ['5', '1', '29', '24'] 18256.81818181819
55 365.1363636363636 ['5', '1', '29', '24'] 18256.81818181819
56 365.1363636363636 ['5', '1', '29', '24'] 18256.81818181819
57 365.1363636363636 ['5', '1', '29', '24'] 18256.81818181819
58 365.1363636363636 ['5', '1', '29', '24'] 18256.81818181819
59 365.1363636363636 ['5', '1', '29', '24'] 18256.81818181819
60 365.1363636363636 ['5', '1', '29', '24'] 18256.81818181819
61 365.1363636363636 ['5', '1', '29', '24'] 18256.81818181819
62 365.1363636363636 ['5', '1', '29', '24'] 18256.81818181819
63 365.1363636363636 ['5', '1', '29', '24'] 18256.81818181819
64 365.1363636363636 ['5', '1', '29', '24'] 18256.81818181819
65 365.1363636363636 ['5', '1', '29', '24'] 18256.81818181819
66 365.1363636363636 ['5', '1', '29', '24'] 18256.81818181819
67 365.1363636363636 ['5', '1', '29', '24'] 18256.81818181819
68 365.1363636363636 ['5', '1', '29', '24'] 18256.81818181819
69 365.1363636363636 ['5', '1', '29', '24'] 18256.81818181819
70 365.1363636363636 ['5', '1', '29', '24'] 18256.81818181819
71 365.1363636363636 ['5', '1', '29', '24'] 18256.81818181819
72 365.1363636363636 ['5', '1', '29', '24'] 18256.81818181819
73 365.1363636363636 ['5', '1', '29', '24'] 18256.81818181819
74 365.1363636363636 ['5', '1', '29', '24'] 18256.81818181819
75 365.1363636363636 ['5', '1', '29', '24'] 18256.81818181819
76 365.1363636363636 ['5', '1', '29', '24'] 18256.81818181819
77 365.1363636363636 ['5', '1', '29', '24'] 18256.81818181819
78 365.1363636363636 ['5', '1', '29', '24'] 18256.81818181819
79 365.1363636363636 ['5', '1', '29', '24'] 18256.81818181819
80 365.1363636363636 ['5', '1', '29', '24'] 18256.81818181819
81 365.1363636363636 ['5', '1', '29', '24'] 18256.81818181819
82 365.1363636363636 ['5', '1', '29', '24'] 18256.81818181819
83 365.1363636363636 ['5', '1', '29', '24'] 18256.81818181819
84 365.1363636363636 ['5', '1', '29', '24'] 18256.81818181819
85 365.1363636363636 ['5', '1', '29', '24'] 18256.81818181819
86 365.1363636363636 ['5', '1', '29', '24'] 18256.81818181819
87 365.1363636363636 ['5', '1', '29', '24'] 18256.81818181819
88 365.1363636363636 ['5', '1', '29', '24'] 18256.81818181819
89 365.1363636363636 ['5', '1', '29', '24'] 18256.81818181819
90 365.1363636363636 ['5', '1', '29', '24'] 18256.81818181819
91 365.1363636363636 ['5', '1', '29', '24'] 18256.81818181819
92 365.1363636363636 ['5', '1', '29', '24'] 18256.81818181819
93 365.1363636363636 ['5', '1', '29', '24'] 18256.81818181819
94 365.1363636363636 ['5', '1', '29', '24'] 18256.81818181819
95 365.1363636363636 ['5', '1', '29', '24'] 18256.81818181819
96 365.1363636363636 ['5', '1', '29', '24'] 18256.81818181819
97 365.1363636363636 ['5', '1', '29', '24'] 18256.81818181819
98 365.1363636363636 ['5', '1', '29', '24'] 18256.81818181819
99 365.1363636363636 ['5', '1', '29', '24'] 18256.81818181819
100 365.1363636363636 ['5', '1', '29', '24'] 18256.81818181819
101 365.1363636363636 ['5', '1', '29', '24'] 18256.81818181819
102 365.1363636363636 ['5', '1', '29', '24'] 18256.81818181819
103 365.1363636363636 ['5', '1', '29', '24'] 18256.81818181819
104 365.1363636363636 ['5', '1', '29', '24'] 18256.81818181819
105 365.1363636363636 ['5', '1', '29', '24'] 18256.81818181819
106 365.1363636363636 ['5', '1', '29', '24'] 18256.81818181819
107 365.1363636363636 ['5', '1', '29', '24'] 18256.81818181819
108 365.1363636363636 ['5', '1', '29', '24'] 18256.81818181819
109 365.1363636363636 ['5', '1', '29', '24'] 18256.81818181819
110 365.1363636363636 ['5', '1', '29', '24'] 18256.81818181819
111 365.1363636363636 ['5', '1', '29', '24'] 18256.81818181819
112 365.1363636363636 ['5', '1', '29', '24'] 18256.81818181819
113 365.1363636363636 ['5', '1', '29', '24'] 18256.81818181819
114 365.1363636363636 ['5', '1', '29', '24'] 18256.81818181819
115 365.1363636363636 ['5', '1', '29', '24'] 18256.81818181819
116 365.1363636363636 ['5', '1', '29', '24'] 18256.81818181819
117 365.1363636363636 ['5', '1', '29', '24'] 18256.81818181819
118 365.1363636363636 ['5', '1', '29', '24'] 18256.81818181819
119 365.1363636363636 ['5', '1', '29', '24'] 18256.81818181819
120 365.1363636363636 ['5', '1', '29', '24'] 18256.81818181819
121 365.1363636363636 ['5', '1', '29', '24'] 18256.81818181819
122 365.1363636363636 ['5', '1', '29', '24'] 18256.81818181819
123 365.1363636363636 ['5', '1', '29', '24'] 18256.81818181819
124 365.1363636363636 ['5', '1', '29', '24'] 18256.81818181819
125 365.1363636363636 ['5', '1', '29', '24'] 18256.81818181819
126 365.1363636363636 ['5', '1', '29', '24'] 18256.81818181819
127 365.1363636363636 ['5', '1', '29', '24'] 18256.81818181819
128 365.1363636363636 ['5', '1', '29', '24'] 18256.81818181819
129 365.1363636363636 ['5', '1', '29', '24'] 18256.81818181819
130 365.1363636363636 ['5', '1', '29', '24'] 18256.81818181819
131 365.1363636363636 ['5', '1', '29', '24'] 18256.81818181819
132 365.1363636363636 ['5', '1', '29', '24'] 18256.81818181819
133 365.1363636363636 ['5', '1', '29', '24'] 18256.81818181819
134 365.1363636363636 ['5', '1', '29', '24'] 18256.81818181819
135 365.1363636363636 ['5', '1', '29', '24'] 18256.81818181819
136 365.1363636363636 ['5', '1', '29', '24'] 18256.81818181819
137 365.1363636363636 ['5', '1', '29', '24'] 18256.81818181819
138 365.1363636363636 ['5', '1', '29', '24'] 18256.81818181819
139 365.1363636363636 ['5', '1', '29', '24'] 18256.81818181819
140 365.1363636363636 ['5', '1', '29', '24'] 18256.81818181819
141 365.1363636363636 ['5', '1', '29', '24'] 18256.81818181819
142 365.1363636363636 ['5', '1', '29', '24'] 18256.81818181819
143 365.1363636363636 ['5', '1', '29', '24'] 18256.81818181819
144 365.1363636363636 ['5', '1', '29', '24'] 18256.81818181819
145 365.1363636363636 ['5', '1', '29', '24'] 18256.81818181819
146 365.1363636363636 ['5', '1', '29', '24'] 18256.81818181819
147 365.1363636363636 ['5', '1', '29', '24'] 18256.81818181819
148 365.1363636363636 ['5', '1', '29', '24'] 18256.81818181819
149 365.1363636363636 ['5', '1', '29', '24'] 18256.81818181819
150 365.1363636363636 ['5', '1', '29', '24'] 18256.81818181819
151 365.1363636363636 ['5', '1', '29', '24'] 18256.81818181819
152 365.1363636363636 ['5', '1', '29', '24'] 18256.81818181819
153 365.1363636363636 ['5', '1', '29', '24'] 18256.81818181819
154 365.1363636363636 ['5', '1', '29', '24'] 18256.81818181819
155 365.1363636363636 ['5', '1', '29', '24'] 18256.81818181819
156 365.1363636363636 ['5', '1', '29', '24'] 18256.81818181819
157 365.1363636363636 ['5', '1', '29', '24'] 18256.81818181819
158 365.1363636363636 ['5', '1', '29', '24'] 18256.81818181819
159 365.1363636363636 ['5', '1', '29', '24'] 18256.81818181819
160 365.1363636363636 ['5', '1', '29', '24'] 18256.81818181819
161 365.1363636363636 ['5', '1', '29', '24'] 18256.81818181819
162 365.1363636363636 ['5', '1', '29', '24'] 18256.81818181819
163 365.1363636363636 ['5', '1', '29', '24'] 18256.81818181819
164 365.1363636363636 ['5', '1', '29', '24'] 18256.81818181819
165 365.1363636363636 ['5', '1', '29', '24'] 18256.81818181819
166 365.1363636363636 ['5', '1', '29', '24'] 18256.81818181819
167 365.1363636363636 ['5', '1', '29', '24'] 18256.81818181819
168 365.1363636363636 ['5', '1', '29', '24'] 18256.81818181819
169 365.1363636363636 ['5', '1', '29', '24'] 18256.81818181819
170 365.1363636363636 ['5', '1', '29', '24'] 18256.81818181819
171 365.1363636363636 ['5', '1', '29', '24'] 18256.81818181819
172 365.1363636363636 ['5', '1', '29', '24'] 18256.81818181819
173 365.1363636363636 ['5', '1', '29', '24'] 18256.81818181819
174 365.1363636363636 ['5', '1', '29', '24'] 18256.81818181819
175 365.1363636363636 ['5', '1', '29', '24'] 18256.81818181819
176 365.1363636363636 ['5', '1', '29', '24'] 18256.81818181819
177 365.1363636363636 ['5', '1', '29', '24'] 18256.81818181819
178 365.1363636363636 ['5', '1', '29', '24'] 18256.81818181819
179 365.1363636363636 ['5', '1', '29', '24'] 18256.81818181819
180 365.1363636363636 ['5', '1', '29', '24'] 18256.81818181819
181 365.1363636363636 ['5', '1', '29', '24'] 18256.81818181819
182 365.1363636363636 ['5', '1', '29', '24'] 18256.81818181819
183 365.1363636363636 ['5', '1', '29', '24'] 18256.81818181819
184 365.1363636363636 ['5', '1', '29', '24'] 18256.81818181819
185 365.1363636363636 ['5', '1', '29', '24'] 18256.81818181819
186 365.1363636363636 ['5', '1', '29', '24'] 18256.81818181819
187 365.1363636363636 ['5', '1', '29', '24'] 18256.81818181819
188 365.1363636363636 ['5', '1', '29', '24'] 18256.81818181819
189 365.1363636363636 ['5', '1', '29', '24'] 18256.81818181819
190 365.1363636363636 ['5', '1', '29', '24'] 18256.81818181819
191 365.1363636363636 ['5', '1', '29', '24'] 18256.81818181819
192 365.1363636363636 ['5', '1', '29', '24'] 18256.81818181819
193 365.1363636363636 ['5', '1', '29', '24'] 18256.81818181819
194 365.1363636363636 ['5', '1', '29', '24'] 18256.81818181819
195 365.1363636363636 ['5', '1', '29', '24'] 18256.81818181819
196 365.1363636363636 ['5', '1', '29', '24'] 18256.81818181819
197 365.1363636363636 ['5', '1', '29', '24'] 18256.81818181819
198 365.1363636363636 ['5', '1', '29', '24'] 18256.81818181819
199 365.1363636363636 ['5', '1', '29', '24'] 18256.81818181819
