0 27.9 ['29', '43', '17', '23'] 1434.5
1 27.9 ['29', '43', '17', '23'] 1422.3499999999997
2 27.775 ['38', '3', '11', '8'] 1410.7250000000001
3 27.575 ['38', '17', '8', '43'] 1400.9
4 27.575 ['38', '17', '8', '43'] 1392.5500000000004
5 27.375 ['8', '43', '3', '17'] 1386.9499999999996
6 27.375 ['8', '43', '3', '17'] 1382.800000000001
7 27.375 ['8', '43', '3', '17'] 1378.175
8 27.375 ['8', '43', '3', '17'] 1375.675
9 27.275 ['19', '17', '25', '3'] 1372.7500000000014
10 27.275 ['19', '17', '25', '3'] 1370.1999999999991
11 27.275 ['19', '17', '25', '3'] 1367.6750000000004
12 27.275 ['19', '17', '25', '3'] 1365.9999999999995
13 27.275 ['19', '17', '25', '3'] 1364.2
14 27.275 ['19', '17', '25', '3'] 1363.7500000000005
15 27.275 ['19', '17', '25', '3'] 1363.7500000000005
16 27.275 ['19', '17', '25', '3'] 1363.7500000000005
17 27.275 ['19', '17', '25', '3'] 1363.7500000000005
18 27.275 ['19', '17', '25', '3'] 1363.7500000000005
19 27.275 ['19', '17', '25', '3'] 1363.7500000000005
20 27.275 ['19', '17', '25', '3'] 1363.7500000000005
21 27.275 ['19', '17', '25', '3'] 1363.7500000000005
22 27.275 ['19', '17', '25', '3'] 1363.7500000000005
23 27.275 ['19', '17', '25', '3'] 1363.7500000000005
24 27.275 ['19', '17', '25', '3'] 1363.7500000000005
25 27.275 ['19', '17', '25', '3'] 1363.7500000000005
26 27.275 ['19', '17', '25', '3'] 1363.7500000000005
27 27.275 ['19', '17', '25', '3'] 1363.7500000000005
28 27.275 ['19', '17', '25', '3'] 1363.7500000000005
29 27.275 ['19', '17', '25', '3'] 1363.7500000000005
30 27.275 ['19', '17', '25', '3'] 1363.7500000000005
31 27.275 ['19', '17', '25', '3'] 1363.7500000000005
32 27.275 ['19', '17', '25', '3'] 1363.7500000000005
33 27.275 ['19', '17', '25', '3'] 1363.7500000000005
34 27.275 ['19', '17', '25', '3'] 1363.7500000000005
35 27.275 ['19', '17', '25', '3'] 1363.7500000000005
36 27.275 ['19', '17', '25', '3'] 1363.7500000000005
37 27.275 ['19', '17', '25', '3'] 1363.7500000000005
38 27.275 ['19', '17', '25', '3'] 1363.7500000000005
39 27.275 ['19', '17', '25', '3'] 1363.7500000000005
40 27.275 ['19', '17', '25', '3'] 1363.7500000000005
41 27.275 ['19', '17', '25', '3'] 1363.7500000000005
42 27.275 ['19', '17', '25', '3'] 1363.7500000000005
43 27.275 ['19', '17', '25', '3'] 1363.7500000000005
44 27.275 ['19', '17', '25', '3'] 1363.7500000000005
45 27.275 ['19', '17', '25', '3'] 1363.7500000000005
46 27.275 ['19', '17', '25', '3'] 1363.7500000000005
47 27.275 ['19', '17', '25', '3'] 1363.7500000000005
48 27.275 ['19', '17', '25', '3'] 1363.7500000000005
49 27.275 ['19', '17', '25', '3'] 1363.7500000000005
50 27.275 ['19', '17', '25', '3'] 1363.7500000000005
51 27.275 ['19', '17', '25', '3'] 1363.7500000000005
52 27.275 ['19', '17', '25', '3'] 1363.7500000000005
53 27.275 ['19', '17', '25', '3'] 1363.7500000000005
54 27.275 ['19', '17', '25', '3'] 1363.7500000000005
55 27.275 ['19', '17', '25', '3'] 1363.7500000000005
56 27.275 ['19', '17', '25', '3'] 1363.7500000000005
57 27.275 ['19', '17', '25', '3'] 1363.7500000000005
58 27.275 ['19', '17', '25', '3'] 1363.7500000000005
59 27.275 ['19', '17', '25', '3'] 1363.7500000000005
60 27.275 ['19', '17', '25', '3'] 1363.7500000000005
61 27.275 ['19', '17', '25', '3'] 1363.7500000000005
62 27.275 ['19', '17', '25', '3'] 1363.7500000000005
63 27.275 ['19', '17', '25', '3'] 1363.7500000000005
64 27.275 ['19', '17', '25', '3'] 1363.7500000000005
65 27.275 ['19', '17', '25', '3'] 1363.7500000000005
66 27.275 ['19', '17', '25', '3'] 1363.7500000000005
67 27.275 ['19', '17', '25', '3'] 1363.7500000000005
68 27.275 ['19', '17', '25', '3'] 1363.7500000000005
69 27.275 ['19', '17', '25', '3'] 1363.7500000000005
70 27.275 ['19', '17', '25', '3'] 1363.7500000000005
71 27.275 ['19', '17', '25', '3'] 1363.7500000000005
72 27.275 ['19', '17', '25', '3'] 1363.7500000000005
73 27.275 ['19', '17', '25', '3'] 1363.7500000000005
74 27.275 ['19', '17', '25', '3'] 1363.7500000000005
75 27.275 ['19', '17', '25', '3'] 1363.7500000000005
76 27.275 ['19', '17', '25', '3'] 1363.7500000000005
77 27.275 ['19', '17', '25', '3'] 1363.7500000000005
78 27.275 ['19', '17', '25', '3'] 1363.7500000000005
79 27.275 ['19', '17', '25', '3'] 1363.7500000000005
80 27.275 ['19', '17', '25', '3'] 1363.7500000000005
81 27.275 ['19', '17', '25', '3'] 1363.7500000000005
82 27.275 ['19', '17', '25', '3'] 1363.7500000000005
83 27.275 ['19', '17', '25', '3'] 1363.7500000000005
84 27.275 ['19', '17', '25', '3'] 1363.7500000000005
85 27.275 ['19', '17', '25', '3'] 1363.7500000000005
86 27.275 ['19', '17', '25', '3'] 1363.7500000000005
87 27.275 ['19', '17', '25', '3'] 1363.7500000000005
88 27.275 ['19', '17', '25', '3'] 1363.7500000000005
89 27.275 ['19', '17', '25', '3'] 1363.7500000000005
90 27.275 ['19', '17', '25', '3'] 1363.7500000000005
91 27.275 ['19', '17', '25', '3'] 1363.7500000000005
92 27.275 ['19', '17', '25', '3'] 1363.7500000000005
93 27.275 ['19', '17', '25', '3'] 1363.7500000000005
94 27.275 ['19', '17', '25', '3'] 1363.7500000000005
95 27.275 ['19', '17', '25', '3'] 1363.7500000000005
96 27.275 ['19', '17', '25', '3'] 1363.7500000000005
97 27.275 ['19', '17', '25', '3'] 1363.7500000000005
98 27.275 ['19', '17', '25', '3'] 1363.7500000000005
99 27.275 ['19', '17', '25', '3'] 1363.7500000000005
100 27.275 ['19', '17', '25', '3'] 1363.7500000000005
101 27.275 ['19', '17', '25', '3'] 1363.7500000000005
102 27.275 ['19', '17', '25', '3'] 1363.7500000000005
103 27.275 ['19', '17', '25', '3'] 1363.7500000000005
104 27.275 ['19', '17', '25', '3'] 1363.7500000000005
105 27.275 ['19', '17', '25', '3'] 1363.7500000000005
106 27.275 ['19', '17', '25', '3'] 1363.7500000000005
107 27.275 ['19', '17', '25', '3'] 1363.7500000000005
108 27.275 ['19', '17', '25', '3'] 1363.7500000000005
109 27.275 ['19', '17', '25', '3'] 1363.7500000000005
110 27.275 ['19', '17', '25', '3'] 1363.7500000000005
111 27.275 ['19', '17', '25', '3'] 1363.7500000000005
112 27.275 ['19', '17', '25', '3'] 1363.7500000000005
113 27.275 ['19', '17', '25', '3'] 1363.7500000000005
114 27.275 ['19', '17', '25', '3'] 1363.7500000000005
115 27.275 ['19', '17', '25', '3'] 1363.7500000000005
116 27.275 ['19', '17', '25', '3'] 1363.7500000000005
117 27.275 ['19', '17', '25', '3'] 1363.7500000000005
118 27.275 ['19', '17', '25', '3'] 1363.7500000000005
119 27.275 ['19', '17', '25', '3'] 1363.7500000000005
120 27.275 ['19', '17', '25', '3'] 1363.7500000000005
121 27.275 ['19', '17', '25', '3'] 1363.7500000000005
122 27.275 ['19', '17', '25', '3'] 1363.7500000000005
123 27.275 ['19', '17', '25', '3'] 1363.7500000000005
124 27.275 ['19', '17', '25', '3'] 1363.7500000000005
125 27.275 ['19', '17', '25', '3'] 1363.7500000000005
126 27.275 ['19', '17', '25', '3'] 1363.7500000000005
127 27.275 ['19', '17', '25', '3'] 1363.7500000000005
128 27.275 ['19', '17', '25', '3'] 1363.7500000000005
129 27.275 ['19', '17', '25', '3'] 1363.7500000000005
130 27.275 ['19', '17', '25', '3'] 1363.7500000000005
131 27.275 ['19', '17', '25', '3'] 1363.7500000000005
132 27.275 ['19', '17', '25', '3'] 1363.7500000000005
133 27.275 ['19', '17', '25', '3'] 1363.7500000000005
134 27.275 ['19', '17', '25', '3'] 1363.7500000000005
135 27.275 ['19', '17', '25', '3'] 1363.7500000000005
136 27.275 ['19', '17', '25', '3'] 1363.7500000000005
137 27.275 ['19', '17', '25', '3'] 1363.7500000000005
138 27.275 ['19', '17', '25', '3'] 1363.7500000000005
139 27.275 ['19', '17', '25', '3'] 1363.7500000000005
140 27.275 ['19', '17', '25', '3'] 1363.7500000000005
141 27.275 ['19', '17', '25', '3'] 1363.7500000000005
142 27.275 ['19', '17', '25', '3'] 1363.7500000000005
143 27.275 ['19', '17', '25', '3'] 1363.7500000000005
144 27.275 ['19', '17', '25', '3'] 1363.7500000000005
145 27.275 ['19', '17', '25', '3'] 1363.7500000000005
146 27.275 ['19', '17', '25', '3'] 1363.7500000000005
147 27.275 ['19', '17', '25', '3'] 1363.7500000000005
148 27.275 ['19', '17', '25', '3'] 1363.7500000000005
149 27.275 ['19', '17', '25', '3'] 1363.7500000000005
150 27.275 ['19', '17', '25', '3'] 1363.7500000000005
151 27.275 ['19', '17', '25', '3'] 1363.7500000000005
152 27.275 ['19', '17', '25', '3'] 1363.7500000000005
153 27.275 ['19', '17', '25', '3'] 1363.7500000000005
154 27.275 ['19', '17', '25', '3'] 1363.7500000000005
155 27.275 ['19', '17', '25', '3'] 1363.7500000000005
156 27.275 ['19', '17', '25', '3'] 1363.7500000000005
157 27.275 ['19', '17', '25', '3'] 1363.7500000000005
158 27.275 ['19', '17', '25', '3'] 1363.7500000000005
159 27.275 ['19', '17', '25', '3'] 1363.7500000000005
160 27.275 ['19', '17', '25', '3'] 1363.7500000000005
161 27.275 ['19', '17', '25', '3'] 1363.7500000000005
162 27.275 ['19', '17', '25', '3'] 1363.7500000000005
163 27.275 ['19', '17', '25', '3'] 1363.7500000000005
164 27.275 ['19', '17', '25', '3'] 1363.7500000000005
165 27.275 ['19', '17', '25', '3'] 1363.7500000000005
166 27.275 ['19', '17', '25', '3'] 1363.7500000000005
167 27.275 ['19', '17', '25', '3'] 1363.7500000000005
168 27.275 ['19', '17', '25', '3'] 1363.7500000000005
169 27.275 ['19', '17', '25', '3'] 1363.7500000000005
170 27.275 ['19', '17', '25', '3'] 1363.7500000000005
171 27.275 ['19', '17', '25', '3'] 1363.7500000000005
172 27.275 ['19', '17', '25', '3'] 1363.7500000000005
173 27.275 ['19', '17', '25', '3'] 1363.7500000000005
174 27.275 ['19', '17', '25', '3'] 1363.7500000000005
175 27.275 ['19', '17', '25', '3'] 1363.7500000000005
176 27.275 ['19', '17', '25', '3'] 1363.7500000000005
177 27.275 ['19', '17', '25', '3'] 1363.7500000000005
178 27.275 ['19', '17', '25', '3'] 1363.7500000000005
179 27.275 ['19', '17', '25', '3'] 1363.7500000000005
180 27.275 ['19', '17', '25', '3'] 1363.7500000000005
181 27.275 ['19', '17', '25', '3'] 1363.7500000000005
182 27.275 ['19', '17', '25', '3'] 1363.7500000000005
183 27.275 ['19', '17', '25', '3'] 1363.7500000000005
184 27.275 ['19', '17', '25', '3'] 1363.7500000000005
185 27.275 ['19', '17', '25', '3'] 1363.7500000000005
186 27.275 ['19', '17', '25', '3'] 1363.7500000000005
187 27.275 ['19', '17', '25', '3'] 1363.7500000000005
188 27.275 ['19', '17', '25', '3'] 1363.7500000000005
189 27.275 ['19', '17', '25', '3'] 1363.7500000000005
190 27.275 ['19', '17', '25', '3'] 1363.7500000000005
191 27.275 ['19', '17', '25', '3'] 1363.7500000000005
192 27.275 ['19', '17', '25', '3'] 1363.7500000000005
193 27.275 ['19', '17', '25', '3'] 1363.7500000000005
194 27.275 ['19', '17', '25', '3'] 1363.7500000000005
195 27.275 ['19', '17', '25', '3'] 1363.7500000000005
196 27.275 ['19', '17', '25', '3'] 1363.7500000000005
197 27.275 ['19', '17', '25', '3'] 1363.7500000000005
198 27.275 ['19', '17', '25', '3'] 1363.7500000000005
199 27.275 ['19', '17', '25', '3'] 1363.7500000000005
