0 8.333333333333334 ['21', '30', '16'] 430.1333333333333
1 7.933333333333334 ['8', '21', '4'] 423.8333333333336
2 7.933333333333334 ['8', '21', '4'] 417.49999999999994
3 7.933333333333334 ['8', '21', '4'] 412.70000000000005
4 7.933333333333334 ['8', '21', '4'] 407.06666666666655
5 7.933333333333334 ['8', '21', '4'] 403.10000000000036
6 7.933333333333334 ['8', '21', '4'] 401.23333333333375
7 7.933333333333334 ['8', '21', '4'] 399.30000000000024
8 7.933333333333334 ['8', '21', '4'] 398.0666666666667
9 7.933333333333334 ['8', '21', '4'] 396.6666666666668
10 7.933333333333334 ['8', '21', '4'] 396.6666666666668
11 7.933333333333334 ['8', '21', '4'] 396.6666666666668
12 7.933333333333334 ['8', '21', '4'] 396.6666666666668
13 7.933333333333334 ['8', '21', '4'] 396.6666666666668
14 7.933333333333334 ['8', '21', '4'] 396.6666666666668
15 7.933333333333334 ['8', '21', '4'] 396.6666666666668
16 7.933333333333334 ['8', '21', '4'] 396.6666666666668
17 7.933333333333334 ['8', '21', '4'] 396.6666666666668
18 7.933333333333334 ['8', '21', '4'] 396.6666666666668
19 7.933333333333334 ['8', '21', '4'] 396.6666666666668
20 7.933333333333334 ['8', '21', '4'] 396.6666666666668
21 7.933333333333334 ['8', '21', '4'] 396.6666666666668
22 7.933333333333334 ['8', '21', '4'] 396.6666666666668
23 7.933333333333334 ['8', '21', '4'] 396.6666666666668
24 7.933333333333334 ['8', '21', '4'] 396.6666666666668
25 7.933333333333334 ['8', '21', '4'] 396.6666666666668
26 7.933333333333334 ['8', '21', '4'] 396.6666666666668
27 7.933333333333334 ['8', '21', '4'] 396.6666666666668
28 7.933333333333334 ['8', '21', '4'] 396.6666666666668
29 7.933333333333334 ['8', '21', '4'] 396.6666666666668
30 7.933333333333334 ['8', '21', '4'] 396.6666666666668
31 7.933333333333334 ['8', '21', '4'] 396.6666666666668
32 7.933333333333334 ['8', '21', '4'] 396.6666666666668
33 7.933333333333334 ['8', '21', '4'] 396.6666666666668
34 7.933333333333334 ['8', '21', '4'] 396.6666666666668
35 7.933333333333334 ['8', '21', '4'] 396.6666666666668
36 7.933333333333334 ['8', '21', '4'] 396.6666666666668
37 7.933333333333334 ['8', '21', '4'] 396.6666666666668
38 7.933333333333334 ['8', '21', '4'] 396.6666666666668
39 7.933333333333334 ['8', '21', '4'] 396.6666666666668
40 7.933333333333334 ['8', '21', '4'] 396.6666666666668
41 7.933333333333334 ['8', '21', '4'] 396.6666666666668
42 7.933333333333334 ['8', '21', '4'] 396.6666666666668
43 7.933333333333334 ['8', '21', '4'] 396.6666666666668
44 7.933333333333334 ['8', '21', '4'] 396.6666666666668
45 7.933333333333334 ['8', '21', '4'] 396.6666666666668
46 7.933333333333334 ['8', '21', '4'] 396.6666666666668
47 7.933333333333334 ['8', '21', '4'] 396.6666666666668
48 7.933333333333334 ['8', '21', '4'] 396.6666666666668
49 7.933333333333334 ['8', '21', '4'] 396.6666666666668
50 7.933333333333334 ['8', '21', '4'] 396.6666666666668
51 7.933333333333334 ['8', '21', '4'] 396.6666666666668
52 7.933333333333334 ['8', '21', '4'] 396.6666666666668
53 7.933333333333334 ['8', '21', '4'] 396.6666666666668
54 7.933333333333334 ['8', '21', '4'] 396.6666666666668
55 7.933333333333334 ['8', '21', '4'] 396.6666666666668
56 7.933333333333334 ['8', '21', '4'] 396.6666666666668
57 7.933333333333334 ['8', '21', '4'] 396.6666666666668
58 7.933333333333334 ['8', '21', '4'] 396.6666666666668
59 7.933333333333334 ['8', '21', '4'] 396.6666666666668
60 7.933333333333334 ['8', '21', '4'] 396.6666666666668
61 7.933333333333334 ['8', '21', '4'] 396.6666666666668
62 7.933333333333334 ['8', '21', '4'] 396.6666666666668
63 7.933333333333334 ['8', '21', '4'] 396.6666666666668
64 7.933333333333334 ['8', '21', '4'] 396.6666666666668
65 7.933333333333334 ['8', '21', '4'] 396.6666666666668
66 7.933333333333334 ['8', '21', '4'] 396.6666666666668
67 7.933333333333334 ['8', '21', '4'] 396.6666666666668
68 7.933333333333334 ['8', '21', '4'] 396.6666666666668
69 7.933333333333334 ['8', '21', '4'] 396.6666666666668
70 7.933333333333334 ['8', '21', '4'] 396.6666666666668
71 7.933333333333334 ['8', '21', '4'] 396.6666666666668
72 7.933333333333334 ['8', '21', '4'] 396.6666666666668
73 7.933333333333334 ['8', '21', '4'] 396.6666666666668
74 7.933333333333334 ['8', '21', '4'] 396.6666666666668
75 7.933333333333334 ['8', '21', '4'] 396.6666666666668
76 7.933333333333334 ['8', '21', '4'] 396.6666666666668
77 7.933333333333334 ['8', '21', '4'] 396.6666666666668
78 7.933333333333334 ['8', '21', '4'] 396.6666666666668
79 7.933333333333334 ['8', '21', '4'] 396.6666666666668
80 7.933333333333334 ['8', '21', '4'] 396.6666666666668
81 7.933333333333334 ['8', '21', '4'] 396.6666666666668
82 7.933333333333334 ['8', '21', '4'] 396.6666666666668
83 7.933333333333334 ['8', '21', '4'] 396.6666666666668
84 7.933333333333334 ['8', '21', '4'] 396.6666666666668
85 7.933333333333334 ['8', '21', '4'] 396.6666666666668
86 7.933333333333334 ['8', '21', '4'] 396.6666666666668
87 7.933333333333334 ['8', '21', '4'] 396.6666666666668
88 7.933333333333334 ['8', '21', '4'] 396.6666666666668
89 7.933333333333334 ['8', '21', '4'] 396.6666666666668
90 7.933333333333334 ['8', '21', '4'] 396.6666666666668
91 7.933333333333334 ['8', '21', '4'] 396.6666666666668
92 7.933333333333334 ['8', '21', '4'] 396.6666666666668
93 7.933333333333334 ['8', '21', '4'] 396.6666666666668
94 7.933333333333334 ['8', '21', '4'] 396.6666666666668
95 7.933333333333334 ['8', '21', '4'] 396.6666666666668
96 7.933333333333334 ['8', '21', '4'] 396.6666666666668
97 7.933333333333334 ['8', '21', '4'] 396.6666666666668
98 7.933333333333334 ['8', '21', '4'] 396.6666666666668
99 7.933333333333334 ['8', '21', '4'] 396.6666666666668
100 7.933333333333334 ['8', '21', '4'] 396.6666666666668
101 7.933333333333334 ['8', '21', '4'] 396.6666666666668
102 7.933333333333334 ['8', '21', '4'] 396.6666666666668
103 7.933333333333334 ['8', '21', '4'] 396.6666666666668
104 7.933333333333334 ['8', '21', '4'] 396.6666666666668
105 7.933333333333334 ['8', '21', '4'] 396.6666666666668
106 7.933333333333334 ['8', '21', '4'] 396.6666666666668
107 7.933333333333334 ['8', '21', '4'] 396.6666666666668
108 7.933333333333334 ['8', '21', '4'] 396.6666666666668
109 7.933333333333334 ['8', '21', '4'] 396.6666666666668
110 7.933333333333334 ['8', '21', '4'] 396.6666666666668
111 7.933333333333334 ['8', '21', '4'] 396.6666666666668
112 7.933333333333334 ['8', '21', '4'] 396.6666666666668
113 7.933333333333334 ['8', '21', '4'] 396.6666666666668
114 7.933333333333334 ['8', '21', '4'] 396.6666666666668
115 7.933333333333334 ['8', '21', '4'] 396.6666666666668
116 7.933333333333334 ['8', '21', '4'] 396.6666666666668
117 7.933333333333334 ['8', '21', '4'] 396.6666666666668
118 7.933333333333334 ['8', '21', '4'] 396.6666666666668
119 7.933333333333334 ['8', '21', '4'] 396.6666666666668
120 7.933333333333334 ['8', '21', '4'] 396.6666666666668
121 7.933333333333334 ['8', '21', '4'] 396.6666666666668
122 7.933333333333334 ['8', '21', '4'] 396.6666666666668
123 7.933333333333334 ['8', '21', '4'] 396.6666666666668
124 7.933333333333334 ['8', '21', '4'] 396.6666666666668
125 7.933333333333334 ['8', '21', '4'] 396.6666666666668
126 7.933333333333334 ['8', '21', '4'] 396.6666666666668
127 7.933333333333334 ['8', '21', '4'] 396.6666666666668
128 7.933333333333334 ['8', '21', '4'] 396.6666666666668
129 7.933333333333334 ['8', '21', '4'] 396.6666666666668
130 7.933333333333334 ['8', '21', '4'] 396.6666666666668
131 7.933333333333334 ['8', '21', '4'] 396.6666666666668
132 7.933333333333334 ['8', '21', '4'] 396.6666666666668
133 7.933333333333334 ['8', '21', '4'] 396.6666666666668
134 7.933333333333334 ['8', '21', '4'] 396.6666666666668
135 7.933333333333334 ['8', '21', '4'] 396.6666666666668
136 7.933333333333334 ['8', '21', '4'] 396.6666666666668
137 7.933333333333334 ['8', '21', '4'] 396.6666666666668
138 7.933333333333334 ['8', '21', '4'] 396.6666666666668
139 7.933333333333334 ['8', '21', '4'] 396.6666666666668
140 7.933333333333334 ['8', '21', '4'] 396.6666666666668
141 7.933333333333334 ['8', '21', '4'] 396.6666666666668
142 7.933333333333334 ['8', '21', '4'] 396.6666666666668
143 7.933333333333334 ['8', '21', '4'] 396.6666666666668
144 7.933333333333334 ['8', '21', '4'] 396.6666666666668
145 7.933333333333334 ['8', '21', '4'] 396.6666666666668
146 7.933333333333334 ['8', '21', '4'] 396.6666666666668
147 7.933333333333334 ['8', '21', '4'] 396.6666666666668
148 7.933333333333334 ['8', '21', '4'] 396.6666666666668
149 7.933333333333334 ['8', '21', '4'] 396.6666666666668
150 7.933333333333334 ['8', '21', '4'] 396.6666666666668
151 7.933333333333334 ['8', '21', '4'] 396.6666666666668
152 7.933333333333334 ['8', '21', '4'] 396.6666666666668
153 7.933333333333334 ['8', '21', '4'] 396.6666666666668
154 7.933333333333334 ['8', '21', '4'] 396.6666666666668
155 7.933333333333334 ['8', '21', '4'] 396.6666666666668
156 7.933333333333334 ['8', '21', '4'] 396.6666666666668
157 7.933333333333334 ['8', '21', '4'] 396.6666666666668
158 7.933333333333334 ['8', '21', '4'] 396.6666666666668
159 7.933333333333334 ['8', '21', '4'] 396.6666666666668
160 7.933333333333334 ['8', '21', '4'] 396.6666666666668
161 7.933333333333334 ['8', '21', '4'] 396.6666666666668
162 7.933333333333334 ['8', '21', '4'] 396.6666666666668
163 7.933333333333334 ['8', '21', '4'] 396.6666666666668
164 7.933333333333334 ['8', '21', '4'] 396.6666666666668
165 7.933333333333334 ['8', '21', '4'] 396.6666666666668
166 7.933333333333334 ['8', '21', '4'] 396.6666666666668
167 7.933333333333334 ['8', '21', '4'] 396.6666666666668
168 7.933333333333334 ['8', '21', '4'] 396.6666666666668
169 7.933333333333334 ['8', '21', '4'] 396.6666666666668
170 7.933333333333334 ['8', '21', '4'] 396.6666666666668
171 7.933333333333334 ['8', '21', '4'] 396.6666666666668
172 7.933333333333334 ['8', '21', '4'] 396.6666666666668
173 7.933333333333334 ['8', '21', '4'] 396.6666666666668
174 7.933333333333334 ['8', '21', '4'] 396.6666666666668
175 7.933333333333334 ['8', '21', '4'] 396.6666666666668
176 7.933333333333334 ['8', '21', '4'] 396.6666666666668
177 7.933333333333334 ['8', '21', '4'] 396.6666666666668
178 7.933333333333334 ['8', '21', '4'] 396.6666666666668
179 7.933333333333334 ['8', '21', '4'] 396.6666666666668
180 7.933333333333334 ['8', '21', '4'] 396.6666666666668
181 7.933333333333334 ['8', '21', '4'] 396.6666666666668
182 7.933333333333334 ['8', '21', '4'] 396.6666666666668
183 7.933333333333334 ['8', '21', '4'] 396.6666666666668
184 7.933333333333334 ['8', '21', '4'] 396.6666666666668
185 7.933333333333334 ['8', '21', '4'] 396.6666666666668
186 7.933333333333334 ['8', '21', '4'] 396.6666666666668
187 7.933333333333334 ['8', '21', '4'] 396.6666666666668
188 7.933333333333334 ['8', '21', '4'] 396.6666666666668
189 7.933333333333334 ['8', '21', '4'] 396.6666666666668
190 7.933333333333334 ['8', '21', '4'] 396.6666666666668
191 7.933333333333334 ['8', '21', '4'] 396.6666666666668
192 7.933333333333334 ['8', '21', '4'] 396.6666666666668
193 7.933333333333334 ['8', '21', '4'] 396.6666666666668
194 7.933333333333334 ['8', '21', '4'] 396.6666666666668
195 7.933333333333334 ['8', '21', '4'] 396.6666666666668
196 7.933333333333334 ['8', '21', '4'] 396.6666666666668
197 7.933333333333334 ['8', '21', '4'] 396.6666666666668
198 7.933333333333334 ['8', '21', '4'] 396.6666666666668
199 7.933333333333334 ['8', '21', '4'] 396.6666666666668
