0 38.905660377358494 ['38', '34', '56', '55', '21'] 2017.0754716981135
1 37.77358490566038 ['16', '21', '34', '53', '55'] 1989.9622641509427
2 37.77358490566038 ['16', '21', '34', '53', '55'] 1963.4150943396226
3 37.77358490566038 ['16', '21', '34', '53', '55'] 1940.5660377358488
4 37.45283018867924 ['16', '21', '53', '32', '17'] 1923.056603773585
5 37.45283018867924 ['16', '21', '53', '32', '17'] 1907.792452830188
6 37.283018867924525 ['21', '53', '41', '16', '55'] 1893.3396226415102
7 37.113207547169814 ['16', '21', '53', '32', '55'] 1880.9433962264131
8 37.113207547169814 ['16', '21', '53', '32', '55'] 1874.0188679245273
9 37.113207547169814 ['16', '21', '53', '32', '55'] 1865.4339622641505
10 37.113207547169814 ['16', '21', '53', '32', '55'] 1855.6603773584918
11 37.113207547169814 ['16', '21', '53', '32', '55'] 1855.6603773584918
12 37.113207547169814 ['16', '21', '53', '32', '55'] 1855.6603773584918
13 37.113207547169814 ['16', '21', '53', '32', '55'] 1855.6603773584918
14 37.113207547169814 ['16', '21', '53', '32', '55'] 1855.6603773584918
15 37.113207547169814 ['16', '21', '53', '32', '55'] 1855.6603773584918
16 37.113207547169814 ['16', '21', '53', '32', '55'] 1855.6603773584918
17 37.113207547169814 ['16', '21', '53', '32', '55'] 1855.6603773584918
18 37.113207547169814 ['16', '21', '53', '32', '55'] 1855.6603773584918
19 37.113207547169814 ['16', '21', '53', '32', '55'] 1855.6603773584918
20 37.113207547169814 ['16', '21', '53', '32', '55'] 1855.6603773584918
21 37.113207547169814 ['16', '21', '53', '32', '55'] 1855.6603773584918
22 37.113207547169814 ['16', '21', '53', '32', '55'] 1855.6603773584918
23 37.113207547169814 ['16', '21', '53', '32', '55'] 1855.6603773584918
24 37.113207547169814 ['16', '21', '53', '32', '55'] 1855.6603773584918
25 37.113207547169814 ['16', '21', '53', '32', '55'] 1855.6603773584918
26 37.113207547169814 ['16', '21', '53', '32', '55'] 1855.6603773584918
27 37.113207547169814 ['16', '21', '53', '32', '55'] 1855.6603773584918
28 37.113207547169814 ['16', '21', '53', '32', '55'] 1855.6603773584918
29 37.113207547169814 ['16', '21', '53', '32', '55'] 1855.6603773584918
30 37.113207547169814 ['16', '21', '53', '32', '55'] 1855.6603773584918
31 37.113207547169814 ['16', '21', '53', '32', '55'] 1855.6603773584918
32 37.113207547169814 ['16', '21', '53', '32', '55'] 1855.6603773584918
33 37.113207547169814 ['16', '21', '53', '32', '55'] 1855.6603773584918
34 37.113207547169814 ['16', '21', '53', '32', '55'] 1855.6603773584918
35 37.113207547169814 ['16', '21', '53', '32', '55'] 1855.6603773584918
36 37.113207547169814 ['16', '21', '53', '32', '55'] 1855.6603773584918
37 37.113207547169814 ['16', '21', '53', '32', '55'] 1855.6603773584918
38 37.113207547169814 ['16', '21', '53', '32', '55'] 1855.6603773584918
39 37.113207547169814 ['16', '21', '53', '32', '55'] 1855.6603773584918
40 37.113207547169814 ['16', '21', '53', '32', '55'] 1855.6603773584918
41 37.113207547169814 ['16', '21', '53', '32', '55'] 1855.6603773584918
42 37.113207547169814 ['16', '21', '53', '32', '55'] 1855.6603773584918
43 37.113207547169814 ['16', '21', '53', '32', '55'] 1855.6603773584918
44 37.113207547169814 ['16', '21', '53', '32', '55'] 1855.6603773584918
45 37.113207547169814 ['16', '21', '53', '32', '55'] 1855.6603773584918
46 37.113207547169814 ['16', '21', '53', '32', '55'] 1855.6603773584918
47 37.113207547169814 ['16', '21', '53', '32', '55'] 1855.6603773584918
48 37.113207547169814 ['16', '21', '53', '32', '55'] 1855.6603773584918
49 37.113207547169814 ['16', '21', '53', '32', '55'] 1855.6603773584918
50 37.113207547169814 ['16', '21', '53', '32', '55'] 1855.6603773584918
51 37.113207547169814 ['16', '21', '53', '32', '55'] 1855.6603773584918
52 37.113207547169814 ['16', '21', '53', '32', '55'] 1855.6603773584918
53 37.113207547169814 ['16', '21', '53', '32', '55'] 1855.6603773584918
54 37.113207547169814 ['16', '21', '53', '32', '55'] 1855.6603773584918
55 37.113207547169814 ['16', '21', '53', '32', '55'] 1855.6603773584918
56 37.113207547169814 ['16', '21', '53', '32', '55'] 1855.6603773584918
57 37.113207547169814 ['16', '21', '53', '32', '55'] 1855.6603773584918
58 37.113207547169814 ['16', '21', '53', '32', '55'] 1855.6603773584918
59 37.113207547169814 ['16', '21', '53', '32', '55'] 1855.6603773584918
60 37.113207547169814 ['16', '21', '53', '32', '55'] 1855.6603773584918
61 37.113207547169814 ['16', '21', '53', '32', '55'] 1855.6603773584918
62 37.113207547169814 ['16', '21', '53', '32', '55'] 1855.6603773584918
63 37.113207547169814 ['16', '21', '53', '32', '55'] 1855.6603773584918
64 37.113207547169814 ['16', '21', '53', '32', '55'] 1855.6603773584918
65 37.113207547169814 ['16', '21', '53', '32', '55'] 1855.6603773584918
66 37.113207547169814 ['16', '21', '53', '32', '55'] 1855.6603773584918
67 37.113207547169814 ['16', '21', '53', '32', '55'] 1855.6603773584918
68 37.113207547169814 ['16', '21', '53', '32', '55'] 1855.6603773584918
69 37.113207547169814 ['16', '21', '53', '32', '55'] 1855.6603773584918
70 37.113207547169814 ['16', '21', '53', '32', '55'] 1855.6603773584918
71 37.113207547169814 ['16', '21', '53', '32', '55'] 1855.6603773584918
72 37.113207547169814 ['16', '21', '53', '32', '55'] 1855.6603773584918
73 37.113207547169814 ['16', '21', '53', '32', '55'] 1855.6603773584918
74 37.113207547169814 ['16', '21', '53', '32', '55'] 1855.6603773584918
75 37.113207547169814 ['16', '21', '53', '32', '55'] 1855.6603773584918
76 37.113207547169814 ['16', '21', '53', '32', '55'] 1855.6603773584918
77 37.113207547169814 ['16', '21', '53', '32', '55'] 1855.6603773584918
78 37.113207547169814 ['16', '21', '53', '32', '55'] 1855.6603773584918
79 37.113207547169814 ['16', '21', '53', '32', '55'] 1855.6603773584918
80 37.113207547169814 ['16', '21', '53', '32', '55'] 1855.6603773584918
81 37.113207547169814 ['16', '21', '53', '32', '55'] 1855.6603773584918
82 37.113207547169814 ['16', '21', '53', '32', '55'] 1855.6603773584918
83 37.113207547169814 ['16', '21', '53', '32', '55'] 1855.6603773584918
84 37.113207547169814 ['16', '21', '53', '32', '55'] 1855.6603773584918
85 37.113207547169814 ['16', '21', '53', '32', '55'] 1855.6603773584918
86 37.113207547169814 ['16', '21', '53', '32', '55'] 1855.6603773584918
87 37.113207547169814 ['16', '21', '53', '32', '55'] 1855.6603773584918
88 37.113207547169814 ['16', '21', '53', '32', '55'] 1855.6603773584918
89 37.113207547169814 ['16', '21', '53', '32', '55'] 1855.6603773584918
90 37.113207547169814 ['16', '21', '53', '32', '55'] 1855.6603773584918
91 37.113207547169814 ['16', '21', '53', '32', '55'] 1855.6603773584918
92 37.113207547169814 ['16', '21', '53', '32', '55'] 1855.6603773584918
93 37.113207547169814 ['16', '21', '53', '32', '55'] 1855.6603773584918
94 37.113207547169814 ['16', '21', '53', '32', '55'] 1855.6603773584918
95 37.113207547169814 ['16', '21', '53', '32', '55'] 1855.6603773584918
96 37.113207547169814 ['16', '21', '53', '32', '55'] 1855.6603773584918
97 37.113207547169814 ['16', '21', '53', '32', '55'] 1855.6603773584918
98 37.113207547169814 ['16', '21', '53', '32', '55'] 1855.6603773584918
99 37.113207547169814 ['16', '21', '53', '32', '55'] 1855.6603773584918
100 37.113207547169814 ['16', '21', '53', '32', '55'] 1855.6603773584918
101 37.113207547169814 ['16', '21', '53', '32', '55'] 1855.6603773584918
102 37.113207547169814 ['16', '21', '53', '32', '55'] 1855.6603773584918
103 37.113207547169814 ['16', '21', '53', '32', '55'] 1855.6603773584918
104 37.113207547169814 ['16', '21', '53', '32', '55'] 1855.6603773584918
105 37.113207547169814 ['16', '21', '53', '32', '55'] 1855.6603773584918
106 37.113207547169814 ['16', '21', '53', '32', '55'] 1855.6603773584918
107 37.113207547169814 ['16', '21', '53', '32', '55'] 1855.6603773584918
108 37.113207547169814 ['16', '21', '53', '32', '55'] 1855.6603773584918
109 37.113207547169814 ['16', '21', '53', '32', '55'] 1855.6603773584918
110 37.113207547169814 ['16', '21', '53', '32', '55'] 1855.6603773584918
111 37.113207547169814 ['16', '21', '53', '32', '55'] 1855.6603773584918
112 37.113207547169814 ['16', '21', '53', '32', '55'] 1855.6603773584918
113 37.113207547169814 ['16', '21', '53', '32', '55'] 1855.6603773584918
114 37.113207547169814 ['16', '21', '53', '32', '55'] 1855.6603773584918
115 37.113207547169814 ['16', '21', '53', '32', '55'] 1855.6603773584918
116 37.113207547169814 ['16', '21', '53', '32', '55'] 1855.6603773584918
117 37.113207547169814 ['16', '21', '53', '32', '55'] 1855.6603773584918
118 37.113207547169814 ['16', '21', '53', '32', '55'] 1855.6603773584918
119 37.113207547169814 ['16', '21', '53', '32', '55'] 1855.6603773584918
120 37.113207547169814 ['16', '21', '53', '32', '55'] 1855.6603773584918
121 37.113207547169814 ['16', '21', '53', '32', '55'] 1855.6603773584918
122 37.113207547169814 ['16', '21', '53', '32', '55'] 1855.6603773584918
123 37.113207547169814 ['16', '21', '53', '32', '55'] 1855.6603773584918
124 37.113207547169814 ['16', '21', '53', '32', '55'] 1855.6603773584918
125 37.113207547169814 ['16', '21', '53', '32', '55'] 1855.6603773584918
126 37.113207547169814 ['16', '21', '53', '32', '55'] 1855.6603773584918
127 37.113207547169814 ['16', '21', '53', '32', '55'] 1855.6603773584918
128 37.113207547169814 ['16', '21', '53', '32', '55'] 1855.6603773584918
129 37.113207547169814 ['16', '21', '53', '32', '55'] 1855.6603773584918
130 37.113207547169814 ['16', '21', '53', '32', '55'] 1855.6603773584918
131 37.113207547169814 ['16', '21', '53', '32', '55'] 1855.6603773584918
132 37.113207547169814 ['16', '21', '53', '32', '55'] 1855.6603773584918
133 37.113207547169814 ['16', '21', '53', '32', '55'] 1855.6603773584918
134 37.113207547169814 ['16', '21', '53', '32', '55'] 1855.6603773584918
135 37.113207547169814 ['16', '21', '53', '32', '55'] 1855.6603773584918
136 37.113207547169814 ['16', '21', '53', '32', '55'] 1855.6603773584918
137 37.113207547169814 ['16', '21', '53', '32', '55'] 1855.6603773584918
138 37.113207547169814 ['16', '21', '53', '32', '55'] 1855.6603773584918
139 37.113207547169814 ['16', '21', '53', '32', '55'] 1855.6603773584918
140 37.113207547169814 ['16', '21', '53', '32', '55'] 1855.6603773584918
141 37.113207547169814 ['16', '21', '53', '32', '55'] 1855.6603773584918
142 37.113207547169814 ['16', '21', '53', '32', '55'] 1855.6603773584918
143 37.113207547169814 ['16', '21', '53', '32', '55'] 1855.6603773584918
144 37.113207547169814 ['16', '21', '53', '32', '55'] 1855.6603773584918
145 37.113207547169814 ['16', '21', '53', '32', '55'] 1855.6603773584918
146 37.113207547169814 ['16', '21', '53', '32', '55'] 1855.6603773584918
147 37.113207547169814 ['16', '21', '53', '32', '55'] 1855.6603773584918
148 37.113207547169814 ['16', '21', '53', '32', '55'] 1855.6603773584918
149 37.113207547169814 ['16', '21', '53', '32', '55'] 1855.6603773584918
150 37.113207547169814 ['16', '21', '53', '32', '55'] 1855.6603773584918
151 37.113207547169814 ['16', '21', '53', '32', '55'] 1855.6603773584918
152 37.113207547169814 ['16', '21', '53', '32', '55'] 1855.6603773584918
153 37.113207547169814 ['16', '21', '53', '32', '55'] 1855.6603773584918
154 37.113207547169814 ['16', '21', '53', '32', '55'] 1855.6603773584918
155 37.113207547169814 ['16', '21', '53', '32', '55'] 1855.6603773584918
156 37.113207547169814 ['16', '21', '53', '32', '55'] 1855.6603773584918
157 37.113207547169814 ['16', '21', '53', '32', '55'] 1855.6603773584918
158 37.113207547169814 ['16', '21', '53', '32', '55'] 1855.6603773584918
159 37.113207547169814 ['16', '21', '53', '32', '55'] 1855.6603773584918
160 37.113207547169814 ['16', '21', '53', '32', '55'] 1855.6603773584918
161 37.113207547169814 ['16', '21', '53', '32', '55'] 1855.6603773584918
162 37.113207547169814 ['16', '21', '53', '32', '55'] 1855.6603773584918
163 37.113207547169814 ['16', '21', '53', '32', '55'] 1855.6603773584918
164 37.113207547169814 ['16', '21', '53', '32', '55'] 1855.6603773584918
165 37.113207547169814 ['16', '21', '53', '32', '55'] 1855.6603773584918
166 37.113207547169814 ['16', '21', '53', '32', '55'] 1855.6603773584918
167 37.113207547169814 ['16', '21', '53', '32', '55'] 1855.6603773584918
168 37.113207547169814 ['16', '21', '53', '32', '55'] 1855.6603773584918
169 37.113207547169814 ['16', '21', '53', '32', '55'] 1855.6603773584918
170 37.113207547169814 ['16', '21', '53', '32', '55'] 1855.6603773584918
171 37.113207547169814 ['16', '21', '53', '32', '55'] 1855.6603773584918
172 37.113207547169814 ['16', '21', '53', '32', '55'] 1855.6603773584918
173 37.113207547169814 ['16', '21', '53', '32', '55'] 1855.6603773584918
174 37.113207547169814 ['16', '21', '53', '32', '55'] 1855.6603773584918
175 37.113207547169814 ['16', '21', '53', '32', '55'] 1855.6603773584918
176 37.113207547169814 ['16', '21', '53', '32', '55'] 1855.6603773584918
177 37.113207547169814 ['16', '21', '53', '32', '55'] 1855.6603773584918
178 37.113207547169814 ['16', '21', '53', '32', '55'] 1855.6603773584918
179 37.113207547169814 ['16', '21', '53', '32', '55'] 1855.6603773584918
180 37.113207547169814 ['16', '21', '53', '32', '55'] 1855.6603773584918
181 37.113207547169814 ['16', '21', '53', '32', '55'] 1855.6603773584918
182 37.113207547169814 ['16', '21', '53', '32', '55'] 1855.6603773584918
183 37.113207547169814 ['16', '21', '53', '32', '55'] 1855.6603773584918
184 37.113207547169814 ['16', '21', '53', '32', '55'] 1855.6603773584918
185 37.113207547169814 ['16', '21', '53', '32', '55'] 1855.6603773584918
186 37.113207547169814 ['16', '21', '53', '32', '55'] 1855.6603773584918
187 37.113207547169814 ['16', '21', '53', '32', '55'] 1855.6603773584918
188 37.113207547169814 ['16', '21', '53', '32', '55'] 1855.6603773584918
189 37.113207547169814 ['16', '21', '53', '32', '55'] 1855.6603773584918
190 37.113207547169814 ['16', '21', '53', '32', '55'] 1855.6603773584918
191 37.113207547169814 ['16', '21', '53', '32', '55'] 1855.6603773584918
192 37.113207547169814 ['16', '21', '53', '32', '55'] 1855.6603773584918
193 37.113207547169814 ['16', '21', '53', '32', '55'] 1855.6603773584918
194 37.113207547169814 ['16', '21', '53', '32', '55'] 1855.6603773584918
195 37.113207547169814 ['16', '21', '53', '32', '55'] 1855.6603773584918
196 37.113207547169814 ['16', '21', '53', '32', '55'] 1855.6603773584918
197 37.113207547169814 ['16', '21', '53', '32', '55'] 1855.6603773584918
198 37.113207547169814 ['16', '21', '53', '32', '55'] 1855.6603773584918
199 37.113207547169814 ['16', '21', '53', '32', '55'] 1855.6603773584918
