0 24.704545454545453 ['46', '5', '8', '1'] 1299.7272727272725
1 24.09090909090909 ['42', '5', '22', '1'] 1274.295454545454
2 24.09090909090909 ['42', '5', '22', '1'] 1249.4545454545455
3 24.068181818181817 ['1', '27', '46', '48'] 1226.5040404040406
4 23.886363636363637 ['1', '24', '46', '48'] 1212.7954545454547
5 23.886363636363637 ['1', '24', '46', '48'] 1206.022727272727
6 23.704545454545453 ['1', '48', '46', '22'] 1201.4545454545462
7 23.704545454545453 ['1', '48', '46', '22'] 1196.5681818181806
8 23.704545454545453 ['1', '48', '46', '22'] 1191.6590909090914
9 23.704545454545453 ['1', '48', '46', '22'] 1187.7954545454536
10 23.704545454545453 ['1', '48', '46', '22'] 1185.5454545454552
11 23.704545454545453 ['1', '48', '46', '22'] 1185.2272727272737
12 23.704545454545453 ['1', '48', '46', '22'] 1185.2272727272737
13 23.704545454545453 ['1', '48', '46', '22'] 1185.2272727272737
14 23.704545454545453 ['1', '48', '46', '22'] 1185.2272727272737
15 23.704545454545453 ['1', '48', '46', '22'] 1185.2272727272737
16 23.704545454545453 ['1', '48', '46', '22'] 1185.2272727272737
17 23.704545454545453 ['1', '48', '46', '22'] 1185.2272727272737
18 23.704545454545453 ['1', '48', '46', '22'] 1185.2272727272737
19 23.704545454545453 ['1', '48', '46', '22'] 1185.2272727272737
20 23.704545454545453 ['1', '48', '46', '22'] 1185.2272727272737
21 23.704545454545453 ['1', '48', '46', '22'] 1185.2272727272737
22 23.704545454545453 ['1', '48', '46', '22'] 1185.2272727272737
23 23.704545454545453 ['1', '48', '46', '22'] 1185.2272727272737
24 23.704545454545453 ['1', '48', '46', '22'] 1185.2272727272737
25 23.704545454545453 ['1', '48', '46', '22'] 1185.2272727272737
26 23.704545454545453 ['1', '48', '46', '22'] 1185.2272727272737
27 23.704545454545453 ['1', '48', '46', '22'] 1185.2272727272737
28 23.704545454545453 ['1', '48', '46', '22'] 1185.2272727272737
29 23.704545454545453 ['1', '48', '46', '22'] 1185.2272727272737
30 23.704545454545453 ['1', '48', '46', '22'] 1185.2272727272737
31 23.704545454545453 ['1', '48', '46', '22'] 1185.2272727272737
32 23.704545454545453 ['1', '48', '46', '22'] 1185.2272727272737
33 23.704545454545453 ['1', '48', '46', '22'] 1185.2272727272737
34 23.704545454545453 ['1', '48', '46', '22'] 1185.2272727272737
35 23.704545454545453 ['1', '48', '46', '22'] 1185.2272727272737
36 23.704545454545453 ['1', '48', '46', '22'] 1185.2272727272737
37 23.704545454545453 ['1', '48', '46', '22'] 1185.2272727272737
38 23.704545454545453 ['1', '48', '46', '22'] 1185.2272727272737
39 23.704545454545453 ['1', '48', '46', '22'] 1185.2272727272737
40 23.704545454545453 ['1', '48', '46', '22'] 1185.2272727272737
41 23.704545454545453 ['1', '48', '46', '22'] 1185.2272727272737
42 23.704545454545453 ['1', '48', '46', '22'] 1185.2272727272737
43 23.704545454545453 ['1', '48', '46', '22'] 1185.2272727272737
44 23.704545454545453 ['1', '48', '46', '22'] 1185.2272727272737
45 23.704545454545453 ['1', '48', '46', '22'] 1185.2272727272737
46 23.704545454545453 ['1', '48', '46', '22'] 1185.2272727272737
47 23.704545454545453 ['1', '48', '46', '22'] 1185.2272727272737
48 23.704545454545453 ['1', '48', '46', '22'] 1185.2272727272737
49 23.704545454545453 ['1', '48', '46', '22'] 1185.2272727272737
50 23.704545454545453 ['1', '48', '46', '22'] 1185.2272727272737
51 23.704545454545453 ['1', '48', '46', '22'] 1185.2272727272737
52 23.704545454545453 ['1', '48', '46', '22'] 1185.2272727272737
53 23.704545454545453 ['1', '48', '46', '22'] 1185.2272727272737
54 23.704545454545453 ['1', '48', '46', '22'] 1185.2272727272737
55 23.704545454545453 ['1', '48', '46', '22'] 1185.2272727272737
56 23.704545454545453 ['1', '48', '46', '22'] 1185.2272727272737
57 23.704545454545453 ['1', '48', '46', '22'] 1185.2272727272737
58 23.704545454545453 ['1', '48', '46', '22'] 1185.2272727272737
59 23.704545454545453 ['1', '48', '46', '22'] 1185.2272727272737
60 23.704545454545453 ['1', '48', '46', '22'] 1185.2272727272737
61 23.704545454545453 ['1', '48', '46', '22'] 1185.2272727272737
62 23.704545454545453 ['1', '48', '46', '22'] 1185.2272727272737
63 23.704545454545453 ['1', '48', '46', '22'] 1185.2272727272737
64 23.704545454545453 ['1', '48', '46', '22'] 1185.2272727272737
65 23.704545454545453 ['1', '48', '46', '22'] 1185.2272727272737
66 23.704545454545453 ['1', '48', '46', '22'] 1185.2272727272737
67 23.704545454545453 ['1', '48', '46', '22'] 1185.2272727272737
68 23.704545454545453 ['1', '48', '46', '22'] 1185.2272727272737
69 23.704545454545453 ['1', '48', '46', '22'] 1185.2272727272737
70 23.704545454545453 ['1', '48', '46', '22'] 1185.2272727272737
71 23.704545454545453 ['1', '48', '46', '22'] 1185.2272727272737
72 23.704545454545453 ['1', '48', '46', '22'] 1185.2272727272737
73 23.704545454545453 ['1', '48', '46', '22'] 1185.2272727272737
74 23.704545454545453 ['1', '48', '46', '22'] 1185.2272727272737
75 23.704545454545453 ['1', '48', '46', '22'] 1185.2272727272737
76 23.704545454545453 ['1', '48', '46', '22'] 1185.2272727272737
77 23.704545454545453 ['1', '48', '46', '22'] 1185.2272727272737
78 23.704545454545453 ['1', '48', '46', '22'] 1185.2272727272737
79 23.704545454545453 ['1', '48', '46', '22'] 1185.2272727272737
80 23.704545454545453 ['1', '48', '46', '22'] 1185.2272727272737
81 23.704545454545453 ['1', '48', '46', '22'] 1185.2272727272737
82 23.704545454545453 ['1', '48', '46', '22'] 1185.2272727272737
83 23.704545454545453 ['1', '48', '46', '22'] 1185.2272727272737
84 23.704545454545453 ['1', '48', '46', '22'] 1185.2272727272737
85 23.704545454545453 ['1', '48', '46', '22'] 1185.2272727272737
86 23.704545454545453 ['1', '48', '46', '22'] 1185.2272727272737
87 23.704545454545453 ['1', '48', '46', '22'] 1185.2272727272737
88 23.704545454545453 ['1', '48', '46', '22'] 1185.2272727272737
89 23.704545454545453 ['1', '48', '46', '22'] 1185.2272727272737
90 23.704545454545453 ['1', '48', '46', '22'] 1185.2272727272737
91 23.704545454545453 ['1', '48', '46', '22'] 1185.2272727272737
92 23.704545454545453 ['1', '48', '46', '22'] 1185.2272727272737
93 23.704545454545453 ['1', '48', '46', '22'] 1185.2272727272737
94 23.704545454545453 ['1', '48', '46', '22'] 1185.2272727272737
95 23.704545454545453 ['1', '48', '46', '22'] 1185.2272727272737
96 23.704545454545453 ['1', '48', '46', '22'] 1185.2272727272737
97 23.704545454545453 ['1', '48', '46', '22'] 1185.2272727272737
98 23.704545454545453 ['1', '48', '46', '22'] 1185.2272727272737
99 23.704545454545453 ['1', '48', '46', '22'] 1185.2272727272737
100 23.704545454545453 ['1', '48', '46', '22'] 1185.2272727272737
101 23.704545454545453 ['1', '48', '46', '22'] 1185.2272727272737
102 23.704545454545453 ['1', '48', '46', '22'] 1185.2272727272737
103 23.704545454545453 ['1', '48', '46', '22'] 1185.2272727272737
104 23.704545454545453 ['1', '48', '46', '22'] 1185.2272727272737
105 23.704545454545453 ['1', '48', '46', '22'] 1185.2272727272737
106 23.704545454545453 ['1', '48', '46', '22'] 1185.2272727272737
107 23.704545454545453 ['1', '48', '46', '22'] 1185.2272727272737
108 23.704545454545453 ['1', '48', '46', '22'] 1185.2272727272737
109 23.704545454545453 ['1', '48', '46', '22'] 1185.2272727272737
110 23.704545454545453 ['1', '48', '46', '22'] 1185.2272727272737
111 23.704545454545453 ['1', '48', '46', '22'] 1185.2272727272737
112 23.704545454545453 ['1', '48', '46', '22'] 1185.2272727272737
113 23.704545454545453 ['1', '48', '46', '22'] 1185.2272727272737
114 23.704545454545453 ['1', '48', '46', '22'] 1185.2272727272737
115 23.704545454545453 ['1', '48', '46', '22'] 1185.2272727272737
116 23.704545454545453 ['1', '48', '46', '22'] 1185.2272727272737
117 23.704545454545453 ['1', '48', '46', '22'] 1185.2272727272737
118 23.704545454545453 ['1', '48', '46', '22'] 1185.2272727272737
119 23.704545454545453 ['1', '48', '46', '22'] 1185.2272727272737
120 23.704545454545453 ['1', '48', '46', '22'] 1185.2272727272737
121 23.704545454545453 ['1', '48', '46', '22'] 1185.2272727272737
122 23.704545454545453 ['1', '48', '46', '22'] 1185.2272727272737
123 23.704545454545453 ['1', '48', '46', '22'] 1185.2272727272737
124 23.704545454545453 ['1', '48', '46', '22'] 1185.2272727272737
125 23.704545454545453 ['1', '48', '46', '22'] 1185.2272727272737
126 23.704545454545453 ['1', '48', '46', '22'] 1185.2272727272737
127 23.704545454545453 ['1', '48', '46', '22'] 1185.2272727272737
128 23.704545454545453 ['1', '48', '46', '22'] 1185.2272727272737
129 23.704545454545453 ['1', '48', '46', '22'] 1185.2272727272737
130 23.704545454545453 ['1', '48', '46', '22'] 1185.2272727272737
131 23.704545454545453 ['1', '48', '46', '22'] 1185.2272727272737
132 23.704545454545453 ['1', '48', '46', '22'] 1185.2272727272737
133 23.704545454545453 ['1', '48', '46', '22'] 1185.2272727272737
134 23.704545454545453 ['1', '48', '46', '22'] 1185.2272727272737
135 23.704545454545453 ['1', '48', '46', '22'] 1185.2272727272737
136 23.704545454545453 ['1', '48', '46', '22'] 1185.2272727272737
137 23.704545454545453 ['1', '48', '46', '22'] 1185.2272727272737
138 23.704545454545453 ['1', '48', '46', '22'] 1185.2272727272737
139 23.704545454545453 ['1', '48', '46', '22'] 1185.2272727272737
140 23.704545454545453 ['1', '48', '46', '22'] 1185.2272727272737
141 23.704545454545453 ['1', '48', '46', '22'] 1185.2272727272737
142 23.704545454545453 ['1', '48', '46', '22'] 1185.2272727272737
143 23.704545454545453 ['1', '48', '46', '22'] 1185.2272727272737
144 23.704545454545453 ['1', '48', '46', '22'] 1185.2272727272737
145 23.704545454545453 ['1', '48', '46', '22'] 1185.2272727272737
146 23.704545454545453 ['1', '48', '46', '22'] 1185.2272727272737
147 23.704545454545453 ['1', '48', '46', '22'] 1185.2272727272737
148 23.704545454545453 ['1', '48', '46', '22'] 1185.2272727272737
149 23.704545454545453 ['1', '48', '46', '22'] 1185.2272727272737
150 23.704545454545453 ['1', '48', '46', '22'] 1185.2272727272737
151 23.704545454545453 ['1', '48', '46', '22'] 1185.2272727272737
152 23.704545454545453 ['1', '48', '46', '22'] 1185.2272727272737
153 23.704545454545453 ['1', '48', '46', '22'] 1185.2272727272737
154 23.704545454545453 ['1', '48', '46', '22'] 1185.2272727272737
155 23.704545454545453 ['1', '48', '46', '22'] 1185.2272727272737
156 23.704545454545453 ['1', '48', '46', '22'] 1185.2272727272737
157 23.704545454545453 ['1', '48', '46', '22'] 1185.2272727272737
158 23.704545454545453 ['1', '48', '46', '22'] 1185.2272727272737
159 23.704545454545453 ['1', '48', '46', '22'] 1185.2272727272737
160 23.704545454545453 ['1', '48', '46', '22'] 1185.2272727272737
161 23.704545454545453 ['1', '48', '46', '22'] 1185.2272727272737
162 23.704545454545453 ['1', '48', '46', '22'] 1185.2272727272737
163 23.704545454545453 ['1', '48', '46', '22'] 1185.2272727272737
164 23.704545454545453 ['1', '48', '46', '22'] 1185.2272727272737
165 23.704545454545453 ['1', '48', '46', '22'] 1185.2272727272737
166 23.704545454545453 ['1', '48', '46', '22'] 1185.2272727272737
167 23.704545454545453 ['1', '48', '46', '22'] 1185.2272727272737
168 23.704545454545453 ['1', '48', '46', '22'] 1185.2272727272737
169 23.704545454545453 ['1', '48', '46', '22'] 1185.2272727272737
170 23.704545454545453 ['1', '48', '46', '22'] 1185.2272727272737
171 23.704545454545453 ['1', '48', '46', '22'] 1185.2272727272737
172 23.704545454545453 ['1', '48', '46', '22'] 1185.2272727272737
173 23.704545454545453 ['1', '48', '46', '22'] 1185.2272727272737
174 23.704545454545453 ['1', '48', '46', '22'] 1185.2272727272737
175 23.704545454545453 ['1', '48', '46', '22'] 1185.2272727272737
176 23.704545454545453 ['1', '48', '46', '22'] 1185.2272727272737
177 23.704545454545453 ['1', '48', '46', '22'] 1185.2272727272737
178 23.704545454545453 ['1', '48', '46', '22'] 1185.2272727272737
179 23.704545454545453 ['1', '48', '46', '22'] 1185.2272727272737
180 23.704545454545453 ['1', '48', '46', '22'] 1185.2272727272737
181 23.704545454545453 ['1', '48', '46', '22'] 1185.2272727272737
182 23.704545454545453 ['1', '48', '46', '22'] 1185.2272727272737
183 23.704545454545453 ['1', '48', '46', '22'] 1185.2272727272737
184 23.704545454545453 ['1', '48', '46', '22'] 1185.2272727272737
185 23.704545454545453 ['1', '48', '46', '22'] 1185.2272727272737
186 23.704545454545453 ['1', '48', '46', '22'] 1185.2272727272737
187 23.704545454545453 ['1', '48', '46', '22'] 1185.2272727272737
188 23.704545454545453 ['1', '48', '46', '22'] 1185.2272727272737
189 23.704545454545453 ['1', '48', '46', '22'] 1185.2272727272737
190 23.704545454545453 ['1', '48', '46', '22'] 1185.2272727272737
191 23.704545454545453 ['1', '48', '46', '22'] 1185.2272727272737
192 23.704545454545453 ['1', '48', '46', '22'] 1185.2272727272737
193 23.704545454545453 ['1', '48', '46', '22'] 1185.2272727272737
194 23.704545454545453 ['1', '48', '46', '22'] 1185.2272727272737
195 23.704545454545453 ['1', '48', '46', '22'] 1185.2272727272737
196 23.704545454545453 ['1', '48', '46', '22'] 1185.2272727272737
197 23.704545454545453 ['1', '48', '46', '22'] 1185.2272727272737
198 23.704545454545453 ['1', '48', '46', '22'] 1185.2272727272737
199 23.704545454545453 ['1', '48', '46', '22'] 1185.2272727272737
