0 39.16981132075472 ['53', '32', '5', '51', '16'] 2029.8301886792453
1 38.735849056603776 ['53', '28', '17', '32', '9'] 1996.716981132076
2 38.056603773584904 ['17', '9', '32', '53', '43'] 1971.9245283018868
3 38.056603773584904 ['17', '9', '32', '53', '43'] 1950.7735849056598
4 37.660377358490564 ['10', '32', '56', '41', '53'] 1929.5660377358486
5 37.264150943396224 ['53', '32', '43', '39', '41'] 1910.830188679246
6 37.264150943396224 ['53', '32', '43', '39', '41'] 1895.4716981132076
7 37.22641509433962 ['53', '32', '20', '43', '41'] 1884.2075471698115
8 37.132075471698116 ['43', '53', '55', '32', '21'] 1875.5283018867922
9 36.9811320754717 ['53', '41', '32', '43', '21'] 1867.7547169811319
10 36.9811320754717 ['53', '41', '32', '43', '21'] 1862.0377358490555
11 36.9811320754717 ['53', '41', '32', '43', '21'] 1858.6226415094357
12 36.9811320754717 ['53', '41', '32', '43', '21'] 1854.4150943396223
13 36.9811320754717 ['53', '41', '32', '43', '21'] 1851.1509433962267
14 36.9811320754717 ['53', '41', '32', '43', '21'] 1850.981132075472
15 36.9811320754717 ['53', '41', '32', '43', '21'] 1850.3018867924532
16 36.9811320754717 ['53', '41', '32', '43', '21'] 1849.0566037735873
17 36.9811320754717 ['53', '41', '32', '43', '21'] 1849.0566037735873
18 36.9811320754717 ['53', '41', '32', '43', '21'] 1849.0566037735873
19 36.9811320754717 ['53', '41', '32', '43', '21'] 1849.0566037735873
20 36.9811320754717 ['53', '41', '32', '43', '21'] 1849.0566037735873
21 36.9811320754717 ['53', '41', '32', '43', '21'] 1849.0566037735873
22 36.9811320754717 ['53', '41', '32', '43', '21'] 1849.0566037735873
23 36.9811320754717 ['53', '41', '32', '43', '21'] 1849.0566037735873
24 36.9811320754717 ['53', '41', '32', '43', '21'] 1849.0566037735873
25 36.9811320754717 ['53', '41', '32', '43', '21'] 1849.0566037735873
26 36.9811320754717 ['53', '41', '32', '43', '21'] 1849.0566037735873
27 36.9811320754717 ['53', '41', '32', '43', '21'] 1849.0566037735873
28 36.9811320754717 ['53', '41', '32', '43', '21'] 1849.0566037735873
29 36.9811320754717 ['53', '41', '32', '43', '21'] 1849.0566037735873
30 36.9811320754717 ['53', '41', '32', '43', '21'] 1849.0566037735873
31 36.9811320754717 ['53', '41', '32', '43', '21'] 1849.0566037735873
32 36.9811320754717 ['53', '41', '32', '43', '21'] 1849.0566037735873
33 36.9811320754717 ['53', '41', '32', '43', '21'] 1849.0566037735873
34 36.9811320754717 ['53', '41', '32', '43', '21'] 1849.0566037735873
35 36.9811320754717 ['53', '41', '32', '43', '21'] 1849.0566037735873
36 36.9811320754717 ['53', '41', '32', '43', '21'] 1849.0566037735873
37 36.9811320754717 ['53', '41', '32', '43', '21'] 1849.0566037735873
38 36.9811320754717 ['53', '41', '32', '43', '21'] 1849.0566037735873
39 36.9811320754717 ['53', '41', '32', '43', '21'] 1849.0566037735873
40 36.9811320754717 ['53', '41', '32', '43', '21'] 1849.0566037735873
41 36.9811320754717 ['53', '41', '32', '43', '21'] 1849.0566037735873
42 36.9811320754717 ['53', '41', '32', '43', '21'] 1849.0566037735873
43 36.9811320754717 ['53', '41', '32', '43', '21'] 1849.0566037735873
44 36.9811320754717 ['53', '41', '32', '43', '21'] 1849.0566037735873
45 36.9811320754717 ['53', '41', '32', '43', '21'] 1849.0566037735873
46 36.9811320754717 ['53', '41', '32', '43', '21'] 1849.0566037735873
47 36.9811320754717 ['53', '41', '32', '43', '21'] 1849.0566037735873
48 36.9811320754717 ['53', '41', '32', '43', '21'] 1849.0566037735873
49 36.9811320754717 ['53', '41', '32', '43', '21'] 1849.0566037735873
50 36.9811320754717 ['53', '41', '32', '43', '21'] 1849.0566037735873
51 36.9811320754717 ['53', '41', '32', '43', '21'] 1849.0566037735873
52 36.9811320754717 ['53', '41', '32', '43', '21'] 1849.0566037735873
53 36.9811320754717 ['53', '41', '32', '43', '21'] 1849.0566037735873
54 36.9811320754717 ['53', '41', '32', '43', '21'] 1849.0566037735873
55 36.9811320754717 ['53', '41', '32', '43', '21'] 1849.0566037735873
56 36.9811320754717 ['53', '41', '32', '43', '21'] 1849.0566037735873
57 36.9811320754717 ['53', '41', '32', '43', '21'] 1849.0566037735873
58 36.9811320754717 ['53', '41', '32', '43', '21'] 1849.0566037735873
59 36.9811320754717 ['53', '41', '32', '43', '21'] 1849.0566037735873
60 36.9811320754717 ['53', '41', '32', '43', '21'] 1849.0566037735873
61 36.9811320754717 ['53', '41', '32', '43', '21'] 1849.0566037735873
62 36.9811320754717 ['53', '41', '32', '43', '21'] 1849.0566037735873
63 36.9811320754717 ['53', '41', '32', '43', '21'] 1849.0566037735873
64 36.9811320754717 ['53', '41', '32', '43', '21'] 1849.0566037735873
65 36.9811320754717 ['53', '41', '32', '43', '21'] 1849.0566037735873
66 36.9811320754717 ['53', '41', '32', '43', '21'] 1849.0566037735873
67 36.9811320754717 ['53', '41', '32', '43', '21'] 1849.0566037735873
68 36.9811320754717 ['53', '41', '32', '43', '21'] 1849.0566037735873
69 36.9811320754717 ['53', '41', '32', '43', '21'] 1849.0566037735873
70 36.9811320754717 ['53', '41', '32', '43', '21'] 1849.0566037735873
71 36.9811320754717 ['53', '41', '32', '43', '21'] 1849.0566037735873
72 36.9811320754717 ['53', '41', '32', '43', '21'] 1849.0566037735873
73 36.9811320754717 ['53', '41', '32', '43', '21'] 1849.0566037735873
74 36.9811320754717 ['53', '41', '32', '43', '21'] 1849.0566037735873
75 36.9811320754717 ['53', '41', '32', '43', '21'] 1849.0566037735873
76 36.9811320754717 ['53', '41', '32', '43', '21'] 1849.0566037735873
77 36.9811320754717 ['53', '41', '32', '43', '21'] 1849.0566037735873
78 36.9811320754717 ['53', '41', '32', '43', '21'] 1849.0566037735873
79 36.9811320754717 ['53', '41', '32', '43', '21'] 1849.0566037735873
80 36.9811320754717 ['53', '41', '32', '43', '21'] 1849.0566037735873
81 36.9811320754717 ['53', '41', '32', '43', '21'] 1849.0566037735873
82 36.9811320754717 ['53', '41', '32', '43', '21'] 1849.0566037735873
83 36.9811320754717 ['53', '41', '32', '43', '21'] 1849.0566037735873
84 36.9811320754717 ['53', '41', '32', '43', '21'] 1849.0566037735873
85 36.9811320754717 ['53', '41', '32', '43', '21'] 1849.0566037735873
86 36.9811320754717 ['53', '41', '32', '43', '21'] 1849.0566037735873
87 36.9811320754717 ['53', '41', '32', '43', '21'] 1849.0566037735873
88 36.9811320754717 ['53', '41', '32', '43', '21'] 1849.0566037735873
89 36.9811320754717 ['53', '41', '32', '43', '21'] 1849.0566037735873
90 36.9811320754717 ['53', '41', '32', '43', '21'] 1849.0566037735873
91 36.9811320754717 ['53', '41', '32', '43', '21'] 1849.0566037735873
92 36.9811320754717 ['53', '41', '32', '43', '21'] 1849.0566037735873
93 36.9811320754717 ['53', '41', '32', '43', '21'] 1849.0566037735873
94 36.9811320754717 ['53', '41', '32', '43', '21'] 1849.0566037735873
95 36.9811320754717 ['53', '41', '32', '43', '21'] 1849.0566037735873
96 36.9811320754717 ['53', '41', '32', '43', '21'] 1849.0566037735873
97 36.9811320754717 ['53', '41', '32', '43', '21'] 1849.0566037735873
98 36.9811320754717 ['53', '41', '32', '43', '21'] 1849.0566037735873
99 36.9811320754717 ['53', '41', '32', '43', '21'] 1849.0566037735873
100 36.9811320754717 ['53', '41', '32', '43', '21'] 1849.0566037735873
101 36.9811320754717 ['53', '41', '32', '43', '21'] 1849.0566037735873
102 36.9811320754717 ['53', '41', '32', '43', '21'] 1849.0566037735873
103 36.9811320754717 ['53', '41', '32', '43', '21'] 1849.0566037735873
104 36.9811320754717 ['53', '41', '32', '43', '21'] 1849.0566037735873
105 36.9811320754717 ['53', '41', '32', '43', '21'] 1849.0566037735873
106 36.9811320754717 ['53', '41', '32', '43', '21'] 1849.0566037735873
107 36.9811320754717 ['53', '41', '32', '43', '21'] 1849.0566037735873
108 36.9811320754717 ['53', '41', '32', '43', '21'] 1849.0566037735873
109 36.9811320754717 ['53', '41', '32', '43', '21'] 1849.0566037735873
110 36.9811320754717 ['53', '41', '32', '43', '21'] 1849.0566037735873
111 36.9811320754717 ['53', '41', '32', '43', '21'] 1849.0566037735873
112 36.9811320754717 ['53', '41', '32', '43', '21'] 1849.0566037735873
113 36.9811320754717 ['53', '41', '32', '43', '21'] 1849.0566037735873
114 36.9811320754717 ['53', '41', '32', '43', '21'] 1849.0566037735873
115 36.9811320754717 ['53', '41', '32', '43', '21'] 1849.0566037735873
116 36.9811320754717 ['53', '41', '32', '43', '21'] 1849.0566037735873
117 36.9811320754717 ['53', '41', '32', '43', '21'] 1849.0566037735873
118 36.9811320754717 ['53', '41', '32', '43', '21'] 1849.0566037735873
119 36.9811320754717 ['53', '41', '32', '43', '21'] 1849.0566037735873
120 36.9811320754717 ['53', '41', '32', '43', '21'] 1849.0566037735873
121 36.9811320754717 ['53', '41', '32', '43', '21'] 1849.0566037735873
122 36.9811320754717 ['53', '41', '32', '43', '21'] 1849.0566037735873
123 36.9811320754717 ['53', '41', '32', '43', '21'] 1849.0566037735873
124 36.9811320754717 ['53', '41', '32', '43', '21'] 1849.0566037735873
125 36.9811320754717 ['53', '41', '32', '43', '21'] 1849.0566037735873
126 36.9811320754717 ['53', '41', '32', '43', '21'] 1849.0566037735873
127 36.9811320754717 ['53', '41', '32', '43', '21'] 1849.0566037735873
128 36.9811320754717 ['53', '41', '32', '43', '21'] 1849.0566037735873
129 36.9811320754717 ['53', '41', '32', '43', '21'] 1849.0566037735873
130 36.9811320754717 ['53', '41', '32', '43', '21'] 1849.0566037735873
131 36.9811320754717 ['53', '41', '32', '43', '21'] 1849.0566037735873
132 36.9811320754717 ['53', '41', '32', '43', '21'] 1849.0566037735873
133 36.9811320754717 ['53', '41', '32', '43', '21'] 1849.0566037735873
134 36.9811320754717 ['53', '41', '32', '43', '21'] 1849.0566037735873
135 36.9811320754717 ['53', '41', '32', '43', '21'] 1849.0566037735873
136 36.9811320754717 ['53', '41', '32', '43', '21'] 1849.0566037735873
137 36.9811320754717 ['53', '41', '32', '43', '21'] 1849.0566037735873
138 36.9811320754717 ['53', '41', '32', '43', '21'] 1849.0566037735873
139 36.9811320754717 ['53', '41', '32', '43', '21'] 1849.0566037735873
140 36.9811320754717 ['53', '41', '32', '43', '21'] 1849.0566037735873
141 36.9811320754717 ['53', '41', '32', '43', '21'] 1849.0566037735873
142 36.9811320754717 ['53', '41', '32', '43', '21'] 1849.0566037735873
143 36.9811320754717 ['53', '41', '32', '43', '21'] 1849.0566037735873
144 36.9811320754717 ['53', '41', '32', '43', '21'] 1849.0566037735873
145 36.9811320754717 ['53', '41', '32', '43', '21'] 1849.0566037735873
146 36.9811320754717 ['53', '41', '32', '43', '21'] 1849.0566037735873
147 36.9811320754717 ['53', '41', '32', '43', '21'] 1849.0566037735873
148 36.9811320754717 ['53', '41', '32', '43', '21'] 1849.0566037735873
149 36.9811320754717 ['53', '41', '32', '43', '21'] 1849.0566037735873
150 36.9811320754717 ['53', '41', '32', '43', '21'] 1849.0566037735873
151 36.9811320754717 ['53', '41', '32', '43', '21'] 1849.0566037735873
152 36.9811320754717 ['53', '41', '32', '43', '21'] 1849.0566037735873
153 36.9811320754717 ['53', '41', '32', '43', '21'] 1849.0566037735873
154 36.9811320754717 ['53', '41', '32', '43', '21'] 1849.0566037735873
155 36.9811320754717 ['53', '41', '32', '43', '21'] 1849.0566037735873
156 36.9811320754717 ['53', '41', '32', '43', '21'] 1849.0566037735873
157 36.9811320754717 ['53', '41', '32', '43', '21'] 1849.0566037735873
158 36.9811320754717 ['53', '41', '32', '43', '21'] 1849.0566037735873
159 36.9811320754717 ['53', '41', '32', '43', '21'] 1849.0566037735873
160 36.9811320754717 ['53', '41', '32', '43', '21'] 1849.0566037735873
161 36.9811320754717 ['53', '41', '32', '43', '21'] 1849.0566037735873
162 36.9811320754717 ['53', '41', '32', '43', '21'] 1849.0566037735873
163 36.9811320754717 ['53', '41', '32', '43', '21'] 1849.0566037735873
164 36.9811320754717 ['53', '41', '32', '43', '21'] 1849.0566037735873
165 36.9811320754717 ['53', '41', '32', '43', '21'] 1849.0566037735873
166 36.9811320754717 ['53', '41', '32', '43', '21'] 1849.0566037735873
167 36.9811320754717 ['53', '41', '32', '43', '21'] 1849.0566037735873
168 36.9811320754717 ['53', '41', '32', '43', '21'] 1849.0566037735873
169 36.9811320754717 ['53', '41', '32', '43', '21'] 1849.0566037735873
170 36.9811320754717 ['53', '41', '32', '43', '21'] 1849.0566037735873
171 36.9811320754717 ['53', '41', '32', '43', '21'] 1849.0566037735873
172 36.9811320754717 ['53', '41', '32', '43', '21'] 1849.0566037735873
173 36.9811320754717 ['53', '41', '32', '43', '21'] 1849.0566037735873
174 36.9811320754717 ['53', '41', '32', '43', '21'] 1849.0566037735873
175 36.9811320754717 ['53', '41', '32', '43', '21'] 1849.0566037735873
176 36.9811320754717 ['53', '41', '32', '43', '21'] 1849.0566037735873
177 36.9811320754717 ['53', '41', '32', '43', '21'] 1849.0566037735873
178 36.9811320754717 ['53', '41', '32', '43', '21'] 1849.0566037735873
179 36.9811320754717 ['53', '41', '32', '43', '21'] 1849.0566037735873
180 36.9811320754717 ['53', '41', '32', '43', '21'] 1849.0566037735873
181 36.9811320754717 ['53', '41', '32', '43', '21'] 1849.0566037735873
182 36.9811320754717 ['53', '41', '32', '43', '21'] 1849.0566037735873
183 36.9811320754717 ['53', '41', '32', '43', '21'] 1849.0566037735873
184 36.9811320754717 ['53', '41', '32', '43', '21'] 1849.0566037735873
185 36.9811320754717 ['53', '41', '32', '43', '21'] 1849.0566037735873
186 36.9811320754717 ['53', '41', '32', '43', '21'] 1849.0566037735873
187 36.9811320754717 ['53', '41', '32', '43', '21'] 1849.0566037735873
188 36.9811320754717 ['53', '41', '32', '43', '21'] 1849.0566037735873
189 36.9811320754717 ['53', '41', '32', '43', '21'] 1849.0566037735873
190 36.9811320754717 ['53', '41', '32', '43', '21'] 1849.0566037735873
191 36.9811320754717 ['53', '41', '32', '43', '21'] 1849.0566037735873
192 36.9811320754717 ['53', '41', '32', '43', '21'] 1849.0566037735873
193 36.9811320754717 ['53', '41', '32', '43', '21'] 1849.0566037735873
194 36.9811320754717 ['53', '41', '32', '43', '21'] 1849.0566037735873
195 36.9811320754717 ['53', '41', '32', '43', '21'] 1849.0566037735873
196 36.9811320754717 ['53', '41', '32', '43', '21'] 1849.0566037735873
197 36.9811320754717 ['53', '41', '32', '43', '21'] 1849.0566037735873
198 36.9811320754717 ['53', '41', '32', '43', '21'] 1849.0566037735873
199 36.9811320754717 ['53', '41', '32', '43', '21'] 1849.0566037735873
