0 15.852941176470589 ['8', '31', '3'] 827.7941176470588
1 15.029411764705882 ['14', '8', '5'] 807.2058823529412
2 14.882352941176471 ['26', '23', '35'] 788.7941176470592
3 14.117647058823529 ['23', '8', '26'] 769.1764705882356
4 14.117647058823529 ['23', '8', '26'] 752.352941176471
5 14.117647058823529 ['23', '8', '26'] 743.6470588235284
6 14.117647058823529 ['23', '8', '26'] 736.1470588235292
7 14.117647058823529 ['23', '8', '26'] 720.4411764705885
8 14.117647058823529 ['23', '8', '26'] 705.8823529411767
9 14.117647058823529 ['23', '8', '26'] 705.8823529411767
10 14.117647058823529 ['23', '8', '26'] 705.8823529411767
11 14.117647058823529 ['23', '8', '26'] 705.8823529411767
12 14.117647058823529 ['23', '8', '26'] 705.8823529411767
13 14.117647058823529 ['23', '8', '26'] 705.8823529411767
14 14.117647058823529 ['23', '8', '26'] 705.8823529411767
15 14.117647058823529 ['23', '8', '26'] 705.8823529411767
16 14.117647058823529 ['23', '8', '26'] 705.8823529411767
17 14.117647058823529 ['23', '8', '26'] 705.8823529411767
18 14.117647058823529 ['23', '8', '26'] 705.8823529411767
19 14.117647058823529 ['23', '8', '26'] 705.8823529411767
20 14.117647058823529 ['23', '8', '26'] 705.8823529411767
21 14.117647058823529 ['23', '8', '26'] 705.8823529411767
22 14.117647058823529 ['23', '8', '26'] 705.8823529411767
23 14.117647058823529 ['23', '8', '26'] 705.8823529411767
24 14.117647058823529 ['23', '8', '26'] 705.8823529411767
25 14.117647058823529 ['23', '8', '26'] 705.8823529411767
26 14.117647058823529 ['23', '8', '26'] 705.8823529411767
27 14.117647058823529 ['23', '8', '26'] 705.8823529411767
28 14.117647058823529 ['23', '8', '26'] 705.8823529411767
29 14.117647058823529 ['23', '8', '26'] 705.8823529411767
30 14.117647058823529 ['23', '8', '26'] 705.8823529411767
31 14.117647058823529 ['23', '8', '26'] 705.8823529411767
32 14.117647058823529 ['23', '8', '26'] 705.8823529411767
33 14.117647058823529 ['23', '8', '26'] 705.8823529411767
34 14.117647058823529 ['23', '8', '26'] 705.8823529411767
35 14.117647058823529 ['23', '8', '26'] 705.8823529411767
36 14.117647058823529 ['23', '8', '26'] 705.8823529411767
37 14.117647058823529 ['23', '8', '26'] 705.8823529411767
38 14.117647058823529 ['23', '8', '26'] 705.8823529411767
39 14.117647058823529 ['23', '8', '26'] 705.8823529411767
40 14.117647058823529 ['23', '8', '26'] 705.8823529411767
41 14.117647058823529 ['23', '8', '26'] 705.8823529411767
42 14.117647058823529 ['23', '8', '26'] 705.8823529411767
43 14.117647058823529 ['23', '8', '26'] 705.8823529411767
44 14.117647058823529 ['23', '8', '26'] 705.8823529411767
45 14.117647058823529 ['23', '8', '26'] 705.8823529411767
46 14.117647058823529 ['23', '8', '26'] 705.8823529411767
47 14.117647058823529 ['23', '8', '26'] 705.8823529411767
48 14.117647058823529 ['23', '8', '26'] 705.8823529411767
49 14.117647058823529 ['23', '8', '26'] 705.8823529411767
50 14.117647058823529 ['23', '8', '26'] 705.8823529411767
51 14.117647058823529 ['23', '8', '26'] 705.8823529411767
52 14.117647058823529 ['23', '8', '26'] 705.8823529411767
53 14.117647058823529 ['23', '8', '26'] 705.8823529411767
54 14.117647058823529 ['23', '8', '26'] 705.8823529411767
55 14.117647058823529 ['23', '8', '26'] 705.8823529411767
56 14.117647058823529 ['23', '8', '26'] 705.8823529411767
57 14.117647058823529 ['23', '8', '26'] 705.8823529411767
58 14.117647058823529 ['23', '8', '26'] 705.8823529411767
59 14.117647058823529 ['23', '8', '26'] 705.8823529411767
60 14.117647058823529 ['23', '8', '26'] 705.8823529411767
61 14.117647058823529 ['23', '8', '26'] 705.8823529411767
62 14.117647058823529 ['23', '8', '26'] 705.8823529411767
63 14.117647058823529 ['23', '8', '26'] 705.8823529411767
64 14.117647058823529 ['23', '8', '26'] 705.8823529411767
65 14.117647058823529 ['23', '8', '26'] 705.8823529411767
66 14.117647058823529 ['23', '8', '26'] 705.8823529411767
67 14.117647058823529 ['23', '8', '26'] 705.8823529411767
68 14.117647058823529 ['23', '8', '26'] 705.8823529411767
69 14.117647058823529 ['23', '8', '26'] 705.8823529411767
70 14.117647058823529 ['23', '8', '26'] 705.8823529411767
71 14.117647058823529 ['23', '8', '26'] 705.8823529411767
72 14.117647058823529 ['23', '8', '26'] 705.8823529411767
73 14.117647058823529 ['23', '8', '26'] 705.8823529411767
74 14.117647058823529 ['23', '8', '26'] 705.8823529411767
75 14.117647058823529 ['23', '8', '26'] 705.8823529411767
76 14.117647058823529 ['23', '8', '26'] 705.8823529411767
77 14.117647058823529 ['23', '8', '26'] 705.8823529411767
78 14.117647058823529 ['23', '8', '26'] 705.8823529411767
79 14.117647058823529 ['23', '8', '26'] 705.8823529411767
80 14.117647058823529 ['23', '8', '26'] 705.8823529411767
81 14.117647058823529 ['23', '8', '26'] 705.8823529411767
82 14.117647058823529 ['23', '8', '26'] 705.8823529411767
83 14.117647058823529 ['23', '8', '26'] 705.8823529411767
84 14.117647058823529 ['23', '8', '26'] 705.8823529411767
85 14.117647058823529 ['23', '8', '26'] 705.8823529411767
86 14.117647058823529 ['23', '8', '26'] 705.8823529411767
87 14.117647058823529 ['23', '8', '26'] 705.8823529411767
88 14.117647058823529 ['23', '8', '26'] 705.8823529411767
89 14.117647058823529 ['23', '8', '26'] 705.8823529411767
90 14.117647058823529 ['23', '8', '26'] 705.8823529411767
91 14.117647058823529 ['23', '8', '26'] 705.8823529411767
92 14.117647058823529 ['23', '8', '26'] 705.8823529411767
93 14.117647058823529 ['23', '8', '26'] 705.8823529411767
94 14.117647058823529 ['23', '8', '26'] 705.8823529411767
95 14.117647058823529 ['23', '8', '26'] 705.8823529411767
96 14.117647058823529 ['23', '8', '26'] 705.8823529411767
97 14.117647058823529 ['23', '8', '26'] 705.8823529411767
98 14.117647058823529 ['23', '8', '26'] 705.8823529411767
99 14.117647058823529 ['23', '8', '26'] 705.8823529411767
100 14.117647058823529 ['23', '8', '26'] 705.8823529411767
101 14.117647058823529 ['23', '8', '26'] 705.8823529411767
102 14.117647058823529 ['23', '8', '26'] 705.8823529411767
103 14.117647058823529 ['23', '8', '26'] 705.8823529411767
104 14.117647058823529 ['23', '8', '26'] 705.8823529411767
105 14.117647058823529 ['23', '8', '26'] 705.8823529411767
106 14.117647058823529 ['23', '8', '26'] 705.8823529411767
107 14.117647058823529 ['23', '8', '26'] 705.8823529411767
108 14.117647058823529 ['23', '8', '26'] 705.8823529411767
109 14.117647058823529 ['23', '8', '26'] 705.8823529411767
110 14.117647058823529 ['23', '8', '26'] 705.8823529411767
111 14.117647058823529 ['23', '8', '26'] 705.8823529411767
112 14.117647058823529 ['23', '8', '26'] 705.8823529411767
113 14.117647058823529 ['23', '8', '26'] 705.8823529411767
114 14.117647058823529 ['23', '8', '26'] 705.8823529411767
115 14.117647058823529 ['23', '8', '26'] 705.8823529411767
116 14.117647058823529 ['23', '8', '26'] 705.8823529411767
117 14.117647058823529 ['23', '8', '26'] 705.8823529411767
118 14.117647058823529 ['23', '8', '26'] 705.8823529411767
119 14.117647058823529 ['23', '8', '26'] 705.8823529411767
120 14.117647058823529 ['23', '8', '26'] 705.8823529411767
121 14.117647058823529 ['23', '8', '26'] 705.8823529411767
122 14.117647058823529 ['23', '8', '26'] 705.8823529411767
123 14.117647058823529 ['23', '8', '26'] 705.8823529411767
124 14.117647058823529 ['23', '8', '26'] 705.8823529411767
125 14.117647058823529 ['23', '8', '26'] 705.8823529411767
126 14.117647058823529 ['23', '8', '26'] 705.8823529411767
127 14.117647058823529 ['23', '8', '26'] 705.8823529411767
128 14.117647058823529 ['23', '8', '26'] 705.8823529411767
129 14.117647058823529 ['23', '8', '26'] 705.8823529411767
130 14.117647058823529 ['23', '8', '26'] 705.8823529411767
131 14.117647058823529 ['23', '8', '26'] 705.8823529411767
132 14.117647058823529 ['23', '8', '26'] 705.8823529411767
133 14.117647058823529 ['23', '8', '26'] 705.8823529411767
134 14.117647058823529 ['23', '8', '26'] 705.8823529411767
135 14.117647058823529 ['23', '8', '26'] 705.8823529411767
136 14.117647058823529 ['23', '8', '26'] 705.8823529411767
137 14.117647058823529 ['23', '8', '26'] 705.8823529411767
138 14.117647058823529 ['23', '8', '26'] 705.8823529411767
139 14.117647058823529 ['23', '8', '26'] 705.8823529411767
140 14.117647058823529 ['23', '8', '26'] 705.8823529411767
141 14.117647058823529 ['23', '8', '26'] 705.8823529411767
142 14.117647058823529 ['23', '8', '26'] 705.8823529411767
143 14.117647058823529 ['23', '8', '26'] 705.8823529411767
144 14.117647058823529 ['23', '8', '26'] 705.8823529411767
145 14.117647058823529 ['23', '8', '26'] 705.8823529411767
146 14.117647058823529 ['23', '8', '26'] 705.8823529411767
147 14.117647058823529 ['23', '8', '26'] 705.8823529411767
148 14.117647058823529 ['23', '8', '26'] 705.8823529411767
149 14.117647058823529 ['23', '8', '26'] 705.8823529411767
150 14.117647058823529 ['23', '8', '26'] 705.8823529411767
151 14.117647058823529 ['23', '8', '26'] 705.8823529411767
152 14.117647058823529 ['23', '8', '26'] 705.8823529411767
153 14.117647058823529 ['23', '8', '26'] 705.8823529411767
154 14.117647058823529 ['23', '8', '26'] 705.8823529411767
155 14.117647058823529 ['23', '8', '26'] 705.8823529411767
156 14.117647058823529 ['23', '8', '26'] 705.8823529411767
157 14.117647058823529 ['23', '8', '26'] 705.8823529411767
158 14.117647058823529 ['23', '8', '26'] 705.8823529411767
159 14.117647058823529 ['23', '8', '26'] 705.8823529411767
160 14.117647058823529 ['23', '8', '26'] 705.8823529411767
161 14.117647058823529 ['23', '8', '26'] 705.8823529411767
162 14.117647058823529 ['23', '8', '26'] 705.8823529411767
163 14.117647058823529 ['23', '8', '26'] 705.8823529411767
164 14.117647058823529 ['23', '8', '26'] 705.8823529411767
165 14.117647058823529 ['23', '8', '26'] 705.8823529411767
166 14.117647058823529 ['23', '8', '26'] 705.8823529411767
167 14.117647058823529 ['23', '8', '26'] 705.8823529411767
168 14.117647058823529 ['23', '8', '26'] 705.8823529411767
169 14.117647058823529 ['23', '8', '26'] 705.8823529411767
170 14.117647058823529 ['23', '8', '26'] 705.8823529411767
171 14.117647058823529 ['23', '8', '26'] 705.8823529411767
172 14.117647058823529 ['23', '8', '26'] 705.8823529411767
173 14.117647058823529 ['23', '8', '26'] 705.8823529411767
174 14.117647058823529 ['23', '8', '26'] 705.8823529411767
175 14.117647058823529 ['23', '8', '26'] 705.8823529411767
176 14.117647058823529 ['23', '8', '26'] 705.8823529411767
177 14.117647058823529 ['23', '8', '26'] 705.8823529411767
178 14.117647058823529 ['23', '8', '26'] 705.8823529411767
179 14.117647058823529 ['23', '8', '26'] 705.8823529411767
180 14.117647058823529 ['23', '8', '26'] 705.8823529411767
181 14.117647058823529 ['23', '8', '26'] 705.8823529411767
182 14.117647058823529 ['23', '8', '26'] 705.8823529411767
183 14.117647058823529 ['23', '8', '26'] 705.8823529411767
184 14.117647058823529 ['23', '8', '26'] 705.8823529411767
185 14.117647058823529 ['23', '8', '26'] 705.8823529411767
186 14.117647058823529 ['23', '8', '26'] 705.8823529411767
187 14.117647058823529 ['23', '8', '26'] 705.8823529411767
188 14.117647058823529 ['23', '8', '26'] 705.8823529411767
189 14.117647058823529 ['23', '8', '26'] 705.8823529411767
190 14.117647058823529 ['23', '8', '26'] 705.8823529411767
191 14.117647058823529 ['23', '8', '26'] 705.8823529411767
192 14.117647058823529 ['23', '8', '26'] 705.8823529411767
193 14.117647058823529 ['23', '8', '26'] 705.8823529411767
194 14.117647058823529 ['23', '8', '26'] 705.8823529411767
195 14.117647058823529 ['23', '8', '26'] 705.8823529411767
196 14.117647058823529 ['23', '8', '26'] 705.8823529411767
197 14.117647058823529 ['23', '8', '26'] 705.8823529411767
198 14.117647058823529 ['23', '8', '26'] 705.8823529411767
199 14.117647058823529 ['23', '8', '26'] 705.8823529411767
