0 13.777777777777779 ['32', '40', '19', '37'] 726.0833333333335
1 13.194444444444445 ['19', '37', '32', '23'] 712.6111111111114
2 13.194444444444445 ['19', '37', '32', '23'] 696.8055555555559
3 12.63888888888889 ['23', '19', '28', '32'] 681.6666666666665
4 12.63888888888889 ['23', '19', '28', '32'] 667.8888888888885
5 12.63888888888889 ['23', '19', '28', '32'] 655.2499999999998
6 12.63888888888889 ['23', '19', '28', '32'] 644.4767267267265
7 12.63888888888889 ['23', '19', '28', '32'] 632.8370870870876
8 12.63888888888889 ['23', '19', '28', '32'] 631.9444444444451
9 12.63888888888889 ['23', '19', '28', '32'] 631.9444444444451
10 12.63888888888889 ['23', '19', '28', '32'] 631.9444444444451
11 12.63888888888889 ['23', '19', '28', '32'] 631.9444444444451
12 12.63888888888889 ['23', '19', '28', '32'] 631.9444444444451
13 12.63888888888889 ['23', '19', '28', '32'] 631.9444444444451
14 12.63888888888889 ['23', '19', '28', '32'] 631.9444444444451
15 12.63888888888889 ['23', '19', '28', '32'] 631.9444444444451
16 12.63888888888889 ['23', '19', '28', '32'] 631.9444444444451
17 12.63888888888889 ['23', '19', '28', '32'] 631.9444444444451
18 12.63888888888889 ['23', '19', '28', '32'] 631.9444444444451
19 12.63888888888889 ['23', '19', '28', '32'] 631.9444444444451
20 12.63888888888889 ['23', '19', '28', '32'] 631.9444444444451
21 12.63888888888889 ['23', '19', '28', '32'] 631.9444444444451
22 12.63888888888889 ['23', '19', '28', '32'] 631.9444444444451
23 12.63888888888889 ['23', '19', '28', '32'] 631.9444444444451
24 12.63888888888889 ['23', '19', '28', '32'] 631.9444444444451
25 12.63888888888889 ['23', '19', '28', '32'] 631.9444444444451
26 12.63888888888889 ['23', '19', '28', '32'] 631.9444444444451
27 12.63888888888889 ['23', '19', '28', '32'] 631.9444444444451
28 12.63888888888889 ['23', '19', '28', '32'] 631.9444444444451
29 12.63888888888889 ['23', '19', '28', '32'] 631.9444444444451
30 12.63888888888889 ['23', '19', '28', '32'] 631.9444444444451
31 12.63888888888889 ['23', '19', '28', '32'] 631.9444444444451
32 12.63888888888889 ['23', '19', '28', '32'] 631.9444444444451
33 12.63888888888889 ['23', '19', '28', '32'] 631.9444444444451
34 12.63888888888889 ['23', '19', '28', '32'] 631.9444444444451
35 12.63888888888889 ['23', '19', '28', '32'] 631.9444444444451
36 12.63888888888889 ['23', '19', '28', '32'] 631.9444444444451
37 12.63888888888889 ['23', '19', '28', '32'] 631.9444444444451
38 12.63888888888889 ['23', '19', '28', '32'] 631.9444444444451
39 12.63888888888889 ['23', '19', '28', '32'] 631.9444444444451
40 12.63888888888889 ['23', '19', '28', '32'] 631.9444444444451
41 12.63888888888889 ['23', '19', '28', '32'] 631.9444444444451
42 12.63888888888889 ['23', '19', '28', '32'] 631.9444444444451
43 12.63888888888889 ['23', '19', '28', '32'] 631.9444444444451
44 12.63888888888889 ['23', '19', '28', '32'] 631.9444444444451
45 12.63888888888889 ['23', '19', '28', '32'] 631.9444444444451
46 12.63888888888889 ['23', '19', '28', '32'] 631.9444444444451
47 12.63888888888889 ['23', '19', '28', '32'] 631.9444444444451
48 12.63888888888889 ['23', '19', '28', '32'] 631.9444444444451
49 12.63888888888889 ['23', '19', '28', '32'] 631.9444444444451
50 12.63888888888889 ['23', '19', '28', '32'] 631.9444444444451
51 12.63888888888889 ['23', '19', '28', '32'] 631.9444444444451
52 12.63888888888889 ['23', '19', '28', '32'] 631.9444444444451
53 12.63888888888889 ['23', '19', '28', '32'] 631.9444444444451
54 12.63888888888889 ['23', '19', '28', '32'] 631.9444444444451
55 12.63888888888889 ['23', '19', '28', '32'] 631.9444444444451
56 12.63888888888889 ['23', '19', '28', '32'] 631.9444444444451
57 12.63888888888889 ['23', '19', '28', '32'] 631.9444444444451
58 12.63888888888889 ['23', '19', '28', '32'] 631.9444444444451
59 12.63888888888889 ['23', '19', '28', '32'] 631.9444444444451
60 12.63888888888889 ['23', '19', '28', '32'] 631.9444444444451
61 12.63888888888889 ['23', '19', '28', '32'] 631.9444444444451
62 12.63888888888889 ['23', '19', '28', '32'] 631.9444444444451
63 12.63888888888889 ['23', '19', '28', '32'] 631.9444444444451
64 12.63888888888889 ['23', '19', '28', '32'] 631.9444444444451
65 12.63888888888889 ['23', '19', '28', '32'] 631.9444444444451
66 12.63888888888889 ['23', '19', '28', '32'] 631.9444444444451
67 12.63888888888889 ['23', '19', '28', '32'] 631.9444444444451
68 12.63888888888889 ['23', '19', '28', '32'] 631.9444444444451
69 12.63888888888889 ['23', '19', '28', '32'] 631.9444444444451
70 12.63888888888889 ['23', '19', '28', '32'] 631.9444444444451
71 12.63888888888889 ['23', '19', '28', '32'] 631.9444444444451
72 12.63888888888889 ['23', '19', '28', '32'] 631.9444444444451
73 12.63888888888889 ['23', '19', '28', '32'] 631.9444444444451
74 12.63888888888889 ['23', '19', '28', '32'] 631.9444444444451
75 12.63888888888889 ['23', '19', '28', '32'] 631.9444444444451
76 12.63888888888889 ['23', '19', '28', '32'] 631.9444444444451
77 12.63888888888889 ['23', '19', '28', '32'] 631.9444444444451
78 12.63888888888889 ['23', '19', '28', '32'] 631.9444444444451
79 12.63888888888889 ['23', '19', '28', '32'] 631.9444444444451
80 12.63888888888889 ['23', '19', '28', '32'] 631.9444444444451
81 12.63888888888889 ['23', '19', '28', '32'] 631.9444444444451
82 12.63888888888889 ['23', '19', '28', '32'] 631.9444444444451
83 12.63888888888889 ['23', '19', '28', '32'] 631.9444444444451
84 12.63888888888889 ['23', '19', '28', '32'] 631.9444444444451
85 12.63888888888889 ['23', '19', '28', '32'] 631.9444444444451
86 12.63888888888889 ['23', '19', '28', '32'] 631.9444444444451
87 12.63888888888889 ['23', '19', '28', '32'] 631.9444444444451
88 12.63888888888889 ['23', '19', '28', '32'] 631.9444444444451
89 12.63888888888889 ['23', '19', '28', '32'] 631.9444444444451
90 12.63888888888889 ['23', '19', '28', '32'] 631.9444444444451
91 12.63888888888889 ['23', '19', '28', '32'] 631.9444444444451
92 12.63888888888889 ['23', '19', '28', '32'] 631.9444444444451
93 12.63888888888889 ['23', '19', '28', '32'] 631.9444444444451
94 12.63888888888889 ['23', '19', '28', '32'] 631.9444444444451
95 12.63888888888889 ['23', '19', '28', '32'] 631.9444444444451
96 12.63888888888889 ['23', '19', '28', '32'] 631.9444444444451
97 12.63888888888889 ['23', '19', '28', '32'] 631.9444444444451
98 12.63888888888889 ['23', '19', '28', '32'] 631.9444444444451
99 12.63888888888889 ['23', '19', '28', '32'] 631.9444444444451
100 12.63888888888889 ['23', '19', '28', '32'] 631.9444444444451
101 12.63888888888889 ['23', '19', '28', '32'] 631.9444444444451
102 12.63888888888889 ['23', '19', '28', '32'] 631.9444444444451
103 12.63888888888889 ['23', '19', '28', '32'] 631.9444444444451
104 12.63888888888889 ['23', '19', '28', '32'] 631.9444444444451
105 12.63888888888889 ['23', '19', '28', '32'] 631.9444444444451
106 12.63888888888889 ['23', '19', '28', '32'] 631.9444444444451
107 12.63888888888889 ['23', '19', '28', '32'] 631.9444444444451
108 12.63888888888889 ['23', '19', '28', '32'] 631.9444444444451
109 12.63888888888889 ['23', '19', '28', '32'] 631.9444444444451
110 12.63888888888889 ['23', '19', '28', '32'] 631.9444444444451
111 12.63888888888889 ['23', '19', '28', '32'] 631.9444444444451
112 12.63888888888889 ['23', '19', '28', '32'] 631.9444444444451
113 12.63888888888889 ['23', '19', '28', '32'] 631.9444444444451
114 12.63888888888889 ['23', '19', '28', '32'] 631.9444444444451
115 12.63888888888889 ['23', '19', '28', '32'] 631.9444444444451
116 12.63888888888889 ['23', '19', '28', '32'] 631.9444444444451
117 12.63888888888889 ['23', '19', '28', '32'] 631.9444444444451
118 12.63888888888889 ['23', '19', '28', '32'] 631.9444444444451
119 12.63888888888889 ['23', '19', '28', '32'] 631.9444444444451
120 12.63888888888889 ['23', '19', '28', '32'] 631.9444444444451
121 12.63888888888889 ['23', '19', '28', '32'] 631.9444444444451
122 12.63888888888889 ['23', '19', '28', '32'] 631.9444444444451
123 12.63888888888889 ['23', '19', '28', '32'] 631.9444444444451
124 12.63888888888889 ['23', '19', '28', '32'] 631.9444444444451
125 12.63888888888889 ['23', '19', '28', '32'] 631.9444444444451
126 12.63888888888889 ['23', '19', '28', '32'] 631.9444444444451
127 12.63888888888889 ['23', '19', '28', '32'] 631.9444444444451
128 12.63888888888889 ['23', '19', '28', '32'] 631.9444444444451
129 12.63888888888889 ['23', '19', '28', '32'] 631.9444444444451
130 12.63888888888889 ['23', '19', '28', '32'] 631.9444444444451
131 12.63888888888889 ['23', '19', '28', '32'] 631.9444444444451
132 12.63888888888889 ['23', '19', '28', '32'] 631.9444444444451
133 12.63888888888889 ['23', '19', '28', '32'] 631.9444444444451
134 12.63888888888889 ['23', '19', '28', '32'] 631.9444444444451
135 12.63888888888889 ['23', '19', '28', '32'] 631.9444444444451
136 12.63888888888889 ['23', '19', '28', '32'] 631.9444444444451
137 12.63888888888889 ['23', '19', '28', '32'] 631.9444444444451
138 12.63888888888889 ['23', '19', '28', '32'] 631.9444444444451
139 12.63888888888889 ['23', '19', '28', '32'] 631.9444444444451
140 12.63888888888889 ['23', '19', '28', '32'] 631.9444444444451
141 12.63888888888889 ['23', '19', '28', '32'] 631.9444444444451
142 12.63888888888889 ['23', '19', '28', '32'] 631.9444444444451
143 12.63888888888889 ['23', '19', '28', '32'] 631.9444444444451
144 12.63888888888889 ['23', '19', '28', '32'] 631.9444444444451
145 12.63888888888889 ['23', '19', '28', '32'] 631.9444444444451
146 12.63888888888889 ['23', '19', '28', '32'] 631.9444444444451
147 12.63888888888889 ['23', '19', '28', '32'] 631.9444444444451
148 12.63888888888889 ['23', '19', '28', '32'] 631.9444444444451
149 12.63888888888889 ['23', '19', '28', '32'] 631.9444444444451
150 12.63888888888889 ['23', '19', '28', '32'] 631.9444444444451
151 12.63888888888889 ['23', '19', '28', '32'] 631.9444444444451
152 12.63888888888889 ['23', '19', '28', '32'] 631.9444444444451
153 12.63888888888889 ['23', '19', '28', '32'] 631.9444444444451
154 12.63888888888889 ['23', '19', '28', '32'] 631.9444444444451
155 12.63888888888889 ['23', '19', '28', '32'] 631.9444444444451
156 12.63888888888889 ['23', '19', '28', '32'] 631.9444444444451
157 12.63888888888889 ['23', '19', '28', '32'] 631.9444444444451
158 12.63888888888889 ['23', '19', '28', '32'] 631.9444444444451
159 12.63888888888889 ['23', '19', '28', '32'] 631.9444444444451
160 12.63888888888889 ['23', '19', '28', '32'] 631.9444444444451
161 12.63888888888889 ['23', '19', '28', '32'] 631.9444444444451
162 12.63888888888889 ['23', '19', '28', '32'] 631.9444444444451
163 12.63888888888889 ['23', '19', '28', '32'] 631.9444444444451
164 12.63888888888889 ['23', '19', '28', '32'] 631.9444444444451
165 12.63888888888889 ['23', '19', '28', '32'] 631.9444444444451
166 12.63888888888889 ['23', '19', '28', '32'] 631.9444444444451
167 12.63888888888889 ['23', '19', '28', '32'] 631.9444444444451
168 12.63888888888889 ['23', '19', '28', '32'] 631.9444444444451
169 12.63888888888889 ['23', '19', '28', '32'] 631.9444444444451
170 12.63888888888889 ['23', '19', '28', '32'] 631.9444444444451
171 12.63888888888889 ['23', '19', '28', '32'] 631.9444444444451
172 12.63888888888889 ['23', '19', '28', '32'] 631.9444444444451
173 12.63888888888889 ['23', '19', '28', '32'] 631.9444444444451
174 12.63888888888889 ['23', '19', '28', '32'] 631.9444444444451
175 12.63888888888889 ['23', '19', '28', '32'] 631.9444444444451
176 12.63888888888889 ['23', '19', '28', '32'] 631.9444444444451
177 12.63888888888889 ['23', '19', '28', '32'] 631.9444444444451
178 12.63888888888889 ['23', '19', '28', '32'] 631.9444444444451
179 12.63888888888889 ['23', '19', '28', '32'] 631.9444444444451
180 12.63888888888889 ['23', '19', '28', '32'] 631.9444444444451
181 12.63888888888889 ['23', '19', '28', '32'] 631.9444444444451
182 12.63888888888889 ['23', '19', '28', '32'] 631.9444444444451
183 12.63888888888889 ['23', '19', '28', '32'] 631.9444444444451
184 12.63888888888889 ['23', '19', '28', '32'] 631.9444444444451
185 12.63888888888889 ['23', '19', '28', '32'] 631.9444444444451
186 12.63888888888889 ['23', '19', '28', '32'] 631.9444444444451
187 12.63888888888889 ['23', '19', '28', '32'] 631.9444444444451
188 12.63888888888889 ['23', '19', '28', '32'] 631.9444444444451
189 12.63888888888889 ['23', '19', '28', '32'] 631.9444444444451
190 12.63888888888889 ['23', '19', '28', '32'] 631.9444444444451
191 12.63888888888889 ['23', '19', '28', '32'] 631.9444444444451
192 12.63888888888889 ['23', '19', '28', '32'] 631.9444444444451
193 12.63888888888889 ['23', '19', '28', '32'] 631.9444444444451
194 12.63888888888889 ['23', '19', '28', '32'] 631.9444444444451
195 12.63888888888889 ['23', '19', '28', '32'] 631.9444444444451
196 12.63888888888889 ['23', '19', '28', '32'] 631.9444444444451
197 12.63888888888889 ['23', '19', '28', '32'] 631.9444444444451
198 12.63888888888889 ['23', '19', '28', '32'] 631.9444444444451
199 12.63888888888889 ['23', '19', '28', '32'] 631.9444444444451
