0 505.64102564102564 ['37', '23', '26', '33'] 27082.69230769231
1 499.53846153846155 ['33', '8', '23', '9'] 26485.74358974359
2 481.35897435897436 ['22', '8', '26', '36'] 25930.615384615387
3 477.61538461538464 ['8', '36', '26', '19'] 25302.20512820513
4 470.43589743589746 ['33', '26', '11', '36'] 24838.589743589742
5 466.6666666666667 ['33', '36', '26', '8'] 24399.64102564103
6 466.6666666666667 ['33', '36', '26', '8'] 23974.820512820526
7 466.6666666666667 ['33', '36', '26', '8'] 23607.64102564101
8 466.6666666666667 ['33', '36', '26', '8'] 23345.846153846156
9 466.6666666666667 ['33', '36', '26', '8'] 23333.333333333343
10 466.6666666666667 ['33', '36', '26', '8'] 23333.333333333343
11 466.6666666666667 ['33', '36', '26', '8'] 23333.333333333343
12 466.6666666666667 ['33', '36', '26', '8'] 23333.333333333343
13 466.6666666666667 ['33', '36', '26', '8'] 23333.333333333343
14 466.6666666666667 ['33', '36', '26', '8'] 23333.333333333343
15 466.6666666666667 ['33', '36', '26', '8'] 23333.333333333343
16 466.6666666666667 ['33', '36', '26', '8'] 23333.333333333343
17 466.6666666666667 ['33', '36', '26', '8'] 23333.333333333343
18 466.6666666666667 ['33', '36', '26', '8'] 23333.333333333343
19 466.6666666666667 ['33', '36', '26', '8'] 23333.333333333343
20 466.6666666666667 ['33', '36', '26', '8'] 23333.333333333343
21 466.6666666666667 ['33', '36', '26', '8'] 23333.333333333343
22 466.6666666666667 ['33', '36', '26', '8'] 23333.333333333343
23 466.6666666666667 ['33', '36', '26', '8'] 23333.333333333343
24 466.6666666666667 ['33', '36', '26', '8'] 23333.333333333343
25 466.6666666666667 ['33', '36', '26', '8'] 23333.333333333343
26 466.6666666666667 ['33', '36', '26', '8'] 23333.333333333343
27 466.6666666666667 ['33', '36', '26', '8'] 23333.333333333343
28 466.6666666666667 ['33', '36', '26', '8'] 23333.333333333343
29 466.6666666666667 ['33', '36', '26', '8'] 23333.333333333343
30 466.6666666666667 ['33', '36', '26', '8'] 23333.333333333343
31 466.6666666666667 ['33', '36', '26', '8'] 23333.333333333343
32 466.6666666666667 ['33', '36', '26', '8'] 23333.333333333343
33 466.6666666666667 ['33', '36', '26', '8'] 23333.333333333343
34 466.6666666666667 ['33', '36', '26', '8'] 23333.333333333343
35 466.6666666666667 ['33', '36', '26', '8'] 23333.333333333343
36 466.6666666666667 ['33', '36', '26', '8'] 23333.333333333343
37 466.6666666666667 ['33', '36', '26', '8'] 23333.333333333343
38 466.6666666666667 ['33', '36', '26', '8'] 23333.333333333343
39 466.6666666666667 ['33', '36', '26', '8'] 23333.333333333343
40 466.6666666666667 ['33', '36', '26', '8'] 23333.333333333343
41 466.6666666666667 ['33', '36', '26', '8'] 23333.333333333343
42 466.6666666666667 ['33', '36', '26', '8'] 23333.333333333343
43 466.6666666666667 ['33', '36', '26', '8'] 23333.333333333343
44 466.6666666666667 ['33', '36', '26', '8'] 23333.333333333343
45 466.6666666666667 ['33', '36', '26', '8'] 23333.333333333343
46 466.6666666666667 ['33', '36', '26', '8'] 23333.333333333343
47 466.6666666666667 ['33', '36', '26', '8'] 23333.333333333343
48 466.6666666666667 ['33', '36', '26', '8'] 23333.333333333343
49 466.6666666666667 ['33', '36', '26', '8'] 23333.333333333343
50 466.6666666666667 ['33', '36', '26', '8'] 23333.333333333343
51 466.6666666666667 ['33', '36', '26', '8'] 23333.333333333343
52 466.6666666666667 ['33', '36', '26', '8'] 23333.333333333343
53 466.6666666666667 ['33', '36', '26', '8'] 23333.333333333343
54 466.6666666666667 ['33', '36', '26', '8'] 23333.333333333343
55 466.6666666666667 ['33', '36', '26', '8'] 23333.333333333343
56 466.6666666666667 ['33', '36', '26', '8'] 23333.333333333343
57 466.6666666666667 ['33', '36', '26', '8'] 23333.333333333343
58 466.6666666666667 ['33', '36', '26', '8'] 23333.333333333343
59 466.6666666666667 ['33', '36', '26', '8'] 23333.333333333343
60 466.6666666666667 ['33', '36', '26', '8'] 23333.333333333343
61 466.6666666666667 ['33', '36', '26', '8'] 23333.333333333343
62 466.6666666666667 ['33', '36', '26', '8'] 23333.333333333343
63 466.6666666666667 ['33', '36', '26', '8'] 23333.333333333343
64 466.6666666666667 ['33', '36', '26', '8'] 23333.333333333343
65 466.6666666666667 ['33', '36', '26', '8'] 23333.333333333343
66 466.6666666666667 ['33', '36', '26', '8'] 23333.333333333343
67 466.6666666666667 ['33', '36', '26', '8'] 23333.333333333343
68 466.6666666666667 ['33', '36', '26', '8'] 23333.333333333343
69 466.6666666666667 ['33', '36', '26', '8'] 23333.333333333343
70 466.6666666666667 ['33', '36', '26', '8'] 23333.333333333343
71 466.6666666666667 ['33', '36', '26', '8'] 23333.333333333343
72 466.6666666666667 ['33', '36', '26', '8'] 23333.333333333343
73 466.6666666666667 ['33', '36', '26', '8'] 23333.333333333343
74 466.6666666666667 ['33', '36', '26', '8'] 23333.333333333343
75 466.6666666666667 ['33', '36', '26', '8'] 23333.333333333343
76 466.6666666666667 ['33', '36', '26', '8'] 23333.333333333343
77 466.6666666666667 ['33', '36', '26', '8'] 23333.333333333343
78 466.6666666666667 ['33', '36', '26', '8'] 23333.333333333343
79 466.6666666666667 ['33', '36', '26', '8'] 23333.333333333343
80 466.6666666666667 ['33', '36', '26', '8'] 23333.333333333343
81 466.6666666666667 ['33', '36', '26', '8'] 23333.333333333343
82 466.6666666666667 ['33', '36', '26', '8'] 23333.333333333343
83 466.6666666666667 ['33', '36', '26', '8'] 23333.333333333343
84 466.6666666666667 ['33', '36', '26', '8'] 23333.333333333343
85 466.6666666666667 ['33', '36', '26', '8'] 23333.333333333343
86 466.6666666666667 ['33', '36', '26', '8'] 23333.333333333343
87 466.6666666666667 ['33', '36', '26', '8'] 23333.333333333343
88 466.6666666666667 ['33', '36', '26', '8'] 23333.333333333343
89 466.6666666666667 ['33', '36', '26', '8'] 23333.333333333343
90 466.6666666666667 ['33', '36', '26', '8'] 23333.333333333343
91 466.6666666666667 ['33', '36', '26', '8'] 23333.333333333343
92 466.6666666666667 ['33', '36', '26', '8'] 23333.333333333343
93 466.6666666666667 ['33', '36', '26', '8'] 23333.333333333343
94 466.6666666666667 ['33', '36', '26', '8'] 23333.333333333343
95 466.6666666666667 ['33', '36', '26', '8'] 23333.333333333343
96 466.6666666666667 ['33', '36', '26', '8'] 23333.333333333343
97 466.6666666666667 ['33', '36', '26', '8'] 23333.333333333343
98 466.6666666666667 ['33', '36', '26', '8'] 23333.333333333343
99 466.6666666666667 ['33', '36', '26', '8'] 23333.333333333343
100 466.6666666666667 ['33', '36', '26', '8'] 23333.333333333343
101 466.6666666666667 ['33', '36', '26', '8'] 23333.333333333343
102 466.6666666666667 ['33', '36', '26', '8'] 23333.333333333343
103 466.6666666666667 ['33', '36', '26', '8'] 23333.333333333343
104 466.6666666666667 ['33', '36', '26', '8'] 23333.333333333343
105 466.6666666666667 ['33', '36', '26', '8'] 23333.333333333343
106 466.6666666666667 ['33', '36', '26', '8'] 23333.333333333343
107 466.6666666666667 ['33', '36', '26', '8'] 23333.333333333343
108 466.6666666666667 ['33', '36', '26', '8'] 23333.333333333343
109 466.6666666666667 ['33', '36', '26', '8'] 23333.333333333343
110 466.6666666666667 ['33', '36', '26', '8'] 23333.333333333343
111 466.6666666666667 ['33', '36', '26', '8'] 23333.333333333343
112 466.6666666666667 ['33', '36', '26', '8'] 23333.333333333343
113 466.6666666666667 ['33', '36', '26', '8'] 23333.333333333343
114 466.6666666666667 ['33', '36', '26', '8'] 23333.333333333343
115 466.6666666666667 ['33', '36', '26', '8'] 23333.333333333343
116 466.6666666666667 ['33', '36', '26', '8'] 23333.333333333343
117 466.6666666666667 ['33', '36', '26', '8'] 23333.333333333343
118 466.6666666666667 ['33', '36', '26', '8'] 23333.333333333343
119 466.6666666666667 ['33', '36', '26', '8'] 23333.333333333343
120 466.6666666666667 ['33', '36', '26', '8'] 23333.333333333343
121 466.6666666666667 ['33', '36', '26', '8'] 23333.333333333343
122 466.6666666666667 ['33', '36', '26', '8'] 23333.333333333343
123 466.6666666666667 ['33', '36', '26', '8'] 23333.333333333343
124 466.6666666666667 ['33', '36', '26', '8'] 23333.333333333343
125 466.6666666666667 ['33', '36', '26', '8'] 23333.333333333343
126 466.6666666666667 ['33', '36', '26', '8'] 23333.333333333343
127 466.6666666666667 ['33', '36', '26', '8'] 23333.333333333343
128 466.6666666666667 ['33', '36', '26', '8'] 23333.333333333343
129 466.6666666666667 ['33', '36', '26', '8'] 23333.333333333343
130 466.6666666666667 ['33', '36', '26', '8'] 23333.333333333343
131 466.6666666666667 ['33', '36', '26', '8'] 23333.333333333343
132 466.6666666666667 ['33', '36', '26', '8'] 23333.333333333343
133 466.6666666666667 ['33', '36', '26', '8'] 23333.333333333343
134 466.6666666666667 ['33', '36', '26', '8'] 23333.333333333343
135 466.6666666666667 ['33', '36', '26', '8'] 23333.333333333343
136 466.6666666666667 ['33', '36', '26', '8'] 23333.333333333343
137 466.6666666666667 ['33', '36', '26', '8'] 23333.333333333343
138 466.6666666666667 ['33', '36', '26', '8'] 23333.333333333343
139 466.6666666666667 ['33', '36', '26', '8'] 23333.333333333343
140 466.6666666666667 ['33', '36', '26', '8'] 23333.333333333343
141 466.6666666666667 ['33', '36', '26', '8'] 23333.333333333343
142 466.6666666666667 ['33', '36', '26', '8'] 23333.333333333343
143 466.6666666666667 ['33', '36', '26', '8'] 23333.333333333343
144 466.6666666666667 ['33', '36', '26', '8'] 23333.333333333343
145 466.6666666666667 ['33', '36', '26', '8'] 23333.333333333343
146 466.6666666666667 ['33', '36', '26', '8'] 23333.333333333343
147 466.6666666666667 ['33', '36', '26', '8'] 23333.333333333343
148 466.6666666666667 ['33', '36', '26', '8'] 23333.333333333343
149 466.6666666666667 ['33', '36', '26', '8'] 23333.333333333343
150 466.6666666666667 ['33', '36', '26', '8'] 23333.333333333343
151 466.6666666666667 ['33', '36', '26', '8'] 23333.333333333343
152 466.6666666666667 ['33', '36', '26', '8'] 23333.333333333343
153 466.6666666666667 ['33', '36', '26', '8'] 23333.333333333343
154 466.6666666666667 ['33', '36', '26', '8'] 23333.333333333343
155 466.6666666666667 ['33', '36', '26', '8'] 23333.333333333343
156 466.6666666666667 ['33', '36', '26', '8'] 23333.333333333343
157 466.6666666666667 ['33', '36', '26', '8'] 23333.333333333343
158 466.6666666666667 ['33', '36', '26', '8'] 23333.333333333343
159 466.6666666666667 ['33', '36', '26', '8'] 23333.333333333343
160 466.6666666666667 ['33', '36', '26', '8'] 23333.333333333343
161 466.6666666666667 ['33', '36', '26', '8'] 23333.333333333343
162 466.6666666666667 ['33', '36', '26', '8'] 23333.333333333343
163 466.6666666666667 ['33', '36', '26', '8'] 23333.333333333343
164 466.6666666666667 ['33', '36', '26', '8'] 23333.333333333343
165 466.6666666666667 ['33', '36', '26', '8'] 23333.333333333343
166 466.6666666666667 ['33', '36', '26', '8'] 23333.333333333343
167 466.6666666666667 ['33', '36', '26', '8'] 23333.333333333343
168 466.6666666666667 ['33', '36', '26', '8'] 23333.333333333343
169 466.6666666666667 ['33', '36', '26', '8'] 23333.333333333343
170 466.6666666666667 ['33', '36', '26', '8'] 23333.333333333343
171 466.6666666666667 ['33', '36', '26', '8'] 23333.333333333343
172 466.6666666666667 ['33', '36', '26', '8'] 23333.333333333343
173 466.6666666666667 ['33', '36', '26', '8'] 23333.333333333343
174 466.6666666666667 ['33', '36', '26', '8'] 23333.333333333343
175 466.6666666666667 ['33', '36', '26', '8'] 23333.333333333343
176 466.6666666666667 ['33', '36', '26', '8'] 23333.333333333343
177 466.6666666666667 ['33', '36', '26', '8'] 23333.333333333343
178 466.6666666666667 ['33', '36', '26', '8'] 23333.333333333343
179 466.6666666666667 ['33', '36', '26', '8'] 23333.333333333343
180 466.6666666666667 ['33', '36', '26', '8'] 23333.333333333343
181 466.6666666666667 ['33', '36', '26', '8'] 23333.333333333343
182 466.6666666666667 ['33', '36', '26', '8'] 23333.333333333343
183 466.6666666666667 ['33', '36', '26', '8'] 23333.333333333343
184 466.6666666666667 ['33', '36', '26', '8'] 23333.333333333343
185 466.6666666666667 ['33', '36', '26', '8'] 23333.333333333343
186 466.6666666666667 ['33', '36', '26', '8'] 23333.333333333343
187 466.6666666666667 ['33', '36', '26', '8'] 23333.333333333343
188 466.6666666666667 ['33', '36', '26', '8'] 23333.333333333343
189 466.6666666666667 ['33', '36', '26', '8'] 23333.333333333343
190 466.6666666666667 ['33', '36', '26', '8'] 23333.333333333343
191 466.6666666666667 ['33', '36', '26', '8'] 23333.333333333343
192 466.6666666666667 ['33', '36', '26', '8'] 23333.333333333343
193 466.6666666666667 ['33', '36', '26', '8'] 23333.333333333343
194 466.6666666666667 ['33', '36', '26', '8'] 23333.333333333343
195 466.6666666666667 ['33', '36', '26', '8'] 23333.333333333343
196 466.6666666666667 ['33', '36', '26', '8'] 23333.333333333343
197 466.6666666666667 ['33', '36', '26', '8'] 23333.333333333343
198 466.6666666666667 ['33', '36', '26', '8'] 23333.333333333343
199 466.6666666666667 ['33', '36', '26', '8'] 23333.333333333343
