0 31.58 ['43', '6', '7', '25', '42'] 1635.78
1 31.32 ['7', '31', '25', '38', '9'] 1611.5
2 30.1 ['34', '38', '6', '42', '36'] 1588.2199999999998
3 30.1 ['34', '38', '6', '42', '36'] 1563.2
4 30.1 ['34', '38', '6', '42', '36'] 1542.9600000000003
5 29.6 ['34', '38', '6', '42', '31'] 1527.0000000000005
6 29.56 ['31', '6', '38', '34', '7'] 1511.34
7 29.56 ['31', '6', '38', '34', '7'] 1501.0058823529407
8 29.56 ['31', '6', '38', '34', '7'] 1487.3600000000004
9 29.42 ['38', '6', '1', '31', '34'] 1479.3600000000001
10 29.34 ['6', '31', '38', '39', '34'] 1475.939999999998
11 29.34 ['6', '31', '38', '39', '34'] 1473.2799999999988
12 29.34 ['6', '31', '38', '39', '34'] 1469.5400000000004
13 29.34 ['6', '31', '38', '39', '34'] 1468.3400000000013
14 29.34 ['6', '31', '38', '39', '34'] 1466.999999999999
15 29.34 ['6', '31', '38', '39', '34'] 1466.999999999999
16 29.34 ['6', '31', '38', '39', '34'] 1466.999999999999
17 29.34 ['6', '31', '38', '39', '34'] 1466.999999999999
18 29.34 ['6', '31', '38', '39', '34'] 1466.999999999999
19 29.34 ['6', '31', '38', '39', '34'] 1466.999999999999
20 29.34 ['6', '31', '38', '39', '34'] 1466.999999999999
21 29.34 ['6', '31', '38', '39', '34'] 1466.999999999999
22 29.34 ['6', '31', '38', '39', '34'] 1466.999999999999
23 29.34 ['6', '31', '38', '39', '34'] 1466.999999999999
24 29.34 ['6', '31', '38', '39', '34'] 1466.999999999999
25 29.34 ['6', '31', '38', '39', '34'] 1466.999999999999
26 29.34 ['6', '31', '38', '39', '34'] 1466.999999999999
27 29.34 ['6', '31', '38', '39', '34'] 1466.999999999999
28 29.34 ['6', '31', '38', '39', '34'] 1466.999999999999
29 29.34 ['6', '31', '38', '39', '34'] 1466.999999999999
30 29.34 ['6', '31', '38', '39', '34'] 1466.999999999999
31 29.34 ['6', '31', '38', '39', '34'] 1466.999999999999
32 29.34 ['6', '31', '38', '39', '34'] 1466.999999999999
33 29.34 ['6', '31', '38', '39', '34'] 1466.999999999999
34 29.34 ['6', '31', '38', '39', '34'] 1466.999999999999
35 29.34 ['6', '31', '38', '39', '34'] 1466.999999999999
36 29.34 ['6', '31', '38', '39', '34'] 1466.999999999999
37 29.34 ['6', '31', '38', '39', '34'] 1466.999999999999
38 29.34 ['6', '31', '38', '39', '34'] 1466.999999999999
39 29.34 ['6', '31', '38', '39', '34'] 1466.999999999999
40 29.34 ['6', '31', '38', '39', '34'] 1466.999999999999
41 29.34 ['6', '31', '38', '39', '34'] 1466.999999999999
42 29.34 ['6', '31', '38', '39', '34'] 1466.999999999999
43 29.34 ['6', '31', '38', '39', '34'] 1466.999999999999
44 29.34 ['6', '31', '38', '39', '34'] 1466.999999999999
45 29.34 ['6', '31', '38', '39', '34'] 1466.999999999999
46 29.34 ['6', '31', '38', '39', '34'] 1466.999999999999
47 29.34 ['6', '31', '38', '39', '34'] 1466.999999999999
48 29.34 ['6', '31', '38', '39', '34'] 1466.999999999999
49 29.34 ['6', '31', '38', '39', '34'] 1466.999999999999
50 29.34 ['6', '31', '38', '39', '34'] 1466.999999999999
51 29.34 ['6', '31', '38', '39', '34'] 1466.999999999999
52 29.34 ['6', '31', '38', '39', '34'] 1466.999999999999
53 29.34 ['6', '31', '38', '39', '34'] 1466.999999999999
54 29.34 ['6', '31', '38', '39', '34'] 1466.999999999999
55 29.34 ['6', '31', '38', '39', '34'] 1466.999999999999
56 29.34 ['6', '31', '38', '39', '34'] 1466.999999999999
57 29.34 ['6', '31', '38', '39', '34'] 1466.999999999999
58 29.34 ['6', '31', '38', '39', '34'] 1466.999999999999
59 29.34 ['6', '31', '38', '39', '34'] 1466.999999999999
60 29.34 ['6', '31', '38', '39', '34'] 1466.999999999999
61 29.34 ['6', '31', '38', '39', '34'] 1466.999999999999
62 29.34 ['6', '31', '38', '39', '34'] 1466.999999999999
63 29.34 ['6', '31', '38', '39', '34'] 1466.999999999999
64 29.34 ['6', '31', '38', '39', '34'] 1466.999999999999
65 29.34 ['6', '31', '38', '39', '34'] 1466.999999999999
66 29.34 ['6', '31', '38', '39', '34'] 1466.999999999999
67 29.34 ['6', '31', '38', '39', '34'] 1466.999999999999
68 29.34 ['6', '31', '38', '39', '34'] 1466.999999999999
69 29.34 ['6', '31', '38', '39', '34'] 1466.999999999999
70 29.34 ['6', '31', '38', '39', '34'] 1466.999999999999
71 29.34 ['6', '31', '38', '39', '34'] 1466.999999999999
72 29.34 ['6', '31', '38', '39', '34'] 1466.999999999999
73 29.34 ['6', '31', '38', '39', '34'] 1466.999999999999
74 29.34 ['6', '31', '38', '39', '34'] 1466.999999999999
75 29.34 ['6', '31', '38', '39', '34'] 1466.999999999999
76 29.34 ['6', '31', '38', '39', '34'] 1466.999999999999
77 29.34 ['6', '31', '38', '39', '34'] 1466.999999999999
78 29.34 ['6', '31', '38', '39', '34'] 1466.999999999999
79 29.34 ['6', '31', '38', '39', '34'] 1466.999999999999
80 29.34 ['6', '31', '38', '39', '34'] 1466.999999999999
81 29.34 ['6', '31', '38', '39', '34'] 1466.999999999999
82 29.34 ['6', '31', '38', '39', '34'] 1466.999999999999
83 29.34 ['6', '31', '38', '39', '34'] 1466.999999999999
84 29.34 ['6', '31', '38', '39', '34'] 1466.999999999999
85 29.34 ['6', '31', '38', '39', '34'] 1466.999999999999
86 29.34 ['6', '31', '38', '39', '34'] 1466.999999999999
87 29.34 ['6', '31', '38', '39', '34'] 1466.999999999999
88 29.34 ['6', '31', '38', '39', '34'] 1466.999999999999
89 29.34 ['6', '31', '38', '39', '34'] 1466.999999999999
90 29.34 ['6', '31', '38', '39', '34'] 1466.999999999999
91 29.34 ['6', '31', '38', '39', '34'] 1466.999999999999
92 29.34 ['6', '31', '38', '39', '34'] 1466.999999999999
93 29.34 ['6', '31', '38', '39', '34'] 1466.999999999999
94 29.34 ['6', '31', '38', '39', '34'] 1466.999999999999
95 29.34 ['6', '31', '38', '39', '34'] 1466.999999999999
96 29.34 ['6', '31', '38', '39', '34'] 1466.999999999999
97 29.34 ['6', '31', '38', '39', '34'] 1466.999999999999
98 29.34 ['6', '31', '38', '39', '34'] 1466.999999999999
99 29.34 ['6', '31', '38', '39', '34'] 1466.999999999999
100 29.34 ['6', '31', '38', '39', '34'] 1466.999999999999
101 29.34 ['6', '31', '38', '39', '34'] 1466.999999999999
102 29.34 ['6', '31', '38', '39', '34'] 1466.999999999999
103 29.34 ['6', '31', '38', '39', '34'] 1466.999999999999
104 29.34 ['6', '31', '38', '39', '34'] 1466.999999999999
105 29.34 ['6', '31', '38', '39', '34'] 1466.999999999999
106 29.34 ['6', '31', '38', '39', '34'] 1466.999999999999
107 29.34 ['6', '31', '38', '39', '34'] 1466.999999999999
108 29.34 ['6', '31', '38', '39', '34'] 1466.999999999999
109 29.34 ['6', '31', '38', '39', '34'] 1466.999999999999
110 29.34 ['6', '31', '38', '39', '34'] 1466.999999999999
111 29.34 ['6', '31', '38', '39', '34'] 1466.999999999999
112 29.34 ['6', '31', '38', '39', '34'] 1466.999999999999
113 29.34 ['6', '31', '38', '39', '34'] 1466.999999999999
114 29.34 ['6', '31', '38', '39', '34'] 1466.999999999999
115 29.34 ['6', '31', '38', '39', '34'] 1466.999999999999
116 29.34 ['6', '31', '38', '39', '34'] 1466.999999999999
117 29.34 ['6', '31', '38', '39', '34'] 1466.999999999999
118 29.34 ['6', '31', '38', '39', '34'] 1466.999999999999
119 29.34 ['6', '31', '38', '39', '34'] 1466.999999999999
120 29.34 ['6', '31', '38', '39', '34'] 1466.999999999999
121 29.34 ['6', '31', '38', '39', '34'] 1466.999999999999
122 29.34 ['6', '31', '38', '39', '34'] 1466.999999999999
123 29.34 ['6', '31', '38', '39', '34'] 1466.999999999999
124 29.34 ['6', '31', '38', '39', '34'] 1466.999999999999
125 29.34 ['6', '31', '38', '39', '34'] 1466.999999999999
126 29.34 ['6', '31', '38', '39', '34'] 1466.999999999999
127 29.34 ['6', '31', '38', '39', '34'] 1466.999999999999
128 29.34 ['6', '31', '38', '39', '34'] 1466.999999999999
129 29.34 ['6', '31', '38', '39', '34'] 1466.999999999999
130 29.34 ['6', '31', '38', '39', '34'] 1466.999999999999
131 29.34 ['6', '31', '38', '39', '34'] 1466.999999999999
132 29.34 ['6', '31', '38', '39', '34'] 1466.999999999999
133 29.34 ['6', '31', '38', '39', '34'] 1466.999999999999
134 29.34 ['6', '31', '38', '39', '34'] 1466.999999999999
135 29.34 ['6', '31', '38', '39', '34'] 1466.999999999999
136 29.34 ['6', '31', '38', '39', '34'] 1466.999999999999
137 29.34 ['6', '31', '38', '39', '34'] 1466.999999999999
138 29.34 ['6', '31', '38', '39', '34'] 1466.999999999999
139 29.34 ['6', '31', '38', '39', '34'] 1466.999999999999
140 29.34 ['6', '31', '38', '39', '34'] 1466.999999999999
141 29.34 ['6', '31', '38', '39', '34'] 1466.999999999999
142 29.34 ['6', '31', '38', '39', '34'] 1466.999999999999
143 29.34 ['6', '31', '38', '39', '34'] 1466.999999999999
144 29.34 ['6', '31', '38', '39', '34'] 1466.999999999999
145 29.34 ['6', '31', '38', '39', '34'] 1466.999999999999
146 29.34 ['6', '31', '38', '39', '34'] 1466.999999999999
147 29.34 ['6', '31', '38', '39', '34'] 1466.999999999999
148 29.34 ['6', '31', '38', '39', '34'] 1466.999999999999
149 29.34 ['6', '31', '38', '39', '34'] 1466.999999999999
150 29.34 ['6', '31', '38', '39', '34'] 1466.999999999999
151 29.34 ['6', '31', '38', '39', '34'] 1466.999999999999
152 29.34 ['6', '31', '38', '39', '34'] 1466.999999999999
153 29.34 ['6', '31', '38', '39', '34'] 1466.999999999999
154 29.34 ['6', '31', '38', '39', '34'] 1466.999999999999
155 29.34 ['6', '31', '38', '39', '34'] 1466.999999999999
156 29.34 ['6', '31', '38', '39', '34'] 1466.999999999999
157 29.34 ['6', '31', '38', '39', '34'] 1466.999999999999
158 29.34 ['6', '31', '38', '39', '34'] 1466.999999999999
159 29.34 ['6', '31', '38', '39', '34'] 1466.999999999999
160 29.34 ['6', '31', '38', '39', '34'] 1466.999999999999
161 29.34 ['6', '31', '38', '39', '34'] 1466.999999999999
162 29.34 ['6', '31', '38', '39', '34'] 1466.999999999999
163 29.34 ['6', '31', '38', '39', '34'] 1466.999999999999
164 29.34 ['6', '31', '38', '39', '34'] 1466.999999999999
165 29.34 ['6', '31', '38', '39', '34'] 1466.999999999999
166 29.34 ['6', '31', '38', '39', '34'] 1466.999999999999
167 29.34 ['6', '31', '38', '39', '34'] 1466.999999999999
168 29.34 ['6', '31', '38', '39', '34'] 1466.999999999999
169 29.34 ['6', '31', '38', '39', '34'] 1466.999999999999
170 29.34 ['6', '31', '38', '39', '34'] 1466.999999999999
171 29.34 ['6', '31', '38', '39', '34'] 1466.999999999999
172 29.34 ['6', '31', '38', '39', '34'] 1466.999999999999
173 29.34 ['6', '31', '38', '39', '34'] 1466.999999999999
174 29.34 ['6', '31', '38', '39', '34'] 1466.999999999999
175 29.34 ['6', '31', '38', '39', '34'] 1466.999999999999
176 29.34 ['6', '31', '38', '39', '34'] 1466.999999999999
177 29.34 ['6', '31', '38', '39', '34'] 1466.999999999999
178 29.34 ['6', '31', '38', '39', '34'] 1466.999999999999
179 29.34 ['6', '31', '38', '39', '34'] 1466.999999999999
180 29.34 ['6', '31', '38', '39', '34'] 1466.999999999999
181 29.34 ['6', '31', '38', '39', '34'] 1466.999999999999
182 29.34 ['6', '31', '38', '39', '34'] 1466.999999999999
183 29.34 ['6', '31', '38', '39', '34'] 1466.999999999999
184 29.34 ['6', '31', '38', '39', '34'] 1466.999999999999
185 29.34 ['6', '31', '38', '39', '34'] 1466.999999999999
186 29.34 ['6', '31', '38', '39', '34'] 1466.999999999999
187 29.34 ['6', '31', '38', '39', '34'] 1466.999999999999
188 29.34 ['6', '31', '38', '39', '34'] 1466.999999999999
189 29.34 ['6', '31', '38', '39', '34'] 1466.999999999999
190 29.34 ['6', '31', '38', '39', '34'] 1466.999999999999
191 29.34 ['6', '31', '38', '39', '34'] 1466.999999999999
192 29.34 ['6', '31', '38', '39', '34'] 1466.999999999999
193 29.34 ['6', '31', '38', '39', '34'] 1466.999999999999
194 29.34 ['6', '31', '38', '39', '34'] 1466.999999999999
195 29.34 ['6', '31', '38', '39', '34'] 1466.999999999999
196 29.34 ['6', '31', '38', '39', '34'] 1466.999999999999
197 29.34 ['6', '31', '38', '39', '34'] 1466.999999999999
198 29.34 ['6', '31', '38', '39', '34'] 1466.999999999999
199 29.34 ['6', '31', '38', '39', '34'] 1466.999999999999
