0 6.0 ['16', '22'] 314.48148148148175
1 5.962962962962963 ['29', '22'] 308.3333333333335
2 5.962962962962963 ['29', '22'] 304.2222222222221
3 5.962962962962963 ['29', '22'] 301.14814814814815
4 5.962962962962963 ['29', '22'] 299.59259259259244
5 5.962962962962963 ['29', '22'] 298.85185185185185
6 5.962962962962963 ['29', '22'] 298.1481481481483
7 5.962962962962963 ['29', '22'] 298.1481481481483
8 5.962962962962963 ['29', '22'] 298.1481481481483
9 5.962962962962963 ['29', '22'] 298.1481481481483
10 5.962962962962963 ['29', '22'] 298.1481481481483
11 5.962962962962963 ['29', '22'] 298.1481481481483
12 5.962962962962963 ['29', '22'] 298.1481481481483
13 5.962962962962963 ['29', '22'] 298.1481481481483
14 5.962962962962963 ['29', '22'] 298.1481481481483
15 5.962962962962963 ['29', '22'] 298.1481481481483
16 5.962962962962963 ['29', '22'] 298.1481481481483
17 5.962962962962963 ['29', '22'] 298.1481481481483
18 5.962962962962963 ['29', '22'] 298.1481481481483
19 5.962962962962963 ['29', '22'] 298.1481481481483
20 5.962962962962963 ['29', '22'] 298.1481481481483
21 5.962962962962963 ['29', '22'] 298.1481481481483
22 5.962962962962963 ['29', '22'] 298.1481481481483
23 5.962962962962963 ['29', '22'] 298.1481481481483
24 5.962962962962963 ['29', '22'] 298.1481481481483
25 5.962962962962963 ['29', '22'] 298.1481481481483
26 5.962962962962963 ['29', '22'] 298.1481481481483
27 5.962962962962963 ['29', '22'] 298.1481481481483
28 5.962962962962963 ['29', '22'] 298.1481481481483
29 5.962962962962963 ['29', '22'] 298.1481481481483
30 5.962962962962963 ['29', '22'] 298.1481481481483
31 5.962962962962963 ['29', '22'] 298.1481481481483
32 5.962962962962963 ['29', '22'] 298.1481481481483
33 5.962962962962963 ['29', '22'] 298.1481481481483
34 5.962962962962963 ['29', '22'] 298.1481481481483
35 5.962962962962963 ['29', '22'] 298.1481481481483
36 5.962962962962963 ['29', '22'] 298.1481481481483
37 5.962962962962963 ['29', '22'] 298.1481481481483
38 5.962962962962963 ['29', '22'] 298.1481481481483
39 5.962962962962963 ['29', '22'] 298.1481481481483
40 5.962962962962963 ['29', '22'] 298.1481481481483
41 5.962962962962963 ['29', '22'] 298.1481481481483
42 5.962962962962963 ['29', '22'] 298.1481481481483
43 5.962962962962963 ['29', '22'] 298.1481481481483
44 5.962962962962963 ['29', '22'] 298.1481481481483
45 5.962962962962963 ['29', '22'] 298.1481481481483
46 5.962962962962963 ['29', '22'] 298.1481481481483
47 5.962962962962963 ['29', '22'] 298.1481481481483
48 5.962962962962963 ['29', '22'] 298.1481481481483
49 5.962962962962963 ['29', '22'] 298.1481481481483
50 5.962962962962963 ['29', '22'] 298.1481481481483
51 5.962962962962963 ['29', '22'] 298.1481481481483
52 5.962962962962963 ['29', '22'] 298.1481481481483
53 5.962962962962963 ['29', '22'] 298.1481481481483
54 5.962962962962963 ['29', '22'] 298.1481481481483
55 5.962962962962963 ['29', '22'] 298.1481481481483
56 5.962962962962963 ['29', '22'] 298.1481481481483
57 5.962962962962963 ['29', '22'] 298.1481481481483
58 5.962962962962963 ['29', '22'] 298.1481481481483
59 5.962962962962963 ['29', '22'] 298.1481481481483
60 5.962962962962963 ['29', '22'] 298.1481481481483
61 5.962962962962963 ['29', '22'] 298.1481481481483
62 5.962962962962963 ['29', '22'] 298.1481481481483
63 5.962962962962963 ['29', '22'] 298.1481481481483
64 5.962962962962963 ['29', '22'] 298.1481481481483
65 5.962962962962963 ['29', '22'] 298.1481481481483
66 5.962962962962963 ['29', '22'] 298.1481481481483
67 5.962962962962963 ['29', '22'] 298.1481481481483
68 5.962962962962963 ['29', '22'] 298.1481481481483
69 5.962962962962963 ['29', '22'] 298.1481481481483
70 5.962962962962963 ['29', '22'] 298.1481481481483
71 5.962962962962963 ['29', '22'] 298.1481481481483
72 5.962962962962963 ['29', '22'] 298.1481481481483
73 5.962962962962963 ['29', '22'] 298.1481481481483
74 5.962962962962963 ['29', '22'] 298.1481481481483
75 5.962962962962963 ['29', '22'] 298.1481481481483
76 5.962962962962963 ['29', '22'] 298.1481481481483
77 5.962962962962963 ['29', '22'] 298.1481481481483
78 5.962962962962963 ['29', '22'] 298.1481481481483
79 5.962962962962963 ['29', '22'] 298.1481481481483
80 5.962962962962963 ['29', '22'] 298.1481481481483
81 5.962962962962963 ['29', '22'] 298.1481481481483
82 5.962962962962963 ['29', '22'] 298.1481481481483
83 5.962962962962963 ['29', '22'] 298.1481481481483
84 5.962962962962963 ['29', '22'] 298.1481481481483
85 5.962962962962963 ['29', '22'] 298.1481481481483
86 5.962962962962963 ['29', '22'] 298.1481481481483
87 5.962962962962963 ['29', '22'] 298.1481481481483
88 5.962962962962963 ['29', '22'] 298.1481481481483
89 5.962962962962963 ['29', '22'] 298.1481481481483
90 5.962962962962963 ['29', '22'] 298.1481481481483
91 5.962962962962963 ['29', '22'] 298.1481481481483
92 5.962962962962963 ['29', '22'] 298.1481481481483
93 5.962962962962963 ['29', '22'] 298.1481481481483
94 5.962962962962963 ['29', '22'] 298.1481481481483
95 5.962962962962963 ['29', '22'] 298.1481481481483
96 5.962962962962963 ['29', '22'] 298.1481481481483
97 5.962962962962963 ['29', '22'] 298.1481481481483
98 5.962962962962963 ['29', '22'] 298.1481481481483
99 5.962962962962963 ['29', '22'] 298.1481481481483
100 5.962962962962963 ['29', '22'] 298.1481481481483
101 5.962962962962963 ['29', '22'] 298.1481481481483
102 5.962962962962963 ['29', '22'] 298.1481481481483
103 5.962962962962963 ['29', '22'] 298.1481481481483
104 5.962962962962963 ['29', '22'] 298.1481481481483
105 5.962962962962963 ['29', '22'] 298.1481481481483
106 5.962962962962963 ['29', '22'] 298.1481481481483
107 5.962962962962963 ['29', '22'] 298.1481481481483
108 5.962962962962963 ['29', '22'] 298.1481481481483
109 5.962962962962963 ['29', '22'] 298.1481481481483
110 5.962962962962963 ['29', '22'] 298.1481481481483
111 5.962962962962963 ['29', '22'] 298.1481481481483
112 5.962962962962963 ['29', '22'] 298.1481481481483
113 5.962962962962963 ['29', '22'] 298.1481481481483
114 5.962962962962963 ['29', '22'] 298.1481481481483
115 5.962962962962963 ['29', '22'] 298.1481481481483
116 5.962962962962963 ['29', '22'] 298.1481481481483
117 5.962962962962963 ['29', '22'] 298.1481481481483
118 5.962962962962963 ['29', '22'] 298.1481481481483
119 5.962962962962963 ['29', '22'] 298.1481481481483
120 5.962962962962963 ['29', '22'] 298.1481481481483
121 5.962962962962963 ['29', '22'] 298.1481481481483
122 5.962962962962963 ['29', '22'] 298.1481481481483
123 5.962962962962963 ['29', '22'] 298.1481481481483
124 5.962962962962963 ['29', '22'] 298.1481481481483
125 5.962962962962963 ['29', '22'] 298.1481481481483
126 5.962962962962963 ['29', '22'] 298.1481481481483
127 5.962962962962963 ['29', '22'] 298.1481481481483
128 5.962962962962963 ['29', '22'] 298.1481481481483
129 5.962962962962963 ['29', '22'] 298.1481481481483
130 5.962962962962963 ['29', '22'] 298.1481481481483
131 5.962962962962963 ['29', '22'] 298.1481481481483
132 5.962962962962963 ['29', '22'] 298.1481481481483
133 5.962962962962963 ['29', '22'] 298.1481481481483
134 5.962962962962963 ['29', '22'] 298.1481481481483
135 5.962962962962963 ['29', '22'] 298.1481481481483
136 5.962962962962963 ['29', '22'] 298.1481481481483
137 5.962962962962963 ['29', '22'] 298.1481481481483
138 5.962962962962963 ['29', '22'] 298.1481481481483
139 5.962962962962963 ['29', '22'] 298.1481481481483
140 5.962962962962963 ['29', '22'] 298.1481481481483
141 5.962962962962963 ['29', '22'] 298.1481481481483
142 5.962962962962963 ['29', '22'] 298.1481481481483
143 5.962962962962963 ['29', '22'] 298.1481481481483
144 5.962962962962963 ['29', '22'] 298.1481481481483
145 5.962962962962963 ['29', '22'] 298.1481481481483
146 5.962962962962963 ['29', '22'] 298.1481481481483
147 5.962962962962963 ['29', '22'] 298.1481481481483
148 5.962962962962963 ['29', '22'] 298.1481481481483
149 5.962962962962963 ['29', '22'] 298.1481481481483
150 5.962962962962963 ['29', '22'] 298.1481481481483
151 5.962962962962963 ['29', '22'] 298.1481481481483
152 5.962962962962963 ['29', '22'] 298.1481481481483
153 5.962962962962963 ['29', '22'] 298.1481481481483
154 5.962962962962963 ['29', '22'] 298.1481481481483
155 5.962962962962963 ['29', '22'] 298.1481481481483
156 5.962962962962963 ['29', '22'] 298.1481481481483
157 5.962962962962963 ['29', '22'] 298.1481481481483
158 5.962962962962963 ['29', '22'] 298.1481481481483
159 5.962962962962963 ['29', '22'] 298.1481481481483
160 5.962962962962963 ['29', '22'] 298.1481481481483
161 5.962962962962963 ['29', '22'] 298.1481481481483
162 5.962962962962963 ['29', '22'] 298.1481481481483
163 5.962962962962963 ['29', '22'] 298.1481481481483
164 5.962962962962963 ['29', '22'] 298.1481481481483
165 5.962962962962963 ['29', '22'] 298.1481481481483
166 5.962962962962963 ['29', '22'] 298.1481481481483
167 5.962962962962963 ['29', '22'] 298.1481481481483
168 5.962962962962963 ['29', '22'] 298.1481481481483
169 5.962962962962963 ['29', '22'] 298.1481481481483
170 5.962962962962963 ['29', '22'] 298.1481481481483
171 5.962962962962963 ['29', '22'] 298.1481481481483
172 5.962962962962963 ['29', '22'] 298.1481481481483
173 5.962962962962963 ['29', '22'] 298.1481481481483
174 5.962962962962963 ['29', '22'] 298.1481481481483
175 5.962962962962963 ['29', '22'] 298.1481481481483
176 5.962962962962963 ['29', '22'] 298.1481481481483
177 5.962962962962963 ['29', '22'] 298.1481481481483
178 5.962962962962963 ['29', '22'] 298.1481481481483
179 5.962962962962963 ['29', '22'] 298.1481481481483
180 5.962962962962963 ['29', '22'] 298.1481481481483
181 5.962962962962963 ['29', '22'] 298.1481481481483
182 5.962962962962963 ['29', '22'] 298.1481481481483
183 5.962962962962963 ['29', '22'] 298.1481481481483
184 5.962962962962963 ['29', '22'] 298.1481481481483
185 5.962962962962963 ['29', '22'] 298.1481481481483
186 5.962962962962963 ['29', '22'] 298.1481481481483
187 5.962962962962963 ['29', '22'] 298.1481481481483
188 5.962962962962963 ['29', '22'] 298.1481481481483
189 5.962962962962963 ['29', '22'] 298.1481481481483
190 5.962962962962963 ['29', '22'] 298.1481481481483
191 5.962962962962963 ['29', '22'] 298.1481481481483
192 5.962962962962963 ['29', '22'] 298.1481481481483
193 5.962962962962963 ['29', '22'] 298.1481481481483
194 5.962962962962963 ['29', '22'] 298.1481481481483
195 5.962962962962963 ['29', '22'] 298.1481481481483
196 5.962962962962963 ['29', '22'] 298.1481481481483
197 5.962962962962963 ['29', '22'] 298.1481481481483
198 5.962962962962963 ['29', '22'] 298.1481481481483
199 5.962962962962963 ['29', '22'] 298.1481481481483
